{
  "_class": "group",
  "booleanOperation": 0,
  "clippingMaskMode": 0,
  "do_objectID": "E094AE7D-14A0-415C-85D5-AD1BA4DBD07A",
  "exportOptions": {
    "_class": "exportOptions",
    "do_objectID": "578D3E39-34D8-496F-B4D6-7568277412C2",
    "exportFormats": [
    ],
    "includedLayerIds": [
    ],
    "layerOptions": 0,
    "shouldTrim": false
  },
  "frame": {
    "_class": "rect",
    "constrainProportions": false,
    "do_objectID": "AED604B4-32EB-478E-A09B-DB35D0824E07",
    "height": 301,
    "width": 60,
    "x": 117,
    "y": 170
  },
  "groupLayout": {
    "_class": "MSImmutableFreeformGroupLayout",
    "do_objectID": "7C6477A2-3675-46F0-9AD2-004E98A9E4D5"
  },
  "hasClickThrough": false,
  "hasClippingMask": false,
  "isFixedToViewport": false,
  "isFlippedHorizontal": false,
  "isFlippedVertical": false,
  "isLocked": false,
  "isVisible": true,
  "layerListExpandedType": 2,
  "layers": [
    {
      "class": "group",
      "id": "4817F7D7-7610-4490-BBBE-8B6806CC135D"
    }
  ],
  "name": "Group 13",
  "nameIsFixed": false,
  "resizingConstraint": 63,
  "resizingType": 0,
  "rotation": 0,
  "shouldBreakMaskChain": false,
  "style": {
    "_class": "style",
    "do_objectID": "84E7770E-473C-46F5-AEB6-760DEF0A9250",
    "endMarkerType": 0,
    "miterLimit": 10,
    "startMarkerType": 0,
    "windingRule": 1
  }
}