{
  "_class": "group",
  "booleanOperation": 0,
  "clippingMaskMode": 0,
  "do_objectID": "03AEC503-64DC-4B8D-B7D4-6ED2EB7984B5",
  "exportOptions": {
    "_class": "exportOptions",
    "do_objectID": "EA16AC89-65C9-4E30-926F-58F6048EB9EE",
    "exportFormats": [
    ],
    "includedLayerIds": [
    ],
    "layerOptions": 0,
    "shouldTrim": false
  },
  "frame": {
    "_class": "rect",
    "constrainProportions": true,
    "do_objectID": "38FFF9D7-706B-4F7C-B4AB-0289E2644C01",
    "height": 24,
    "width": 25,
    "x": 18,
    "y": 18
  },
  "groupLayout": {
    "_class": "MSImmutableFreeformGroupLayout",
    "do_objectID": "F3904259-5C76-45E3-B073-1920181186EC"
  },
  "hasClickThrough": false,
  "hasClippingMask": false,
  "isFixedToViewport": false,
  "isFlippedHorizontal": false,
  "isFlippedVertical": false,
  "isLocked": false,
  "isVisible": true,
  "layerListExpandedType": 0,
  "layers": [
    {
      "class": "shapeGroup",
      "id": "CBB4B1B4-C2BB-4509-995E-BBC5B088D9D3"
    },
    {
      "class": "shapePath",
      "id": "8D886B32-099C-4617-A671-A367A9FA9206"
    },
    {
      "class": "oval",
      "id": "AE1643C4-F993-4C16-8DBB-D0AD1513D790"
    },
    {
      "class": "oval",
      "id": "C765A717-E67F-4AE2-9C59-C6BB0178345F"
    },
    {
      "class": "oval",
      "id": "3E17D76C-021F-425B-9B2B-11640456589C"
    }
  ],
  "name": "telephone",
  "nameIsFixed": false,
  "resizingConstraint": 63,
  "resizingType": 0,
  "rotation": 0,
  "shouldBreakMaskChain": false,
  "style": {
    "_class": "style",
    "do_objectID": "7BD5C251-5717-438C-90A8-AA9FD3480372",
    "endMarkerType": 0,
    "miterLimit": 10,
    "startMarkerType": 0,
    "windingRule": 1
  }
}