{
  "_class": "group",
  "booleanOperation": 0,
  "clippingMaskMode": 0,
  "do_objectID": "704ED70C-08B3-4ADB-A2C8-EFC7C46409E5",
  "exportOptions": {
    "_class": "exportOptions",
    "exportFormats": [
    ],
    "includedLayerIds": [
    ],
    "layerOptions": 0,
    "shouldTrim": false
  },
  "frame": {
    "_class": "rect",
    "constrainProportions": true,
    "height": 15,
    "width": 15,
    "x": 251,
    "y": 836
  },
  "groupLayout": {
    "_class": "MSImmutableFreeformGroupLayout"
  },
  "hasClickThrough": false,
  "hasClippingMask": false,
  "isFixedToViewport": false,
  "isFlippedHorizontal": false,
  "isFlippedVertical": false,
  "isLocked": false,
  "isVisible": true,
  "layerListExpandedType": 2,
  "layers": [
    {
      "class": "shapePath",
      "id": "A13C106F-6F44-4C42-ABB0-52A4C2D1B4DB"
    },
    {
      "class": "shapePath",
      "id": "33E2B2D8-DB39-4ABC-9C59-BB1C02A1C8D4"
    },
    {
      "class": "shapePath",
      "id": "1FA5B95C-D82A-4AC0-9BA2-189D2821E5A3"
    },
    {
      "class": "shapePath",
      "id": "3D543ACE-73BD-4F60-8B2B-10B16DF37C9D"
    },
    {
      "class": "shapePath",
      "id": "823FB4E1-067F-4100-8827-B459C3613F48"
    },
    {
      "class": "shapePath",
      "id": "BAC0AE60-5954-42AD-BFBA-68D757A96C12"
    }
  ],
  "maintainScrollPosition": false,
  "name": "Group",
  "nameIsFixed": false,
  "resizingConstraint": 45,
  "resizingType": 0,
  "rotation": 0,
  "shouldBreakMaskChain": false,
  "style": {
    "_class": "style",
    "blur": {
      "_class": "blur",
      "center": "{0.5, 0.5}",
      "isEnabled": false,
      "motionAngle": 0,
      "radius": 10,
      "saturation": 1,
      "type": 0
    },
    "borderOptions": {
      "_class": "borderOptions",
      "dashPattern": [
      ],
      "isEnabled": true,
      "lineCapStyle": 0,
      "lineJoinStyle": 0
    },
    "borders": [
    ],
    "colorControls": {
      "_class": "colorControls",
      "brightness": 0,
      "contrast": 1,
      "hue": 0,
      "isEnabled": true,
      "saturation": 1
    },
    "contextSettings": {
      "_class": "graphicsContextSettings",
      "blendMode": 0,
      "opacity": 1
    },
    "do_objectID": "C7D34642-5706-4F31-A9A7-BABC3854189D",
    "endMarkerType": 0,
    "fills": [
    ],
    "innerShadows": [
    ],
    "miterLimit": 10,
    "shadows": [
    ],
    "startMarkerType": 0,
    "windingRule": 1
  },
  "userInfo": {
    "com.animaapp.stc-sketch-plugin": {
      "kModelPropertiesKey": {
        "constraints": {
          "aspectRatio": {
            "constant": 11,
            "enabled": 1,
            "modelID": "constraint_806881b1-e97e-4a28-ace9-046f4c291640",
            "model_class": "ADModelConstraint",
            "model_version": 0,
            "multiplier": 11
          },
          "automatic": 1,
          "modelID": "viewConstraints_f7eb216f-5d1b-4ca4-856f-56108703a9c3",
          "model_class": "ADModelViewConstraints",
          "model_version": 0,
          "scaleFactor": 1
        }
      }
    }
  }
}