{
  "_class": "group",
  "booleanOperation": 0,
  "clippingMaskMode": 0,
  "do_objectID": "E0620919-EED9-4C20-A7F7-8F83C8FA6C3C",
  "exportOptions": {
    "_class": "exportOptions",
    "do_objectID": "64558DED-C8EF-4413-9814-226CAF6C9EF8",
    "exportFormats": [
    ],
    "includedLayerIds": [
    ],
    "layerOptions": 0,
    "shouldTrim": false
  },
  "frame": {
    "_class": "rect",
    "constrainProportions": true,
    "do_objectID": "93CD173B-A499-4F19-AAA9-EEB7203238EB",
    "height": 10,
    "width": 20,
    "x": 1136,
    "y": 411
  },
  "groupLayout": {
    "_class": "MSImmutableFreeformGroupLayout",
    "do_objectID": "0C8B7C19-70A6-4C91-9A5D-9437F6978A69"
  },
  "hasClickThrough": false,
  "hasClippingMask": false,
  "isFixedToViewport": false,
  "isFlippedHorizontal": false,
  "isFlippedVertical": false,
  "isLocked": false,
  "isVisible": true,
  "layerListExpandedType": 0,
  "layers": [
    {
      "class": "shapeGroup",
      "id": "D1182FC9-F942-4082-88B0-4DC3BE861871"
    },
    {
      "class": "group",
      "id": "DDC62515-60B5-473F-8363-AB810DC675BA"
    }
  ],
  "name": "ruler",
  "nameIsFixed": false,
  "resizingConstraint": 63,
  "resizingType": 0,
  "rotation": 0,
  "shouldBreakMaskChain": false,
  "style": {
    "_class": "style",
    "do_objectID": "8C0E8864-8AEC-4EC3-9B59-B5E0089519EE",
    "endMarkerType": 0,
    "miterLimit": 10,
    "startMarkerType": 0,
    "windingRule": 1
  }
}