{
  "_class": "group",
  "booleanOperation": -1,
  "clippingMaskMode": 0,
  "do_objectID": "01B3E0B8-5833-4566-85FB-01C0B79FA562",
  "exportOptions": {
    "_class": "exportOptions",
    "do_objectID": "EF37432C-0F1F-4C04-9AF2-140093661399",
    "exportFormats": [
    ],
    "includedLayerIds": [
    ],
    "layerOptions": 0,
    "shouldTrim": false
  },
  "frame": {
    "_class": "rect",
    "constrainProportions": false,
    "do_objectID": "98A43227-56EE-4FFE-A462-D99A4D69665A",
    "height": 103,
    "width": 319,
    "x": 641,
    "y": 0
  },
  "groupLayout": {
    "_class": "MSImmutableFreeformGroupLayout",
    "do_objectID": "BBF1B7DC-BC24-4563-A628-88A958FC072A"
  },
  "hasClickThrough": false,
  "hasClippingMask": false,
  "isFixedToViewport": false,
  "isFlippedHorizontal": false,
  "isFlippedVertical": false,
  "isLocked": false,
  "isVisible": true,
  "layerListExpandedType": 0,
  "layers": [
    {
      "class": "rectangle",
      "id": "577EFE15-D07B-41B9-92D8-CD43CB06490D"
    },
    {
      "class": "text",
      "id": "D5456E60-36B7-4C32-A774-9C82275F81EE"
    },
    {
      "class": "rectangle",
      "id": "A2670594-F24E-491E-B84D-9C55A31DB83F"
    }
  ],
  "name": "value",
  "nameIsFixed": true,
  "resizingConstraint": 63,
  "resizingType": 0,
  "rotation": 0,
  "shouldBreakMaskChain": false,
  "style": {
    "_class": "style",
    "do_objectID": "1D3579D6-4ED0-4CEC-8EBA-4F453274FC28",
    "endMarkerType": 0,
    "miterLimit": 10,
    "startMarkerType": 0,
    "windingRule": 1
  }
}