{
  "_class": "shapePath",
  "booleanOperation": -1,
  "clippingMaskMode": 0,
  "do_objectID": "1BD9830E-7198-49CD-A59F-D296FB393787",
  "edited": true,
  "exportOptions": {
    "_class": "exportOptions",
    "exportFormats": [
    ],
    "includedLayerIds": [
    ],
    "layerOptions": 0,
    "shouldTrim": false
  },
  "frame": {
    "_class": "rect",
    "constrainProportions": false,
    "height": 3.718767123287668,
    "width": 1.28821666309932,
    "x": 9.747338278574478,
    "y": 3.760000000000001
  },
  "hasClippingMask": false,
  "isClosed": true,
  "isFixedToViewport": false,
  "isFlippedHorizontal": false,
  "isFlippedVertical": false,
  "isLocked": false,
  "isVisible": true,
  "layerListExpandedType": 0,
  "name": "Path",
  "nameIsFixed": false,
  "pointRadiusBehaviour": 1,
  "points": [
    {
      "_class": "curvePoint",
      "cornerRadius": 0,
      "curveFrom": "{5.8456827294125608e-15, 0.073083581979592943}",
      "curveMode": 4,
      "curveTo": "{5.8456827294125608e-15, 0.10395255461008596}",
      "hasCurveFrom": true,
      "hasCurveTo": false,
      "point": "{5.8456827294125608e-15, 0.10395255461008596}"
    },
    {
      "_class": "curvePoint",
      "cornerRadius": 0,
      "curveFrom": "{0.2237762237762273, 0.00939330312741723}",
      "curveMode": 2,
      "curveTo": "{0.044940353763890023, 0.048292629019781465}",
      "hasCurveFrom": true,
      "hasCurveTo": true,
      "point": "{0.13389551624846185, 0.028511437727925779}"
    },
    {
      "_class": "curvePoint",
      "cornerRadius": 0,
      "curveFrom": "{0.63759769642122743, 0}",
      "curveMode": 3,
      "curveTo": "{0.33988070752776833, 0}",
      "hasCurveFrom": true,
      "hasCurveTo": true,
      "point": "{0.48220896750308795, 0}"
    },
    {
      "_class": "curvePoint",
      "cornerRadius": 0,
      "curveFrom": "{0.95320855614973443, 0.048292629019781465}",
      "curveMode": 2,
      "curveTo": "{0.76306046894282276, 0.00939330312741723}",
      "hasCurveFrom": true,
      "hasCurveTo": true,
      "point": "{0.85767174002468327, 0.028511437727925779}"
    },
    {
      "_class": "curvePoint",
      "cornerRadius": 0,
      "curveFrom": "{1, 0.10395255461008596}",
      "curveMode": 4,
      "curveTo": "{1, 0.073120418462445214}",
      "hasCurveFrom": false,
      "hasCurveTo": true,
      "point": "{1, 0.10395255461008596}"
    },
    {
      "_class": "curvePoint",
      "cornerRadius": 0,
      "curveFrom": "{1, 0.91549710833609621}",
      "curveMode": 4,
      "curveTo": "{1, 0.87726083913507957}",
      "hasCurveFrom": true,
      "hasCurveTo": false,
      "point": "{1, 0.87726083913507957}"
    },
    {
      "_class": "curvePoint",
      "cornerRadius": 0,
      "curveFrom": "{0.76593994241053065, 0.98894905514421494}",
      "curveMode": 2,
      "curveTo": "{0.95320855614973155, 0.94566618779238976}",
      "hasCurveFrom": true,
      "hasCurveTo": true,
      "point": "{0.85952283011106467, 0.96747338564113916}"
    },
    {
      "_class": "curvePoint",
      "cornerRadius": 0,
      "curveFrom": "{0.32774578362813622, 1}",
      "curveMode": 2,
      "curveTo": "{0.64047716988893533, 1}",
      "hasCurveFrom": true,
      "hasCurveTo": true,
      "point": "{0.48220896750308506, 1}"
    },
    {
      "_class": "curvePoint",
      "cornerRadius": 0,
      "curveFrom": "{0.04216371863430924, 0.94666077282941052}",
      "curveMode": 2,
      "curveTo": "{0.20793911970382664, 0.98961211183556208}",
      "hasCurveFrom": true,
      "hasCurveTo": true,
      "point": "{0.12453722747840466, 0.96780491398681268}"
    },
    {
      "_class": "curvePoint",
      "cornerRadius": 0,
      "curveFrom": "{0, 0.87726083913507957}",
      "curveMode": 4,
      "curveTo": "{0, 0.91649169337311687}",
      "hasCurveFrom": false,
      "hasCurveTo": true,
      "point": "{0, 0.87726083913507957}"
    },
    {
      "_class": "curvePoint",
      "cornerRadius": 0,
      "curveFrom": "{0, 0.10395255461008596}",
      "curveMode": 1,
      "curveTo": "{0, 0.10395255461008596}",
      "hasCurveFrom": false,
      "hasCurveTo": false,
      "point": "{0, 0.10395255461008596}"
    }
  ],
  "resizingConstraint": 63,
  "resizingType": 0,
  "rotation": 0,
  "shouldBreakMaskChain": false,
  "style": {
    "_class": "style",
    "endMarkerType": 0,
    "fills": [
      {
        "_class": "fill",
        "color": {
          "_class": "color",
          "alpha": 1,
          "blue": 1,
          "green": 1,
          "red": 1
        },
        "fillType": 0,
        "isEnabled": true,
        "noiseIndex": 0,
        "noiseIntensity": 0,
        "patternFillType": 1,
        "patternTileScale": 1
      }
    ],
    "miterLimit": 10,
    "startMarkerType": 0,
    "windingRule": 0
  }
}