{
  "_class": "group",
  "booleanOperation": -1,
  "clippingMaskMode": 0,
  "do_objectID": "7488EF26-D0C4-4C0E-818E-E8F0001D399E",
  "exportOptions": {
    "_class": "exportOptions",
    "do_objectID": "6D49DCC2-B066-47BA-B4B0-62F83643D06D",
    "exportFormats": [
    ],
    "includedLayerIds": [
    ],
    "layerOptions": 0,
    "shouldTrim": false
  },
  "frame": {
    "_class": "rect",
    "constrainProportions": false,
    "do_objectID": "26BD65C7-CD68-43AE-9966-E4B30FE7E149",
    "height": 506,
    "width": 640,
    "x": 0,
    "y": 78
  },
  "groupLayout": {
    "_class": "MSImmutableFreeformGroupLayout"
  },
  "hasClickThrough": false,
  "hasClippingMask": false,
  "isFixedToViewport": false,
  "isFlippedHorizontal": false,
  "isFlippedVertical": false,
  "isLocked": false,
  "isVisible": true,
  "layerListExpandedType": 1,
  "layers": [
    {
      "class": "group",
      "id": "AA09A988-DF71-4DF7-9681-DA9DA9498ACF"
    },
    {
      "class": "group",
      "id": "63F22774-D7B7-4DE7-8996-D8637D9EE90A"
    },
    {
      "class": "group",
      "id": "6158C4B2-D7A9-49C1-9FA7-EAA2AFA5AAD7"
    },
    {
      "class": "group",
      "id": "8C982F64-DA6E-48D8-903C-711A34F40049"
    },
    {
      "class": "group",
      "id": "3580A7BB-E0EF-4269-8E13-EC458030181B"
    },
    {
      "class": "group",
      "id": "091580F6-833C-48C9-BF78-D7B4AC384435"
    },
    {
      "class": "group",
      "id": "1E32A4C7-436F-4571-97EB-C393C19B46BE"
    },
    {
      "class": "group",
      "id": "C25D785D-A4CD-4623-8C28-9804807AEDCB"
    },
    {
      "class": "group",
      "id": "ACAE12DF-F6EF-4D81-A423-1847AFB4E628"
    }
  ],
  "name": "List",
  "nameIsFixed": true,
  "resizingConstraint": 63,
  "resizingType": 0,
  "rotation": 0,
  "shouldBreakMaskChain": false,
  "style": {
    "_class": "style",
    "do_objectID": "2E8BC7FE-50F6-4C6B-B367-FEAAAFECDFF8",
    "endMarkerType": 0,
    "miterLimit": 10,
    "startMarkerType": 0,
    "windingRule": 1
  }
}