{
  "_class": "shapePath",
  "booleanOperation": -1,
  "clippingMaskMode": 0,
  "do_objectID": "80641116-1E45-470B-9D4D-B193F737CAFF",
  "edited": true,
  "exportOptions": {
    "_class": "exportOptions",
    "do_objectID": "2687269F-8B29-4023-97B3-315CA1E9FAA4",
    "exportFormats": [
    ],
    "includedLayerIds": [
    ],
    "layerOptions": 0,
    "shouldTrim": false
  },
  "frame": {
    "_class": "rect",
    "constrainProportions": false,
    "do_objectID": "5D6636F8-B0BB-4FBB-AA2E-1E2D1ED0CF7E",
    "height": 14.96173469387756,
    "width": 14.60869565217391,
    "x": 48.69565217391307,
    "y": 0.01913265306086484
  },
  "hasClippingMask": false,
  "isClosed": true,
  "isFixedToViewport": false,
  "isFlippedHorizontal": false,
  "isFlippedVertical": false,
  "isLocked": false,
  "isVisible": true,
  "layerListExpandedType": 0,
  "name": "Shape",
  "nameIsFixed": false,
  "pointRadiusBehaviour": 0,
  "points": [
    {
      "_class": "curvePoint",
      "cornerRadius": 0,
      "curveFrom": "{0.5, 0.76521739130434785}",
      "curveMode": 1,
      "curveTo": "{0.5, 0.76521739130434785}",
      "hasCurveFrom": false,
      "hasCurveTo": false,
      "point": "{0.5, 0.76521739130434785}"
    },
    {
      "_class": "curvePoint",
      "cornerRadius": 0,
      "curveFrom": "{0.80833333333333335, 1}",
      "curveMode": 1,
      "curveTo": "{0.80833333333333335, 1}",
      "hasCurveFrom": false,
      "hasCurveTo": false,
      "point": "{0.80833333333333335, 1}"
    },
    {
      "_class": "curvePoint",
      "cornerRadius": 0,
      "curveFrom": "{0.69166666666666665, 0.61739130434782608}",
      "curveMode": 1,
      "curveTo": "{0.69166666666666665, 0.61739130434782608}",
      "hasCurveFrom": false,
      "hasCurveTo": false,
      "point": "{0.69166666666666665, 0.61739130434782608}"
    },
    {
      "_class": "curvePoint",
      "cornerRadius": 0,
      "curveFrom": "{1, 0.39130434782608697}",
      "curveMode": 1,
      "curveTo": "{1, 0.39130434782608697}",
      "hasCurveFrom": false,
      "hasCurveTo": false,
      "point": "{1, 0.39130434782608697}"
    },
    {
      "_class": "curvePoint",
      "cornerRadius": 0,
      "curveFrom": "{0.625, 0.39130434782608697}",
      "curveMode": 1,
      "curveTo": "{0.625, 0.39130434782608697}",
      "hasCurveFrom": false,
      "hasCurveTo": false,
      "point": "{0.625, 0.39130434782608697}"
    },
    {
      "_class": "curvePoint",
      "cornerRadius": 0,
      "curveFrom": "{0.5, 0}",
      "curveMode": 1,
      "curveTo": "{0.5, 0}",
      "hasCurveFrom": false,
      "hasCurveTo": false,
      "point": "{0.5, 0}"
    },
    {
      "_class": "curvePoint",
      "cornerRadius": 0,
      "curveFrom": "{0.375, 0.39130434782608697}",
      "curveMode": 1,
      "curveTo": "{0.375, 0.39130434782608697}",
      "hasCurveFrom": false,
      "hasCurveTo": false,
      "point": "{0.375, 0.39130434782608697}"
    },
    {
      "_class": "curvePoint",
      "cornerRadius": 0,
      "curveFrom": "{0, 0.39130434782608697}",
      "curveMode": 1,
      "curveTo": "{0, 0.39130434782608697}",
      "hasCurveFrom": false,
      "hasCurveTo": false,
      "point": "{0, 0.39130434782608697}"
    },
    {
      "_class": "curvePoint",
      "cornerRadius": 0,
      "curveFrom": "{0.30833333333333329, 0.61739130434782608}",
      "curveMode": 1,
      "curveTo": "{0.30833333333333329, 0.61739130434782608}",
      "hasCurveFrom": false,
      "hasCurveTo": false,
      "point": "{0.30833333333333329, 0.61739130434782608}"
    },
    {
      "_class": "curvePoint",
      "cornerRadius": 0,
      "curveFrom": "{0.19166666666666665, 1}",
      "curveMode": 1,
      "curveTo": "{0.19166666666666665, 1}",
      "hasCurveFrom": false,
      "hasCurveTo": false,
      "point": "{0.19166666666666665, 1}"
    }
  ],
  "resizingConstraint": 63,
  "resizingType": 0,
  "rotation": 0,
  "shouldBreakMaskChain": false,
  "style": {
    "_class": "style",
    "do_objectID": "00493BA6-E820-4892-B7E0-F76CE440BC99",
    "endMarkerType": 0,
    "fills": [
      {
        "_class": "fill",
        "color": {
          "_class": "color",
          "alpha": 1,
          "blue": 0.9764705882352941,
          "green": 0.9764705882352941,
          "red": 0.9764705882352941
        },
        "fillType": 0,
        "isEnabled": true,
        "noiseIndex": 0,
        "noiseIntensity": 0,
        "patternFillType": 1,
        "patternTileScale": 1
      }
    ],
    "miterLimit": 10,
    "startMarkerType": 0,
    "windingRule": 0
  }
}