{
  "_class": "symbolInstance",
  "booleanOperation": -1,
  "clippingMaskMode": 0,
  "do_objectID": "F2ECC6A1-2B13-40B2-8EA0-FB8D76209361",
  "exportOptions": {
    "_class": "exportOptions",
    "do_objectID": "77202B33-667F-4B6E-9731-A48A627F8588",
    "exportFormats": [
    ],
    "includedLayerIds": [
    ],
    "layerOptions": 0,
    "shouldTrim": false
  },
  "frame": {
    "_class": "rect",
    "constrainProportions": false,
    "do_objectID": "D4D0C2FD-EE7E-4158-AAD1-242AFF4FBE90",
    "height": 48,
    "width": 48,
    "x": 5,
    "y": 432
  },
  "hasClippingMask": false,
  "horizontalSpacing": 0,
  "isFixedToViewport": false,
  "isFlippedHorizontal": false,
  "isFlippedVertical": false,
  "isLocked": false,
  "isVisible": true,
  "layerListExpandedType": 0,
  "name": "button / 02 secondary / icon / 04 focus",
  "nameIsFixed": true,
  "overrideValues": [
  ],
  "resizingConstraint": 63,
  "resizingType": 0,
  "rotation": 0,
  "scale": 1,
  "shouldBreakMaskChain": false,
  "style": {
    "_class": "style",
    "do_objectID": "8C26585D-6F3F-4FD6-B596-BAB7DFDBC0BD",
    "endMarkerType": 0,
    "miterLimit": 10,
    "startMarkerType": 0,
    "windingRule": 1
  },
  "symbolID": "6D460299-5969-4D7A-AAFD-A259C050F01A",
  "verticalSpacing": 0
}