{
  "_class": "symbolMaster",
  "allowsOverrides": true,
  "backgroundColor": {
    "_class": "color",
    "alpha": 1,
    "blue": 1,
    "do_objectID": "9E134036-BCBA-4654-B6B5-BA63FC8042C6",
    "green": 1,
    "red": 1
  },
  "booleanOperation": -1,
  "changeIdentifier": 526,
  "clippingMaskMode": 0,
  "do_objectID": "C0BCEA92-FC29-484F-ACAA-E7B3895B5474",
  "exportOptions": {
    "_class": "exportOptions",
    "do_objectID": "1D93FBC7-8494-473B-9AAB-5C1FE4277EC2",
    "exportFormats": [
    ],
    "includedLayerIds": [
    ],
    "layerOptions": 0,
    "shouldTrim": false
  },
  "frame": {
    "_class": "rect",
    "constrainProportions": false,
    "do_objectID": "1624C8D3-EE0B-4836-8557-4CF1D66C4424",
    "height": 40,
    "width": 126,
    "x": 17603,
    "y": 270
  },
  "groupLayout": {
    "_class": "MSImmutableFreeformGroupLayout"
  },
  "hasBackgroundColor": false,
  "hasClickThrough": true,
  "hasClippingMask": false,
  "horizontalRulerData": {
    "_class": "rulerData",
    "base": 0,
    "do_objectID": "0F9785BC-E478-4806-9FDB-5BCF7C9E381A",
    "guides": [
    ]
  },
  "includeBackgroundColorInExport": true,
  "includeBackgroundColorInInstance": false,
  "includeInCloudUpload": true,
  "isFixedToViewport": false,
  "isFlippedHorizontal": false,
  "isFlippedVertical": false,
  "isFlowHome": false,
  "isLocked": false,
  "isVisible": true,
  "layerListExpandedType": 0,
  "layers": [
    {
      "class": "rectangle",
      "id": "14C526BB-B1F2-4257-B3D8-5DFC1ECF9604"
    },
    {
      "class": "symbolInstance",
      "id": "1A9BA3D5-F408-4D6C-8E02-1BE3796B59BC"
    },
    {
      "class": "text",
      "id": "44F5D912-5D11-4FA8-AE54-7FBBEBA5D1AB"
    }
  ],
  "name": "content switcher / item / 03 right / 04 selected",
  "nameIsFixed": true,
  "overrideProperties": [
    {
      "_class": "MSImmutableOverrideProperty",
      "canOverride": true,
      "overrideName": "1A9BA3D5-F408-4D6C-8E02-1BE3796B59BC_symbolID"
    },
    {
      "_class": "MSImmutableOverrideProperty",
      "canOverride": false,
      "overrideName": "44F5D912-5D11-4FA8-AE54-7FBBEBA5D1AB_textStyle"
    },
    {
      "_class": "MSImmutableOverrideProperty",
      "canOverride": false,
      "overrideName": "14C526BB-B1F2-4257-B3D8-5DFC1ECF9604_layerStyle"
    },
    {
      "_class": "MSImmutableOverrideProperty",
      "canOverride": true,
      "overrideName": "44F5D912-5D11-4FA8-AE54-7FBBEBA5D1AB_stringValue"
    }
  ],
  "resizesContent": true,
  "resizingConstraint": 63,
  "resizingType": 0,
  "rotation": 0,
  "shouldBreakMaskChain": true,
  "style": {
    "_class": "style",
    "do_objectID": "0099CB94-1BE2-44B5-BE4F-DF3AE7CF90B6",
    "endMarkerType": 0,
    "miterLimit": 10,
    "startMarkerType": 0,
    "windingRule": 1
  },
  "symbolID": "DE00D3C4-0242-4DA9-A537-EB970A078279",
  "userInfo": {
    "com.animaapp.stc-sketch-plugin": {
      "kModelPropertiesKey": {
      }
    }
  },
  "verticalRulerData": {
    "_class": "rulerData",
    "base": 0,
    "do_objectID": "29E6B23D-B0C6-49CB-BC0D-1FED43FF2BD9",
    "guides": [
    ]
  }
}