{
  "_class": "shapePath",
  "booleanOperation": -1,
  "clippingMaskMode": 0,
  "do_objectID": "22954ECB-A12E-4C01-81A2-51EEDF2C4CDE",
  "edited": true,
  "exportOptions": {
    "_class": "exportOptions",
    "exportFormats": [
    ],
    "includedLayerIds": [
    ],
    "layerOptions": 0,
    "shouldTrim": false
  },
  "frame": {
    "_class": "rect",
    "constrainProportions": false,
    "height": 17.69271704496111,
    "width": 10.28654984535916,
    "x": 7.062697810136797,
    "y": 0.04244114118301923
  },
  "hasClippingMask": false,
  "isClosed": true,
  "isFixedToViewport": false,
  "isFlippedHorizontal": false,
  "isFlippedVertical": false,
  "isLocked": false,
  "isVisible": true,
  "layerListExpandedType": 0,
  "maintainScrollPosition": false,
  "name": "Fill 2",
  "nameIsFixed": false,
  "pointRadiusBehaviour": 0,
  "points": [
    {
      "_class": "curvePoint",
      "cornerRadius": 0,
      "curveFrom": "{0.11572264087987359, 0.32653925584986548}",
      "curveMode": 4,
      "curveTo": "{0.089532929155570692, 0.34213140130659175}",
      "hasCurveFrom": false,
      "hasCurveTo": true,
      "point": "{0.11572264087987359, 0.32653925584986548}"
    },
    {
      "_class": "curvePoint",
      "cornerRadius": 0,
      "curveFrom": "{0.43200747917729054, 0.13822661834101077}",
      "curveMode": 1,
      "curveTo": "{0.43200747917729054, 0.13822661834101077}",
      "hasCurveFrom": false,
      "hasCurveTo": false,
      "point": "{0.43200747917729054, 0.13822661834101077}"
    },
    {
      "_class": "curvePoint",
      "cornerRadius": 0,
      "curveFrom": "{0.43200747917729054, 0.98200531482265796}",
      "curveMode": 4,
      "curveTo": "{0.43200747917729054, 0.95951664349084131}",
      "hasCurveFrom": true,
      "hasCurveTo": false,
      "point": "{0.43200747917729054, 0.95951664349084131}"
    },
    {
      "_class": "curvePoint",
      "cornerRadius": 0,
      "curveFrom": "{0.53777362267928319, 1}",
      "curveMode": 2,
      "curveTo": "{0.46222637732071686, 1}",
      "hasCurveFrom": true,
      "hasCurveTo": true,
      "point": "{0.49999999999999989, 1}"
    },
    {
      "_class": "curvePoint",
      "cornerRadius": 0,
      "curveFrom": "{0.56799881642648942, 0.95951664349084131}",
      "curveMode": 4,
      "curveTo": "{0.56799881642648942, 0.98200531482265796}",
      "hasCurveFrom": false,
      "hasCurveTo": true,
      "point": "{0.56799881642648942, 0.95951664349084131}"
    },
    {
      "_class": "curvePoint",
      "cornerRadius": 0,
      "curveFrom": "{0.56799881642648942, 0.13822661834101077}",
      "curveMode": 1,
      "curveTo": "{0.56799881642648942, 0.13822661834101077}",
      "hasCurveFrom": false,
      "hasCurveTo": false,
      "point": "{0.56799881642648942, 0.13822661834101077}"
    },
    {
      "_class": "curvePoint",
      "cornerRadius": 0,
      "curveFrom": "{0.89739110179361758, 0.33432783235445146}",
      "curveMode": 4,
      "curveTo": "{0.88428365472390635, 0.32653925584986548}",
      "hasCurveFrom": true,
      "hasCurveTo": false,
      "point": "{0.88428365472390635, 0.32653925584986548}"
    },
    {
      "_class": "curvePoint",
      "cornerRadius": 0,
      "curveFrom": "{0.94977052524222338, 0.33852946578161242}",
      "curveMode": 2,
      "curveTo": "{0.91499360996216339, 0.33852946578161242}",
      "hasCurveFrom": true,
      "hasCurveTo": true,
      "point": "{0.93213653905477778, 0.33852946578161242}"
    },
    {
      "_class": "curvePoint",
      "cornerRadius": 0,
      "curveFrom": "{1.0066764878085632, 0.3106397652182713}",
      "curveMode": 4,
      "curveTo": "{0.96688827191971849, 0.33463517752931959}",
      "hasCurveFrom": true,
      "hasCurveTo": true,
      "point": "{0.97997053657430999, 0.32653925584986548}"
    },
    {
      "_class": "curvePoint",
      "cornerRadius": 0,
      "curveFrom": "{0.97997053657430999, 0.26926435807961746}",
      "curveMode": 4,
      "curveTo": "{1.0066764878085632, 0.28514885626365727}",
      "hasCurveFrom": false,
      "hasCurveTo": true,
      "point": "{0.97997053657430999, 0.26926435807961746}"
    },
    {
      "_class": "curvePoint",
      "cornerRadius": 0,
      "curveFrom": "{0.53524278995977104, 0.0044939861544747283}",
      "curveMode": 4,
      "curveTo": "{0.5478339975195321, 0.011990209931746926}",
      "hasCurveFrom": true,
      "hasCurveTo": false,
      "point": "{0.5478339975195321, 0.011990209931746926}"
    },
    {
      "_class": "curvePoint",
      "cornerRadius": 0,
      "curveFrom": "{0.48188125232150392, 0}",
      "curveMode": 2,
      "curveTo": "{0.51763398618744527, 0}",
      "hasCurveFrom": true,
      "hasCurveTo": true,
      "point": "{0.49999999999999989, 0}"
    },
    {
      "_class": "curvePoint",
      "cornerRadius": 0,
      "curveFrom": "{0.45214711566912819, 0.011990209931746926}",
      "curveMode": 4,
      "curveTo": "{0.46473832322888919, 0.0042016334271609956}",
      "hasCurveFrom": false,
      "hasCurveTo": true,
      "point": "{0.45214711566912819, 0.011990209931746926}"
    },
    {
      "_class": "curvePoint",
      "cornerRadius": 0,
      "curveFrom": "{-0.0066701922047833987, 0.28514885626365727}",
      "curveMode": 4,
      "curveTo": "{0.020010576614350194, 0.26926435807961746}",
      "hasCurveFrom": true,
      "hasCurveTo": false,
      "point": "{0.020010576614350194, 0.26926435807961746}"
    },
    {
      "_class": "curvePoint",
      "cornerRadius": 0,
      "curveFrom": "{0.046200288338653091, 0.34213140130659175}",
      "curveMode": 2,
      "curveTo": "{-0.0066701922047833987, 0.3106397652182713}",
      "hasCurveFrom": true,
      "hasCurveTo": true,
      "point": "{0.020010576614350194, 0.32653925584986548}"
    }
  ],
  "resizingConstraint": 63,
  "resizingType": 0,
  "rotation": 0,
  "shouldBreakMaskChain": false,
  "style": {
    "_class": "style",
    "blur": {
      "_class": "blur",
      "center": "{0.5, 0.5}",
      "isEnabled": false,
      "motionAngle": 0,
      "radius": 10,
      "saturation": 1,
      "type": 0
    },
    "borderOptions": {
      "_class": "borderOptions",
      "dashPattern": [
      ],
      "isEnabled": true,
      "lineCapStyle": 0,
      "lineJoinStyle": 0
    },
    "borders": [
    ],
    "colorControls": {
      "_class": "colorControls",
      "brightness": 0,
      "contrast": 1,
      "hue": 0,
      "isEnabled": false,
      "saturation": 1
    },
    "contextSettings": {
      "_class": "graphicsContextSettings",
      "blendMode": 0,
      "opacity": 1
    },
    "do_objectID": "996B9A42-0E0D-481C-9177-43C71C192920",
    "endMarkerType": 0,
    "fills": [
      {
        "_class": "fill",
        "color": {
          "_class": "color",
          "alpha": 1,
          "blue": 0.1764705882352941,
          "green": 0.1764705882352941,
          "red": 0.1764705882352941
        },
        "contextSettings": {
          "_class": "graphicsContextSettings",
          "blendMode": 0,
          "opacity": 1
        },
        "fillType": 0,
        "gradient": {
          "_class": "gradient",
          "elipseLength": 0,
          "from": "{0.5, 0}",
          "gradientType": 0,
          "stops": [
            {
              "_class": "gradientStop",
              "color": {
                "_class": "color",
                "alpha": 1,
                "blue": 1,
                "green": 1,
                "red": 1
              },
              "position": 0
            },
            {
              "_class": "gradientStop",
              "color": {
                "_class": "color",
                "alpha": 1,
                "blue": 0,
                "green": 0,
                "red": 0
              },
              "position": 1
            }
          ],
          "to": "{0.5, 1}"
        },
        "isEnabled": true,
        "noiseIndex": 0,
        "noiseIntensity": 0,
        "patternFillType": 1,
        "patternTileScale": 1
      }
    ],
    "innerShadows": [
    ],
    "miterLimit": 10,
    "shadows": [
    ],
    "startMarkerType": 0,
    "windingRule": 1
  }
}