{
  "_class": "symbolInstance",
  "booleanOperation": -1,
  "clippingMaskMode": 0,
  "do_objectID": "B8A8ED4C-7CFA-4C3F-A5C9-5E05C49CBB34",
  "exportOptions": {
    "_class": "exportOptions",
    "do_objectID": "EBEF3B3E-CB39-46B6-AD2A-96E4FB33CE0B",
    "exportFormats": [
    ],
    "includedLayerIds": [
    ],
    "layerOptions": 0,
    "shouldTrim": false
  },
  "frame": {
    "_class": "rect",
    "constrainProportions": false,
    "do_objectID": "05133824-1193-46FC-BC0E-9A1863C9E597",
    "height": 32,
    "width": 256,
    "x": 0,
    "y": 160
  },
  "hasClippingMask": false,
  "horizontalSpacing": 0,
  "isFixedToViewport": false,
  "isFlippedHorizontal": false,
  "isFlippedVertical": false,
  "isLocked": false,
  "isVisible": true,
  "layerListExpandedType": 0,
  "name": "link 5",
  "nameIsFixed": true,
  "overrideValues": [
  ],
  "resizingConstraint": 63,
  "resizingType": 0,
  "rotation": 0,
  "scale": 1,
  "shouldBreakMaskChain": false,
  "style": {
    "_class": "style",
    "do_objectID": "ED4BFF51-D2D1-42AD-A0C2-5252DD2596E3",
    "endMarkerType": 0,
    "miterLimit": 10,
    "startMarkerType": 0,
    "windingRule": 1
  },
  "symbolID": "0DB920E3-51BC-497B-AC83-313FE42C6282",
  "verticalSpacing": 0
}