{
  "_class": "symbolMaster",
  "allowsOverrides": true,
  "backgroundColor": {
    "_class": "color",
    "alpha": 1,
    "blue": 1,
    "do_objectID": "B269932D-49B9-4C2B-B199-02E24D061A0D",
    "green": 1,
    "red": 1
  },
  "booleanOperation": 0,
  "changeIdentifier": 429,
  "clippingMaskMode": 0,
  "do_objectID": "03CFDDD9-4166-48AB-8A48-FC2B19247C5F",
  "exportOptions": {
    "_class": "exportOptions",
    "do_objectID": "3C43DB16-317D-4D7A-8F20-F04733E01EFE",
    "exportFormats": [
    ],
    "includedLayerIds": [
    ],
    "layerOptions": 0,
    "shouldTrim": false
  },
  "frame": {
    "_class": "rect",
    "constrainProportions": false,
    "do_objectID": "277E8210-AEF2-40C7-9A49-E1A49B4F24B4",
    "height": 20,
    "width": 20,
    "x": 103973,
    "y": 0
  },
  "groupLayout": {
    "_class": "MSImmutableFreeformGroupLayout",
    "do_objectID": "1B2DAC94-BC9E-448C-8DFB-C34BFB0F8F84"
  },
  "hasBackgroundColor": false,
  "hasClickThrough": true,
  "hasClippingMask": false,
  "horizontalRulerData": {
    "_class": "rulerData",
    "base": 0,
    "do_objectID": "B82AE862-7A6D-437A-8CFB-9230D6DE728F",
    "guides": [
    ]
  },
  "includeBackgroundColorInExport": true,
  "includeBackgroundColorInInstance": false,
  "includeInCloudUpload": true,
  "isFixedToViewport": false,
  "isFlippedHorizontal": false,
  "isFlippedVertical": false,
  "isFlowHome": false,
  "isLocked": false,
  "isVisible": true,
  "layerListExpandedType": 2,
  "layers": [
    {
      "class": "group",
      "id": "66AD0F2C-9DF4-4D32-9C78-EC679D5F9EA9"
    }
  ],
  "name": "utilities / cursor / grab / default",
  "nameIsFixed": true,
  "overrideProperties": [
  ],
  "resizesContent": false,
  "resizingConstraint": 63,
  "resizingType": 0,
  "rotation": 0,
  "shouldBreakMaskChain": true,
  "style": {
    "_class": "style",
    "do_objectID": "2C4BBCBE-F17D-4B21-93FB-8B6CB61690C0",
    "endMarkerType": 0,
    "miterLimit": 10,
    "startMarkerType": 0,
    "windingRule": 1
  },
  "symbolID": "1CB0798E-E8A6-473D-9445-528CBC021A3E",
  "userInfo": {
    "com.animaapp.stc-sketch-plugin": {
      "kModelPropertiesKey": {
      }
    }
  },
  "verticalRulerData": {
    "_class": "rulerData",
    "base": 0,
    "do_objectID": "C4CAE591-4444-405A-ADF4-914DC4D01507",
    "guides": [
    ]
  }
}