{
  "_class": "symbolInstance",
  "booleanOperation": -1,
  "clippingMaskMode": 0,
  "do_objectID": "14AA4B4F-FF17-43F1-88A4-13C4C0D0B1D6",
  "exportOptions": {
    "_class": "exportOptions",
    "do_objectID": "94785C96-D71B-462C-9E87-AB51FDD3E0D8",
    "exportFormats": [
    ],
    "includedLayerIds": [
    ],
    "layerOptions": 0,
    "shouldTrim": false
  },
  "frame": {
    "_class": "rect",
    "constrainProportions": false,
    "do_objectID": "BB0A040D-AB6E-49D9-8630-DDB5B99A8852",
    "height": 32,
    "width": 256,
    "x": 0,
    "y": 112
  },
  "hasClippingMask": false,
  "horizontalSpacing": 0,
  "isFixedToViewport": false,
  "isFlippedHorizontal": false,
  "isFlippedVertical": false,
  "isLocked": false,
  "isVisible": true,
  "layerListExpandedType": 0,
  "name": "Link",
  "nameIsFixed": true,
  "overrideValues": [
    {
      "_class": "overrideValue",
      "do_objectID": "76D3349E-82C6-4391-BB4F-E81D7A9610F2",
      "overrideName": "D0EB837E-408C-44B4-8618-EE35110BBEBC_stringValue",
      "value": "Link 4"
    }
  ],
  "resizingConstraint": 63,
  "resizingType": 0,
  "rotation": 0,
  "scale": 1,
  "shouldBreakMaskChain": false,
  "style": {
    "_class": "style",
    "do_objectID": "26F5C6B0-A165-49EC-A3CA-775FC9709215",
    "endMarkerType": 0,
    "miterLimit": 10,
    "startMarkerType": 0,
    "windingRule": 1
  },
  "symbolID": "135C074A-BF41-419B-856A-9975D4496AE1",
  "verticalSpacing": 0
}