{
  "_class": "shapePath",
  "booleanOperation": -1,
  "clippingMaskMode": 0,
  "do_objectID": "4B328AC8-4C4D-4290-8F0D-C2F0F469813F",
  "edited": true,
  "exportOptions": {
    "_class": "exportOptions",
    "do_objectID": "6180CB11-EB96-4771-B7C0-1C4A7525ADEE",
    "exportFormats": [
    ],
    "includedLayerIds": [
    ],
    "layerOptions": 0,
    "shouldTrim": false
  },
  "frame": {
    "_class": "rect",
    "constrainProportions": false,
    "do_objectID": "77C4E518-4090-4F62-9A8A-AEE0D2E3284D",
    "height": 2.720000000000001,
    "width": 1,
    "x": 0.1812121212121215,
    "y": 0.2278787878787876
  },
  "hasClippingMask": false,
  "isClosed": true,
  "isFixedToViewport": false,
  "isFlippedHorizontal": false,
  "isFlippedVertical": false,
  "isLocked": false,
  "isVisible": true,
  "layerListExpandedType": 0,
  "name": "Shape",
  "nameIsFixed": false,
  "pointRadiusBehaviour": 0,
  "points": [
    {
      "_class": "curvePoint",
      "cornerRadius": 0,
      "curveFrom": "{0.13575757575757594, 0.99999999999999989}",
      "curveMode": 2,
      "curveTo": "{0.47030303030303039, 0.99999999999999989}",
      "hasCurveFrom": true,
      "hasCurveTo": true,
      "point": "{0.30303030303030315, 0.99999999999999989}"
    },
    {
      "_class": "curvePoint",
      "cornerRadius": 0,
      "curveFrom": "{0, 0.8885918003565062}",
      "curveMode": 4,
      "curveTo": "{0, 0.95008912655971467}",
      "hasCurveFrom": false,
      "hasCurveTo": true,
      "point": "{0, 0.8885918003565062}"
    },
    {
      "_class": "curvePoint",
      "cornerRadius": 0,
      "curveFrom": "{0, 0.049910873440285226}",
      "curveMode": 4,
      "curveTo": "{0, 0.11140819964349372}",
      "hasCurveFrom": true,
      "hasCurveTo": false,
      "point": "{0, 0.11140819964349372}"
    },
    {
      "_class": "curvePoint",
      "cornerRadius": 0,
      "curveFrom": "{0.47030303030303039, 0}",
      "curveMode": 2,
      "curveTo": "{0.13575757575757594, 0}",
      "hasCurveFrom": true,
      "hasCurveTo": true,
      "point": "{0.30303030303030315, 0}"
    },
    {
      "_class": "curvePoint",
      "cornerRadius": 0,
      "curveFrom": "{0.6060606060606063, 0.11140819964349372}",
      "curveMode": 4,
      "curveTo": "{0.6060606060606063, 0.049910873440285226}",
      "hasCurveFrom": false,
      "hasCurveTo": true,
      "point": "{0.6060606060606063, 0.11140819964349372}"
    },
    {
      "_class": "curvePoint",
      "cornerRadius": 0,
      "curveFrom": "{0.6060606060606063, 0.95031194295900157}",
      "curveMode": 4,
      "curveTo": "{0.6060606060606063, 0.88859180035650576}",
      "hasCurveFrom": true,
      "hasCurveTo": false,
      "point": "{0.6060606060606063, 0.88859180035650576}"
    }
  ],
  "resizingConstraint": 63,
  "resizingType": 0,
  "rotation": 0,
  "shouldBreakMaskChain": false,
  "style": {
    "_class": "style",
    "do_objectID": "1F7B3AE7-78C9-430E-929C-F0E9E8EFA429",
    "endMarkerType": 0,
    "fills": [
      {
        "_class": "fill",
        "color": {
          "_class": "color",
          "alpha": 1,
          "blue": 0.1764705882352941,
          "green": 0.1764705882352941,
          "red": 0.1764705882352941
        },
        "fillType": 0,
        "isEnabled": true,
        "noiseIndex": 0,
        "noiseIntensity": 0,
        "patternFillType": 1,
        "patternTileScale": 1
      }
    ],
    "miterLimit": 10,
    "startMarkerType": 0,
    "windingRule": 0
  }
}