{
  "_class": "shapePath",
  "booleanOperation": -1,
  "clippingMaskMode": 0,
  "do_objectID": "FB074581-0122-442D-8331-3C02F68F770A",
  "edited": true,
  "exportOptions": {
    "_class": "exportOptions",
    "exportFormats": [
    ],
    "includedLayerIds": [
    ],
    "layerOptions": 0,
    "shouldTrim": false
  },
  "frame": {
    "_class": "rect",
    "constrainProportions": false,
    "height": 12.25340801449693,
    "width": 15.00000000000001,
    "x": 7.5,
    "y": 9.000000000000004
  },
  "hasClippingMask": false,
  "isClosed": true,
  "isFixedToViewport": false,
  "isFlippedHorizontal": false,
  "isFlippedVertical": false,
  "isLocked": false,
  "isVisible": true,
  "layerListExpandedType": 0,
  "maintainScrollPosition": false,
  "name": "arrow icon",
  "nameIsFixed": true,
  "originalObjectID": "5E248A15-2E00-46B2-A067-8A77DCBA8FD6",
  "pointRadiusBehaviour": 0,
  "points": [
    {
      "_class": "curvePoint",
      "cornerRadius": 0,
      "curveFrom": "{1.0000000000000007, 0.20005041593143419}",
      "curveMode": 1,
      "curveTo": "{1.0000000000000007, 0.20005041593143419}",
      "hasCurveFrom": false,
      "hasCurveTo": false,
      "point": "{1.0000000000000007, 0.20005041593143419}"
    },
    {
      "_class": "curvePoint",
      "cornerRadius": 0,
      "curveFrom": "{0.53259750422140795, 0.79999999999999993}",
      "curveMode": 1,
      "curveTo": "{0.53259750422140795, 0.79999999999999993}",
      "hasCurveFrom": false,
      "hasCurveTo": false,
      "point": "{0.53259750422140795, 0.79999999999999993}"
    },
    {
      "_class": "curvePoint",
      "cornerRadius": 0,
      "curveFrom": "{0.53259750422140795, 0.79999999999999993}",
      "curveMode": 1,
      "curveTo": "{0.53259750422140795, 0.79999999999999993}",
      "hasCurveFrom": false,
      "hasCurveTo": false,
      "point": "{0.53259750422140795, 0.79999999999999993}"
    },
    {
      "_class": "curvePoint",
      "cornerRadius": 0,
      "curveFrom": "{0.37679667229521036, 0.99999999999999989}",
      "curveMode": 1,
      "curveTo": "{0.37679667229521036, 0.99999999999999989}",
      "hasCurveFrom": false,
      "hasCurveTo": false,
      "point": "{0.37679667229521036, 0.99999999999999989}"
    },
    {
      "_class": "curvePoint",
      "cornerRadius": 0,
      "curveFrom": "{0.22099584036901279, 0.79999999999999993}",
      "curveMode": 1,
      "curveTo": "{0.22099584036901279, 0.79999999999999993}",
      "hasCurveFrom": false,
      "hasCurveTo": false,
      "point": "{0.22099584036901279, 0.79999999999999993}"
    },
    {
      "_class": "curvePoint",
      "cornerRadius": 0,
      "curveFrom": "{0.22186071413862693, 0.79889084950844469}",
      "curveMode": 1,
      "curveTo": "{0.22186071413862693, 0.79889084950844469}",
      "hasCurveFrom": false,
      "hasCurveTo": false,
      "point": "{0.22186071413862693, 0.79889084950844469}"
    },
    {
      "_class": "curvePoint",
      "cornerRadius": 0,
      "curveFrom": "{0, 0.51101588101840179}",
      "curveMode": 1,
      "curveTo": "{0, 0.51101588101840179}",
      "hasCurveFrom": false,
      "hasCurveTo": false,
      "point": "{0, 0.51101588101840179}"
    },
    {
      "_class": "curvePoint",
      "cornerRadius": 0,
      "curveFrom": "{0.15584201639141732, 0.31101588101840177}",
      "curveMode": 1,
      "curveTo": "{0.15584201639141732, 0.31101588101840177}",
      "hasCurveFrom": false,
      "hasCurveTo": false,
      "point": "{0.15584201639141732, 0.31101588101840177}"
    },
    {
      "_class": "curvePoint",
      "cornerRadius": 0,
      "curveFrom": "{0.37766154606482466, 0.59894126543987913}",
      "curveMode": 1,
      "curveTo": "{0.37766154606482466, 0.59894126543987913}",
      "hasCurveFrom": false,
      "hasCurveTo": false,
      "point": "{0.37766154606482466, 0.59894126543987913}"
    },
    {
      "_class": "curvePoint",
      "cornerRadius": 0,
      "curveFrom": "{0.84419916807380302, 0}",
      "curveMode": 1,
      "curveTo": "{0.84419916807380302, 0}",
      "hasCurveFrom": false,
      "hasCurveTo": false,
      "point": "{0.84419916807380302, 0}"
    }
  ],
  "resizingConstraint": 63,
  "resizingType": 0,
  "rotation": 0,
  "shouldBreakMaskChain": false,
  "style": {
    "_class": "style",
    "blur": {
      "_class": "blur",
      "center": "{0.5, 0.5}",
      "isEnabled": false,
      "motionAngle": 0,
      "radius": 10,
      "saturation": 1,
      "type": 0
    },
    "borderOptions": {
      "_class": "borderOptions",
      "dashPattern": [
      ],
      "isEnabled": true,
      "lineCapStyle": 0,
      "lineJoinStyle": 0
    },
    "borders": [
    ],
    "colorControls": {
      "_class": "colorControls",
      "brightness": 0,
      "contrast": 1,
      "hue": 0,
      "isEnabled": true,
      "saturation": 1
    },
    "contextSettings": {
      "_class": "graphicsContextSettings",
      "blendMode": 0,
      "opacity": 1
    },
    "do_objectID": "4453C6F0-3BC0-4590-BA44-A3E264465939",
    "endMarkerType": 0,
    "fills": [
      {
        "_class": "fill",
        "color": {
          "_class": "color",
          "alpha": 1,
          "blue": 1,
          "green": 1,
          "red": 1
        },
        "contextSettings": {
          "_class": "graphicsContextSettings",
          "blendMode": 0,
          "opacity": 1
        },
        "fillType": 0,
        "gradient": {
          "_class": "gradient",
          "elipseLength": 0,
          "from": "{0.5, 0}",
          "gradientType": 0,
          "stops": [
            {
              "_class": "gradientStop",
              "color": {
                "_class": "color",
                "alpha": 1,
                "blue": 1,
                "green": 1,
                "red": 1
              },
              "position": 0
            },
            {
              "_class": "gradientStop",
              "color": {
                "_class": "color",
                "alpha": 1,
                "blue": 0,
                "green": 0,
                "red": 0
              },
              "position": 1
            }
          ],
          "to": "{0.5, 1}"
        },
        "isEnabled": true,
        "noiseIndex": 0,
        "noiseIntensity": 0,
        "patternFillType": 0,
        "patternTileScale": 1
      }
    ],
    "innerShadows": [
    ],
    "miterLimit": 10,
    "shadows": [
    ],
    "startMarkerType": 0,
    "windingRule": 1
  }
}