{
  "_class": "symbolInstance",
  "booleanOperation": -1,
  "clippingMaskMode": 0,
  "do_objectID": "9D6D2C77-B27C-492E-9F28-F14FF0830B08",
  "exportOptions": {
    "_class": "exportOptions",
    "do_objectID": "98BB929D-4B73-4F63-8D1E-BC340199B0D3",
    "exportFormats": [
    ],
    "includedLayerIds": [
    ],
    "layerOptions": 0,
    "shouldTrim": false
  },
  "frame": {
    "_class": "rect",
    "constrainProportions": false,
    "do_objectID": "3C2B0E18-0585-4CEB-98BC-55C443F14AD5",
    "height": 20,
    "width": 20,
    "x": 16,
    "y": 16
  },
  "hasClippingMask": false,
  "horizontalSpacing": 0,
  "isFixedToViewport": false,
  "isFlippedHorizontal": false,
  "isFlippedVertical": false,
  "isLocked": true,
  "isVisible": true,
  "layerListExpandedType": 0,
  "name": "icon",
  "nameIsFixed": true,
  "overrideValues": [
    {
      "_class": "overrideValue",
      "do_objectID": "B9EA1F50-8CDC-491C-A10C-2030FDB2EC3C",
      "overrideName": "A19EB3DE-5561-4192-ABC4-C256708F5390_layerStyle",
      "value": "46F3D872-C45C-4111-B3C3-43A6EFA3BCFB"
    }
  ],
  "resizingConstraint": 9,
  "resizingType": 0,
  "rotation": 0,
  "scale": 1,
  "shouldBreakMaskChain": false,
  "style": {
    "_class": "style",
    "do_objectID": "912151DD-5E7C-4E50-8432-9F77CCD893F2",
    "endMarkerType": 0,
    "miterLimit": 10,
    "startMarkerType": 0,
    "windingRule": 1
  },
  "symbolID": "5F3D9FC4-3BD7-4AFA-A22F-188C135736F2",
  "verticalSpacing": 0
}