{
  "_class": "symbolMaster",
  "allowsOverrides": true,
  "backgroundColor": {
    "_class": "color",
    "alpha": 1,
    "blue": 1,
    "do_objectID": "75B94BAC-4E88-4309-AD46-CFA4BD06D957",
    "green": 1,
    "red": 1
  },
  "booleanOperation": -1,
  "changeIdentifier": 352,
  "clippingMaskMode": 0,
  "do_objectID": "3E8C3770-F39C-4EC6-8EF9-EA15059D433C",
  "exportOptions": {
    "_class": "exportOptions",
    "do_objectID": "FA194650-3887-4D5F-9E46-44FA9BE66839",
    "exportFormats": [
    ],
    "includedLayerIds": [
    ],
    "layerOptions": 0,
    "shouldTrim": false
  },
  "frame": {
    "_class": "rect",
    "constrainProportions": false,
    "do_objectID": "D59FA4CE-6789-4499-9D50-9F8FAC06B194",
    "height": 40,
    "width": 139,
    "x": 10935,
    "y": 180
  },
  "groupLayout": {
    "_class": "MSImmutableFreeformGroupLayout",
    "do_objectID": "E752B555-C36C-4928-9E91-57270307FD06"
  },
  "hasBackgroundColor": false,
  "hasClickThrough": true,
  "hasClippingMask": false,
  "horizontalRulerData": {
    "_class": "rulerData",
    "base": 0,
    "do_objectID": "A89B66F7-CE35-4299-B468-CEC780563BD4",
    "guides": [
    ]
  },
  "includeBackgroundColorInExport": true,
  "includeBackgroundColorInInstance": false,
  "includeInCloudUpload": true,
  "isFixedToViewport": false,
  "isFlippedHorizontal": false,
  "isFlippedVertical": false,
  "isFlowHome": false,
  "isLocked": false,
  "isVisible": true,
  "layerListExpandedType": 0,
  "layers": [
    {
      "class": "rectangle",
      "id": "288E9870-D084-4C98-BD55-8C01183D8989"
    },
    {
      "class": "symbolInstance",
      "id": "F9656CED-564D-4F3F-98CA-E35D13EEDF51"
    },
    {
      "class": "text",
      "id": "EC4B18D6-F441-4C31-AB1F-BF9B87E2C42D"
    },
    {
      "class": "symbolInstance",
      "id": "36CA3ECB-AEE3-4D36-8D88-376D37664FE1"
    }
  ],
  "name": "button / 04 ghost / medium / 02 text and icon / 03 active",
  "nameIsFixed": true,
  "overrideProperties": [
    {
      "_class": "MSImmutableOverrideProperty",
      "canOverride": true,
      "overrideName": "36CA3ECB-AEE3-4D36-8D88-376D37664FE1_symbolID"
    },
    {
      "_class": "MSImmutableOverrideProperty",
      "canOverride": false,
      "overrideName": "288E9870-D084-4C98-BD55-8C01183D8989_layerStyle"
    },
    {
      "_class": "MSImmutableOverrideProperty",
      "canOverride": true,
      "overrideName": "EC4B18D6-F441-4C31-AB1F-BF9B87E2C42D_stringValue"
    },
    {
      "_class": "MSImmutableOverrideProperty",
      "canOverride": false,
      "overrideName": "36CA3ECB-AEE3-4D36-8D88-376D37664FE1/BE723698-E08A-461D-A0D5-CF91951155C8_layerStyle"
    },
    {
      "_class": "MSImmutableOverrideProperty",
      "canOverride": false,
      "overrideName": "EC4B18D6-F441-4C31-AB1F-BF9B87E2C42D_textStyle"
    },
    {
      "_class": "MSImmutableOverrideProperty",
      "canOverride": true,
      "overrideName": "F9656CED-564D-4F3F-98CA-E35D13EEDF51_symbolID"
    }
  ],
  "resizesContent": true,
  "resizingConstraint": 63,
  "resizingType": 0,
  "rotation": 0,
  "shouldBreakMaskChain": true,
  "style": {
    "_class": "style",
    "do_objectID": "C3ECD653-8CBF-464F-98A6-22A5822160F4",
    "endMarkerType": 0,
    "miterLimit": 10,
    "startMarkerType": 0,
    "windingRule": 1
  },
  "symbolID": "C4C4B78D-73F5-4373-B717-5F8B9C871F8E",
  "verticalRulerData": {
    "_class": "rulerData",
    "base": 0,
    "do_objectID": "EEF52134-B34D-4A9A-9442-CD4BE6D7220E",
    "guides": [
    ]
  }
}