{
  "_class": "group",
  "booleanOperation": -1,
  "clippingMaskMode": 0,
  "do_objectID": "E2B3F3DE-DFE9-4E15-9C3C-DCE4B923BF26",
  "exportOptions": {
    "_class": "exportOptions",
    "do_objectID": "1029B09A-ACEB-4C63-9CF1-33D33BF92BFE",
    "exportFormats": [
    ],
    "includedLayerIds": [
    ],
    "layerOptions": 0,
    "shouldTrim": false
  },
  "frame": {
    "_class": "rect",
    "constrainProportions": false,
    "do_objectID": "6D93640F-8AC9-43D6-98A3-FFE18600D2B7",
    "height": 600,
    "width": 256,
    "x": 0,
    "y": 48
  },
  "groupLayout": {
    "_class": "MSImmutableFreeformGroupLayout",
    "do_objectID": "49BF1BF7-2CD6-45E3-9A16-C5F8A08786F7"
  },
  "hasClickThrough": false,
  "hasClippingMask": false,
  "isFixedToViewport": false,
  "isFlippedHorizontal": false,
  "isFlippedVertical": false,
  "isLocked": false,
  "isVisible": true,
  "layerListExpandedType": 0,
  "layers": [
    {
      "class": "symbolInstance",
      "id": "EE2B30AA-3E29-4052-8245-D4AC1BCA7DA9"
    },
    {
      "class": "symbolInstance",
      "id": "50D6B10E-1163-40E0-9B69-D7CE3B823783"
    },
    {
      "class": "symbolInstance",
      "id": "41B1A818-4B7F-4B92-8931-2D4D6C32EB77"
    },
    {
      "class": "symbolInstance",
      "id": "D1D0556B-667F-4A1E-854E-71423DF272F2"
    },
    {
      "class": "symbolInstance",
      "id": "FEFF08A9-4C4D-407B-8783-D75461D1B94E"
    },
    {
      "class": "symbolInstance",
      "id": "FB49D050-3B58-41C3-8DCF-5C22F18311D6"
    },
    {
      "class": "symbolInstance",
      "id": "930E5D01-2F54-4272-9092-069360931596"
    },
    {
      "class": "symbolInstance",
      "id": "56A1B7C4-3E9B-405A-9CB5-8CCEC03D0414"
    }
  ],
  "name": "side-nav",
  "nameIsFixed": true,
  "resizingConstraint": 63,
  "resizingType": 0,
  "rotation": 0,
  "shouldBreakMaskChain": false,
  "style": {
    "_class": "style",
    "do_objectID": "E7AA8513-B750-4EA2-A030-0C296F060BD8",
    "endMarkerType": 0,
    "miterLimit": 10,
    "startMarkerType": 0,
    "windingRule": 1
  }
}