{
  "_class": "shapeGroup",
  "booleanOperation": 0,
  "clippingMaskMode": 0,
  "do_objectID": "CC464422-ADB3-471A-8DDA-C33BB188C637",
  "exportOptions": {
    "_class": "exportOptions",
    "exportFormats": [
    ],
    "includedLayerIds": [
    ],
    "layerOptions": 0,
    "shouldTrim": false
  },
  "frame": {
    "_class": "rect",
    "constrainProportions": false,
    "height": 16.0629273,
    "width": 77.4472045,
    "x": 42.73010250000004,
    "y": 18.89190669999999
  },
  "groupLayout": {
    "_class": "MSImmutableFreeformGroupLayout"
  },
  "hasClickThrough": false,
  "hasClippingMask": false,
  "isFixedToViewport": false,
  "isFlippedHorizontal": false,
  "isFlippedVertical": false,
  "isLocked": false,
  "isVisible": true,
  "layerListExpandedType": 1,
  "layers": [
    {
      "class": "shapePath",
      "id": "0FC3A483-37D4-490A-969C-29B0A10F38C1"
    },
    {
      "class": "shapePath",
      "id": "338B0973-AAFC-4A9F-B67A-ECDC9A8E35BA"
    },
    {
      "class": "shapePath",
      "id": "696149F5-E39C-4A39-A8AF-DF23A160A0E8"
    },
    {
      "class": "shapePath",
      "id": "E4571F0E-01B6-4B80-9A0C-5B0E272750E5"
    },
    {
      "class": "shapePath",
      "id": "AE27748E-F5A2-48A0-AB96-6EA9FA04AB2C"
    },
    {
      "class": "shapePath",
      "id": "B867BC71-34D5-4D8A-81A4-D9D0B16FBF70"
    },
    {
      "class": "shapePath",
      "id": "4F4DB34D-5F38-499A-9EDD-3B20AB49B6E4"
    },
    {
      "class": "shapePath",
      "id": "CC5EB0F0-109D-4C71-8A4C-D6D2A33069AB"
    },
    {
      "class": "shapePath",
      "id": "7CBBE394-3F91-47A6-98F3-7C8AA30D68E2"
    },
    {
      "class": "shapePath",
      "id": "D5701D28-BC0B-41E3-9C9F-3505C17F77B4"
    },
    {
      "class": "shapePath",
      "id": "D73F739F-178F-4558-9E05-942B212BEA25"
    },
    {
      "class": "shapePath",
      "id": "1D53D578-AC21-4029-B489-1343095B5237"
    },
    {
      "class": "shapePath",
      "id": "7444BA5D-AE83-4BCB-9DB5-A95EC8FA3B0D"
    }
  ],
  "maintainScrollPosition": false,
  "name": "App-Store",
  "nameIsFixed": false,
  "resizingConstraint": 63,
  "resizingType": 0,
  "rotation": 0,
  "shouldBreakMaskChain": false,
  "style": {
    "_class": "style",
    "blur": {
      "_class": "blur",
      "center": "{0.5, 0.5}",
      "isEnabled": false,
      "motionAngle": 0,
      "radius": 10,
      "saturation": 1,
      "type": 0
    },
    "borderOptions": {
      "_class": "borderOptions",
      "dashPattern": [
      ],
      "isEnabled": true,
      "lineCapStyle": 0,
      "lineJoinStyle": 0
    },
    "borders": [
    ],
    "colorControls": {
      "_class": "colorControls",
      "brightness": 0,
      "contrast": 1,
      "hue": 0,
      "isEnabled": true,
      "saturation": 1
    },
    "contextSettings": {
      "_class": "graphicsContextSettings",
      "blendMode": 0,
      "opacity": 1
    },
    "do_objectID": "5841A63E-2EB6-4BD1-9787-B6A8216D7965",
    "endMarkerType": 0,
    "fills": [
      {
        "_class": "fill",
        "color": {
          "_class": "color",
          "alpha": 1,
          "blue": 1,
          "green": 1,
          "red": 1
        },
        "contextSettings": {
          "_class": "graphicsContextSettings",
          "blendMode": 0,
          "opacity": 1
        },
        "fillType": 0,
        "gradient": {
          "_class": "gradient",
          "elipseLength": 0,
          "from": "{0.5, 0}",
          "gradientType": 0,
          "stops": [
            {
              "_class": "gradientStop",
              "color": {
                "_class": "color",
                "alpha": 1,
                "blue": 1,
                "green": 1,
                "red": 1
              },
              "position": 0
            },
            {
              "_class": "gradientStop",
              "color": {
                "_class": "color",
                "alpha": 1,
                "blue": 0,
                "green": 0,
                "red": 0
              },
              "position": 1
            }
          ],
          "to": "{0.5, 1}"
        },
        "isEnabled": true,
        "noiseIndex": 0,
        "noiseIntensity": 0,
        "patternFillType": 1,
        "patternTileScale": 1
      }
    ],
    "innerShadows": [
    ],
    "miterLimit": 10,
    "shadows": [
    ],
    "startMarkerType": 0,
    "windingRule": 0
  },
  "windingRule": 0
}