{
  "_class": "symbolInstance",
  "booleanOperation": -1,
  "clippingMaskMode": 0,
  "do_objectID": "6FB1A573-E401-42AE-A572-ED56EF614DFA",
  "exportOptions": {
    "_class": "exportOptions",
    "exportFormats": [
    ],
    "includedLayerIds": [
    ],
    "layerOptions": 0,
    "shouldTrim": false
  },
  "frame": {
    "_class": "rect",
    "constrainProportions": false,
    "height": 40,
    "width": 523,
    "x": 0,
    "y": 1024
  },
  "hasClippingMask": false,
  "horizontalSpacing": 0,
  "isFixedToViewport": false,
  "isFlippedHorizontal": false,
  "isFlippedVertical": false,
  "isLocked": false,
  "isVisible": true,
  "layerListExpandedType": 0,
  "name": "tabs / group",
  "nameIsFixed": false,
  "overrideValues": [
    {
      "_class": "overrideValue",
      "do_objectID": "19FDD6CB-0048-44D6-92C6-89ECF7C1FB87",
      "overrideName": "617FD288-F4DD-493D-82F6-AB78DFECF0FA/34F5D8F6-6481-47A9-927D-105AA6298AFD_stringValue",
      "value": "Overview"
    },
    {
      "_class": "overrideValue",
      "do_objectID": "9B763405-682B-431F-9724-E39FA825795A",
      "overrideName": "249FDC3C-69A4-43A0-ABB0-C2235E2A1845/67F5677D-8776-4D41-ADAC-B386006649D9_stringValue",
      "value": "Guidelines"
    },
    {
      "_class": "overrideValue",
      "do_objectID": "DB23AB23-30CF-48BE-8DA7-2D711F853D65",
      "overrideName": "818DA5B8-0F1C-4A88-AFDC-5A9487751E00/67F5677D-8776-4D41-ADAC-B386006649D9_stringValue",
      "value": "Docs"
    },
    {
      "_class": "overrideValue",
      "do_objectID": "2E67FD53-4F97-4183-9DED-426C477EF254",
      "overrideName": "42751DB1-DA7C-4A89-99DA-A6D14F8E1201/67F5677D-8776-4D41-ADAC-B386006649D9_stringValue",
      "value": "Support"
    },
    {
      "_class": "overrideValue",
      "do_objectID": "8274E74B-90D9-451B-8F3E-AAF31250F661",
      "overrideName": "249FDC3C-69A4-43A0-ABB0-C2235E2A1845/B59E1778-D42F-4611-8AC0-F4A68C00EFCB_symbolID",
      "value": "9D4D2C64-212F-4482-A0C0-3CA87D92DAA6"
    }
  ],
  "resizingConstraint": 63,
  "resizingType": 0,
  "rotation": 0,
  "scale": 1,
  "shouldBreakMaskChain": false,
  "style": {
    "_class": "style",
    "endMarkerType": 0,
    "miterLimit": 10,
    "startMarkerType": 0,
    "windingRule": 1
  },
  "symbolID": "D3A1C6C5-EC8F-40BF-AAEC-E403ECB4C466",
  "verticalSpacing": 0
}