{
  "_class": "symbolInstance",
  "booleanOperation": -1,
  "clippingMaskMode": 0,
  "do_objectID": "978C76C8-0E10-40CE-876F-20F5FB28BFBF",
  "exportOptions": {
    "_class": "exportOptions",
    "do_objectID": "9811679E-6048-4B5A-A4E9-59B252BB6B08",
    "exportFormats": [
    ],
    "includedLayerIds": [
    ],
    "layerOptions": 0,
    "shouldTrim": false
  },
  "frame": {
    "_class": "rect",
    "constrainProportions": false,
    "do_objectID": "CEA3A35E-0328-4183-9F47-2A8F217D2FE3",
    "height": 40,
    "width": 515,
    "x": 0,
    "y": 0
  },
  "hasClippingMask": false,
  "horizontalSpacing": 0,
  "isFixedToViewport": false,
  "isFlippedHorizontal": false,
  "isFlippedVertical": false,
  "isLocked": false,
  "isVisible": true,
  "layerListExpandedType": 0,
  "name": "tabs / group",
  "nameIsFixed": false,
  "overrideValues": [
  ],
  "resizingConstraint": 63,
  "resizingType": 0,
  "rotation": 0,
  "scale": 1,
  "shouldBreakMaskChain": false,
  "style": {
    "_class": "style",
    "do_objectID": "CFBF65F9-83E3-4D92-9882-E220329A6BB9",
    "endMarkerType": 0,
    "miterLimit": 10,
    "startMarkerType": 0,
    "windingRule": 1
  },
  "symbolID": "D3A1C6C5-EC8F-40BF-AAEC-E403ECB4C466",
  "verticalSpacing": 0
}