{
  "_class": "shapePath",
  "booleanOperation": -1,
  "clippingMaskMode": 0,
  "do_objectID": "FE1A5CB4-842C-45C8-9596-D2D3B614095E",
  "edited": true,
  "exportOptions": {
    "_class": "exportOptions",
    "do_objectID": "8B6E12AD-77D9-4746-AB82-707F9A19858A",
    "exportFormats": [
    ],
    "includedLayerIds": [
    ],
    "layerOptions": 0,
    "shouldTrim": false
  },
  "frame": {
    "_class": "rect",
    "constrainProportions": false,
    "do_objectID": "7714C40D-0C6C-4710-8AA4-E66E8AD96E84",
    "height": 13.90836390705852,
    "width": 15.69018212355577,
    "x": 9.292232908125047,
    "y": 0.04138909171463546
  },
  "hasClippingMask": false,
  "isClosed": true,
  "isFixedToViewport": false,
  "isFlippedHorizontal": false,
  "isFlippedVertical": false,
  "isLocked": false,
  "isVisible": true,
  "layerListExpandedType": 0,
  "name": "Shape",
  "nameIsFixed": false,
  "pointRadiusBehaviour": 0,
  "points": [
    {
      "_class": "curvePoint",
      "cornerRadius": 0,
      "curveFrom": "{0.40979883192731981, 0.99377745241581261}",
      "curveMode": 3,
      "curveTo": "{0.34490590525632714, 0.97584187408491962}",
      "hasCurveFrom": true,
      "hasCurveTo": true,
      "point": "{0.36632057105775467, 0.98169838945827237}"
    },
    {
      "_class": "curvePoint",
      "cornerRadius": 0,
      "curveFrom": "{0.77579493835171953, 1}",
      "curveMode": 3,
      "curveTo": "{0.4545749513303049, 1}",
      "hasCurveFrom": true,
      "hasCurveTo": true,
      "point": "{0.49999999999999989, 1}"
    },
    {
      "_class": "curvePoint",
      "cornerRadius": 0,
      "curveFrom": "{1, 0.2243777452415813}",
      "curveMode": 2,
      "curveTo": "{1, 0.77562225475841873}",
      "hasCurveFrom": true,
      "hasCurveTo": true,
      "point": "{1, 0.5}"
    },
    {
      "_class": "curvePoint",
      "cornerRadius": 0,
      "curveFrom": "{0.22420506164828027, 0}",
      "curveMode": 2,
      "curveTo": "{0.77579493835171953, 0}",
      "hasCurveFrom": true,
      "hasCurveTo": true,
      "point": "{0.49999999999999989, 0}"
    },
    {
      "_class": "curvePoint",
      "cornerRadius": 0,
      "curveFrom": "{0, 0.60578330893118593}",
      "curveMode": 3,
      "curveTo": "{0, 0.22401171303074671}",
      "hasCurveFrom": true,
      "hasCurveTo": true,
      "point": "{0, 0.5}"
    },
    {
      "_class": "curvePoint",
      "cornerRadius": 0,
      "curveFrom": "{0.08371187540558081, 0.81918008784773055}",
      "curveMode": 4,
      "curveTo": "{0.033744321868916301, 0.70900439238653001}",
      "hasCurveFrom": true,
      "hasCurveTo": true,
      "point": "{0.095392602206359506, 0.79392386530014636}"
    },
    {
      "_class": "curvePoint",
      "cornerRadius": 0,
      "curveFrom": "{0.028877352368591836, 0.8682284040995607}",
      "curveMode": 4,
      "curveTo": "{0.067488643737832602, 0.83967789165446549}",
      "hasCurveFrom": true,
      "hasCurveTo": true,
      "point": "{0.047371836469824763, 0.85431918008784768}"
    },
    {
      "_class": "curvePoint",
      "cornerRadius": 0,
      "curveFrom": "{0.029850746268656674, 0.94106881405563703}",
      "curveMode": 2,
      "curveTo": "{0.020116807268007748, 0.89275256222547583}",
      "hasCurveFrom": true,
      "hasCurveTo": true,
      "point": "{0.02498377676833221, 0.91691068814055643}"
    },
    {
      "_class": "curvePoint",
      "cornerRadius": 0,
      "curveFrom": "{0.11129136924075268, 0.96888726207906295}",
      "curveMode": 4,
      "curveTo": "{0.047047371836469815, 0.95863836017569537}",
      "hasCurveFrom": true,
      "hasCurveTo": true,
      "point": "{0.068786502271252381, 0.96229868228404092}"
    },
    {
      "_class": "curvePoint",
      "cornerRadius": 0,
      "curveFrom": "{0.2894224529526282, 0.90739385065885791}",
      "curveMode": 3,
      "curveTo": "{0.19370538611291363, 0.9725475841874085}",
      "hasCurveFrom": true,
      "hasCurveTo": true,
      "point": "{0.27060350421804019, 0.92020497803806733}"
    },
    {
      "_class": "curvePoint",
      "cornerRadius": 0,
      "curveFrom": "{0.27287475665152494, 0.83748169838945818}",
      "curveMode": 2,
      "curveTo": "{0.29558728098637244, 0.87994143484626641}",
      "hasCurveFrom": true,
      "hasCurveTo": true,
      "point": "{0.28423101881894869, 0.8587115666178623}"
    },
    {
      "_class": "curvePoint",
      "cornerRadius": 0,
      "curveFrom": "{0.20116807268007775, 0.86273792093704249}",
      "curveMode": 3,
      "curveTo": "{0.24853990914990259, 0.83052708638360173}",
      "hasCurveFrom": true,
      "hasCurveTo": true,
      "point": "{0.22972096041531465, 0.84333821376281104}"
    },
    {
      "_class": "curvePoint",
      "cornerRadius": 0,
      "curveFrom": "{0.15866320571057746, 0.85358711566617851}",
      "curveMode": 4,
      "curveTo": "{0.17066839714471119, 0.87152269399707161}",
      "hasCurveFrom": true,
      "hasCurveTo": true,
      "point": "{0.14373783257624911, 0.87481698389458262}"
    },
    {
      "_class": "curvePoint",
      "cornerRadius": 0,
      "curveFrom": "{0.1846203763789746, 0.78587115666178609}",
      "curveMode": 3,
      "curveTo": "{0.17034393251135616, 0.82906295754026349}",
      "hasCurveFrom": true,
      "hasCurveTo": true,
      "point": "{0.17942894224529518, 0.80161054172767199}"
    },
    {
      "_class": "curvePoint",
      "cornerRadius": 0,
      "curveFrom": "{0.11129136924075268, 0.68191800878477304}",
      "curveMode": 3,
      "curveTo": "{0.18137573004542495, 0.7679355783308931}",
      "hasCurveFrom": true,
      "hasCurveTo": true,
      "point": "{0.17131732641142108, 0.75549048316251821}"
    },
    {
      "_class": "curvePoint",
      "cornerRadius": 0,
      "curveFrom": "{0.079493835171966148, 0.27342606149341137}",
      "curveMode": 3,
      "curveTo": "{0.079493835171966148, 0.59370424597364568}",
      "hasCurveFrom": true,
      "hasCurveTo": true,
      "point": "{0.079493835171966148, 0.49963396778916536}"
    },
    {
      "_class": "curvePoint",
      "cornerRadius": 0,
      "curveFrom": "{0.73199221284879934, 0.089311859443630959}",
      "curveMode": 2,
      "curveTo": "{0.26800778715120044, 0.089311859443630959}",
      "hasCurveFrom": true,
      "hasCurveTo": true,
      "point": "{0.49999999999999989, 0.089311859443630959}"
    },
    {
      "_class": "curvePoint",
      "cornerRadius": 0,
      "curveFrom": "{0.92050616482803371, 0.72584187408491929}",
      "curveMode": 2,
      "curveTo": "{0.92050616482803371, 0.27342606149341137}",
      "hasCurveFrom": true,
      "hasCurveTo": true,
      "point": "{0.92050616482803371, 0.49963396778916536}"
    },
    {
      "_class": "curvePoint",
      "cornerRadius": 0,
      "curveFrom": "{0.4610642439974042, 0.90995607613469975}",
      "curveMode": 3,
      "curveTo": "{0.73199221284879934, 0.90995607613469975}",
      "hasCurveFrom": true,
      "hasCurveTo": true,
      "point": "{0.49999999999999989, 0.90995607613469975}"
    },
    {
      "_class": "curvePoint",
      "cornerRadius": 0,
      "curveFrom": "{0.36404931862426998, 0.88872620790629564}",
      "curveMode": 3,
      "curveTo": "{0.42245295262816351, 0.90483162518301608}",
      "hasCurveFrom": true,
      "hasCurveTo": true,
      "point": "{0.38513951979234262, 0.89458272327964861}"
    },
    {
      "_class": "curvePoint",
      "cornerRadius": 0,
      "curveFrom": "{0.33192731992212859, 0.95168374816983903}",
      "curveMode": 2,
      "curveTo": "{0.34231018818948739, 0.90336749633967772}",
      "hasCurveFrom": true,
      "hasCurveTo": true,
      "point": "{0.33711875405580788, 0.92752562225475832}"
    }
  ],
  "resizingConstraint": 63,
  "resizingType": 0,
  "rotation": 0,
  "shouldBreakMaskChain": false,
  "style": {
    "_class": "style",
    "do_objectID": "5D275872-CF92-4FA8-AEA1-83A554643BE0",
    "endMarkerType": 0,
    "fills": [
      {
        "_class": "fill",
        "color": {
          "_class": "color",
          "alpha": 1,
          "blue": 0.1764705882352941,
          "green": 0.1764705882352941,
          "red": 0.1764705882352941
        },
        "fillType": 0,
        "isEnabled": true,
        "noiseIndex": 0,
        "noiseIntensity": 0,
        "patternFillType": 1,
        "patternTileScale": 1
      }
    ],
    "miterLimit": 10,
    "startMarkerType": 0,
    "windingRule": 0
  }
}