{
  "_class": "group",
  "booleanOperation": 0,
  "clippingMaskMode": 0,
  "do_objectID": "AA592D06-0BD2-4724-91F7-74900F952AED",
  "exportOptions": {
    "_class": "exportOptions",
    "do_objectID": "A78AFFAF-4729-422B-8C27-E46921C2A1D0",
    "exportFormats": [
    ],
    "includedLayerIds": [
    ],
    "layerOptions": 0,
    "shouldTrim": false
  },
  "frame": {
    "_class": "rect",
    "constrainProportions": true,
    "do_objectID": "4BDB8CC8-71F6-4A7B-A7E7-0DF3BF89CC1E",
    "height": 15,
    "width": 15,
    "x": 905.1066017177982,
    "y": 24.10660171779818
  },
  "groupLayout": {
    "_class": "MSImmutableFreeformGroupLayout",
    "do_objectID": "8C969A60-DAB4-4B6E-9F8B-D6C61098B62A"
  },
  "hasClickThrough": false,
  "hasClippingMask": false,
  "isFixedToViewport": false,
  "isFlippedHorizontal": false,
  "isFlippedVertical": false,
  "isLocked": false,
  "isVisible": true,
  "layerListExpandedType": 0,
  "layers": [
    {
      "class": "shapePath",
      "id": "F8428272-4F07-4DCC-99CE-4E4FDF4E2212"
    }
  ],
  "name": "cancel",
  "nameIsFixed": false,
  "resizingConstraint": 63,
  "resizingType": 0,
  "rotation": 0,
  "shouldBreakMaskChain": false,
  "style": {
    "_class": "style",
    "do_objectID": "1B15CB9B-E751-48AC-BFB5-210300E79FC7",
    "endMarkerType": 0,
    "miterLimit": 10,
    "startMarkerType": 0,
    "windingRule": 1
  }
}