{
  "_class": "symbolMaster",
  "allowsOverrides": true,
  "backgroundColor": {
    "_class": "color",
    "alpha": 1,
    "blue": 1,
    "green": 1,
    "red": 1
  },
  "booleanOperation": -1,
  "changeIdentifier": 2644,
  "clippingMaskMode": 0,
  "do_objectID": "AE9A201F-63B7-4443-BE87-43C727A0975B",
  "exportOptions": {
    "_class": "exportOptions",
    "exportFormats": [
    ],
    "includedLayerIds": [
    ],
    "layerOptions": 0,
    "shouldTrim": false
  },
  "frame": {
    "_class": "rect",
    "constrainProportions": false,
    "height": 24,
    "width": 1200,
    "x": 26394,
    "y": 0
  },
  "groupLayout": {
    "_class": "MSImmutableFreeformGroupLayout"
  },
  "hasBackgroundColor": false,
  "hasClickThrough": true,
  "hasClippingMask": false,
  "horizontalRulerData": {
    "_class": "rulerData",
    "base": 0,
    "guides": [
    ]
  },
  "includeBackgroundColorInExport": true,
  "includeBackgroundColorInInstance": false,
  "includeInCloudUpload": true,
  "isFixedToViewport": false,
  "isFlippedHorizontal": false,
  "isFlippedVertical": false,
  "isFlowHome": false,
  "isLocked": false,
  "isVisible": true,
  "layerListExpandedType": 2,
  "layers": [
    {
      "class": "rectangle",
      "id": "E34B87C8-7E14-49DD-AC97-F661570417AC"
    },
    {
      "class": "rectangle",
      "id": "40E4279C-9411-4A5A-937E-A118B30B5388"
    },
    {
      "class": "symbolInstance",
      "id": "09DCD049-7C82-4972-8967-C92E938D7B6C"
    },
    {
      "class": "symbolInstance",
      "id": "1502BC93-9543-44CF-8D00-2535FFBF8EF0"
    },
    {
      "class": "symbolInstance",
      "id": "D6B5AB61-2B18-47BF-8DD5-8590E5FFE44A"
    },
    {
      "class": "symbolInstance",
      "id": "7580597A-FC30-4960-99B0-36576359443B"
    },
    {
      "class": "symbolInstance",
      "id": "512F953A-4085-4A9F-B9D0-849C219BF032"
    },
    {
      "class": "symbolInstance",
      "id": "B8560FB2-7780-453D-8866-BA028F2CAEC9"
    }
  ],
  "name": "data table / row / 24 compact / default / 01 enabled",
  "nameIsFixed": true,
  "overrideProperties": [
    {
      "_class": "MSImmutableOverrideProperty",
      "canOverride": false,
      "overrideName": "40E4279C-9411-4A5A-937E-A118B30B5388_layerStyle"
    },
    {
      "_class": "MSImmutableOverrideProperty",
      "canOverride": true,
      "overrideName": "512F953A-4085-4A9F-B9D0-849C219BF032_symbolID"
    },
    {
      "_class": "MSImmutableOverrideProperty",
      "canOverride": false,
      "overrideName": "E34B87C8-7E14-49DD-AC97-F661570417AC_layerStyle"
    },
    {
      "_class": "MSImmutableOverrideProperty",
      "canOverride": true,
      "overrideName": "D6B5AB61-2B18-47BF-8DD5-8590E5FFE44A_symbolID"
    },
    {
      "_class": "MSImmutableOverrideProperty",
      "canOverride": true,
      "overrideName": "7580597A-FC30-4960-99B0-36576359443B_symbolID"
    },
    {
      "_class": "MSImmutableOverrideProperty",
      "canOverride": true,
      "overrideName": "1502BC93-9543-44CF-8D00-2535FFBF8EF0_symbolID"
    },
    {
      "_class": "MSImmutableOverrideProperty",
      "canOverride": true,
      "overrideName": "B8560FB2-7780-453D-8866-BA028F2CAEC9_symbolID"
    },
    {
      "_class": "MSImmutableOverrideProperty",
      "canOverride": true,
      "overrideName": "09DCD049-7C82-4972-8967-C92E938D7B6C_symbolID"
    }
  ],
  "resizesContent": true,
  "resizingConstraint": 63,
  "resizingType": 0,
  "rotation": 0,
  "shouldBreakMaskChain": true,
  "style": {
    "_class": "style",
    "endMarkerType": 0,
    "miterLimit": 10,
    "startMarkerType": 0,
    "windingRule": 1
  },
  "symbolID": "BEBAE628-F0B2-40F0-86B3-8D025EB98433",
  "verticalRulerData": {
    "_class": "rulerData",
    "base": 0,
    "guides": [
    ]
  }
}