{
  "_class": "shapePath",
  "booleanOperation": -1,
  "clippingMaskMode": 0,
  "do_objectID": "06783501-512C-413A-AA62-0BFCB96CCB8C",
  "edited": true,
  "exportOptions": {
    "_class": "exportOptions",
    "do_objectID": "84B54B73-5240-41E1-A49E-59DFB18DA7C7",
    "exportFormats": [
    ],
    "includedLayerIds": [
    ],
    "layerOptions": 0,
    "shouldTrim": false
  },
  "frame": {
    "_class": "rect",
    "constrainProportions": false,
    "do_objectID": "13E7E37B-9479-4018-B5B5-797039F73E89",
    "height": 0.1058906030855589,
    "width": 0.1072903469905775,
    "x": 5.990559151819519,
    "y": 19.19908205679139
  },
  "hasClippingMask": false,
  "isClosed": true,
  "isFixedToViewport": false,
  "isFlippedHorizontal": false,
  "isFlippedVertical": false,
  "isLocked": false,
  "isVisible": true,
  "layerListExpandedType": 0,
  "name": "Path",
  "nameIsFixed": false,
  "pointRadiusBehaviour": 0,
  "points": [
    {
      "_class": "curvePoint",
      "cornerRadius": 0,
      "curveFrom": "{0.08430472674610956, 0.25383103250147421}",
      "curveMode": 3,
      "curveTo": "{-0.060954039772937584, 0.76639331048710013}",
      "hasCurveFrom": true,
      "hasCurveTo": true,
      "point": "{0.0056228948816234503, 0.53510325770583156}"
    },
    {
      "_class": "curvePoint",
      "cornerRadius": 0,
      "curveFrom": "{1.1465094569166883, 0.43611895545621748}",
      "curveMode": 4,
      "curveTo": "{0.75990930227482778, 0.25481107509800971}",
      "hasCurveFrom": true,
      "hasCurveTo": true,
      "point": "{0.88852383513024003, 0}"
    },
    {
      "_class": "curvePoint",
      "cornerRadius": 0,
      "curveFrom": "{0.48225322252227143, 1.2515143957698709}",
      "curveMode": 4,
      "curveTo": "{0.90970740524760618, 0.6429079433242374}",
      "hasCurveFrom": true,
      "hasCurveTo": true,
      "point": "{0.65399145168801831, 0.83989650522692993}"
    }
  ],
  "resizingConstraint": 63,
  "resizingType": 0,
  "rotation": 0,
  "shouldBreakMaskChain": false,
  "style": {
    "_class": "style",
    "do_objectID": "639DEEBB-467B-43BC-9CD9-7A8DC5726F6F",
    "endMarkerType": 0,
    "fills": [
      {
        "_class": "fill",
        "color": {
          "_class": "color",
          "alpha": 1,
          "blue": 0.1764705882352941,
          "green": 0.1764705882352941,
          "red": 0.1764705882352941
        },
        "fillType": 0,
        "isEnabled": true,
        "noiseIndex": 0,
        "noiseIntensity": 0,
        "patternFillType": 1,
        "patternTileScale": 1
      }
    ],
    "miterLimit": 10,
    "startMarkerType": 0,
    "windingRule": 1
  }
}