{
  "_class": "shapePath",
  "booleanOperation": -1,
  "clippingMaskMode": 0,
  "do_objectID": "07BEE291-B8C5-4A52-8373-BA96AE3450C9",
  "edited": true,
  "exportOptions": {
    "_class": "exportOptions",
    "do_objectID": "3CA074E8-0C01-40DD-8FF9-AC3BEAFB67C1",
    "exportFormats": [
    ],
    "includedLayerIds": [
    ],
    "layerOptions": 0,
    "shouldTrim": false
  },
  "frame": {
    "_class": "rect",
    "constrainProportions": false,
    "do_objectID": "B7EFDFD2-D28E-46D6-9251-25E7C7D8161C",
    "height": 0.185959252073566,
    "width": 0.2206699193768689,
    "x": 8.454904075166935,
    "y": 9.025843195951582
  },
  "hasClippingMask": false,
  "isClosed": true,
  "isFixedToViewport": false,
  "isFlippedHorizontal": false,
  "isFlippedVertical": false,
  "isLocked": false,
  "isVisible": true,
  "layerListExpandedType": 0,
  "name": "Path",
  "nameIsFixed": false,
  "pointRadiusBehaviour": 0,
  "points": [
    {
      "_class": "curvePoint",
      "cornerRadius": 0,
      "curveFrom": "{0.67666887610154935, 0.81465520031047911}",
      "curveMode": 4,
      "curveTo": "{0.96100898847186078, 0.52987836690516699}",
      "hasCurveFrom": true,
      "hasCurveTo": true,
      "point": "{1, 0.72176474776019428}"
    },
    {
      "_class": "curvePoint",
      "cornerRadius": 0,
      "curveFrom": "{-0.061217625081953386, 0.77322518626222247}",
      "curveMode": 4,
      "curveTo": "{0.3540734316658869, 0.90710954744971517}",
      "hasCurveFrom": true,
      "hasCurveTo": true,
      "point": "{0.030742307767436278, 1}"
    },
    {
      "_class": "curvePoint",
      "cornerRadius": 0,
      "curveFrom": "{0.29448339517948535, 0.61579113287889675}",
      "curveMode": 3,
      "curveTo": "{0.068629800101382768, 0.69472621227607156}",
      "hasCurveFrom": true,
      "hasCurveTo": true,
      "point": "{0.21576569266040832, 0.64326577377404337}"
    },
    {
      "_class": "curvePoint",
      "cornerRadius": 0,
      "curveFrom": "{0.45228663994903878, 0.31705892632049948}",
      "curveMode": 4,
      "curveTo": "{0.37798301420673264, 0.60139965431476294}",
      "hasCurveFrom": true,
      "hasCurveTo": true,
      "point": "{0.45706855645720373, 0.57392501341961633}"
    },
    {
      "_class": "curvePoint",
      "cornerRadius": 0,
      "curveFrom": "{0.062376524667625777, 0.125608650876496}",
      "curveMode": 4,
      "curveTo": "{0.30772562550979798, 0.33101429947358468}",
      "hasCurveFrom": true,
      "hasCurveTo": true,
      "point": "{0.15727917536819427, 0.35674451872461116}"
    },
    {
      "_class": "curvePoint",
      "cornerRadius": 0,
      "curveFrom": "{0.546821450918208, -0.0017341291454656058}",
      "curveMode": 4,
      "curveTo": "{0.1959023471649394, 0.059320628399310175}",
      "hasCurveFrom": true,
      "hasCurveTo": true,
      "point": "{0.33972768214138682, 1.0292498679344464e-05}"
    },
    {
      "_class": "curvePoint",
      "cornerRadius": 0,
      "curveFrom": "{0.92201797694372156, 0.34017251310530849}",
      "curveMode": 4,
      "curveTo": "{0.63988490296179035, 0.21893520883780462}",
      "hasCurveFrom": true,
      "hasCurveTo": true,
      "point": "{0.88302696541557713, 0.1482861322502812}"
    }
  ],
  "resizingConstraint": 63,
  "resizingType": 0,
  "rotation": 0,
  "shouldBreakMaskChain": false,
  "style": {
    "_class": "style",
    "do_objectID": "06F51EEC-8743-47E0-988E-BBFB193BBD0F",
    "endMarkerType": 0,
    "fills": [
      {
        "_class": "fill",
        "color": {
          "_class": "color",
          "alpha": 1,
          "blue": 0.1764705882352941,
          "green": 0.1764705882352941,
          "red": 0.1764705882352941
        },
        "fillType": 0,
        "isEnabled": true,
        "noiseIndex": 0,
        "noiseIntensity": 0,
        "patternFillType": 1,
        "patternTileScale": 1
      }
    ],
    "miterLimit": 10,
    "startMarkerType": 0,
    "windingRule": 1
  }
}