{
  "_class": "shapePath",
  "booleanOperation": -1,
  "clippingMaskMode": 0,
  "do_objectID": "08331982-19B0-47C4-9D60-C150CC5344FE",
  "edited": true,
  "exportOptions": {
    "_class": "exportOptions",
    "do_objectID": "74E7B612-32EF-4863-B19D-CFE3F2BDAF62",
    "exportFormats": [
    ],
    "includedLayerIds": [
    ],
    "layerOptions": 0,
    "shouldTrim": false
  },
  "frame": {
    "_class": "rect",
    "constrainProportions": false,
    "do_objectID": "ACB2FAA6-6E46-4455-ACA3-E296F5655467",
    "height": 0.1058906030855766,
    "width": 0.1059863482545644,
    "x": 26.66747501142921,
    "y": 21.28105757980459
  },
  "hasClippingMask": false,
  "isClosed": true,
  "isFixedToViewport": false,
  "isFlippedHorizontal": false,
  "isFlippedVertical": false,
  "isLocked": false,
  "isVisible": true,
  "layerListExpandedType": 0,
  "name": "Path",
  "nameIsFixed": false,
  "pointRadiusBehaviour": 0,
  "points": [
    {
      "_class": "curvePoint",
      "cornerRadius": 0,
      "curveFrom": "{1.0421495580469582, 0.1856069481870577}",
      "curveMode": 3,
      "curveTo": "{0.27814955804694819, -0.090393051812895919}",
      "hasCurveFrom": true,
      "hasCurveTo": true,
      "point": "{0.54714955804695364, 0.007606948187060425}"
    },
    {
      "_class": "curvePoint",
      "cornerRadius": 0,
      "curveFrom": "{-0.30385044195304545, 0.78760694818708998}",
      "curveMode": 3,
      "curveTo": "{0.46214955804691726, 1.0636069481871004}",
      "hasCurveFrom": true,
      "hasCurveTo": true,
      "point": "{0.19614955804695455, 0.9676069481870968}"
    }
  ],
  "resizingConstraint": 63,
  "resizingType": 0,
  "rotation": 0,
  "shouldBreakMaskChain": false,
  "style": {
    "_class": "style",
    "do_objectID": "77949ADC-D69A-49AB-B3AC-8456033985D5",
    "endMarkerType": 0,
    "fills": [
      {
        "_class": "fill",
        "color": {
          "_class": "color",
          "alpha": 1,
          "blue": 0.1764705882352941,
          "green": 0.1764705882352941,
          "red": 0.1764705882352941
        },
        "fillType": 0,
        "isEnabled": true,
        "noiseIndex": 0,
        "noiseIntensity": 0,
        "patternFillType": 1,
        "patternTileScale": 1
      }
    ],
    "miterLimit": 10,
    "startMarkerType": 0,
    "windingRule": 1
  }
}