{
  "_class": "shapePath",
  "booleanOperation": -1,
  "clippingMaskMode": 0,
  "do_objectID": "0882F719-F789-45B5-9B54-6796263388FF",
  "edited": true,
  "exportOptions": {
    "_class": "exportOptions",
    "do_objectID": "B36416DE-060E-4F90-AB97-7A1D19ED5F60",
    "exportFormats": [
    ],
    "includedLayerIds": [
    ],
    "layerOptions": 0,
    "shouldTrim": false
  },
  "frame": {
    "_class": "rect",
    "constrainProportions": false,
    "do_objectID": "3F39221C-1687-41A5-928B-15AEC1512C5D",
    "height": 0.1058906030855518,
    "width": 0.1059863482545556,
    "x": 10.8117005945927,
    "y": 16.08758428630988
  },
  "hasClippingMask": false,
  "isClosed": true,
  "isFixedToViewport": false,
  "isFlippedHorizontal": false,
  "isFlippedVertical": false,
  "isLocked": false,
  "isVisible": true,
  "layerListExpandedType": 0,
  "name": "Path",
  "nameIsFixed": false,
  "pointRadiusBehaviour": 0,
  "points": [
    {
      "_class": "curvePoint",
      "cornerRadius": 0,
      "curveFrom": "{1.055676589374599, 0.27521078643195551}",
      "curveMode": 3,
      "curveTo": "{0.40667658937459805, -0.12078921356805949}",
      "hasCurveFrom": true,
      "hasCurveTo": true,
      "point": "{0.63267658937459714, 0.01821078643195051}"
    },
    {
      "_class": "curvePoint",
      "cornerRadius": 0,
      "curveFrom": "{-0.2893234106253999, 0.57321078643195733}",
      "curveMode": 3,
      "curveTo": "{0.35867658937459623, 0.97321078643193459}",
      "hasCurveFrom": true,
      "hasCurveTo": true,
      "point": "{0.13367658937460192, 0.83521078643195779}"
    }
  ],
  "resizingConstraint": 63,
  "resizingType": 0,
  "rotation": 0,
  "shouldBreakMaskChain": false,
  "style": {
    "_class": "style",
    "do_objectID": "C3E18711-93B9-4C1E-9519-BCE13F3D92E1",
    "endMarkerType": 0,
    "fills": [
      {
        "_class": "fill",
        "color": {
          "_class": "color",
          "alpha": 1,
          "blue": 0.1764705882352941,
          "green": 0.1764705882352941,
          "red": 0.1764705882352941
        },
        "fillType": 0,
        "isEnabled": true,
        "noiseIndex": 0,
        "noiseIntensity": 0,
        "patternFillType": 1,
        "patternTileScale": 1
      }
    ],
    "miterLimit": 10,
    "startMarkerType": 0,
    "windingRule": 1
  }
}