{
  "_class": "shapePath",
  "booleanOperation": -1,
  "clippingMaskMode": 0,
  "do_objectID": "0BC17540-FA52-4F10-A078-D1AD48EA5FF0",
  "edited": true,
  "exportOptions": {
    "_class": "exportOptions",
    "do_objectID": "F2A47A14-2B7D-4739-92E4-8B2952D3F936",
    "exportFormats": [
    ],
    "includedLayerIds": [
    ],
    "layerOptions": 0,
    "shouldTrim": false
  },
  "frame": {
    "_class": "rect",
    "constrainProportions": false,
    "do_objectID": "7544E18A-AB94-4981-917E-044A789A6899",
    "height": 0.1058906030855624,
    "width": 0.1059863482545644,
    "x": 16.78400054061245,
    "y": 23.77631187425664
  },
  "hasClippingMask": false,
  "isClosed": true,
  "isFixedToViewport": false,
  "isFlippedHorizontal": false,
  "isFlippedVertical": false,
  "isLocked": false,
  "isVisible": true,
  "layerListExpandedType": 0,
  "name": "Path",
  "nameIsFixed": false,
  "pointRadiusBehaviour": 0,
  "points": [
    {
      "_class": "curvePoint",
      "cornerRadius": 0,
      "curveFrom": "{0.94105576497290144, 0.24516212099547374}",
      "curveMode": 3,
      "curveTo": "{0.36305576497289849, -0.1078378790045349}",
      "hasCurveFrom": true,
      "hasCurveTo": true,
      "point": "{0.56405576497292031, 0.016162120995488749}"
    },
    {
      "_class": "curvePoint",
      "cornerRadius": 0,
      "curveFrom": "{-0.25794423502708241, 0.51516212099545555}",
      "curveMode": 4,
      "curveTo": "{0.31905576497291577, 0.86816212099546419}",
      "hasCurveFrom": true,
      "hasCurveTo": true,
      "point": "{0.11905576497289871, 0.74316212099546419}"
    }
  ],
  "resizingConstraint": 63,
  "resizingType": 0,
  "rotation": 0,
  "shouldBreakMaskChain": false,
  "style": {
    "_class": "style",
    "do_objectID": "207E3107-5D5B-4172-BED3-5C864AAB129A",
    "endMarkerType": 0,
    "fills": [
      {
        "_class": "fill",
        "color": {
          "_class": "color",
          "alpha": 1,
          "blue": 0.1764705882352941,
          "green": 0.1764705882352941,
          "red": 0.1764705882352941
        },
        "fillType": 0,
        "isEnabled": true,
        "noiseIndex": 0,
        "noiseIntensity": 0,
        "patternFillType": 1,
        "patternTileScale": 1
      }
    ],
    "miterLimit": 10,
    "startMarkerType": 0,
    "windingRule": 1
  }
}