{
  "_class": "shapePath",
  "booleanOperation": -1,
  "clippingMaskMode": 0,
  "do_objectID": "0E06E053-2B8D-4F25-AC2F-36D981CAE457",
  "edited": true,
  "exportOptions": {
    "_class": "exportOptions",
    "do_objectID": "14006E55-099A-4AFC-9546-3363F5AC2968",
    "exportFormats": [
    ],
    "includedLayerIds": [
    ],
    "layerOptions": 0,
    "shouldTrim": false
  },
  "frame": {
    "_class": "rect",
    "constrainProportions": false,
    "do_objectID": "CD21D3AD-3964-4474-A374-DC244AD42CD6",
    "height": 0.1058906030855624,
    "width": 0.1059863482545653,
    "x": 4.2160193594463,
    "y": 21.21169473438681
  },
  "hasClippingMask": false,
  "isClosed": true,
  "isFixedToViewport": false,
  "isFlippedHorizontal": false,
  "isFlippedVertical": false,
  "isLocked": false,
  "isVisible": true,
  "layerListExpandedType": 0,
  "name": "Path",
  "nameIsFixed": false,
  "pointRadiusBehaviour": 0,
  "points": [
    {
      "_class": "curvePoint",
      "cornerRadius": 0,
      "curveFrom": "{1.0411341858170431, 0.18990529875622997}",
      "curveMode": 4,
      "curveTo": "{0.2801341858170403, -0.086094701243723648}",
      "hasCurveFrom": true,
      "hasCurveTo": true,
      "point": "{0.54613418581704565, 0.0069052987562372437}"
    },
    {
      "_class": "curvePoint",
      "cornerRadius": 0,
      "curveFrom": "{-0.3028658141829581, 0.78790529875624316}",
      "curveMode": 3,
      "curveTo": "{0.46313418581704013, 1.0659052987562063}",
      "hasCurveFrom": true,
      "hasCurveTo": true,
      "point": "{0.19413418581704178, 0.96790529875624998}"
    }
  ],
  "resizingConstraint": 63,
  "resizingType": 0,
  "rotation": 0,
  "shouldBreakMaskChain": false,
  "style": {
    "_class": "style",
    "do_objectID": "3D12B0F0-2C00-4CDC-90F4-E17B1E85CA1A",
    "endMarkerType": 0,
    "fills": [
      {
        "_class": "fill",
        "color": {
          "_class": "color",
          "alpha": 1,
          "blue": 0.1764705882352941,
          "green": 0.1764705882352941,
          "red": 0.1764705882352941
        },
        "fillType": 0,
        "isEnabled": true,
        "noiseIndex": 0,
        "noiseIntensity": 0,
        "patternFillType": 1,
        "patternTileScale": 1
      }
    ],
    "miterLimit": 10,
    "startMarkerType": 0,
    "windingRule": 1
  }
}