{
  "_class": "shapePath",
  "booleanOperation": -1,
  "clippingMaskMode": 0,
  "do_objectID": "1C075F82-0A7F-49B0-A20C-F0B54E5B6F52",
  "edited": true,
  "exportOptions": {
    "_class": "exportOptions",
    "do_objectID": "3495DBB0-A28E-4783-AEA9-FDD09F0EE223",
    "exportFormats": [
    ],
    "includedLayerIds": [
    ],
    "layerOptions": 0,
    "shouldTrim": false
  },
  "frame": {
    "_class": "rect",
    "constrainProportions": false,
    "do_objectID": "CE9BAA5A-6491-4304-89A4-64772BB8C692",
    "height": 0.1832811094981972,
    "width": 0.2339352942765878,
    "x": 26.28996006806539,
    "y": 4.658240051027849
  },
  "hasClippingMask": false,
  "isClosed": true,
  "isFixedToViewport": false,
  "isFlippedHorizontal": false,
  "isFlippedVertical": false,
  "isLocked": false,
  "isVisible": true,
  "layerListExpandedType": 0,
  "name": "Path",
  "nameIsFixed": false,
  "pointRadiusBehaviour": 0,
  "points": [
    {
      "_class": "curvePoint",
      "cornerRadius": 0,
      "curveFrom": "{0.87369882026371437, 0.17168141592919398}",
      "curveMode": 4,
      "curveTo": "{0.54024982650937325, 0.16150442477874058}",
      "hasCurveFrom": true,
      "hasCurveTo": true,
      "point": "{0.81054823039556168, 0}"
    },
    {
      "_class": "curvePoint",
      "cornerRadius": 0,
      "curveFrom": "{0.75017349063151662, 0.46814159292035262}",
      "curveMode": 4,
      "curveTo": "{0.93719639139487065, 0.34469026548672543}",
      "hasCurveFrom": true,
      "hasCurveTo": true,
      "point": "{1, 0.51637168141591938}"
    },
    {
      "_class": "curvePoint",
      "cornerRadius": 0,
      "curveFrom": "{0.7349063150590035, 1.0429203539822922}",
      "curveMode": 3,
      "curveTo": "{0.92331714087439165, 0.86592920353982372}",
      "hasCurveFrom": true,
      "hasCurveTo": true,
      "point": "{0.89139486467731177, 0.89601769911503781}"
    },
    {
      "_class": "curvePoint",
      "cornerRadius": 0,
      "curveFrom": "{0.46009715475365009, 0.8384955752212343}",
      "curveMode": 4,
      "curveTo": "{0.66481609993062118, 0.91150442477874061}",
      "hasCurveFrom": true,
      "hasCurveTo": true,
      "point": "{0.59437890353921563, 0.75796460176989922}"
    },
    {
      "_class": "curvePoint",
      "cornerRadius": 0,
      "curveFrom": "{0.12595419847328207, 0.8278761061946851}",
      "curveMode": 4,
      "curveTo": "{0.32373351839002357, 0.91902654867256928}",
      "hasCurveFrom": true,
      "hasCurveTo": true,
      "point": "{0.18875780707843118, 1}"
    },
    {
      "_class": "curvePoint",
      "cornerRadius": 0,
      "curveFrom": "{0.27064538514921171, 0.32212389380528972}",
      "curveMode": 4,
      "curveTo": "{0.062456627342125787, 0.65530973451327457}",
      "hasCurveFrom": true,
      "hasCurveTo": true,
      "point": "{0, 0.48318584070795972}"
    }
  ],
  "resizingConstraint": 63,
  "resizingType": 0,
  "rotation": 0,
  "shouldBreakMaskChain": false,
  "style": {
    "_class": "style",
    "do_objectID": "03D6A59A-E2B9-43DB-B366-1032CA60EBD4",
    "endMarkerType": 0,
    "fills": [
      {
        "_class": "fill",
        "color": {
          "_class": "color",
          "alpha": 1,
          "blue": 0.1764705882352941,
          "green": 0.1764705882352941,
          "red": 0.1764705882352941
        },
        "fillType": 0,
        "isEnabled": true,
        "noiseIndex": 0,
        "noiseIntensity": 0,
        "patternFillType": 1,
        "patternTileScale": 1
      }
    ],
    "miterLimit": 10,
    "startMarkerType": 0,
    "windingRule": 1
  }
}