{
  "_class": "shapePath",
  "booleanOperation": -1,
  "clippingMaskMode": 0,
  "do_objectID": "1EA80ECE-9CA1-4B71-9673-72E0428D4975",
  "edited": true,
  "exportOptions": {
    "_class": "exportOptions",
    "do_objectID": "C2DC15C9-35A1-4FE7-B78C-24801D7ED9C2",
    "exportFormats": [
    ],
    "includedLayerIds": [
    ],
    "layerOptions": 0,
    "shouldTrim": false
  },
  "frame": {
    "_class": "rect",
    "constrainProportions": false,
    "do_objectID": "C3333B17-A329-4F43-B5B8-34A296BEC4BC",
    "height": 0.1058906030855624,
    "width": 0.1072075042151752,
    "x": 15.57584293346977,
    "y": 20.43460758918294
  },
  "hasClippingMask": false,
  "isClosed": true,
  "isFixedToViewport": false,
  "isFlippedHorizontal": false,
  "isFlippedVertical": false,
  "isLocked": false,
  "isVisible": true,
  "layerListExpandedType": 0,
  "name": "Path",
  "nameIsFixed": false,
  "pointRadiusBehaviour": 0,
  "points": [
    {
      "_class": "curvePoint",
      "cornerRadius": 0,
      "curveFrom": "{1.145652092444464, 0.43702653698105415}",
      "curveMode": 4,
      "curveTo": "{0.76026748049167892, 0.25868835372870669}",
      "hasCurveFrom": true,
      "hasCurveTo": true,
      "point": "{0.88898139803976872, 0}"
    },
    {
      "_class": "curvePoint",
      "cornerRadius": 0,
      "curveFrom": "{0.4823968467261302, 1.2513069231498102}",
      "curveMode": 4,
      "curveTo": "{0.91093847809208517, 0.64476112406623698}",
      "hasCurveFrom": true,
      "hasCurveTo": true,
      "point": "{0.65351064299592709, 0.83975726949050411}"
    },
    {
      "_class": "curvePoint",
      "cornerRadius": 0,
      "curveFrom": "{0.083383702327077591, 0.25378895308991006}",
      "curveMode": 3,
      "curveTo": "{-0.059715888358721193, 0.7672461400362639}",
      "hasCurveFrom": true,
      "hasCurveTo": true,
      "point": "{0.0053982111067866169, 0.53501454975709795}"
    }
  ],
  "resizingConstraint": 63,
  "resizingType": 0,
  "rotation": 0,
  "shouldBreakMaskChain": false,
  "style": {
    "_class": "style",
    "do_objectID": "B5512866-C2F2-49D5-B456-785116C92B9A",
    "endMarkerType": 0,
    "fills": [
      {
        "_class": "fill",
        "color": {
          "_class": "color",
          "alpha": 1,
          "blue": 0.1764705882352941,
          "green": 0.1764705882352941,
          "red": 0.1764705882352941
        },
        "fillType": 0,
        "isEnabled": true,
        "noiseIndex": 0,
        "noiseIntensity": 0,
        "patternFillType": 1,
        "patternTileScale": 1
      }
    ],
    "miterLimit": 10,
    "startMarkerType": 0,
    "windingRule": 1
  }
}