{
  "_class": "shapePath",
  "booleanOperation": -1,
  "clippingMaskMode": 0,
  "do_objectID": "211F41A1-702E-4BE6-B3EA-E2ADDA9C88AD",
  "edited": true,
  "exportOptions": {
    "_class": "exportOptions",
    "do_objectID": "A70B9614-AEC5-4F06-927B-64F6997392CC",
    "exportFormats": [
    ],
    "includedLayerIds": [
    ],
    "layerOptions": 0,
    "shouldTrim": false
  },
  "frame": {
    "_class": "rect",
    "constrainProportions": false,
    "do_objectID": "7428F6B8-5D1E-480D-9F26-3271EF3EE0B6",
    "height": 0.105890603085566,
    "width": 0.1059863482545609,
    "x": 32.78932500237815,
    "y": 23.14835618938648
  },
  "hasClippingMask": false,
  "isClosed": true,
  "isFixedToViewport": false,
  "isFlippedHorizontal": false,
  "isFlippedVertical": false,
  "isLocked": false,
  "isVisible": true,
  "layerListExpandedType": 0,
  "name": "Path",
  "nameIsFixed": false,
  "pointRadiusBehaviour": 0,
  "points": [
    {
      "_class": "curvePoint",
      "cornerRadius": 0,
      "curveFrom": "{-0.30287487124422796, 0.7843488121505402}",
      "curveMode": 3,
      "curveTo": "{0.46012512875574885, 1.0653488121505461}",
      "hasCurveFrom": true,
      "hasCurveTo": true,
      "point": "{0.19612512875573884, 0.96734881215053292}"
    },
    {
      "_class": "curvePoint",
      "cornerRadius": 0,
      "curveFrom": "{1.0401251287557329, 0.18934881215051291}",
      "curveMode": 3,
      "curveTo": "{0.27612512875572293, -0.088651187849450253}",
      "hasCurveFrom": true,
      "hasCurveTo": true,
      "point": "{0.54412512875575203, 0.007348812150496542}"
    }
  ],
  "resizingConstraint": 63,
  "resizingType": 0,
  "rotation": 0,
  "shouldBreakMaskChain": false,
  "style": {
    "_class": "style",
    "do_objectID": "CEA3924E-5F7C-4081-8DBB-B1D42E8C2BCA",
    "endMarkerType": 0,
    "fills": [
      {
        "_class": "fill",
        "color": {
          "_class": "color",
          "alpha": 1,
          "blue": 0.1764705882352941,
          "green": 0.1764705882352941,
          "red": 0.1764705882352941
        },
        "fillType": 0,
        "isEnabled": true,
        "noiseIndex": 0,
        "noiseIntensity": 0,
        "patternFillType": 1,
        "patternTileScale": 1
      }
    ],
    "miterLimit": 10,
    "startMarkerType": 0,
    "windingRule": 1
  }
}