{
  "_class": "shapePath",
  "booleanOperation": -1,
  "clippingMaskMode": 0,
  "do_objectID": "23AB44F9-8804-4CDE-822A-4F42140EB6C7",
  "edited": true,
  "exportOptions": {
    "_class": "exportOptions",
    "do_objectID": "C9835FF8-390C-4EEC-AB2F-204E149D30BC",
    "exportFormats": [
    ],
    "includedLayerIds": [
    ],
    "layerOptions": 0,
    "shouldTrim": false
  },
  "frame": {
    "_class": "rect",
    "constrainProportions": false,
    "do_objectID": "9BF37AA6-B1F4-49BA-9577-AC268AA15478",
    "height": 0.1058906030855979,
    "width": 0.1059863482545644,
    "x": 30.77611741923958,
    "y": 20.29948054651775
  },
  "hasClippingMask": false,
  "isClosed": true,
  "isFixedToViewport": false,
  "isFlippedHorizontal": false,
  "isFlippedVertical": false,
  "isLocked": false,
  "isVisible": true,
  "layerListExpandedType": 0,
  "name": "Path",
  "nameIsFixed": false,
  "pointRadiusBehaviour": 0,
  "points": [
    {
      "_class": "curvePoint",
      "cornerRadius": 0,
      "curveFrom": "{-0.23627612281516672, 0.49505718182929631}",
      "curveMode": 3,
      "curveTo": "{0.1861238740478017, 0.76521816923720709}",
      "hasCurveFrom": true,
      "hasCurveTo": true,
      "point": "{0.10976695153795954, 0.71633189532530939}"
    },
    {
      "_class": "curvePoint",
      "cornerRadius": 0,
      "curveFrom": "{0.61908387083237204, 0.080810334470493281}",
      "curveMode": 3,
      "curveTo": "{0.32990233451848799, -0.10101229832466403}",
      "hasCurveFrom": true,
      "hasCurveTo": true,
      "point": "{0.51510848698918765, 0.014770981993005059}"
    },
    {
      "_class": "curvePoint",
      "cornerRadius": 0,
      "curveFrom": "{0.68813002416572766, 0.20088188442957827}",
      "curveMode": 4,
      "curveTo": "{0.63451771687160086, 0.18372880586398774}",
      "hasCurveFrom": true,
      "hasCurveTo": true,
      "point": "{0.60608694785195671, 0.29093554689887374}"
    },
    {
      "_class": "curvePoint",
      "cornerRadius": 0,
      "curveFrom": "{1.2453730969503842, 0.32438405010177163}",
      "curveMode": 3,
      "curveTo": "{0.7758592542834275, 0.14427672516315632}",
      "hasCurveFrom": true,
      "hasCurveTo": true,
      "point": "{0.8416561768717139, 0.16914868908324676}"
    },
    {
      "_class": "curvePoint",
      "cornerRadius": 0,
      "curveFrom": "{0.3835146418126148, 0.92559945382540676}",
      "curveMode": 3,
      "curveTo": "{0.77504694659717177, 1.078261853059082}",
      "hasCurveFrom": true,
      "hasCurveTo": true,
      "point": "{0.55978540973431634, 0.99335411415946129}"
    },
    {
      "_class": "curvePoint",
      "cornerRadius": 0,
      "curveFrom": "{0.3258407960871168, 0.68802931569208625}",
      "curveMode": 4,
      "curveTo": "{0.37864079569498788, 0.74549212888679139}",
      "hasCurveFrom": true,
      "hasCurveTo": true,
      "point": "{0.44118848753815892, 0.56967307358959196}"
    }
  ],
  "resizingConstraint": 63,
  "resizingType": 0,
  "rotation": 0,
  "shouldBreakMaskChain": false,
  "style": {
    "_class": "style",
    "do_objectID": "85E2165B-7D1C-4CF3-9EA6-54CC29E44BC5",
    "endMarkerType": 0,
    "fills": [
      {
        "_class": "fill",
        "color": {
          "_class": "color",
          "alpha": 1,
          "blue": 0.1764705882352941,
          "green": 0.1764705882352941,
          "red": 0.1764705882352941
        },
        "fillType": 0,
        "isEnabled": true,
        "noiseIndex": 0,
        "noiseIntensity": 0,
        "patternFillType": 1,
        "patternTileScale": 1
      }
    ],
    "miterLimit": 10,
    "startMarkerType": 0,
    "windingRule": 1
  }
}