{
  "_class": "shapePath",
  "booleanOperation": -1,
  "clippingMaskMode": 0,
  "do_objectID": "2C94423F-A803-4968-AA41-BC3E084FBB3A",
  "edited": true,
  "exportOptions": {
    "_class": "exportOptions",
    "do_objectID": "FF1904D1-0825-4024-912A-C0741347A118",
    "exportFormats": [
    ],
    "includedLayerIds": [
    ],
    "layerOptions": 0,
    "shouldTrim": false
  },
  "frame": {
    "_class": "rect",
    "constrainProportions": false,
    "do_objectID": "EDE9B627-0133-4D24-AC77-27C22D5FF720",
    "height": 0.1058906030855589,
    "width": 0.1059863482545573,
    "x": 24.14600373817725,
    "y": 20.94243022107801
  },
  "hasClippingMask": false,
  "isClosed": true,
  "isFixedToViewport": false,
  "isFlippedHorizontal": false,
  "isFlippedVertical": false,
  "isLocked": false,
  "isVisible": true,
  "layerListExpandedType": 0,
  "name": "Path",
  "nameIsFixed": false,
  "pointRadiusBehaviour": 0,
  "points": [
    {
      "_class": "curvePoint",
      "cornerRadius": 0,
      "curveFrom": "{-0.28921708989383887, 0.57614818545636126}",
      "curveMode": 4,
      "curveTo": "{0.35878291010618568, 0.97214818545631942}",
      "hasCurveFrom": true,
      "hasCurveTo": true,
      "point": "{0.13378291010616294, 0.83114818545635671}"
    },
    {
      "_class": "curvePoint",
      "cornerRadius": 0,
      "curveFrom": "{1.0547829101062121, 0.27714818545638309}",
      "curveMode": 3,
      "curveTo": "{0.40578291010621115, -0.12085181454364147}",
      "hasCurveFrom": true,
      "hasCurveTo": true,
      "point": "{0.63378291010616294, 0.018148185456368537}"
    }
  ],
  "resizingConstraint": 63,
  "resizingType": 0,
  "rotation": 0,
  "shouldBreakMaskChain": false,
  "style": {
    "_class": "style",
    "do_objectID": "C564D8DC-EEFA-4718-BB16-616022B5C869",
    "endMarkerType": 0,
    "fills": [
      {
        "_class": "fill",
        "color": {
          "_class": "color",
          "alpha": 1,
          "blue": 0.1764705882352941,
          "green": 0.1764705882352941,
          "red": 0.1764705882352941
        },
        "fillType": 0,
        "isEnabled": true,
        "noiseIndex": 0,
        "noiseIntensity": 0,
        "patternFillType": 1,
        "patternTileScale": 1
      }
    ],
    "miterLimit": 10,
    "startMarkerType": 0,
    "windingRule": 1
  }
}