{
  "_class": "shapePath",
  "booleanOperation": -1,
  "clippingMaskMode": 0,
  "do_objectID": "31CA9ED2-939B-450D-8051-909820FD721E",
  "edited": true,
  "exportOptions": {
    "_class": "exportOptions",
    "do_objectID": "7E28FE7A-09AC-4A14-87F7-5FD5CE98B7B2",
    "exportFormats": [
    ],
    "includedLayerIds": [
    ],
    "layerOptions": 0,
    "shouldTrim": false
  },
  "frame": {
    "_class": "rect",
    "constrainProportions": false,
    "do_objectID": "C875CD99-E5E0-4424-90E2-371FBCD22ADF",
    "height": 0.1058906030855553,
    "width": 0.1392085460389332,
    "x": 19.12319566755774,
    "y": 22.6217477750009
  },
  "hasClippingMask": false,
  "isClosed": true,
  "isFixedToViewport": false,
  "isFlippedHorizontal": false,
  "isFlippedVertical": false,
  "isLocked": false,
  "isVisible": true,
  "layerListExpandedType": 0,
  "name": "Path",
  "nameIsFixed": false,
  "pointRadiusBehaviour": 0,
  "points": [
    {
      "_class": "curvePoint",
      "cornerRadius": 0,
      "curveFrom": "{0.21690962099124486, -0.028155923826147955}",
      "curveMode": 4,
      "curveTo": "{0.073469387755104684, 0.65284407617389206}",
      "hasCurveFrom": true,
      "hasCurveTo": true,
      "point": "{0, 0.10684407617389979}"
    },
    {
      "_class": "curvePoint",
      "cornerRadius": 0,
      "curveFrom": "{0.71661807580173909, 0.28484407617389707}",
      "curveMode": 4,
      "curveTo": "{0.42682215743440111, -0.12915592382614705}",
      "hasCurveFrom": true,
      "hasCurveTo": true,
      "point": "{0.5002915451895058, 0.41484407617389252}"
    },
    {
      "_class": "curvePoint",
      "cornerRadius": 0,
      "curveFrom": "{0.78250728862972707, 0.85884407617390934}",
      "curveMode": 4,
      "curveTo": "{0.92536443148687231, 0.17984407617387888}",
      "hasCurveFrom": true,
      "hasCurveTo": true,
      "point": "{1, 0.7268440761738475}"
    },
    {
      "_class": "curvePoint",
      "cornerRadius": 0,
      "curveFrom": "{0.28279883381923282, 0.54984407617388342}",
      "curveMode": 4,
      "curveTo": "{0.5725947521865874, 0.96184407617386114}",
      "hasCurveFrom": true,
      "hasCurveTo": true,
      "point": "{0.5002915451895058, 0.41484407617389252}"
    }
  ],
  "resizingConstraint": 63,
  "resizingType": 0,
  "rotation": 0,
  "shouldBreakMaskChain": false,
  "style": {
    "_class": "style",
    "do_objectID": "06E150EF-E933-4B70-9734-BC051129977A",
    "endMarkerType": 0,
    "fills": [
      {
        "_class": "fill",
        "color": {
          "_class": "color",
          "alpha": 1,
          "blue": 0.1764705882352941,
          "green": 0.1764705882352941,
          "red": 0.1764705882352941
        },
        "fillType": 0,
        "isEnabled": true,
        "noiseIndex": 0,
        "noiseIntensity": 0,
        "patternFillType": 1,
        "patternTileScale": 1
      }
    ],
    "miterLimit": 10,
    "startMarkerType": 0,
    "windingRule": 1
  }
}