{
  "_class": "shapePath",
  "booleanOperation": -1,
  "clippingMaskMode": 0,
  "do_objectID": "321A59DC-6CF6-4C0F-A1E0-ED66C2464A11",
  "edited": true,
  "exportOptions": {
    "_class": "exportOptions",
    "do_objectID": "BA05888D-4245-4ABF-B510-2ACE1ED3FA59",
    "exportFormats": [
    ],
    "includedLayerIds": [
    ],
    "layerOptions": 0,
    "shouldTrim": false
  },
  "frame": {
    "_class": "rect",
    "constrainProportions": false,
    "do_objectID": "50B5BC1D-5C54-4EDD-84F6-DDBD4129E7DB",
    "height": 0.1058906030855695,
    "width": 0.1059863482545591,
    "x": 5.57936033907994,
    "y": 20.05122205224476
  },
  "hasClippingMask": false,
  "isClosed": true,
  "isFixedToViewport": false,
  "isFlippedHorizontal": false,
  "isFlippedVertical": false,
  "isLocked": false,
  "isVisible": true,
  "layerListExpandedType": 0,
  "name": "Path",
  "nameIsFixed": false,
  "pointRadiusBehaviour": 0,
  "points": [
    {
      "_class": "curvePoint",
      "cornerRadius": 0,
      "curveFrom": "{0.92925601165990201, 0.16744472058559268}",
      "curveMode": 3,
      "curveTo": "{0.24825601165989042, -0.078555279414388224}",
      "hasCurveFrom": true,
      "hasCurveTo": true,
      "point": "{0.48425601165989463, 0.0064447205855913126}"
    },
    {
      "_class": "curvePoint",
      "cornerRadius": 0,
      "curveFrom": "{-0.26774398834010071, 0.70244472058561769}",
      "curveMode": 4,
      "curveTo": "{0.40925601165989178, 0.94944472058560336}",
      "hasCurveFrom": true,
      "hasCurveTo": true,
      "point": "{0.17125601165989224, 0.86544472058560018}"
    }
  ],
  "resizingConstraint": 63,
  "resizingType": 0,
  "rotation": 0,
  "shouldBreakMaskChain": false,
  "style": {
    "_class": "style",
    "do_objectID": "80D879E9-7D53-4A65-85FE-135CC937C8AF",
    "endMarkerType": 0,
    "fills": [
      {
        "_class": "fill",
        "color": {
          "_class": "color",
          "alpha": 1,
          "blue": 0.1764705882352941,
          "green": 0.1764705882352941,
          "red": 0.1764705882352941
        },
        "fillType": 0,
        "isEnabled": true,
        "noiseIndex": 0,
        "noiseIntensity": 0,
        "patternFillType": 1,
        "patternTileScale": 1
      }
    ],
    "miterLimit": 10,
    "startMarkerType": 0,
    "windingRule": 1
  }
}