{
  "_class": "shapePath",
  "booleanOperation": -1,
  "clippingMaskMode": 0,
  "do_objectID": "36FF5006-1058-42DA-B1DB-6FD1363A1335",
  "edited": true,
  "exportOptions": {
    "_class": "exportOptions",
    "do_objectID": "5D575A12-A016-4AF1-8CAD-3042A1EA24C4",
    "exportFormats": [
    ],
    "includedLayerIds": [
    ],
    "layerOptions": 0,
    "shouldTrim": false
  },
  "frame": {
    "_class": "rect",
    "constrainProportions": false,
    "do_objectID": "81B3DB36-C53C-4D9F-AF46-5F96EC8E57A7",
    "height": 0.1058906030855589,
    "width": 0.1072865732955552,
    "x": 10.39123329024443,
    "y": 22.68223411561761
  },
  "hasClippingMask": false,
  "isClosed": true,
  "isFixedToViewport": false,
  "isFlippedHorizontal": false,
  "isFlippedVertical": false,
  "isLocked": false,
  "isVisible": true,
  "layerListExpandedType": 0,
  "name": "Path",
  "nameIsFixed": false,
  "pointRadiusBehaviour": 0,
  "points": [
    {
      "_class": "curvePoint",
      "cornerRadius": 0,
      "curveFrom": "{0.082985704840893987, 0.25368070712674667}",
      "curveMode": 3,
      "curveTo": "{-0.057738674885865079, 0.76691889451828332}",
      "hasCurveFrom": true,
      "hasCurveTo": true,
      "point": "{0.0050576881104808114, 0.53478635556451104}"
    },
    {
      "_class": "curvePoint",
      "cornerRadius": 0,
      "curveFrom": "{1.1452277969718709, 0.43781959878629373}",
      "curveMode": 4,
      "curveTo": "{0.76164037481345781, 0.2585780180751347}",
      "hasCurveFrom": true,
      "hasCurveTo": true,
      "point": "{0.88874626617956276, 0}"
    },
    {
      "_class": "curvePoint",
      "cornerRadius": 0,
      "curveFrom": "{0.48170478073335288, 1.2517526784091471}",
      "curveMode": 4,
      "curveTo": "{0.91220032946735952, 0.64448612080847045}",
      "hasCurveFrom": true,
      "hasCurveTo": true,
      "point": "{0.65420563330163817, 0.83939909655450462}"
    }
  ],
  "resizingConstraint": 63,
  "resizingType": 0,
  "rotation": 0,
  "shouldBreakMaskChain": false,
  "style": {
    "_class": "style",
    "do_objectID": "ECAEE91B-2696-461E-9555-AD70D634CE06",
    "endMarkerType": 0,
    "fills": [
      {
        "_class": "fill",
        "color": {
          "_class": "color",
          "alpha": 1,
          "blue": 0.1764705882352941,
          "green": 0.1764705882352941,
          "red": 0.1764705882352941
        },
        "fillType": 0,
        "isEnabled": true,
        "noiseIndex": 0,
        "noiseIntensity": 0,
        "patternFillType": 1,
        "patternTileScale": 1
      }
    ],
    "miterLimit": 10,
    "startMarkerType": 0,
    "windingRule": 1
  }
}