{
  "_class": "shapePath",
  "booleanOperation": -1,
  "clippingMaskMode": 0,
  "do_objectID": "38A418E4-B47E-4975-8737-656B5EE2FB72",
  "edited": true,
  "exportOptions": {
    "_class": "exportOptions",
    "do_objectID": "C92A9B21-DC38-4230-B519-882599460B2C",
    "exportFormats": [
    ],
    "includedLayerIds": [
    ],
    "layerOptions": 0,
    "shouldTrim": false
  },
  "frame": {
    "_class": "rect",
    "constrainProportions": false,
    "do_objectID": "3CBB1CC1-AF1D-46FF-8EFD-0044A6D27BFE",
    "height": 0.1058906030855535,
    "width": 0.1059863482545467,
    "x": 24.76595256367148,
    "y": 15.54181294394187
  },
  "hasClippingMask": false,
  "isClosed": true,
  "isFixedToViewport": false,
  "isFlippedHorizontal": false,
  "isFlippedVertical": false,
  "isLocked": false,
  "isVisible": true,
  "layerListExpandedType": 0,
  "name": "Path",
  "nameIsFixed": false,
  "pointRadiusBehaviour": 0,
  "points": [
    {
      "_class": "curvePoint",
      "cornerRadius": 0,
      "curveFrom": "{0.12970070269554812, 0.043000000000006366}",
      "curveMode": 3,
      "curveTo": "{-0.08352816383047848, 0.48700000000002319}",
      "hasCurveFrom": true,
      "hasCurveTo": true,
      "point": "{0.01360943092026597, 0.28300000000001546}"
    },
    {
      "_class": "curvePoint",
      "cornerRadius": 0,
      "curveFrom": "{1.1200303272276202, 0.47399999999998954}",
      "curveMode": 4,
      "curveTo": "{0.77728466770055604, 0.20900000000000318}",
      "hasCurveFrom": true,
      "hasCurveTo": true,
      "point": "{0.93997039549451211, 0}"
    },
    {
      "_class": "curvePoint",
      "cornerRadius": 0,
      "curveFrom": "{0.36346271933149804, 1.0699999999999932}",
      "curveMode": 4,
      "curveTo": "{0.86336595085369094, 0.60700000000002774}",
      "hasCurveFrom": true,
      "hasCurveTo": true,
      "point": "{0.58853763399789438, 0.72699999999997544}"
    }
  ],
  "resizingConstraint": 63,
  "resizingType": 0,
  "rotation": 0,
  "shouldBreakMaskChain": false,
  "style": {
    "_class": "style",
    "do_objectID": "84E7D90B-C8DB-48D2-A17F-F6F07A062B39",
    "endMarkerType": 0,
    "fills": [
      {
        "_class": "fill",
        "color": {
          "_class": "color",
          "alpha": 1,
          "blue": 0.1764705882352941,
          "green": 0.1764705882352941,
          "red": 0.1764705882352941
        },
        "fillType": 0,
        "isEnabled": true,
        "noiseIndex": 0,
        "noiseIntensity": 0,
        "patternFillType": 1,
        "patternTileScale": 1
      }
    ],
    "miterLimit": 10,
    "startMarkerType": 0,
    "windingRule": 1
  }
}