{
  "_class": "shapePath",
  "booleanOperation": -1,
  "clippingMaskMode": 0,
  "do_objectID": "3C1D4EA4-5B70-406F-B0A1-0C2BB97FA392",
  "edited": true,
  "exportOptions": {
    "_class": "exportOptions",
    "do_objectID": "F16CD538-5787-477D-91E3-9212C3BCA92F",
    "exportFormats": [
    ],
    "includedLayerIds": [
    ],
    "layerOptions": 0,
    "shouldTrim": false
  },
  "frame": {
    "_class": "rect",
    "constrainProportions": false,
    "do_objectID": "5C1E0511-E92E-42A5-B76D-717E19C195EE",
    "height": 0.1058906030855553,
    "width": 0.1059863482545529,
    "x": 4.979548262611137,
    "y": 15.31251206527434
  },
  "hasClippingMask": false,
  "isClosed": true,
  "isFixedToViewport": false,
  "isFlippedHorizontal": false,
  "isFlippedVertical": false,
  "isLocked": false,
  "isVisible": true,
  "layerListExpandedType": 0,
  "name": "Path",
  "nameIsFixed": false,
  "pointRadiusBehaviour": 0,
  "points": [
    {
      "_class": "curvePoint",
      "cornerRadius": 0,
      "curveFrom": "{0.92572842850579917, 0.16845989047882881}",
      "curveMode": 3,
      "curveTo": "{0.24672842850580423, -0.078540109521185286}",
      "hasCurveFrom": true,
      "hasCurveTo": true,
      "point": "{0.48472842850580378, 0.0064598904787942502}"
    },
    {
      "_class": "curvePoint",
      "cornerRadius": 0,
      "curveFrom": "{-0.26927157149420111, 0.70045989047881108}",
      "curveMode": 3,
      "curveTo": "{0.40972842850580093, 0.95045989047881108}",
      "hasCurveFrom": true,
      "hasCurveTo": true,
      "point": "{0.17372842850580383, 0.86445989047879834}"
    }
  ],
  "resizingConstraint": 63,
  "resizingType": 0,
  "rotation": 0,
  "shouldBreakMaskChain": false,
  "style": {
    "_class": "style",
    "do_objectID": "4428F2E3-5B82-4488-ADE6-C8A9D479A5A4",
    "endMarkerType": 0,
    "fills": [
      {
        "_class": "fill",
        "color": {
          "_class": "color",
          "alpha": 1,
          "blue": 0.1764705882352941,
          "green": 0.1764705882352941,
          "red": 0.1764705882352941
        },
        "fillType": 0,
        "isEnabled": true,
        "noiseIndex": 0,
        "noiseIntensity": 0,
        "patternFillType": 1,
        "patternTileScale": 1
      }
    ],
    "miterLimit": 10,
    "startMarkerType": 0,
    "windingRule": 1
  }
}