{
  "_class": "shapePath",
  "booleanOperation": -1,
  "clippingMaskMode": 0,
  "do_objectID": "485D79EA-296F-43DF-833A-636F8BFE46B8",
  "edited": true,
  "exportOptions": {
    "_class": "exportOptions",
    "do_objectID": "8B74F7FB-A69E-4C89-B5BA-6FF1C89AD6A4",
    "exportFormats": [
    ],
    "includedLayerIds": [
    ],
    "layerOptions": 0,
    "shouldTrim": false
  },
  "frame": {
    "_class": "rect",
    "constrainProportions": false,
    "do_objectID": "1CF9730F-81F3-4058-9EB0-ED8939B87079",
    "height": 0.1398572990395595,
    "width": 0.2369641770860191,
    "x": 18.29914601193826,
    "y": 6.875860378119894
  },
  "hasClippingMask": false,
  "isClosed": true,
  "isFixedToViewport": false,
  "isFlippedHorizontal": false,
  "isFlippedVertical": false,
  "isLocked": false,
  "isVisible": true,
  "layerListExpandedType": 0,
  "name": "Path",
  "nameIsFixed": false,
  "pointRadiusBehaviour": 0,
  "points": [
    {
      "_class": "curvePoint",
      "cornerRadius": 0,
      "curveFrom": "{0.48161987101259074, 0.6558231369763472}",
      "curveMode": 4,
      "curveTo": "{0.90774726755573454, 1.6589831961885724}",
      "hasCurveFrom": true,
      "hasCurveTo": true,
      "point": "{0.58746662787097526, 0.67727800529474647}"
    },
    {
      "_class": "curvePoint",
      "cornerRadius": 0,
      "curveFrom": "{0.08940454220078041, 0.93415656380978074}",
      "curveMode": 2,
      "curveTo": "{0.28499838739863759, 1.0536079928258155}",
      "hasCurveFrom": true,
      "hasCurveTo": true,
      "point": "{0.18703019173035804, 0.99388227831779818}"
    },
    {
      "_class": "curvePoint",
      "cornerRadius": 0,
      "curveFrom": "{0.13359299409311287, 0.21164937665461239}",
      "curveMode": 4,
      "curveTo": "{0.090432180616876412, 0.41460083372068723}",
      "hasCurveFrom": true,
      "hasCurveTo": true,
      "point": "{0, 0.31718413432897397}"
    },
    {
      "_class": "curvePoint",
      "cornerRadius": 0,
      "curveFrom": "{0.46312237952277507, 0.22556604799628574}",
      "curveMode": 4,
      "curveTo": "{0.26718598818621603, 0.10495489636843926}",
      "hasCurveFrom": true,
      "hasCurveTo": true,
      "point": "{0.4007789822793289, 0}"
    },
    {
      "_class": "curvePoint",
      "cornerRadius": 0,
      "curveFrom": "{1.3283939258796771, -0.30326746298730062}",
      "curveMode": 4,
      "curveTo": "{0.52512323062752908, 0.45171195729846075}",
      "hasCurveFrom": true,
      "hasCurveTo": true,
      "point": "{0.58746662787097526, 0.67727800529474647}"
    }
  ],
  "resizingConstraint": 63,
  "resizingType": 0,
  "rotation": 0,
  "shouldBreakMaskChain": false,
  "style": {
    "_class": "style",
    "do_objectID": "466AEC61-DD4A-486A-B2DB-3D5A1244F100",
    "endMarkerType": 0,
    "fills": [
      {
        "_class": "fill",
        "color": {
          "_class": "color",
          "alpha": 1,
          "blue": 0.1764705882352941,
          "green": 0.1764705882352941,
          "red": 0.1764705882352941
        },
        "fillType": 0,
        "isEnabled": true,
        "noiseIndex": 0,
        "noiseIntensity": 0,
        "patternFillType": 1,
        "patternTileScale": 1
      }
    ],
    "miterLimit": 10,
    "startMarkerType": 0,
    "windingRule": 1
  }
}