{
  "_class": "shapePath",
  "booleanOperation": -1,
  "clippingMaskMode": 0,
  "do_objectID": "48AE13FE-FF82-45A3-A329-FD91029792A8",
  "edited": true,
  "exportOptions": {
    "_class": "exportOptions",
    "do_objectID": "D33273AA-1AC7-4BBC-BC2F-FEEDB91B920D",
    "exportFormats": [
    ],
    "includedLayerIds": [
    ],
    "layerOptions": 0,
    "shouldTrim": false
  },
  "frame": {
    "_class": "rect",
    "constrainProportions": false,
    "do_objectID": "24CB13FA-D641-4F45-A39B-270B7478B8CD",
    "height": 0.1099511948139957,
    "width": 0.1640990558068793,
    "x": 17.26315844745138,
    "y": 1.815587792122279
  },
  "hasClippingMask": false,
  "isClosed": true,
  "isFixedToViewport": false,
  "isFlippedHorizontal": false,
  "isFlippedVertical": false,
  "isLocked": false,
  "isVisible": true,
  "layerListExpandedType": 0,
  "name": "Path",
  "nameIsFixed": false,
  "pointRadiusBehaviour": 0,
  "points": [
    {
      "_class": "curvePoint",
      "cornerRadius": 0,
      "curveFrom": "{0.67074181303475156, 1.0393498724024361}",
      "curveMode": 3,
      "curveTo": "{1.2128753138357051, 0.66244633536171882}",
      "hasCurveFrom": true,
      "hasCurveTo": true,
      "point": "{0.8483202133883383, 0.91691154138726016}"
    },
    {
      "_class": "curvePoint",
      "cornerRadius": 0,
      "curveFrom": "{0.23891467234201327, 0.78562224668423963}",
      "curveMode": 4,
      "curveTo": "{0.47931328674828388, 1.0725409862318638}",
      "hasCurveFrom": true,
      "hasCurveTo": true,
      "point": "{0.42292348830730681, 0.6882616461179496}"
    },
    {
      "_class": "curvePoint",
      "cornerRadius": 0,
      "curveFrom": "{0.18450346332002723, 0.35856324874575052}",
      "curveMode": 4,
      "curveTo": "{0.060841624633678738, 0.8615930183382422}",
      "hasCurveFrom": true,
      "hasCurveTo": true,
      "point": "{0, 0.45887417054133606}"
    },
    {
      "_class": "curvePoint",
      "cornerRadius": 0,
      "curveFrom": "{0.71773331173556343, 0.79594837098673199}",
      "curveMode": 4,
      "curveTo": "{0.36208186367362805, 0.2840676377063957}",
      "hasCurveFrom": true,
      "hasCurveTo": true,
      "point": "{0.42292348830730681, 0.6882616461179496}"
    },
    {
      "_class": "curvePoint",
      "cornerRadius": 0,
      "curveFrom": "{0.83892191364818725, -0.23076341680319415}",
      "curveMode": 4,
      "curveTo": "{0.58170528918057729, 0.05320500151513443}",
      "hasCurveFrom": true,
      "hasCurveTo": true,
      "point": "{0.57725346298787561, 0.056155322744429921}"
    }
  ],
  "resizingConstraint": 63,
  "resizingType": 0,
  "rotation": 0,
  "shouldBreakMaskChain": false,
  "style": {
    "_class": "style",
    "do_objectID": "E380C2BA-056C-4A90-AA42-E074724C5317",
    "endMarkerType": 0,
    "fills": [
      {
        "_class": "fill",
        "color": {
          "_class": "color",
          "alpha": 1,
          "blue": 0.1764705882352941,
          "green": 0.1764705882352941,
          "red": 0.1764705882352941
        },
        "fillType": 0,
        "isEnabled": true,
        "noiseIndex": 0,
        "noiseIntensity": 0,
        "patternFillType": 1,
        "patternTileScale": 1
      }
    ],
    "miterLimit": 10,
    "startMarkerType": 0,
    "windingRule": 1
  }
}