{
  "_class": "shapePath",
  "booleanOperation": -1,
  "clippingMaskMode": 0,
  "do_objectID": "4CD1141B-BFB2-42D5-80D3-D71DBA9407AD",
  "edited": true,
  "exportOptions": {
    "_class": "exportOptions",
    "do_objectID": "069CFF22-6DA4-4042-B4DA-0B21EDA42135",
    "exportFormats": [
    ],
    "includedLayerIds": [
    ],
    "layerOptions": 0,
    "shouldTrim": false
  },
  "frame": {
    "_class": "rect",
    "constrainProportions": false,
    "do_objectID": "BD50918D-902B-46BD-A171-B5342D03E034",
    "height": 0.1167808839280475,
    "width": 0.1059863482545609,
    "x": 22.85065202036431,
    "y": 16.13682776712251
  },
  "hasClippingMask": false,
  "isClosed": true,
  "isFixedToViewport": false,
  "isFlippedHorizontal": false,
  "isFlippedVertical": false,
  "isLocked": false,
  "isVisible": true,
  "layerListExpandedType": 0,
  "name": "Path",
  "nameIsFixed": false,
  "pointRadiusBehaviour": 0,
  "points": [
    {
      "_class": "curvePoint",
      "cornerRadius": 0,
      "curveFrom": "{0.074398423964613367, 0.085416666666658481}",
      "curveMode": 3,
      "curveTo": "{-0.089860457540959726, 0.36041666666666389}",
      "hasCurveFrom": true,
      "hasCurveTo": true,
      "point": "{0.011288432649331555, 0.19097222222224244}"
    },
    {
      "_class": "curvePoint",
      "cornerRadius": 0,
      "curveFrom": "{0.47640042343876227, 0.19236111111109847}",
      "curveMode": 4,
      "curveTo": "{0.43317440198996604, 0.096527777777782972}",
      "hasCurveFrom": true,
      "hasCurveTo": true,
      "point": "{0.51789740402964601, 0}"
    },
    {
      "_class": "curvePoint",
      "cornerRadius": 0,
      "curveFrom": "{0.9268155669356416, 0.9159722222222173}",
      "curveMode": 3,
      "curveTo": "{1.0884808871542968, 0.64097222222221184}",
      "hasCurveFrom": true,
      "hasCurveTo": true,
      "point": "{0.98906103782196719, 0.81041666666667278}"
    },
    {
      "_class": "curvePoint",
      "cornerRadius": 0,
      "curveFrom": "{0.523084526603531, 0.80624999999998626}",
      "curveMode": 4,
      "curveTo": "{0.5671750684813327, 0.90416666666666479}",
      "hasCurveFrom": true,
      "hasCurveTo": true,
      "point": "{0.48331658687060902, 1}"
    }
  ],
  "resizingConstraint": 63,
  "resizingType": 0,
  "rotation": 0,
  "shouldBreakMaskChain": false,
  "style": {
    "_class": "style",
    "do_objectID": "D35E10A7-13A8-421A-8E54-912CF579D224",
    "endMarkerType": 0,
    "fills": [
      {
        "_class": "fill",
        "color": {
          "_class": "color",
          "alpha": 1,
          "blue": 0.1764705882352941,
          "green": 0.1764705882352941,
          "red": 0.1764705882352941
        },
        "fillType": 0,
        "isEnabled": true,
        "noiseIndex": 0,
        "noiseIntensity": 0,
        "patternFillType": 1,
        "patternTileScale": 1
      }
    ],
    "miterLimit": 10,
    "startMarkerType": 0,
    "windingRule": 1
  }
}