{
  "_class": "shapePath",
  "booleanOperation": -1,
  "clippingMaskMode": 0,
  "do_objectID": "584B5A34-A332-4C72-86B7-1E487CF9B59C",
  "edited": true,
  "exportOptions": {
    "_class": "exportOptions",
    "do_objectID": "0AFF20F3-E859-40C7-BB6B-5FA1051CD461",
    "exportFormats": [
    ],
    "includedLayerIds": [
    ],
    "layerOptions": 0,
    "shouldTrim": false
  },
  "frame": {
    "_class": "rect",
    "constrainProportions": false,
    "do_objectID": "9F47AB75-76FE-47D5-B811-9255077ADFF9",
    "height": 0.1379675897659709,
    "width": 0.1685571126401229,
    "x": 21.54809057295635,
    "y": 33.13920876002649
  },
  "hasClippingMask": false,
  "isClosed": true,
  "isFixedToViewport": false,
  "isFlippedHorizontal": false,
  "isFlippedVertical": false,
  "isLocked": false,
  "isVisible": true,
  "layerListExpandedType": 0,
  "name": "Path",
  "nameIsFixed": false,
  "pointRadiusBehaviour": 0,
  "points": [
    {
      "_class": "curvePoint",
      "cornerRadius": 0,
      "curveFrom": "{0.70797401016308237, 0.61089914402361378}",
      "curveMode": 4,
      "curveTo": "{0.71808686992079473, 0.53272127475427788}",
      "hasCurveFrom": true,
      "hasCurveTo": true,
      "point": "{0.71278965766674707, 0.56505046881303433}"
    },
    {
      "_class": "curvePoint",
      "cornerRadius": 0,
      "curveFrom": "{0.66993039488409234, 1.1528539971539884}",
      "curveMode": 4,
      "curveTo": "{0.88181888504553396, 0.92948865638442857}",
      "hasCurveFrom": true,
      "hasCurveTo": true,
      "point": "{0.85966690652865951, 0.95182519046135783}"
    },
    {
      "_class": "curvePoint",
      "cornerRadius": 0,
      "curveFrom": "{-0.1159832777147158, 0.60913573343859928}",
      "curveMode": 4,
      "curveTo": "{0.32513003362137705, 0.64146492749735573}",
      "hasCurveFrom": true,
      "hasCurveTo": true,
      "point": "{0.081458269935731506, 0.92537403168603893}"
    },
    {
      "_class": "curvePoint",
      "cornerRadius": 0,
      "curveFrom": "{0.31164622061112118, 0.29936327400292417}",
      "curveMode": 3,
      "curveTo": "{0.087237046940134705, 0.52272861477248411}",
      "hasCurveFrom": true,
      "hasCurveTo": true,
      "point": "{0.25000593256413545, 0.3604948409503746}"
    },
    {
      "_class": "curvePoint",
      "cornerRadius": 0,
      "curveFrom": "{1.2232482930556783, 0.15300019544601273}",
      "curveMode": 3,
      "curveTo": "{0.81439981999417232, -0.028043291282996846}",
      "hasCurveFrom": true,
      "hasCurveTo": true,
      "point": "{0.88133732029517842, 0.0019346886623845931}"
    }
  ],
  "resizingConstraint": 63,
  "resizingType": 0,
  "rotation": 0,
  "shouldBreakMaskChain": false,
  "style": {
    "_class": "style",
    "do_objectID": "3D746860-AB63-4A7C-82AE-186C41D2C137",
    "endMarkerType": 0,
    "fills": [
      {
        "_class": "fill",
        "color": {
          "_class": "color",
          "alpha": 1,
          "blue": 0.1764705882352941,
          "green": 0.1764705882352941,
          "red": 0.1764705882352941
        },
        "fillType": 0,
        "isEnabled": true,
        "noiseIndex": 0,
        "noiseIntensity": 0,
        "patternFillType": 1,
        "patternTileScale": 1
      }
    ],
    "miterLimit": 10,
    "startMarkerType": 0,
    "windingRule": 1
  }
}