{
  "_class": "shapePath",
  "booleanOperation": -1,
  "clippingMaskMode": 0,
  "do_objectID": "61702CA6-6770-49B5-8DD2-875CF27C188F",
  "edited": true,
  "exportOptions": {
    "_class": "exportOptions",
    "do_objectID": "61590BC7-F476-4283-B119-D40A928661E0",
    "exportFormats": [
    ],
    "includedLayerIds": [
    ],
    "layerOptions": 0,
    "shouldTrim": false
  },
  "frame": {
    "_class": "rect",
    "constrainProportions": false,
    "do_objectID": "9F49A727-05E3-42CC-8157-6C9642F697D7",
    "height": 0.1058906030855589,
    "width": 0.1059863482545609,
    "x": 39.42714236714608,
    "y": 21.40877381182145
  },
  "hasClippingMask": false,
  "isClosed": true,
  "isFixedToViewport": false,
  "isFlippedHorizontal": false,
  "isFlippedVertical": false,
  "isLocked": false,
  "isVisible": true,
  "layerListExpandedType": 0,
  "name": "Path",
  "nameIsFixed": false,
  "pointRadiusBehaviour": 0,
  "points": [
    {
      "_class": "curvePoint",
      "cornerRadius": 0,
      "curveFrom": "{-0.30243466620208892, 0.78576551936617989}",
      "curveMode": 4,
      "curveTo": "{0.45956533379791153, 1.0657655193662094}",
      "hasCurveFrom": true,
      "hasCurveTo": true,
      "point": "{0.19456533379792518, 0.96476551936621036}"
    },
    {
      "_class": "curvePoint",
      "cornerRadius": 0,
      "curveFrom": "{1.0405653337979288, 0.1847655193661808}",
      "curveMode": 4,
      "curveTo": "{0.27856533379792836, -0.091234480633829662}",
      "hasCurveFrom": true,
      "hasCurveTo": true,
      "point": "{0.54256533379793837, 0.0077655193662167221}"
    }
  ],
  "resizingConstraint": 63,
  "resizingType": 0,
  "rotation": 0,
  "shouldBreakMaskChain": false,
  "style": {
    "_class": "style",
    "do_objectID": "F9DD606A-E198-42D1-8C0D-CEB1063DC580",
    "endMarkerType": 0,
    "fills": [
      {
        "_class": "fill",
        "color": {
          "_class": "color",
          "alpha": 1,
          "blue": 0.1764705882352941,
          "green": 0.1764705882352941,
          "red": 0.1764705882352941
        },
        "fillType": 0,
        "isEnabled": true,
        "noiseIndex": 0,
        "noiseIntensity": 0,
        "patternFillType": 1,
        "patternTileScale": 1
      }
    ],
    "miterLimit": 10,
    "startMarkerType": 0,
    "windingRule": 1
  }
}