{
  "_class": "shapePath",
  "booleanOperation": -1,
  "clippingMaskMode": 0,
  "do_objectID": "62934CCB-182D-4004-AFD4-8E807DBF47E5",
  "edited": true,
  "exportOptions": {
    "_class": "exportOptions",
    "do_objectID": "D2504FB1-9C88-4469-B3F5-5FA2B68F20DD",
    "exportFormats": [
    ],
    "includedLayerIds": [
    ],
    "layerOptions": 0,
    "shouldTrim": false
  },
  "frame": {
    "_class": "rect",
    "constrainProportions": false,
    "do_objectID": "6D3A5D97-AA8B-4F3E-A6DC-04E99B4A6815",
    "height": 0.1058906030855535,
    "width": 0.1203387759138863,
    "x": 17.32094553063387,
    "y": 8.914254487516816
  },
  "hasClippingMask": false,
  "isClosed": true,
  "isFixedToViewport": false,
  "isFlippedHorizontal": false,
  "isFlippedVertical": false,
  "isLocked": false,
  "isVisible": true,
  "layerListExpandedType": 0,
  "name": "Path",
  "nameIsFixed": false,
  "pointRadiusBehaviour": 0,
  "points": [
    {
      "_class": "curvePoint",
      "cornerRadius": 0,
      "curveFrom": "{0.080999038624097033, 0.25590691784783698}",
      "curveMode": 4,
      "curveTo": "{-0.059976080328425233, 0.76772075354351088}",
      "hasCurveFrom": true,
      "hasCurveTo": true,
      "point": "{0.0054525633959558112, 0.53539570184546259}"
    },
    {
      "_class": "curvePoint",
      "cornerRadius": 0,
      "curveFrom": "{1.1453949128206384, 0.43844802989629283}",
      "curveMode": 4,
      "curveTo": "{0.75754470517613381, 0.25590691784783698}",
      "hasCurveFrom": true,
      "hasCurveTo": true,
      "point": "{0.88907651472515048, 0}"
    },
    {
      "_class": "curvePoint",
      "cornerRadius": 0,
      "curveFrom": "{0.48166516617336075, 1.2507123083894156}",
      "curveMode": 4,
      "curveTo": "{0.91133574403343431, 0.64631781299453095}",
      "hasCurveFrom": true,
      "hasCurveTo": true,
      "point": "{0.65366830173743729, 0.84021315689287035}"
    }
  ],
  "resizingConstraint": 63,
  "resizingType": 0,
  "rotation": 0,
  "shouldBreakMaskChain": false,
  "style": {
    "_class": "style",
    "do_objectID": "9125B341-C0FB-4966-8F46-B4AB8BF764F1",
    "endMarkerType": 0,
    "fills": [
      {
        "_class": "fill",
        "color": {
          "_class": "color",
          "alpha": 1,
          "blue": 0.1764705882352941,
          "green": 0.1764705882352941,
          "red": 0.1764705882352941
        },
        "fillType": 0,
        "isEnabled": true,
        "noiseIndex": 0,
        "noiseIntensity": 0,
        "patternFillType": 1,
        "patternTileScale": 1
      }
    ],
    "miterLimit": 10,
    "startMarkerType": 0,
    "windingRule": 1
  }
}