{
  "_class": "shapePath",
  "booleanOperation": -1,
  "clippingMaskMode": 0,
  "do_objectID": "66035473-0886-45D6-B49B-9A6576358796",
  "edited": true,
  "exportOptions": {
    "_class": "exportOptions",
    "do_objectID": "5C8464E9-660B-4F9E-8C65-2AA031C69FBF",
    "exportFormats": [
    ],
    "includedLayerIds": [
    ],
    "layerOptions": 0,
    "shouldTrim": false
  },
  "frame": {
    "_class": "rect",
    "constrainProportions": false,
    "do_objectID": "D04F8DA9-8EB9-42BE-8C86-ECD401563AD2",
    "height": 0.1058906030855589,
    "width": 0.1059863482545538,
    "x": 13.23808445619947,
    "y": 23.34014354135916
  },
  "hasClippingMask": false,
  "isClosed": true,
  "isFixedToViewport": false,
  "isFlippedHorizontal": false,
  "isFlippedVertical": false,
  "isLocked": false,
  "isVisible": true,
  "layerListExpandedType": 0,
  "name": "Path",
  "nameIsFixed": false,
  "pointRadiusBehaviour": 0,
  "points": [
    {
      "_class": "curvePoint",
      "cornerRadius": 0,
      "curveFrom": "{0.92948648280324164, 0.16746016298776567}",
      "curveMode": 3,
      "curveTo": "{0.24548648280324414, -0.07853983701221523}",
      "hasCurveFrom": true,
      "hasCurveTo": true,
      "point": "{0.48348648280324369, 0.0064601629877643063}"
    },
    {
      "_class": "curvePoint",
      "cornerRadius": 0,
      "curveFrom": "{-0.26851351719676586, 0.70046016298778113}",
      "curveMode": 3,
      "curveTo": "{0.40948648280323141, 0.94846016298777158}",
      "hasCurveFrom": true,
      "hasCurveTo": true,
      "point": "{0.17348648280324142, 0.86246016298775885}"
    }
  ],
  "resizingConstraint": 63,
  "resizingType": 0,
  "rotation": 0,
  "shouldBreakMaskChain": false,
  "style": {
    "_class": "style",
    "do_objectID": "7F3F0A71-6C82-4365-82BA-983D9FB904E8",
    "endMarkerType": 0,
    "fills": [
      {
        "_class": "fill",
        "color": {
          "_class": "color",
          "alpha": 1,
          "blue": 0.1764705882352941,
          "green": 0.1764705882352941,
          "red": 0.1764705882352941
        },
        "fillType": 0,
        "isEnabled": true,
        "noiseIndex": 0,
        "noiseIntensity": 0,
        "patternFillType": 1,
        "patternTileScale": 1
      }
    ],
    "miterLimit": 10,
    "startMarkerType": 0,
    "windingRule": 1
  }
}