{
  "_class": "shapePath",
  "booleanOperation": -1,
  "clippingMaskMode": 0,
  "do_objectID": "72BB2A16-664A-416C-A3ED-CF7590D8DA6E",
  "edited": true,
  "exportOptions": {
    "_class": "exportOptions",
    "do_objectID": "F2D5E853-ECD0-49C0-82EC-B7D40FF43555",
    "exportFormats": [
    ],
    "includedLayerIds": [
    ],
    "layerOptions": 0,
    "shouldTrim": false
  },
  "frame": {
    "_class": "rect",
    "constrainProportions": false,
    "do_objectID": "BE5DFA68-42EE-444A-A5C8-29CAD3A416DA",
    "height": 0.2335617678561306,
    "width": 0.1845020554790153,
    "x": 28.34350934284053,
    "y": 34.89329748701654
  },
  "hasClippingMask": false,
  "isClosed": true,
  "isFixedToViewport": false,
  "isFlippedHorizontal": false,
  "isFlippedVertical": false,
  "isLocked": false,
  "isVisible": true,
  "layerListExpandedType": 0,
  "name": "Path",
  "nameIsFixed": false,
  "pointRadiusBehaviour": 0,
  "points": [
    {
      "_class": "curvePoint",
      "cornerRadius": 0,
      "curveFrom": "{0.65332160140784634, 0.85868055555554179}",
      "curveMode": 4,
      "curveTo": "{0.7787065552133775, 0.64131944444443856}",
      "hasCurveFrom": true,
      "hasCurveTo": true,
      "point": "{0.84557853057632903, 0.78680555555554388}"
    },
    {
      "_class": "curvePoint",
      "cornerRadius": 0,
      "curveFrom": "{0.17861856577211249, 0.84861111111109855}",
      "curveMode": 4,
      "curveTo": "{0.46106467223933861, 0.92847222222221615}",
      "hasCurveFrom": true,
      "hasCurveTo": true,
      "point": "{0.26924769027715578, 1}"
    },
    {
      "_class": "curvePoint",
      "cornerRadius": 0,
      "curveFrom": "{0.26924769027715578, 0.49687499999999496}",
      "curveMode": 4,
      "curveTo": "{0.089749230092393592, 0.69756944444443081}",
      "hasCurveFrom": true,
      "hasCurveTo": true,
      "point": "{0, 0.5451388888888874}"
    },
    {
      "_class": "curvePoint",
      "cornerRadius": 0,
      "curveFrom": "{0.3453585569731541, 0.1409722222222245}",
      "curveMode": 4,
      "curveTo": "{0.21909370875494832, 0.35624999999998447}",
      "hasCurveFrom": true,
      "hasCurveTo": true,
      "point": "{0.15222173339199671, 0.21145833333332686}"
    },
    {
      "_class": "curvePoint",
      "cornerRadius": 0,
      "curveFrom": "{0.81830180378356365, 0.15069444444443394}",
      "curveMode": 4,
      "curveTo": "{0.53805543334801165, 0.070138888888888362}",
      "hasCurveFrom": true,
      "hasCurveTo": true,
      "point": "{0.72987241531016955, 0}"
    },
    {
      "_class": "curvePoint",
      "cornerRadius": 0,
      "curveFrom": "{0.72855257369116999, 0.5017361111111095}",
      "curveMode": 4,
      "curveTo": "{0.90893092828860689, 0.30243055555554937}",
      "hasCurveFrom": true,
      "hasCurveTo": true,
      "point": "{1, 0.45347222222221711}"
    }
  ],
  "resizingConstraint": 63,
  "resizingType": 0,
  "rotation": 0,
  "shouldBreakMaskChain": false,
  "style": {
    "_class": "style",
    "do_objectID": "E275DE14-82A0-496D-9CF1-9CA81228A07C",
    "endMarkerType": 0,
    "fills": [
      {
        "_class": "fill",
        "color": {
          "_class": "color",
          "alpha": 1,
          "blue": 0.1764705882352941,
          "green": 0.1764705882352941,
          "red": 0.1764705882352941
        },
        "fillType": 0,
        "isEnabled": true,
        "noiseIndex": 0,
        "noiseIntensity": 0,
        "patternFillType": 1,
        "patternTileScale": 1
      }
    ],
    "miterLimit": 10,
    "startMarkerType": 0,
    "windingRule": 1
  }
}