{
  "_class": "shapePath",
  "booleanOperation": -1,
  "clippingMaskMode": 0,
  "do_objectID": "780B7AD3-4140-4AD8-8372-5148E51CC898",
  "edited": true,
  "exportOptions": {
    "_class": "exportOptions",
    "do_objectID": "DCAAA0B8-6DB6-4FB5-88C3-9792A3117FF3",
    "exportFormats": [
    ],
    "includedLayerIds": [
    ],
    "layerOptions": 0,
    "shouldTrim": false
  },
  "frame": {
    "_class": "rect",
    "constrainProportions": false,
    "do_objectID": "D90256F4-169F-41F6-B8A1-6630B35E5C44",
    "height": 0.1058906030855731,
    "width": 0.1392085460389687,
    "x": 24.47294356481072,
    "y": 22.08514562945286
  },
  "hasClippingMask": false,
  "isClosed": true,
  "isFixedToViewport": false,
  "isFlippedHorizontal": false,
  "isFlippedVertical": false,
  "isLocked": false,
  "isVisible": true,
  "layerListExpandedType": 0,
  "name": "Path",
  "nameIsFixed": false,
  "pointRadiusBehaviour": 0,
  "points": [
    {
      "_class": "curvePoint",
      "cornerRadius": 0,
      "curveFrom": "{0.78250728862974717, 0.86156989291981745}",
      "curveMode": 4,
      "curveTo": "{0.92769679300290298, 0.18056989291983427}",
      "hasCurveFrom": true,
      "hasCurveTo": true,
      "point": "{1, 0.72956989291986929}"
    },
    {
      "_class": "curvePoint",
      "cornerRadius": 0,
      "curveFrom": "{0.28338192419823965, 0.54856989291982927}",
      "curveMode": 4,
      "curveTo": "{0.57201166180756635, 0.96356989291979289}",
      "hasCurveFrom": true,
      "hasCurveTo": true,
      "point": "{0.50029154518949748, 0.41356989291983837}"
    },
    {
      "_class": "curvePoint",
      "cornerRadius": 0,
      "curveFrom": "{0.21690962099125785, -0.02643010708015936}",
      "curveMode": 4,
      "curveTo": "{0.072303206997096997, 0.65156989291983791}",
      "hasCurveFrom": true,
      "hasCurveTo": true,
      "point": "{0, 0.10556989291984564}"
    },
    {
      "_class": "curvePoint",
      "cornerRadius": 0,
      "curveFrom": "{0.7166180758017604, 0.28156989291983336}",
      "curveMode": 4,
      "curveTo": "{0.4262390670553825, -0.13043010708014435}",
      "hasCurveFrom": true,
      "hasCurveTo": true,
      "point": "{0.50029154518949748, 0.41356989291983837}"
    }
  ],
  "resizingConstraint": 63,
  "resizingType": 0,
  "rotation": 0,
  "shouldBreakMaskChain": false,
  "style": {
    "_class": "style",
    "do_objectID": "456F7B65-8454-4F12-AF80-B6AB77E2C4BC",
    "endMarkerType": 0,
    "fills": [
      {
        "_class": "fill",
        "color": {
          "_class": "color",
          "alpha": 1,
          "blue": 0.1764705882352941,
          "green": 0.1764705882352941,
          "red": 0.1764705882352941
        },
        "fillType": 0,
        "isEnabled": true,
        "noiseIndex": 0,
        "noiseIntensity": 0,
        "patternFillType": 1,
        "patternTileScale": 1
      }
    ],
    "miterLimit": 10,
    "startMarkerType": 0,
    "windingRule": 1
  }
}