{
  "_class": "shapePath",
  "booleanOperation": -1,
  "clippingMaskMode": 0,
  "do_objectID": "7FF5BBAC-8292-4B43-894F-526E041BD6AE",
  "edited": true,
  "exportOptions": {
    "_class": "exportOptions",
    "do_objectID": "0517E151-4C15-4748-94FA-EC4A31B1BBA5",
    "exportFormats": [
    ],
    "includedLayerIds": [
    ],
    "layerOptions": 0,
    "shouldTrim": false
  },
  "frame": {
    "_class": "rect",
    "constrainProportions": false,
    "do_objectID": "A71C4777-A823-4DB9-9732-D23F5E6B87F5",
    "height": 0.1058906030855589,
    "width": 0.1059863482545538,
    "x": 18.75936935688706,
    "y": 15.74764548595912
  },
  "hasClippingMask": false,
  "isClosed": true,
  "isFixedToViewport": false,
  "isFlippedHorizontal": false,
  "isFlippedVertical": false,
  "isLocked": false,
  "isVisible": true,
  "layerListExpandedType": 0,
  "name": "Path",
  "nameIsFixed": false,
  "pointRadiusBehaviour": 0,
  "points": [
    {
      "_class": "curvePoint",
      "cornerRadius": 0,
      "curveFrom": "{1.0532113336752218, 0.27692312872500224}",
      "curveMode": 3,
      "curveTo": "{0.40621133367523043, -0.12007687127498912}",
      "hasCurveFrom": true,
      "hasCurveTo": true,
      "point": "{0.63221133367522953, 0.017923128724987691}"
    },
    {
      "_class": "curvePoint",
      "cornerRadius": 0,
      "curveFrom": "{-0.28978866632476752, 0.57592312872498042}",
      "curveMode": 3,
      "curveTo": "{0.36021133367520974, 0.97292312872502862}",
      "hasCurveFrom": true,
      "hasCurveTo": true,
      "point": "{0.13421133367521065, 0.83592312872502816}"
    }
  ],
  "resizingConstraint": 63,
  "resizingType": 0,
  "rotation": 0,
  "shouldBreakMaskChain": false,
  "style": {
    "_class": "style",
    "do_objectID": "F63D237F-5ACB-4ACA-8B43-6ACFA3DD041B",
    "endMarkerType": 0,
    "fills": [
      {
        "_class": "fill",
        "color": {
          "_class": "color",
          "alpha": 1,
          "blue": 0.1764705882352941,
          "green": 0.1764705882352941,
          "red": 0.1764705882352941
        },
        "fillType": 0,
        "isEnabled": true,
        "noiseIndex": 0,
        "noiseIntensity": 0,
        "patternFillType": 1,
        "patternTileScale": 1
      }
    ],
    "miterLimit": 10,
    "startMarkerType": 0,
    "windingRule": 1
  }
}