{
  "_class": "shapePath",
  "booleanOperation": -1,
  "clippingMaskMode": 0,
  "do_objectID": "89CECAA6-18FE-4C06-BB5D-4709F19B90A8",
  "edited": true,
  "exportOptions": {
    "_class": "exportOptions",
    "do_objectID": "E79D8223-2BA6-4844-97D1-B9634EED30F1",
    "exportFormats": [
    ],
    "includedLayerIds": [
    ],
    "layerOptions": 0,
    "shouldTrim": false
  },
  "frame": {
    "_class": "rect",
    "constrainProportions": false,
    "do_objectID": "72FDDAA3-DD09-40F6-B1DC-09BA185E1318",
    "height": 0.1058906030855553,
    "width": 0.1073766845328077,
    "x": 13.37714114055131,
    "y": 17.60061494160518
  },
  "hasClippingMask": false,
  "isClosed": true,
  "isFixedToViewport": false,
  "isFlippedHorizontal": false,
  "isFlippedVertical": false,
  "isLocked": false,
  "isVisible": true,
  "layerListExpandedType": 0,
  "name": "Path",
  "nameIsFixed": false,
  "pointRadiusBehaviour": 0,
  "points": [
    {
      "_class": "curvePoint",
      "cornerRadius": 0,
      "curveFrom": "{-0.11161011881087408, 0.26688069681054993}",
      "curveMode": 4,
      "curveTo": "{0.33364311030594296, 0.59106588811989824}",
      "hasCurveFrom": true,
      "hasCurveTo": true,
      "point": "{0.056966231092447306, 0.63549736104047316}"
    },
    {
      "_class": "curvePoint",
      "cornerRadius": 0,
      "curveFrom": "{0.7690690185763962, -0.064709739985595982}",
      "curveMode": 3,
      "curveTo": "{0.12197773823003537, 0.10561090620995267}",
      "hasCurveFrom": true,
      "hasCurveTo": true,
      "point": "{0.39185108762681592, 0.034849671558658993}"
    },
    {
      "_class": "curvePoint",
      "cornerRadius": 0,
      "curveFrom": "{1.1152930914719852, 0.78936190615431956}",
      "curveMode": 4,
      "curveTo": "{0.83634836898623688, 0.046368942315852861}",
      "hasCurveFrom": true,
      "hasCurveTo": true,
      "point": "{0.94142510726676243, 0.40264353073451697}"
    },
    {
      "_class": "curvePoint",
      "cornerRadius": 0,
      "curveFrom": "{0.59746887764342604, 0.5696729567137111}",
      "curveMode": 4,
      "curveTo": "{0.87187791358469047, 0.90208619856392225}",
      "hasCurveFrom": true,
      "hasCurveTo": true,
      "point": "{0.60654025073239382, 1}"
    }
  ],
  "resizingConstraint": 63,
  "resizingType": 0,
  "rotation": 0,
  "shouldBreakMaskChain": false,
  "style": {
    "_class": "style",
    "do_objectID": "9E9C0AE8-F9F9-4A81-87C3-D20E653A5D2B",
    "endMarkerType": 0,
    "fills": [
      {
        "_class": "fill",
        "color": {
          "_class": "color",
          "alpha": 1,
          "blue": 0.1764705882352941,
          "green": 0.1764705882352941,
          "red": 0.1764705882352941
        },
        "fillType": 0,
        "isEnabled": true,
        "noiseIndex": 0,
        "noiseIntensity": 0,
        "patternFillType": 1,
        "patternTileScale": 1
      }
    ],
    "miterLimit": 10,
    "startMarkerType": 0,
    "windingRule": 1
  }
}