{
  "_class": "shapePath",
  "booleanOperation": -1,
  "clippingMaskMode": 0,
  "do_objectID": "8BE01F87-F4BB-4087-9E73-820ED007EA80",
  "edited": true,
  "exportOptions": {
    "_class": "exportOptions",
    "do_objectID": "26345990-F08B-4821-BA4B-C30318B6CF46",
    "exportFormats": [
    ],
    "includedLayerIds": [
    ],
    "layerOptions": 0,
    "shouldTrim": false
  },
  "frame": {
    "_class": "rect",
    "constrainProportions": false,
    "do_objectID": "10EB3872-FEDB-4CAE-AABE-536A31DF96B0",
    "height": 0.1058906030855589,
    "width": 0.1059863482545627,
    "x": 9.908543122653908,
    "y": 21.40007732749091
  },
  "hasClippingMask": false,
  "isClosed": true,
  "isFixedToViewport": false,
  "isFlippedHorizontal": false,
  "isFlippedVertical": false,
  "isLocked": false,
  "isVisible": true,
  "layerListExpandedType": 0,
  "name": "Path",
  "nameIsFixed": false,
  "pointRadiusBehaviour": 0,
  "points": [
    {
      "_class": "curvePoint",
      "cornerRadius": 0,
      "curveFrom": "{0.36257456343223271, 1.0709999999999695}",
      "curveMode": 4,
      "curveTo": "{0.86547393834507902, 0.60899999999998045}",
      "hasCurveFrom": true,
      "hasCurveTo": true,
      "point": "{0.58915560048088245, 0.73000000000001819}"
    },
    {
      "_class": "curvePoint",
      "cornerRadius": 0,
      "curveFrom": "{0.13046715962630626, 0.040999999999939973}",
      "curveMode": 3,
      "curveTo": "{-0.083482181977118639, 0.48599999999999}",
      "hasCurveFrom": true,
      "hasCurveTo": true,
      "point": "{0.013623976758018562, 0.28399999999999181}"
    },
    {
      "_class": "curvePoint",
      "cornerRadius": 0,
      "curveFrom": "{1.1196868091801462, 0.47399999999998954}",
      "curveMode": 4,
      "curveTo": "{0.77705207022853884, 0.20899999999994634}",
      "hasCurveFrom": true,
      "hasCurveTo": true,
      "point": "{0.93968514908575673, 0}"
    }
  ],
  "resizingConstraint": 63,
  "resizingType": 0,
  "rotation": 0,
  "shouldBreakMaskChain": false,
  "style": {
    "_class": "style",
    "do_objectID": "272ACDDE-701B-4760-A540-CAF07E69AC12",
    "endMarkerType": 0,
    "fills": [
      {
        "_class": "fill",
        "color": {
          "_class": "color",
          "alpha": 1,
          "blue": 0.1764705882352941,
          "green": 0.1764705882352941,
          "red": 0.1764705882352941
        },
        "fillType": 0,
        "isEnabled": true,
        "noiseIndex": 0,
        "noiseIntensity": 0,
        "patternFillType": 1,
        "patternTileScale": 1
      }
    ],
    "miterLimit": 10,
    "startMarkerType": 0,
    "windingRule": 1
  }
}