{
  "_class": "shapePath",
  "booleanOperation": -1,
  "clippingMaskMode": 0,
  "do_objectID": "91C175AB-C591-4B42-A2ED-1D234AB9891E",
  "edited": true,
  "exportOptions": {
    "_class": "exportOptions",
    "do_objectID": "59F06CBD-8D64-426E-BDD5-E13A535242B1",
    "exportFormats": [
    ],
    "includedLayerIds": [
    ],
    "layerOptions": 0,
    "shouldTrim": false
  },
  "frame": {
    "_class": "rect",
    "constrainProportions": false,
    "do_objectID": "F7952A6B-68C4-42BD-BF34-76AAFB30D4EE",
    "height": 0.1196193081902024,
    "width": 0.1297926910299161,
    "x": 31.31973123733852,
    "y": 16.19554260043076
  },
  "hasClippingMask": false,
  "isClosed": true,
  "isFixedToViewport": false,
  "isFlippedHorizontal": false,
  "isFlippedVertical": false,
  "isLocked": false,
  "isVisible": true,
  "layerListExpandedType": 0,
  "name": "Path",
  "nameIsFixed": false,
  "pointRadiusBehaviour": 0,
  "points": [
    {
      "_class": "curvePoint",
      "cornerRadius": 0,
      "curveFrom": "{0.49155722326454443, 0.054915254237299004}",
      "curveMode": 4,
      "curveTo": "{0.13383364602876799, 0.68949152542373471}",
      "hasCurveFrom": true,
      "hasCurveTo": true,
      "point": "{0, 0}"
    },
    {
      "_class": "curvePoint",
      "cornerRadius": 0,
      "curveFrom": "{0.51156973108191928, 0.94440677966102216}",
      "curveMode": 4,
      "curveTo": "{0.86679174484051047, 0.31050847457628461}",
      "hasCurveFrom": true,
      "hasCurveTo": true,
      "point": "{1, 1}"
    }
  ],
  "resizingConstraint": 63,
  "resizingType": 0,
  "rotation": 0,
  "shouldBreakMaskChain": false,
  "style": {
    "_class": "style",
    "do_objectID": "18529FCF-2BC9-4FFB-943D-0C158AFE9A3C",
    "endMarkerType": 0,
    "fills": [
      {
        "_class": "fill",
        "color": {
          "_class": "color",
          "alpha": 1,
          "blue": 0.1764705882352941,
          "green": 0.1764705882352941,
          "red": 0.1764705882352941
        },
        "fillType": 0,
        "isEnabled": true,
        "noiseIndex": 0,
        "noiseIntensity": 0,
        "patternFillType": 1,
        "patternTileScale": 1
      }
    ],
    "miterLimit": 10,
    "startMarkerType": 0,
    "windingRule": 1
  }
}