{
  "_class": "shapePath",
  "booleanOperation": -1,
  "clippingMaskMode": 0,
  "do_objectID": "971715CB-9CCF-44C2-8DBE-64F7ABD089B7",
  "edited": true,
  "exportOptions": {
    "_class": "exportOptions",
    "do_objectID": "1ABEAFE5-D6AF-42C3-8482-1C076AC35238",
    "exportFormats": [
    ],
    "includedLayerIds": [
    ],
    "layerOptions": 0,
    "shouldTrim": false
  },
  "frame": {
    "_class": "rect",
    "constrainProportions": false,
    "do_objectID": "ABEF419A-8B8C-4B6E-80A3-2E8E018BB3E0",
    "height": 0.1106753771566975,
    "width": 0.1205936950116673,
    "x": 29.08945560238797,
    "y": 9.34961084055982
  },
  "hasClippingMask": false,
  "isClosed": true,
  "isFixedToViewport": false,
  "isFlippedHorizontal": false,
  "isFlippedVertical": false,
  "isLocked": false,
  "isVisible": true,
  "layerListExpandedType": 0,
  "name": "Path",
  "nameIsFixed": false,
  "pointRadiusBehaviour": 0,
  "points": [
    {
      "_class": "curvePoint",
      "cornerRadius": 0,
      "curveFrom": "{0.77016089346617911, -0.064691703105905315}",
      "curveMode": 3,
      "curveTo": "{0.12331539733487154, 0.10604000152154454}",
      "hasCurveFrom": true,
      "hasCurveTo": true,
      "point": "{0.39255389728544898, 0.034962854101507491}"
    },
    {
      "_class": "curvePoint",
      "cornerRadius": 0,
      "curveFrom": "{1.1134399809031787, 0.72375170538820133}",
      "curveMode": 4,
      "curveTo": "{0.83814361470370313, 0.045954165558241729}",
      "hasCurveFrom": true,
      "hasCurveTo": true,
      "point": "{0.94180043718467887, 0.40207265675539822}"
    },
    {
      "_class": "curvePoint",
      "cornerRadius": 0,
      "curveFrom": "{0.61332946724495607, 0.99853449180576603}",
      "curveMode": 4,
      "curveTo": "{0.87651010094667359, 0.98974144264040353}",
      "hasCurveFrom": true,
      "hasCurveTo": true,
      "point": "{0.60727160099605793, 1}"
    },
    {
      "_class": "curvePoint",
      "cornerRadius": 0,
      "curveFrom": "{-0.11024900137225417, 0.26871141108072816}",
      "curveMode": 4,
      "curveTo": "{0.32120569479854555, 0.25991836191536577}",
      "hasCurveFrom": true,
      "hasCurveTo": true,
      "point": "{0.055332676097347495, 0.63582121373457723}"
    }
  ],
  "resizingConstraint": 63,
  "resizingType": 0,
  "rotation": 0,
  "shouldBreakMaskChain": false,
  "style": {
    "_class": "style",
    "do_objectID": "E28AC03A-AF63-41FD-B7FF-12639523C7B2",
    "endMarkerType": 0,
    "fills": [
      {
        "_class": "fill",
        "color": {
          "_class": "color",
          "alpha": 1,
          "blue": 0.1764705882352941,
          "green": 0.1764705882352941,
          "red": 0.1764705882352941
        },
        "fillType": 0,
        "isEnabled": true,
        "noiseIndex": 0,
        "noiseIntensity": 0,
        "patternFillType": 1,
        "patternTileScale": 1
      }
    ],
    "miterLimit": 10,
    "startMarkerType": 0,
    "windingRule": 1
  }
}