{
  "_class": "shapePath",
  "booleanOperation": -1,
  "clippingMaskMode": 0,
  "do_objectID": "9AD17DF6-0586-4B76-88B2-21B21860C316",
  "edited": true,
  "exportOptions": {
    "_class": "exportOptions",
    "do_objectID": "F132C844-DF80-421F-AEB2-060051BF8916",
    "exportFormats": [
    ],
    "includedLayerIds": [
    ],
    "layerOptions": 0,
    "shouldTrim": false
  },
  "frame": {
    "_class": "rect",
    "constrainProportions": false,
    "do_objectID": "6C3880B4-2C6D-4535-BDE3-B42EC577A6DE",
    "height": 0.1058906030855542,
    "width": 0.1059863482545609,
    "x": 29.0934933052515,
    "y": 1.767409952801878
  },
  "hasClippingMask": false,
  "isClosed": true,
  "isFixedToViewport": false,
  "isFlippedHorizontal": false,
  "isFlippedVertical": false,
  "isLocked": false,
  "isVisible": true,
  "layerListExpandedType": 0,
  "name": "Path",
  "nameIsFixed": false,
  "pointRadiusBehaviour": 0,
  "points": [
    {
      "_class": "curvePoint",
      "cornerRadius": 0,
      "curveFrom": "{0.81482418451956662, -0.060166108232579875}",
      "curveMode": 3,
      "curveTo": "{0.128631552263057, 0.099926468930028767}",
      "hasCurveFrom": true,
      "hasCurveTo": true,
      "point": "{0.41481235800557398, 0.032641182876185129}"
    },
    {
      "_class": "curvePoint",
      "cornerRadius": 0,
      "curveFrom": "{0.57914587390811423, 0.3860822831820469}",
      "curveMode": 4,
      "curveTo": "{0.88857385994903815, 0.041921911987061626}",
      "hasCurveFrom": true,
      "hasCurveTo": true,
      "point": "{1, 0.37757494816376908}"
    },
    {
      "_class": "curvePoint",
      "cornerRadius": 0,
      "curveFrom": "{0.26330487261247137, 1.1177130947561371}",
      "curveMode": 4,
      "curveTo": "{0.6015914272996985, 0.65754360967517356}",
      "hasCurveFrom": true,
      "hasCurveTo": true,
      "point": "{0.64327602645543924, 0.94060584755692878}"
    },
    {
      "_class": "curvePoint",
      "cornerRadius": 0,
      "curveFrom": "{-0.11907116195101029, 0.25073831698180488}",
      "curveMode": 4,
      "curveTo": "{0.15508524018884623, 0.86790680285507016}",
      "hasCurveFrom": true,
      "hasCurveTo": true,
      "point": "{0.06129489208834981, 0.59644547636194356}"
    }
  ],
  "resizingConstraint": 63,
  "resizingType": 0,
  "rotation": 0,
  "shouldBreakMaskChain": false,
  "style": {
    "_class": "style",
    "do_objectID": "A573C0AC-2916-4B29-ADD4-8CF8E118CC70",
    "endMarkerType": 0,
    "fills": [
      {
        "_class": "fill",
        "color": {
          "_class": "color",
          "alpha": 1,
          "blue": 0.1764705882352941,
          "green": 0.1764705882352941,
          "red": 0.1764705882352941
        },
        "fillType": 0,
        "isEnabled": true,
        "noiseIndex": 0,
        "noiseIntensity": 0,
        "patternFillType": 1,
        "patternTileScale": 1
      }
    ],
    "miterLimit": 10,
    "startMarkerType": 0,
    "windingRule": 1
  }
}