{
  "_class": "shapePath",
  "booleanOperation": -1,
  "clippingMaskMode": 0,
  "do_objectID": "9AFB4A73-2C3F-46EF-A52E-CF194510F41B",
  "edited": true,
  "exportOptions": {
    "_class": "exportOptions",
    "do_objectID": "78C09B19-2A25-4A8E-9F9B-84B4B153DC1C",
    "exportFormats": [
    ],
    "includedLayerIds": [
    ],
    "layerOptions": 0,
    "shouldTrim": false
  },
  "frame": {
    "_class": "rect",
    "constrainProportions": false,
    "do_objectID": "AEAC6C02-316B-4AB2-87D8-5A898FFE25C1",
    "height": 0.105890603085566,
    "width": 0.1059863482545502,
    "x": 30.78846303339917,
    "y": 21.60674709082779
  },
  "hasClippingMask": false,
  "isClosed": true,
  "isFixedToViewport": false,
  "isFlippedHorizontal": false,
  "isFlippedVertical": false,
  "isLocked": false,
  "isVisible": true,
  "layerListExpandedType": 0,
  "name": "Path",
  "nameIsFixed": false,
  "pointRadiusBehaviour": 0,
  "points": [
    {
      "_class": "curvePoint",
      "cornerRadius": 0,
      "curveFrom": "{0.92603617544460803, 0.16759953243297332}",
      "curveMode": 3,
      "curveTo": "{0.24603617544465806, -0.079400467567040778}",
      "hasCurveFrom": true,
      "hasCurveTo": true,
      "point": "{0.48203617544464805, 0.0065995324329151117}"
    },
    {
      "_class": "curvePoint",
      "cornerRadius": 0,
      "curveFrom": "{-0.2699638245553615, 0.70059953243293194}",
      "curveMode": 4,
      "curveTo": "{0.40903617544461213, 0.94559953243293648}",
      "hasCurveFrom": true,
      "hasCurveTo": true,
      "point": "{0.17503617544463168, 0.86359953243294285}"
    }
  ],
  "resizingConstraint": 63,
  "resizingType": 0,
  "rotation": 0,
  "shouldBreakMaskChain": false,
  "style": {
    "_class": "style",
    "do_objectID": "9DE2AAD3-02B7-4FA1-A6E8-CF6314F5AD60",
    "endMarkerType": 0,
    "fills": [
      {
        "_class": "fill",
        "color": {
          "_class": "color",
          "alpha": 1,
          "blue": 0.1764705882352941,
          "green": 0.1764705882352941,
          "red": 0.1764705882352941
        },
        "fillType": 0,
        "isEnabled": true,
        "noiseIndex": 0,
        "noiseIntensity": 0,
        "patternFillType": 1,
        "patternTileScale": 1
      }
    ],
    "miterLimit": 10,
    "startMarkerType": 0,
    "windingRule": 1
  }
}