{
  "_class": "shapePath",
  "booleanOperation": -1,
  "clippingMaskMode": 0,
  "do_objectID": "A4F652A9-B74B-429A-8D42-588D231C2227",
  "edited": true,
  "exportOptions": {
    "_class": "exportOptions",
    "do_objectID": "4DFF28E3-BFD0-4E7B-9F6A-860DBBD636F2",
    "exportFormats": [
    ],
    "includedLayerIds": [
    ],
    "layerOptions": 0,
    "shouldTrim": false
  },
  "frame": {
    "_class": "rect",
    "constrainProportions": false,
    "do_objectID": "28DBE42F-2C3C-45F7-8077-4DDA0A80189F",
    "height": 0.139586102207943,
    "width": 0.1213973068308345,
    "x": 8.26156562582321,
    "y": 19.11628116617295
  },
  "hasClippingMask": false,
  "isClosed": true,
  "isFixedToViewport": false,
  "isFlippedHorizontal": false,
  "isFlippedVertical": false,
  "isLocked": false,
  "isVisible": true,
  "layerListExpandedType": 0,
  "name": "Path",
  "nameIsFixed": false,
  "pointRadiusBehaviour": 0,
  "points": [
    {
      "_class": "curvePoint",
      "cornerRadius": 0,
      "curveFrom": "{0.10660572603560321, 0.26841640870835631}",
      "curveMode": 4,
      "curveTo": "{-1.0046748935728278, 1.3966949059196172}",
      "hasCurveFrom": true,
      "hasCurveTo": true,
      "point": "{0.3600205003025006, 0.55716739383399305}"
    },
    {
      "_class": "curvePoint",
      "cornerRadius": 0,
      "curveFrom": "{2.0556929740251073, 0.94817224894377106}",
      "curveMode": 4,
      "curveTo": "{0.33929264277671717, 0.12781733748016416}",
      "hasCurveFrom": true,
      "hasCurveTo": true,
      "point": "{0.59404469817431704, 0}"
    }
  ],
  "resizingConstraint": 63,
  "resizingType": 0,
  "rotation": 0,
  "shouldBreakMaskChain": false,
  "style": {
    "_class": "style",
    "do_objectID": "8C602D8C-2865-4F90-8EE6-6E50451F1C36",
    "endMarkerType": 0,
    "fills": [
      {
        "_class": "fill",
        "color": {
          "_class": "color",
          "alpha": 1,
          "blue": 0.1764705882352941,
          "green": 0.1764705882352941,
          "red": 0.1764705882352941
        },
        "fillType": 0,
        "isEnabled": true,
        "noiseIndex": 0,
        "noiseIntensity": 0,
        "patternFillType": 1,
        "patternTileScale": 1
      }
    ],
    "miterLimit": 10,
    "startMarkerType": 0,
    "windingRule": 1
  }
}