{
  "_class": "shapePath",
  "booleanOperation": -1,
  "clippingMaskMode": 0,
  "do_objectID": "AA92A29C-8A6A-4066-A299-CBC6597FCBBC",
  "edited": true,
  "exportOptions": {
    "_class": "exportOptions",
    "do_objectID": "26E4905A-74CF-4BCD-8EF8-8AC385158065",
    "exportFormats": [
    ],
    "includedLayerIds": [
    ],
    "layerOptions": 0,
    "shouldTrim": false
  },
  "frame": {
    "_class": "rect",
    "constrainProportions": false,
    "do_objectID": "0E175CB3-49E6-4876-AFC9-B3C3AFECC6A6",
    "height": 0.1337782340418805,
    "width": 0.1641949317030509,
    "x": 14.74977452934642,
    "y": 20.77176429204906
  },
  "hasClippingMask": false,
  "isClosed": true,
  "isFixedToViewport": false,
  "isFlippedHorizontal": false,
  "isFlippedVertical": false,
  "isLocked": false,
  "isVisible": true,
  "layerListExpandedType": 0,
  "name": "Path",
  "nameIsFixed": false,
  "pointRadiusBehaviour": 0,
  "points": [
    {
      "_class": "curvePoint",
      "cornerRadius": 0,
      "curveFrom": "{0.26991975339273783, 0.37257309587510329}",
      "curveMode": 4,
      "curveTo": "{0.79492850449729313, 2.1099738009740117}",
      "hasCurveFrom": true,
      "hasCurveTo": true,
      "point": "{0.47606725735752486, 0.28467250193256616}"
    },
    {
      "_class": "curvePoint",
      "cornerRadius": 0,
      "curveFrom": "{0.20664186248747266, -0.018432994421048177}",
      "curveMode": 4,
      "curveTo": "{0.070198910223018704, 0.44471220400728056}",
      "hasCurveFrom": true,
      "hasCurveTo": true,
      "point": "{0, 0.070680021506909191}"
    },
    {
      "_class": "curvePoint",
      "cornerRadius": 0,
      "curveFrom": "{1.4756601902515198, -0.19120312734260628}",
      "curveMode": 4,
      "curveTo": "{0.40685706417989148, -0.08814725858238498}",
      "hasCurveFrom": true,
      "hasCurveTo": true,
      "point": "{0.47606725735752486, 0.28467250193256616}"
    }
  ],
  "resizingConstraint": 63,
  "resizingType": 0,
  "rotation": 0,
  "shouldBreakMaskChain": false,
  "style": {
    "_class": "style",
    "do_objectID": "F66778B7-E059-464B-B310-9B59E637D341",
    "endMarkerType": 0,
    "fills": [
      {
        "_class": "fill",
        "color": {
          "_class": "color",
          "alpha": 1,
          "blue": 0.1764705882352941,
          "green": 0.1764705882352941,
          "red": 0.1764705882352941
        },
        "fillType": 0,
        "isEnabled": true,
        "noiseIndex": 0,
        "noiseIntensity": 0,
        "patternFillType": 1,
        "patternTileScale": 1
      }
    ],
    "miterLimit": 10,
    "startMarkerType": 0,
    "windingRule": 1
  }
}