{
  "_class": "shapePath",
  "booleanOperation": -1,
  "clippingMaskMode": 0,
  "do_objectID": "ABD1E1B4-C3E9-42DB-9FC1-DD831068EE8C",
  "edited": true,
  "exportOptions": {
    "_class": "exportOptions",
    "do_objectID": "77635E07-9DC3-495F-A351-62463FB45D98",
    "exportFormats": [
    ],
    "includedLayerIds": [
    ],
    "layerOptions": 0,
    "shouldTrim": false
  },
  "frame": {
    "_class": "rect",
    "constrainProportions": false,
    "do_objectID": "DEE9D2DB-8182-4A47-B522-3288D9109038",
    "height": 0.1083994260911645,
    "width": 0.1622615620066696,
    "x": 33.18536886232369,
    "y": 16.63568712448759
  },
  "hasClippingMask": false,
  "isClosed": true,
  "isFixedToViewport": false,
  "isFlippedHorizontal": false,
  "isFlippedVertical": false,
  "isLocked": false,
  "isVisible": true,
  "layerListExpandedType": 0,
  "name": "Path",
  "nameIsFixed": false,
  "pointRadiusBehaviour": 0,
  "points": [
    {
      "_class": "curvePoint",
      "cornerRadius": 0,
      "curveFrom": "{0.21310851941618528, -0.2822934867044275}",
      "curveMode": 3,
      "curveTo": "{-0.25012193895672385, 0.85637404075342827}",
      "hasCurveFrom": true,
      "hasCurveTo": true,
      "point": "{0.049026888372659991, 0.12170156245934217}"
    },
    {
      "_class": "curvePoint",
      "cornerRadius": 0,
      "curveFrom": "{0.59579890889275144, 0.4995117473254424}",
      "curveMode": 4,
      "curveTo": "{0.4002015987158411, 0.44863829668999761}",
      "hasCurveFrom": true,
      "hasCurveTo": true,
      "point": "{0.4132080694692975, 0.45237899158965861}"
    },
    {
      "_class": "curvePoint",
      "cornerRadius": 0,
      "curveFrom": "{0.91395719347715632, 1.6052611596662432}",
      "curveMode": 4,
      "curveTo": "{0.81490791620088465, 0.22195218577033751}",
      "hasCurveFrom": true,
      "hasCurveTo": true,
      "point": "{1, 0.24065566026866372}"
    }
  ],
  "resizingConstraint": 63,
  "resizingType": 0,
  "rotation": 0,
  "shouldBreakMaskChain": false,
  "style": {
    "_class": "style",
    "do_objectID": "2E45325E-39F0-483C-AC78-4DE98F28E5A8",
    "endMarkerType": 0,
    "fills": [
      {
        "_class": "fill",
        "color": {
          "_class": "color",
          "alpha": 1,
          "blue": 0.1764705882352941,
          "green": 0.1764705882352941,
          "red": 0.1764705882352941
        },
        "fillType": 0,
        "isEnabled": true,
        "noiseIndex": 0,
        "noiseIntensity": 0,
        "patternFillType": 1,
        "patternTileScale": 1
      }
    ],
    "miterLimit": 10,
    "startMarkerType": 0,
    "windingRule": 1
  }
}