{
  "_class": "shapePath",
  "booleanOperation": -1,
  "clippingMaskMode": 0,
  "do_objectID": "AF823FED-9487-489C-AFCA-288F9B5BB1B8",
  "edited": true,
  "exportOptions": {
    "_class": "exportOptions",
    "do_objectID": "1780213F-458E-47D3-8815-5EB8DEC8FC50",
    "exportFormats": [
    ],
    "includedLayerIds": [
    ],
    "layerOptions": 0,
    "shouldTrim": false
  },
  "frame": {
    "_class": "rect",
    "constrainProportions": false,
    "do_objectID": "6A0D91DF-A882-4574-B202-9E0DE1163C2A",
    "height": 0.1058906030855518,
    "width": 0.1180228722685985,
    "x": 13.61889787429416,
    "y": 16.34536507486071
  },
  "hasClippingMask": false,
  "isClosed": true,
  "isFixedToViewport": false,
  "isFlippedHorizontal": false,
  "isFlippedVertical": false,
  "isLocked": false,
  "isVisible": true,
  "layerListExpandedType": 0,
  "name": "Path",
  "nameIsFixed": false,
  "pointRadiusBehaviour": 0,
  "points": [
    {
      "_class": "curvePoint",
      "cornerRadius": 0,
      "curveFrom": "{0.25171939477304811, -0.02642875650801102}",
      "curveMode": 4,
      "curveTo": "{0.0075653370013725046, 0.55257124349199671}",
      "hasCurveFrom": true,
      "hasCurveTo": true,
      "point": "{0, 0.026571243491986252}"
    },
    {
      "_class": "curvePoint",
      "cornerRadius": 0,
      "curveFrom": "{0.7510316368638289, 0.41957124349198693}",
      "curveMode": 4,
      "curveTo": "{0.48968363136175053, -0.051428756508016704}",
      "hasCurveFrom": true,
      "hasCurveTo": true,
      "point": "{0.49862448418156152, 0.47157124349197943}"
    },
    {
      "_class": "curvePoint",
      "cornerRadius": 0,
      "curveFrom": "{0.74965612104539037, 0.9695712434919983}",
      "curveMode": 4,
      "curveTo": "{0.99174690508940821, 0.39057124349199057}",
      "hasCurveFrom": true,
      "hasCurveTo": true,
      "point": "{1, 0.91657124349197261}"
    },
    {
      "_class": "curvePoint",
      "cornerRadius": 0,
      "curveFrom": "{0.24896836313617116, 0.52557124349198148}",
      "curveMode": 4,
      "curveTo": "{0.50825309491059179, 0.99657124349198511}",
      "hasCurveFrom": true,
      "hasCurveTo": true,
      "point": "{0.49862448418156152, 0.47157124349197943}"
    }
  ],
  "resizingConstraint": 63,
  "resizingType": 0,
  "rotation": 0,
  "shouldBreakMaskChain": false,
  "style": {
    "_class": "style",
    "do_objectID": "527F87FF-97D1-49A4-8D5B-4D2B7239F147",
    "endMarkerType": 0,
    "fills": [
      {
        "_class": "fill",
        "color": {
          "_class": "color",
          "alpha": 1,
          "blue": 0.1764705882352941,
          "green": 0.1764705882352941,
          "red": 0.1764705882352941
        },
        "fillType": 0,
        "isEnabled": true,
        "noiseIndex": 0,
        "noiseIntensity": 0,
        "patternFillType": 1,
        "patternTileScale": 1
      }
    ],
    "miterLimit": 10,
    "startMarkerType": 0,
    "windingRule": 1
  }
}