{
  "_class": "shapePath",
  "booleanOperation": -1,
  "clippingMaskMode": 0,
  "do_objectID": "B73793FE-B628-4B01-8FB6-BBDE79825BAF",
  "edited": true,
  "exportOptions": {
    "_class": "exportOptions",
    "do_objectID": "648FEBCA-2843-4D76-A93B-228C29032E25",
    "exportFormats": [
    ],
    "includedLayerIds": [
    ],
    "layerOptions": 0,
    "shouldTrim": false
  },
  "frame": {
    "_class": "rect",
    "constrainProportions": false,
    "do_objectID": "B7B5C237-55E1-46B9-869C-5D25540AB220",
    "height": 0.2372922683149135,
    "width": 0.1297328881027582,
    "x": 44.55907177485402,
    "y": 18.10766737908049
  },
  "hasClippingMask": false,
  "isClosed": true,
  "isFixedToViewport": false,
  "isFlippedHorizontal": false,
  "isFlippedVertical": false,
  "isLocked": false,
  "isVisible": true,
  "layerListExpandedType": 0,
  "name": "Path",
  "nameIsFixed": false,
  "pointRadiusBehaviour": 0,
  "points": [
    {
      "_class": "curvePoint",
      "cornerRadius": 0,
      "curveFrom": "{0.51243874009129209, 0.22419685577580611}",
      "curveMode": 4,
      "curveTo": "{0.082597160249889209, 0.07689678742310159}",
      "hasCurveFrom": true,
      "hasCurveTo": true,
      "point": "{0.32160659765806676, 0}"
    },
    {
      "_class": "curvePoint",
      "cornerRadius": 0,
      "curveFrom": "{1.1349894998325749, 0.84415584415584732}",
      "curveMode": 4,
      "curveTo": "{0.70514791999117199, 0.44771018455229245}",
      "hasCurveFrom": true,
      "hasCurveTo": true,
      "point": "{0.89660574157990136, 0.6719070403280889}"
    },
    {
      "_class": "curvePoint",
      "cornerRadius": 0,
      "curveFrom": "{0.48553453640404765, 0.77648667122351367}",
      "curveMode": 4,
      "curveTo": "{0.91850451202304206, 0.92447026657552822}",
      "hasCurveFrom": true,
      "hasCurveTo": true,
      "point": "{0.67761803714828117, 1}"
    },
    {
      "_class": "curvePoint",
      "cornerRadius": 0,
      "curveFrom": "{-0.13388782755964357, 0.15755297334244234}",
      "curveMode": 4,
      "curveTo": "{0.29345103565974301, 0.55297334244702723}",
      "hasCurveFrom": true,
      "hasCurveTo": true,
      "point": "{0.10136753491543837, 0.3284347231715613}"
    }
  ],
  "resizingConstraint": 63,
  "resizingType": 0,
  "rotation": 0,
  "shouldBreakMaskChain": false,
  "style": {
    "_class": "style",
    "do_objectID": "4F203BE4-E9CB-4624-B47A-0020D63AF7FD",
    "endMarkerType": 0,
    "fills": [
      {
        "_class": "fill",
        "color": {
          "_class": "color",
          "alpha": 1,
          "blue": 0.1764705882352941,
          "green": 0.1764705882352941,
          "red": 0.1764705882352941
        },
        "fillType": 0,
        "isEnabled": true,
        "noiseIndex": 0,
        "noiseIntensity": 0,
        "patternFillType": 1,
        "patternTileScale": 1
      }
    ],
    "miterLimit": 10,
    "startMarkerType": 0,
    "windingRule": 1
  }
}