{
  "_class": "shapePath",
  "booleanOperation": -1,
  "clippingMaskMode": 0,
  "do_objectID": "BC80E86B-159B-4762-A23A-F303FD3FAEF7",
  "edited": true,
  "exportOptions": {
    "_class": "exportOptions",
    "do_objectID": "82729ADA-CD53-48A6-8766-2F5B26924276",
    "exportFormats": [
    ],
    "includedLayerIds": [
    ],
    "layerOptions": 0,
    "shouldTrim": false
  },
  "frame": {
    "_class": "rect",
    "constrainProportions": false,
    "do_objectID": "6DB39C5A-7806-4CCF-8EC2-3DC8CBB49420",
    "height": 0.1058906030855589,
    "width": 0.1059863482545556,
    "x": 14.14797383527048,
    "y": 8.946450328433084
  },
  "hasClippingMask": false,
  "isClosed": true,
  "isFixedToViewport": false,
  "isFlippedHorizontal": false,
  "isFlippedVertical": false,
  "isLocked": false,
  "isVisible": true,
  "layerListExpandedType": 0,
  "name": "Path",
  "nameIsFixed": false,
  "pointRadiusBehaviour": 0,
  "points": [
    {
      "_class": "curvePoint",
      "cornerRadius": 0,
      "curveFrom": "{0.36403885338085007, 1.07000000000005}",
      "curveMode": 4,
      "curveTo": "{0.86472195897648396, 0.60900000000003729}",
      "hasCurveFrom": true,
      "hasCurveTo": true,
      "point": "{0.59068877657633734, 0.72800000000000864}"
    },
    {
      "_class": "curvePoint",
      "cornerRadius": 0,
      "curveFrom": "{0.13107116229138127, 0.040000000000020464}",
      "curveMode": 3,
      "curveTo": "{-0.082943225116210301, 0.48400000000003729}",
      "hasCurveFrom": true,
      "hasCurveTo": true,
      "point": "{0.013402735266536556, 0.28400000000004866}"
    },
    {
      "_class": "curvePoint",
      "cornerRadius": 0,
      "curveFrom": "{1.1198018376947758, 0.47100000000000364}",
      "curveMode": 4,
      "curveTo": "{0.77785265043466456, 0.20699999999999363}",
      "hasCurveFrom": true,
      "hasCurveTo": true,
      "point": "{0.93974545271715537, 0}"
    }
  ],
  "resizingConstraint": 63,
  "resizingType": 0,
  "rotation": 0,
  "shouldBreakMaskChain": false,
  "style": {
    "_class": "style",
    "do_objectID": "D0FAC0F8-84B6-4CEF-9B6F-0A0644B29263",
    "endMarkerType": 0,
    "fills": [
      {
        "_class": "fill",
        "color": {
          "_class": "color",
          "alpha": 1,
          "blue": 0.1764705882352941,
          "green": 0.1764705882352941,
          "red": 0.1764705882352941
        },
        "fillType": 0,
        "isEnabled": true,
        "noiseIndex": 0,
        "noiseIntensity": 0,
        "patternFillType": 1,
        "patternTileScale": 1
      }
    ],
    "miterLimit": 10,
    "startMarkerType": 0,
    "windingRule": 1
  }
}