{
  "_class": "shapePath",
  "booleanOperation": -1,
  "clippingMaskMode": 0,
  "do_objectID": "BF94A65E-1A6C-428C-BCA5-08C7716133DD",
  "edited": true,
  "exportOptions": {
    "_class": "exportOptions",
    "do_objectID": "AE151C83-90C2-4398-BB09-A94C02E33E1A",
    "exportFormats": [
    ],
    "includedLayerIds": [
    ],
    "layerOptions": 0,
    "shouldTrim": false
  },
  "frame": {
    "_class": "rect",
    "constrainProportions": false,
    "do_objectID": "06304658-F29F-4D4C-A6CC-00861040F5DC",
    "height": 0.1544610002363946,
    "width": 0.2671343002998086,
    "x": 20.44904545822837,
    "y": 1.597226765401314
  },
  "hasClippingMask": false,
  "isClosed": true,
  "isFixedToViewport": false,
  "isFlippedHorizontal": false,
  "isFlippedVertical": false,
  "isLocked": false,
  "isVisible": true,
  "layerListExpandedType": 0,
  "name": "Path",
  "nameIsFixed": false,
  "pointRadiusBehaviour": 0,
  "points": [
    {
      "_class": "curvePoint",
      "cornerRadius": 0,
      "curveFrom": "{0.045274992403525081, 0.5584811760612769}",
      "curveMode": 4,
      "curveTo": "{0.3272561531449405, 0.54745538602574118}",
      "hasCurveFrom": true,
      "hasCurveTo": true,
      "point": "{0, 0.90343089288709633}"
    },
    {
      "_class": "curvePoint",
      "cornerRadius": 0,
      "curveFrom": "{0.4612579762989979, -0.087840135068946265}",
      "curveMode": 4,
      "curveTo": "{0.089638407778786927, 0.21090627113179253}",
      "hasCurveFrom": true,
      "hasCurveTo": true,
      "point": "{0.30325129140078744, 0.044469345357392581}"
    },
    {
      "_class": "curvePoint",
      "cornerRadius": 0,
      "curveFrom": "{0.57125493770890223, 0.42039628180682159}",
      "curveMode": 3,
      "curveTo": "{0.51625645700394573, 0.09749814505207352}",
      "hasCurveFrom": true,
      "hasCurveTo": true,
      "point": "{0.55150410209662704, 0.30646311810637555}"
    },
    {
      "_class": "curvePoint",
      "cornerRadius": 0,
      "curveFrom": "{0.73321178972956091, 0.59680892237527339}",
      "curveMode": 4,
      "curveTo": "{0.58189000303858829, 0.53800470885244611}",
      "hasCurveFrom": true,
      "hasCurveTo": true,
      "point": "{0.59981768459434559, 0.65193787255289215}"
    },
    {
      "_class": "curvePoint",
      "cornerRadius": 0,
      "curveFrom": "{0.97234883014281126, 1.5691785959846662}",
      "curveMode": 4,
      "curveTo": "{0.86690975387419722, 0.54062989695614083}",
      "hasCurveFrom": true,
      "hasCurveTo": true,
      "point": "{1, 0.48497590915776523}"
    }
  ],
  "resizingConstraint": 63,
  "resizingType": 0,
  "rotation": 0,
  "shouldBreakMaskChain": false,
  "style": {
    "_class": "style",
    "do_objectID": "50150114-65C8-440D-8816-D545518598FE",
    "endMarkerType": 0,
    "fills": [
      {
        "_class": "fill",
        "color": {
          "_class": "color",
          "alpha": 1,
          "blue": 0.1764705882352941,
          "green": 0.1764705882352941,
          "red": 0.1764705882352941
        },
        "fillType": 0,
        "isEnabled": true,
        "noiseIndex": 0,
        "noiseIntensity": 0,
        "patternFillType": 1,
        "patternTileScale": 1
      }
    ],
    "miterLimit": 10,
    "startMarkerType": 0,
    "windingRule": 1
  }
}