{
  "_class": "shapePath",
  "booleanOperation": -1,
  "clippingMaskMode": 0,
  "do_objectID": "D2530158-D227-4799-9317-41C16F2974F0",
  "edited": true,
  "exportOptions": {
    "_class": "exportOptions",
    "do_objectID": "6E87E964-3EEB-4B51-9826-75F541C71E72",
    "exportFormats": [
    ],
    "includedLayerIds": [
    ],
    "layerOptions": 0,
    "shouldTrim": false
  },
  "frame": {
    "_class": "rect",
    "constrainProportions": false,
    "do_objectID": "5CA67E86-A2E2-43DA-9B08-F8E74D5E2B7E",
    "height": 0.1058906030855606,
    "width": 0.1059863482545644,
    "x": 21.87680946168709,
    "y": 7.140517569774384
  },
  "hasClippingMask": false,
  "isClosed": true,
  "isFixedToViewport": false,
  "isFlippedHorizontal": false,
  "isFlippedVertical": false,
  "isLocked": false,
  "isVisible": true,
  "layerListExpandedType": 0,
  "name": "Path",
  "nameIsFixed": false,
  "pointRadiusBehaviour": 0,
  "points": [
    {
      "_class": "curvePoint",
      "cornerRadius": 0,
      "curveFrom": "{1.0554529814811531, 0.27456900715641552}",
      "curveMode": 4,
      "curveTo": "{0.40845298148116171, -0.12243099284357584}",
      "hasCurveFrom": true,
      "hasCurveTo": true,
      "point": "{0.6314529814811749, 0.018569007156386874}"
    },
    {
      "_class": "curvePoint",
      "cornerRadius": 0,
      "curveFrom": "{-0.28954701851881737, 0.57756900715641279}",
      "curveMode": 3,
      "curveTo": "{0.3604529814811599, 0.9735690071564278}",
      "hasCurveFrom": true,
      "hasCurveTo": true,
      "point": "{0.13345298148118445, 0.83556900715639415}"
    }
  ],
  "resizingConstraint": 63,
  "resizingType": 0,
  "rotation": 0,
  "shouldBreakMaskChain": false,
  "style": {
    "_class": "style",
    "do_objectID": "7FA674CA-F7C2-4DD4-BEF0-259AA0D25059",
    "endMarkerType": 0,
    "fills": [
      {
        "_class": "fill",
        "color": {
          "_class": "color",
          "alpha": 1,
          "blue": 0.1764705882352941,
          "green": 0.1764705882352941,
          "red": 0.1764705882352941
        },
        "fillType": 0,
        "isEnabled": true,
        "noiseIndex": 0,
        "noiseIntensity": 0,
        "patternFillType": 1,
        "patternTileScale": 1
      }
    ],
    "miterLimit": 10,
    "startMarkerType": 0,
    "windingRule": 1
  }
}