{
  "_class": "shapePath",
  "booleanOperation": -1,
  "clippingMaskMode": 0,
  "do_objectID": "D7678293-3BDB-4BD2-9250-5A7A54BF4293",
  "edited": true,
  "exportOptions": {
    "_class": "exportOptions",
    "do_objectID": "2C1D81BB-6213-42C4-B805-67EB63553F31",
    "exportFormats": [
    ],
    "includedLayerIds": [
    ],
    "layerOptions": 0,
    "shouldTrim": false
  },
  "frame": {
    "_class": "rect",
    "constrainProportions": false,
    "do_objectID": "F1CF86AB-1A62-4942-8285-0EE5E44C40E6",
    "height": 0.1058906030855731,
    "width": 0.1185966894507207,
    "x": 10.53002636152475,
    "y": 31.11540096850693
  },
  "hasClippingMask": false,
  "isClosed": true,
  "isFixedToViewport": false,
  "isFlippedHorizontal": false,
  "isFlippedVertical": false,
  "isLocked": false,
  "isVisible": true,
  "layerListExpandedType": 0,
  "name": "Path",
  "nameIsFixed": false,
  "pointRadiusBehaviour": 0,
  "points": [
    {
      "_class": "curvePoint",
      "cornerRadius": 0,
      "curveFrom": "{0.60216408531871246, 0.57413036891654046}",
      "curveMode": 4,
      "curveTo": "{0.91973972938289428, 0.84351042806621446}",
      "hasCurveFrom": true,
      "hasCurveTo": true,
      "point": "{0.68634900820642897, 1}"
    },
    {
      "_class": "curvePoint",
      "cornerRadius": 0,
      "curveFrom": "{-0.12606971917328808, 0.42776201307799999}",
      "curveMode": 4,
      "curveTo": "{0.35440032852726311, 0.6535429875098212}",
      "hasCurveFrom": true,
      "hasCurveTo": true,
      "point": "{0.099792269062022904, 0.75631225863050899}"
    },
    {
      "_class": "curvePoint",
      "cornerRadius": 0,
      "curveFrom": "{0.65418078563958493, -0.089198562862399605}",
      "curveMode": 4,
      "curveTo": "{0.068992907029925304, 0.22222347083662455}",
      "hasCurveFrom": true,
      "hasCurveTo": true,
      "point": "{0.31265008221709628, 0.090647661598792825}"
    },
    {
      "_class": "curvePoint",
      "cornerRadius": 0,
      "curveFrom": "{1.1319131122706043, 0.68079241545846259}",
      "curveMode": 4,
      "curveTo": "{0.73768127825989904, 0.0018923819945403989}",
      "hasCurveFrom": true,
      "hasCurveTo": true,
      "point": "{0.89920682136150243, 0.33433540296828385}"
    }
  ],
  "resizingConstraint": 63,
  "resizingType": 0,
  "rotation": 0,
  "shouldBreakMaskChain": false,
  "style": {
    "_class": "style",
    "do_objectID": "0298E2D3-7330-4E0F-B747-EDD30E068F80",
    "endMarkerType": 0,
    "fills": [
      {
        "_class": "fill",
        "color": {
          "_class": "color",
          "alpha": 1,
          "blue": 0.1764705882352941,
          "green": 0.1764705882352941,
          "red": 0.1764705882352941
        },
        "fillType": 0,
        "isEnabled": true,
        "noiseIndex": 0,
        "noiseIntensity": 0,
        "patternFillType": 1,
        "patternTileScale": 1
      }
    ],
    "miterLimit": 10,
    "startMarkerType": 0,
    "windingRule": 1
  }
}