{
  "_class": "shapePath",
  "booleanOperation": -1,
  "clippingMaskMode": 0,
  "do_objectID": "FFFB1E83-C031-45CB-BC98-301566F1E58F",
  "edited": true,
  "exportOptions": {
    "_class": "exportOptions",
    "do_objectID": "CDABC45A-C972-4530-A2A2-042C17BD279A",
    "exportFormats": [
    ],
    "includedLayerIds": [
    ],
    "layerOptions": 0,
    "shouldTrim": false
  },
  "frame": {
    "_class": "rect",
    "constrainProportions": false,
    "do_objectID": "8A5A40A0-D9CA-4503-A09E-713451DB705A",
    "height": 0.1410841452477563,
    "width": 0.1391937665451515,
    "x": 17.90700811927697,
    "y": 17.15157222516084
  },
  "hasClippingMask": false,
  "isClosed": true,
  "isFixedToViewport": false,
  "isFlippedHorizontal": false,
  "isFlippedVertical": false,
  "isLocked": false,
  "isVisible": true,
  "layerListExpandedType": 0,
  "name": "Path",
  "nameIsFixed": false,
  "pointRadiusBehaviour": 0,
  "points": [
    {
      "_class": "curvePoint",
      "cornerRadius": 0,
      "curveFrom": "{1.643906308680861, 0.10657373470078969}",
      "curveMode": 4,
      "curveTo": "{0.4682712897732289, -0.033107262963734424}",
      "hasCurveFrom": true,
      "hasCurveTo": true,
      "point": "{0.47760172643122084, 0.30546108116962445}"
    },
    {
      "_class": "curvePoint",
      "cornerRadius": 0,
      "curveFrom": "{0.23792613477891902, 0.3382257596341362}",
      "curveMode": 4,
      "curveTo": "{0.49567944745609371, 1.9632388476901919}",
      "hasCurveFrom": true,
      "hasCurveTo": true,
      "point": "{0.47760172643122084, 0.30546108116962445}"
    },
    {
      "_class": "curvePoint",
      "cornerRadius": 0,
      "curveFrom": "{0.23967559165230184, -0.015862695350829202}",
      "curveMode": 4,
      "curveTo": "{0.0087472843668643455, 0.35661996508790722}",
      "hasCurveFrom": true,
      "hasCurveTo": true,
      "point": "{0, 0.01575234527283309}"
    }
  ],
  "resizingConstraint": 63,
  "resizingType": 0,
  "rotation": 0,
  "shouldBreakMaskChain": false,
  "style": {
    "_class": "style",
    "do_objectID": "CD51BF5D-59BA-4500-A18B-BA9F2C6D251F",
    "endMarkerType": 0,
    "fills": [
      {
        "_class": "fill",
        "color": {
          "_class": "color",
          "alpha": 1,
          "blue": 0.1764705882352941,
          "green": 0.1764705882352941,
          "red": 0.1764705882352941
        },
        "fillType": 0,
        "isEnabled": true,
        "noiseIndex": 0,
        "noiseIntensity": 0,
        "patternFillType": 1,
        "patternTileScale": 1
      }
    ],
    "miterLimit": 10,
    "startMarkerType": 0,
    "windingRule": 1
  }
}