{
  "_class": "group",
  "booleanOperation": 0,
  "clippingMaskMode": 0,
  "do_objectID": "65523667-A2E2-4AB9-9F36-DDEB71CFFC61",
  "exportOptions": {
    "_class": "exportOptions",
    "do_objectID": "C79F5308-D318-4396-AD89-31C0C9341550",
    "exportFormats": [
    ],
    "includedLayerIds": [
    ],
    "layerOptions": 0,
    "shouldTrim": false
  },
  "frame": {
    "_class": "rect",
    "constrainProportions": false,
    "do_objectID": "CE1C627C-142C-4042-9D94-908519E2BFE1",
    "height": 76,
    "width": 60,
    "x": 0,
    "y": 22
  },
  "groupLayout": {
    "_class": "MSImmutableFreeformGroupLayout",
    "do_objectID": "A0117CA8-A502-4F22-B6D5-D8EA9F5D28EC"
  },
  "hasClickThrough": false,
  "hasClippingMask": false,
  "isFixedToViewport": false,
  "isFlippedHorizontal": false,
  "isFlippedVertical": false,
  "isLocked": false,
  "isVisible": true,
  "layerListExpandedType": 0,
  "layers": [
    {
      "class": "rectangle",
      "id": "B10063D2-6FFB-4939-906D-E4523E17D263"
    },
    {
      "class": "bitmap",
      "id": "868B84BD-C7CE-4109-9AE8-61B7262047D5"
    }
  ],
  "name": "211199857_blk_e1",
  "nameIsFixed": false,
  "resizingConstraint": 63,
  "resizingType": 0,
  "rotation": 0,
  "shouldBreakMaskChain": false,
  "style": {
    "_class": "style",
    "do_objectID": "E55E3A8D-9055-4E9C-9E82-D25C0E9D1431",
    "endMarkerType": 0,
    "miterLimit": 10,
    "shadows": [
      {
        "_class": "shadow",
        "blurRadius": 5,
        "color": {
          "_class": "color",
          "alpha": 0.5,
          "blue": 0,
          "green": 0,
          "red": 0
        },
        "contextSettings": {
          "_class": "graphicsContextSettings",
          "blendMode": 0,
          "opacity": 1
        },
        "isEnabled": false,
        "offsetX": 0,
        "offsetY": 0,
        "spread": 0
      }
    ],
    "startMarkerType": 0,
    "windingRule": 1
  }
}