{
  "_class": "symbolInstance",
  "booleanOperation": -1,
  "clippingMaskMode": 0,
  "do_objectID": "55A2D1E1-BBE1-47E7-AEA0-0344C19C4ECB",
  "exportOptions": {
    "_class": "exportOptions",
    "exportFormats": [
    ],
    "includedLayerIds": [
    ],
    "layerOptions": 0,
    "shouldTrim": false
  },
  "frame": {
    "_class": "rect",
    "constrainProportions": false,
    "height": 16,
    "width": 16,
    "x": 240,
    "y": 36
  },
  "hasClippingMask": false,
  "horizontalSpacing": 0,
  "isFixedToViewport": false,
  "isFlippedHorizontal": false,
  "isFlippedVertical": false,
  "isLocked": true,
  "isVisible": true,
  "layerListExpandedType": 0,
  "name": "error icon",
  "nameIsFixed": true,
  "overrideValues": [
    {
      "_class": "overrideValue",
      "overrideName": "05F26ECE-D8C0-4F06-911B-84E5ED35E9DC_layerStyle",
      "value": "810F6A2B-A415-4D1A-9843-73D01D2B7B49"
    },
    {
      "_class": "overrideValue",
      "do_objectID": "7EC0536A-200B-40B0-9781-45907775F40E",
      "overrideName": "3BB1E70A-AC1A-4444-926A-231E4FF23391_layerStyle",
      "value": "B5629231-FDCD-4799-94F5-A68629CC5107"
    }
  ],
  "resizingConstraint": 12,
  "resizingType": 0,
  "rotation": 0,
  "scale": 1,
  "shouldBreakMaskChain": false,
  "style": {
    "_class": "style",
    "endMarkerType": 0,
    "miterLimit": 10,
    "startMarkerType": 0,
    "windingRule": 1
  },
  "symbolID": "B9FBD409-C3D6-4FB8-8352-42D85AE4E825",
  "verticalSpacing": 0
}