{
  "_class": "symbolInstance",
  "booleanOperation": -1,
  "clippingMaskMode": 0,
  "do_objectID": "D19650E4-DB52-4ECC-8646-85234EB1FE06",
  "exportOptions": {
    "_class": "exportOptions",
    "do_objectID": "A5BD1387-BB23-491C-A1CE-FEE33995F4A1",
    "exportFormats": [
    ],
    "includedLayerIds": [
    ],
    "layerOptions": 0,
    "shouldTrim": false
  },
  "frame": {
    "_class": "rect",
    "constrainProportions": false,
    "do_objectID": "362ECA65-5711-443C-B889-CE4135AABE8D",
    "height": 24,
    "width": 200,
    "x": 800,
    "y": 0
  },
  "hasClippingMask": false,
  "horizontalSpacing": 0,
  "isFixedToViewport": false,
  "isFlippedHorizontal": false,
  "isFlippedVertical": false,
  "isLocked": false,
  "isVisible": true,
  "layerListExpandedType": 0,
  "name": "column 5",
  "nameIsFixed": true,
  "overrideValues": [
  ],
  "resizingConstraint": 63,
  "resizingType": 0,
  "rotation": 0,
  "scale": 1,
  "shouldBreakMaskChain": false,
  "style": {
    "_class": "style",
    "do_objectID": "B643D1C2-4FBC-4487-B20F-D961AECEA268",
    "endMarkerType": 0,
    "miterLimit": 10,
    "startMarkerType": 0,
    "windingRule": 1
  },
  "symbolID": "6AF273DC-1344-4A5F-ACBA-B61D8C6E3E6A",
  "verticalSpacing": 0
}