{
  "_class": "group",
  "booleanOperation": 0,
  "clippingMaskMode": 0,
  "do_objectID": "043751E4-3368-44E2-85AC-C19C58792BC2",
  "exportOptions": {
    "_class": "exportOptions",
    "do_objectID": "6FBCA7D6-BC1E-4F75-8415-9264CE439343",
    "exportFormats": [
    ],
    "includedLayerIds": [
    ],
    "layerOptions": 0,
    "shouldTrim": false
  },
  "frame": {
    "_class": "rect",
    "constrainProportions": false,
    "do_objectID": "9FDEA005-C79A-4E13-A184-535424EDA03D",
    "height": 39,
    "width": 245,
    "x": 0.2848000000012689,
    "y": 0.59375
  },
  "groupLayout": {
    "_class": "MSImmutableFreeformGroupLayout",
    "do_objectID": "F45A4609-A5B8-40DD-8F7A-8F93B61D5941"
  },
  "hasClickThrough": false,
  "hasClippingMask": false,
  "isFixedToViewport": false,
  "isFlippedHorizontal": false,
  "isFlippedVertical": false,
  "isLocked": false,
  "isVisible": true,
  "layerListExpandedType": 0,
  "layers": [
    {
      "class": "rectangle",
      "id": "895A9EB2-D3ED-4809-BF54-4778BC10A303"
    },
    {
      "class": "text",
      "id": "94C179FE-5E26-46D9-8488-C52F3ED82187"
    }
  ],
  "name": "Button",
  "nameIsFixed": true,
  "resizingConstraint": 63,
  "resizingType": 0,
  "rotation": 0,
  "shouldBreakMaskChain": false,
  "style": {
    "_class": "style",
    "do_objectID": "774ADF33-9364-41D1-ACAE-0F07C358E91E",
    "endMarkerType": 0,
    "fills": [
      {
        "_class": "fill",
        "color": {
          "_class": "color",
          "alpha": 1,
          "blue": 0.847,
          "green": 0.847,
          "red": 0.847
        },
        "fillType": 1,
        "gradient": {
          "_class": "gradient",
          "elipseLength": 1,
          "from": "{1, 1}",
          "gradientType": 0,
          "stops": [
            {
              "_class": "gradientStop",
              "color": {
                "_class": "color",
                "alpha": 1,
                "blue": 0.4627450980392157,
                "green": 0.4627450980392157,
                "red": 1
              },
              "position": 0
            },
            {
              "_class": "gradientStop",
              "color": {
                "_class": "color",
                "alpha": 1,
                "blue": 0.6352941176470588,
                "green": 0.3058823529411765,
                "red": 0.9607843137254902
              },
              "position": 1
            }
          ],
          "to": "{0, 0}"
        },
        "isEnabled": true,
        "noiseIndex": 0,
        "noiseIntensity": 0,
        "patternFillType": 0,
        "patternTileScale": 1
      }
    ],
    "miterLimit": 10,
    "startMarkerType": 0,
    "windingRule": 1
  }
}