{
  "_class": "symbolInstance",
  "booleanOperation": -1,
  "clippingMaskMode": 0,
  "do_objectID": "C8A3D919-0765-4B76-9203-F8218B10E7ED",
  "exportOptions": {
    "_class": "exportOptions",
    "do_objectID": "E76E2593-070D-43E9-BF7C-2454168DDA4D",
    "exportFormats": [
    ],
    "includedLayerIds": [
    ],
    "layerOptions": 0,
    "shouldTrim": false
  },
  "frame": {
    "_class": "rect",
    "constrainProportions": false,
    "do_objectID": "B1ED1613-C1DB-4721-BB89-CC957BFC5069",
    "height": 224,
    "width": 226,
    "x": 0,
    "y": 1491
  },
  "hasClippingMask": false,
  "horizontalSpacing": 0,
  "isFixedToViewport": false,
  "isFlippedHorizontal": false,
  "isFlippedVertical": false,
  "isLocked": false,
  "isVisible": true,
  "layerListExpandedType": 0,
  "name": "component / dropdown / label / multi-select / open / 02 selected",
  "nameIsFixed": false,
  "overrideValues": [
    {
      "_class": "overrideValue",
      "do_objectID": "2BE404DC-3D06-41CA-9B5D-E11234466761",
      "overrideName": "695A1DAE-38F7-4284-BCBE-07789512DF57/26B278A3-54E6-4385-9282-24CAD3DF2674_layerStyle",
      "value": "8F446978-CC12-453B-8B91-CFEF5359DA9F"
    },
    {
      "_class": "overrideValue",
      "do_objectID": "E37101D9-731C-46F4-9376-438D37A43BF0",
      "overrideName": "5B3513D7-DB74-4CAA-A2FF-86B586FBBEB3/C012E838-3730-4EA6-A231-9562AEB170CD_layerStyle",
      "value": "D110154E-BEC2-48DB-B123-BA4EEACF38FE"
    }
  ],
  "resizingConstraint": 63,
  "resizingType": 0,
  "rotation": 0,
  "scale": 1,
  "shouldBreakMaskChain": false,
  "style": {
    "_class": "style",
    "do_objectID": "8AF17F71-4D24-4FFE-80B5-71EF54EB556B",
    "endMarkerType": 0,
    "miterLimit": 10,
    "startMarkerType": 0,
    "windingRule": 1
  },
  "symbolID": "63CE343E-895E-48BB-840E-C37B7DF957DD",
  "verticalSpacing": 0
}