{
  "_class": "symbolInstance",
  "booleanOperation": -1,
  "clippingMaskMode": 0,
  "do_objectID": "AB3D5DED-3F4F-496C-98FE-36E0E716CED0",
  "exportOptions": {
    "_class": "exportOptions",
    "do_objectID": "475FACD4-16A3-49C9-BB3A-DA92BDA18743",
    "exportFormats": [
    ],
    "includedLayerIds": [
    ],
    "layerOptions": 0,
    "shouldTrim": false
  },
  "frame": {
    "_class": "rect",
    "constrainProportions": false,
    "do_objectID": "2AEF6F37-FC71-4BE9-B12E-CF6C7C95EFBA",
    "height": 24,
    "width": 82,
    "x": 0,
    "y": 248
  },
  "hasClippingMask": false,
  "horizontalSpacing": 0,
  "isFixedToViewport": false,
  "isFlippedHorizontal": false,
  "isFlippedVertical": false,
  "isLocked": false,
  "isVisible": true,
  "layerListExpandedType": 0,
  "name": "Components/Tag/gray Copy 3",
  "nameIsFixed": false,
  "overrideValues": [
    {
      "_class": "overrideValue",
      "do_objectID": "2338C067-1C41-4F05-8D9A-9349C932F4FA",
      "overrideName": "213FEEC6-E58F-461C-A582-6BB15A066FB3_stringValue",
      "value": "Component"
    }
  ],
  "resizingConstraint": 63,
  "resizingType": 0,
  "rotation": 0,
  "scale": 1,
  "shouldBreakMaskChain": false,
  "style": {
    "_class": "style",
    "do_objectID": "C928AA08-B570-4719-95E0-A54F4AD945E8",
    "endMarkerType": 0,
    "miterLimit": 10,
    "startMarkerType": 0,
    "windingRule": 1
  },
  "symbolID": "C543325D-AE4A-4D82-8CF0-C3446374C9D0",
  "verticalSpacing": 0
}