{
  "_class": "group",
  "booleanOperation": -1,
  "clippingMaskMode": 0,
  "do_objectID": "DD1F114B-D9DC-4EF6-84E9-13D86E4932B3",
  "exportOptions": {
    "_class": "exportOptions",
    "do_objectID": "C2F0161B-D7D1-41E7-91C6-E33D6DE66169",
    "exportFormats": [
    ],
    "includedLayerIds": [
    ],
    "layerOptions": 0,
    "shouldTrim": false
  },
  "frame": {
    "_class": "rect",
    "constrainProportions": false,
    "do_objectID": "E893DEB8-7904-4C16-901C-362CE2450748",
    "height": 103,
    "width": 319,
    "x": 321,
    "y": 0
  },
  "groupLayout": {
    "_class": "MSImmutableFreeformGroupLayout",
    "do_objectID": "117442C3-5F68-465E-9547-44A0D9705269"
  },
  "hasClickThrough": false,
  "hasClippingMask": false,
  "isFixedToViewport": false,
  "isFlippedHorizontal": false,
  "isFlippedVertical": false,
  "isLocked": false,
  "isVisible": true,
  "layerListExpandedType": 0,
  "layers": [
    {
      "class": "rectangle",
      "id": "150B617E-47B5-4F43-8D88-1A503D620017"
    },
    {
      "class": "text",
      "id": "777D8497-F8E8-4073-A372-7970CE942FDD"
    }
  ],
  "name": "role",
  "nameIsFixed": true,
  "resizingConstraint": 63,
  "resizingType": 0,
  "rotation": 0,
  "shouldBreakMaskChain": false,
  "style": {
    "_class": "style",
    "do_objectID": "DA1C88DC-718A-4ACA-B2D3-31B49D6BB653",
    "endMarkerType": 0,
    "miterLimit": 10,
    "startMarkerType": 0,
    "windingRule": 1
  }
}