{
  "_class": "symbolInstance",
  "booleanOperation": -1,
  "clippingMaskMode": 0,
  "do_objectID": "1D8A27E1-F03C-4D0D-A348-3B4AFBD6CEE8",
  "exportOptions": {
    "_class": "exportOptions",
    "do_objectID": "93311FF2-065D-4E74-B738-B9D05C9786A8",
    "exportFormats": [
    ],
    "includedLayerIds": [
    ],
    "layerOptions": 0,
    "shouldTrim": false
  },
  "frame": {
    "_class": "rect",
    "constrainProportions": false,
    "do_objectID": "DB395480-7A59-42A4-93EF-610BD52F4860",
    "height": 48,
    "width": 196,
    "x": 0,
    "y": 0
  },
  "hasClippingMask": false,
  "horizontalSpacing": 0,
  "isFixedToViewport": false,
  "isFlippedHorizontal": false,
  "isFlippedVertical": false,
  "isLocked": false,
  "isVisible": true,
  "layerListExpandedType": 0,
  "name": "Button / Secondary / Default / Text",
  "nameIsFixed": true,
  "overrideValues": [
  ],
  "resizingConstraint": 19,
  "resizingType": 0,
  "rotation": 0,
  "scale": 1,
  "shouldBreakMaskChain": false,
  "style": {
    "_class": "style",
    "do_objectID": "3D27BFB4-E5EB-472B-B544-7266AC8F321D",
    "endMarkerType": 0,
    "miterLimit": 10,
    "startMarkerType": 0,
    "windingRule": 1
  },
  "symbolID": "B0D9D5FA-F1AD-4FF8-94FA-7B8D99EEF805",
  "userInfo": {
    "com.animaapp.stc-sketch-plugin": {
      "kModelPropertiesKey": {
      }
    }
  },
  "verticalSpacing": 0
}