{
  "_class": "symbolInstance",
  "booleanOperation": -1,
  "clippingMaskMode": 0,
  "do_objectID": "8088FFB5-5889-464E-9E1F-EA6482EA66D5",
  "exportOptions": {
    "_class": "exportOptions",
    "do_objectID": "1A3159E0-21DC-4E36-88BE-4B0F77680DD9",
    "exportFormats": [
    ],
    "includedLayerIds": [
    ],
    "layerOptions": 0,
    "shouldTrim": false
  },
  "frame": {
    "_class": "rect",
    "constrainProportions": false,
    "do_objectID": "473A6551-2827-4835-AFD9-495368A74F99",
    "height": 48,
    "width": 195,
    "x": 0,
    "y": 296
  },
  "hasClippingMask": false,
  "horizontalSpacing": 0,
  "isFixedToViewport": false,
  "isFlippedHorizontal": false,
  "isFlippedVertical": false,
  "isLocked": false,
  "isVisible": true,
  "layerListExpandedType": 0,
  "name": "Button / Secondary / Default / Text",
  "nameIsFixed": false,
  "overrideValues": [
  ],
  "resizingConstraint": 63,
  "resizingType": 0,
  "rotation": 0,
  "scale": 1,
  "shouldBreakMaskChain": false,
  "style": {
    "_class": "style",
    "do_objectID": "51BC5262-6F20-4D08-89E8-41B7EAEF710F",
    "endMarkerType": 0,
    "miterLimit": 10,
    "startMarkerType": 0,
    "windingRule": 1
  },
  "symbolID": "36BC5B9F-F12A-42F7-8E24-6D50D0027005",
  "verticalSpacing": 0
}