{
  "_class": "text",
  "attributedString": {
    "_class": "attributedString",
    "attributes": [
      {
        "_class": "stringAttribute",
        "attributes": {
          "MSAttributedStringColorAttribute": {
            "_class": "color",
            "alpha": 1,
            "blue": 0.1764705882,
            "green": 0.1764705882,
            "red": 0.1764705882
          },
          "MSAttributedStringFontAttribute": {
            "_class": "UIFontDescriptor",
            "attributes": {
              "name": "Lato-Regular",
              "size": 14
            }
          },
          "kerning": 1,
          "paragraphStyle": {
            "_class": "paragraphStyle",
            "alignment": 1,
            "maximumLineHeight": 28,
            "minimumLineHeight": 28
          }
        },
        "length": 6,
        "location": 0
      }
    ],
    "string": "₹9,500"
  },
  "automaticallyDrawOnUnderlyingPath": false,
  "booleanOperation": 0,
  "clippingMaskMode": 0,
  "do_objectID": "961DAE37-A5C9-47E3-A4B4-8EDE40EDC807",
  "dontSynchroniseWithSymbol": false,
  "exportOptions": {
    "_class": "exportOptions",
    "do_objectID": "F0B806C3-5D8F-497B-A887-CDDAD0E67A2B",
    "exportFormats": [
    ],
    "includedLayerIds": [
    ],
    "layerOptions": 0,
    "shouldTrim": false
  },
  "frame": {
    "_class": "rect",
    "constrainProportions": false,
    "do_objectID": "17A9F967-F7B2-4323-B2AB-3DFE85A90132",
    "height": 28,
    "width": 50,
    "x": 1182,
    "y": 291
  },
  "glyphBounds": "{{0, 0}, {49, 27}}",
  "hasClippingMask": false,
  "isFixedToViewport": false,
  "isFlippedHorizontal": false,
  "isFlippedVertical": false,
  "isLocked": false,
  "isVisible": true,
  "layerListExpandedType": 0,
  "lineSpacingBehaviour": 2,
  "name": "₹9,500",
  "nameIsFixed": false,
  "resizingConstraint": 47,
  "resizingType": 0,
  "rotation": 0,
  "shouldBreakMaskChain": false,
  "style": {
    "_class": "style",
    "do_objectID": "8A16B9CE-C65A-48EE-9EA1-973633DBE5D2",
    "endMarkerType": 0,
    "miterLimit": 10,
    "startMarkerType": 0,
    "textStyle": {
      "_class": "textStyle",
      "do_objectID": "757B376B-0969-44CF-A12A-75E699FCDA52",
      "encodedAttributes": {
        "MSAttributedStringColorAttribute": {
          "_class": "color",
          "alpha": 1,
          "blue": 0.1764705882,
          "green": 0.1764705882,
          "red": 0.1764705882
        },
        "MSAttributedStringFontAttribute": {
          "_class": "UIFontDescriptor",
          "attributes": {
            "name": "Lato-Regular",
            "size": 14
          }
        },
        "kerning": 1,
        "paragraphStyle": {
          "_class": "paragraphStyle",
          "alignment": 1,
          "maximumLineHeight": 28,
          "minimumLineHeight": 28
        }
      },
      "verticalAlignment": 0
    },
    "windingRule": 1
  },
  "textBehaviour": 0
}