{
  "_class": "symbolInstance",
  "booleanOperation": -1,
  "clippingMaskMode": 0,
  "do_objectID": "92307114-E435-4167-B07A-45621C540FA5",
  "exportOptions": {
    "_class": "exportOptions",
    "do_objectID": "A24DC792-17D7-4236-911A-2D688072CAB4",
    "exportFormats": [
    ],
    "includedLayerIds": [
    ],
    "layerOptions": 0,
    "shouldTrim": false
  },
  "frame": {
    "_class": "rect",
    "constrainProportions": false,
    "do_objectID": "AA74B475-E07B-4C06-B6CC-6B2E03E8C901",
    "height": 48,
    "width": 64,
    "x": 108,
    "y": 0
  },
  "hasClippingMask": false,
  "horizontalSpacing": 0,
  "isFixedToViewport": false,
  "isFlippedHorizontal": false,
  "isFlippedVertical": false,
  "isLocked": false,
  "isVisible": true,
  "layerListExpandedType": 0,
  "name": "Spacer",
  "nameIsFixed": true,
  "overrideValues": [
  ],
  "resizingConstraint": 12,
  "resizingType": 0,
  "rotation": 0,
  "scale": 1,
  "shouldBreakMaskChain": false,
  "style": {
    "_class": "style",
    "do_objectID": "664C17F3-69BA-4700-905B-EFD1F9FCCE5C",
    "endMarkerType": 0,
    "miterLimit": 10,
    "startMarkerType": 0,
    "windingRule": 1
  },
  "symbolID": "9F4D11AE-2B23-4F3F-A565-E08DCB618611",
  "verticalSpacing": 0
}