{
  "_class": "artboard",
  "backgroundColor": {
    "_class": "color",
    "alpha": 1,
    "blue": 1,
    "green": 1,
    "red": 1
  },
  "booleanOperation": 0,
  "clippingMaskMode": 0,
  "do_objectID": "23F24265-F921-46BF-82A6-BF5D85052EC6",
  "exportOptions": {
    "_class": "exportOptions",
    "exportFormats": [
      {
        "_class": "exportFormat",
        "absoluteSize": 0,
        "fileFormat": "jpg",
        "name": "",
        "namingScheme": 0,
        "scale": 2,
        "visibleScaleType": 0
      }
    ],
    "includedLayerIds": [
    ],
    "layerOptions": 0,
    "shouldTrim": false
  },
  "frame": {
    "_class": "rect",
    "constrainProportions": false,
    "height": 2342,
    "width": 1440,
    "x": 44998,
    "y": -4910
  },
  "grid": {
    "_class": "simpleGrid",
    "gridSize": 20,
    "isEnabled": false,
    "thickGridTimes": 10
  },
  "groupLayout": {
    "_class": "MSImmutableFreeformGroupLayout"
  },
  "hasBackgroundColor": true,
  "hasClickThrough": true,
  "hasClippingMask": false,
  "horizontalRulerData": {
    "_class": "rulerData",
    "base": 0,
    "guides": [
      0,
      1351,
      1366,
      15,
      1326,
      40,
      1087,
      1157,
      1122,
      825,
      186,
      894,
      170,
      350
    ]
  },
  "includeBackgroundColorInExport": true,
  "includeInCloudUpload": true,
  "isFixedToViewport": false,
  "isFlippedHorizontal": false,
  "isFlippedVertical": false,
  "isFlowHome": false,
  "isLocked": false,
  "isVisible": true,
  "layerListExpandedType": 2,
  "layers": [
    {
      "class": "group",
      "id": "29039491-18BB-4837-BD30-92542324C285"
    },
    {
      "class": "group",
      "id": "EEA4D980-FD89-42F4-A6A2-C9A4852C7270"
    },
    {
      "class": "text",
      "id": "F1FA537F-1A76-42D8-A2B0-11F9991913A4"
    },
    {
      "class": "symbolInstance",
      "id": "387611FB-5D20-40B1-AEDF-6C25793F084A"
    },
    {
      "class": "group",
      "id": "89FD79AB-FD7E-4746-A3B5-851CCE7F52E6"
    },
    {
      "class": "group",
      "id": "EED9F2E6-0BE5-4EC6-AB1E-F33A9001526C"
    },
    {
      "class": "group",
      "id": "D71D190D-EEE0-4975-AC4E-80E8F379E879"
    },
    {
      "class": "group",
      "id": "8D5596E2-B8B6-44A7-B774-83CE216990F5"
    },
    {
      "class": "group",
      "id": "ED0DB7FB-FDAF-47CF-AE0E-D60C22F362AE"
    },
    {
      "class": "group",
      "id": "DADBD305-F567-4C87-9844-9C54D83E945F"
    },
    {
      "class": "symbolInstance",
      "id": "75DA37DE-A3C5-452A-B031-F93171D5A2BA"
    },
    {
      "class": "symbolInstance",
      "id": "5349098B-898D-4DA0-B507-D447B242B1F4"
    },
    {
      "class": "symbolInstance",
      "id": "D9A39ED7-25C1-4206-8D7D-9DC98DC6D741"
    },
    {
      "class": "symbolInstance",
      "id": "1D867AF4-8D0D-422E-BC53-9049873286A9"
    },
    {
      "class": "symbolInstance",
      "id": "CB2574E8-14E5-4CC3-95BF-AA8213B2BF46"
    },
    {
      "class": "symbolInstance",
      "id": "1BD751ED-7AC4-4600-94B8-8EE5011300A3"
    },
    {
      "class": "symbolInstance",
      "id": "A4A536D1-A17D-49F2-A2F7-A1E7BDCEB002"
    },
    {
      "class": "group",
      "id": "D3ACE926-C887-4BE0-A1B1-74314CAB7EE1"
    }
  ],
  "layout": {
    "_class": "layoutGrid",
    "columnWidth": 75,
    "drawHorizontal": true,
    "drawHorizontalLines": false,
    "drawVertical": true,
    "gutterHeight": 4,
    "gutterWidth": 20,
    "guttersOutside": false,
    "horizontalOffset": 160,
    "isEnabled": false,
    "numberOfColumns": 12,
    "rowHeightMultiplication": 1,
    "totalWidth": 1120
  },
  "maintainScrollPosition": false,
  "name": "Payment 2",
  "nameIsFixed": true,
  "presetDictionary": {
  },
  "resizesContent": false,
  "resizingConstraint": 63,
  "resizingType": 0,
  "rotation": 0,
  "shouldBreakMaskChain": true,
  "style": {
    "_class": "style",
    "blur": {
      "_class": "blur",
      "center": "{0.5, 0.5}",
      "isEnabled": false,
      "motionAngle": 0,
      "radius": 10,
      "saturation": 1,
      "type": 0
    },
    "borderOptions": {
      "_class": "borderOptions",
      "dashPattern": [
      ],
      "isEnabled": true,
      "lineCapStyle": 0,
      "lineJoinStyle": 0
    },
    "borders": [
    ],
    "colorControls": {
      "_class": "colorControls",
      "brightness": 0,
      "contrast": 1,
      "hue": 0,
      "isEnabled": true,
      "saturation": 1
    },
    "contextSettings": {
      "_class": "graphicsContextSettings",
      "blendMode": 0,
      "opacity": 1
    },
    "do_objectID": "3E6DC008-DD37-4FAE-8653-476FA10AB9B5",
    "endMarkerType": 0,
    "fills": [
    ],
    "innerShadows": [
    ],
    "miterLimit": 10,
    "shadows": [
    ],
    "startMarkerType": 0,
    "windingRule": 1
  },
  "verticalRulerData": {
    "_class": "rulerData",
    "base": 0,
    "guides": [
      -36,
      -232,
      70,
      90,
      -171,
      80,
      88,
      -68,
      -48,
      -217,
      -34,
      0,
      208,
      188,
      144,
      412,
      234
    ]
  }
}