{
  "_class": "group",
  "booleanOperation": 0,
  "clippingMaskMode": 0,
  "do_objectID": "48FA4100-79F0-442E-9705-1340C11C8BFC",
  "exportOptions": {
    "_class": "exportOptions",
    "do_objectID": "10DF6AD7-9F7D-439B-9186-2A26F33F8CA1",
    "exportFormats": [
    ],
    "includedLayerIds": [
    ],
    "layerOptions": 0,
    "shouldTrim": false
  },
  "frame": {
    "_class": "rect",
    "constrainProportions": false,
    "do_objectID": "4C2F3E75-9A27-4C0F-AF60-E0F746E16D1D",
    "height": 651,
    "width": 564,
    "x": 790,
    "y": 160
  },
  "groupLayout": {
    "_class": "MSImmutableFreeformGroupLayout",
    "do_objectID": "6935B6A6-BD24-419C-AF89-B0A5A82BF3F7"
  },
  "hasClickThrough": false,
  "hasClippingMask": false,
  "isFixedToViewport": false,
  "isFlippedHorizontal": false,
  "isFlippedVertical": false,
  "isLocked": false,
  "isVisible": true,
  "layerListExpandedType": 0,
  "layers": [
    {
      "class": "group",
      "id": "014FF931-BFE8-43D6-A481-EEC6ADBAEDA4"
    },
    {
      "class": "group",
      "id": "E930554B-3C66-4F8E-B406-8CB87D60B0C1"
    },
    {
      "class": "group",
      "id": "97C267E0-B25C-41E3-A45B-F56616DF115C"
    },
    {
      "class": "group",
      "id": "E0738A67-D63B-4CE5-B6EF-6BE1D4A025C4"
    },
    {
      "class": "group",
      "id": "7030C8DA-C182-4C26-AD06-E334613BCE31"
    },
    {
      "class": "group",
      "id": "BACF04FA-93E9-44F8-A81A-3FCB67E0387A"
    },
    {
      "class": "group",
      "id": "CB7E84A9-1FE5-49CA-AA01-881879A8E619"
    },
    {
      "class": "group",
      "id": "2E448901-CD72-4282-A66C-0465DE655186"
    },
    {
      "class": "text",
      "id": "C8C33FF7-614E-4C2C-A759-3C88AC326763"
    },
    {
      "class": "text",
      "id": "39B4C36C-3B8D-4FB0-BCF9-E9EFD2DD187D"
    },
    {
      "class": "text",
      "id": "5CB7A73B-900A-4613-A200-124FE7B14708"
    },
    {
      "class": "text",
      "id": "9B3B8647-CB28-4933-9DB2-ADB4F24C42B9"
    },
    {
      "class": "text",
      "id": "08CAC558-B0C5-4898-8B70-F6FCA705938A"
    },
    {
      "class": "group",
      "id": "37D8CB94-4411-4273-BC7E-921602C96545"
    }
  ],
  "name": "Group 14",
  "nameIsFixed": false,
  "resizingConstraint": 63,
  "resizingType": 0,
  "rotation": 0,
  "shouldBreakMaskChain": false,
  "style": {
    "_class": "style",
    "do_objectID": "0373E13F-A6E2-4F53-9BE1-CD3B9254E6ED",
    "endMarkerType": 0,
    "miterLimit": 10,
    "startMarkerType": 0,
    "windingRule": 1
  }
}