{
  "_class": "symbolInstance",
  "booleanOperation": -1,
  "clippingMaskMode": 0,
  "do_objectID": "B1ADC4D5-2E60-4030-A435-03D69A960979",
  "exportOptions": {
    "_class": "exportOptions",
    "do_objectID": "A6191966-2548-4E70-977E-705241D0E8AD",
    "exportFormats": [
    ],
    "includedLayerIds": [
    ],
    "layerOptions": 0,
    "shouldTrim": false
  },
  "frame": {
    "_class": "rect",
    "constrainProportions": false,
    "do_objectID": "34F4C9A8-FDF3-4787-BB82-CBA640D70AF5",
    "height": 24,
    "width": 6,
    "x": 53,
    "y": 0
  },
  "hasClippingMask": false,
  "horizontalSpacing": 0,
  "isFixedToViewport": false,
  "isFlippedHorizontal": false,
  "isFlippedVertical": false,
  "isLocked": false,
  "isVisible": true,
  "layerListExpandedType": 0,
  "name": "Spacer",
  "nameIsFixed": true,
  "overrideValues": [
  ],
  "resizingConstraint": 12,
  "resizingType": 0,
  "rotation": 0,
  "scale": 1,
  "shouldBreakMaskChain": false,
  "style": {
    "_class": "style",
    "do_objectID": "615FDF40-EADC-44A1-93B9-A9FE5B09A0D0",
    "endMarkerType": 0,
    "miterLimit": 10,
    "startMarkerType": 0,
    "windingRule": 1
  },
  "symbolID": "EAD8C8E3-CC02-4912-85E7-2F98991AA816",
  "verticalSpacing": 0
}