{
  "_class": "symbolMaster",
  "allowsOverrides": true,
  "backgroundColor": {
    "_class": "color",
    "alpha": 1,
    "blue": 0.9529411764705882,
    "green": 0.9529411764705882,
    "red": 0.9529411764705882
  },
  "booleanOperation": -1,
  "changeIdentifier": 1538,
  "clippingMaskMode": 0,
  "do_objectID": "C0C26DB4-6F18-4BDF-9EFD-7E31E4923709",
  "exportOptions": {
    "_class": "exportOptions",
    "do_objectID": "2003F3E9-E200-48CB-ACC6-EE7F5771D6FD",
    "exportFormats": [
    ],
    "includedLayerIds": [
    ],
    "layerOptions": 0,
    "shouldTrim": false
  },
  "frame": {
    "_class": "rect",
    "constrainProportions": false,
    "do_objectID": "2B922016-6D16-46CC-8399-C95398B61122",
    "height": 64,
    "width": 94,
    "x": 64281,
    "y": 342
  },
  "groupLayout": {
    "_class": "MSImmutableFreeformGroupLayout"
  },
  "hasBackgroundColor": false,
  "hasClickThrough": true,
  "hasClippingMask": false,
  "horizontalRulerData": {
    "_class": "rulerData",
    "base": 0,
    "do_objectID": "AC658311-0782-4845-BFC7-3CBA126A5A52",
    "guides": [
    ]
  },
  "includeBackgroundColorInExport": false,
  "includeBackgroundColorInInstance": false,
  "includeInCloudUpload": true,
  "isFixedToViewport": false,
  "isFlippedHorizontal": false,
  "isFlippedVertical": false,
  "isFlowHome": false,
  "isLocked": false,
  "isVisible": true,
  "layerListExpandedType": 2,
  "layers": [
    {
      "class": "rectangle",
      "id": "6E0293A3-F763-42F2-BA23-67A5D9C8D8C8"
    },
    {
      "class": "rectangle",
      "id": "045B03A0-EBD9-4A56-AFAD-5FB5D5E179DD"
    },
    {
      "class": "rectangle",
      "id": "64AA5335-13CE-41DD-AE93-C0BAFCB0881E"
    },
    {
      "class": "text",
      "id": "BCC9BC9F-E0CB-4B56-9024-D2BB5BDFD99C"
    },
    {
      "class": "text",
      "id": "92F81BC5-C59F-465C-B935-EDB0326B51BD"
    }
  ],
  "name": "date picker / 01 simple date / mm-yyyy / 04 active",
  "nameIsFixed": true,
  "overrideProperties": [
    {
      "_class": "MSImmutableOverrideProperty",
      "canOverride": false,
      "overrideName": "045B03A0-EBD9-4A56-AFAD-5FB5D5E179DD_layerStyle"
    },
    {
      "_class": "MSImmutableOverrideProperty",
      "canOverride": true,
      "overrideName": "BCC9BC9F-E0CB-4B56-9024-D2BB5BDFD99C_stringValue"
    },
    {
      "_class": "MSImmutableOverrideProperty",
      "canOverride": false,
      "overrideName": "64AA5335-13CE-41DD-AE93-C0BAFCB0881E_layerStyle"
    },
    {
      "_class": "MSImmutableOverrideProperty",
      "canOverride": false,
      "overrideName": "92F81BC5-C59F-465C-B935-EDB0326B51BD_textStyle"
    },
    {
      "_class": "MSImmutableOverrideProperty",
      "canOverride": true,
      "overrideName": "6E0293A3-F763-42F2-BA23-67A5D9C8D8C8_layerStyle"
    },
    {
      "_class": "MSImmutableOverrideProperty",
      "canOverride": true,
      "overrideName": "92F81BC5-C59F-465C-B935-EDB0326B51BD_stringValue"
    },
    {
      "_class": "MSImmutableOverrideProperty",
      "canOverride": false,
      "overrideName": "BCC9BC9F-E0CB-4B56-9024-D2BB5BDFD99C_textStyle"
    }
  ],
  "resizesContent": true,
  "resizingConstraint": 63,
  "resizingType": 0,
  "rotation": 0,
  "shouldBreakMaskChain": true,
  "style": {
    "_class": "style",
    "do_objectID": "745A183D-A0B2-42EE-A8A8-A40C5E6F3DE9",
    "endMarkerType": 0,
    "miterLimit": 10,
    "startMarkerType": 0,
    "windingRule": 1
  },
  "symbolID": "239F2B29-8BEE-4EE3-BDEA-999E319C0F99",
  "verticalRulerData": {
    "_class": "rulerData",
    "base": 0,
    "do_objectID": "51B08CAD-8A4B-4C85-9885-2BBE4752EE91",
    "guides": [
    ]
  }
}