{
  "_class": "group",
  "booleanOperation": 0,
  "clippingMaskMode": 0,
  "do_objectID": "21D381A3-19CF-420C-BF85-135AD68F2EA7",
  "exportOptions": {
    "_class": "exportOptions",
    "do_objectID": "D04D3E55-203D-42F8-9E2A-FC0FD82E5D19",
    "exportFormats": [
    ],
    "includedLayerIds": [
    ],
    "layerOptions": 0,
    "shouldTrim": false
  },
  "frame": {
    "_class": "rect",
    "constrainProportions": false,
    "do_objectID": "F12B7ED5-BADD-4F7B-8A11-1D6C31E96EF2",
    "height": 5,
    "width": 14,
    "x": 3.030303030303031,
    "y": 0
  },
  "groupLayout": {
    "_class": "MSImmutableFreeformGroupLayout",
    "do_objectID": "88097B3B-C8DB-42EE-9369-EADAD1FA360B"
  },
  "hasClickThrough": false,
  "hasClippingMask": false,
  "isFixedToViewport": false,
  "isFlippedHorizontal": false,
  "isFlippedVertical": false,
  "isLocked": false,
  "isVisible": true,
  "layerListExpandedType": 0,
  "layers": [
    {
      "class": "shapePath",
      "id": "233FB035-09D5-409B-8582-0C2B70265634"
    },
    {
      "class": "shapePath",
      "id": "43AEEBB9-9AD8-410D-84B4-312C1894112E"
    },
    {
      "class": "shapePath",
      "id": "C835AF71-B92F-484E-90CC-34CDE36978F9"
    },
    {
      "class": "shapePath",
      "id": "2B8C42B8-7AFB-4425-9C2C-D8829BF7825A"
    },
    {
      "class": "shapePath",
      "id": "0BF1EDE6-8D03-40EE-A1CE-E5C01BB151EA"
    }
  ],
  "name": "Group",
  "nameIsFixed": false,
  "resizingConstraint": 63,
  "resizingType": 0,
  "rotation": 0,
  "shouldBreakMaskChain": false,
  "style": {
    "_class": "style",
    "do_objectID": "30377F72-D3E7-49F9-9E71-8299BA697BEB",
    "endMarkerType": 0,
    "fills": [
      {
        "_class": "fill",
        "color": {
          "_class": "color",
          "alpha": 1,
          "blue": 0,
          "green": 0,
          "red": 0
        },
        "fillType": 0,
        "isEnabled": true,
        "noiseIndex": 0,
        "noiseIntensity": 0,
        "patternFillType": 1,
        "patternTileScale": 1
      }
    ],
    "miterLimit": 10,
    "startMarkerType": 0,
    "windingRule": 1
  }
}