{
  "_class": "group",
  "booleanOperation": 0,
  "clippingMaskMode": 0,
  "do_objectID": "C28FDF85-AEDC-441E-A189-1828DA2A9171",
  "exportOptions": {
    "_class": "exportOptions",
    "exportFormats": [
    ],
    "includedLayerIds": [
    ],
    "layerOptions": 0,
    "shouldTrim": false
  },
  "frame": {
    "_class": "rect",
    "constrainProportions": false,
    "height": 20,
    "width": 20,
    "x": 0,
    "y": 132
  },
  "groupLayout": {
    "_class": "MSImmutableFreeformGroupLayout"
  },
  "hasClickThrough": false,
  "hasClippingMask": false,
  "isFixedToViewport": false,
  "isFlippedHorizontal": false,
  "isFlippedVertical": false,
  "isLocked": false,
  "isVisible": true,
  "layerListExpandedType": 0,
  "layers": [
    {
      "class": "rectangle",
      "id": "DD172543-BF88-4B1A-A4C3-42766C573D1C"
    },
    {
      "class": "shapePath",
      "id": "F3F2C366-2F47-4D99-9574-B3CDB03F4851"
    },
    {
      "class": "shapePath",
      "id": "1BBD408C-1BA6-4025-AF64-C558BA55EC07"
    },
    {
      "class": "shapePath",
      "id": "63619169-0EBA-4E40-A274-4FFB5046C54B"
    },
    {
      "class": "shapePath",
      "id": "B606C333-5403-4E2F-A2CC-04700261678D"
    },
    {
      "class": "shapePath",
      "id": "D0EE2A0F-D37F-4A7B-8A0F-168DDD66AD68"
    },
    {
      "class": "shapePath",
      "id": "27F48BC1-2AFC-4F0C-A5E7-B5ADD5F7133B"
    },
    {
      "class": "shapePath",
      "id": "7A569AA1-BFBF-4872-A74C-CD49DFDCE1A3"
    }
  ],
  "name": "Cursor - Pointer",
  "nameIsFixed": true,
  "resizingConstraint": 63,
  "resizingType": 0,
  "rotation": 0,
  "shouldBreakMaskChain": false,
  "style": {
    "_class": "style",
    "endMarkerType": 0,
    "miterLimit": 10,
    "startMarkerType": 0,
    "windingRule": 1
  }
}