{
  "_class": "shapePath",
  "booleanOperation": -1,
  "clippingMaskMode": 0,
  "do_objectID": "04EA1B79-678F-42CC-8135-BD4B584E2850",
  "edited": true,
  "exportOptions": {
    "_class": "exportOptions",
    "do_objectID": "F67E4033-EB5C-40BC-AEC5-6E3D3685AE82",
    "exportFormats": [
    ],
    "includedLayerIds": [
    ],
    "layerOptions": 0,
    "shouldTrim": false
  },
  "frame": {
    "_class": "rect",
    "constrainProportions": false,
    "do_objectID": "96AE1FCB-EAF5-4219-B2B0-A7F0EC7570B9",
    "height": 0.1058906030855615,
    "width": 0.1059863482545715,
    "x": 26.96196633612459,
    "y": 5.279413962226817
  },
  "hasClippingMask": false,
  "isClosed": true,
  "isFixedToViewport": false,
  "isFlippedHorizontal": false,
  "isFlippedVertical": false,
  "isLocked": false,
  "isVisible": true,
  "layerListExpandedType": 0,
  "name": "Path",
  "nameIsFixed": false,
  "pointRadiusBehaviour": 0,
  "points": [
    {
      "_class": "curvePoint",
      "cornerRadius": 0,
      "curveFrom": "{-0.2688792966707183, 0.70343790353891222}",
      "curveMode": 4,
      "curveTo": "{0.41212070332926487, 0.94943790353889312}",
      "hasCurveFrom": true,
      "hasCurveTo": true,
      "point": "{0.17312070332923213, 0.86043790353889449}"
    },
    {
      "_class": "curvePoint",
      "cornerRadius": 0,
      "curveFrom": "{0.92812070332928442, 0.16743790353891086}",
      "curveMode": 3,
      "curveTo": "{0.24712070332924441, -0.078562096461126885}",
      "hasCurveFrom": true,
      "hasCurveTo": true,
      "point": "{0.4841207033292676, 0.0064379035389094952}"
    }
  ],
  "resizingConstraint": 63,
  "resizingType": 0,
  "rotation": 0,
  "shouldBreakMaskChain": false,
  "style": {
    "_class": "style",
    "do_objectID": "C69B8A43-CEF7-4B58-8D24-C103EFFD77E0",
    "endMarkerType": 0,
    "fills": [
      {
        "_class": "fill",
        "color": {
          "_class": "color",
          "alpha": 1,
          "blue": 0.1764705882352941,
          "green": 0.1764705882352941,
          "red": 0.1764705882352941
        },
        "fillType": 0,
        "isEnabled": true,
        "noiseIndex": 0,
        "noiseIntensity": 0,
        "patternFillType": 1,
        "patternTileScale": 1
      }
    ],
    "miterLimit": 10,
    "startMarkerType": 0,
    "windingRule": 1
  }
}