{
  "_class": "shapePath",
  "booleanOperation": -1,
  "clippingMaskMode": 0,
  "do_objectID": "08A44F0B-4C53-416A-A97B-024BB99EB030",
  "edited": true,
  "exportOptions": {
    "_class": "exportOptions",
    "do_objectID": "E0339346-1BBB-4EBA-B61E-3560FB75AA0F",
    "exportFormats": [
    ],
    "includedLayerIds": [
    ],
    "layerOptions": 0,
    "shouldTrim": false
  },
  "frame": {
    "_class": "rect",
    "constrainProportions": false,
    "do_objectID": "3FEFD075-F09B-4644-AB6E-15D1AC69B11A",
    "height": 0.105890603085566,
    "width": 0.1059863482545573,
    "x": 7.016312141938872,
    "y": 22.14998901754834
  },
  "hasClippingMask": false,
  "isClosed": true,
  "isFixedToViewport": false,
  "isFlippedHorizontal": false,
  "isFlippedVertical": false,
  "isLocked": false,
  "isVisible": true,
  "layerListExpandedType": 0,
  "name": "Path",
  "nameIsFixed": false,
  "pointRadiusBehaviour": 0,
  "points": [
    {
      "_class": "curvePoint",
      "cornerRadius": 0,
      "curveFrom": "{1.119357169750677, 0.47200000000003683}",
      "curveMode": 4,
      "curveTo": "{0.77664489335606324, 0.20699999999999363}",
      "hasCurveFrom": true,
      "hasCurveTo": true,
      "point": "{0.9401044353230813, 0}"
    },
    {
      "_class": "curvePoint",
      "cornerRadius": 0,
      "curveFrom": "{0.36207359126582256, 1.0690000000000168}",
      "curveMode": 4,
      "curveTo": "{0.86508677113532306, 0.60700000000002774}",
      "hasCurveFrom": true,
      "hasCurveTo": true,
      "point": "{0.58870590307515147, 0.72700000000003229}"
    },
    {
      "_class": "curvePoint",
      "cornerRadius": 0,
      "curveFrom": "{0.13070332171830806, 0.04100000000005366}",
      "curveMode": 3,
      "curveTo": "{-0.08408409574558473, 0.48400000000003729}",
      "hasCurveFrom": true,
      "hasCurveTo": true,
      "point": "{0.013833697510012793, 0.28300000000001546}"
    }
  ],
  "resizingConstraint": 63,
  "resizingType": 0,
  "rotation": 0,
  "shouldBreakMaskChain": false,
  "style": {
    "_class": "style",
    "do_objectID": "D518B8B4-A73D-4A7A-AA66-C8E3C48CE598",
    "endMarkerType": 0,
    "fills": [
      {
        "_class": "fill",
        "color": {
          "_class": "color",
          "alpha": 1,
          "blue": 0.1764705882352941,
          "green": 0.1764705882352941,
          "red": 0.1764705882352941
        },
        "fillType": 0,
        "isEnabled": true,
        "noiseIndex": 0,
        "noiseIntensity": 0,
        "patternFillType": 1,
        "patternTileScale": 1
      }
    ],
    "miterLimit": 10,
    "startMarkerType": 0,
    "windingRule": 1
  }
}