{
  "_class": "shapePath",
  "booleanOperation": -1,
  "clippingMaskMode": 0,
  "do_objectID": "091C8D9C-D03F-4FAC-8DDE-12ED94C88F28",
  "edited": true,
  "exportOptions": {
    "_class": "exportOptions",
    "do_objectID": "B59FFEDF-CA6D-4B44-A44D-BFAB9CFB8FDA",
    "exportFormats": [
    ],
    "includedLayerIds": [
    ],
    "layerOptions": 0,
    "shouldTrim": false
  },
  "frame": {
    "_class": "rect",
    "constrainProportions": false,
    "do_objectID": "7A7D420B-15B6-46FB-AC68-4377B29367F7",
    "height": 0.1058906030855695,
    "width": 0.1059863482545573,
    "x": 4.668947932448952,
    "y": 25.2644217156164
  },
  "hasClippingMask": false,
  "isClosed": true,
  "isFixedToViewport": false,
  "isFlippedHorizontal": false,
  "isFlippedVertical": false,
  "isLocked": false,
  "isVisible": true,
  "layerListExpandedType": 0,
  "name": "Path",
  "nameIsFixed": false,
  "pointRadiusBehaviour": 0,
  "points": [
    {
      "_class": "curvePoint",
      "cornerRadius": 0,
      "curveFrom": "{-0.26978547286699239, 0.70059925179924676}",
      "curveMode": 4,
      "curveTo": "{0.4112145271330121, 0.95059925179924676}",
      "hasCurveFrom": true,
      "hasCurveTo": true,
      "point": "{0.17321452713300545, 0.86559925179921038}"
    },
    {
      "_class": "curvePoint",
      "cornerRadius": 0,
      "curveFrom": "{0.92721452713301034, 0.16859925179920765}",
      "curveMode": 3,
      "curveTo": "{0.24921452713300596, -0.0794007482007828}",
      "hasCurveFrom": true,
      "hasCurveTo": true,
      "point": "{0.48421452713300539, 0.0065992517992299327}"
    }
  ],
  "resizingConstraint": 63,
  "resizingType": 0,
  "rotation": 0,
  "shouldBreakMaskChain": false,
  "style": {
    "_class": "style",
    "do_objectID": "CD429088-4B8F-44CA-BF81-508D18D73F5D",
    "endMarkerType": 0,
    "fills": [
      {
        "_class": "fill",
        "color": {
          "_class": "color",
          "alpha": 1,
          "blue": 0.1764705882352941,
          "green": 0.1764705882352941,
          "red": 0.1764705882352941
        },
        "fillType": 0,
        "isEnabled": true,
        "noiseIndex": 0,
        "noiseIntensity": 0,
        "patternFillType": 1,
        "patternTileScale": 1
      }
    ],
    "miterLimit": 10,
    "startMarkerType": 0,
    "windingRule": 1
  }
}