{
  "_class": "shapePath",
  "booleanOperation": -1,
  "clippingMaskMode": 0,
  "do_objectID": "0CF12CDB-4D0C-487C-B657-C4642BE52EC1",
  "edited": true,
  "exportOptions": {
    "_class": "exportOptions",
    "do_objectID": "DC091648-8515-443B-850F-65DBFDC7EF38",
    "exportFormats": [
    ],
    "includedLayerIds": [
    ],
    "layerOptions": 0,
    "shouldTrim": false
  },
  "frame": {
    "_class": "rect",
    "constrainProportions": false,
    "do_objectID": "E0FAE926-12AC-4F7E-A9FB-3397BEEE9668",
    "height": 0.1058906030855535,
    "width": 0.1059863482545573,
    "x": 10.80397885156703,
    "y": 6.484556859719319
  },
  "hasClippingMask": false,
  "isClosed": true,
  "isFixedToViewport": false,
  "isFlippedHorizontal": false,
  "isFlippedVertical": false,
  "isLocked": false,
  "isVisible": true,
  "layerListExpandedType": 0,
  "name": "Path",
  "nameIsFixed": false,
  "pointRadiusBehaviour": 0,
  "points": [
    {
      "_class": "curvePoint",
      "cornerRadius": 0,
      "curveFrom": "{-0.28919427045508428, 0.57907964954263491}",
      "curveMode": 3,
      "curveTo": "{0.35980572954491663, 0.97307964954264037}",
      "hasCurveFrom": true,
      "hasCurveTo": true,
      "point": "{0.13380572954491754, 0.83607964954263991}"
    },
    {
      "_class": "curvePoint",
      "cornerRadius": 0,
      "curveFrom": "{1.053805729544905, 0.27907964954262354}",
      "curveMode": 3,
      "curveTo": "{0.4058057295449089, -0.12092035045735372}",
      "hasCurveFrom": true,
      "hasCurveTo": true,
      "point": "{0.63180572954490799, 0.018079649542599441}"
    }
  ],
  "resizingConstraint": 63,
  "resizingType": 0,
  "rotation": 0,
  "shouldBreakMaskChain": false,
  "style": {
    "_class": "style",
    "do_objectID": "06E82D54-9C1C-40C4-9D8B-ACC324C484E3",
    "endMarkerType": 0,
    "fills": [
      {
        "_class": "fill",
        "color": {
          "_class": "color",
          "alpha": 1,
          "blue": 0.1764705882352941,
          "green": 0.1764705882352941,
          "red": 0.1764705882352941
        },
        "fillType": 0,
        "isEnabled": true,
        "noiseIndex": 0,
        "noiseIntensity": 0,
        "patternFillType": 1,
        "patternTileScale": 1
      }
    ],
    "miterLimit": 10,
    "startMarkerType": 0,
    "windingRule": 1
  }
}