{
  "_class": "shapePath",
  "booleanOperation": -1,
  "clippingMaskMode": 0,
  "do_objectID": "0D95A112-D226-413D-AFDC-AB240F6945B2",
  "edited": true,
  "exportOptions": {
    "_class": "exportOptions",
    "do_objectID": "60F66A9C-D5BE-4582-BDC7-70F639E8F6FA",
    "exportFormats": [
    ],
    "includedLayerIds": [
    ],
    "layerOptions": 0,
    "shouldTrim": false
  },
  "frame": {
    "_class": "rect",
    "constrainProportions": false,
    "do_objectID": "B79D9770-9E65-46BD-BA9A-A43ECE57DF7C",
    "height": 0.1058906030855535,
    "width": 0.1059863482545591,
    "x": 8.544623865872651,
    "y": 10.59045246003735
  },
  "hasClippingMask": false,
  "isClosed": true,
  "isFixedToViewport": false,
  "isFlippedHorizontal": false,
  "isFlippedVertical": false,
  "isLocked": false,
  "isVisible": true,
  "layerListExpandedType": 0,
  "name": "Path",
  "nameIsFixed": false,
  "pointRadiusBehaviour": 0,
  "points": [
    {
      "_class": "curvePoint",
      "cornerRadius": 0,
      "curveFrom": "{-0.26974077805398622, 0.70316277903268087}",
      "curveMode": 3,
      "curveTo": "{0.41125922194601117, 0.95116277903267132}",
      "hasCurveFrom": true,
      "hasCurveTo": true,
      "point": "{0.17325922194601162, 0.86516277903265859}"
    },
    {
      "_class": "curvePoint",
      "cornerRadius": 0,
      "curveFrom": "{0.92725922194601651, 0.16716277903267951}",
      "curveMode": 3,
      "curveTo": "{0.24925922194601924, -0.076837220967291842}",
      "hasCurveFrom": true,
      "hasCurveTo": true,
      "point": "{0.48225922194600912, 0.0061627790326781451}"
    }
  ],
  "resizingConstraint": 63,
  "resizingType": 0,
  "rotation": 0,
  "shouldBreakMaskChain": false,
  "style": {
    "_class": "style",
    "do_objectID": "94C6CAD7-BD1E-4AF8-AF5E-9AF210F1F733",
    "endMarkerType": 0,
    "fills": [
      {
        "_class": "fill",
        "color": {
          "_class": "color",
          "alpha": 1,
          "blue": 0.1764705882352941,
          "green": 0.1764705882352941,
          "red": 0.1764705882352941
        },
        "fillType": 0,
        "isEnabled": true,
        "noiseIndex": 0,
        "noiseIntensity": 0,
        "patternFillType": 1,
        "patternTileScale": 1
      }
    ],
    "miterLimit": 10,
    "startMarkerType": 0,
    "windingRule": 1
  }
}