{
  "_class": "shapePath",
  "booleanOperation": -1,
  "clippingMaskMode": 0,
  "do_objectID": "14C08116-DED9-4AAE-92F4-63E41823EAFC",
  "edited": true,
  "exportOptions": {
    "_class": "exportOptions",
    "do_objectID": "492CB2F3-7298-4756-A41D-2D272433FEE2",
    "exportFormats": [
    ],
    "includedLayerIds": [
    ],
    "layerOptions": 0,
    "shouldTrim": false
  },
  "frame": {
    "_class": "rect",
    "constrainProportions": false,
    "do_objectID": "851DAD9A-85BA-4403-BE6E-04BA7F141530",
    "height": 0.1058906030855553,
    "width": 0.1059863482545538,
    "x": 34.56085425262422,
    "y": 20.53738085545698
  },
  "hasClippingMask": false,
  "isClosed": true,
  "isFixedToViewport": false,
  "isFlippedHorizontal": false,
  "isFlippedVertical": false,
  "isLocked": false,
  "isVisible": true,
  "layerListExpandedType": 0,
  "name": "Path",
  "nameIsFixed": false,
  "pointRadiusBehaviour": 0,
  "points": [
    {
      "_class": "curvePoint",
      "cornerRadius": 0,
      "curveFrom": "{-0.26948801907514053, 0.70272492503320905}",
      "curveMode": 3,
      "curveTo": "{0.41051198092486629, 0.94772492503321359}",
      "hasCurveFrom": true,
      "hasCurveTo": true,
      "point": "{0.17351198092489994, 0.86172492503322928}"
    },
    {
      "_class": "curvePoint",
      "cornerRadius": 0,
      "curveFrom": "{0.9315119809248813, 0.16872492503321723}",
      "curveMode": 3,
      "curveTo": "{0.24751198092491222, -0.080275074966777993}",
      "hasCurveFrom": true,
      "hasCurveTo": true,
      "point": "{0.48651198092488812, 0.0067249250332110933}"
    }
  ],
  "resizingConstraint": 63,
  "resizingType": 0,
  "rotation": 0,
  "shouldBreakMaskChain": false,
  "style": {
    "_class": "style",
    "do_objectID": "21813C98-6AE0-45B6-809D-80A7DF5AAF34",
    "endMarkerType": 0,
    "fills": [
      {
        "_class": "fill",
        "color": {
          "_class": "color",
          "alpha": 1,
          "blue": 0.1764705882352941,
          "green": 0.1764705882352941,
          "red": 0.1764705882352941
        },
        "fillType": 0,
        "isEnabled": true,
        "noiseIndex": 0,
        "noiseIntensity": 0,
        "patternFillType": 1,
        "patternTileScale": 1
      }
    ],
    "miterLimit": 10,
    "startMarkerType": 0,
    "windingRule": 1
  }
}