{
  "_class": "shapePath",
  "booleanOperation": -1,
  "clippingMaskMode": 0,
  "do_objectID": "189E7CDF-801E-47DD-8D7E-B2082D671934",
  "edited": true,
  "exportOptions": {
    "_class": "exportOptions",
    "do_objectID": "05648409-B754-4BD8-A402-805527E6C011",
    "exportFormats": [
    ],
    "includedLayerIds": [
    ],
    "layerOptions": 0,
    "shouldTrim": false
  },
  "frame": {
    "_class": "rect",
    "constrainProportions": false,
    "do_objectID": "62C8BB81-3596-4C68-8531-F84C8CEB87D3",
    "height": 0.2198607591573669,
    "width": 0.1330171863917329,
    "x": 35.13225963320046,
    "y": 11.71614350958938
  },
  "hasClippingMask": false,
  "isClosed": true,
  "isFixedToViewport": false,
  "isFlippedHorizontal": false,
  "isFlippedVertical": false,
  "isLocked": false,
  "isVisible": true,
  "layerListExpandedType": 0,
  "name": "Path",
  "nameIsFixed": false,
  "pointRadiusBehaviour": 0,
  "points": [
    {
      "_class": "curvePoint",
      "cornerRadius": 0,
      "curveFrom": "{0.36003608242706897, -0.038173984036470342}",
      "curveMode": 4,
      "curveTo": "{0.73105631652142267, 0.34986671892162169}",
      "hasCurveFrom": true,
      "hasCurveTo": true,
      "point": "{0, 0.0079335139385896952}"
    },
    {
      "_class": "curvePoint",
      "cornerRadius": 0,
      "curveFrom": "{1.0624115584839804, 0.24031530373289062}",
      "curveMode": 4,
      "curveTo": "{0.58643165290242794, 0.13666564828495348}",
      "hasCurveFrom": true,
      "hasCurveTo": true,
      "point": "{0.98735318875766176, 0.023794493242012698}"
    },
    {
      "_class": "curvePoint",
      "cornerRadius": 0,
      "curveFrom": "{0.58582142225422618, 0.67077490482804125}",
      "curveMode": 4,
      "curveTo": "{0.77072130865321864, 0.37679349773907}",
      "hasCurveFrom": true,
      "hasCurveTo": true,
      "point": "{0.96172350153405517, 0.61950336707979181}"
    },
    {
      "_class": "curvePoint",
      "cornerRadius": 0,
      "curveFrom": "{-0.57178611734607143, 1.1532437636390669}",
      "curveMode": 4,
      "curveTo": "{0.65538771614693703, 0.81979433828343395}",
      "hasCurveFrom": true,
      "hasCurveTo": true,
      "point": "{0.74814277467051682, 0.97434667149584986}"
    }
  ],
  "resizingConstraint": 63,
  "resizingType": 0,
  "rotation": 0,
  "shouldBreakMaskChain": false,
  "style": {
    "_class": "style",
    "do_objectID": "9942244E-8575-4154-8A93-88CC34C0A9D6",
    "endMarkerType": 0,
    "fills": [
      {
        "_class": "fill",
        "color": {
          "_class": "color",
          "alpha": 1,
          "blue": 0.1764705882352941,
          "green": 0.1764705882352941,
          "red": 0.1764705882352941
        },
        "fillType": 0,
        "isEnabled": true,
        "noiseIndex": 0,
        "noiseIntensity": 0,
        "patternFillType": 1,
        "patternTileScale": 1
      }
    ],
    "miterLimit": 10,
    "startMarkerType": 0,
    "windingRule": 1
  }
}