{
  "_class": "shapePath",
  "booleanOperation": -1,
  "clippingMaskMode": 0,
  "do_objectID": "2265D129-999A-4F99-86BC-FEE0FF3FCA4F",
  "edited": true,
  "exportOptions": {
    "_class": "exportOptions",
    "do_objectID": "DA010F2E-6AB2-4330-AD15-BE16372EC96A",
    "exportFormats": [
    ],
    "includedLayerIds": [
    ],
    "layerOptions": 0,
    "shouldTrim": false
  },
  "frame": {
    "_class": "rect",
    "constrainProportions": false,
    "do_objectID": "7B6358DA-10A5-4FE9-B02D-249C279A4BB8",
    "height": 0.105890603085566,
    "width": 0.1059863482545573,
    "x": 4.752300807352891,
    "y": 27.41769753818861
  },
  "hasClippingMask": false,
  "isClosed": true,
  "isFixedToViewport": false,
  "isFlippedHorizontal": false,
  "isFlippedVertical": false,
  "isLocked": false,
  "isVisible": true,
  "layerListExpandedType": 0,
  "name": "Path",
  "nameIsFixed": false,
  "pointRadiusBehaviour": 0,
  "points": [
    {
      "_class": "curvePoint",
      "cornerRadius": 0,
      "curveFrom": "{0.92833661964976244, 0.1650175184879572}",
      "curveMode": 4,
      "curveTo": "{0.24633661964976028, -0.081982481512000049}",
      "hasCurveFrom": true,
      "hasCurveTo": true,
      "point": "{0.4853366196497646, 0.0070175184879417429}"
    },
    {
      "_class": "curvePoint",
      "cornerRadius": 0,
      "curveFrom": "{-0.26966338035023796, 0.70201751848799177}",
      "curveMode": 3,
      "curveTo": "{0.41033661964976176, 0.94701751848799631}",
      "hasCurveFrom": true,
      "hasCurveTo": true,
      "point": "{0.17433661964976466, 0.86201751848795993}"
    }
  ],
  "resizingConstraint": 63,
  "resizingType": 0,
  "rotation": 0,
  "shouldBreakMaskChain": false,
  "style": {
    "_class": "style",
    "do_objectID": "8F7D7AB3-8492-48E1-8E00-3C0D737EC46A",
    "endMarkerType": 0,
    "fills": [
      {
        "_class": "fill",
        "color": {
          "_class": "color",
          "alpha": 1,
          "blue": 0.1764705882352941,
          "green": 0.1764705882352941,
          "red": 0.1764705882352941
        },
        "fillType": 0,
        "isEnabled": true,
        "noiseIndex": 0,
        "noiseIntensity": 0,
        "patternFillType": 1,
        "patternTileScale": 1
      }
    ],
    "miterLimit": 10,
    "startMarkerType": 0,
    "windingRule": 1
  }
}