{
  "_class": "shapePath",
  "booleanOperation": -1,
  "clippingMaskMode": 0,
  "do_objectID": "28FB6E5C-85ED-49CD-9FF6-F1B6DE13EDBE",
  "edited": true,
  "exportOptions": {
    "_class": "exportOptions",
    "do_objectID": "A9B4D25C-A728-4930-9C2F-F87CB89AE1A1",
    "exportFormats": [
    ],
    "includedLayerIds": [
    ],
    "layerOptions": 0,
    "shouldTrim": false
  },
  "frame": {
    "_class": "rect",
    "constrainProportions": false,
    "do_objectID": "5867BB71-2AF7-4743-836E-0E17091F5E36",
    "height": 0.1058906030855802,
    "width": 0.1059863482545396,
    "x": 37.30403009213344,
    "y": 26.52514636329676
  },
  "hasClippingMask": false,
  "isClosed": true,
  "isFixedToViewport": false,
  "isFlippedHorizontal": false,
  "isFlippedVertical": false,
  "isLocked": false,
  "isVisible": true,
  "layerListExpandedType": 0,
  "name": "Path",
  "nameIsFixed": false,
  "pointRadiusBehaviour": 0,
  "points": [
    {
      "_class": "curvePoint",
      "cornerRadius": 0,
      "curveFrom": "{-0.26944313226272243, 0.70187437290360322}",
      "curveMode": 3,
      "curveTo": "{0.41055686773728439, 0.95087437290362686}",
      "hasCurveFrom": true,
      "hasCurveTo": true,
      "point": "{0.17355686773731804, 0.86287437290360458}"
    },
    {
      "_class": "curvePoint",
      "cornerRadius": 0,
      "curveFrom": "{0.9285568677373135, 0.1688743729036446}",
      "curveMode": 3,
      "curveTo": "{0.24755686773727348, -0.081125627096355402}",
      "hasCurveFrom": true,
      "hasCurveTo": true,
      "point": "{0.48455686773729667, 0.0068743729036100376}"
    }
  ],
  "resizingConstraint": 63,
  "resizingType": 0,
  "rotation": 0,
  "shouldBreakMaskChain": false,
  "style": {
    "_class": "style",
    "do_objectID": "F0A1459F-6B3A-4649-A8A7-F11D2AAD0574",
    "endMarkerType": 0,
    "fills": [
      {
        "_class": "fill",
        "color": {
          "_class": "color",
          "alpha": 1,
          "blue": 0.1764705882352941,
          "green": 0.1764705882352941,
          "red": 0.1764705882352941
        },
        "fillType": 0,
        "isEnabled": true,
        "noiseIndex": 0,
        "noiseIntensity": 0,
        "patternFillType": 1,
        "patternTileScale": 1
      }
    ],
    "miterLimit": 10,
    "startMarkerType": 0,
    "windingRule": 1
  }
}