{
  "_class": "shapePath",
  "booleanOperation": -1,
  "clippingMaskMode": 0,
  "do_objectID": "356AD559-971E-4F54-9CD2-7F792F4EE3DE",
  "edited": true,
  "exportOptions": {
    "_class": "exportOptions",
    "do_objectID": "7A323171-F384-4C65-BF2D-3504AA149DF2",
    "exportFormats": [
    ],
    "includedLayerIds": [
    ],
    "layerOptions": 0,
    "shouldTrim": false
  },
  "frame": {
    "_class": "rect",
    "constrainProportions": false,
    "do_objectID": "E43B7E49-7E2B-4F51-B01D-4FA0769CA49D",
    "height": 0.1092555353132525,
    "width": 0.3448108937287913,
    "x": 41.04363081327762,
    "y": 17.88462341369852
  },
  "hasClippingMask": false,
  "isClosed": true,
  "isFixedToViewport": false,
  "isFlippedHorizontal": false,
  "isFlippedVertical": false,
  "isLocked": false,
  "isVisible": true,
  "layerListExpandedType": 0,
  "name": "Path",
  "nameIsFixed": false,
  "pointRadiusBehaviour": 0,
  "points": [
    {
      "_class": "curvePoint",
      "cornerRadius": 0,
      "curveFrom": "{0.28860992711051936, 0.76180392850506673}",
      "curveMode": 4,
      "curveTo": "{0.48800030905391606, 0.76403075854609837}",
      "hasCurveFrom": true,
      "hasCurveTo": true,
      "point": "{0.38512711317520443, 0.76403075854609837}"
    },
    {
      "_class": "curvePoint",
      "cornerRadius": 0,
      "curveFrom": "{0.096281778293801107, 0.43668674251600914}",
      "curveMode": 4,
      "curveTo": "{0.19585926538005746, 0.8642381103920368}",
      "hasCurveFrom": true,
      "hasCurveTo": true,
      "point": "{0.19256355658760221, 0.39215014169558743}"
    },
    {
      "_class": "curvePoint",
      "cornerRadius": 0,
      "curveFrom": "{0.09698800160646627, -0.02204024593431364}",
      "curveMode": 4,
      "curveTo": "{0.0037665243342231251, 0.4596973196065639}",
      "hasCurveFrom": true,
      "hasCurveTo": true,
      "point": "{0, 0.022496354886108096}"
    },
    {
      "_class": "curvePoint",
      "cornerRadius": 0,
      "curveFrom": "{0.29543675246631385, 0.37730460808877314}",
      "curveMode": 4,
      "curveTo": "{0.189032440024263, -0.043566269664180632}",
      "hasCurveFrom": true,
      "hasCurveTo": true,
      "point": "{0.19256355658760221, 0.39215014169558743}"
    },
    {
      "_class": "curvePoint",
      "cornerRadius": 0,
      "curveFrom": "{0.59911277691375253, 0.15833298738838386}",
      "curveMode": 2,
      "curveTo": "{0.39972239497035583, 0.15313705062599781}",
      "hasCurveFrom": true,
      "hasCurveTo": true,
      "point": "{0.5023601830781701, 0.15536388066702944}"
    },
    {
      "_class": "curvePoint",
      "cornerRadius": 0,
      "curveFrom": "{1.3029820118733415, -0.43103469680184975}",
      "curveMode": 4,
      "curveTo": "{0.6913926231024331, 0.052929698780059438}",
      "hasCurveFrom": true,
      "hasCurveTo": true,
      "point": "{0.69492373966578569, 0.52724449751751934}"
    },
    {
      "_class": "curvePoint",
      "cornerRadius": 0,
      "curveFrom": "{0.59157972824529281, 0.54431686116536526}",
      "curveMode": 4,
      "curveTo": "{0.83852247990836692, 1.9665189806974432}",
      "hasCurveFrom": true,
      "hasCurveTo": true,
      "point": "{0.69492373966578569, 0.52724449751751934}"
    }
  ],
  "resizingConstraint": 63,
  "resizingType": 0,
  "rotation": 0,
  "shouldBreakMaskChain": false,
  "style": {
    "_class": "style",
    "do_objectID": "97A84E9E-D702-46FC-B104-48145C7B0F11",
    "endMarkerType": 0,
    "fills": [
      {
        "_class": "fill",
        "color": {
          "_class": "color",
          "alpha": 1,
          "blue": 0.1764705882352941,
          "green": 0.1764705882352941,
          "red": 0.1764705882352941
        },
        "fillType": 0,
        "isEnabled": true,
        "noiseIndex": 0,
        "noiseIntensity": 0,
        "patternFillType": 1,
        "patternTileScale": 1
      }
    ],
    "miterLimit": 10,
    "startMarkerType": 0,
    "windingRule": 1
  }
}