{
  "_class": "shapePath",
  "booleanOperation": -1,
  "clippingMaskMode": 0,
  "do_objectID": "40D31693-5931-45FD-8597-8682F8E6CB15",
  "edited": true,
  "exportOptions": {
    "_class": "exportOptions",
    "do_objectID": "38059A7C-2E9B-49B8-B3E4-1F8CBC6F1790",
    "exportFormats": [
    ],
    "includedLayerIds": [
    ],
    "layerOptions": 0,
    "shouldTrim": false
  },
  "frame": {
    "_class": "rect",
    "constrainProportions": false,
    "do_objectID": "02D01DD7-1E9F-4FF9-851B-897A23638BBC",
    "height": 0.105890603085566,
    "width": 0.1071853380150545,
    "x": 4.617291430345915,
    "y": 21.57086937023569
  },
  "hasClippingMask": false,
  "isClosed": true,
  "isFixedToViewport": false,
  "isFlippedHorizontal": false,
  "isFlippedVertical": false,
  "isLocked": false,
  "isVisible": true,
  "layerListExpandedType": 0,
  "name": "Path",
  "nameIsFixed": false,
  "pointRadiusBehaviour": 0,
  "points": [
    {
      "_class": "curvePoint",
      "cornerRadius": 0,
      "curveFrom": "{0.48134143448780681, 1.2499438731829005}",
      "curveMode": 4,
      "curveTo": "{0.91148628389168551, 0.64554311318773605}",
      "hasCurveFrom": true,
      "hasCurveTo": true,
      "point": "{0.65476250933550062, 0.84145908077125875}"
    },
    {
      "_class": "curvePoint",
      "cornerRadius": 0,
      "curveFrom": "{0.082245773157103505, 0.25469075785858508}",
      "curveMode": 4,
      "curveTo": "{-0.061640708157576642, 0.76701101308955011}",
      "hasCurveFrom": true,
      "hasCurveTo": true,
      "point": "{0.0057587488792970997, 0.53485059150303982}"
    },
    {
      "_class": "curvePoint",
      "cornerRadius": 0,
      "curveFrom": "{1.1454911403455523, 0.43983134722498984}",
      "curveMode": 4,
      "curveTo": "{0.75926953260615893, 0.25762949737232427}",
      "hasCurveFrom": true,
      "hasCurveTo": true,
      "point": "{0.88876736578936733, 0}"
    }
  ],
  "resizingConstraint": 63,
  "resizingType": 0,
  "rotation": 0,
  "shouldBreakMaskChain": false,
  "style": {
    "_class": "style",
    "do_objectID": "78D97EBE-EE80-4A3D-85E5-EF8E60C07655",
    "endMarkerType": 0,
    "fills": [
      {
        "_class": "fill",
        "color": {
          "_class": "color",
          "alpha": 1,
          "blue": 0.1764705882352941,
          "green": 0.1764705882352941,
          "red": 0.1764705882352941
        },
        "fillType": 0,
        "isEnabled": true,
        "noiseIndex": 0,
        "noiseIntensity": 0,
        "patternFillType": 1,
        "patternTileScale": 1
      }
    ],
    "miterLimit": 10,
    "startMarkerType": 0,
    "windingRule": 1
  }
}