{
  "_class": "shapePath",
  "booleanOperation": -1,
  "clippingMaskMode": 0,
  "do_objectID": "456B08AF-7DFD-484C-90E8-E9A5D4864A79",
  "edited": true,
  "exportOptions": {
    "_class": "exportOptions",
    "do_objectID": "2AFFB5BE-548B-425A-8E50-152E6D623432",
    "exportFormats": [
    ],
    "includedLayerIds": [
    ],
    "layerOptions": 0,
    "shouldTrim": false
  },
  "frame": {
    "_class": "rect",
    "constrainProportions": false,
    "do_objectID": "745055C1-A593-43B8-91B7-5F0AE256D091",
    "height": 0.1058906030855589,
    "width": 0.1059863482545564,
    "x": 5.050557166962068,
    "y": 26.51289536145859
  },
  "hasClippingMask": false,
  "isClosed": true,
  "isFixedToViewport": false,
  "isFlippedHorizontal": false,
  "isFlippedVertical": false,
  "isLocked": false,
  "isVisible": true,
  "layerListExpandedType": 0,
  "name": "Path",
  "nameIsFixed": false,
  "pointRadiusBehaviour": 0,
  "points": [
    {
      "_class": "curvePoint",
      "cornerRadius": 0,
      "curveFrom": "{0.93992386781606285, 0.24593884556037438}",
      "curveMode": 4,
      "curveTo": "{0.36092386781606223, -0.10706115443957742}",
      "hasCurveFrom": true,
      "hasCurveTo": true,
      "point": "{0.56592386781606052, 0.015938845560413029}"
    },
    {
      "_class": "curvePoint",
      "cornerRadius": 0,
      "curveFrom": "{-0.2560761321839351, 0.51493884556037983}",
      "curveMode": 3,
      "curveTo": "{0.31992386781606541, 0.86793884556044532}",
      "hasCurveFrom": true,
      "hasCurveTo": true,
      "point": "{0.11792386781606012, 0.74593884556037438}"
    }
  ],
  "resizingConstraint": 63,
  "resizingType": 0,
  "rotation": 0,
  "shouldBreakMaskChain": false,
  "style": {
    "_class": "style",
    "do_objectID": "EDE571CC-5D3C-4F3C-A696-E473B88CD17A",
    "endMarkerType": 0,
    "fills": [
      {
        "_class": "fill",
        "color": {
          "_class": "color",
          "alpha": 1,
          "blue": 0.1764705882352941,
          "green": 0.1764705882352941,
          "red": 0.1764705882352941
        },
        "fillType": 0,
        "isEnabled": true,
        "noiseIndex": 0,
        "noiseIntensity": 0,
        "patternFillType": 1,
        "patternTileScale": 1
      }
    ],
    "miterLimit": 10,
    "startMarkerType": 0,
    "windingRule": 1
  }
}