{
  "_class": "shapePath",
  "booleanOperation": -1,
  "clippingMaskMode": 0,
  "do_objectID": "4DF6A182-A40B-47EB-9A2A-839206712956",
  "edited": true,
  "exportOptions": {
    "_class": "exportOptions",
    "do_objectID": "652676EC-EF10-478E-A68F-04098063B23C",
    "exportFormats": [
    ],
    "includedLayerIds": [
    ],
    "layerOptions": 0,
    "shouldTrim": false
  },
  "frame": {
    "_class": "rect",
    "constrainProportions": false,
    "do_objectID": "EA8BF714-3530-4C6E-B003-B34452C01FC1",
    "height": 0.105890603085566,
    "width": 0.1059863482545467,
    "x": 33.22094777787397,
    "y": 29.01500684118609
  },
  "hasClippingMask": false,
  "isClosed": true,
  "isFixedToViewport": false,
  "isFlippedHorizontal": false,
  "isFlippedVertical": false,
  "isLocked": false,
  "isVisible": true,
  "layerListExpandedType": 0,
  "name": "Path",
  "nameIsFixed": false,
  "pointRadiusBehaviour": 0,
  "points": [
    {
      "_class": "curvePoint",
      "cornerRadius": 0,
      "curveFrom": "{0.94068535197442316, 0.24393953937749302}",
      "curveMode": 3,
      "curveTo": "{0.36168535197441543, -0.10706046062250607}",
      "hasCurveFrom": true,
      "hasCurveTo": true,
      "point": "{0.56568535197442316, 0.01593953937748438}"
    },
    {
      "_class": "curvePoint",
      "cornerRadius": 0,
      "curveFrom": "{-0.25831464802558912, 0.51493953937750803}",
      "curveMode": 3,
      "curveTo": "{0.32068535197441861, 0.86793953937745982}",
      "hasCurveFrom": true,
      "hasCurveTo": true,
      "point": "{0.11968535197439678, 0.74493953937746937}"
    }
  ],
  "resizingConstraint": 63,
  "resizingType": 0,
  "rotation": 0,
  "shouldBreakMaskChain": false,
  "style": {
    "_class": "style",
    "do_objectID": "F49E99E9-94E2-4114-BDE3-F527AD2CC809",
    "endMarkerType": 0,
    "fills": [
      {
        "_class": "fill",
        "color": {
          "_class": "color",
          "alpha": 1,
          "blue": 0.1764705882352941,
          "green": 0.1764705882352941,
          "red": 0.1764705882352941
        },
        "fillType": 0,
        "isEnabled": true,
        "noiseIndex": 0,
        "noiseIntensity": 0,
        "patternFillType": 1,
        "patternTileScale": 1
      }
    ],
    "miterLimit": 10,
    "startMarkerType": 0,
    "windingRule": 1
  }
}