{
  "_class": "shapePath",
  "booleanOperation": -1,
  "clippingMaskMode": 0,
  "do_objectID": "4E62311C-2A27-487A-8058-55E54E942A1A",
  "edited": true,
  "exportOptions": {
    "_class": "exportOptions",
    "do_objectID": "A01F8C72-FEFF-4697-90F4-BD3AF67CA165",
    "exportFormats": [
    ],
    "includedLayerIds": [
    ],
    "layerOptions": 0,
    "shouldTrim": false
  },
  "frame": {
    "_class": "rect",
    "constrainProportions": false,
    "do_objectID": "A13DFEE2-6FE3-430E-88E6-53D86F7EF4F0",
    "height": 0.2133689470559679,
    "width": 0.1741343845335166,
    "x": 23.41753439260462,
    "y": 4.446249767184922
  },
  "hasClippingMask": false,
  "isClosed": true,
  "isFixedToViewport": false,
  "isFlippedHorizontal": false,
  "isFlippedVertical": false,
  "isLocked": false,
  "isVisible": true,
  "layerListExpandedType": 0,
  "name": "Path",
  "nameIsFixed": false,
  "pointRadiusBehaviour": 0,
  "points": [
    {
      "_class": "curvePoint",
      "cornerRadius": 0,
      "curveFrom": "{0.61309993618142555, 0.62105759217270018}",
      "curveMode": 4,
      "curveTo": "{0.79069963033570378, 0.39148766807272012}",
      "hasCurveFrom": true,
      "hasCurveTo": true,
      "point": "{0.85782392418928677, 0.61497626967997798}"
    },
    {
      "_class": "curvePoint",
      "cornerRadius": 0,
      "curveFrom": "{0.46859624802443767, 0.92816437805479768}",
      "curveMode": 4,
      "curveTo": "{0.62615188220852003, 0.75332635638925338}",
      "hasCurveFrom": true,
      "hasCurveTo": true,
      "point": "{0.65132349240362686, 0.89205652575429284}"
    },
    {
      "_class": "curvePoint",
      "cornerRadius": 0,
      "curveFrom": "{-0.27629695737849563, 0.43101626427536099}",
      "curveMode": 4,
      "curveTo": "{0.28680128550430389, 0.96389214769949516}",
      "hasCurveFrom": true,
      "hasCurveTo": true,
      "point": "{0.10454018205466889, 1}"
    },
    {
      "_class": "curvePoint",
      "cornerRadius": 0,
      "curveFrom": "{0.62055819105405474, -0.0007576327074028938}",
      "curveMode": 4,
      "curveTo": "{0.51567648190785131, 0.44431915722816262}",
      "hasCurveFrom": true,
      "hasCurveTo": true,
      "point": "{0.38608930349606863, 2.5326041900927373e-06}"
    },
    {
      "_class": "curvePoint",
      "cornerRadius": 0,
      "curveFrom": "{1.0009291895576915, 0.30672923583050182}",
      "curveMode": 4,
      "curveTo": "{0.72543990020028482, 0.16989947974441241}",
      "hasCurveFrom": true,
      "hasCurveTo": true,
      "point": "{0.99999690769860961, 0.11554765996578392}"
    }
  ],
  "resizingConstraint": 63,
  "resizingType": 0,
  "rotation": 0,
  "shouldBreakMaskChain": false,
  "style": {
    "_class": "style",
    "do_objectID": "CE2F5831-2259-4FCC-A587-CD14872B99FB",
    "endMarkerType": 0,
    "fills": [
      {
        "_class": "fill",
        "color": {
          "_class": "color",
          "alpha": 1,
          "blue": 0.1764705882352941,
          "green": 0.1764705882352941,
          "red": 0.1764705882352941
        },
        "fillType": 0,
        "isEnabled": true,
        "noiseIndex": 0,
        "noiseIntensity": 0,
        "patternFillType": 1,
        "patternTileScale": 1
      }
    ],
    "miterLimit": 10,
    "startMarkerType": 0,
    "windingRule": 1
  }
}