{
  "_class": "shapePath",
  "booleanOperation": -1,
  "clippingMaskMode": 0,
  "do_objectID": "52C15C6F-5608-4DE5-B95A-F224862D6C56",
  "edited": true,
  "exportOptions": {
    "_class": "exportOptions",
    "do_objectID": "A5C984FB-D3EA-40DB-AE2F-D8BF7F74E881",
    "exportFormats": [
    ],
    "includedLayerIds": [
    ],
    "layerOptions": 0,
    "shouldTrim": false
  },
  "frame": {
    "_class": "rect",
    "constrainProportions": false,
    "do_objectID": "55945C82-8AB5-4790-8454-03C1F5547EF3",
    "height": 0.2374556836056456,
    "width": 0.2236007800004849,
    "x": 21.66069093060307,
    "y": 31.65935907840623
  },
  "hasClippingMask": false,
  "isClosed": true,
  "isFixedToViewport": false,
  "isFlippedHorizontal": false,
  "isFlippedVertical": false,
  "isLocked": false,
  "isVisible": true,
  "layerListExpandedType": 0,
  "name": "Path",
  "nameIsFixed": false,
  "pointRadiusBehaviour": 0,
  "points": [
    {
      "_class": "curvePoint",
      "cornerRadius": 0,
      "curveFrom": "{0.64361566302443063, 0.63455958229177478}",
      "curveMode": 4,
      "curveTo": "{0.93766044558491557, 0.46242931884986632}",
      "hasCurveFrom": true,
      "hasCurveTo": true,
      "point": "{0.81096707630885889, 0.50375424320795492}"
    },
    {
      "_class": "curvePoint",
      "cornerRadius": 0,
      "curveFrom": "{0.30564567220491723, 1.0010194487067692}",
      "curveMode": 4,
      "curveTo": "{0.47517519498978339, 0.7657064496760666}",
      "hasCurveFrom": true,
      "hasCurveTo": true,
      "point": "{0.48751781549231926, 0.99999486380533409}"
    },
    {
      "_class": "curvePoint",
      "cornerRadius": 0,
      "curveFrom": "{-0.089318183876333779, 0.49965590360217577}",
      "curveMode": 4,
      "curveTo": "{0.22396656593810785, 0.84835629839222426}",
      "hasCurveFrom": true,
      "hasCurveTo": true,
      "point": "{0.01123787139434553, 0.89821943026230411}"
    },
    {
      "_class": "curvePoint",
      "cornerRadius": 0,
      "curveFrom": "{0.5281758595006909, 0.0068305660095930709}",
      "curveMode": 4,
      "curveTo": "{0.52599775000023252, 0.51058480921754801}",
      "hasCurveFrom": true,
      "hasCurveTo": true,
      "point": "{0.23050089443946251, 0}"
    },
    {
      "_class": "curvePoint",
      "cornerRadius": 0,
      "curveFrom": "{1.054915340359027, 0.4163229982850743}",
      "curveMode": 4,
      "curveTo": "{0.65559526527690037, 0.27561333848733666}",
      "hasCurveFrom": true,
      "hasCurveTo": true,
      "point": "{0.97251019759208546, 0.25512164045851859}"
    }
  ],
  "resizingConstraint": 63,
  "resizingType": 0,
  "rotation": 0,
  "shouldBreakMaskChain": false,
  "style": {
    "_class": "style",
    "do_objectID": "90841CC8-CC3A-46CB-9758-C68D07E0B25E",
    "endMarkerType": 0,
    "fills": [
      {
        "_class": "fill",
        "color": {
          "_class": "color",
          "alpha": 1,
          "blue": 0.1764705882352941,
          "green": 0.1764705882352941,
          "red": 0.1764705882352941
        },
        "fillType": 0,
        "isEnabled": true,
        "noiseIndex": 0,
        "noiseIntensity": 0,
        "patternFillType": 1,
        "patternTileScale": 1
      }
    ],
    "miterLimit": 10,
    "startMarkerType": 0,
    "windingRule": 1
  }
}