{
  "_class": "shapePath",
  "booleanOperation": -1,
  "clippingMaskMode": 0,
  "do_objectID": "57290DFD-2068-4157-8B6C-ADECF3C98034",
  "edited": true,
  "exportOptions": {
    "_class": "exportOptions",
    "do_objectID": "31A716D9-89E9-4BC8-AA26-DAE94D40C34E",
    "exportFormats": [
    ],
    "includedLayerIds": [
    ],
    "layerOptions": 0,
    "shouldTrim": false
  },
  "frame": {
    "_class": "rect",
    "constrainProportions": false,
    "do_objectID": "B4305539-3BCB-4AFB-8B09-8D8D0968C1E7",
    "height": 0.1584651716634973,
    "width": 0.1947400597492184,
    "x": 8.049896225802891,
    "y": 27.45670701804549
  },
  "hasClippingMask": false,
  "isClosed": true,
  "isFixedToViewport": false,
  "isFlippedHorizontal": false,
  "isFlippedVertical": false,
  "isLocked": false,
  "isVisible": true,
  "layerListExpandedType": 0,
  "name": "Path",
  "nameIsFixed": false,
  "pointRadiusBehaviour": 0,
  "points": [
    {
      "_class": "curvePoint",
      "cornerRadius": 0,
      "curveFrom": "{0.40186615786682678, 0.89099283520981498}",
      "curveMode": 4,
      "curveTo": "{0.87787232352263778, 0.67451381780961028}",
      "hasCurveFrom": true,
      "hasCurveTo": true,
      "point": "{0.58484926357865041, 0.83674513817808827}"
    },
    {
      "_class": "curvePoint",
      "cornerRadius": 0,
      "curveFrom": "{-0.07122228172979006, 0.72927328556803939}",
      "curveMode": 4,
      "curveTo": "{0.21804941613810064, 0.94575230296824409}",
      "hasCurveFrom": true,
      "hasCurveTo": true,
      "point": "{0.0358999464431854, 1}"
    },
    {
      "_class": "curvePoint",
      "cornerRadius": 0,
      "curveFrom": "{0.4898147576508734, 0.57369498464686619}",
      "curveMode": 4,
      "curveTo": "{0.080082655339437314, 0.65097236438075046}",
      "hasCurveFrom": true,
      "hasCurveTo": true,
      "point": "{0.24389213266232032, 0.58137154554757564}"
    },
    {
      "_class": "curvePoint",
      "cornerRadius": 0,
      "curveFrom": "{0.63528424260172422, 0.10849539406345356}",
      "curveMode": 4,
      "curveTo": "{0.4773102173972178, 0.37359263050154312}",
      "hasCurveFrom": true,
      "hasCurveTo": true,
      "point": "{0.45188431888144931, 0.16325486182188267}"
    },
    {
      "_class": "curvePoint",
      "cornerRadius": 0,
      "curveFrom": "{0.93789411674017897, 0.33623336745137139}",
      "curveMode": 4,
      "curveTo": "{0.81701689428818225, 0.054759467758429103}",
      "hasCurveFrom": true,
      "hasCurveTo": true,
      "point": "{1, 0}"
    }
  ],
  "resizingConstraint": 63,
  "resizingType": 0,
  "rotation": 0,
  "shouldBreakMaskChain": false,
  "style": {
    "_class": "style",
    "do_objectID": "029A9037-0F90-441D-B915-FA1103CF12D6",
    "endMarkerType": 0,
    "fills": [
      {
        "_class": "fill",
        "color": {
          "_class": "color",
          "alpha": 1,
          "blue": 0.1764705882352941,
          "green": 0.1764705882352941,
          "red": 0.1764705882352941
        },
        "fillType": 0,
        "isEnabled": true,
        "noiseIndex": 0,
        "noiseIntensity": 0,
        "patternFillType": 1,
        "patternTileScale": 1
      }
    ],
    "miterLimit": 10,
    "startMarkerType": 0,
    "windingRule": 1
  }
}