{
  "_class": "shapePath",
  "booleanOperation": -1,
  "clippingMaskMode": 0,
  "do_objectID": "59CB3030-3AFA-4C41-94BF-2B79648BA53C",
  "edited": true,
  "exportOptions": {
    "_class": "exportOptions",
    "do_objectID": "E98F9FE9-9ADA-41A9-8065-CB9EAC62D6E2",
    "exportFormats": [
    ],
    "includedLayerIds": [
    ],
    "layerOptions": 0,
    "shouldTrim": false
  },
  "frame": {
    "_class": "rect",
    "constrainProportions": false,
    "do_objectID": "47589572-6F75-4F96-BFA1-77A0BD94B7A2",
    "height": 0.2339672570364018,
    "width": 0.2094218520028761,
    "x": 25.61810634470429,
    "y": 5.986622605709429
  },
  "hasClippingMask": false,
  "isClosed": true,
  "isFixedToViewport": false,
  "isFlippedHorizontal": false,
  "isFlippedVertical": false,
  "isLocked": false,
  "isVisible": true,
  "layerListExpandedType": 0,
  "name": "Path",
  "nameIsFixed": false,
  "pointRadiusBehaviour": 0,
  "points": [
    {
      "_class": "curvePoint",
      "cornerRadius": 0,
      "curveFrom": "{0.69418522041879327, 0.85857885615250717}",
      "curveMode": 4,
      "curveTo": "{0.62247987939284211, 0.64852686308491747}",
      "hasCurveFrom": true,
      "hasCurveTo": true,
      "point": "{0.86434005669119174, 0.78752166377816235}"
    },
    {
      "_class": "curvePoint",
      "cornerRadius": 0,
      "curveFrom": "{0.23875940579450997, 0.77331022530329341}",
      "curveMode": 4,
      "curveTo": "{0.52519317346034577, 0.929636048526852}",
      "hasCurveFrom": true,
      "hasCurveTo": true,
      "point": "{0.3565887229398671, 1}"
    },
    {
      "_class": "curvePoint",
      "cornerRadius": 0,
      "curveFrom": "{0.25387566687567331, 0.21247833622183759}",
      "curveMode": 4,
      "curveTo": "{0.11860451002131708, 0.54558058925475228}",
      "hasCurveFrom": true,
      "hasCurveTo": true,
      "point": "{0, 0.31819757365684898}"
    },
    {
      "_class": "curvePoint",
      "cornerRadius": 0,
      "curveFrom": "{0.78565797978162333, 0.15320623916809423}",
      "curveMode": 4,
      "curveTo": "{0.50813893018931555, 0.10606585788560975}",
      "hasCurveFrom": true,
      "hasCurveTo": true,
      "point": "{0.76201459706496688, 0}"
    },
    {
      "_class": "curvePoint",
      "cornerRadius": 0,
      "curveFrom": "{1.0007740028594769, 0.49636048526861837}",
      "curveMode": 4,
      "curveTo": "{0.99457245985184151, 0.30051993067589761}",
      "hasCurveFrom": true,
      "hasCurveTo": true,
      "point": "{0.99999880998351698, 0.45476603119582637}"
    }
  ],
  "resizingConstraint": 63,
  "resizingType": 0,
  "rotation": 0,
  "shouldBreakMaskChain": false,
  "style": {
    "_class": "style",
    "do_objectID": "955D44E0-BC5A-4C98-A210-0463E6D3F7B4",
    "endMarkerType": 0,
    "fills": [
      {
        "_class": "fill",
        "color": {
          "_class": "color",
          "alpha": 1,
          "blue": 0.1764705882352941,
          "green": 0.1764705882352941,
          "red": 0.1764705882352941
        },
        "fillType": 0,
        "isEnabled": true,
        "noiseIndex": 0,
        "noiseIntensity": 0,
        "patternFillType": 1,
        "patternTileScale": 1
      }
    ],
    "miterLimit": 10,
    "startMarkerType": 0,
    "windingRule": 1
  }
}