{
  "_class": "shapePath",
  "booleanOperation": -1,
  "clippingMaskMode": 0,
  "do_objectID": "5CCF4CD6-2C20-4D00-B87A-F3D8805AF723",
  "edited": true,
  "exportOptions": {
    "_class": "exportOptions",
    "do_objectID": "6CCBBD6C-D9CD-4390-ACE1-36384A1A65A6",
    "exportFormats": [
    ],
    "includedLayerIds": [
    ],
    "layerOptions": 0,
    "shouldTrim": false
  },
  "frame": {
    "_class": "rect",
    "constrainProportions": false,
    "do_objectID": "5AC2DB15-9BAF-49E2-9B24-2626CC5371F4",
    "height": 0.1058906030855695,
    "width": 0.1059863482545591,
    "x": 5.590301176103983,
    "y": 16.98863393538229
  },
  "hasClippingMask": false,
  "isClosed": true,
  "isFixedToViewport": false,
  "isFlippedHorizontal": false,
  "isFlippedVertical": false,
  "isLocked": false,
  "isVisible": true,
  "layerListExpandedType": 0,
  "name": "Path",
  "nameIsFixed": false,
  "pointRadiusBehaviour": 0,
  "points": [
    {
      "_class": "curvePoint",
      "cornerRadius": 0,
      "curveFrom": "{-0.26853122684038055, 0.70556107201747409}",
      "curveMode": 3,
      "curveTo": "{0.40946877315961672, 0.94956107201747386}",
      "hasCurveFrom": true,
      "hasCurveTo": true,
      "point": "{0.17246877315962195, 0.86556107201747068}"
    },
    {
      "_class": "curvePoint",
      "cornerRadius": 0,
      "curveFrom": "{0.92646877315961262, 0.16956107201747272}",
      "curveMode": 3,
      "curveTo": "{0.24746877315961058, -0.0794389279825225}",
      "hasCurveFrom": true,
      "hasCurveTo": true,
      "point": "{0.48546877315961012, 0.0065610720174902326}"
    }
  ],
  "resizingConstraint": 63,
  "resizingType": 0,
  "rotation": 0,
  "shouldBreakMaskChain": false,
  "style": {
    "_class": "style",
    "do_objectID": "BC491A1E-BB75-41FE-AE2E-A0273F939BB5",
    "endMarkerType": 0,
    "fills": [
      {
        "_class": "fill",
        "color": {
          "_class": "color",
          "alpha": 1,
          "blue": 0.1764705882352941,
          "green": 0.1764705882352941,
          "red": 0.1764705882352941
        },
        "fillType": 0,
        "isEnabled": true,
        "noiseIndex": 0,
        "noiseIntensity": 0,
        "patternFillType": 1,
        "patternTileScale": 1
      }
    ],
    "miterLimit": 10,
    "startMarkerType": 0,
    "windingRule": 1
  }
}