{
  "_class": "shapePath",
  "booleanOperation": -1,
  "clippingMaskMode": 0,
  "do_objectID": "642B5CBC-1993-4F31-8AA1-DAE33414E4B5",
  "edited": true,
  "exportOptions": {
    "_class": "exportOptions",
    "do_objectID": "C2A04AC2-0DB2-4E6E-9EBF-1CBDED635CED",
    "exportFormats": [
    ],
    "includedLayerIds": [
    ],
    "layerOptions": 0,
    "shouldTrim": false
  },
  "frame": {
    "_class": "rect",
    "constrainProportions": false,
    "do_objectID": "6518005E-E552-4391-B488-E1AB6F618264",
    "height": 0.1058906030855615,
    "width": 0.1059863482544898,
    "x": 34.93908673816319,
    "y": 7.150479338042724
  },
  "hasClippingMask": false,
  "isClosed": true,
  "isFixedToViewport": false,
  "isFlippedHorizontal": false,
  "isFlippedVertical": false,
  "isLocked": false,
  "isVisible": true,
  "layerListExpandedType": 0,
  "name": "Path",
  "nameIsFixed": false,
  "pointRadiusBehaviour": 0,
  "points": [
    {
      "_class": "curvePoint",
      "cornerRadius": 0,
      "curveFrom": "{0.92682167342167077, 0.16773258201641283}",
      "curveMode": 3,
      "curveTo": "{0.24882167342167349, -0.080267417983634459}",
      "hasCurveFrom": true,
      "hasCurveTo": true,
      "point": "{0.48482167342166349, 0.0067325820164114702}"
    },
    {
      "_class": "curvePoint",
      "cornerRadius": 0,
      "curveFrom": "{-0.27017832657833196, 0.70173258201640465}",
      "curveMode": 3,
      "curveTo": "{0.41082167342165121, 0.94773258201638555}",
      "hasCurveFrom": true,
      "hasCurveTo": true,
      "point": "{0.17382167342162802, 0.86273258201640601}"
    }
  ],
  "resizingConstraint": 63,
  "resizingType": 0,
  "rotation": 0,
  "shouldBreakMaskChain": false,
  "style": {
    "_class": "style",
    "do_objectID": "48B6C8D9-B247-42F3-B9BF-EF875DCB2110",
    "endMarkerType": 0,
    "fills": [
      {
        "_class": "fill",
        "color": {
          "_class": "color",
          "alpha": 1,
          "blue": 0.1764705882352941,
          "green": 0.1764705882352941,
          "red": 0.1764705882352941
        },
        "fillType": 0,
        "isEnabled": true,
        "noiseIndex": 0,
        "noiseIntensity": 0,
        "patternFillType": 1,
        "patternTileScale": 1
      }
    ],
    "miterLimit": 10,
    "startMarkerType": 0,
    "windingRule": 1
  }
}