{
  "_class": "shapePath",
  "booleanOperation": -1,
  "clippingMaskMode": 0,
  "do_objectID": "671D87AD-D7E3-45E1-8166-52D5E8667EF9",
  "edited": true,
  "exportOptions": {
    "_class": "exportOptions",
    "do_objectID": "AF0D5E03-FCCA-4C0B-BB55-42C58059658C",
    "exportFormats": [
    ],
    "includedLayerIds": [
    ],
    "layerOptions": 0,
    "shouldTrim": false
  },
  "frame": {
    "_class": "rect",
    "constrainProportions": false,
    "do_objectID": "1E50B538-D1B4-4BB9-8E7C-6DDF1357BE42",
    "height": 0.1058906030855553,
    "width": 0.1059863482545822,
    "x": 39.30597676602544,
    "y": 16.99370290573798
  },
  "hasClippingMask": false,
  "isClosed": true,
  "isFixedToViewport": false,
  "isFlippedHorizontal": false,
  "isFlippedVertical": false,
  "isLocked": false,
  "isVisible": true,
  "layerListExpandedType": 0,
  "name": "Path",
  "nameIsFixed": false,
  "pointRadiusBehaviour": 0,
  "points": [
    {
      "_class": "curvePoint",
      "cornerRadius": 0,
      "curveFrom": "{-0.28871735943721433, 0.58005668716751302}",
      "curveMode": 3,
      "curveTo": "{0.36128264056281978, 0.97505668716752325}",
      "hasCurveFrom": true,
      "hasCurveTo": true,
      "point": "{0.13328264056281114, 0.8380566871675228}"
    },
    {
      "_class": "curvePoint",
      "cornerRadius": 0,
      "curveFrom": "{1.056282640562813, 0.2750566871675062}",
      "curveMode": 3,
      "curveTo": "{0.40628264056277885, -0.12094331283248039}",
      "hasCurveFrom": true,
      "hasCurveTo": true,
      "point": "{0.63128264056280159, 0.018056687167501195}"
    }
  ],
  "resizingConstraint": 63,
  "resizingType": 0,
  "rotation": 0,
  "shouldBreakMaskChain": false,
  "style": {
    "_class": "style",
    "do_objectID": "A5CE25C3-1398-42E2-8EEF-DE555F3CC4CE",
    "endMarkerType": 0,
    "fills": [
      {
        "_class": "fill",
        "color": {
          "_class": "color",
          "alpha": 1,
          "blue": 0.1764705882352941,
          "green": 0.1764705882352941,
          "red": 0.1764705882352941
        },
        "fillType": 0,
        "isEnabled": true,
        "noiseIndex": 0,
        "noiseIntensity": 0,
        "patternFillType": 1,
        "patternTileScale": 1
      }
    ],
    "miterLimit": 10,
    "startMarkerType": 0,
    "windingRule": 1
  }
}