{
  "_class": "shapePath",
  "booleanOperation": -1,
  "clippingMaskMode": 0,
  "do_objectID": "69424A26-04C8-466D-BEC6-CFCC8C18F523",
  "edited": true,
  "exportOptions": {
    "_class": "exportOptions",
    "do_objectID": "2E7DF7DC-FCFA-4B28-A11F-543D5A26E068",
    "exportFormats": [
    ],
    "includedLayerIds": [
    ],
    "layerOptions": 0,
    "shouldTrim": false
  },
  "frame": {
    "_class": "rect",
    "constrainProportions": false,
    "do_objectID": "9C7631AE-DC0B-4DD2-A93F-62869DDECA24",
    "height": 0.1603033048161464,
    "width": 0.1469937788597946,
    "x": 41.1226103557242,
    "y": 12.59289396793306
  },
  "hasClippingMask": false,
  "isClosed": true,
  "isFixedToViewport": false,
  "isFlippedHorizontal": false,
  "isFlippedVertical": false,
  "isLocked": false,
  "isVisible": true,
  "layerListExpandedType": 0,
  "name": "Path",
  "nameIsFixed": false,
  "pointRadiusBehaviour": 0,
  "points": [
    {
      "_class": "curvePoint",
      "cornerRadius": 0,
      "curveFrom": "{0.57098323543875562, 0.29518729904737939}",
      "curveMode": 3,
      "curveTo": "{0.37660596380002165, 0.26837446873068754}",
      "hasCurveFrom": true,
      "hasCurveTo": true,
      "point": "{0.5301198317419733, 0.28962237200050633}"
    },
    {
      "_class": "curvePoint",
      "cornerRadius": 0,
      "curveFrom": "{1.2098880743194125, 0.46820593995886373}",
      "curveMode": 3,
      "curveTo": "{0.87028005710971856, 0.11154470650097133}",
      "hasCurveFrom": true,
      "hasCurveTo": true,
      "point": "{0.89126396711617695, 0.13380441468840601}"
    },
    {
      "_class": "curvePoint",
      "cornerRadius": 0,
      "curveFrom": "{0.6963344873193914, 0.6407186784115545}",
      "curveMode": 4,
      "curveTo": "{0.73001918496131624, 0.43026325554845452}",
      "hasCurveFrom": true,
      "hasCurveTo": true,
      "point": "{0.6979911117935772, 0.61947077514173565}"
    },
    {
      "_class": "curvePoint",
      "cornerRadius": 0,
      "curveFrom": "{0.49643513410001711, 1.0353225962798849}",
      "curveMode": 4,
      "curveTo": "{0.86917564079358423, 0.95083688565934565}",
      "hasCurveFrom": true,
      "hasCurveTo": true,
      "point": "{0.86751901631939843, 0.95134278811816797}"
    },
    {
      "_class": "curvePoint",
      "cornerRadius": 0,
      "curveFrom": "{0.17449777794841001, 0.59063433498981199}",
      "curveMode": 3,
      "curveTo": "{0.56325232122584667, 1.0307694741506277}",
      "hasCurveFrom": true,
      "hasCurveTo": true,
      "point": "{0.33850360089355946, 0.77427692753622013}"
    },
    {
      "_class": "curvePoint",
      "cornerRadius": 0,
      "curveFrom": "{0.29708798903872563, -0.2122328671345626}",
      "curveMode": 4,
      "curveTo": "{0.14909620267744569, 0.30479944576468726}",
      "hasCurveFrom": true,
      "hasCurveTo": true,
      "point": "{0, 0.11205060895976489}"
    }
  ],
  "resizingConstraint": 63,
  "resizingType": 0,
  "rotation": 0,
  "shouldBreakMaskChain": false,
  "style": {
    "_class": "style",
    "do_objectID": "7A1BA590-5237-4715-BB76-C24E8D22E1DD",
    "endMarkerType": 0,
    "fills": [
      {
        "_class": "fill",
        "color": {
          "_class": "color",
          "alpha": 1,
          "blue": 0.1764705882352941,
          "green": 0.1764705882352941,
          "red": 0.1764705882352941
        },
        "fillType": 0,
        "isEnabled": true,
        "noiseIndex": 0,
        "noiseIntensity": 0,
        "patternFillType": 1,
        "patternTileScale": 1
      }
    ],
    "miterLimit": 10,
    "startMarkerType": 0,
    "windingRule": 1
  }
}