{
  "_class": "shapePath",
  "booleanOperation": -1,
  "clippingMaskMode": 0,
  "do_objectID": "6C4BA418-CB71-4986-B5C0-F63CBF6D6CE6",
  "edited": true,
  "exportOptions": {
    "_class": "exportOptions",
    "do_objectID": "A9807CE7-8C2E-4401-BE81-E8C047E2959B",
    "exportFormats": [
    ],
    "includedLayerIds": [
    ],
    "layerOptions": 0,
    "shouldTrim": false
  },
  "frame": {
    "_class": "rect",
    "constrainProportions": false,
    "do_objectID": "A68FDC47-DD58-4980-8D0A-C08A00AE8FED",
    "height": 0.105890603085566,
    "width": 0.1059863482545396,
    "x": 19.86773468391687,
    "y": 18.24111729325881
  },
  "hasClippingMask": false,
  "isClosed": true,
  "isFixedToViewport": false,
  "isFlippedHorizontal": false,
  "isFlippedVertical": false,
  "isLocked": false,
  "isVisible": true,
  "layerListExpandedType": 0,
  "name": "Path",
  "nameIsFixed": false,
  "pointRadiusBehaviour": 0,
  "points": [
    {
      "_class": "curvePoint",
      "cornerRadius": 0,
      "curveFrom": "{-0.30245707529064703, 0.78845776780386245}",
      "curveMode": 3,
      "curveTo": "{0.45954292470935343, 1.0654577678038493}",
      "hasCurveFrom": true,
      "hasCurveTo": true,
      "point": "{0.19454292470933865, 0.9704577678038504}"
    },
    {
      "_class": "curvePoint",
      "cornerRadius": 0,
      "curveFrom": "{1.0405429247093423, 0.18745776780386336}",
      "curveMode": 3,
      "curveTo": "{0.27854292470934183, -0.089542232196151872}",
      "hasCurveFrom": true,
      "hasCurveTo": true,
      "point": "{0.54354292470935661, 0.0074577678038565409}"
    }
  ],
  "resizingConstraint": 63,
  "resizingType": 0,
  "rotation": 0,
  "shouldBreakMaskChain": false,
  "style": {
    "_class": "style",
    "do_objectID": "BB96A871-7C6C-4136-95E2-1E718241891D",
    "endMarkerType": 0,
    "fills": [
      {
        "_class": "fill",
        "color": {
          "_class": "color",
          "alpha": 1,
          "blue": 0.1764705882352941,
          "green": 0.1764705882352941,
          "red": 0.1764705882352941
        },
        "fillType": 0,
        "isEnabled": true,
        "noiseIndex": 0,
        "noiseIntensity": 0,
        "patternFillType": 1,
        "patternTileScale": 1
      }
    ],
    "miterLimit": 10,
    "startMarkerType": 0,
    "windingRule": 1
  }
}