{
  "_class": "shapePath",
  "booleanOperation": -1,
  "clippingMaskMode": 0,
  "do_objectID": "802FAE84-A7E1-408F-80B0-BA3F999344BA",
  "edited": true,
  "exportOptions": {
    "_class": "exportOptions",
    "do_objectID": "A139C4D0-4B44-4E56-8A82-BB182AAB5A99",
    "exportFormats": [
    ],
    "includedLayerIds": [
    ],
    "layerOptions": 0,
    "shouldTrim": false
  },
  "frame": {
    "_class": "rect",
    "constrainProportions": false,
    "do_objectID": "CB5D33A5-C5CB-4AF7-8595-E3D925EB1D17",
    "height": 0.1297565376978369,
    "width": 0.1659138589525364,
    "x": 4.78000749804169,
    "y": 19.55785888352591
  },
  "hasClippingMask": false,
  "isClosed": true,
  "isFixedToViewport": false,
  "isFlippedHorizontal": false,
  "isFlippedVertical": false,
  "isLocked": false,
  "isVisible": true,
  "layerListExpandedType": 0,
  "name": "Path",
  "nameIsFixed": false,
  "pointRadiusBehaviour": 0,
  "points": [
    {
      "_class": "curvePoint",
      "cornerRadius": 0,
      "curveFrom": "{0.28718199608610673, 0.17749999999999552}",
      "curveMode": 4,
      "curveTo": "{0.046477495107634922, 0.51187499999999453}",
      "hasCurveFrom": true,
      "hasCurveTo": true,
      "point": "{0, 0.26624999999999327}"
    },
    {
      "_class": "curvePoint",
      "cornerRadius": 0,
      "curveFrom": "{0.90753424657534265, 0.24562500000000129}",
      "curveMode": 4,
      "curveTo": "{0.57387475538160448, 0.089375000000000746}",
      "hasCurveFrom": true,
      "hasCurveTo": true,
      "point": "{0.86105675146771121, 0}"
    },
    {
      "_class": "curvePoint",
      "cornerRadius": 0,
      "curveFrom": "{0.71281800391389327, 0.82187500000000147}",
      "curveMode": 4,
      "curveTo": "{0.95352250489236856, 0.48937499999999362}",
      "hasCurveFrom": true,
      "hasCurveTo": true,
      "point": "{1, 0.73312500000000369}"
    },
    {
      "_class": "curvePoint",
      "cornerRadius": 0,
      "curveFrom": "{0.092954990215266362, 0.75562499999998689}",
      "curveMode": 4,
      "curveTo": "{0.42612524461839557, 0.91062499999999924}",
      "hasCurveFrom": true,
      "hasCurveTo": true,
      "point": "{0.13894324853229231, 1}"
    }
  ],
  "resizingConstraint": 63,
  "resizingType": 0,
  "rotation": 0,
  "shouldBreakMaskChain": false,
  "style": {
    "_class": "style",
    "do_objectID": "09CD163E-D5F3-4E56-8A33-185BD82355F9",
    "endMarkerType": 0,
    "fills": [
      {
        "_class": "fill",
        "color": {
          "_class": "color",
          "alpha": 1,
          "blue": 0.1764705882352941,
          "green": 0.1764705882352941,
          "red": 0.1764705882352941
        },
        "fillType": 0,
        "isEnabled": true,
        "noiseIndex": 0,
        "noiseIntensity": 0,
        "patternFillType": 1,
        "patternTileScale": 1
      }
    ],
    "miterLimit": 10,
    "startMarkerType": 0,
    "windingRule": 1
  }
}