{
  "_class": "shapePath",
  "booleanOperation": -1,
  "clippingMaskMode": 0,
  "do_objectID": "81D90081-202E-494D-B491-55208FBAE83A",
  "edited": true,
  "exportOptions": {
    "_class": "exportOptions",
    "do_objectID": "0F9C06E1-F245-4D02-BF77-8841C25AE797",
    "exportFormats": [
    ],
    "includedLayerIds": [
    ],
    "layerOptions": 0,
    "shouldTrim": false
  },
  "frame": {
    "_class": "rect",
    "constrainProportions": false,
    "do_objectID": "62849D04-DDC4-401A-A1C3-FAC193C50EBD",
    "height": 0.1058906030855553,
    "width": 0.1059863482545396,
    "x": 28.94192591420794,
    "y": 19.87975550363632
  },
  "hasClippingMask": false,
  "isClosed": true,
  "isFixedToViewport": false,
  "isFlippedHorizontal": false,
  "isFlippedVertical": false,
  "isLocked": false,
  "isVisible": true,
  "layerListExpandedType": 0,
  "name": "Path",
  "nameIsFixed": false,
  "pointRadiusBehaviour": 0,
  "points": [
    {
      "_class": "curvePoint",
      "cornerRadius": 0,
      "curveFrom": "{-0.25828028807910641, 0.51276190753500828}",
      "curveMode": 4,
      "curveTo": "{0.32171971192093451, 0.86476190753498372}",
      "hasCurveFrom": true,
      "hasCurveTo": true,
      "point": "{0.11971971192093633, 0.74476190753500759}"
    },
    {
      "_class": "curvePoint",
      "cornerRadius": 0,
      "curveFrom": "{0.94071971192090587, 0.24676190753498872}",
      "curveMode": 3,
      "curveTo": "{0.36171971192089813, -0.1062380924649915}",
      "hasCurveFrom": true,
      "hasCurveTo": true,
      "point": "{0.56271971192091996, 0.01576190753499418}"
    }
  ],
  "resizingConstraint": 63,
  "resizingType": 0,
  "rotation": 0,
  "shouldBreakMaskChain": false,
  "style": {
    "_class": "style",
    "do_objectID": "E4C9460F-E128-4AC8-ACF6-B0A215671E3A",
    "endMarkerType": 0,
    "fills": [
      {
        "_class": "fill",
        "color": {
          "_class": "color",
          "alpha": 1,
          "blue": 0.1764705882352941,
          "green": 0.1764705882352941,
          "red": 0.1764705882352941
        },
        "fillType": 0,
        "isEnabled": true,
        "noiseIndex": 0,
        "noiseIntensity": 0,
        "patternFillType": 1,
        "patternTileScale": 1
      }
    ],
    "miterLimit": 10,
    "startMarkerType": 0,
    "windingRule": 1
  }
}