{
  "_class": "shapePath",
  "booleanOperation": -1,
  "clippingMaskMode": 0,
  "do_objectID": "81F64818-98D1-4EFC-BF12-766E5DD3B8AF",
  "edited": true,
  "exportOptions": {
    "_class": "exportOptions",
    "do_objectID": "671903EC-D560-4EBD-9ACE-EE458DBA0A96",
    "exportFormats": [
    ],
    "includedLayerIds": [
    ],
    "layerOptions": 0,
    "shouldTrim": false
  },
  "frame": {
    "_class": "rect",
    "constrainProportions": false,
    "do_objectID": "66B4239F-1D1A-4662-9F12-51751E3EC57E",
    "height": 0.1423448615594225,
    "width": 0.1968782963120006,
    "x": 31.87342365306675,
    "y": 33.5162562306983
  },
  "hasClippingMask": false,
  "isClosed": true,
  "isFixedToViewport": false,
  "isFlippedHorizontal": false,
  "isFlippedVertical": false,
  "isLocked": false,
  "isVisible": true,
  "layerListExpandedType": 0,
  "name": "Path",
  "nameIsFixed": false,
  "pointRadiusBehaviour": 0,
  "points": [
    {
      "_class": "curvePoint",
      "cornerRadius": 0,
      "curveFrom": "{0.18664642552559124, 0.23358843038521726}",
      "curveMode": 4,
      "curveTo": "{-0.10278190712932136, 1.5399744569053604}",
      "hasCurveFrom": true,
      "hasCurveTo": true,
      "point": "{0.0060629359203937605, 0.35038264557780968}"
    },
    {
      "_class": "curvePoint",
      "cornerRadius": 0,
      "curveFrom": "{0.60347269947731197, 0.34981291769880246}",
      "curveMode": 4,
      "curveTo": "{0.36599304191432053, 0.11622448731361761}",
      "hasCurveFrom": true,
      "hasCurveTo": true,
      "point": "{0.54698882259166626, 0}"
    },
    {
      "_class": "curvePoint",
      "cornerRadius": 0,
      "curveFrom": "{1.2944725364141321, 0.85459181848245003}",
      "curveMode": 4,
      "curveTo": "{0.77127516584563249, 0.28543366737312481}",
      "hasCurveFrom": true,
      "hasCurveTo": true,
      "point": "{0.94320054293550593, 0.20168366916184965}"
    }
  ],
  "resizingConstraint": 63,
  "resizingType": 0,
  "rotation": 0,
  "shouldBreakMaskChain": false,
  "style": {
    "_class": "style",
    "do_objectID": "78794D0E-3E4B-4894-A591-EC80E971F800",
    "endMarkerType": 0,
    "fills": [
      {
        "_class": "fill",
        "color": {
          "_class": "color",
          "alpha": 1,
          "blue": 0.1764705882352941,
          "green": 0.1764705882352941,
          "red": 0.1764705882352941
        },
        "fillType": 0,
        "isEnabled": true,
        "noiseIndex": 0,
        "noiseIntensity": 0,
        "patternFillType": 1,
        "patternTileScale": 1
      }
    ],
    "miterLimit": 10,
    "startMarkerType": 0,
    "windingRule": 1
  }
}