{
  "_class": "shapePath",
  "booleanOperation": -1,
  "clippingMaskMode": 0,
  "do_objectID": "82945ABD-4A80-4B5B-9193-3AFFB5EEC1E9",
  "edited": true,
  "exportOptions": {
    "_class": "exportOptions",
    "do_objectID": "0BDD426D-98CF-4AE8-9F0E-566BD0889E39",
    "exportFormats": [
    ],
    "includedLayerIds": [
    ],
    "layerOptions": 0,
    "shouldTrim": false
  },
  "frame": {
    "_class": "rect",
    "constrainProportions": false,
    "do_objectID": "5587AF23-9131-460D-A81A-7684CF581087",
    "height": 0.1308919074027024,
    "width": 0.1059863482545564,
    "x": 6.94036240072122,
    "y": 15.14532562343892
  },
  "hasClippingMask": false,
  "isClosed": true,
  "isFixedToViewport": false,
  "isFlippedHorizontal": false,
  "isFlippedVertical": false,
  "isLocked": false,
  "isVisible": true,
  "layerListExpandedType": 0,
  "name": "Path",
  "nameIsFixed": false,
  "pointRadiusBehaviour": 0,
  "points": [
    {
      "_class": "curvePoint",
      "cornerRadius": 0,
      "curveFrom": "{0.074214827712400303, 0.085501858736078601}",
      "curveMode": 3,
      "curveTo": "{-0.091662880324585042, 0.35935563816602994}",
      "hasCurveFrom": true,
      "hasCurveTo": true,
      "point": "{0.011721365614743986, 0.18897149938042171}"
    },
    {
      "_class": "curvePoint",
      "cornerRadius": 0,
      "curveFrom": "{0.47386437544801502, 0.19206939281288474}",
      "curveMode": 4,
      "curveTo": "{0.4329735916063423, 0.094795539033467727}",
      "hasCurveFrom": true,
      "hasCurveTo": true,
      "point": "{0.51475515928968774, 0}"
    },
    {
      "_class": "curvePoint",
      "cornerRadius": 0,
      "curveFrom": "{0.92443452192986819, 0.91449814126392137}",
      "curveMode": 3,
      "curveTo": "{1.091083754190274, 0.64002478314745637}",
      "hasCurveFrom": true,
      "hasCurveTo": true,
      "point": "{0.98847103247437651, 0.81040892193306457}"
    },
    {
      "_class": "curvePoint",
      "cornerRadius": 0,
      "curveFrom": "{0.524013449970822, 0.806691449814123}",
      "curveMode": 4,
      "curveTo": "{0.56567575803592618, 0.90396530359353999}",
      "hasCurveFrom": true,
      "hasCurveTo": true,
      "point": "{0.48157961768228624, 1}"
    }
  ],
  "resizingConstraint": 63,
  "resizingType": 0,
  "rotation": 0,
  "shouldBreakMaskChain": false,
  "style": {
    "_class": "style",
    "do_objectID": "E5B28A5E-8204-48A0-A8BB-CD30ACF255DB",
    "endMarkerType": 0,
    "fills": [
      {
        "_class": "fill",
        "color": {
          "_class": "color",
          "alpha": 1,
          "blue": 0.1764705882352941,
          "green": 0.1764705882352941,
          "red": 0.1764705882352941
        },
        "fillType": 0,
        "isEnabled": true,
        "noiseIndex": 0,
        "noiseIntensity": 0,
        "patternFillType": 1,
        "patternTileScale": 1
      }
    ],
    "miterLimit": 10,
    "startMarkerType": 0,
    "windingRule": 1
  }
}