{
  "_class": "shapePath",
  "booleanOperation": -1,
  "clippingMaskMode": 0,
  "do_objectID": "82AF4E47-8499-4B19-8A16-B35FAF91BE83",
  "edited": true,
  "exportOptions": {
    "_class": "exportOptions",
    "do_objectID": "31B64AD6-CB49-4C92-873D-D496594B2050",
    "exportFormats": [
    ],
    "includedLayerIds": [
    ],
    "layerOptions": 0,
    "shouldTrim": false
  },
  "frame": {
    "_class": "rect",
    "constrainProportions": false,
    "do_objectID": "EA76AD83-38D9-44CE-A4B4-FC191A815172",
    "height": 0.1058906030855553,
    "width": 0.1059863482545396,
    "x": 35.7793709939828,
    "y": 7.338028619388156
  },
  "hasClippingMask": false,
  "isClosed": true,
  "isFixedToViewport": false,
  "isFlippedHorizontal": false,
  "isFlippedVertical": false,
  "isLocked": false,
  "isVisible": true,
  "layerListExpandedType": 0,
  "name": "Path",
  "nameIsFixed": false,
  "pointRadiusBehaviour": 0,
  "points": [
    {
      "_class": "curvePoint",
      "cornerRadius": 0,
      "curveFrom": "{1.0548171468640817, 0.27610267159545288}",
      "curveMode": 3,
      "curveTo": "{0.40581714686408077, -0.12089732840453848}",
      "hasCurveFrom": true,
      "hasCurveTo": true,
      "point": "{0.63081714686410351, 0.018102671595414677}"
    },
    {
      "_class": "curvePoint",
      "cornerRadius": 0,
      "curveFrom": "{-0.28918285313591241, 0.57810267159541695}",
      "curveMode": 3,
      "curveTo": "{0.3568171468641026, 0.97210267159542241}",
      "hasCurveFrom": true,
      "hasCurveTo": true,
      "point": "{0.13381714686408941, 0.8341026715954456}"
    }
  ],
  "resizingConstraint": 63,
  "resizingType": 0,
  "rotation": 0,
  "shouldBreakMaskChain": false,
  "style": {
    "_class": "style",
    "do_objectID": "86412F85-A7B9-438D-9724-A77C523637BB",
    "endMarkerType": 0,
    "fills": [
      {
        "_class": "fill",
        "color": {
          "_class": "color",
          "alpha": 1,
          "blue": 0.1764705882352941,
          "green": 0.1764705882352941,
          "red": 0.1764705882352941
        },
        "fillType": 0,
        "isEnabled": true,
        "noiseIndex": 0,
        "noiseIntensity": 0,
        "patternFillType": 1,
        "patternTileScale": 1
      }
    ],
    "miterLimit": 10,
    "startMarkerType": 0,
    "windingRule": 1
  }
}