{
  "_class": "shapePath",
  "booleanOperation": -1,
  "clippingMaskMode": 0,
  "do_objectID": "83BF3ABF-D5C9-4F37-9223-37E78DD9E93D",
  "edited": true,
  "exportOptions": {
    "_class": "exportOptions",
    "do_objectID": "804629EF-B9DF-47B5-8390-B28511D3B995",
    "exportFormats": [
    ],
    "includedLayerIds": [
    ],
    "layerOptions": 0,
    "shouldTrim": false
  },
  "frame": {
    "_class": "rect",
    "constrainProportions": false,
    "do_objectID": "C67159CA-F0FA-4917-9C51-B5F377FE7E0C",
    "height": 0.1058906030855549,
    "width": 0.120330360987964,
    "x": 17.23221089375239,
    "y": 2.352547473973388
  },
  "hasClippingMask": false,
  "isClosed": true,
  "isFixedToViewport": false,
  "isFlippedHorizontal": false,
  "isFlippedVertical": false,
  "isLocked": false,
  "isVisible": true,
  "layerListExpandedType": 0,
  "name": "Path",
  "nameIsFixed": false,
  "pointRadiusBehaviour": 0,
  "points": [
    {
      "_class": "curvePoint",
      "cornerRadius": 0,
      "curveFrom": "{0.47979609885969121, 1.2511578164986432}",
      "curveMode": 4,
      "curveTo": "{0.911520432194733, 0.64609684871529105}",
      "hasCurveFrom": true,
      "hasCurveTo": true,
      "point": "{0.65248583219370404, 0.8399259033298585}"
    },
    {
      "_class": "curvePoint",
      "cornerRadius": 0,
      "curveFrom": "{0.084498506149813232, 0.25581942793727308}",
      "curveMode": 3,
      "curveTo": "{-0.060533887079926331, 0.76745828381181924}",
      "hasCurveFrom": true,
      "hasCurveTo": true,
      "point": "{0.0055739014619901467, 0.53346645211490751}"
    },
    {
      "_class": "curvePoint",
      "cornerRadius": 0,
      "curveFrom": "{1.1462705384456464, 0.43917123635645716}",
      "curveMode": 4,
      "curveTo": "{0.75974234625662052, 0.25669253178691731}",
      "hasCurveFrom": true,
      "hasCurveTo": true,
      "point": "{0.88791050771547575, 0}"
    }
  ],
  "resizingConstraint": 63,
  "resizingType": 0,
  "rotation": 0,
  "shouldBreakMaskChain": false,
  "style": {
    "_class": "style",
    "do_objectID": "ACB5C8BC-5849-42BA-97AE-B793F45B1A66",
    "endMarkerType": 0,
    "fills": [
      {
        "_class": "fill",
        "color": {
          "_class": "color",
          "alpha": 1,
          "blue": 0.1764705882352941,
          "green": 0.1764705882352941,
          "red": 0.1764705882352941
        },
        "fillType": 0,
        "isEnabled": true,
        "noiseIndex": 0,
        "noiseIntensity": 0,
        "patternFillType": 1,
        "patternTileScale": 1
      }
    ],
    "miterLimit": 10,
    "startMarkerType": 0,
    "windingRule": 1
  }
}