{
  "_class": "shapePath",
  "booleanOperation": -1,
  "clippingMaskMode": 0,
  "do_objectID": "8712E4FF-9924-42B9-B90A-EABA86C595FF",
  "edited": true,
  "exportOptions": {
    "_class": "exportOptions",
    "do_objectID": "94038D04-CFB9-4B17-8A00-AB7F670A3411",
    "exportFormats": [
    ],
    "includedLayerIds": [
    ],
    "layerOptions": 0,
    "shouldTrim": false
  },
  "frame": {
    "_class": "rect",
    "constrainProportions": false,
    "do_objectID": "4F398B5C-93CF-4813-8FEC-A205EDAC33B6",
    "height": 0.1369283524772484,
    "width": 0.2013582233195557,
    "x": 26.73791566435499,
    "y": 31.9082483372779
  },
  "hasClippingMask": false,
  "isClosed": true,
  "isFixedToViewport": false,
  "isFlippedHorizontal": false,
  "isFlippedVertical": false,
  "isLocked": false,
  "isVisible": true,
  "layerListExpandedType": 0,
  "name": "Path",
  "nameIsFixed": false,
  "pointRadiusBehaviour": 0,
  "points": [
    {
      "_class": "curvePoint",
      "cornerRadius": 0,
      "curveFrom": "{1.0756586880459706, 0.25941195926304472}",
      "curveMode": 4,
      "curveTo": "{0.78420423184687782, 0.10956897822756548}",
      "hasCurveFrom": true,
      "hasCurveTo": true,
      "point": "{0.94142032855179725, 0}"
    },
    {
      "_class": "curvePoint",
      "cornerRadius": 0,
      "curveFrom": "{0.73945811201548672, 0.5667973630473091}",
      "curveMode": 4,
      "curveTo": "{0.9559325836322502, 0.39681738060782246}",
      "hasCurveFrom": true,
      "hasCurveTo": true,
      "point": "{0.81564745118787085, 0.50816315307687343}"
    },
    {
      "_class": "curvePoint",
      "cornerRadius": 0,
      "curveFrom": "{0.46815956565036032, 0.64083045644428915}",
      "curveMode": 4,
      "curveTo": "{0.65802823628628182, 0.6100326895911331}",
      "hasCurveFrom": true,
      "hasCurveTo": true,
      "point": "{0.58062954252386567, 0.66866689956153502}"
    },
    {
      "_class": "curvePoint",
      "cornerRadius": 0,
      "curveFrom": "{0.098500179295511983, 0.98375174505910534}",
      "curveMode": 4,
      "curveTo": "{0.20895456518562294, 1.062522956433481}",
      "hasCurveFrom": true,
      "hasCurveTo": true,
      "point": "{0.10978748880253865, 0.99204345151953932}"
    },
    {
      "_class": "curvePoint",
      "cornerRadius": 0,
      "curveFrom": "{0.059397714217634179, 0.46848141501612151}",
      "curveMode": 4,
      "curveTo": "{-0.0042949608576913021, 0.65978292835390551}",
      "hasCurveFrom": true,
      "hasCurveTo": true,
      "point": "{0.00013933930576709235, 0.64793763341039956}"
    },
    {
      "_class": "curvePoint",
      "cornerRadius": 0,
      "curveFrom": "{0.62739125333867407, 0.21617663271918711}",
      "curveMode": 4,
      "curveTo": "{0.38753592631451778, 0.48447256318986137}",
      "hasCurveFrom": true,
      "hasCurveTo": true,
      "point": "{0.4701751566337547, 0.32337655195803794}"
    }
  ],
  "resizingConstraint": 63,
  "resizingType": 0,
  "rotation": 0,
  "shouldBreakMaskChain": false,
  "style": {
    "_class": "style",
    "do_objectID": "8CEC1AF3-3764-4946-9F7C-F5B639308F62",
    "endMarkerType": 0,
    "fills": [
      {
        "_class": "fill",
        "color": {
          "_class": "color",
          "alpha": 1,
          "blue": 0.1764705882352941,
          "green": 0.1764705882352941,
          "red": 0.1764705882352941
        },
        "fillType": 0,
        "isEnabled": true,
        "noiseIndex": 0,
        "noiseIntensity": 0,
        "patternFillType": 1,
        "patternTileScale": 1
      }
    ],
    "miterLimit": 10,
    "startMarkerType": 0,
    "windingRule": 1
  }
}