{
  "_class": "shapePath",
  "booleanOperation": -1,
  "clippingMaskMode": 0,
  "do_objectID": "8ED36D42-7BD3-4D81-AC3E-A56B9BC4CB5B",
  "edited": true,
  "exportOptions": {
    "_class": "exportOptions",
    "do_objectID": "775CED1D-22F4-436C-9A36-032BB0CDFD82",
    "exportFormats": [
    ],
    "includedLayerIds": [
    ],
    "layerOptions": 0,
    "shouldTrim": false
  },
  "frame": {
    "_class": "rect",
    "constrainProportions": false,
    "do_objectID": "DF431C76-6B9F-496F-9271-24E0F852C408",
    "height": 0.1058906030855642,
    "width": 0.1059863482545893,
    "x": 38.48395848067417,
    "y": 9.556224957776834
  },
  "hasClippingMask": false,
  "isClosed": true,
  "isFixedToViewport": false,
  "isFlippedHorizontal": false,
  "isFlippedVertical": false,
  "isLocked": false,
  "isVisible": true,
  "layerListExpandedType": 0,
  "name": "Path",
  "nameIsFixed": false,
  "pointRadiusBehaviour": 0,
  "points": [
    {
      "_class": "curvePoint",
      "cornerRadius": 0,
      "curveFrom": "{0.12901827293105766, 0.040999999999996817}",
      "curveMode": 3,
      "curveTo": "{-0.083566433015411543, 0.48599999999999}",
      "hasCurveFrom": true,
      "hasCurveTo": true,
      "point": "{0.013637726209217587, 0.28399999999999181}"
    },
    {
      "_class": "curvePoint",
      "cornerRadius": 0,
      "curveFrom": "{1.1208168081087992, 0.47300000000001319}",
      "curveMode": 4,
      "curveTo": "{0.77941683424685049, 0.20699999999999363}",
      "hasCurveFrom": true,
      "hasCurveTo": true,
      "point": "{0.9390529331360159, 0}"
    },
    {
      "_class": "curvePoint",
      "cornerRadius": 0,
      "curveFrom": "{0.36294047724389028, 1.0710000000000264}",
      "curveMode": 4,
      "curveTo": "{0.86397654999504958, 0.61000000000001364}",
      "hasCurveFrom": true,
      "hasCurveTo": true,
      "point": "{0.58975018210129837, 0.72800000000000864}"
    }
  ],
  "resizingConstraint": 63,
  "resizingType": 0,
  "rotation": 0,
  "shouldBreakMaskChain": false,
  "style": {
    "_class": "style",
    "do_objectID": "4C3DF3CD-FA47-4EE7-BC2F-8D46C482C2AF",
    "endMarkerType": 0,
    "fills": [
      {
        "_class": "fill",
        "color": {
          "_class": "color",
          "alpha": 1,
          "blue": 0.1764705882352941,
          "green": 0.1764705882352941,
          "red": 0.1764705882352941
        },
        "fillType": 0,
        "isEnabled": true,
        "noiseIndex": 0,
        "noiseIntensity": 0,
        "patternFillType": 1,
        "patternTileScale": 1
      }
    ],
    "miterLimit": 10,
    "startMarkerType": 0,
    "windingRule": 1
  }
}