{
  "_class": "shapePath",
  "booleanOperation": -1,
  "clippingMaskMode": 0,
  "do_objectID": "91737CDB-CAE3-4D55-A1A5-0408E9D82C11",
  "edited": true,
  "exportOptions": {
    "_class": "exportOptions",
    "do_objectID": "51D6C798-2C96-4E17-8B10-40944070913E",
    "exportFormats": [
    ],
    "includedLayerIds": [
    ],
    "layerOptions": 0,
    "shouldTrim": false
  },
  "frame": {
    "_class": "rect",
    "constrainProportions": false,
    "do_objectID": "42AD51AE-7749-438D-B851-8280467CF0B4",
    "height": 0.105890603085566,
    "width": 0.1059863482545751,
    "x": 41.39758183280709,
    "y": 19.38807190225056
  },
  "hasClippingMask": false,
  "isClosed": true,
  "isFixedToViewport": false,
  "isFlippedHorizontal": false,
  "isFlippedVertical": false,
  "isLocked": false,
  "isVisible": true,
  "layerListExpandedType": 0,
  "name": "Path",
  "nameIsFixed": false,
  "pointRadiusBehaviour": 0,
  "points": [
    {
      "_class": "curvePoint",
      "cornerRadius": 0,
      "curveFrom": "{-0.30255124319154447, 0.78760680286580964}",
      "curveMode": 3,
      "curveTo": "{0.46344875680841824, 1.066606802865806}",
      "hasCurveFrom": true,
      "hasCurveTo": true,
      "point": "{0.19544875680844598, 0.96860680286582124}"
    },
    {
      "_class": "curvePoint",
      "cornerRadius": 0,
      "curveFrom": "{1.042448756808426, 0.184606802865801}",
      "curveMode": 3,
      "curveTo": "{0.27644875680846326, -0.090393197134204684}",
      "hasCurveFrom": true,
      "hasCurveTo": true,
      "point": "{0.54644875680844507, 0.0076068028658085041}"
    }
  ],
  "resizingConstraint": 63,
  "resizingType": 0,
  "rotation": 0,
  "shouldBreakMaskChain": false,
  "style": {
    "_class": "style",
    "do_objectID": "90047A98-5B01-44FE-B21A-E5885FC1F37A",
    "endMarkerType": 0,
    "fills": [
      {
        "_class": "fill",
        "color": {
          "_class": "color",
          "alpha": 1,
          "blue": 0.1764705882352941,
          "green": 0.1764705882352941,
          "red": 0.1764705882352941
        },
        "fillType": 0,
        "isEnabled": true,
        "noiseIndex": 0,
        "noiseIntensity": 0,
        "patternFillType": 1,
        "patternTileScale": 1
      }
    ],
    "miterLimit": 10,
    "startMarkerType": 0,
    "windingRule": 1
  }
}