{
  "_class": "shapePath",
  "booleanOperation": -1,
  "clippingMaskMode": 0,
  "do_objectID": "92CF60E0-B05E-4D61-86AE-D03FE81F7BF1",
  "edited": true,
  "exportOptions": {
    "_class": "exportOptions",
    "do_objectID": "F9FF8C89-5BA5-42CE-94EA-D98F35DE2C4A",
    "exportFormats": [
    ],
    "includedLayerIds": [
    ],
    "layerOptions": 0,
    "shouldTrim": false
  },
  "frame": {
    "_class": "rect",
    "constrainProportions": false,
    "do_objectID": "8FC50DA4-FC22-41FD-9E92-E1C0CF933979",
    "height": 0.1058906030855695,
    "width": 0.1059863482545822,
    "x": 36.72695241844138,
    "y": 28.8713315184479
  },
  "hasClippingMask": false,
  "isClosed": true,
  "isFixedToViewport": false,
  "isFlippedHorizontal": false,
  "isFlippedVertical": false,
  "isLocked": false,
  "isVisible": true,
  "layerListExpandedType": 0,
  "name": "Path",
  "nameIsFixed": false,
  "pointRadiusBehaviour": 0,
  "points": [
    {
      "_class": "curvePoint",
      "cornerRadius": 0,
      "curveFrom": "{-0.26905050844351308, 0.7045690885288991}",
      "curveMode": 4,
      "curveTo": "{0.41194949155647009, 0.95156908852885635}",
      "hasCurveFrom": true,
      "hasCurveTo": true,
      "point": "{0.17294949155649419, 0.86256908852885772}"
    },
    {
      "_class": "curvePoint",
      "cornerRadius": 0,
      "curveFrom": "{0.9299494915564992, 0.16956908852887409}",
      "curveMode": 3,
      "curveTo": "{0.24794949155648283, -0.079430911471149557}",
      "hasCurveFrom": true,
      "hasCurveTo": true,
      "point": "{0.48394949155647282, 0.0065690885288631762}"
    }
  ],
  "resizingConstraint": 63,
  "resizingType": 0,
  "rotation": 0,
  "shouldBreakMaskChain": false,
  "style": {
    "_class": "style",
    "do_objectID": "F8A637B5-B09A-4C88-A54A-7EEF4598CBD7",
    "endMarkerType": 0,
    "fills": [
      {
        "_class": "fill",
        "color": {
          "_class": "color",
          "alpha": 1,
          "blue": 0.1764705882352941,
          "green": 0.1764705882352941,
          "red": 0.1764705882352941
        },
        "fillType": 0,
        "isEnabled": true,
        "noiseIndex": 0,
        "noiseIntensity": 0,
        "patternFillType": 1,
        "patternTileScale": 1
      }
    ],
    "miterLimit": 10,
    "startMarkerType": 0,
    "windingRule": 1
  }
}