{
  "_class": "shapePath",
  "booleanOperation": -1,
  "clippingMaskMode": 0,
  "do_objectID": "9E8786C0-60FD-4E3C-B4EC-43C0238CA873",
  "edited": true,
  "exportOptions": {
    "_class": "exportOptions",
    "do_objectID": "70B2A488-7ED6-4C96-907B-1C0D72F1C5B0",
    "exportFormats": [
    ],
    "includedLayerIds": [
    ],
    "layerOptions": 0,
    "shouldTrim": false
  },
  "frame": {
    "_class": "rect",
    "constrainProportions": false,
    "do_objectID": "333A8D56-376B-49DC-8DFD-52C347396BDF",
    "height": 0.1058906030855624,
    "width": 0.1059863482545502,
    "x": 27.59956178458708,
    "y": 32.69267057007161
  },
  "hasClippingMask": false,
  "isClosed": true,
  "isFixedToViewport": false,
  "isFlippedHorizontal": false,
  "isFlippedVertical": false,
  "isLocked": false,
  "isVisible": true,
  "layerListExpandedType": 0,
  "name": "Path",
  "nameIsFixed": false,
  "pointRadiusBehaviour": 0,
  "points": [
    {
      "_class": "curvePoint",
      "cornerRadius": 0,
      "curveFrom": "{1.0371705208365825, 0.18945790895946857}",
      "curveMode": 3,
      "curveTo": "{0.27617052083655835, -0.089542091040527794}",
      "hasCurveFrom": true,
      "hasCurveTo": true,
      "point": "{0.54217052083657791, 0.0074579089594521975}"
    },
    {
      "_class": "curvePoint",
      "cornerRadius": 0,
      "curveFrom": "{-0.30282947916344938, 0.78845790895945811}",
      "curveMode": 3,
      "curveTo": "{0.45817052083657472, 1.0634579089594922}",
      "hasCurveFrom": true,
      "hasCurveTo": true,
      "point": "{0.19617052083657427, 0.96945790895949813}"
    }
  ],
  "resizingConstraint": 63,
  "resizingType": 0,
  "rotation": 0,
  "shouldBreakMaskChain": false,
  "style": {
    "_class": "style",
    "do_objectID": "2EEAF06B-EDDB-4CE5-A515-033AAF068A23",
    "endMarkerType": 0,
    "fills": [
      {
        "_class": "fill",
        "color": {
          "_class": "color",
          "alpha": 1,
          "blue": 0.1764705882352941,
          "green": 0.1764705882352941,
          "red": 0.1764705882352941
        },
        "fillType": 0,
        "isEnabled": true,
        "noiseIndex": 0,
        "noiseIntensity": 0,
        "patternFillType": 1,
        "patternTileScale": 1
      }
    ],
    "miterLimit": 10,
    "startMarkerType": 0,
    "windingRule": 1
  }
}