{
  "_class": "shapePath",
  "booleanOperation": -1,
  "clippingMaskMode": 0,
  "do_objectID": "A01C543E-97BF-4A55-B7CF-5CA1BAB49602",
  "edited": true,
  "exportOptions": {
    "_class": "exportOptions",
    "do_objectID": "96D69760-196C-42DF-B186-DC7397A78010",
    "exportFormats": [
    ],
    "includedLayerIds": [
    ],
    "layerOptions": 0,
    "shouldTrim": false
  },
  "frame": {
    "_class": "rect",
    "constrainProportions": false,
    "do_objectID": "7CB05D34-120D-4C7A-86A2-E71536E7D8F8",
    "height": 0.1058906030855542,
    "width": 0.105986348254568,
    "x": 19.61107203665192,
    "y": 1.755922146520843
  },
  "hasClippingMask": false,
  "isClosed": true,
  "isFixedToViewport": false,
  "isFlippedHorizontal": false,
  "isFlippedVertical": false,
  "isLocked": false,
  "isVisible": true,
  "layerListExpandedType": 0,
  "name": "Path",
  "nameIsFixed": false,
  "pointRadiusBehaviour": 0,
  "points": [
    {
      "_class": "curvePoint",
      "cornerRadius": 0,
      "curveFrom": "{-0.29146413316061626, 0.5788587823071687}",
      "curveMode": 4,
      "curveTo": "{0.36053586683939898, 0.97485878230712686}",
      "hasCurveFrom": true,
      "hasCurveTo": true,
      "point": "{0.13553586683937624, 0.83585878230711685}"
    },
    {
      "_class": "curvePoint",
      "cornerRadius": 0,
      "curveFrom": "{1.0555358668393922, 0.27685878230714778}",
      "curveMode": 3,
      "curveTo": "{0.40653586683939125, -0.12014121769284358}",
      "hasCurveFrom": true,
      "hasCurveTo": true,
      "point": "{0.63453586683939989, 0.017858782307133225}"
    }
  ],
  "resizingConstraint": 63,
  "resizingType": 0,
  "rotation": 0,
  "shouldBreakMaskChain": false,
  "style": {
    "_class": "style",
    "do_objectID": "49211DCF-F6C7-4024-80D0-992BE8135639",
    "endMarkerType": 0,
    "fills": [
      {
        "_class": "fill",
        "color": {
          "_class": "color",
          "alpha": 1,
          "blue": 0.1764705882352941,
          "green": 0.1764705882352941,
          "red": 0.1764705882352941
        },
        "fillType": 0,
        "isEnabled": true,
        "noiseIndex": 0,
        "noiseIntensity": 0,
        "patternFillType": 1,
        "patternTileScale": 1
      }
    ],
    "miterLimit": 10,
    "startMarkerType": 0,
    "windingRule": 1
  }
}