{
  "_class": "shapePath",
  "booleanOperation": -1,
  "clippingMaskMode": 0,
  "do_objectID": "B34558B7-217E-4ED5-B92C-A34E2C24797E",
  "edited": true,
  "exportOptions": {
    "_class": "exportOptions",
    "do_objectID": "B8081409-1E7E-4F56-A2E3-B189ADF1A35E",
    "exportFormats": [
    ],
    "includedLayerIds": [
    ],
    "layerOptions": 0,
    "shouldTrim": false
  },
  "frame": {
    "_class": "rect",
    "constrainProportions": false,
    "do_objectID": "BF58B0B5-A07D-4DA9-98C3-5358F0581023",
    "height": 0.1167975849026988,
    "width": 0.1325586696986925,
    "x": 18.16859076339755,
    "y": 6.143286924004907
  },
  "hasClippingMask": false,
  "isClosed": true,
  "isFixedToViewport": false,
  "isFlippedHorizontal": false,
  "isFlippedVertical": false,
  "isLocked": false,
  "isVisible": true,
  "layerListExpandedType": 0,
  "name": "Path",
  "nameIsFixed": false,
  "pointRadiusBehaviour": 0,
  "points": [
    {
      "_class": "curvePoint",
      "cornerRadius": 0,
      "curveFrom": "{0.65360982486757779, -0.089427532991686112}",
      "curveMode": 3,
      "curveTo": "{0.06821142854109194, 0.21955605667135103}",
      "hasCurveFrom": true,
      "hasCurveTo": true,
      "point": "{0.31253565462296551, 0.090407859643627991}"
    },
    {
      "_class": "curvePoint",
      "cornerRadius": 0,
      "curveFrom": "{1.1208263273750223, 0.61533278949816395}",
      "curveMode": 4,
      "curveTo": "{0.73811294065529653, 0.0029203713345584011}",
      "hasCurveFrom": true,
      "hasCurveTo": true,
      "point": "{0.90160809946196097, 0.33273431535692227}"
    },
    {
      "_class": "curvePoint",
      "cornerRadius": 0,
      "curveFrom": "{0.6940243585051824, 0.99861130970941248}",
      "curveMode": 4,
      "curveTo": "{0.94018560884331948, 0.93056548546900308}",
      "hasCurveFrom": true,
      "hasCurveTo": true,
      "point": "{0.68790094431767235, 1}"
    },
    {
      "_class": "curvePoint",
      "cornerRadius": 0,
      "curveFrom": "{-0.1259008012031575, 0.43133132599096874}",
      "curveMode": 4,
      "curveTo": "{0.28436794936039844, 0.32787389933974731}",
      "hasCurveFrom": true,
      "hasCurveTo": true,
      "point": "{0.10005318231616854, 0.75767354428674527}"
    }
  ],
  "resizingConstraint": 63,
  "resizingType": 0,
  "rotation": 0,
  "shouldBreakMaskChain": false,
  "style": {
    "_class": "style",
    "do_objectID": "EAFB168F-3F82-47CF-9400-16C5440CAEA6",
    "endMarkerType": 0,
    "fills": [
      {
        "_class": "fill",
        "color": {
          "_class": "color",
          "alpha": 1,
          "blue": 0.1764705882352941,
          "green": 0.1764705882352941,
          "red": 0.1764705882352941
        },
        "fillType": 0,
        "isEnabled": true,
        "noiseIndex": 0,
        "noiseIntensity": 0,
        "patternFillType": 1,
        "patternTileScale": 1
      }
    ],
    "miterLimit": 10,
    "startMarkerType": 0,
    "windingRule": 1
  }
}