{
  "_class": "shapePath",
  "booleanOperation": -1,
  "clippingMaskMode": 0,
  "do_objectID": "B8DA11EA-1C5B-41B0-A377-F903EFFD5498",
  "edited": true,
  "exportOptions": {
    "_class": "exportOptions",
    "do_objectID": "56CC2FD5-5F80-4CFA-8C01-CA653343BCF2",
    "exportFormats": [
    ],
    "includedLayerIds": [
    ],
    "layerOptions": 0,
    "shouldTrim": false
  },
  "frame": {
    "_class": "rect",
    "constrainProportions": false,
    "do_objectID": "18234DA4-8B1B-4CE7-B5D7-FA48AF6A2020",
    "height": 0.1058906030855979,
    "width": 0.1202937807883195,
    "x": 21.03767817698123,
    "y": 22.26247171616514
  },
  "hasClippingMask": false,
  "isClosed": true,
  "isFixedToViewport": false,
  "isFlippedHorizontal": false,
  "isFlippedVertical": false,
  "isLocked": false,
  "isVisible": true,
  "layerListExpandedType": 0,
  "name": "Path",
  "nameIsFixed": false,
  "pointRadiusBehaviour": 0,
  "points": [
    {
      "_class": "curvePoint",
      "cornerRadius": 0,
      "curveFrom": "{0.083842954260139171, 0.25483967702574767}",
      "curveMode": 3,
      "curveTo": "{-0.060558767546109803, 0.76713724693713403}",
      "hasCurveFrom": true,
      "hasCurveTo": true,
      "point": "{0.005569123748349984, 0.53498877403007894}"
    },
    {
      "_class": "curvePoint",
      "cornerRadius": 0,
      "curveFrom": "{1.1459378613771445, 0.43811478721549668}",
      "curveMode": 4,
      "curveTo": "{0.75861735522392371, 0.25571241564572789}",
      "hasCurveFrom": true,
      "hasCurveTo": true,
      "point": "{0.88884881460996146, 0}"
    },
    {
      "_class": "curvePoint",
      "cornerRadius": 0,
      "curveFrom": "{0.48061030202685956, 1.2515071810100953}",
      "curveMode": 4,
      "curveTo": "{0.91044159544079062, 0.64320836290405725}",
      "hasCurveFrom": true,
      "hasCurveTo": true,
      "point": "{0.65402732307455558, 0.83957455239311296}"
    }
  ],
  "resizingConstraint": 63,
  "resizingType": 0,
  "rotation": 0,
  "shouldBreakMaskChain": false,
  "style": {
    "_class": "style",
    "do_objectID": "A28BD400-30D8-4C51-AB1B-C5A52A9F6D74",
    "endMarkerType": 0,
    "fills": [
      {
        "_class": "fill",
        "color": {
          "_class": "color",
          "alpha": 1,
          "blue": 0.1764705882352941,
          "green": 0.1764705882352941,
          "red": 0.1764705882352941
        },
        "fillType": 0,
        "isEnabled": true,
        "noiseIndex": 0,
        "noiseIntensity": 0,
        "patternFillType": 1,
        "patternTileScale": 1
      }
    ],
    "miterLimit": 10,
    "startMarkerType": 0,
    "windingRule": 1
  }
}