{
  "_class": "shapePath",
  "booleanOperation": -1,
  "clippingMaskMode": 0,
  "do_objectID": "C0472C74-B674-466C-A53A-61CF010E4E45",
  "edited": true,
  "exportOptions": {
    "_class": "exportOptions",
    "do_objectID": "4DB98FEB-1A66-40A3-A3BE-0A5EE64C0379",
    "exportFormats": [
    ],
    "includedLayerIds": [
    ],
    "layerOptions": 0,
    "shouldTrim": false
  },
  "frame": {
    "_class": "rect",
    "constrainProportions": false,
    "do_objectID": "7FE883C4-F912-499E-9D74-FBD44ABEC3F3",
    "height": 0.1058906030855766,
    "width": 0.105986348254568,
    "x": 12.2356081809797,
    "y": 17.27384029620486
  },
  "hasClippingMask": false,
  "isClosed": true,
  "isFixedToViewport": false,
  "isFlippedHorizontal": false,
  "isFlippedVertical": false,
  "isLocked": false,
  "isVisible": true,
  "layerListExpandedType": 0,
  "name": "Path",
  "nameIsFixed": false,
  "pointRadiusBehaviour": 0,
  "points": [
    {
      "_class": "curvePoint",
      "cornerRadius": 0,
      "curveFrom": "{0.94063926380323437, 0.24574268727610615}",
      "curveMode": 3,
      "curveTo": "{0.36263926380323142, -0.10625731272389771}",
      "hasCurveFrom": true,
      "hasCurveTo": true,
      "point": "{0.5646392638032296, 0.015742687276087963}"
    },
    {
      "_class": "curvePoint",
      "cornerRadius": 0,
      "curveFrom": "{-0.25736073619677313, 0.51374268727610684}",
      "curveMode": 4,
      "curveTo": "{0.31963926380322505, 0.86774268727609183}",
      "hasCurveFrom": true,
      "hasCurveTo": true,
      "point": "{0.11863926380323164, 0.74174268727608705}"
    }
  ],
  "resizingConstraint": 63,
  "resizingType": 0,
  "rotation": 0,
  "shouldBreakMaskChain": false,
  "style": {
    "_class": "style",
    "do_objectID": "DA2D84DD-E30C-4A22-8186-2E8F4D4391C9",
    "endMarkerType": 0,
    "fills": [
      {
        "_class": "fill",
        "color": {
          "_class": "color",
          "alpha": 1,
          "blue": 0.1764705882352941,
          "green": 0.1764705882352941,
          "red": 0.1764705882352941
        },
        "fillType": 0,
        "isEnabled": true,
        "noiseIndex": 0,
        "noiseIntensity": 0,
        "patternFillType": 1,
        "patternTileScale": 1
      }
    ],
    "miterLimit": 10,
    "startMarkerType": 0,
    "windingRule": 1
  }
}