{
  "_class": "shapePath",
  "booleanOperation": -1,
  "clippingMaskMode": 0,
  "do_objectID": "C1A40D7C-1F04-40A1-AFFF-FEB0AEC09DBF",
  "edited": true,
  "exportOptions": {
    "_class": "exportOptions",
    "do_objectID": "360FD595-E301-4FB8-9EBA-A61F159CC868",
    "exportFormats": [
    ],
    "includedLayerIds": [
    ],
    "layerOptions": 0,
    "shouldTrim": false
  },
  "frame": {
    "_class": "rect",
    "constrainProportions": false,
    "do_objectID": "949188E9-201E-42A5-9B94-037D08F6DD3C",
    "height": 0.1058906030855553,
    "width": 0.1059863482545573,
    "x": 13.60712253944865,
    "y": 15.66171890513575
  },
  "hasClippingMask": false,
  "isClosed": true,
  "isFixedToViewport": false,
  "isFlippedHorizontal": false,
  "isFlippedVertical": false,
  "isLocked": false,
  "isVisible": true,
  "layerListExpandedType": 0,
  "name": "Path",
  "nameIsFixed": false,
  "pointRadiusBehaviour": 0,
  "points": [
    {
      "_class": "curvePoint",
      "cornerRadius": 0,
      "curveFrom": "{-0.30393204379564054, 0.78746534337290086}",
      "curveMode": 3,
      "curveTo": "{0.46006795620434104, 1.0664653433728972}",
      "hasCurveFrom": true,
      "hasCurveTo": true,
      "point": "{0.19606795620435946, 0.97146534337286994}"
    },
    {
      "_class": "curvePoint",
      "cornerRadius": 0,
      "curveFrom": "{1.0420679562043347, 0.18746534337287812}",
      "curveMode": 3,
      "curveTo": "{0.27906795620435787, -0.089534656627108689}",
      "hasCurveFrom": true,
      "hasCurveTo": true,
      "point": "{0.54306795620433945, 0.0074653433728713026}"
    }
  ],
  "resizingConstraint": 63,
  "resizingType": 0,
  "rotation": 0,
  "shouldBreakMaskChain": false,
  "style": {
    "_class": "style",
    "do_objectID": "D74E286F-E822-48B3-AD35-09A560D23424",
    "endMarkerType": 0,
    "fills": [
      {
        "_class": "fill",
        "color": {
          "_class": "color",
          "alpha": 1,
          "blue": 0.1764705882352941,
          "green": 0.1764705882352941,
          "red": 0.1764705882352941
        },
        "fillType": 0,
        "isEnabled": true,
        "noiseIndex": 0,
        "noiseIntensity": 0,
        "patternFillType": 1,
        "patternTileScale": 1
      }
    ],
    "miterLimit": 10,
    "startMarkerType": 0,
    "windingRule": 1
  }
}