{
  "_class": "shapePath",
  "booleanOperation": -1,
  "clippingMaskMode": 0,
  "do_objectID": "C2649FC8-DC57-4455-AF6D-91A0E3881371",
  "edited": true,
  "exportOptions": {
    "_class": "exportOptions",
    "do_objectID": "DF32FBC8-756A-483A-8EC4-96533BF6C044",
    "exportFormats": [
    ],
    "includedLayerIds": [
    ],
    "layerOptions": 0,
    "shouldTrim": false
  },
  "frame": {
    "_class": "rect",
    "constrainProportions": false,
    "do_objectID": "0AA9F2F9-72A1-434F-B2B9-6F3D34EC0F33",
    "height": 0.105890603085566,
    "width": 0.105986348254568,
    "x": 32.25898426132931,
    "y": 19.88450906482473
  },
  "hasClippingMask": false,
  "isClosed": true,
  "isFixedToViewport": false,
  "isFlippedHorizontal": false,
  "isFlippedVertical": false,
  "isLocked": false,
  "isVisible": true,
  "layerListExpandedType": 0,
  "name": "Path",
  "nameIsFixed": false,
  "pointRadiusBehaviour": 0,
  "points": [
    {
      "_class": "curvePoint",
      "cornerRadius": 0,
      "curveFrom": "{-0.29026471023934164, 0.57614676538906906}",
      "curveMode": 3,
      "curveTo": "{0.36173528976064517, 0.97114676538907929}",
      "hasCurveFrom": true,
      "hasCurveTo": true,
      "point": "{0.13473528976066973, 0.83314676538907406}"
    },
    {
      "_class": "curvePoint",
      "cornerRadius": 0,
      "curveFrom": "{1.055735289760662, 0.27514676538908134}",
      "curveMode": 3,
      "curveTo": "{0.40573528976062789, -0.12085323461093367}",
      "hasCurveFrom": true,
      "hasCurveTo": true,
      "point": "{0.63273528976066018, 0.018146765389076336}"
    }
  ],
  "resizingConstraint": 63,
  "resizingType": 0,
  "rotation": 0,
  "shouldBreakMaskChain": false,
  "style": {
    "_class": "style",
    "do_objectID": "214CFB72-E891-49B9-B700-34F6162A6954",
    "endMarkerType": 0,
    "fills": [
      {
        "_class": "fill",
        "color": {
          "_class": "color",
          "alpha": 1,
          "blue": 0.1764705882352941,
          "green": 0.1764705882352941,
          "red": 0.1764705882352941
        },
        "fillType": 0,
        "isEnabled": true,
        "noiseIndex": 0,
        "noiseIntensity": 0,
        "patternFillType": 1,
        "patternTileScale": 1
      }
    ],
    "miterLimit": 10,
    "startMarkerType": 0,
    "windingRule": 1
  }
}