{
  "_class": "shapePath",
  "booleanOperation": -1,
  "clippingMaskMode": 0,
  "do_objectID": "C792BBBC-69C3-40CC-87B8-B8BD4CBE8BD9",
  "edited": true,
  "exportOptions": {
    "_class": "exportOptions",
    "do_objectID": "FB1EE97E-2B25-4599-852D-DF0E42EC75E7",
    "exportFormats": [
    ],
    "includedLayerIds": [
    ],
    "layerOptions": 0,
    "shouldTrim": false
  },
  "frame": {
    "_class": "rect",
    "constrainProportions": false,
    "do_objectID": "342A2A7B-4BE4-4986-BB92-EBF3EB85B582",
    "height": 0.1058906030855802,
    "width": 0.1072158002256565,
    "x": 16.05197773472229,
    "y": 29.84617365975109
  },
  "hasClippingMask": false,
  "isClosed": true,
  "isFixedToViewport": false,
  "isFlippedHorizontal": false,
  "isFlippedVertical": false,
  "isLocked": false,
  "isVisible": true,
  "layerListExpandedType": 0,
  "name": "Path",
  "nameIsFixed": false,
  "pointRadiusBehaviour": 0,
  "points": [
    {
      "_class": "curvePoint",
      "cornerRadius": 0,
      "curveFrom": "{0.082762367594741856, 0.25486197132694904}",
      "curveMode": 3,
      "curveTo": "{-0.060326150509388936, 0.767526629034606}",
      "hasCurveFrom": true,
      "hasCurveTo": true,
      "point": "{0.0055399927448876859, 0.53521013978660414}"
    },
    {
      "_class": "curvePoint",
      "cornerRadius": 0,
      "curveFrom": "{1.1457056449397502, 0.43620606630959446}",
      "curveMode": 4,
      "curveTo": "{0.75807960647775163, 0.25388173297565897}",
      "hasCurveFrom": true,
      "hasCurveTo": true,
      "point": "{0.88905481087995164, 0}"
    },
    {
      "_class": "curvePoint",
      "cornerRadius": 0,
      "curveFrom": "{0.47947339133319405, 1.2517643745558538}",
      "curveMode": 4,
      "curveTo": "{0.91101019196471056, 0.64401659677618028}",
      "hasCurveFrom": true,
      "hasCurveTo": true,
      "point": "{0.65133102947943455, 0.83908402867644094}"
    }
  ],
  "resizingConstraint": 63,
  "resizingType": 0,
  "rotation": 0,
  "shouldBreakMaskChain": false,
  "style": {
    "_class": "style",
    "do_objectID": "1E58F5F5-A28C-4F57-B5ED-6C9A50163070",
    "endMarkerType": 0,
    "fills": [
      {
        "_class": "fill",
        "color": {
          "_class": "color",
          "alpha": 1,
          "blue": 0.1764705882352941,
          "green": 0.1764705882352941,
          "red": 0.1764705882352941
        },
        "fillType": 0,
        "isEnabled": true,
        "noiseIndex": 0,
        "noiseIntensity": 0,
        "patternFillType": 1,
        "patternTileScale": 1
      }
    ],
    "miterLimit": 10,
    "startMarkerType": 0,
    "windingRule": 1
  }
}