{
  "_class": "shapePath",
  "booleanOperation": -1,
  "clippingMaskMode": 0,
  "do_objectID": "CEFB7F26-6071-461F-A754-679BA18D09FA",
  "edited": true,
  "exportOptions": {
    "_class": "exportOptions",
    "do_objectID": "DDB51737-7195-4F65-BF89-7343BC43098D",
    "exportFormats": [
    ],
    "includedLayerIds": [
    ],
    "layerOptions": 0,
    "shouldTrim": false
  },
  "frame": {
    "_class": "rect",
    "constrainProportions": false,
    "do_objectID": "94641F0B-3117-4940-BBE5-32DF94760639",
    "height": 0.1058906030855695,
    "width": 0.1059863482545644,
    "x": 24.5275743651217,
    "y": 25.57911141782242
  },
  "hasClippingMask": false,
  "isClosed": true,
  "isFixedToViewport": false,
  "isFlippedHorizontal": false,
  "isFlippedVertical": false,
  "isLocked": false,
  "isVisible": true,
  "layerListExpandedType": 0,
  "name": "Path",
  "nameIsFixed": false,
  "pointRadiusBehaviour": 0,
  "points": [
    {
      "_class": "curvePoint",
      "cornerRadius": 0,
      "curveFrom": "{0.9379678823659674, 0.24622811626392149}",
      "curveMode": 3,
      "curveTo": "{0.35996788236599286, -0.1077718837360635}",
      "hasCurveFrom": true,
      "hasCurveTo": true,
      "point": "{0.56196788236599104, 0.016228116263903303}"
    },
    {
      "_class": "curvePoint",
      "cornerRadius": 0,
      "curveFrom": "{-0.25803211763400213, 0.51222811626394105}",
      "curveMode": 3,
      "curveTo": "{0.3199678823659724, 0.86422811626391649}",
      "hasCurveFrom": true,
      "hasCurveTo": true,
      "point": "{0.11996788236598377, 0.74222811626390239}"
    }
  ],
  "resizingConstraint": 63,
  "resizingType": 0,
  "rotation": 0,
  "shouldBreakMaskChain": false,
  "style": {
    "_class": "style",
    "do_objectID": "4614DBB1-70E0-4713-BBF2-05DC9DAB5DE9",
    "endMarkerType": 0,
    "fills": [
      {
        "_class": "fill",
        "color": {
          "_class": "color",
          "alpha": 1,
          "blue": 0.1764705882352941,
          "green": 0.1764705882352941,
          "red": 0.1764705882352941
        },
        "fillType": 0,
        "isEnabled": true,
        "noiseIndex": 0,
        "noiseIntensity": 0,
        "patternFillType": 1,
        "patternTileScale": 1
      }
    ],
    "miterLimit": 10,
    "startMarkerType": 0,
    "windingRule": 1
  }
}