{
  "_class": "shapePath",
  "booleanOperation": -1,
  "clippingMaskMode": 0,
  "do_objectID": "E0267644-E03E-4A42-8B4A-434AA57BFA3B",
  "edited": true,
  "exportOptions": {
    "_class": "exportOptions",
    "do_objectID": "3CB357FB-2B39-4ACF-95B5-09F1AB0B7D7E",
    "exportFormats": [
    ],
    "includedLayerIds": [
    ],
    "layerOptions": 0,
    "shouldTrim": false
  },
  "frame": {
    "_class": "rect",
    "constrainProportions": false,
    "do_objectID": "466D50D2-21E0-49EC-990C-A9D821DA504C",
    "height": 0.2193337503499366,
    "width": 0.3905786876738819,
    "x": 8.866687811492323,
    "y": 6.669784163662505
  },
  "hasClippingMask": false,
  "isClosed": true,
  "isFixedToViewport": false,
  "isFlippedHorizontal": false,
  "isFlippedVertical": false,
  "isLocked": false,
  "isVisible": true,
  "layerListExpandedType": 0,
  "name": "Path",
  "nameIsFixed": false,
  "pointRadiusBehaviour": 0,
  "points": [
    {
      "_class": "curvePoint",
      "cornerRadius": 0,
      "curveFrom": "{0.8178961471330215, 0.55501930167871616}",
      "curveMode": 4,
      "curveTo": "{0.81332404511741996, 0.12870185245204493}",
      "hasCurveFrom": true,
      "hasCurveTo": true,
      "point": "{0.73518266521443409, 0.35794453980724578}"
    },
    {
      "_class": "curvePoint",
      "cornerRadius": 0,
      "curveFrom": "{0.63334948395787882, 0.78463173530385699}",
      "curveMode": 3,
      "curveTo": "{0.71252997795532147, 0.55206133151930115}",
      "hasCurveFrom": true,
      "hasCurveTo": true,
      "point": "{0.67054976853935488, 0.67518683940524871}"
    },
    {
      "_class": "curvePoint",
      "cornerRadius": 0,
      "curveFrom": "{0.39684711606000789, 1.0290340197260941}",
      "curveMode": 4,
      "curveTo": "{0.50969490671777862, 0.79905183983103423}",
      "hasCurveFrom": true,
      "hasCurveTo": true,
      "point": "{0.60612469468316765, 0.99168964646339264}"
    },
    {
      "_class": "curvePoint",
      "cornerRadius": 0,
      "curveFrom": "{-0.038541689516480133, 0.69515313798133693}",
      "curveMode": 4,
      "curveTo": "{0.21604126362490203, 0.92624455668617478}",
      "hasCurveFrom": true,
      "hasCurveTo": true,
      "point": "{0.007387153458412136, 0.9632191836789572}"
    },
    {
      "_class": "curvePoint",
      "cornerRadius": 0,
      "curveFrom": "{0.39663929324111596, 0.42560810720401959}",
      "curveMode": 4,
      "curveTo": "{0.13769206090302422, 0.57017889874575234}",
      "hasCurveFrom": true,
      "hasCurveTo": true,
      "point": "{0.31454927977920133, 0.44557440578010782}"
    },
    {
      "_class": "curvePoint",
      "cornerRadius": 0,
      "curveFrom": "{0.59635702219529474, 0.24036522597020929}",
      "curveMode": 4,
      "curveTo": "{0.47519631878188573, 0.24776015136877841}",
      "hasCurveFrom": true,
      "hasCurveTo": true,
      "point": "{0.55728633224380031, 0.24332319612964534}"
    },
    {
      "_class": "curvePoint",
      "cornerRadius": 0,
      "curveFrom": "{0.69964496318408453, 0.19044947952996769}",
      "curveMode": 4,
      "curveTo": "{0.64457191617798926, 0.58201077938345458}",
      "hasCurveFrom": true,
      "hasCurveTo": true,
      "point": "{0.73518266521443409, 0.35794453980724578}"
    },
    {
      "_class": "curvePoint",
      "cornerRadius": 0,
      "curveFrom": "{0.87380048541468158, -0.019936148058901905}",
      "curveMode": 3,
      "curveTo": "{0.69694326653850436, 0.1268531211024079}",
      "hasCurveFrom": true,
      "hasCurveTo": true,
      "point": "{0.80023120752729415, 0.041441732749101852}"
    },
    {
      "_class": "curvePoint",
      "cornerRadius": 0,
      "curveFrom": "{1.0061836210482009, 0.29619691272930199}",
      "curveMode": 4,
      "curveTo": "{0.95485138478214249, -0.035835237665797104}",
      "hasCurveFrom": true,
      "hasCurveTo": true,
      "point": "{0.97771189486014409, 0.15606307642670228}"
    },
    {
      "_class": "curvePoint",
      "cornerRadius": 0,
      "curveFrom": "{0.89042631092595514, 0.4832885253127493}",
      "curveMode": 3,
      "curveTo": "{1.0265502572995113, 0.42412912212430159}",
      "hasCurveFrom": true,
      "hasCurveTo": true,
      "point": "{0.91328682100395686, 0.47330537602468414}"
    }
  ],
  "resizingConstraint": 63,
  "resizingType": 0,
  "rotation": 0,
  "shouldBreakMaskChain": false,
  "style": {
    "_class": "style",
    "do_objectID": "2CB78AD7-C8DF-41D7-B6C7-A32DC35807A5",
    "endMarkerType": 0,
    "fills": [
      {
        "_class": "fill",
        "color": {
          "_class": "color",
          "alpha": 1,
          "blue": 0.1764705882352941,
          "green": 0.1764705882352941,
          "red": 0.1764705882352941
        },
        "fillType": 0,
        "isEnabled": true,
        "noiseIndex": 0,
        "noiseIntensity": 0,
        "patternFillType": 1,
        "patternTileScale": 1
      }
    ],
    "miterLimit": 10,
    "startMarkerType": 0,
    "windingRule": 1
  }
}