{
  "_class": "shapePath",
  "booleanOperation": -1,
  "clippingMaskMode": 0,
  "do_objectID": "E2DF94D9-6860-45ED-AAF1-7A17F33FA6E9",
  "edited": true,
  "exportOptions": {
    "_class": "exportOptions",
    "do_objectID": "682341DD-A6A5-4142-8ECC-5DB223C5C5ED",
    "exportFormats": [
    ],
    "includedLayerIds": [
    ],
    "layerOptions": 0,
    "shouldTrim": false
  },
  "frame": {
    "_class": "rect",
    "constrainProportions": false,
    "do_objectID": "408106FA-E442-4BFE-B3E8-C532D82EA6AC",
    "height": 0.1058906030855624,
    "width": 0.1059863482545662,
    "x": 12.19067231512815,
    "y": 32.44241274387231
  },
  "hasClippingMask": false,
  "isClosed": true,
  "isFixedToViewport": false,
  "isFlippedHorizontal": false,
  "isFlippedVertical": false,
  "isLocked": false,
  "isVisible": true,
  "layerListExpandedType": 0,
  "name": "Path",
  "nameIsFixed": false,
  "pointRadiusBehaviour": 0,
  "points": [
    {
      "_class": "curvePoint",
      "cornerRadius": 0,
      "curveFrom": "{-0.30176677858247558, 0.78633341876513896}",
      "curveMode": 3,
      "curveTo": "{0.46023322141752487, 1.0653334187651353}",
      "hasCurveFrom": true,
      "hasCurveTo": true,
      "point": "{0.19423322141750532, 0.96833341876509849}"
    },
    {
      "_class": "curvePoint",
      "cornerRadius": 0,
      "curveFrom": "{1.0432332214175233, 0.18733341876509257}",
      "curveMode": 3,
      "curveTo": "{0.27723322141750373, -0.088666581234861042}",
      "hasCurveFrom": true,
      "hasCurveTo": true,
      "point": "{0.54523322141750441, 0.0073334187651425964}"
    }
  ],
  "resizingConstraint": 63,
  "resizingType": 0,
  "rotation": 0,
  "shouldBreakMaskChain": false,
  "style": {
    "_class": "style",
    "do_objectID": "76FE5F0C-93D4-4905-A631-4B55AEAB102C",
    "endMarkerType": 0,
    "fills": [
      {
        "_class": "fill",
        "color": {
          "_class": "color",
          "alpha": 1,
          "blue": 0.1764705882352941,
          "green": 0.1764705882352941,
          "red": 0.1764705882352941
        },
        "fillType": 0,
        "isEnabled": true,
        "noiseIndex": 0,
        "noiseIntensity": 0,
        "patternFillType": 1,
        "patternTileScale": 1
      }
    ],
    "miterLimit": 10,
    "startMarkerType": 0,
    "windingRule": 1
  }
}