{
  "_class": "shapePath",
  "booleanOperation": -1,
  "clippingMaskMode": 0,
  "do_objectID": "E373C088-4E11-4F08-9297-4FCCE7F2E66B",
  "edited": true,
  "exportOptions": {
    "_class": "exportOptions",
    "do_objectID": "7560EF06-6868-46C5-A3F0-4CF6A153E6BF",
    "exportFormats": [
    ],
    "includedLayerIds": [
    ],
    "layerOptions": 0,
    "shouldTrim": false
  },
  "frame": {
    "_class": "rect",
    "constrainProportions": false,
    "do_objectID": "AB4AE420-282E-43F6-9306-B4A26DF38C00",
    "height": 0.1065625565843291,
    "width": 0.1059863482545644,
    "x": 19.54162236025115,
    "y": 32.4740679394765
  },
  "hasClippingMask": false,
  "isClosed": true,
  "isFixedToViewport": false,
  "isFlippedHorizontal": false,
  "isFlippedVertical": false,
  "isLocked": false,
  "isVisible": true,
  "layerListExpandedType": 0,
  "name": "Path",
  "nameIsFixed": false,
  "pointRadiusBehaviour": 0,
  "points": [
    {
      "_class": "curvePoint",
      "cornerRadius": 0,
      "curveFrom": "{0.40913129123234171, 0.81354642313546377}",
      "curveMode": 4,
      "curveTo": "{0.42613129123233762, 0.91933028919330839}",
      "hasCurveFrom": true,
      "hasCurveTo": true,
      "point": "{0.31113129123235694, 1}"
    },
    {
      "_class": "curvePoint",
      "cornerRadius": 0,
      "curveFrom": "{0.12313129123234035, 0.012937595129372627}",
      "curveMode": 4,
      "curveTo": "{-0.12386870876764533, 0.26331811263317961}",
      "hasCurveFrom": true,
      "hasCurveTo": true,
      "point": "{0.027131291232336707, 0.10882800608825718}"
    },
    {
      "_class": "curvePoint",
      "cornerRadius": 0,
      "curveFrom": "{0.51813129123235058, 0.1864535768645362}",
      "curveMode": 4,
      "curveTo": "{0.50113129123235467, 0.084474885844739875}",
      "hasCurveFrom": true,
      "hasCurveTo": true,
      "point": "{0.61613129123233534, 0}"
    },
    {
      "_class": "curvePoint",
      "cornerRadius": 0,
      "curveFrom": "{0.80513129123235672, 0.98782343987821974}",
      "curveMode": 3,
      "curveTo": "{1.0511312912323376, 0.73820395738200506}",
      "hasCurveFrom": true,
      "hasCurveTo": true,
      "point": "{0.90013129123235558, 0.89193302891929194}"
    }
  ],
  "resizingConstraint": 63,
  "resizingType": 0,
  "rotation": 0,
  "shouldBreakMaskChain": false,
  "style": {
    "_class": "style",
    "do_objectID": "C840C453-2A23-4C45-9247-A08D973B2440",
    "endMarkerType": 0,
    "fills": [
      {
        "_class": "fill",
        "color": {
          "_class": "color",
          "alpha": 1,
          "blue": 0.1764705882352941,
          "green": 0.1764705882352941,
          "red": 0.1764705882352941
        },
        "fillType": 0,
        "isEnabled": true,
        "noiseIndex": 0,
        "noiseIntensity": 0,
        "patternFillType": 1,
        "patternTileScale": 1
      }
    ],
    "miterLimit": 10,
    "startMarkerType": 0,
    "windingRule": 1
  }
}