{
  "_class": "shapePath",
  "booleanOperation": -1,
  "clippingMaskMode": 0,
  "do_objectID": "E79179C3-396F-4AA3-9589-D9D04A18AD02",
  "edited": true,
  "exportOptions": {
    "_class": "exportOptions",
    "do_objectID": "9C9E1406-9471-4A83-A8FE-18976F91181B",
    "exportFormats": [
    ],
    "includedLayerIds": [
    ],
    "layerOptions": 0,
    "shouldTrim": false
  },
  "frame": {
    "_class": "rect",
    "constrainProportions": false,
    "do_objectID": "ABF5DE28-504C-4CE9-AEAE-292301014181",
    "height": 0.1058906030855589,
    "width": 0.1059863482545627,
    "x": 8.526062973484429,
    "y": 22.77116236492853
  },
  "hasClippingMask": false,
  "isClosed": true,
  "isFixedToViewport": false,
  "isFlippedHorizontal": false,
  "isFlippedVertical": false,
  "isLocked": false,
  "isVisible": true,
  "layerListExpandedType": 0,
  "name": "Path",
  "nameIsFixed": false,
  "pointRadiusBehaviour": 0,
  "points": [
    {
      "_class": "curvePoint",
      "cornerRadius": 0,
      "curveFrom": "{-0.26907715537009835, 0.70244485586704286}",
      "curveMode": 3,
      "curveTo": "{0.41192284462989903, 0.94944485586705696}",
      "hasCurveFrom": true,
      "hasCurveTo": true,
      "point": "{0.17392284462989949, 0.86444485586702058}"
    },
    {
      "_class": "curvePoint",
      "cornerRadius": 0,
      "curveFrom": "{0.92792284462990438, 0.16844485586705105}",
      "curveMode": 3,
      "curveTo": "{0.24592284462990222, -0.078555144132963051}",
      "hasCurveFrom": true,
      "hasCurveTo": true,
      "point": "{0.48392284462990176, 0.0064448558670733291}"
    }
  ],
  "resizingConstraint": 63,
  "resizingType": 0,
  "rotation": 0,
  "shouldBreakMaskChain": false,
  "style": {
    "_class": "style",
    "do_objectID": "0E99A5C8-F24E-4ABC-B068-69BB525C8D3B",
    "endMarkerType": 0,
    "fills": [
      {
        "_class": "fill",
        "color": {
          "_class": "color",
          "alpha": 1,
          "blue": 0.1764705882352941,
          "green": 0.1764705882352941,
          "red": 0.1764705882352941
        },
        "fillType": 0,
        "isEnabled": true,
        "noiseIndex": 0,
        "noiseIntensity": 0,
        "patternFillType": 1,
        "patternTileScale": 1
      }
    ],
    "miterLimit": 10,
    "startMarkerType": 0,
    "windingRule": 1
  }
}