{
  "_class": "shapePath",
  "booleanOperation": -1,
  "clippingMaskMode": 0,
  "do_objectID": "EB0BB77B-F56E-4D46-83C2-ADBA719AE669",
  "edited": true,
  "exportOptions": {
    "_class": "exportOptions",
    "do_objectID": "48477CD4-5800-4E62-9453-ECF5CC89C76B",
    "exportFormats": [
    ],
    "includedLayerIds": [
    ],
    "layerOptions": 0,
    "shouldTrim": false
  },
  "frame": {
    "_class": "rect",
    "constrainProportions": false,
    "do_objectID": "A9F4DA1C-2767-4E50-88E3-C8E9E6D0E07B",
    "height": 0.1499579147721306,
    "width": 0.1230416006465873,
    "x": 6.382411509206243,
    "y": 17.37113158242035
  },
  "hasClippingMask": false,
  "isClosed": true,
  "isFixedToViewport": false,
  "isFlippedHorizontal": false,
  "isFlippedVertical": false,
  "isLocked": false,
  "isVisible": true,
  "layerListExpandedType": 0,
  "name": "Path",
  "nameIsFixed": false,
  "pointRadiusBehaviour": 0,
  "points": [
    {
      "_class": "curvePoint",
      "cornerRadius": 0,
      "curveFrom": "{0.39183175365916884, -0.1167786512837679}",
      "curveMode": 4,
      "curveTo": "{0.35950620678085771, 0.32397658654591333}",
      "hasCurveFrom": true,
      "hasCurveTo": true,
      "point": "{0.073853925182671712, 0.08277801467838268}"
    },
    {
      "_class": "curvePoint",
      "cornerRadius": 0,
      "curveFrom": "{0.70057371159900694, 0.31207889914438053}",
      "curveMode": 4,
      "curveTo": "{0.47561429352746393, 0.086563642487965484}",
      "hasCurveFrom": true,
      "hasCurveTo": true,
      "point": "{0.6379017329573744, 0.25042724624550239}"
    },
    {
      "_class": "curvePoint",
      "cornerRadius": 0,
      "curveFrom": "{0.84768793514726137, 1.2227927893347905}",
      "curveMode": 3,
      "curveTo": "{1.0277874106121629, 0.81556739781852405}",
      "hasCurveFrom": true,
      "hasCurveTo": true,
      "point": "{0.99810068388717776, 0.8815454824997847}"
    },
    {
      "_class": "curvePoint",
      "cornerRadius": 0,
      "curveFrom": "{0.38853322846750693, 0.70794740723189864}",
      "curveMode": 4,
      "curveTo": "{0.46637842299079557, 0.71876348668783197}",
      "hasCurveFrom": true,
      "hasCurveTo": true,
      "point": "{0.43405287611248444, 0.7133554469598653}"
    },
    {
      "_class": "curvePoint",
      "cornerRadius": 0,
      "curveFrom": "{-0.15506372311886937, 0.67009112913608604}",
      "curveMode": 4,
      "curveTo": "{0.071874810067672698, 0.88316789441816856}",
      "hasCurveFrom": true,
      "hasCurveTo": true,
      "point": "{0.049444838764356687, 0.86153573550628659}"
    }
  ],
  "resizingConstraint": 63,
  "resizingType": 0,
  "rotation": 0,
  "shouldBreakMaskChain": false,
  "style": {
    "_class": "style",
    "do_objectID": "1B04884D-94FF-4799-8751-FDA835AC53B9",
    "endMarkerType": 0,
    "fills": [
      {
        "_class": "fill",
        "color": {
          "_class": "color",
          "alpha": 1,
          "blue": 0.1764705882352941,
          "green": 0.1764705882352941,
          "red": 0.1764705882352941
        },
        "fillType": 0,
        "isEnabled": true,
        "noiseIndex": 0,
        "noiseIntensity": 0,
        "patternFillType": 1,
        "patternTileScale": 1
      }
    ],
    "miterLimit": 10,
    "startMarkerType": 0,
    "windingRule": 1
  }
}