{
  "_class": "shapePath",
  "booleanOperation": -1,
  "clippingMaskMode": 0,
  "do_objectID": "EC56FCE3-2C90-4B68-B896-B55CD10ACDE0",
  "edited": true,
  "exportOptions": {
    "_class": "exportOptions",
    "do_objectID": "F375CA4D-A2CE-4D49-ABC0-8121ED99BEF8",
    "exportFormats": [
    ],
    "includedLayerIds": [
    ],
    "layerOptions": 0,
    "shouldTrim": false
  },
  "frame": {
    "_class": "rect",
    "constrainProportions": false,
    "do_objectID": "33788743-CDF2-4755-B13A-A94348118121",
    "height": 0.105890603085566,
    "width": 0.1059863482545751,
    "x": 17.11041401958531,
    "y": 17.84620795561933
  },
  "hasClippingMask": false,
  "isClosed": true,
  "isFixedToViewport": false,
  "isFlippedHorizontal": false,
  "isFlippedVertical": false,
  "isLocked": false,
  "isVisible": true,
  "layerListExpandedType": 0,
  "name": "Path",
  "nameIsFixed": false,
  "pointRadiusBehaviour": 0,
  "points": [
    {
      "_class": "curvePoint",
      "cornerRadius": 0,
      "curveFrom": "{0.3624835930641564, 1.070999999999998}",
      "curveMode": 4,
      "curveTo": "{0.86501418912278738, 0.60800000000000409}",
      "hasCurveFrom": true,
      "hasCurveTo": true,
      "point": "{0.58767419035457957, 0.72700000000000387}"
    },
    {
      "_class": "curvePoint",
      "cornerRadius": 0,
      "curveFrom": "{0.12939157130738732, 0.040999999999996817}",
      "curveMode": 4,
      "curveTo": "{-0.084737031730164863, 0.48400000000000887}",
      "hasCurveFrom": true,
      "hasCurveTo": true,
      "point": "{0.014030774098969263, 0.28400000000002024}"
    },
    {
      "_class": "curvePoint",
      "cornerRadius": 0,
      "curveFrom": "{1.1194400569386391, 0.47100000000000364}",
      "curveMode": 4,
      "curveTo": "{0.77730837754650173, 0.21000000000000796}",
      "hasCurveFrom": true,
      "hasCurveTo": true,
      "point": "{0.94007772155292846, 0}"
    }
  ],
  "resizingConstraint": 63,
  "resizingType": 0,
  "rotation": 0,
  "shouldBreakMaskChain": false,
  "style": {
    "_class": "style",
    "do_objectID": "95CF2342-85FD-4DC1-8A18-1D5057E9DF6E",
    "endMarkerType": 0,
    "fills": [
      {
        "_class": "fill",
        "color": {
          "_class": "color",
          "alpha": 1,
          "blue": 0.1764705882352941,
          "green": 0.1764705882352941,
          "red": 0.1764705882352941
        },
        "fillType": 0,
        "isEnabled": true,
        "noiseIndex": 0,
        "noiseIntensity": 0,
        "patternFillType": 1,
        "patternTileScale": 1
      }
    ],
    "miterLimit": 10,
    "startMarkerType": 0,
    "windingRule": 1
  }
}