{
  "_class": "shapePath",
  "booleanOperation": -1,
  "clippingMaskMode": 0,
  "do_objectID": "F6D07CC6-D735-4AB9-9B59-04E78408020F",
  "edited": true,
  "exportOptions": {
    "_class": "exportOptions",
    "do_objectID": "78189E99-F08C-46C3-B498-021E1DE6FF87",
    "exportFormats": [
    ],
    "includedLayerIds": [
    ],
    "layerOptions": 0,
    "shouldTrim": false
  },
  "frame": {
    "_class": "rect",
    "constrainProportions": false,
    "do_objectID": "E41331EC-05F6-4AB3-BFFD-0CC06EF47CF0",
    "height": 0.1182406449771491,
    "width": 0.1059863482545644,
    "x": 30.78348653313085,
    "y": 17.61629559038602
  },
  "hasClippingMask": false,
  "isClosed": true,
  "isFixedToViewport": false,
  "isFlippedHorizontal": false,
  "isFlippedVertical": false,
  "isLocked": false,
  "isVisible": true,
  "layerListExpandedType": 0,
  "name": "Path",
  "nameIsFixed": false,
  "pointRadiusBehaviour": 0,
  "points": [
    {
      "_class": "curvePoint",
      "cornerRadius": 0,
      "curveFrom": "{-0.026655103194684671, 0.74759945130315819}",
      "curveMode": 4,
      "curveTo": "{0.55134489680528986, 0.98971193415636849}",
      "hasCurveFrom": true,
      "hasCurveTo": true,
      "point": "{0.027344896805288954, 1}"
    },
    {
      "_class": "curvePoint",
      "cornerRadius": 0,
      "curveFrom": "{0.41834489680530851, 0.24965706447186303}",
      "curveMode": 4,
      "curveTo": "{-0.05265510319469513, 0.50823045267488764}",
      "hasCurveFrom": true,
      "hasCurveTo": true,
      "point": "{0.47134489680530578, 0.49999999999999023}"
    },
    {
      "_class": "curvePoint",
      "cornerRadius": 0,
      "curveFrom": "{0.96934489680529623, 0.25034293552810771}",
      "curveMode": 4,
      "curveTo": "{0.39234489680529805, 0.0096021947873673515}",
      "hasCurveFrom": true,
      "hasCurveTo": true,
      "point": "{0.91634489680529896, 0}"
    },
    {
      "_class": "curvePoint",
      "cornerRadius": 0,
      "curveFrom": "{0.52434489680530305, 0.74965706447187275}",
      "curveMode": 4,
      "curveTo": "{0.99534489680530669, 0.49108367626884813}",
      "hasCurveFrom": true,
      "hasCurveTo": true,
      "point": "{0.47134489680530578, 0.49999999999999023}"
    }
  ],
  "resizingConstraint": 63,
  "resizingType": 0,
  "rotation": 0,
  "shouldBreakMaskChain": false,
  "style": {
    "_class": "style",
    "do_objectID": "A28A7993-3962-447C-A5ED-12E793D81543",
    "endMarkerType": 0,
    "fills": [
      {
        "_class": "fill",
        "color": {
          "_class": "color",
          "alpha": 1,
          "blue": 0.1764705882352941,
          "green": 0.1764705882352941,
          "red": 0.1764705882352941
        },
        "fillType": 0,
        "isEnabled": true,
        "noiseIndex": 0,
        "noiseIntensity": 0,
        "patternFillType": 1,
        "patternTileScale": 1
      }
    ],
    "miterLimit": 10,
    "startMarkerType": 0,
    "windingRule": 1
  }
}