{
  "_class": "shapePath",
  "booleanOperation": -1,
  "clippingMaskMode": 0,
  "do_objectID": "F73114EC-106F-49B8-9512-45BCED106166",
  "edited": true,
  "exportOptions": {
    "_class": "exportOptions",
    "do_objectID": "F6F69E03-FFBB-4897-8780-B5CA640744F1",
    "exportFormats": [
    ],
    "includedLayerIds": [
    ],
    "layerOptions": 0,
    "shouldTrim": false
  },
  "frame": {
    "_class": "rect",
    "constrainProportions": false,
    "do_objectID": "3321EBAD-40B8-47C0-8242-6284F746C0F7",
    "height": 0.1058906030855518,
    "width": 0.1059863482545662,
    "x": 8.5785604178977,
    "y": 9.205497814429085
  },
  "hasClippingMask": false,
  "isClosed": true,
  "isFixedToViewport": false,
  "isFlippedHorizontal": false,
  "isFlippedVertical": false,
  "isLocked": false,
  "isVisible": true,
  "layerListExpandedType": 0,
  "name": "Path",
  "nameIsFixed": false,
  "pointRadiusBehaviour": 0,
  "points": [
    {
      "_class": "curvePoint",
      "cornerRadius": 0,
      "curveFrom": "{-0.30282708366540589, 0.78874108289811318}",
      "curveMode": 4,
      "curveTo": "{0.45817291633458979, 1.0657410828981568}",
      "hasCurveFrom": true,
      "hasCurveTo": true,
      "point": "{0.19517291633458456, 0.96774108289814365}"
    },
    {
      "_class": "curvePoint",
      "cornerRadius": 0,
      "curveFrom": "{1.0401729163345976, 0.18774108289811409}",
      "curveMode": 4,
      "curveTo": "{0.27817291633459718, -0.091258917101882275}",
      "hasCurveFrom": true,
      "hasCurveTo": true,
      "point": "{0.54317291633459774, 0.0077410828981072655}"
    }
  ],
  "resizingConstraint": 63,
  "resizingType": 0,
  "rotation": 0,
  "shouldBreakMaskChain": false,
  "style": {
    "_class": "style",
    "do_objectID": "BC44B81C-F185-463C-B1B8-AC12977A6786",
    "endMarkerType": 0,
    "fills": [
      {
        "_class": "fill",
        "color": {
          "_class": "color",
          "alpha": 1,
          "blue": 0.1764705882352941,
          "green": 0.1764705882352941,
          "red": 0.1764705882352941
        },
        "fillType": 0,
        "isEnabled": true,
        "noiseIndex": 0,
        "noiseIntensity": 0,
        "patternFillType": 1,
        "patternTileScale": 1
      }
    ],
    "miterLimit": 10,
    "startMarkerType": 0,
    "windingRule": 1
  }
}