{
  "_class": "shapePath",
  "booleanOperation": -1,
  "clippingMaskMode": 0,
  "do_objectID": "FD8FBFB2-AF89-4490-9FA1-6056019621E9",
  "edited": true,
  "exportOptions": {
    "_class": "exportOptions",
    "do_objectID": "B190DE74-4BC5-4DDA-B1A8-151688254A72",
    "exportFormats": [
    ],
    "includedLayerIds": [
    ],
    "layerOptions": 0,
    "shouldTrim": false
  },
  "frame": {
    "_class": "rect",
    "constrainProportions": false,
    "do_objectID": "234437F1-CCCB-4F16-B91A-7B3D81D7E836",
    "height": 0.1058906030855589,
    "width": 0.1059863482545467,
    "x": 25.09427389304598,
    "y": 8.283344326160563
  },
  "hasClippingMask": false,
  "isClosed": true,
  "isFixedToViewport": false,
  "isFlippedHorizontal": false,
  "isFlippedVertical": false,
  "isLocked": false,
  "isVisible": true,
  "layerListExpandedType": 0,
  "name": "Path",
  "nameIsFixed": false,
  "pointRadiusBehaviour": 0,
  "points": [
    {
      "_class": "curvePoint",
      "cornerRadius": 0,
      "curveFrom": "{1.0564303399928576, 0.27561770620552295}",
      "curveMode": 3,
      "curveTo": "{0.40843033999283307, -0.1193822937945157}",
      "hasCurveFrom": true,
      "hasCurveTo": true,
      "point": "{0.63343033999285581, 0.017617706205484751}"
    },
    {
      "_class": "curvePoint",
      "cornerRadius": 0,
      "curveFrom": "{-0.28956966000714601, 0.57961770620549657}",
      "curveMode": 3,
      "curveTo": "{0.36143033999286445, 0.97461770620547838}",
      "hasCurveFrom": true,
      "hasCurveTo": true,
      "point": "{0.13343033999285581, 0.83561770620552522}"
    }
  ],
  "resizingConstraint": 63,
  "resizingType": 0,
  "rotation": 0,
  "shouldBreakMaskChain": false,
  "style": {
    "_class": "style",
    "do_objectID": "AA6D7CB4-17D4-44A4-B68C-ACFED5EC33AF",
    "endMarkerType": 0,
    "fills": [
      {
        "_class": "fill",
        "color": {
          "_class": "color",
          "alpha": 1,
          "blue": 0.1764705882352941,
          "green": 0.1764705882352941,
          "red": 0.1764705882352941
        },
        "fillType": 0,
        "isEnabled": true,
        "noiseIndex": 0,
        "noiseIntensity": 0,
        "patternFillType": 1,
        "patternTileScale": 1
      }
    ],
    "miterLimit": 10,
    "startMarkerType": 0,
    "windingRule": 1
  }
}