{
  "_class": "shapePath",
  "booleanOperation": -1,
  "clippingMaskMode": 0,
  "do_objectID": "FDB9CCEF-D48C-4E42-98D6-3D5D01CA936F",
  "edited": true,
  "exportOptions": {
    "_class": "exportOptions",
    "do_objectID": "620C3AE5-98EB-49BF-A106-FF5C5FEE720B",
    "exportFormats": [
    ],
    "includedLayerIds": [
    ],
    "layerOptions": 0,
    "shouldTrim": false
  },
  "frame": {
    "_class": "rect",
    "constrainProportions": false,
    "do_objectID": "E43A47CE-D8B7-462E-902F-4FE77A06E033",
    "height": 0.1238223977081212,
    "width": 0.1696271359550572,
    "x": 15.23714518350706,
    "y": 22.64498439449928
  },
  "hasClippingMask": false,
  "isClosed": true,
  "isFixedToViewport": false,
  "isFlippedHorizontal": false,
  "isFlippedVertical": false,
  "isLocked": false,
  "isVisible": true,
  "layerListExpandedType": 0,
  "name": "Path",
  "nameIsFixed": false,
  "pointRadiusBehaviour": 0,
  "points": [
    {
      "_class": "curvePoint",
      "cornerRadius": 0,
      "curveFrom": "{0.33820665694400731, 0.41413869950900734}",
      "curveMode": 4,
      "curveTo": "{0.31762999610017456, 0.49011323365808668}",
      "hasCurveFrom": true,
      "hasCurveTo": true,
      "point": "{0.3262434820348013, 0.45736558962831558}"
    },
    {
      "_class": "curvePoint",
      "cornerRadius": 0,
      "curveFrom": "{0.45496724405783168, -0.1314370500268349}",
      "curveMode": 4,
      "curveTo": "{0.22575281279750314, 0.044745274853296955}",
      "hasCurveFrom": true,
      "hasCurveTo": true,
      "point": "{0.25015768961227208, 0.026406594196616222}"
    },
    {
      "_class": "curvePoint",
      "cornerRadius": 0,
      "curveFrom": "{1.0899725682383434, 0.62568847994130383}",
      "curveMode": 4,
      "curveTo": "{0.69135958026368927, 0.47963398756854947}",
      "hasCurveFrom": true,
      "hasCurveTo": true,
      "point": "{0.95598500925526553, 0.24843562071844991}"
    },
    {
      "_class": "curvePoint",
      "cornerRadius": 0,
      "curveFrom": "{0.65164183956513499, 0.83134368444823337}",
      "curveMode": 3,
      "curveTo": "{0.89138386474557196, 0.66105593549346853}",
      "hasCurveFrom": true,
      "hasCurveTo": true,
      "point": "{0.71720003806756949, 0.78484202992595176}"
    },
    {
      "_class": "curvePoint",
      "cornerRadius": 0,
      "curveFrom": "{-0.20157179495923996, 0.75340429165737755}",
      "curveMode": 4,
      "curveTo": "{0.14201058843307443, 1.0402736533580992}",
      "hasCurveFrom": true,
      "hasCurveTo": true,
      "point": "{0.087458510847105195, 0.99311704595523775}"
    }
  ],
  "resizingConstraint": 63,
  "resizingType": 0,
  "rotation": 0,
  "shouldBreakMaskChain": false,
  "style": {
    "_class": "style",
    "do_objectID": "FAF46D9D-951C-4B4D-B812-14C8745D39C6",
    "endMarkerType": 0,
    "fills": [
      {
        "_class": "fill",
        "color": {
          "_class": "color",
          "alpha": 1,
          "blue": 0.1764705882352941,
          "green": 0.1764705882352941,
          "red": 0.1764705882352941
        },
        "fillType": 0,
        "isEnabled": true,
        "noiseIndex": 0,
        "noiseIntensity": 0,
        "patternFillType": 1,
        "patternTileScale": 1
      }
    ],
    "miterLimit": 10,
    "startMarkerType": 0,
    "windingRule": 1
  }
}