{
  "_class": "shapePath",
  "booleanOperation": -1,
  "clippingMaskMode": 0,
  "do_objectID": "FE26FA87-AA4C-47E6-A272-C05341B919CD",
  "edited": true,
  "exportOptions": {
    "_class": "exportOptions",
    "do_objectID": "D4B93658-8E8D-405B-A540-9229D85A2F7D",
    "exportFormats": [
    ],
    "includedLayerIds": [
    ],
    "layerOptions": 0,
    "shouldTrim": false
  },
  "frame": {
    "_class": "rect",
    "constrainProportions": false,
    "do_objectID": "01DD0893-918A-41C9-AA63-BC3CDCFB6163",
    "height": 0.1058906030855624,
    "width": 0.1059863482545467,
    "x": 40.77794793829247,
    "y": 18.17410452049552
  },
  "hasClippingMask": false,
  "isClosed": true,
  "isFixedToViewport": false,
  "isFlippedHorizontal": false,
  "isFlippedVertical": false,
  "isLocked": false,
  "isVisible": true,
  "layerListExpandedType": 0,
  "name": "Path",
  "nameIsFixed": false,
  "pointRadiusBehaviour": 0,
  "points": [
    {
      "_class": "curvePoint",
      "cornerRadius": 0,
      "curveFrom": "{0.58096942737580903, 0.38740698832094073}",
      "curveMode": 4,
      "curveTo": "{0.88783120426886308, 0.043923957906443635}",
      "hasCurveFrom": true,
      "hasCurveTo": true,
      "point": "{1, 0.37812366317460239}"
    },
    {
      "_class": "curvePoint",
      "cornerRadius": 0,
      "curveFrom": "{0.26689679932859822, 1.1169216227373446}",
      "curveMode": 4,
      "curveTo": "{0.60180077515445918, 0.65894424885132663}",
      "hasCurveFrom": true,
      "hasCurveTo": true,
      "point": "{0.64426467639553442, 0.94131205538578111}"
    },
    {
      "_class": "curvePoint",
      "cornerRadius": 0,
      "curveFrom": "{-0.11768192889249487, 0.25279877369903458}",
      "curveMode": 4,
      "curveTo": "{0.15633041496501118, 0.86781906464393954}",
      "hasCurveFrom": true,
      "hasCurveTo": true,
      "point": "{0.059384527225962942, 0.59782902497126211}"
    },
    {
      "_class": "curvePoint",
      "cornerRadius": 0,
      "curveFrom": "{0.8181263097788013, -0.061287060418739027}",
      "curveMode": 3,
      "curveTo": "{0.13069183308362015, 0.09885029835560856}",
      "hasCurveFrom": true,
      "hasCurveTo": true,
      "point": "{0.416722262198024, 0.033093411902374893}"
    }
  ],
  "resizingConstraint": 63,
  "resizingType": 0,
  "rotation": 0,
  "shouldBreakMaskChain": false,
  "style": {
    "_class": "style",
    "do_objectID": "BB3DF84E-C43E-490F-9E39-3B543597942D",
    "endMarkerType": 0,
    "fills": [
      {
        "_class": "fill",
        "color": {
          "_class": "color",
          "alpha": 1,
          "blue": 0.1764705882352941,
          "green": 0.1764705882352941,
          "red": 0.1764705882352941
        },
        "fillType": 0,
        "isEnabled": true,
        "noiseIndex": 0,
        "noiseIntensity": 0,
        "patternFillType": 1,
        "patternTileScale": 1
      }
    ],
    "miterLimit": 10,
    "startMarkerType": 0,
    "windingRule": 1
  }
}