{
  "_class": "symbolMaster",
  "allowsOverrides": true,
  "backgroundColor": {
    "_class": "color",
    "alpha": 1,
    "blue": 1,
    "do_objectID": "C106B3E8-D390-481F-9475-5D994F177B14",
    "green": 1,
    "red": 1
  },
  "booleanOperation": -1,
  "changeIdentifier": 969,
  "clippingMaskMode": 0,
  "do_objectID": "5F4811C3-7400-4062-9F16-FF10F3F57A9B",
  "exportOptions": {
    "_class": "exportOptions",
    "do_objectID": "A0A65019-A56F-488C-B6F1-B32166ED28A1",
    "exportFormats": [
    ],
    "includedLayerIds": [
    ],
    "layerOptions": 0,
    "shouldTrim": false
  },
  "frame": {
    "_class": "rect",
    "constrainProportions": false,
    "do_objectID": "57575C2B-0361-46BF-9050-34E2837031AB",
    "height": 32,
    "width": 576,
    "x": 95550,
    "y": 328
  },
  "groupLayout": {
    "_class": "MSImmutableFreeformGroupLayout"
  },
  "hasBackgroundColor": false,
  "hasClickThrough": true,
  "hasClippingMask": false,
  "horizontalRulerData": {
    "_class": "rulerData",
    "base": 0,
    "do_objectID": "BF10551A-1FFC-4F7E-84FA-31415A29995E",
    "guides": [
    ]
  },
  "includeBackgroundColorInExport": true,
  "includeBackgroundColorInInstance": false,
  "includeInCloudUpload": true,
  "isFixedToViewport": false,
  "isFlippedHorizontal": false,
  "isFlippedVertical": false,
  "isFlowHome": false,
  "isLocked": false,
  "isVisible": true,
  "layerListExpandedType": 2,
  "layers": [
    {
      "class": "rectangle",
      "id": "004034D4-97D6-482B-B204-D96D068502E3"
    },
    {
      "class": "rectangle",
      "id": "24003A6E-8636-4156-855D-9A05033979B1"
    },
    {
      "class": "text",
      "id": "F6AED9BF-F74B-43AB-87C5-1F10D270884A"
    },
    {
      "class": "text",
      "id": "569D4993-B8A2-4D3D-BA32-AA983742B43D"
    },
    {
      "class": "text",
      "id": "279A5908-FC3B-4923-87F9-3A0D3AEE92D1"
    },
    {
      "class": "text",
      "id": "7F77C834-2C02-4902-A40E-B3AA0E007672"
    }
  ],
  "name": "structured list / item / header / 4 column even",
  "nameIsFixed": true,
  "overrideProperties": [
    {
      "_class": "MSImmutableOverrideProperty",
      "canOverride": false,
      "overrideName": "7F77C834-2C02-4902-A40E-B3AA0E007672_textStyle"
    },
    {
      "_class": "MSImmutableOverrideProperty",
      "canOverride": false,
      "overrideName": "F6AED9BF-F74B-43AB-87C5-1F10D270884A_textStyle"
    },
    {
      "_class": "MSImmutableOverrideProperty",
      "canOverride": true,
      "overrideName": "569D4993-B8A2-4D3D-BA32-AA983742B43D_stringValue"
    },
    {
      "_class": "MSImmutableOverrideProperty",
      "canOverride": false,
      "overrideName": "24003A6E-8636-4156-855D-9A05033979B1_layerStyle"
    },
    {
      "_class": "MSImmutableOverrideProperty",
      "canOverride": false,
      "overrideName": "279A5908-FC3B-4923-87F9-3A0D3AEE92D1_textStyle"
    },
    {
      "_class": "MSImmutableOverrideProperty",
      "canOverride": true,
      "overrideName": "7F77C834-2C02-4902-A40E-B3AA0E007672_stringValue"
    },
    {
      "_class": "MSImmutableOverrideProperty",
      "canOverride": true,
      "overrideName": "F6AED9BF-F74B-43AB-87C5-1F10D270884A_stringValue"
    },
    {
      "_class": "MSImmutableOverrideProperty",
      "canOverride": false,
      "overrideName": "569D4993-B8A2-4D3D-BA32-AA983742B43D_textStyle"
    },
    {
      "_class": "MSImmutableOverrideProperty",
      "canOverride": true,
      "overrideName": "279A5908-FC3B-4923-87F9-3A0D3AEE92D1_stringValue"
    }
  ],
  "resizesContent": true,
  "resizingConstraint": 63,
  "resizingType": 0,
  "rotation": 0,
  "shouldBreakMaskChain": true,
  "style": {
    "_class": "style",
    "do_objectID": "E60F4D06-852C-4001-97A7-349DC33DFF83",
    "endMarkerType": 0,
    "miterLimit": 10,
    "startMarkerType": 0,
    "windingRule": 1
  },
  "symbolID": "FC0936D5-C191-452C-B601-1A11E63F59A5",
  "verticalRulerData": {
    "_class": "rulerData",
    "base": 0,
    "do_objectID": "EC2F6FDC-0A30-4B5D-BE8F-5C32D9B81967",
    "guides": [
    ]
  }
}