{
  "_class": "symbolInstance",
  "booleanOperation": -1,
  "clippingMaskMode": 0,
  "do_objectID": "B8F0189E-6B61-47EF-BD6E-0E6F79AB78D8",
  "exportOptions": {
    "_class": "exportOptions",
    "do_objectID": "3ED06BB1-1E32-4DA5-BEDC-57C8C2D5DC2A",
    "exportFormats": [
    ],
    "includedLayerIds": [
    ],
    "layerOptions": 0,
    "shouldTrim": false
  },
  "frame": {
    "_class": "rect",
    "constrainProportions": false,
    "do_objectID": "46F76BBB-4F11-45F7-805F-7C200D0BED0B",
    "height": 20,
    "width": 20,
    "x": 48,
    "y": 6
  },
  "hasClippingMask": false,
  "horizontalSpacing": 0,
  "isFixedToViewport": false,
  "isFlippedHorizontal": false,
  "isFlippedVertical": false,
  "isLocked": true,
  "isVisible": true,
  "layerListExpandedType": 0,
  "name": "checkbox",
  "nameIsFixed": true,
  "overrideValues": [
    {
      "_class": "overrideValue",
      "do_objectID": "B9EA1F50-8CDC-491C-A10C-2030FDB2EC3C",
      "overrideName": "A19EB3DE-5561-4192-ABC4-C256708F5390_layerStyle",
      "value": "4924B3FB-A922-4416-8B87-FEC904FA9809"
    }
  ],
  "resizingConstraint": 9,
  "resizingType": 0,
  "rotation": 0,
  "scale": 1,
  "shouldBreakMaskChain": false,
  "style": {
    "_class": "style",
    "do_objectID": "EF27641C-D85A-4E7A-9A30-A411FEB7D6AC",
    "endMarkerType": 0,
    "miterLimit": 10,
    "startMarkerType": 0,
    "windingRule": 1
  },
  "symbolID": "5F3D9FC4-3BD7-4AFA-A22F-188C135736F2",
  "verticalSpacing": 0
}