{
  "_class": "symbolInstance",
  "booleanOperation": -1,
  "clippingMaskMode": 0,
  "do_objectID": "08F265B0-F627-4306-945A-9DA848484A97",
  "exportOptions": {
    "_class": "exportOptions",
    "do_objectID": "91A9B2B9-3B67-4071-9FD6-D7D56FC2F797",
    "exportFormats": [
    ],
    "includedLayerIds": [
    ],
    "layerOptions": 0,
    "shouldTrim": false
  },
  "frame": {
    "_class": "rect",
    "constrainProportions": false,
    "do_objectID": "E8387A53-996B-4EBA-84BD-0C5FA678EDE3",
    "height": 24,
    "width": 200,
    "x": 1000,
    "y": 0
  },
  "hasClippingMask": false,
  "horizontalSpacing": 0,
  "isFixedToViewport": false,
  "isFlippedHorizontal": false,
  "isFlippedVertical": false,
  "isLocked": false,
  "isVisible": true,
  "layerListExpandedType": 0,
  "name": "column 6",
  "nameIsFixed": true,
  "overrideValues": [
  ],
  "resizingConstraint": 63,
  "resizingType": 0,
  "rotation": 0,
  "scale": 1,
  "shouldBreakMaskChain": false,
  "style": {
    "_class": "style",
    "do_objectID": "75A9EC0C-F9F5-407C-A2E4-5908838B80BE",
    "endMarkerType": 0,
    "miterLimit": 10,
    "startMarkerType": 0,
    "windingRule": 1
  },
  "symbolID": "787E837F-1397-4219-B5B0-952A759C5635",
  "verticalSpacing": 0
}