{
  "_class": "symbolInstance",
  "booleanOperation": -1,
  "clippingMaskMode": 0,
  "do_objectID": "BFD6AA64-924E-4783-BFE2-8552602A5A92",
  "exportOptions": {
    "_class": "exportOptions",
    "do_objectID": "8BF87AD8-DBD7-4E54-B315-BE1A54EC90B9",
    "exportFormats": [
    ],
    "includedLayerIds": [
    ],
    "layerOptions": 0,
    "shouldTrim": false
  },
  "frame": {
    "_class": "rect",
    "constrainProportions": false,
    "do_objectID": "0767089A-38D8-4DA3-A2A9-6DC5A958EB4B",
    "height": 48,
    "width": 672,
    "x": 0,
    "y": 0
  },
  "hasClippingMask": false,
  "horizontalSpacing": 0,
  "isFixedToViewport": false,
  "isFlippedHorizontal": false,
  "isFlippedVertical": false,
  "isLocked": false,
  "isVisible": true,
  "layerListExpandedType": 0,
  "name": "Notifiction / inline / information",
  "nameIsFixed": true,
  "overrideValues": [
  ],
  "resizingConstraint": 63,
  "resizingType": 0,
  "rotation": 0,
  "scale": 1,
  "shouldBreakMaskChain": false,
  "style": {
    "_class": "style",
    "do_objectID": "4BF0549B-3D97-4D75-8ECF-6CD37E92EE0B",
    "endMarkerType": 0,
    "miterLimit": 10,
    "startMarkerType": 0,
    "windingRule": 1
  },
  "symbolID": "9B283EDF-1E9D-4F5C-9239-5DD35A03F60D",
  "verticalSpacing": 0
}