{
  "_class": "symbolInstance",
  "booleanOperation": -1,
  "clippingMaskMode": 0,
  "do_objectID": "FADCB59B-05D9-4344-B64B-BD1C34FA44F2",
  "exportOptions": {
    "_class": "exportOptions",
    "do_objectID": "CCAF754C-D40B-413D-B306-B13876289F70",
    "exportFormats": [
    ],
    "includedLayerIds": [
    ],
    "layerOptions": 0,
    "shouldTrim": false
  },
  "frame": {
    "_class": "rect",
    "constrainProportions": false,
    "do_objectID": "A073F4B2-A186-4A80-AF4D-A16F59AC2670",
    "height": 48,
    "width": 672,
    "x": 0,
    "y": 416
  },
  "hasClippingMask": false,
  "horizontalSpacing": 0,
  "isFixedToViewport": false,
  "isFlippedHorizontal": false,
  "isFlippedVertical": false,
  "isLocked": false,
  "isVisible": true,
  "layerListExpandedType": 0,
  "name": "Notifiction / inline / warning",
  "nameIsFixed": false,
  "overrideValues": [
  ],
  "resizingConstraint": 63,
  "resizingType": 0,
  "rotation": 0,
  "scale": 1,
  "shouldBreakMaskChain": false,
  "style": {
    "_class": "style",
    "do_objectID": "2D17D880-28EF-4474-88E1-398BD012AB55",
    "endMarkerType": 0,
    "miterLimit": 10,
    "startMarkerType": 0,
    "windingRule": 1
  },
  "symbolID": "690F60E2-B760-4803-934F-E7C5405297E2",
  "verticalSpacing": 0
}