{
  "_class": "symbolInstance",
  "booleanOperation": -1,
  "clippingMaskMode": 0,
  "do_objectID": "C0B9B449-AFC9-48C2-BD22-8357DCDFE7A4",
  "exportOptions": {
    "_class": "exportOptions",
    "do_objectID": "0F7A2FA9-8B02-49E5-B32B-848A9C9CE301",
    "exportFormats": [
    ],
    "includedLayerIds": [
    ],
    "layerOptions": 0,
    "shouldTrim": false
  },
  "frame": {
    "_class": "rect",
    "constrainProportions": false,
    "do_objectID": "CFA200B8-303D-4DF4-965D-4410CEEDBA0C",
    "height": 32,
    "width": 256,
    "x": 0,
    "y": 208
  },
  "hasClippingMask": false,
  "horizontalSpacing": 0,
  "isFixedToViewport": false,
  "isFlippedHorizontal": false,
  "isFlippedVertical": false,
  "isLocked": false,
  "isVisible": true,
  "layerListExpandedType": 0,
  "name": "link 6",
  "nameIsFixed": true,
  "overrideValues": [
  ],
  "resizingConstraint": 63,
  "resizingType": 0,
  "rotation": 0,
  "scale": 1,
  "shouldBreakMaskChain": false,
  "style": {
    "_class": "style",
    "do_objectID": "E99B7C31-1DF0-439E-81D5-D26E6B5C0274",
    "endMarkerType": 0,
    "miterLimit": 10,
    "startMarkerType": 0,
    "windingRule": 1
  },
  "symbolID": "4EFBA424-42EF-4B61-B57C-65826FD2851B",
  "verticalSpacing": 0
}