{
  "_class": "symbolInstance",
  "booleanOperation": 0,
  "clippingMaskMode": 0,
  "do_objectID": "AF01DA6B-362B-4163-87C2-92682B16DF8B",
  "exportOptions": {
    "_class": "exportOptions",
    "do_objectID": "93B7A4C1-766B-461A-86CF-8FE07F5477BB",
    "exportFormats": [
    ],
    "includedLayerIds": [
    ],
    "layerOptions": 0,
    "shouldTrim": false
  },
  "frame": {
    "_class": "rect",
    "constrainProportions": false,
    "do_objectID": "CA152C2D-3DEF-4A94-A550-8BEA767E5AB1",
    "height": 700,
    "width": 1366,
    "x": 0,
    "y": 2607
  },
  "hasClippingMask": false,
  "horizontalSpacing": 0,
  "isFixedToViewport": false,
  "isFlippedHorizontal": false,
  "isFlippedVertical": false,
  "isLocked": false,
  "isVisible": true,
  "layerListExpandedType": 0,
  "name": "Layout One",
  "nameIsFixed": false,
  "overrideValues": [
    {
      "_class": "overrideValue",
      "overrideName": "27FA23B6-4511-457F-A3B3-C1F83F91D593_image",
      "value": {
        "_class": "MSJSONFileReference",
        "_ref": "images/8b2ebd6e1a16f0eaa118258ad8be69c7313169ee.png",
        "_ref_class": "MSImageData"
      }
    },
    {
      "_class": "overrideValue",
      "overrideName": "A16564E5-8DF0-40F9-BA53-EDAD122228A3_stringValue",
      "value": "More Stories"
    },
    {
      "_class": "overrideValue",
      "overrideName": "FB46B111-FC52-4674-BE63-507E3B851EBD_image",
      "value": {
        "_class": "MSJSONFileReference",
        "_ref": "images/23927de3d67e1acadb0344c2e18bbb08c9ba50a3.png",
        "_ref_class": "MSImageData"
      }
    },
    {
      "_class": "overrideValue",
      "overrideName": "14B2D3DA-F51B-493B-B375-332D58852A3B_image",
      "value": {
        "_class": "MSJSONFileReference",
        "_ref": "images/c990947d0231338a502a038b574b35a7fc37d0b9.png",
        "_ref_class": "MSImageData"
      }
    },
    {
      "_class": "overrideValue",
      "overrideName": "1214531E-48FF-4D41-ACF4-5D5339D51CC9_image",
      "value": {
        "_class": "MSJSONFileReference",
        "_ref": "images/f2a308ecf70c32d4af05b90569e392aeced82fdb.png",
        "_ref_class": "MSImageData"
      }
    }
  ],
  "resizingConstraint": 63,
  "resizingType": 0,
  "rotation": 0,
  "scale": 1,
  "shouldBreakMaskChain": false,
  "style": {
    "_class": "style",
    "do_objectID": "04D2E8C3-E612-40FF-A19E-BA44A662BA1E",
    "endMarkerType": 0,
    "miterLimit": 10,
    "startMarkerType": 0,
    "windingRule": 1
  },
  "symbolID": "4DDF3F40-6A24-470F-BA99-B3B053D3C423",
  "verticalSpacing": 0
}