{
  "_class": "group",
  "booleanOperation": 0,
  "clippingMaskMode": 0,
  "do_objectID": "F46ECC06-CCE8-45F5-9BEF-E3B6B32DC108",
  "exportOptions": {
    "_class": "exportOptions",
    "exportFormats": [
    ],
    "includedLayerIds": [
    ],
    "layerOptions": 0,
    "shouldTrim": false
  },
  "frame": {
    "_class": "rect",
    "constrainProportions": false,
    "height": 298,
    "width": 375,
    "x": 0,
    "y": 1264
  },
  "groupLayout": {
    "_class": "MSImmutableFreeformGroupLayout"
  },
  "hasClickThrough": false,
  "hasClippingMask": false,
  "isFixedToViewport": false,
  "isFlippedHorizontal": false,
  "isFlippedVertical": false,
  "isLocked": false,
  "isVisible": true,
  "layerListExpandedType": 0,
  "layers": [
    {
      "class": "rectangle",
      "id": "17858534-2A1C-4025-8900-B3A698FC07A6"
    },
    {
      "class": "rectangle",
      "id": "A4244553-937A-4E43-BC3A-A21CDDFA0F69"
    },
    {
      "class": "group",
      "id": "38193FB7-207E-40E3-82BA-61AF777705AA"
    },
    {
      "class": "bitmap",
      "id": "ABD63D71-C034-4B37-BEA9-B7CD130A72AC"
    },
    {
      "class": "bitmap",
      "id": "689AE6C0-4D0E-4271-ADC4-BF1844DB5BD7"
    },
    {
      "class": "shapePath",
      "id": "6CB3D0AB-3481-4D50-BD4C-723DFECE8411"
    }
  ],
  "maintainScrollPosition": false,
  "name": "Group 13 Copy",
  "nameIsFixed": false,
  "resizingConstraint": 63,
  "resizingType": 0,
  "rotation": 0,
  "shouldBreakMaskChain": false,
  "style": {
    "_class": "style",
    "blur": {
      "_class": "blur",
      "center": "{0.5, 0.5}",
      "isEnabled": false,
      "motionAngle": 0,
      "radius": 10,
      "saturation": 1,
      "type": 0
    },
    "borderOptions": {
      "_class": "borderOptions",
      "dashPattern": [
      ],
      "isEnabled": true,
      "lineCapStyle": 0,
      "lineJoinStyle": 0
    },
    "borders": [
    ],
    "colorControls": {
      "_class": "colorControls",
      "brightness": 0,
      "contrast": 1,
      "hue": 0,
      "isEnabled": false,
      "saturation": 1
    },
    "contextSettings": {
      "_class": "graphicsContextSettings",
      "blendMode": 0,
      "opacity": 1
    },
    "do_objectID": "AF37B1CA-5737-4B5C-B610-9E560FD372AE",
    "endMarkerType": 0,
    "fills": [
    ],
    "innerShadows": [
    ],
    "miterLimit": 10,
    "shadows": [
    ],
    "startMarkerType": 0,
    "windingRule": 1
  }
}