{
  "_class": "text",
  "attributedString": {
    "_class": "attributedString",
    "attributes": [
      {
        "_class": "stringAttribute",
        "attributes": {
          "MSAttributedStringColorAttribute": {
            "_class": "color",
            "alpha": 1,
            "blue": 0.1772959184,
            "green": 0.1772959184,
            "red": 0.1772959184
          },
          "MSAttributedStringFontAttribute": {
            "_class": "UIFontDescriptor",
            "attributes": {
              "name": "Lato-Regular",
              "size": 14
            }
          },
          "kerning": 0,
          "paragraphStyle": {
            "_class": "paragraphStyle",
            "alignment": 0,
            "headIndent": 36,
            "maximumLineHeight": 20,
            "minimumLineHeight": 20,
            "tabStops": [
              {
                "_class": "textTab",
                "alignment": 0,
                "location": 11,
                "options": {
                }
              },
              {
                "_class": "textTab",
                "alignment": 0,
                "location": 36,
                "options": {
                }
              },
              {
                "_class": "textTab",
                "alignment": 0,
                "location": 56,
                "options": {
                }
              },
              {
                "_class": "textTab",
                "alignment": 0,
                "location": 85,
                "options": {
                }
              },
              {
                "_class": "textTab",
                "alignment": 0,
                "location": 113,
                "options": {
                }
              },
              {
                "_class": "textTab",
                "alignment": 0,
                "location": 141,
                "options": {
                }
              },
              {
                "_class": "textTab",
                "alignment": 0,
                "location": 170,
                "options": {
                }
              },
              {
                "_class": "textTab",
                "alignment": 0,
                "location": 198,
                "options": {
                }
              },
              {
                "_class": "textTab",
                "alignment": 0,
                "location": 226,
                "options": {
                }
              },
              {
                "_class": "textTab",
                "alignment": 0,
                "location": 255,
                "options": {
                }
              },
              {
                "_class": "textTab",
                "alignment": 0,
                "location": 283,
                "options": {
                }
              },
              {
                "_class": "textTab",
                "alignment": 0,
                "location": 311,
                "options": {
                }
              },
              {
                "_class": "textTab",
                "alignment": 0,
                "location": 340,
                "options": {
                }
              }
            ],
            "textLists": [
              {
                "_class": "textList",
                "listOptions": 0,
                "markerFormat": "{disc}"
              }
            ]
          }
        },
        "length": 57,
        "location": 0
      }
    ],
    "string": "\t• \tOuter : cow leather 100%\n\t• \tLining :  polyester 100%"
  },
  "automaticallyDrawOnUnderlyingPath": false,
  "booleanOperation": 0,
  "clippingMaskMode": 0,
  "do_objectID": "45C45880-D475-4E72-BF9A-7EF6D8FC2EC4",
  "dontSynchroniseWithSymbol": false,
  "exportOptions": {
    "_class": "exportOptions",
    "do_objectID": "1A7689BE-E707-4EA6-9CBB-8A6ADECA2C82",
    "exportFormats": [
    ],
    "includedLayerIds": [
    ],
    "layerOptions": 0,
    "shouldTrim": false
  },
  "frame": {
    "_class": "rect",
    "constrainProportions": false,
    "do_objectID": "80AD1BE3-FE49-4753-B5C7-8955108E9582",
    "height": 40,
    "width": 857,
    "x": 0,
    "y": 0
  },
  "glyphBounds": "{{0, 0}, {194, 40}}",
  "hasClippingMask": false,
  "isFixedToViewport": false,
  "isFlippedHorizontal": false,
  "isFlippedVertical": false,
  "isLocked": false,
  "isVisible": true,
  "layerListExpandedType": 0,
  "lineSpacingBehaviour": 2,
  "name": "• Outer : cow leathe",
  "nameIsFixed": false,
  "resizingConstraint": 63,
  "resizingType": 0,
  "rotation": 0,
  "sharedStyleID": "C05CA241-D7D0-425D-9207-72E0C4A08B69",
  "shouldBreakMaskChain": false,
  "style": {
    "_class": "style",
    "do_objectID": "2CA05DBC-FE1D-4B99-92AD-87292D742431",
    "endMarkerType": 0,
    "miterLimit": 10,
    "startMarkerType": 0,
    "textStyle": {
      "_class": "textStyle",
      "do_objectID": "089ABE17-9415-4D54-8075-0158B9192200",
      "encodedAttributes": {
        "MSAttributedStringColorAttribute": {
          "_class": "color",
          "alpha": 1,
          "blue": 0.1772959184,
          "green": 0.1772959184,
          "red": 0.1772959184
        },
        "MSAttributedStringFontAttribute": {
          "_class": "UIFontDescriptor",
          "attributes": {
            "name": "Lato-Regular",
            "size": 14
          }
        },
        "kerning": 0,
        "paragraphStyle": {
          "_class": "paragraphStyle",
          "alignment": 0,
          "headIndent": 36,
          "maximumLineHeight": 20,
          "minimumLineHeight": 20,
          "tabStops": [
            {
              "_class": "textTab",
              "alignment": 0,
              "location": 11,
              "options": {
              }
            },
            {
              "_class": "textTab",
              "alignment": 0,
              "location": 36,
              "options": {
              }
            },
            {
              "_class": "textTab",
              "alignment": 0,
              "location": 56,
              "options": {
              }
            },
            {
              "_class": "textTab",
              "alignment": 0,
              "location": 85,
              "options": {
              }
            },
            {
              "_class": "textTab",
              "alignment": 0,
              "location": 113,
              "options": {
              }
            },
            {
              "_class": "textTab",
              "alignment": 0,
              "location": 141,
              "options": {
              }
            },
            {
              "_class": "textTab",
              "alignment": 0,
              "location": 170,
              "options": {
              }
            },
            {
              "_class": "textTab",
              "alignment": 0,
              "location": 198,
              "options": {
              }
            },
            {
              "_class": "textTab",
              "alignment": 0,
              "location": 226,
              "options": {
              }
            },
            {
              "_class": "textTab",
              "alignment": 0,
              "location": 255,
              "options": {
              }
            },
            {
              "_class": "textTab",
              "alignment": 0,
              "location": 283,
              "options": {
              }
            },
            {
              "_class": "textTab",
              "alignment": 0,
              "location": 311,
              "options": {
              }
            },
            {
              "_class": "textTab",
              "alignment": 0,
              "location": 340,
              "options": {
              }
            }
          ],
          "textLists": [
            {
              "_class": "textList",
              "listOptions": 0,
              "markerFormat": "{disc}"
            }
          ]
        }
      },
      "verticalAlignment": 0
    },
    "windingRule": 1
  },
  "textBehaviour": 1,
  "userInfo": {
    "com.invisionlabs.duplicate": {
      "type-duplicate": {
        "action": "article",
        "options": {
          "section": "cooking",
          "type": "body"
        },
        "title": "Cooking"
      }
    }
  }
}