{
  "_class": "symbolMaster",
  "allowsOverrides": true,
  "backgroundColor": {
    "_class": "color",
    "alpha": 1,
    "blue": 1,
    "green": 1,
    "red": 1
  },
  "booleanOperation": -1,
  "changeIdentifier": 2464,
  "clippingMaskMode": 0,
  "do_objectID": "1732F88D-5BC9-41DA-BD8D-92D1D2146617",
  "exportOptions": {
    "_class": "exportOptions",
    "exportFormats": [
    ],
    "includedLayerIds": [
    ],
    "layerOptions": 0,
    "shouldTrim": false
  },
  "frame": {
    "_class": "rect",
    "constrainProportions": false,
    "height": 83,
    "width": 226,
    "x": 55618,
    "y": 570
  },
  "groupLayout": {
    "_class": "MSImmutableFreeformGroupLayout"
  },
  "hasBackgroundColor": false,
  "hasClickThrough": true,
  "hasClippingMask": false,
  "horizontalRulerData": {
    "_class": "rulerData",
    "base": 0,
    "guides": [
    ]
  },
  "includeBackgroundColorInExport": true,
  "includeBackgroundColorInInstance": false,
  "includeInCloudUpload": true,
  "isFixedToViewport": false,
  "isFlippedHorizontal": false,
  "isFlippedVertical": false,
  "isFlowHome": false,
  "isLocked": false,
  "isVisible": true,
  "layerListExpandedType": 2,
  "layers": [
    {
      "class": "rectangle",
      "id": "6ACB8148-9BCC-4391-88F6-AC2F63BB631A"
    },
    {
      "class": "rectangle",
      "id": "DD089846-0205-45AB-8608-BAC1AF650FD3"
    },
    {
      "class": "text",
      "id": "B563C551-12F6-4B85-970E-898CD9FA8238"
    },
    {
      "class": "text",
      "id": "F7FFEA9C-9D85-4AF0-AD9A-BABFB31E321B"
    },
    {
      "class": "text",
      "id": "6CDD6AEE-64E0-48C7-8FD1-6E70702E3589"
    },
    {
      "class": "symbolInstance",
      "id": "4D644148-6434-4928-A5E8-3D42BFF9C770"
    },
    {
      "class": "symbolInstance",
      "id": "339C1728-A16B-4CB6-A841-A5E5A5C28CDF"
    }
  ],
  "name": "dropdown / 01 default / 01 label / closed / 05 error",
  "nameIsFixed": true,
  "overrideProperties": [
    {
      "_class": "MSImmutableOverrideProperty",
      "canOverride": true,
      "overrideName": "F7FFEA9C-9D85-4AF0-AD9A-BABFB31E321B_stringValue"
    },
    {
      "_class": "MSImmutableOverrideProperty",
      "canOverride": true,
      "overrideName": "6CDD6AEE-64E0-48C7-8FD1-6E70702E3589_stringValue"
    },
    {
      "_class": "MSImmutableOverrideProperty",
      "canOverride": false,
      "overrideName": "4D644148-6434-4928-A5E8-3D42BFF9C770/91727CC7-E827-4EEC-9582-21DE23B309B4_layerStyle"
    },
    {
      "_class": "MSImmutableOverrideProperty",
      "canOverride": false,
      "overrideName": "6CDD6AEE-64E0-48C7-8FD1-6E70702E3589_textStyle"
    },
    {
      "_class": "MSImmutableOverrideProperty",
      "canOverride": false,
      "overrideName": "339C1728-A16B-4CB6-A841-A5E5A5C28CDF/05F26ECE-D8C0-4F06-911B-84E5ED35E9DC_layerStyle"
    },
    {
      "_class": "MSImmutableOverrideProperty",
      "canOverride": false,
      "overrideName": "B563C551-12F6-4B85-970E-898CD9FA8238_textStyle"
    },
    {
      "_class": "MSImmutableOverrideProperty",
      "canOverride": false,
      "overrideName": "F7FFEA9C-9D85-4AF0-AD9A-BABFB31E321B_textStyle"
    },
    {
      "_class": "MSImmutableOverrideProperty",
      "canOverride": false,
      "overrideName": "DD089846-0205-45AB-8608-BAC1AF650FD3_layerStyle"
    },
    {
      "_class": "MSImmutableOverrideProperty",
      "canOverride": false,
      "overrideName": "339C1728-A16B-4CB6-A841-A5E5A5C28CDF_symbolID"
    },
    {
      "_class": "MSImmutableOverrideProperty",
      "canOverride": false,
      "overrideName": "339C1728-A16B-4CB6-A841-A5E5A5C28CDF/3BB1E70A-AC1A-4444-926A-231E4FF23391_layerStyle"
    },
    {
      "_class": "MSImmutableOverrideProperty",
      "canOverride": true,
      "overrideName": "B563C551-12F6-4B85-970E-898CD9FA8238_stringValue"
    },
    {
      "_class": "MSImmutableOverrideProperty",
      "canOverride": false,
      "overrideName": "4D644148-6434-4928-A5E8-3D42BFF9C770_symbolID"
    },
    {
      "_class": "MSImmutableOverrideProperty",
      "canOverride": true,
      "overrideName": "6ACB8148-9BCC-4391-88F6-AC2F63BB631A_layerStyle"
    }
  ],
  "resizesContent": true,
  "resizingConstraint": 63,
  "resizingType": 0,
  "rotation": 0,
  "shouldBreakMaskChain": true,
  "style": {
    "_class": "style",
    "endMarkerType": 0,
    "miterLimit": 10,
    "startMarkerType": 0,
    "windingRule": 1
  },
  "symbolID": "4D93E8AE-9021-4FCE-BC45-9D0CE8F253E2",
  "verticalRulerData": {
    "_class": "rulerData",
    "base": 0,
    "guides": [
    ]
  }
}