{
  "_class": "group",
  "booleanOperation": -1,
  "clippingMaskMode": 0,
  "do_objectID": "8869F839-D4FE-463A-882F-903CDB2C0677",
  "exportOptions": {
    "_class": "exportOptions",
    "do_objectID": "D453943F-FF98-4915-BC3E-0D6402CBE15C",
    "exportFormats": [
    ],
    "includedLayerIds": [
    ],
    "layerOptions": 0,
    "shouldTrim": false
  },
  "frame": {
    "_class": "rect",
    "constrainProportions": false,
    "do_objectID": "D8E3E7AC-40C9-4871-A202-49D93314BE45",
    "height": 103,
    "width": 960,
    "x": 0,
    "y": 928
  },
  "groupLayout": {
    "_class": "MSImmutableFreeformGroupLayout"
  },
  "hasClickThrough": false,
  "hasClippingMask": false,
  "isFixedToViewport": false,
  "isFlippedHorizontal": false,
  "isFlippedVertical": false,
  "isLocked": false,
  "isVisible": true,
  "layerListExpandedType": 0,
  "layers": [
    {
      "class": "group",
      "id": "448D4FC6-3FD9-4174-B27D-9D959332CCD5"
    },
    {
      "class": "group",
      "id": "D9F0289D-7439-47EB-883D-E03489779E46"
    },
    {
      "class": "group",
      "id": "40C7152B-97C1-4DEC-94D3-1986E31EE6BE"
    }
  ],
  "name": "$interactive-03",
  "nameIsFixed": true,
  "resizingConstraint": 63,
  "resizingType": 0,
  "rotation": 0,
  "shouldBreakMaskChain": false,
  "style": {
    "_class": "style",
    "do_objectID": "349CBE75-7EEA-4F00-AC3E-182CD03A3F86",
    "endMarkerType": 0,
    "miterLimit": 10,
    "startMarkerType": 0,
    "windingRule": 1
  }
}