{
  "_class": "symbolInstance",
  "booleanOperation": -1,
  "clippingMaskMode": 0,
  "do_objectID": "834AF8DA-B1D6-4105-A4E4-C1FF4338BF4C",
  "exportOptions": {
    "_class": "exportOptions",
    "do_objectID": "CCA631F4-CDF8-44A6-8272-FF6CD9EF19C2",
    "exportFormats": [
    ],
    "includedLayerIds": [
    ],
    "layerOptions": 0,
    "shouldTrim": false
  },
  "frame": {
    "_class": "rect",
    "constrainProportions": false,
    "do_objectID": "0325F3DC-963C-4390-B6DF-4CA603A8298C",
    "height": 118,
    "width": 226,
    "x": 0,
    "y": 36
  },
  "hasClippingMask": false,
  "horizontalSpacing": 0,
  "isFixedToViewport": false,
  "isFlippedHorizontal": false,
  "isFlippedVertical": false,
  "isLocked": true,
  "isVisible": true,
  "layerListExpandedType": 0,
  "name": "Dropshadow",
  "nameIsFixed": true,
  "overrideValues": [
  ],
  "resizingConstraint": 27,
  "resizingType": 0,
  "rotation": 0,
  "scale": 1,
  "shouldBreakMaskChain": false,
  "style": {
    "_class": "style",
    "do_objectID": "49AA0718-CA96-403D-9B07-0EB2C6529EF1",
    "endMarkerType": 0,
    "miterLimit": 10,
    "startMarkerType": 0,
    "windingRule": 1
  },
  "symbolID": "68F4E950-995D-4981-B85D-087F2B1D9E01",
  "verticalSpacing": 0
}