{
  "_class": "group",
  "booleanOperation": 0,
  "clippingMaskMode": 0,
  "do_objectID": "3970D0C4-306B-48F0-8E00-94EE954F015D",
  "exportOptions": {
    "_class": "exportOptions",
    "do_objectID": "A904453A-722F-4274-9491-0EFA1461D62D",
    "exportFormats": [
    ],
    "includedLayerIds": [
    ],
    "layerOptions": 0,
    "shouldTrim": false
  },
  "frame": {
    "_class": "rect",
    "constrainProportions": false,
    "do_objectID": "8D4373F0-E06F-45D6-AC24-900E6B7CA51B",
    "height": 36,
    "width": 947,
    "x": 210,
    "y": 114
  },
  "groupLayout": {
    "_class": "MSImmutableFreeformGroupLayout",
    "do_objectID": "95CFB511-64E3-49CD-BA3E-DD7FE3739358"
  },
  "hasClickThrough": false,
  "hasClippingMask": false,
  "isFixedToViewport": false,
  "isFlippedHorizontal": false,
  "isFlippedVertical": false,
  "isLocked": false,
  "isVisible": true,
  "layerListExpandedType": 0,
  "layers": [
    {
      "class": "rectangle",
      "id": "B556F363-4686-452F-BA04-02C773F157A1"
    },
    {
      "class": "text",
      "id": "CFC3A904-E857-4C35-8934-7B74E9CCC235"
    }
  ],
  "name": "Group",
  "nameIsFixed": false,
  "resizingConstraint": 63,
  "resizingType": 0,
  "rotation": 0,
  "shouldBreakMaskChain": false,
  "style": {
    "_class": "style",
    "do_objectID": "C141CDBE-1AE2-449C-B9DF-A1A8BD734724",
    "endMarkerType": 0,
    "miterLimit": 10,
    "startMarkerType": 0,
    "windingRule": 1
  }
}