{
  "_class": "group",
  "booleanOperation": 0,
  "clippingMaskMode": 0,
  "do_objectID": "B1B60776-42E9-428C-A810-6B2254856E34",
  "exportOptions": {
    "_class": "exportOptions",
    "do_objectID": "ACCA8F7C-17F8-415C-8F86-AB86DC7F609E",
    "exportFormats": [
    ],
    "includedLayerIds": [
    ],
    "layerOptions": 0,
    "shouldTrim": false
  },
  "frame": {
    "_class": "rect",
    "constrainProportions": false,
    "do_objectID": "BBC0E957-6B0A-4D88-916A-34EE1EBC4FE5",
    "height": 482.9999999999999,
    "width": 435.0000000000011,
    "x": 0,
    "y": 0
  },
  "groupLayout": {
    "_class": "MSImmutableFreeformGroupLayout",
    "do_objectID": "15F22B98-4CC3-4C89-9D40-8E88EF742328"
  },
  "hasClickThrough": false,
  "hasClippingMask": false,
  "isFixedToViewport": false,
  "isFlippedHorizontal": false,
  "isFlippedVertical": false,
  "isLocked": false,
  "isVisible": true,
  "layerListExpandedType": 0,
  "layers": [
    {
      "class": "rectangle",
      "id": "37D692AD-5FAE-4AC0-B947-C985C4581E70"
    },
    {
      "class": "bitmap",
      "id": "6839377A-934A-45F9-AC74-D3F3D4235173"
    }
  ],
  "name": "MP000000001308826_658Wx734H_20170406004843",
  "nameIsFixed": false,
  "resizingConstraint": 63,
  "resizingType": 0,
  "rotation": 0,
  "shouldBreakMaskChain": false,
  "style": {
    "_class": "style",
    "do_objectID": "4CA3AFC7-F90C-4512-B4F8-49E3C89CDA64",
    "endMarkerType": 0,
    "miterLimit": 10,
    "startMarkerType": 0,
    "windingRule": 1
  }
}