{
  "_class": "sharedStyle",
  "do_objectID": "6F869563-F74B-493C-9CD0-D8240AC76989",
  "name": "state / hover-danger",
  "value": {
    "_class": "style",
    "endMarkerType": 0,
    "fills": [
      {
        "_class": "fill",
        "color": {
          "_class": "color",
          "alpha": 1,
          "blue": 0.1372549019607843,
          "green": 0.1058823529411765,
          "red": 0.7294117647058823
        },
        "fillType": 0,
        "isEnabled": true,
        "noiseIndex": 0,
        "noiseIntensity": 0,
        "patternFillType": 0,
        "patternTileScale": 1
      }
    ],
    "miterLimit": 10,
    "startMarkerType": 0,
    "windingRule": 1
  }
}