{
  "_class": "group",
  "booleanOperation": 0,
  "clippingMaskMode": 0,
  "do_objectID": "ECA1B155-CBDE-4443-9083-92785F7E24E2",
  "exportOptions": {
    "_class": "exportOptions",
    "do_objectID": "D32622E8-1F01-4331-BF89-85C82C894B35",
    "exportFormats": [
    ],
    "includedLayerIds": [
    ],
    "layerOptions": 0,
    "shouldTrim": false
  },
  "frame": {
    "_class": "rect",
    "constrainProportions": true,
    "do_objectID": "E07B7F80-FC66-4FA4-A799-C86F1C12AF01",
    "height": 160,
    "width": 290,
    "x": 68,
    "y": 198
  },
  "groupLayout": {
    "_class": "MSImmutableFreeformGroupLayout",
    "do_objectID": "1BD4A7FD-BB3A-407F-9C0F-4DA76AF5286C"
  },
  "hasClickThrough": false,
  "hasClippingMask": false,
  "isFixedToViewport": false,
  "isFlippedHorizontal": false,
  "isFlippedVertical": false,
  "isLocked": false,
  "isVisible": true,
  "layerListExpandedType": 0,
  "layers": [
    {
      "class": "rectangle",
      "id": "454D6F88-1B91-48A0-95BC-99095A98B6C7"
    },
    {
      "class": "shapePath",
      "id": "EC94AE37-9C86-40FC-BDAF-8FDB276BAB43"
    },
    {
      "class": "text",
      "id": "4ACECAD1-8219-4DBC-A588-91B0750C54E3"
    },
    {
      "class": "text",
      "id": "440A37B7-3F56-440D-8ECD-0CE0147275B8"
    },
    {
      "class": "shapePath",
      "id": "B7C6CD88-BE95-41C7-A01B-7462C149F75B"
    },
    {
      "class": "text",
      "id": "1ED4E42D-17DF-4877-B3D4-EDAA0F0DF764"
    },
    {
      "class": "shapePath",
      "id": "38539488-AADC-4C48-A42C-056DBD616157"
    },
    {
      "class": "text",
      "id": "91F04801-EDBF-4B55-807E-7670280B154B"
    }
  ],
  "name": "Group 4",
  "nameIsFixed": false,
  "resizingConstraint": 63,
  "resizingType": 0,
  "rotation": 0,
  "shouldBreakMaskChain": false,
  "style": {
    "_class": "style",
    "do_objectID": "DF67275F-B3FD-4641-ABA6-5DCD79861287",
    "endMarkerType": 0,
    "miterLimit": 10,
    "startMarkerType": 0,
    "windingRule": 1
  }
}