{
  "_class": "group",
  "booleanOperation": 0,
  "clippingMaskMode": 0,
  "do_objectID": "A7267662-0BFF-4BCF-94BF-4796042A3C4F",
  "exportOptions": {
    "_class": "exportOptions",
    "do_objectID": "0F8CA1B5-CC33-475E-A722-D74F2C99A70E",
    "exportFormats": [
    ],
    "includedLayerIds": [
    ],
    "layerOptions": 0,
    "shouldTrim": false
  },
  "frame": {
    "_class": "rect",
    "constrainProportions": true,
    "do_objectID": "D066C0A6-2109-42C5-BF09-91F09F9286B0",
    "height": 12,
    "width": 13,
    "x": 57.89090909090905,
    "y": 0
  },
  "groupLayout": {
    "_class": "MSImmutableFreeformGroupLayout",
    "do_objectID": "A85E71A5-F3D0-4D24-AB0F-1DC1B1A49B1C"
  },
  "hasClickThrough": false,
  "hasClippingMask": false,
  "isFixedToViewport": false,
  "isFlippedHorizontal": false,
  "isFlippedVertical": false,
  "isLocked": false,
  "isVisible": true,
  "layerListExpandedType": 0,
  "layers": [
    {
      "class": "shapeGroup",
      "id": "F9884AE0-708E-48F2-AFAA-74DF5488CF72"
    }
  ],
  "name": "star border icon",
  "nameIsFixed": true,
  "resizingConstraint": 63,
  "resizingType": 0,
  "rotation": 0,
  "shouldBreakMaskChain": false,
  "style": {
    "_class": "style",
    "do_objectID": "50D74D91-D358-4AD2-A272-361317DE19B9",
    "endMarkerType": 0,
    "miterLimit": 10,
    "startMarkerType": 0,
    "windingRule": 1
  }
}