{
  "_class": "symbolInstance",
  "booleanOperation": -1,
  "clippingMaskMode": 0,
  "do_objectID": "3CC770F7-9135-4F96-899D-7CE6E06B2359",
  "exportOptions": {
    "_class": "exportOptions",
    "do_objectID": "7B7206DA-4DB3-4CB7-AADC-E96E38857D01",
    "exportFormats": [
    ],
    "includedLayerIds": [
    ],
    "layerOptions": 0,
    "shouldTrim": false
  },
  "frame": {
    "_class": "rect",
    "constrainProportions": false,
    "do_objectID": "F3B53A1A-390C-4F14-BEA4-0BBDBEDCEB61",
    "height": 40,
    "width": 125,
    "x": 125,
    "y": 0
  },
  "hasClippingMask": false,
  "horizontalSpacing": 0,
  "isFixedToViewport": false,
  "isFlippedHorizontal": false,
  "isFlippedVertical": false,
  "isLocked": false,
  "isVisible": true,
  "layerListExpandedType": 0,
  "name": "Tab 2",
  "nameIsFixed": true,
  "overrideValues": [
  ],
  "resizingConstraint": 63,
  "resizingType": 0,
  "rotation": 0,
  "scale": 1,
  "shouldBreakMaskChain": false,
  "style": {
    "_class": "style",
    "do_objectID": "D04167CD-8D91-47E1-B34A-A19A7D8B0B24",
    "endMarkerType": 0,
    "miterLimit": 10,
    "startMarkerType": 0,
    "windingRule": 1
  },
  "symbolID": "5A5B88C1-A1F2-4740-BC01-DDE73EACC26A",
  "verticalSpacing": 0
}