{
  "_class": "symbolInstance",
  "booleanOperation": -1,
  "clippingMaskMode": 0,
  "do_objectID": "588D6316-CD75-4685-AC17-E3FE6475F9AC",
  "exportOptions": {
    "_class": "exportOptions",
    "do_objectID": "81FD3431-570F-4A42-B212-2AF3D3F3FD1D",
    "exportFormats": [
    ],
    "includedLayerIds": [
    ],
    "layerOptions": 0,
    "shouldTrim": false
  },
  "frame": {
    "_class": "rect",
    "constrainProportions": false,
    "do_objectID": "AA992D2B-7C9A-4962-9239-F9B543E4A2E7",
    "height": 40,
    "width": 125,
    "x": 250,
    "y": 0
  },
  "hasClippingMask": false,
  "horizontalSpacing": 0,
  "isFixedToViewport": false,
  "isFlippedHorizontal": false,
  "isFlippedVertical": false,
  "isLocked": false,
  "isVisible": true,
  "layerListExpandedType": 0,
  "name": "Tab 3",
  "nameIsFixed": true,
  "overrideValues": [
  ],
  "resizingConstraint": 63,
  "resizingType": 0,
  "rotation": 0,
  "scale": 1,
  "shouldBreakMaskChain": false,
  "style": {
    "_class": "style",
    "do_objectID": "DCD831E3-B92E-4505-B0DE-A885C85C0617",
    "endMarkerType": 0,
    "miterLimit": 10,
    "startMarkerType": 0,
    "windingRule": 1
  },
  "symbolID": "5A5B88C1-A1F2-4740-BC01-DDE73EACC26A",
  "verticalSpacing": 0
}