{
  "_class": "symbolInstance",
  "booleanOperation": -1,
  "clippingMaskMode": 0,
  "do_objectID": "53990155-B31B-41D4-A6AF-2CFA1D733A8B",
  "exportOptions": {
    "_class": "exportOptions",
    "do_objectID": "F1A68FDB-0F7A-4BF3-8AC5-9180484DD4FA",
    "exportFormats": [
    ],
    "includedLayerIds": [
    ],
    "layerOptions": 0,
    "shouldTrim": false
  },
  "frame": {
    "_class": "rect",
    "constrainProportions": false,
    "do_objectID": "2C817307-A8EB-46CF-ABA8-9C43D973C9A5",
    "height": 600,
    "width": 256,
    "x": 1192,
    "y": 168
  },
  "hasClippingMask": false,
  "horizontalSpacing": 0,
  "isFixedToViewport": false,
  "isFlippedHorizontal": false,
  "isFlippedVertical": false,
  "isLocked": false,
  "isVisible": true,
  "layerListExpandedType": 0,
  "name": "ui shell / right panel / base",
  "nameIsFixed": true,
  "overrideValues": [
  ],
  "resizingConstraint": 63,
  "resizingType": 0,
  "rotation": 0,
  "scale": 1,
  "shouldBreakMaskChain": false,
  "style": {
    "_class": "style",
    "do_objectID": "96434910-225E-48FC-AB86-B457C1B405B5",
    "endMarkerType": 0,
    "miterLimit": 10,
    "startMarkerType": 0,
    "windingRule": 1
  },
  "symbolID": "706B7F4E-0DF3-4548-8486-22CB4AC8A300",
  "verticalSpacing": 0
}