{
  "_class": "shapePath",
  "booleanOperation": -1,
  "clippingMaskMode": 0,
  "do_objectID": "ED24E117-FBA4-4F70-9C23-077210357459",
  "edited": true,
  "exportOptions": {
    "_class": "exportOptions",
    "do_objectID": "D9FBD83B-D781-4F33-AE78-83893EC64746",
    "exportFormats": [
    ],
    "includedLayerIds": [
    ],
    "layerOptions": 0,
    "shouldTrim": false
  },
  "frame": {
    "_class": "rect",
    "constrainProportions": false,
    "do_objectID": "80A7A952-25F0-4C82-A8CE-4AA28B121CD3",
    "height": 14,
    "width": 14.01826477050781,
    "x": 0,
    "y": 0
  },
  "hasClippingMask": false,
  "isClosed": true,
  "isFixedToViewport": false,
  "isFlippedHorizontal": true,
  "isFlippedVertical": false,
  "isLocked": false,
  "isVisible": true,
  "layerListExpandedType": 0,
  "name": "arrow icon",
  "nameIsFixed": true,
  "originalObjectID": "99908BEB-754C-443F-ADFC-4D5CE2BE3966",
  "pointRadiusBehaviour": 0,
  "points": [
    {
      "_class": "curvePoint",
      "cornerRadius": 0,
      "curveFrom": "{0, 0.49999999999999972}",
      "curveMode": 1,
      "curveTo": "{0, 0.49999999999999972}",
      "hasCurveFrom": false,
      "hasCurveTo": false,
      "point": "{0, 0.49999999999999972}"
    },
    {
      "_class": "curvePoint",
      "cornerRadius": 0,
      "curveFrom": "{0.52988922879144451, 0.99999999999999978}",
      "curveMode": 1,
      "curveTo": "{0.52988922879144451, 0.99999999999999978}",
      "hasCurveFrom": false,
      "hasCurveTo": false,
      "point": "{0.52988922879144451, 0.99999999999999978}"
    },
    {
      "_class": "curvePoint",
      "cornerRadius": 0,
      "curveFrom": "{0.63938797824319338, 0.87668602807181184}",
      "curveMode": 1,
      "curveTo": "{0.63938797824319338, 0.87668602807181184}",
      "hasCurveFrom": false,
      "hasCurveTo": false,
      "point": "{0.63938797824319338, 0.87668602807181184}"
    },
    {
      "_class": "curvePoint",
      "cornerRadius": 0,
      "curveFrom": "{0.29266232634447986, 0.57210431780133919}",
      "curveMode": 1,
      "curveTo": "{0.29266232634447986, 0.57210431780133919}",
      "hasCurveFrom": false,
      "hasCurveTo": false,
      "point": "{0.29266232634447986, 0.57210431780133919}"
    },
    {
      "_class": "curvePoint",
      "cornerRadius": 0,
      "curveFrom": "{1, 0.57210431780133897}",
      "curveMode": 1,
      "curveTo": "{1, 0.57210431780133897}",
      "hasCurveFrom": false,
      "hasCurveTo": false,
      "point": "{1, 0.57210431780133897}"
    },
    {
      "_class": "curvePoint",
      "cornerRadius": 0,
      "curveFrom": "{0.99544465500745072, 0.42677961077008897}",
      "curveMode": 1,
      "curveTo": "{0.99544465500745072, 0.42677961077008897}",
      "hasCurveFrom": false,
      "hasCurveTo": false,
      "point": "{0.99544465500745072, 0.42677961077008897}"
    },
    {
      "_class": "curvePoint",
      "cornerRadius": 0,
      "curveFrom": "{0.29266232634447986, 0.42677961077008919}",
      "curveMode": 1,
      "curveTo": "{0.29266232634447986, 0.42677961077008919}",
      "hasCurveFrom": false,
      "hasCurveTo": false,
      "point": "{0.29266232634447986, 0.42677961077008919}"
    },
    {
      "_class": "curvePoint",
      "cornerRadius": 0,
      "curveFrom": "{0.63938797824319338, 0.12082138231822397}",
      "curveMode": 1,
      "curveTo": "{0.63938797824319338, 0.12082138231822397}",
      "hasCurveFrom": false,
      "hasCurveTo": false,
      "point": "{0.63938797824319338, 0.12082138231822397}"
    },
    {
      "_class": "curvePoint",
      "cornerRadius": 0,
      "curveFrom": "{0.5215892616624318, -2.5376526277146454e-16}",
      "curveMode": 1,
      "curveTo": "{0.5215892616624318, -2.5376526277146454e-16}",
      "hasCurveFrom": false,
      "hasCurveTo": false,
      "point": "{0.5215892616624318, -2.5376526277146454e-16}"
    }
  ],
  "resizingConstraint": 63,
  "resizingType": 0,
  "rotation": 360,
  "shouldBreakMaskChain": false,
  "style": {
    "_class": "style",
    "borders": [
      {
        "_class": "border",
        "color": {
          "_class": "color",
          "alpha": 1,
          "blue": 0.6078431372549019,
          "green": 0.6078431372549019,
          "red": 0.6078431372549019
        },
        "fillType": 0,
        "isEnabled": false,
        "position": 0,
        "thickness": 1
      }
    ],
    "do_objectID": "169C4D59-BD5B-4F5D-816B-189FC1280803",
    "endMarkerType": 0,
    "fills": [
      {
        "_class": "fill",
        "color": {
          "_class": "color",
          "alpha": 1,
          "blue": 0.6078431372549019,
          "green": 0.6078431372549019,
          "red": 0.6078431372549019
        },
        "fillType": 0,
        "isEnabled": true,
        "noiseIndex": 0,
        "noiseIntensity": 0,
        "patternFillType": 0,
        "patternTileScale": 1
      }
    ],
    "miterLimit": 10,
    "startMarkerType": 0,
    "windingRule": 1
  }
}