{
  "_class": "shapePath",
  "booleanOperation": 0,
  "clippingMaskMode": 0,
  "do_objectID": "57DECB87-BA06-44EE-A5F0-CE548D44A759",
  "edited": true,
  "exportOptions": {
    "_class": "exportOptions",
    "exportFormats": [
    ],
    "includedLayerIds": [
    ],
    "layerOptions": 0,
    "shouldTrim": false
  },
  "frame": {
    "_class": "rect",
    "constrainProportions": false,
    "height": 3.966333676025895,
    "width": 2.842403352837898,
    "x": 3.572005408950645,
    "y": -0.5618647412639746
  },
  "hasClippingMask": false,
  "isClosed": true,
  "isFixedToViewport": false,
  "isFlippedHorizontal": false,
  "isFlippedVertical": false,
  "isLocked": false,
  "isVisible": true,
  "layerListExpandedType": 0,
  "name": "stroke 3",
  "nameIsFixed": false,
  "pointRadiusBehaviour": 1,
  "points": [
    {
      "_class": "curvePoint",
      "cornerRadius": 0,
      "curveFrom": "{0.86276317900219635, 0.7280155835510137}",
      "curveMode": 4,
      "curveTo": "{1, 0.76086393477099756}",
      "hasCurveFrom": true,
      "hasCurveTo": false,
      "point": "{1, 0.76086393477099756}"
    },
    {
      "_class": "curvePoint",
      "cornerRadius": 0,
      "curveFrom": "{0.46635835554458815, 0.4407819518267399}",
      "curveMode": 3,
      "curveTo": "{0.62194969569868008, 0.60191194089703715}",
      "hasCurveFrom": true,
      "hasCurveTo": true,
      "point": "{0.55259609162247914, 0.52979670343427354}"
    },
    {
      "_class": "curvePoint",
      "cornerRadius": 0,
      "curveFrom": "{0.36891691004912563, 0.27547048205588515}",
      "curveMode": 3,
      "curveTo": "{0.40797904144575037, 0.36355372074543435}",
      "hasCurveFrom": true,
      "hasCurveTo": true,
      "point": "{0.37878138194297106, 0.2975183768808502}"
    },
    {
      "_class": "curvePoint",
      "cornerRadius": 0,
      "curveFrom": "{0.35154037626832679, 0.13786971814845955}",
      "curveMode": 2,
      "curveTo": "{0.36096729538745609, 0.23730814256380647}",
      "hasCurveFrom": true,
      "hasCurveTo": true,
      "point": "{0.35643537130876091, 0.18950382980154287}"
    },
    {
      "_class": "curvePoint",
      "cornerRadius": 0,
      "curveFrom": "{0.35354856656584632, 0.014550137600334329}",
      "curveMode": 3,
      "curveTo": "{0.35091405360190231, 0.081816727302466266}",
      "hasCurveFrom": true,
      "hasCurveTo": true,
      "point": "{0.35283363158164782, 0.030872582511070203}"
    },
    {
      "_class": "curvePoint",
      "cornerRadius": 0,
      "curveFrom": "{0.35373996341702341, 0.011641462154524296}",
      "curveMode": 4,
      "curveTo": "{0.35354856656584632, 0.014550137600334329}",
      "hasCurveFrom": false,
      "hasCurveTo": true,
      "point": "{0.35373996341702341, 0.011641462154524296}"
    },
    {
      "_class": "curvePoint",
      "cornerRadius": 0,
      "curveFrom": "{0.0019767204401298084, 0.0050746276526470466}",
      "curveMode": 4,
      "curveTo": "{0.0023002514559187642, 0}",
      "hasCurveFrom": true,
      "hasCurveTo": false,
      "point": "{0.0023002514559187642, 0}"
    },
    {
      "_class": "curvePoint",
      "cornerRadius": 0,
      "curveFrom": "{-0.0010475448082946748, 0.082305230844789648}",
      "curveMode": 3,
      "curveTo": "{0.0019767204401298084, 0.0050746276526470466}",
      "hasCurveFrom": true,
      "hasCurveTo": true,
      "point": "{0.0011468718234303105, 0.024067076521898063}"
    },
    {
      "_class": "curvePoint",
      "cornerRadius": 0,
      "curveFrom": "{0.011729081248631524, 0.27304293171813182}",
      "curveMode": 2,
      "curveTo": "{-0.00033864678249021456, 0.14574833562335685}",
      "hasCurveFrom": true,
      "hasCurveTo": true,
      "point": "{0.0054295299930086473, 0.20659307217582099}"
    },
    {
      "_class": "curvePoint",
      "cornerRadius": 0,
      "curveFrom": "{0.084959596282602592, 0.46766806342813411}",
      "curveMode": 3,
      "curveTo": "{0.023365113909001565, 0.32890202019282955}",
      "hasCurveFrom": true,
      "hasCurveTo": true,
      "point": "{0.04358455379491228, 0.37408906163867439}"
    },
    {
      "_class": "curvePoint",
      "cornerRadius": 0,
      "curveFrom": "{0.37657485736654928, 0.79105543098727338}",
      "curveMode": 3,
      "curveTo": "{0.15899119616202301, 0.56560223053957082}",
      "hasCurveFrom": true,
      "hasCurveTo": true,
      "point": "{0.26325940888670329, 0.67322648586420419}"
    },
    {
      "_class": "curvePoint",
      "cornerRadius": 0,
      "curveFrom": "{0.88854614709783397, 1}",
      "curveMode": 4,
      "curveTo": "{0.68048289283115571, 0.95019897136619014}",
      "hasCurveFrom": false,
      "hasCurveTo": true,
      "point": "{0.88854614709783397, 1}"
    }
  ],
  "resizingConstraint": 63,
  "resizingType": 0,
  "rotation": -90,
  "shouldBreakMaskChain": false,
  "style": {
    "_class": "style",
    "endMarkerType": 0,
    "fills": [
      {
        "_class": "fill",
        "color": {
          "_class": "color",
          "alpha": 1,
          "blue": 0,
          "green": 0,
          "red": 0
        },
        "fillType": 0,
        "isEnabled": true,
        "noiseIndex": 0,
        "noiseIntensity": 0,
        "patternFillType": 1,
        "patternTileScale": 1
      }
    ],
    "miterLimit": 10,
    "startMarkerType": 0,
    "windingRule": 0
  }
}