{
  "_class": "shapeGroup",
  "booleanOperation": 0,
  "clippingMaskMode": 0,
  "do_objectID": "9B3FD89D-A3D9-44CF-9B75-9D242693D604",
  "exportOptions": {
    "_class": "exportOptions",
    "do_objectID": "0553D225-35AA-4B75-83BD-5F152D4C7013",
    "exportFormats": [
    ],
    "includedLayerIds": [
    ],
    "layerOptions": 0,
    "shouldTrim": false
  },
  "frame": {
    "_class": "rect",
    "constrainProportions": false,
    "do_objectID": "3B870144-F2AA-4AEA-8C86-5E0EC30EDE27",
    "height": 2.841451558201346,
    "width": 6.976373923381685,
    "x": 2.566835632933362e-13,
    "y": 11.1264015974121
  },
  "groupLayout": {
    "_class": "MSImmutableFreeformGroupLayout",
    "do_objectID": "D01CADC0-8F09-47ED-94EE-033B4668666F"
  },
  "hasClickThrough": false,
  "hasClippingMask": false,
  "isFixedToViewport": false,
  "isFlippedHorizontal": false,
  "isFlippedVertical": false,
  "isLocked": false,
  "isVisible": true,
  "layerListExpandedType": 1,
  "layers": [
    {
      "class": "shapePath",
      "id": "4E3F362F-6329-474C-81EB-5DEE7791E780"
    },
    {
      "class": "shapePath",
      "id": "DE268C87-D5A8-45F6-80F4-CDD28E1B3ED6"
    }
  ],
  "name": "Combined Shape",
  "nameIsFixed": false,
  "resizingConstraint": 63,
  "resizingType": 0,
  "rotation": 0,
  "shouldBreakMaskChain": false,
  "style": {
    "_class": "style",
    "do_objectID": "15C51D1B-BC76-40C8-A316-1FD8F71DF4F2",
    "endMarkerType": 0,
    "fills": [
      {
        "_class": "fill",
        "color": {
          "_class": "color",
          "alpha": 1,
          "blue": 0,
          "green": 0,
          "red": 0
        },
        "fillType": 0,
        "isEnabled": true,
        "noiseIndex": 0,
        "noiseIntensity": 0,
        "patternFillType": 1,
        "patternTileScale": 1
      }
    ],
    "miterLimit": 10,
    "startMarkerType": 0,
    "windingRule": 0
  },
  "windingRule": 0
}