{
  "_class": "shapePath",
  "booleanOperation": -1,
  "clippingMaskMode": 0,
  "do_objectID": "0151B4BA-3D1A-4A8E-88C8-174BEDCC94AB",
  "edited": true,
  "exportOptions": {
    "_class": "exportOptions",
    "exportFormats": [
    ],
    "includedLayerIds": [
    ],
    "layerOptions": 0,
    "shouldTrim": false
  },
  "frame": {
    "_class": "rect",
    "constrainProportions": false,
    "height": 15.30876435999464,
    "width": 14.39612558337642,
    "x": 0.3663386798064483,
    "y": 0.3867911955609005
  },
  "hasClippingMask": false,
  "isClosed": true,
  "isFixedToViewport": false,
  "isFlippedHorizontal": false,
  "isFlippedVertical": false,
  "isLocked": false,
  "isVisible": true,
  "layerListExpandedType": 0,
  "name": "Shape",
  "nameIsFixed": false,
  "pointRadiusBehaviour": 1,
  "points": [
    {
      "_class": "curvePoint",
      "cornerRadius": 0,
      "curveFrom": "{0.18224773776794234, 0.75337293939790817}",
      "curveMode": 4,
      "curveTo": "{0.20169741527862775, 0.77688888043236315}",
      "hasCurveFrom": true,
      "hasCurveTo": false,
      "point": "{0.20169741527862775, 0.77688888043236315}"
    },
    {
      "_class": "curvePoint",
      "cornerRadius": 0,
      "curveFrom": "{0.091251032271521038, 0.6135837343597591}",
      "curveMode": 4,
      "curveTo": "{0.15793564087958542, 0.70568783674470781}",
      "hasCurveFrom": true,
      "hasCurveTo": true,
      "point": "{0.11556312915987785, 0.64624476357427996}"
    },
    {
      "_class": "curvePoint",
      "cornerRadius": 0,
      "curveFrom": "{0.00043294362793927526, 0.50006905938052792}",
      "curveMode": 4,
      "curveTo": "{0.031512737060129893, 0.55152777885216964}",
      "hasCurveFrom": true,
      "hasCurveTo": true,
      "point": "{0.01345232222877912, 0.51951997022193908}"
    },
    {
      "_class": "curvePoint",
      "cornerRadius": 0,
      "curveFrom": "{0.013935783483965476, 0.41201350357316485}",
      "curveMode": 4,
      "curveTo": "{-0.0033448922605513695, 0.47638493587011199}",
      "hasCurveFrom": true,
      "hasCurveTo": true,
      "point": "{0.0030328521337689026, 0.45419791179289731}"
    },
    {
      "_class": "curvePoint",
      "cornerRadius": 0,
      "curveFrom": "{0.13784698609470306, 0.39557860315365662}",
      "curveMode": 4,
      "curveTo": "{0.056488982546699013, 0.3840300271894912}",
      "hasCurveFrom": true,
      "hasCurveTo": true,
      "point": "{0.10236513370619846, 0.38887585336385605}"
    },
    {
      "_class": "curvePoint",
      "cornerRadius": 0,
      "curveFrom": "{0.2140743954099221, 0.45179230633504625}",
      "curveMode": 4,
      "curveTo": "{0.17045448643395206, 0.41193251768453476}",
      "hasCurveFrom": true,
      "hasCurveTo": true,
      "point": "{0.19614036456128905, 0.43590773543276606}"
    },
    {
      "_class": "curvePoint",
      "cornerRadius": 0,
      "curveFrom": "{0.25657329111234761, 0.50057657327751759}",
      "curveMode": 4,
      "curveTo": "{0.23057097948820879, 0.46905339787430883}",
      "hasCurveFrom": true,
      "hasCurveTo": true,
      "point": "{0.24545918967767022, 0.48751216159170913}"
    },
    {
      "_class": "curvePoint",
      "cornerRadius": 0,
      "curveFrom": "{0.28435854469904132, 0.53585048482919995}",
      "curveMode": 2,
      "curveTo": "{0.2593518164710169, 0.50580233795184082}",
      "hasCurveFrom": true,
      "hasCurveTo": true,
      "point": "{0.27185518058502911, 0.52082641139052044}"
    },
    {
      "_class": "curvePoint",
      "cornerRadius": 0,
      "curveFrom": "{0.28158001934037191, 0.4960040291874846}",
      "curveMode": 4,
      "curveTo": "{0.2926941207750493, 0.55087455826787957}",
      "hasCurveFrom": true,
      "hasCurveTo": true,
      "point": "{0.28644243871804326, 0.52866505840200539}"
    },
    {
      "_class": "curvePoint",
      "cornerRadius": 0,
      "curveFrom": "{0.25240550307434367, 0.35490838298075472}",
      "curveMode": 3,
      "curveTo": "{0.27324444326436387, 0.44113350010708963}",
      "hasCurveFrom": true,
      "hasCurveTo": true,
      "point": "{0.26143571049001912, 0.3921419562853084}"
    },
    {
      "_class": "curvePoint",
      "cornerRadius": 0,
      "curveFrom": "{0.23365045690332573, 0.2928524274731652}",
      "curveMode": 2,
      "curveTo": "{0.25032160905534173, 0.34902939772214098}",
      "hasCurveFrom": true,
      "hasCurveTo": true,
      "point": "{0.24198603297933374, 0.32094091259765306}"
    },
    {
      "_class": "curvePoint",
      "cornerRadius": 0,
      "curveFrom": "{0.21150329993672107, 0.20588079653385846}",
      "curveMode": 4,
      "curveTo": "{0.22878803752565435, 0.26933648643871022}",
      "hasCurveFrom": true,
      "hasCurveTo": true,
      "point": "{0.2197578301099789, 0.23732867780847983}"
    },
    {
      "_class": "curvePoint",
      "cornerRadius": 0,
      "curveFrom": "{0.19155253111293422, 0.10091688783799016}",
      "curveMode": 4,
      "curveTo": "{0.20501112939721511, 0.17404686834164559}",
      "hasCurveFrom": true,
      "hasCurveTo": true,
      "point": "{0.20030815259929385, 0.14195847250207924}"
    },
    {
      "_class": "curvePoint",
      "cornerRadius": 0,
      "curveFrom": "{0.24263850190060743, -0.0003541548677124759}",
      "curveMode": 4,
      "curveTo": "{0.19792239375161164, 0.058294876925993583}",
      "hasCurveFrom": true,
      "hasCurveTo": true,
      "point": "{0.21836856743064462, 0.021112664408352359}"
    },
    {
      "_class": "curvePoint",
      "cornerRadius": 0,
      "curveFrom": "{0.33927585981374625, 0.027993444929224516}",
      "curveMode": 4,
      "curveTo": "{0.27824095308661889, -0.006020000220961017}",
      "hasCurveFrom": true,
      "hasCurveTo": true,
      "point": "{0.3086706415873986, 0.0067418115539631578}"
    },
    {
      "_class": "curvePoint",
      "cornerRadius": 0,
      "curveFrom": "{0.39216985707158497, 0.13349198526124159}",
      "curveMode": 4,
      "curveTo": "{0.36209483295366662, 0.057670245904789565}",
      "hasCurveFrom": true,
      "hasCurveTo": true,
      "point": "{0.37396598751612836, 0.09166048751171732}"
    },
    {
      "_class": "curvePoint",
      "cornerRadius": 0,
      "curveFrom": "{0.42120091861350728, 0.28762666279884219}",
      "curveMode": 4,
      "curveTo": "{0.40431866668666355, 0.17743257349966321}",
      "hasCurveFrom": true,
      "hasCurveTo": true,
      "point": "{0.41008681717882989, 0.22230460436980057}"
    },
    {
      "_class": "curvePoint",
      "cornerRadius": 0,
      "curveFrom": "{0.44342912148286212, 0.37842432401521003}",
      "curveMode": 4,
      "curveTo": "{0.44273449014319483, 0.38299686810524297}",
      "hasCurveFrom": true,
      "hasCurveTo": true,
      "point": "{0.44342912148286212, 0.40259348563395542}"
    },
    {
      "_class": "curvePoint",
      "cornerRadius": 0,
      "curveFrom": "{0.44824659911542963, 0.28077595451971121}",
      "curveMode": 4,
      "curveTo": "{0.43856670210519078, 0.32747311844055754}",
      "hasCurveFrom": true,
      "hasCurveTo": true,
      "point": "{0.44342912148286212, 0.30461039799039302}"
    },
    {
      "_class": "curvePoint",
      "cornerRadius": 0,
      "curveFrom": "{0.51065617838526756, 0.24638396077025604}",
      "curveMode": 4,
      "curveTo": "{0.46586282517279531, 0.26099562385903013}",
      "hasCurveFrom": true,
      "hasCurveTo": true,
      "point": "{0.4899694212405738, 0.25235275124715967}"
    },
    {
      "_class": "curvePoint",
      "cornerRadius": 0,
      "curveFrom": "{0.57541162435155169, 0.25266733616961651}",
      "curveMode": 4,
      "curveTo": "{0.53253958961498271, 0.24504186368563677}",
      "hasCurveFrom": true,
      "hasCurveTo": true,
      "point": "{0.55387550448996903, 0.24843342774141725}"
    },
    {
      "_class": "curvePoint",
      "cornerRadius": 0,
      "curveFrom": "{0.62345540422491386, 0.31920288825641607}",
      "curveMode": 4,
      "curveTo": "{0.59448808891611726, 0.26431617556527343}",
      "hasCurveFrom": true,
      "hasCurveTo": true,
      "point": "{0.60736211764435377, 0.28109445695593804}"
    },
    {
      "_class": "curvePoint",
      "cornerRadius": 0,
      "curveFrom": "{0.63561823176596166, 0.36474500186596209}",
      "curveMode": 4,
      "curveTo": "{0.632386835656636, 0.35965060862541137}",
      "hasCurveFrom": true,
      "hasCurveTo": true,
      "point": "{0.63375810855171255, 0.40063382388108421}"
    },
    {
      "_class": "curvePoint",
      "cornerRadius": 0,
      "curveFrom": "{0.6648153613073885, 0.27943195874029481}",
      "curveMode": 4,
      "curveTo": "{0.6421501815788605, 0.32920599308286352}",
      "hasCurveFrom": true,
      "hasCurveTo": true,
      "point": "{0.6532077860623976, 0.29481208922603613}"
    },
    {
      "_class": "curvePoint",
      "cornerRadius": 0,
      "curveFrom": "{0.7241013844809373, 0.2595091173382657}",
      "curveMode": 4,
      "curveTo": "{0.68176631863084136, 0.26834297196810653}",
      "hasCurveFrom": true,
      "hasCurveTo": true,
      "point": "{0.70113734849944398, 0.26345750118009625}"
    },
    {
      "_class": "curvePoint",
      "cornerRadius": 0,
      "curveFrom": "{0.78943155301912726, 0.26937769409167195}",
      "curveMode": 4,
      "curveTo": "{0.74763644648468475, 0.2595091173382657}",
      "hasCurveFrom": true,
      "hasCurveTo": true,
      "point": "{0.77060048246617774, 0.26345750118009625}"
    },
    {
      "_class": "curvePoint",
      "cornerRadius": 0,
      "curveFrom": "{0.83254565944810643, 0.33010859986173119}",
      "curveMode": 4,
      "curveTo": "{0.80590449604624537, 0.28054025526703757}",
      "hasCurveFrom": true,
      "hasCurveTo": true,
      "point": "{0.81783541356355671, 0.29546530981032654}"
    },
    {
      "_class": "curvePoint",
      "cornerRadius": 0,
      "curveFrom": "{0.84423140447091549, 0.4130450149826016}",
      "curveMode": 4,
      "curveTo": "{0.84145026309187165, 0.36668867328909194}",
      "hasCurveFrom": true,
      "hasCurveTo": true,
      "point": "{0.84423140447091549, 0.40389992680253572}"
    },
    {
      "_class": "curvePoint",
      "cornerRadius": 0,
      "curveFrom": "{0.87231708533198637, 0.33339114601331116}",
      "curveMode": 4,
      "curveTo": "{0.84909382384858689, 0.37842432401520948}",
      "hasCurveFrom": true,
      "hasCurveTo": true,
      "point": "{0.86437571332126828, 0.35556160356504496}"
    },
    {
      "_class": "curvePoint",
      "cornerRadius": 0,
      "curveFrom": "{0.94100894634827226, 0.30765329908062411}",
      "curveMode": 2,
      "curveTo": "{0.89223283429333178, 0.31688889889538041}",
      "hasCurveFrom": true,
      "hasCurveTo": true,
      "point": "{0.91662089032080218, 0.3122710989880022}"
    },
    {
      "_class": "curvePoint",
      "cornerRadius": 0,
      "curveFrom": "{0.99905755160595122, 0.35072681532965111}",
      "curveMode": 2,
      "curveTo": "{0.96616418357244715, 0.31562150004093992}",
      "hasCurveFrom": true,
      "hasCurveTo": true,
      "point": "{0.98261086758919924, 0.33317415768529551}"
    },
    {
      "_class": "curvePoint",
      "cornerRadius": 0,
      "curveFrom": "{0.99635566785806229, 0.43982705893850871}",
      "curveMode": 4,
      "curveTo": "{1.0042970398687809, 0.37519726340789794}",
      "hasCurveFrom": true,
      "hasCurveTo": true,
      "point": "{0.99635566785806229, 0.39736772095963163}"
    },
    {
      "_class": "curvePoint",
      "cornerRadius": 0,
      "curveFrom": "{0.99635566785806229, 0.4953508086031943}",
      "curveMode": 2,
      "curveTo": "{0.99635566785806229, 0.43786739718563739}",
      "hasCurveFrom": true,
      "hasCurveTo": true,
      "point": "{0.99635566785806229, 0.46660910289441576}"
    },
    {
      "_class": "curvePoint",
      "cornerRadius": 0,
      "curveFrom": "{0.9938245216583933, 0.58322068671801486}",
      "curveMode": 4,
      "curveTo": "{0.99635566785806229, 0.52082641139052044}",
      "hasCurveFrom": true,
      "hasCurveTo": true,
      "point": "{0.99635566785806229, 0.54499557300926582}"
    },
    {
      "_class": "curvePoint",
      "cornerRadius": 0,
      "curveFrom": "{0.96759618729181318, 0.69178199607819868}",
      "curveMode": 4,
      "curveTo": "{0.9882518783157509, 0.62121378782108294}",
      "hasCurveFrom": true,
      "hasCurveTo": true,
      "point": "{0.97968451570604609, 0.65865595467579818}"
    },
    {
      "_class": "curvePoint",
      "cornerRadius": 0,
      "curveFrom": "{0.89594308268980904, 0.78733806674663243}",
      "curveMode": 4,
      "curveTo": "{0.95077068330646353, 0.72320712811670829}",
      "hasCurveFrom": true,
      "hasCurveTo": true,
      "point": "{0.92967105924999804, 0.75206649822932736}"
    },
    {
      "_class": "curvePoint",
      "cornerRadius": 0,
      "curveFrom": "{0.84178339990678697, 0.89171223303712088}",
      "curveMode": 4,
      "curveTo": "{0.86807493264316204, 0.82719879619154546}",
      "hasCurveFrom": true,
      "hasCurveTo": true,
      "point": "{0.84700992982958501, 0.87029942398589244}"
    },
    {
      "_class": "curvePoint",
      "cornerRadius": 0,
      "curveFrom": "{0.83999390993499456, 0.95591267205215669}",
      "curveMode": 4,
      "curveTo": "{0.83944954625498813, 0.91365943235015901}",
      "hasCurveFrom": true,
      "hasCurveTo": true,
      "point": "{0.8400636164329115, 0.93562148241493404}"
    },
    {
      "_class": "curvePoint",
      "cornerRadius": 0,
      "curveFrom": "{0.81999843493674018, 0.99854114698505914}",
      "curveMode": 4,
      "curveTo": "{0.84279705770752478, 0.97612228809306112}",
      "hasCurveFrom": true,
      "hasCurveTo": true,
      "point": "{0.84839919250891938, 0.99571777616965196}"
    },
    {
      "_class": "curvePoint",
      "cornerRadius": 0,
      "curveFrom": "{0.73586891548281064, 0.99179845266390931}",
      "curveMode": 4,
      "curveTo": "{0.79136029530201613, 0.99854114698505914}",
      "hasCurveFrom": true,
      "hasCurveTo": true,
      "point": "{0.76295953772983682, 0.99571777616965174}"
    },
    {
      "_class": "curvePoint",
      "cornerRadius": 0,
      "curveFrom": "{0.68902838839802893, 0.91675207134165748}",
      "curveMode": 4,
      "curveTo": "{0.70252661117877835, 0.94084724708925682}",
      "hasCurveFrom": true,
      "hasCurveTo": true,
      "point": "{0.69349640376310306, 0.92516995306628669}"
    },
    {
      "_class": "curvePoint",
      "cornerRadius": 0,
      "curveFrom": "{0.65987428566463013, 0.91143309177754828}",
      "curveMode": 2,
      "curveTo": "{0.67988359076419691, 0.91143309177754828}",
      "hasCurveFrom": true,
      "hasCurveTo": true,
      "point": "{0.66987893821441358, 0.91143309177754828}"
    },
    {
      "_class": "curvePoint",
      "cornerRadius": 0,
      "curveFrom": "{0.6309795831930427, 0.94999233526932247}",
      "curveMode": 4,
      "curveTo": "{0.65072948803079811, 0.91675207134165748}",
      "hasCurveFrom": true,
      "hasCurveTo": true,
      "point": "{0.64626147266572409, 0.92516995306628669}"
    },
    {
      "_class": "curvePoint",
      "cornerRadius": 0,
      "curveFrom": "{0.52678488224294173, 1.0029032025968461}",
      "curveMode": 3,
      "curveTo": "{0.59694264754934301, 0.99506455558536122}",
      "hasCurveFrom": true,
      "hasCurveTo": true,
      "point": "{0.57332518200065352, 0.99767743792252284}"
    },
    {
      "_class": "curvePoint",
      "cornerRadius": 0,
      "curveFrom": "{0.35521094134510939, 0.99767743792252284}",
      "curveMode": 3,
      "curveTo": "{0.43092575736884919, 0.99767743792252284}",
      "hasCurveFrom": true,
      "hasCurveTo": true,
      "point": "{0.35521094134510939, 0.99767743792252284}"
    },
    {
      "_class": "curvePoint",
      "cornerRadius": 0,
      "curveFrom": "{0.31075453560639971, 0.88532349742457128}",
      "curveMode": 2,
      "curveTo": "{0.36771430545912143, 0.93235537949348124}",
      "hasCurveFrom": true,
      "hasCurveTo": true,
      "point": "{0.33923442053276059, 0.90883943845902626}"
    },
    {
      "_class": "curvePoint",
      "cornerRadius": 0,
      "curveFrom": "{0.26004644781068398, 0.83959805652424224}",
      "curveMode": 4,
      "curveTo": "{0.28158001934037152, 0.85788823288437366}",
      "hasCurveFrom": false,
      "hasCurveTo": true,
      "point": "{0.26004644781068398, 0.83959805652424224}"
    }
  ],
  "resizingConstraint": 63,
  "resizingType": 0,
  "rotation": 0,
  "shouldBreakMaskChain": false,
  "style": {
    "_class": "style",
    "borderOptions": {
      "_class": "borderOptions",
      "dashPattern": [
      ],
      "isEnabled": false,
      "lineCapStyle": 1,
      "lineJoinStyle": 1
    },
    "borders": [
      {
        "_class": "border",
        "color": {
          "_class": "color",
          "alpha": 1,
          "blue": 0,
          "green": 0,
          "red": 0
        },
        "fillType": 0,
        "isEnabled": true,
        "position": 0,
        "thickness": 0.75
      }
    ],
    "endMarkerType": 0,
    "miterLimit": 10,
    "startMarkerType": 0,
    "windingRule": 1
  }
}