{
  "_class": "group",
  "booleanOperation": 0,
  "clippingMaskMode": 0,
  "do_objectID": "F8711043-F114-47A2-AFF1-923993464FE9",
  "exportOptions": {
    "_class": "exportOptions",
    "do_objectID": "2BA84C60-2F69-47B7-9AB0-F551DA768B58",
    "exportFormats": [
    ],
    "includedLayerIds": [
    ],
    "layerOptions": 0,
    "shouldTrim": false
  },
  "frame": {
    "_class": "rect",
    "constrainProportions": false,
    "do_objectID": "7DAEF832-C1A3-4434-8F0E-504D11BF49F6",
    "height": 24,
    "width": 203,
    "x": 25,
    "y": 23
  },
  "groupLayout": {
    "_class": "MSImmutableFreeformGroupLayout",
    "do_objectID": "1507EFD2-14F6-4C8A-AD0E-1C406ACD11D8"
  },
  "hasClickThrough": false,
  "hasClippingMask": false,
  "isFixedToViewport": false,
  "isFlippedHorizontal": false,
  "isFlippedVertical": false,
  "isLocked": false,
  "isVisible": true,
  "layerListExpandedType": 0,
  "layers": [
    {
      "class": "text",
      "id": "15BA5941-7EB8-4552-BEBF-D34790437567"
    }
  ],
  "name": "Group 4",
  "nameIsFixed": false,
  "resizingConstraint": 63,
  "resizingType": 0,
  "rotation": 0,
  "shouldBreakMaskChain": false,
  "style": {
    "_class": "style",
    "do_objectID": "0B18E291-E35F-4D4D-9C03-959ED76F0C35",
    "endMarkerType": 0,
    "miterLimit": 10,
    "startMarkerType": 0,
    "windingRule": 1
  }
}