{
  "_class": "group",
  "booleanOperation": 0,
  "clippingMaskMode": 0,
  "do_objectID": "340804E3-DB3A-44D6-BE53-13994400027B",
  "exportOptions": {
    "_class": "exportOptions",
    "exportFormats": [
    ],
    "includedLayerIds": [
    ],
    "layerOptions": 0,
    "shouldTrim": false
  },
  "frame": {
    "_class": "rect",
    "constrainProportions": false,
    "height": 17.29411764705882,
    "width": 148.2352941176471,
    "x": 0,
    "y": 10.29411764705882
  },
  "groupLayout": {
    "_class": "MSImmutableFreeformGroupLayout"
  },
  "hasClickThrough": false,
  "hasClippingMask": false,
  "isFixedToViewport": false,
  "isFlippedHorizontal": false,
  "isFlippedVertical": false,
  "isLocked": false,
  "isVisible": true,
  "layerListExpandedType": 0,
  "layers": [
    {
      "class": "shapePath",
      "id": "299B0CEB-7D7E-4507-A66C-E24270F33D60"
    },
    {
      "class": "shapePath",
      "id": "F8F5B187-7C7F-4918-AB6F-D309BCB0110D"
    },
    {
      "class": "shapePath",
      "id": "D3954CF7-13C8-4469-A6E2-BAEB3940DC27"
    },
    {
      "class": "shapeGroup",
      "id": "1349DF95-D158-48AA-A8AA-51F66976A83B"
    },
    {
      "class": "shapePath",
      "id": "8E77BC6F-755D-449B-A664-C7147CBF7007"
    },
    {
      "class": "shapePath",
      "id": "A6B255A0-AE0B-47BA-AE68-4B8A6E1ED57E"
    },
    {
      "class": "shapePath",
      "id": "41D47187-F734-41D5-AE10-27726623E245"
    },
    {
      "class": "shapePath",
      "id": "750F6B0D-B896-4B75-AFC6-CF518ACAAB09"
    },
    {
      "class": "shapePath",
      "id": "8039D4C6-4663-4D58-98A3-D197F45E4569"
    },
    {
      "class": "shapeGroup",
      "id": "84EE62E3-2B6D-4FD5-95AF-5560DB1DF042"
    },
    {
      "class": "shapePath",
      "id": "C01187AA-46CD-443B-8105-A8E5ADC59929"
    }
  ],
  "maintainScrollPosition": false,
  "name": "Group 25",
  "nameIsFixed": false,
  "resizingConstraint": 63,
  "resizingType": 0,
  "rotation": 0,
  "shouldBreakMaskChain": false,
  "style": {
    "_class": "style",
    "blur": {
      "_class": "blur",
      "center": "{0.5, 0.5}",
      "isEnabled": false,
      "motionAngle": 0,
      "radius": 10,
      "saturation": 1,
      "type": 0
    },
    "borderOptions": {
      "_class": "borderOptions",
      "dashPattern": [
      ],
      "isEnabled": true,
      "lineCapStyle": 0,
      "lineJoinStyle": 0
    },
    "borders": [
    ],
    "colorControls": {
      "_class": "colorControls",
      "brightness": 0,
      "contrast": 1,
      "hue": 0,
      "isEnabled": true,
      "saturation": 1
    },
    "contextSettings": {
      "_class": "graphicsContextSettings",
      "blendMode": 0,
      "opacity": 1
    },
    "do_objectID": "556E97FA-8EF9-4B19-AF94-16D41784B4CC",
    "endMarkerType": 0,
    "fills": [
    ],
    "innerShadows": [
    ],
    "miterLimit": 10,
    "shadows": [
    ],
    "startMarkerType": 0,
    "windingRule": 1
  }
}