{
  "_class": "symbolMaster",
  "allowsOverrides": true,
  "backgroundColor": {
    "_class": "color",
    "alpha": 1,
    "blue": 1,
    "do_objectID": "4EC04807-4ED6-445F-AA8A-E78E2222B0DB",
    "green": 1,
    "red": 1
  },
  "booleanOperation": -1,
  "changeIdentifier": 433,
  "clippingMaskMode": 0,
  "do_objectID": "9FF89D76-D77F-42FE-96DC-F866D3ADBAE6",
  "exportOptions": {
    "_class": "exportOptions",
    "do_objectID": "96A6BCC8-2342-4B9E-AFEE-8F11B6CB1E14",
    "exportFormats": [
    ],
    "includedLayerIds": [
    ],
    "layerOptions": 0,
    "shouldTrim": false
  },
  "frame": {
    "_class": "rect",
    "constrainProportions": false,
    "do_objectID": "2E5135A9-449B-4B5E-9CBA-8CA4BC5492B7",
    "height": 64,
    "width": 200,
    "x": 24729,
    "y": 228
  },
  "groupLayout": {
    "_class": "MSImmutableFreeformGroupLayout"
  },
  "hasBackgroundColor": false,
  "hasClickThrough": true,
  "hasClippingMask": false,
  "horizontalRulerData": {
    "_class": "rulerData",
    "base": 0,
    "do_objectID": "2CC3276F-2223-461F-B740-4D2283042544",
    "guides": [
    ]
  },
  "includeBackgroundColorInExport": true,
  "includeBackgroundColorInInstance": false,
  "includeInCloudUpload": true,
  "isFixedToViewport": false,
  "isFlippedHorizontal": false,
  "isFlippedVertical": false,
  "isFlowHome": false,
  "isLocked": false,
  "isVisible": true,
  "layerListExpandedType": 2,
  "layers": [
    {
      "class": "rectangle",
      "id": "92BC375D-5673-4825-BC6E-101C66E9CA4F"
    },
    {
      "class": "text",
      "id": "8790FBA9-FBF9-4455-B4D2-9248C6AEDAE5"
    },
    {
      "class": "text",
      "id": "97653F19-E580-4EBD-ADF3-04D31EF1F4ED"
    },
    {
      "class": "rectangle",
      "id": "9326CE56-3F49-4220-B444-1B2811F6A9C6"
    }
  ],
  "name": "data table / cell / 64 tall / 2 lines / default / 03 focus",
  "nameIsFixed": true,
  "overrideProperties": [
    {
      "_class": "MSImmutableOverrideProperty",
      "canOverride": false,
      "overrideName": "92BC375D-5673-4825-BC6E-101C66E9CA4F_layerStyle"
    },
    {
      "_class": "MSImmutableOverrideProperty",
      "canOverride": false,
      "overrideName": "97653F19-E580-4EBD-ADF3-04D31EF1F4ED_textStyle"
    },
    {
      "_class": "MSImmutableOverrideProperty",
      "canOverride": false,
      "overrideName": "9326CE56-3F49-4220-B444-1B2811F6A9C6_layerStyle"
    },
    {
      "_class": "MSImmutableOverrideProperty",
      "canOverride": false,
      "overrideName": "8790FBA9-FBF9-4455-B4D2-9248C6AEDAE5_textStyle"
    },
    {
      "_class": "MSImmutableOverrideProperty",
      "canOverride": true,
      "overrideName": "8790FBA9-FBF9-4455-B4D2-9248C6AEDAE5_stringValue"
    },
    {
      "_class": "MSImmutableOverrideProperty",
      "canOverride": true,
      "overrideName": "97653F19-E580-4EBD-ADF3-04D31EF1F4ED_stringValue"
    }
  ],
  "resizesContent": true,
  "resizingConstraint": 63,
  "resizingType": 0,
  "rotation": 0,
  "shouldBreakMaskChain": true,
  "style": {
    "_class": "style",
    "do_objectID": "65EAE28F-0937-4DDC-B3AB-F1278875E754",
    "endMarkerType": 0,
    "miterLimit": 10,
    "startMarkerType": 0,
    "windingRule": 1
  },
  "symbolID": "3A6933A5-B8E0-4879-9AF4-A5112BC158EA",
  "verticalRulerData": {
    "_class": "rulerData",
    "base": 0,
    "do_objectID": "1B218845-AF1F-4637-8A21-33AB9E94A5E1",
    "guides": [
    ]
  }
}