{
  "_class": "group",
  "booleanOperation": -1,
  "clippingMaskMode": 0,
  "do_objectID": "EDE07CD6-5B08-49CB-BFBC-723590B0AD23",
  "exportOptions": {
    "_class": "exportOptions",
    "do_objectID": "B573DD9B-6A6C-421C-80FD-97E34346595D",
    "exportFormats": [
    ],
    "includedLayerIds": [
    ],
    "layerOptions": 0,
    "shouldTrim": false
  },
  "frame": {
    "_class": "rect",
    "constrainProportions": false,
    "do_objectID": "D5230A08-676E-4D5F-B3C6-88DA0EE5A628",
    "height": 340,
    "width": 96,
    "x": 32,
    "y": 32
  },
  "groupLayout": {
    "_class": "MSImmutableFreeformGroupLayout",
    "do_objectID": "5A3F2D14-75CB-4ABB-8D72-D1F627C4547B"
  },
  "hasClickThrough": false,
  "hasClippingMask": false,
  "isFixedToViewport": false,
  "isFlippedHorizontal": false,
  "isFlippedVertical": false,
  "isLocked": true,
  "isVisible": true,
  "layerListExpandedType": 1,
  "layers": [
    {
      "class": "text",
      "id": "92CDE7DB-B4F8-4CA7-B480-995BB4BF1238"
    },
    {
      "class": "text",
      "id": "C8086381-5566-40F1-8BDD-874AE3161022"
    },
    {
      "class": "text",
      "id": "A0CB97CA-232F-4CA9-9368-7CB803D97425"
    }
  ],
  "name": "labels",
  "nameIsFixed": true,
  "resizingConstraint": 63,
  "resizingType": 0,
  "rotation": 0,
  "shouldBreakMaskChain": false,
  "style": {
    "_class": "style",
    "do_objectID": "80715070-3FA3-4C57-AEDC-12D70070690B",
    "endMarkerType": 0,
    "miterLimit": 10,
    "startMarkerType": 0,
    "windingRule": 1
  }
}