{
  "_class": "shapePath",
  "booleanOperation": -1,
  "clippingMaskMode": 0,
  "do_objectID": "BC05EED2-BFEE-4FE0-9ACF-CD6B2DB0E838",
  "edited": true,
  "exportOptions": {
    "_class": "exportOptions",
    "do_objectID": "9891060B-7765-4690-9BAD-D83635664A70",
    "exportFormats": [
    ],
    "includedLayerIds": [
    ],
    "layerOptions": 0,
    "shouldTrim": false
  },
  "frame": {
    "_class": "rect",
    "constrainProportions": false,
    "do_objectID": "50DED37E-5420-475A-88A4-3B439A87CA78",
    "height": 1.364283355575452,
    "width": 3.758711833038507,
    "x": 12.89765673136574,
    "y": 18.06690197943169
  },
  "hasClippingMask": false,
  "isClosed": true,
  "isFixedToViewport": false,
  "isFlippedHorizontal": false,
  "isFlippedVertical": false,
  "isLocked": false,
  "isVisible": true,
  "layerListExpandedType": 0,
  "name": "Rectangle",
  "nameIsFixed": false,
  "pointRadiusBehaviour": 0,
  "points": [
    {
      "_class": "curvePoint",
      "cornerRadius": 0,
      "curveFrom": "{-3.7807779224495874e-14, 0.22385765576923178}",
      "curveMode": 4,
      "curveTo": "{-3.7807779224495874e-14, 0.49999999999991079}",
      "hasCurveFrom": true,
      "hasCurveTo": false,
      "point": "{-3.7807779224495874e-14, 0.49999999999991079}"
    },
    {
      "_class": "curvePoint",
      "cornerRadius": 0,
      "curveFrom": "{0.18312447945761334, -8.9750358882498525e-14}",
      "curveMode": 4,
      "curveTo": "{0.081834196578672164, -8.9750358882498525e-14}",
      "hasCurveFrom": false,
      "hasCurveTo": true,
      "point": "{0.18312447945761334, -8.9750358882498525e-14}"
    },
    {
      "_class": "curvePoint",
      "cornerRadius": 0,
      "curveFrom": "{0.99999999999996436, -8.9750358882498525e-14}",
      "curveMode": 1,
      "curveTo": "{0.99999999999996436, -8.9750358882498525e-14}",
      "hasCurveFrom": false,
      "hasCurveTo": false,
      "point": "{0.99999999999996436, -8.9750358882498525e-14}"
    },
    {
      "_class": "curvePoint",
      "cornerRadius": 0,
      "curveFrom": "{0.99999999999996436, 0.99999999999991074}",
      "curveMode": 1,
      "curveTo": "{0.99999999999996436, 0.99999999999991074}",
      "hasCurveFrom": false,
      "hasCurveTo": false,
      "point": "{0.99999999999996436, 0.99999999999991074}"
    },
    {
      "_class": "curvePoint",
      "cornerRadius": 0,
      "curveFrom": "{0.081987619053029134, 0.99999999999991074}",
      "curveMode": 4,
      "curveTo": "{0.18312447945761334, 0.99999999999991074}",
      "hasCurveFrom": true,
      "hasCurveTo": false,
      "point": "{0.18312447945761334, 0.99999999999991074}"
    },
    {
      "_class": "curvePoint",
      "cornerRadius": 0,
      "curveFrom": "{-3.7807779224495874e-14, 0.49999999999991079}",
      "curveMode": 4,
      "curveTo": "{-3.7807779224495874e-14, 0.77620311774447959}",
      "hasCurveFrom": false,
      "hasCurveTo": true,
      "point": "{-3.7807779224495874e-14, 0.49999999999991079}"
    }
  ],
  "resizingConstraint": 63,
  "resizingType": 0,
  "rotation": 135,
  "shouldBreakMaskChain": false,
  "style": {
    "_class": "style",
    "do_objectID": "FAC12FEE-4301-4FC9-A16B-40ACB25307B9",
    "endMarkerType": 0,
    "fills": [
      {
        "_class": "fill",
        "color": {
          "_class": "color",
          "alpha": 1,
          "blue": 0.1764705882352941,
          "green": 0.1764705882352941,
          "red": 0.1764705882352941
        },
        "fillType": 0,
        "isEnabled": true,
        "noiseIndex": 0,
        "noiseIntensity": 0,
        "patternFillType": 1,
        "patternTileScale": 1
      }
    ],
    "miterLimit": 10,
    "startMarkerType": 0,
    "windingRule": 0
  }
}