{
  "_class": "text",
  "attributedString": {
    "_class": "attributedString",
    "attributes": [
      {
        "_class": "stringAttribute",
        "attributes": {
          "MSAttributedStringColorAttribute": {
            "_class": "color",
            "alpha": 1,
            "blue": 0.1772959184,
            "green": 0.1772959184,
            "red": 0.1772959184
          },
          "MSAttributedStringFontAttribute": {
            "_class": "UIFontDescriptor",
            "attributes": {
              "name": "Lato-Regular",
              "size": 14
            }
          },
          "kerning": 0,
          "paragraphStyle": {
            "_class": "paragraphStyle",
            "alignment": 0,
            "headIndent": 36,
            "maximumLineHeight": 20,
            "minimumLineHeight": 20,
            "tabStops": [
              {
                "_class": "textTab",
                "alignment": 0,
                "location": 11,
                "options": {
                }
              },
              {
                "_class": "textTab",
                "alignment": 0,
                "location": 36,
                "options": {
                }
              },
              {
                "_class": "textTab",
                "alignment": 0,
                "location": 56,
                "options": {
                }
              },
              {
                "_class": "textTab",
                "alignment": 0,
                "location": 85,
                "options": {
                }
              },
              {
                "_class": "textTab",
                "alignment": 0,
                "location": 113,
                "options": {
                }
              },
              {
                "_class": "textTab",
                "alignment": 0,
                "location": 141,
                "options": {
                }
              },
              {
                "_class": "textTab",
                "alignment": 0,
                "location": 170,
                "options": {
                }
              },
              {
                "_class": "textTab",
                "alignment": 0,
                "location": 198,
                "options": {
                }
              },
              {
                "_class": "textTab",
                "alignment": 0,
                "location": 226,
                "options": {
                }
              },
              {
                "_class": "textTab",
                "alignment": 0,
                "location": 255,
                "options": {
                }
              },
              {
                "_class": "textTab",
                "alignment": 0,
                "location": 283,
                "options": {
                }
              },
              {
                "_class": "textTab",
                "alignment": 0,
                "location": 311,
                "options": {
                }
              },
              {
                "_class": "textTab",
                "alignment": 0,
                "location": 340,
                "options": {
                }
              }
            ],
            "textLists": [
              {
                "_class": "textList",
                "listOptions": 0,
                "markerFormat": "{disc}"
              }
            ]
          }
        },
        "length": 258,
        "location": 0
      }
    ],
    "string": "\t•\tSoft-touch cotton jersey \n\t•\tRound neck \n\t•\tStriped design\n\t•\tNike Swoosh logo \n\t•\tSplit sides \n\t•\tRegular fit - true to size \n\t•\tModel fit - Model is 6'1\"/186 cm and is wearing a medium \n\t•\tProduct Listing Id : MP000000001374969\n\t•\tStyle Code: 123456789\n"
  },
  "automaticallyDrawOnUnderlyingPath": false,
  "booleanOperation": 0,
  "clippingMaskMode": 0,
  "do_objectID": "88C19862-3CE8-4109-9E40-94B48BD0B629",
  "dontSynchroniseWithSymbol": false,
  "exportOptions": {
    "_class": "exportOptions",
    "do_objectID": "48BCC966-8EA2-417C-82E6-A16BDC9786F4",
    "exportFormats": [
    ],
    "includedLayerIds": [
    ],
    "layerOptions": 0,
    "shouldTrim": false
  },
  "frame": {
    "_class": "rect",
    "constrainProportions": false,
    "do_objectID": "0D54819E-F47F-4B44-95BE-730E605B4DC8",
    "height": 200,
    "width": 572,
    "x": 102,
    "y": 149
  },
  "glyphBounds": "{{0, 0}, {392, 180}}",
  "hasClippingMask": false,
  "isFixedToViewport": false,
  "isFlippedHorizontal": false,
  "isFlippedVertical": false,
  "isLocked": false,
  "isVisible": true,
  "layerListExpandedType": 0,
  "lineSpacingBehaviour": 2,
  "name": "• Soft-touch cotton",
  "nameIsFixed": false,
  "resizingConstraint": 63,
  "resizingType": 0,
  "rotation": 0,
  "sharedStyleID": "C05CA241-D7D0-425D-9207-72E0C4A08B69",
  "shouldBreakMaskChain": false,
  "style": {
    "_class": "style",
    "do_objectID": "22CA0718-B02F-423B-90B7-4AC710A3B38D",
    "endMarkerType": 0,
    "miterLimit": 10,
    "startMarkerType": 0,
    "textStyle": {
      "_class": "textStyle",
      "do_objectID": "27137FFF-F22E-42D6-A000-4871C28531E2",
      "encodedAttributes": {
        "MSAttributedStringColorAttribute": {
          "_class": "color",
          "alpha": 1,
          "blue": 0.1772959184,
          "green": 0.1772959184,
          "red": 0.1772959184
        },
        "MSAttributedStringFontAttribute": {
          "_class": "UIFontDescriptor",
          "attributes": {
            "name": "Lato-Regular",
            "size": 14
          }
        },
        "kerning": 0,
        "paragraphStyle": {
          "_class": "paragraphStyle",
          "alignment": 0,
          "headIndent": 36,
          "maximumLineHeight": 20,
          "minimumLineHeight": 20,
          "tabStops": [
            {
              "_class": "textTab",
              "alignment": 0,
              "location": 11,
              "options": {
              }
            },
            {
              "_class": "textTab",
              "alignment": 0,
              "location": 36,
              "options": {
              }
            },
            {
              "_class": "textTab",
              "alignment": 0,
              "location": 56,
              "options": {
              }
            },
            {
              "_class": "textTab",
              "alignment": 0,
              "location": 85,
              "options": {
              }
            },
            {
              "_class": "textTab",
              "alignment": 0,
              "location": 113,
              "options": {
              }
            },
            {
              "_class": "textTab",
              "alignment": 0,
              "location": 141,
              "options": {
              }
            },
            {
              "_class": "textTab",
              "alignment": 0,
              "location": 170,
              "options": {
              }
            },
            {
              "_class": "textTab",
              "alignment": 0,
              "location": 198,
              "options": {
              }
            },
            {
              "_class": "textTab",
              "alignment": 0,
              "location": 226,
              "options": {
              }
            },
            {
              "_class": "textTab",
              "alignment": 0,
              "location": 255,
              "options": {
              }
            },
            {
              "_class": "textTab",
              "alignment": 0,
              "location": 283,
              "options": {
              }
            },
            {
              "_class": "textTab",
              "alignment": 0,
              "location": 311,
              "options": {
              }
            },
            {
              "_class": "textTab",
              "alignment": 0,
              "location": 340,
              "options": {
              }
            }
          ],
          "textLists": [
            {
              "_class": "textList",
              "listOptions": 0,
              "markerFormat": "{disc}"
            }
          ]
        }
      },
      "verticalAlignment": 0
    },
    "windingRule": 1
  },
  "textBehaviour": 1
}