{
  "_class": "shapePath",
  "booleanOperation": -1,
  "clippingMaskMode": 0,
  "do_objectID": "045A470A-C92C-4183-944D-924EA546170D",
  "edited": true,
  "exportOptions": {
    "_class": "exportOptions",
    "do_objectID": "C0C444D5-DB76-459D-8E47-075EB5211DF9",
    "exportFormats": [
    ],
    "includedLayerIds": [
    ],
    "layerOptions": 0,
    "shouldTrim": false
  },
  "frame": {
    "_class": "rect",
    "constrainProportions": false,
    "do_objectID": "4B5255E0-67B3-478E-AB2A-CCF3F17FC461",
    "height": 0.1058906030855624,
    "width": 0.1203283161495818,
    "x": 11.78987344617114,
    "y": 17.45247796154248
  },
  "hasClippingMask": false,
  "isClosed": true,
  "isFixedToViewport": false,
  "isFlippedHorizontal": false,
  "isFlippedVertical": false,
  "isLocked": false,
  "isVisible": true,
  "layerListExpandedType": 0,
  "name": "Path",
  "nameIsFixed": false,
  "pointRadiusBehaviour": 0,
  "points": [
    {
      "_class": "curvePoint",
      "cornerRadius": 0,
      "curveFrom": "{0.083603072471291978, 0.25344025023856881}",
      "curveMode": 3,
      "curveTo": "{-0.059408043210620057, 0.76643827399735631}",
      "hasCurveFrom": true,
      "hasCurveTo": true,
      "point": "{0.0053517072868466469, 0.53397238929574908}"
    },
    {
      "_class": "curvePoint",
      "cornerRadius": 0,
      "curveFrom": "{1.146742309804659, 0.43783988058457812}",
      "curveMode": 4,
      "curveTo": "{0.76020754902291421, 0.25606204593070447}",
      "hasCurveFrom": true,
      "hasCurveTo": true,
      "point": "{0.88770330781481133, 0}"
    },
    {
      "_class": "curvePoint",
      "cornerRadius": 0,
      "curveFrom": "{0.48160570573695999, 1.2523444089375075}",
      "curveMode": 4,
      "curveTo": "{0.91063905278265778, 0.64408780836492752}",
      "hasCurveFrom": true,
      "hasCurveTo": true,
      "point": "{0.65362379299584639, 0.83897462147943014}"
    }
  ],
  "resizingConstraint": 63,
  "resizingType": 0,
  "rotation": 0,
  "shouldBreakMaskChain": false,
  "style": {
    "_class": "style",
    "do_objectID": "A14D4DFC-CC44-4886-AE19-C49AD822CB49",
    "endMarkerType": 0,
    "fills": [
      {
        "_class": "fill",
        "color": {
          "_class": "color",
          "alpha": 1,
          "blue": 0.1764705882352941,
          "green": 0.1764705882352941,
          "red": 0.1764705882352941
        },
        "fillType": 0,
        "isEnabled": true,
        "noiseIndex": 0,
        "noiseIntensity": 0,
        "patternFillType": 1,
        "patternTileScale": 1
      }
    ],
    "miterLimit": 10,
    "startMarkerType": 0,
    "windingRule": 1
  }
}