{
  "_class": "shapePath",
  "booleanOperation": -1,
  "clippingMaskMode": 0,
  "do_objectID": "0882A171-1A5B-446E-98FF-9CEAC82005F1",
  "edited": true,
  "exportOptions": {
    "_class": "exportOptions",
    "do_objectID": "6BF2E2CF-1BDA-41F9-BB0E-F4D96370EA58",
    "exportFormats": [
    ],
    "includedLayerIds": [
    ],
    "layerOptions": 0,
    "shouldTrim": false
  },
  "frame": {
    "_class": "rect",
    "constrainProportions": false,
    "do_objectID": "93F7A0FF-86C9-4523-A222-CB52E7A8516E",
    "height": 0.1058906030855624,
    "width": 0.1059863482545644,
    "x": 17.09266920104536,
    "y": 27.82312872083691
  },
  "hasClippingMask": false,
  "isClosed": true,
  "isFixedToViewport": false,
  "isFlippedHorizontal": false,
  "isFlippedVertical": false,
  "isLocked": false,
  "isVisible": true,
  "layerListExpandedType": 0,
  "name": "Path",
  "nameIsFixed": false,
  "pointRadiusBehaviour": 0,
  "points": [
    {
      "_class": "curvePoint",
      "cornerRadius": 0,
      "curveFrom": "{-0.30263284650328615, 0.78973267514629697}",
      "curveMode": 3,
      "curveTo": "{0.45936715349671431, 1.0667326751462838}",
      "hasCurveFrom": true,
      "hasCurveTo": true,
      "point": "{0.19536715349673273, 0.97073267514628014}"
    },
    {
      "_class": "curvePoint",
      "cornerRadius": 0,
      "curveFrom": "{1.0403671534967316, 0.18873267514629788}",
      "curveMode": 3,
      "curveTo": "{0.27736715349672636, -0.091267324853674836}",
      "hasCurveFrom": true,
      "hasCurveTo": true,
      "point": "{0.54236715349671272, 0.0077326751462578613}"
    }
  ],
  "resizingConstraint": 63,
  "resizingType": 0,
  "rotation": 0,
  "shouldBreakMaskChain": false,
  "style": {
    "_class": "style",
    "do_objectID": "50BE248F-8F12-48F0-B345-1D60777E5728",
    "endMarkerType": 0,
    "fills": [
      {
        "_class": "fill",
        "color": {
          "_class": "color",
          "alpha": 1,
          "blue": 0.1764705882352941,
          "green": 0.1764705882352941,
          "red": 0.1764705882352941
        },
        "fillType": 0,
        "isEnabled": true,
        "noiseIndex": 0,
        "noiseIntensity": 0,
        "patternFillType": 1,
        "patternTileScale": 1
      }
    ],
    "miterLimit": 10,
    "startMarkerType": 0,
    "windingRule": 1
  }
}