{
  "_class": "shapePath",
  "booleanOperation": -1,
  "clippingMaskMode": 0,
  "do_objectID": "08BD9AE1-B03D-48D3-97D8-B23519F639A6",
  "edited": true,
  "exportOptions": {
    "_class": "exportOptions",
    "do_objectID": "C4488FB9-1AA9-4EA2-8F81-2DDFD444203B",
    "exportFormats": [
    ],
    "includedLayerIds": [
    ],
    "layerOptions": 0,
    "shouldTrim": false
  },
  "frame": {
    "_class": "rect",
    "constrainProportions": false,
    "do_objectID": "F8789377-7141-4BC4-9B17-68CD29871D3B",
    "height": 0.1058906030855766,
    "width": 0.1556971841761836,
    "x": 31.23128823039657,
    "y": 34.50427116743123
  },
  "hasClippingMask": false,
  "isClosed": true,
  "isFixedToViewport": false,
  "isFlippedHorizontal": false,
  "isFlippedVertical": false,
  "isLocked": false,
  "isVisible": true,
  "layerListExpandedType": 0,
  "name": "Path",
  "nameIsFixed": false,
  "pointRadiusBehaviour": 0,
  "points": [
    {
      "_class": "curvePoint",
      "cornerRadius": 0,
      "curveFrom": "{0.66709959224378801, 1.1002064068910307}",
      "curveMode": 4,
      "curveTo": "{0.93923905170096889, 0.60446851165872062}",
      "hasCurveFrom": true,
      "hasCurveTo": true,
      "point": "{0.76250480504199292, 0.78691480023861848}"
    },
    {
      "_class": "curvePoint",
      "cornerRadius": 0,
      "curveFrom": "{0.2792226615231872, 0.8578661346863623}",
      "curveMode": 4,
      "curveTo": "{0.40903631172404087, 0.86615914780364467}",
      "hasCurveFrom": true,
      "hasCurveTo": true,
      "point": "{0.33500603731231821, 0.64777646904892638}"
    },
    {
      "_class": "curvePoint",
      "cornerRadius": 0,
      "curveFrom": "{-0.13367858730839044, 0.77217166580795238}",
      "curveMode": 3,
      "curveTo": "{0.1275127329752177, 1.0568984495008249}",
      "hasCurveFrom": true,
      "hasCurveTo": true,
      "point": "{0.061823897933840438, 0.98502566915118395}"
    },
    {
      "_class": "curvePoint",
      "cornerRadius": 0,
      "curveFrom": "{0.32874995778456656, 0.35107088863107899}",
      "curveMode": 4,
      "curveTo": "{0.18746682844950657, 0.20179665252020587}",
      "hasCurveFrom": true,
      "hasCurveTo": true,
      "point": "{0.29434152038194744, 0.31329160665235983}"
    },
    {
      "_class": "curvePoint",
      "cornerRadius": 0,
      "curveFrom": "{0.45387154833959908, 0.24418316400846232}",
      "curveMode": 4,
      "curveTo": "{0.34230479676136671, 0.39990752143277142}",
      "hasCurveFrom": true,
      "hasCurveTo": true,
      "point": "{0.34908221624975194, 0.45242993784210422}"
    },
    {
      "_class": "curvePoint",
      "cornerRadius": 0,
      "curveFrom": "{1.1003330995405807, 0.41096487225579714}",
      "curveMode": 4,
      "curveTo": "{0.84174847906017025, 0.22206846236241093}",
      "hasCurveFrom": true,
      "hasCurveTo": true,
      "point": "{0.92307751292094142, 0}"
    }
  ],
  "resizingConstraint": 63,
  "resizingType": 0,
  "rotation": 0,
  "shouldBreakMaskChain": false,
  "style": {
    "_class": "style",
    "do_objectID": "223639B6-6201-4558-8244-A24CEBDBEC62",
    "endMarkerType": 0,
    "fills": [
      {
        "_class": "fill",
        "color": {
          "_class": "color",
          "alpha": 1,
          "blue": 0.1764705882352941,
          "green": 0.1764705882352941,
          "red": 0.1764705882352941
        },
        "fillType": 0,
        "isEnabled": true,
        "noiseIndex": 0,
        "noiseIntensity": 0,
        "patternFillType": 1,
        "patternTileScale": 1
      }
    ],
    "miterLimit": 10,
    "startMarkerType": 0,
    "windingRule": 1
  }
}