{
  "_class": "shapePath",
  "booleanOperation": -1,
  "clippingMaskMode": 0,
  "do_objectID": "0B2FC674-7FC4-4CBD-892B-8D06770925BF",
  "edited": true,
  "exportOptions": {
    "_class": "exportOptions",
    "do_objectID": "B854AE2C-5A50-4C9A-A433-EB875AB9D1E6",
    "exportFormats": [
    ],
    "includedLayerIds": [
    ],
    "layerOptions": 0,
    "shouldTrim": false
  },
  "frame": {
    "_class": "rect",
    "constrainProportions": false,
    "do_objectID": "E6AC5EAB-3C0E-49BE-A526-0899EBF260B9",
    "height": 0.3016228410852761,
    "width": 0.5882800502561203,
    "x": 20.58158433556637,
    "y": 16.93059339771514
  },
  "hasClippingMask": false,
  "isClosed": true,
  "isFixedToViewport": false,
  "isFlippedHorizontal": false,
  "isFlippedVertical": false,
  "isLocked": false,
  "isVisible": true,
  "layerListExpandedType": 0,
  "name": "Path",
  "nameIsFixed": false,
  "pointRadiusBehaviour": 0,
  "points": [
    {
      "_class": "curvePoint",
      "cornerRadius": 0,
      "curveFrom": "{0.45742846689955197, 0.949183254953748}",
      "curveMode": 3,
      "curveTo": "{0.67309195757087181, 0.8472808931943312}",
      "hasCurveFrom": true,
      "hasCurveTo": true,
      "point": "{0.51137883468745404, 0.9236404465971656}"
    },
    {
      "_class": "curvePoint",
      "cornerRadius": 0,
      "curveFrom": "{0.34773398508017145, 0.85803575987078495}",
      "curveMode": 4,
      "curveTo": "{0.40320213815110456, 0.97472606331033029}",
      "hasCurveFrom": true,
      "hasCurveTo": true,
      "point": "{0.349389750843483, 1}"
    },
    {
      "_class": "curvePoint",
      "cornerRadius": 0,
      "curveFrom": "{0.16780743880031879, 0.91880075659276028}",
      "curveMode": 4,
      "curveTo": "{0.29957879746385985, 0.86637078154503988}",
      "hasCurveFrom": true,
      "hasCurveTo": true,
      "point": "{0.24921592216313412, 0.88035210822443044}"
    },
    {
      "_class": "curvePoint",
      "cornerRadius": 0,
      "curveFrom": "{-0.050063739555419075, 0.65880185468943653}",
      "curveMode": 4,
      "curveTo": "{0.0872268383191592, 0.95671166162726484}",
      "hasCurveFrom": true,
      "hasCurveTo": true,
      "point": "{0.0063702768774503036, 0.99516030999559468}"
    },
    {
      "_class": "curvePoint",
      "cornerRadius": 0,
      "curveFrom": "{0.51758795629987431, 0.57276292127779149}",
      "curveMode": 4,
      "curveTo": "{0.28412498367295336, 0.78812912647382438}",
      "hasCurveFrom": true,
      "hasCurveTo": true,
      "point": "{0.39119783636709776, 0.64643375801151437}"
    },
    {
      "_class": "curvePoint",
      "cornerRadius": 0,
      "curveFrom": "{0.68219866926908923, 0.2312959043003229}",
      "curveMode": 4,
      "curveTo": "{0.70951880436372594, 0.57679599628146638}",
      "hasCurveFrom": true,
      "hasCurveTo": true,
      "point": "{0.69530681489530111, 0.33615585439576384}"
    },
    {
      "_class": "curvePoint",
      "cornerRadius": 0,
      "curveFrom": "{0.72110916470690678, -0.041071094280923065}",
      "curveMode": 4,
      "curveTo": "{0.66909052364286958, 0.1256293392041363}",
      "hasCurveFrom": true,
      "hasCurveTo": true,
      "point": "{0.6561203584969304, 0.020769389108695361}"
    },
    {
      "_class": "curvePoint",
      "cornerRadius": 0,
      "curveFrom": "{0.71986734038442124, 0.69778824639159176}",
      "curveMode": 4,
      "curveTo": "{0.73987451002444038, 0.04604332579836503}",
      "hasCurveFrom": true,
      "hasCurveTo": true,
      "point": "{0.75657014813782852, 0.13961066588353452}"
    },
    {
      "_class": "curvePoint",
      "cornerRadius": 0,
      "curveFrom": "{0.83494306093457016, 0.77092133979148925}",
      "curveMode": 4,
      "curveTo": "{1.0333589915714032, 0.13719082088132806}",
      "hasCurveFrom": true,
      "hasCurveTo": true,
      "point": "{0.99707012525882166, 0.69456178638865484}"
    }
  ],
  "resizingConstraint": 63,
  "resizingType": 0,
  "rotation": 0,
  "shouldBreakMaskChain": false,
  "style": {
    "_class": "style",
    "do_objectID": "598483A2-828E-473E-AA70-620E88E49458",
    "endMarkerType": 0,
    "fills": [
      {
        "_class": "fill",
        "color": {
          "_class": "color",
          "alpha": 1,
          "blue": 0.1764705882352941,
          "green": 0.1764705882352941,
          "red": 0.1764705882352941
        },
        "fillType": 0,
        "isEnabled": true,
        "noiseIndex": 0,
        "noiseIntensity": 0,
        "patternFillType": 1,
        "patternTileScale": 1
      }
    ],
    "miterLimit": 10,
    "startMarkerType": 0,
    "windingRule": 1
  }
}