{
  "_class": "shapePath",
  "booleanOperation": -1,
  "clippingMaskMode": 0,
  "do_objectID": "0FBAD1BD-01CA-432C-9CE8-AB18472366FC",
  "edited": true,
  "exportOptions": {
    "_class": "exportOptions",
    "do_objectID": "99AD3788-BB2F-474F-BFAF-0731C881C7A7",
    "exportFormats": [
    ],
    "includedLayerIds": [
    ],
    "layerOptions": 0,
    "shouldTrim": false
  },
  "frame": {
    "_class": "rect",
    "constrainProportions": false,
    "do_objectID": "AD817921-C5A5-4D6E-B015-17B93376DFE0",
    "height": 0.1058906030855731,
    "width": 0.1059863482545751,
    "x": 32.7758829660811,
    "y": 18.5165507661453
  },
  "hasClippingMask": false,
  "isClosed": true,
  "isFixedToViewport": false,
  "isFlippedHorizontal": false,
  "isFlippedVertical": false,
  "isLocked": false,
  "isVisible": true,
  "layerListExpandedType": 0,
  "name": "Path",
  "nameIsFixed": false,
  "pointRadiusBehaviour": 0,
  "points": [
    {
      "_class": "curvePoint",
      "cornerRadius": 0,
      "curveFrom": "{-0.28827374325720712, 0.57614676538906906}",
      "curveMode": 3,
      "curveTo": "{0.36072625674279379, 0.97214676538905564}",
      "hasCurveFrom": true,
      "hasCurveTo": true,
      "point": "{0.13272625674278515, 0.83314676538907406}"
    },
    {
      "_class": "curvePoint",
      "cornerRadius": 0,
      "curveFrom": "{1.055726256742787, 0.27614676538905769}",
      "curveMode": 3,
      "curveTo": "{0.40672625674278606, -0.12085323461093367}",
      "hasCurveFrom": true,
      "hasCurveTo": true,
      "point": "{0.63372625674276151, 0.018146765389076336}"
    }
  ],
  "resizingConstraint": 63,
  "resizingType": 0,
  "rotation": 0,
  "shouldBreakMaskChain": false,
  "style": {
    "_class": "style",
    "do_objectID": "1A93ACE1-8316-4590-94AC-2240D0D639A3",
    "endMarkerType": 0,
    "fills": [
      {
        "_class": "fill",
        "color": {
          "_class": "color",
          "alpha": 1,
          "blue": 0.1764705882352941,
          "green": 0.1764705882352941,
          "red": 0.1764705882352941
        },
        "fillType": 0,
        "isEnabled": true,
        "noiseIndex": 0,
        "noiseIntensity": 0,
        "patternFillType": 1,
        "patternTileScale": 1
      }
    ],
    "miterLimit": 10,
    "startMarkerType": 0,
    "windingRule": 1
  }
}