{
  "_class": "shapePath",
  "booleanOperation": -1,
  "clippingMaskMode": 0,
  "do_objectID": "17EC5796-3C7F-4E3F-996E-B687F60D6BE4",
  "edited": true,
  "exportOptions": {
    "_class": "exportOptions",
    "do_objectID": "870ADF86-37CE-4C28-A946-92A37AC3AE74",
    "exportFormats": [
    ],
    "includedLayerIds": [
    ],
    "layerOptions": 0,
    "shouldTrim": false
  },
  "frame": {
    "_class": "rect",
    "constrainProportions": false,
    "do_objectID": "0F305FEE-51B7-402D-982A-F1DA291C95B8",
    "height": 0.1058906030855624,
    "width": 0.1059863482545396,
    "x": 38.31664043544279,
    "y": 25.9199509972745
  },
  "hasClippingMask": false,
  "isClosed": true,
  "isFixedToViewport": false,
  "isFlippedHorizontal": false,
  "isFlippedVertical": false,
  "isLocked": false,
  "isVisible": true,
  "layerListExpandedType": 0,
  "name": "Path",
  "nameIsFixed": false,
  "pointRadiusBehaviour": 0,
  "points": [
    {
      "_class": "curvePoint",
      "cornerRadius": 0,
      "curveFrom": "{0.93955595587033258, 0.24640846032349373}",
      "curveMode": 4,
      "curveTo": "{0.36355595587031075, -0.10859153967652446}",
      "hasCurveFrom": true,
      "hasCurveTo": true,
      "point": "{0.56155595587034668, 0.016408460323475538}"
    },
    {
      "_class": "curvePoint",
      "cornerRadius": 0,
      "curveFrom": "{-0.25744404412967015, 0.51440846032346599}",
      "curveMode": 4,
      "curveTo": "{0.31955595587032803, 0.86640846032349828}",
      "hasCurveFrom": true,
      "hasCurveTo": true,
      "point": "{0.11855595587030621, 0.74040846032346508}"
    }
  ],
  "resizingConstraint": 63,
  "resizingType": 0,
  "rotation": 0,
  "shouldBreakMaskChain": false,
  "style": {
    "_class": "style",
    "do_objectID": "55126A83-C3DD-4DB9-8EB9-61087F0C3D35",
    "endMarkerType": 0,
    "fills": [
      {
        "_class": "fill",
        "color": {
          "_class": "color",
          "alpha": 1,
          "blue": 0.1764705882352941,
          "green": 0.1764705882352941,
          "red": 0.1764705882352941
        },
        "fillType": 0,
        "isEnabled": true,
        "noiseIndex": 0,
        "noiseIntensity": 0,
        "patternFillType": 1,
        "patternTileScale": 1
      }
    ],
    "miterLimit": 10,
    "startMarkerType": 0,
    "windingRule": 1
  }
}