{
  "_class": "shapePath",
  "booleanOperation": -1,
  "clippingMaskMode": 0,
  "do_objectID": "17F8068E-6DC6-40CC-AE00-301DB97B7D89",
  "edited": true,
  "exportOptions": {
    "_class": "exportOptions",
    "do_objectID": "5E044148-0700-4C48-A6EA-17592E3ABCFE",
    "exportFormats": [
    ],
    "includedLayerIds": [
    ],
    "layerOptions": 0,
    "shouldTrim": false
  },
  "frame": {
    "_class": "rect",
    "constrainProportions": false,
    "do_objectID": "95FE915A-F2A8-458F-B31F-FE02B04F36F7",
    "height": 0.1058906030855518,
    "width": 0.1059863482545786,
    "x": 26.11414859433399,
    "y": 12.72619939819727
  },
  "hasClippingMask": false,
  "isClosed": true,
  "isFixedToViewport": false,
  "isFlippedHorizontal": false,
  "isFlippedVertical": false,
  "isLocked": false,
  "isVisible": true,
  "layerListExpandedType": 0,
  "name": "Path",
  "nameIsFixed": false,
  "pointRadiusBehaviour": 0,
  "points": [
    {
      "_class": "curvePoint",
      "cornerRadius": 0,
      "curveFrom": "{-0.2890648902039743, 0.57472595492777145}",
      "curveMode": 4,
      "curveTo": "{0.35793510979601706, 0.97272595492779601}",
      "hasCurveFrom": true,
      "hasCurveTo": true,
      "point": "{0.13393510979602752, 0.83272595492775281}"
    },
    {
      "_class": "curvePoint",
      "cornerRadius": 0,
      "curveFrom": "{1.0539351097960434, 0.27572595492779328}",
      "curveMode": 3,
      "curveTo": "{0.40493510979604252, -0.11927404507224537}",
      "hasCurveFrom": true,
      "hasCurveTo": true,
      "point": "{0.63093510979604162, 0.017725954927755083}"
    }
  ],
  "resizingConstraint": 63,
  "resizingType": 0,
  "rotation": 0,
  "shouldBreakMaskChain": false,
  "style": {
    "_class": "style",
    "do_objectID": "6E4EB2CD-6C00-468B-AC55-F0CB0C97029C",
    "endMarkerType": 0,
    "fills": [
      {
        "_class": "fill",
        "color": {
          "_class": "color",
          "alpha": 1,
          "blue": 0.1764705882352941,
          "green": 0.1764705882352941,
          "red": 0.1764705882352941
        },
        "fillType": 0,
        "isEnabled": true,
        "noiseIndex": 0,
        "noiseIntensity": 0,
        "patternFillType": 1,
        "patternTileScale": 1
      }
    ],
    "miterLimit": 10,
    "startMarkerType": 0,
    "windingRule": 1
  }
}