{
  "_class": "shapePath",
  "booleanOperation": -1,
  "clippingMaskMode": 0,
  "do_objectID": "1964EF79-5163-478E-BA6F-C3B72BE7F62D",
  "edited": true,
  "exportOptions": {
    "_class": "exportOptions",
    "do_objectID": "B0B9680D-896D-4898-9D0E-002029997E87",
    "exportFormats": [
    ],
    "includedLayerIds": [
    ],
    "layerOptions": 0,
    "shouldTrim": false
  },
  "frame": {
    "_class": "rect",
    "constrainProportions": false,
    "do_objectID": "4F7CE4D6-6CFC-4F25-92E3-EE469711BA12",
    "height": 0.1064814587482736,
    "width": 0.1059863482545715,
    "x": 22.29077099396805,
    "y": 17.61175411156657
  },
  "hasClippingMask": false,
  "isClosed": true,
  "isFixedToViewport": false,
  "isFlippedHorizontal": false,
  "isFlippedVertical": false,
  "isLocked": false,
  "isVisible": true,
  "layerListExpandedType": 0,
  "name": "Path",
  "nameIsFixed": false,
  "pointRadiusBehaviour": 0,
  "points": [
    {
      "_class": "curvePoint",
      "cornerRadius": 0,
      "curveFrom": "{0.11959346809163662, 0.015232292460023162}",
      "curveMode": 4,
      "curveTo": "{-0.12640653190834428, 0.26199543031225986}",
      "hasCurveFrom": true,
      "hasCurveTo": true,
      "point": "{0.028593468091685281, 0.108149276466106}"
    },
    {
      "_class": "curvePoint",
      "cornerRadius": 0,
      "curveFrom": "{0.51459346809167528, 0.18811881188120055}",
      "curveMode": 4,
      "curveTo": "{0.49659346809164617, 0.082254379284086118}",
      "hasCurveFrom": true,
      "hasCurveTo": true,
      "point": "{0.61459346809164117, 0}"
    },
    {
      "_class": "curvePoint",
      "cornerRadius": 0,
      "curveFrom": "{0.80259346809168619, 0.98781416603199446}",
      "curveMode": 3,
      "curveTo": "{1.0495934680916434, 0.73876618431074459}",
      "hasCurveFrom": true,
      "hasCurveTo": true,
      "point": "{0.89759346809165663, 0.89261233815689844}"
    },
    {
      "_class": "curvePoint",
      "cornerRadius": 0,
      "curveFrom": "{0.40359346809168528, 0.81340441736480829}",
      "curveMode": 4,
      "curveTo": "{0.42259346809163389, 0.91850723533891832}",
      "hasCurveFrom": true,
      "hasCurveTo": true,
      "point": "{0.3115934680916439, 1}"
    }
  ],
  "resizingConstraint": 63,
  "resizingType": 0,
  "rotation": 0,
  "shouldBreakMaskChain": false,
  "style": {
    "_class": "style",
    "do_objectID": "A75CC937-3987-4AA1-BF81-97764B6481C1",
    "endMarkerType": 0,
    "fills": [
      {
        "_class": "fill",
        "color": {
          "_class": "color",
          "alpha": 1,
          "blue": 0.1764705882352941,
          "green": 0.1764705882352941,
          "red": 0.1764705882352941
        },
        "fillType": 0,
        "isEnabled": true,
        "noiseIndex": 0,
        "noiseIntensity": 0,
        "patternFillType": 1,
        "patternTileScale": 1
      }
    ],
    "miterLimit": 10,
    "startMarkerType": 0,
    "windingRule": 1
  }
}