{
  "_class": "shapePath",
  "booleanOperation": -1,
  "clippingMaskMode": 0,
  "do_objectID": "1B0C7D36-B14D-4532-BF75-ACD779A268CD",
  "edited": true,
  "exportOptions": {
    "_class": "exportOptions",
    "do_objectID": "4F0F5FBE-ABE9-4CE0-81D6-8F28085711AE",
    "exportFormats": [
    ],
    "includedLayerIds": [
    ],
    "layerOptions": 0,
    "shouldTrim": false
  },
  "frame": {
    "_class": "rect",
    "constrainProportions": false,
    "do_objectID": "38046B65-8173-45E6-B94E-0CA843A6457C",
    "height": 0.1058906030855944,
    "width": 0.1059863482545573,
    "x": 31.37004338855248,
    "y": 28.14835334927911
  },
  "hasClippingMask": false,
  "isClosed": true,
  "isFixedToViewport": false,
  "isFlippedHorizontal": false,
  "isFlippedVertical": false,
  "isLocked": false,
  "isVisible": true,
  "layerListExpandedType": 0,
  "name": "Path",
  "nameIsFixed": false,
  "pointRadiusBehaviour": 0,
  "points": [
    {
      "_class": "curvePoint",
      "cornerRadius": 0,
      "curveFrom": "{1.0421721102106289, 0.18845762666063592}",
      "curveMode": 3,
      "curveTo": "{0.27817211021061894, -0.089542373339384085}",
      "hasCurveFrom": true,
      "hasCurveTo": true,
      "point": "{0.54617211021064804, 0.0074576266606527497}"
    },
    {
      "_class": "curvePoint",
      "cornerRadius": 0,
      "curveFrom": "{-0.30382788978937469, 0.78845762666065866}",
      "curveMode": 3,
      "curveTo": "{0.46117211021066851, 1.0664576266606218}",
      "hasCurveFrom": true,
      "hasCurveTo": true,
      "point": "{0.19617211021062531, 0.97145762666065139}"
    }
  ],
  "resizingConstraint": 63,
  "resizingType": 0,
  "rotation": 0,
  "shouldBreakMaskChain": false,
  "style": {
    "_class": "style",
    "do_objectID": "8BC070F0-6982-4716-BFC6-44856803993F",
    "endMarkerType": 0,
    "fills": [
      {
        "_class": "fill",
        "color": {
          "_class": "color",
          "alpha": 1,
          "blue": 0.1764705882352941,
          "green": 0.1764705882352941,
          "red": 0.1764705882352941
        },
        "fillType": 0,
        "isEnabled": true,
        "noiseIndex": 0,
        "noiseIntensity": 0,
        "patternFillType": 1,
        "patternTileScale": 1
      }
    ],
    "miterLimit": 10,
    "startMarkerType": 0,
    "windingRule": 1
  }
}