{
  "_class": "shapePath",
  "booleanOperation": -1,
  "clippingMaskMode": 0,
  "do_objectID": "1CC27ADD-E709-4C71-905C-46782BC058D4",
  "edited": true,
  "exportOptions": {
    "_class": "exportOptions",
    "do_objectID": "65B8D0C1-8729-42ED-90AC-8A4F1ED1D790",
    "exportFormats": [
    ],
    "includedLayerIds": [
    ],
    "layerOptions": 0,
    "shouldTrim": false
  },
  "frame": {
    "_class": "rect",
    "constrainProportions": false,
    "do_objectID": "DF6A1785-38A5-4269-8A7E-91AC761A633B",
    "height": 0.1058906030855544,
    "width": 0.105986348254568,
    "x": 14.50771843196598,
    "y": 2.488187608653914
  },
  "hasClippingMask": false,
  "isClosed": true,
  "isFixedToViewport": false,
  "isFlippedHorizontal": false,
  "isFlippedVertical": false,
  "isLocked": false,
  "isVisible": true,
  "layerListExpandedType": 0,
  "name": "Path",
  "nameIsFixed": false,
  "pointRadiusBehaviour": 0,
  "points": [
    {
      "_class": "curvePoint",
      "cornerRadius": 0,
      "curveFrom": "{-0.30395458095452454, 0.78945062916044506}",
      "curveMode": 4,
      "curveTo": "{0.46004541904545704, 1.0654506291604555}",
      "hasCurveFrom": true,
      "hasCurveTo": true,
      "point": "{0.19604541904547546, 0.96645062916046598}"
    },
    {
      "_class": "curvePoint",
      "cornerRadius": 0,
      "curveFrom": "{1.0410454190454743, 0.18745062916046962}",
      "curveMode": 3,
      "curveTo": "{0.27904541904547386, -0.089549370839517195}",
      "hasCurveFrom": true,
      "hasCurveTo": true,
      "point": "{0.54404541904546022, 0.0074506291604627961}"
    }
  ],
  "resizingConstraint": 63,
  "resizingType": 0,
  "rotation": 0,
  "shouldBreakMaskChain": false,
  "style": {
    "_class": "style",
    "do_objectID": "D0A8BF73-77EC-4B37-8BEA-910DFEA736A4",
    "endMarkerType": 0,
    "fills": [
      {
        "_class": "fill",
        "color": {
          "_class": "color",
          "alpha": 1,
          "blue": 0.1764705882352941,
          "green": 0.1764705882352941,
          "red": 0.1764705882352941
        },
        "fillType": 0,
        "isEnabled": true,
        "noiseIndex": 0,
        "noiseIntensity": 0,
        "patternFillType": 1,
        "patternTileScale": 1
      }
    ],
    "miterLimit": 10,
    "startMarkerType": 0,
    "windingRule": 1
  }
}