{
  "_class": "shapePath",
  "booleanOperation": -1,
  "clippingMaskMode": 0,
  "do_objectID": "1D9C3E0B-CE52-4DB3-9BB9-648572F17E0E",
  "edited": true,
  "exportOptions": {
    "_class": "exportOptions",
    "do_objectID": "6C4AF6E6-5862-49AD-9CFB-26FAC643DF4A",
    "exportFormats": [
    ],
    "includedLayerIds": [
    ],
    "layerOptions": 0,
    "shouldTrim": false
  },
  "frame": {
    "_class": "rect",
    "constrainProportions": false,
    "do_objectID": "D1713408-03A7-40B0-8389-8225181CE130",
    "height": 0.1058906030855624,
    "width": 0.1059863482545715,
    "x": 17.25486879721029,
    "y": 18.02369816914536
  },
  "hasClippingMask": false,
  "isClosed": true,
  "isFixedToViewport": false,
  "isFlippedHorizontal": false,
  "isFlippedVertical": false,
  "isLocked": false,
  "isVisible": true,
  "layerListExpandedType": 0,
  "name": "Path",
  "nameIsFixed": false,
  "pointRadiusBehaviour": 0,
  "points": [
    {
      "_class": "curvePoint",
      "cornerRadius": 0,
      "curveFrom": "{0.94012555599434222, 0.24340629458740182}",
      "curveMode": 4,
      "curveTo": "{0.36212555599433927, -0.10859370541260205}",
      "hasCurveFrom": true,
      "hasCurveTo": true,
      "point": "{0.56312555599433267, 0.016406294587397952}"
    },
    {
      "_class": "curvePoint",
      "cornerRadius": 0,
      "curveFrom": "{-0.25887444400567006, 0.5144062945873884}",
      "curveMode": 3,
      "curveTo": "{0.32212555599434722, 0.86540629458738749}",
      "hasCurveFrom": true,
      "hasCurveTo": true,
      "point": "{0.12012555599434904, 0.74340629458740182}"
    }
  ],
  "resizingConstraint": 63,
  "resizingType": 0,
  "rotation": 0,
  "shouldBreakMaskChain": false,
  "style": {
    "_class": "style",
    "do_objectID": "3E215800-958D-47CB-A24F-579549D211A1",
    "endMarkerType": 0,
    "fills": [
      {
        "_class": "fill",
        "color": {
          "_class": "color",
          "alpha": 1,
          "blue": 0.1764705882352941,
          "green": 0.1764705882352941,
          "red": 0.1764705882352941
        },
        "fillType": 0,
        "isEnabled": true,
        "noiseIndex": 0,
        "noiseIntensity": 0,
        "patternFillType": 1,
        "patternTileScale": 1
      }
    ],
    "miterLimit": 10,
    "startMarkerType": 0,
    "windingRule": 1
  }
}