{
  "_class": "shapePath",
  "booleanOperation": -1,
  "clippingMaskMode": 0,
  "do_objectID": "25F9626C-1C0D-497E-BA56-F98E1A41A6D6",
  "edited": true,
  "exportOptions": {
    "_class": "exportOptions",
    "do_objectID": "632B322B-94EE-4243-BC96-74D88CDBC891",
    "exportFormats": [
    ],
    "includedLayerIds": [
    ],
    "layerOptions": 0,
    "shouldTrim": false
  },
  "frame": {
    "_class": "rect",
    "constrainProportions": false,
    "do_objectID": "2FEFFAF4-FDE4-4273-8F0B-9A3E11C27248",
    "height": 0.1102562196882744,
    "width": 0.1511976565198516,
    "x": 30.25200694307023,
    "y": 20.46946199963519
  },
  "hasClippingMask": false,
  "isClosed": true,
  "isFixedToViewport": false,
  "isFlippedHorizontal": false,
  "isFlippedVertical": false,
  "isLocked": false,
  "isVisible": true,
  "layerListExpandedType": 0,
  "name": "Path",
  "nameIsFixed": false,
  "pointRadiusBehaviour": 0,
  "points": [
    {
      "_class": "curvePoint",
      "cornerRadius": 0,
      "curveFrom": "{0.65119677612510085, 0.83132012019176205}",
      "curveMode": 3,
      "curveTo": "{0.8911708014210924, 0.65993935042048102}",
      "hasCurveFrom": true,
      "hasCurveTo": true,
      "point": "{0.71722989717972752, 0.78424557398849781}"
    },
    {
      "_class": "curvePoint",
      "cornerRadius": 0,
      "curveFrom": "{-0.20186525115751194, 0.75188182347374177}",
      "curveMode": 3,
      "curveTo": "{0.14440599339712537, 1.0402134189687853}",
      "hasCurveFrom": true,
      "hasCurveTo": true,
      "point": "{0.087499401268772717, 0.99313887276550006}"
    },
    {
      "_class": "curvePoint",
      "cornerRadius": 0,
      "curveFrom": "{0.339284228704607, 0.41279798285332781}",
      "curveMode": 4,
      "curveTo": "{0.31834689763852075, 0.49076520000248886}",
      "hasCurveFrom": true,
      "hasCurveTo": true,
      "point": "{0.32801028120747194, 0.45766590970332421}"
    },
    {
      "_class": "curvePoint",
      "cornerRadius": 0,
      "curveFrom": "{0.4557816861749116, -0.13223699740641198}",
      "curveMode": 4,
      "curveTo": "{0.22654475373331698, 0.045763630424714485}",
      "hasCurveFrom": true,
      "hasCurveTo": true,
      "point": "{0.25177692194118645, 0.026639596029628565}"
    },
    {
      "_class": "curvePoint",
      "cornerRadius": 0,
      "curveFrom": "{1.0892701645849114, 0.62389790098361897}",
      "curveMode": 4,
      "curveTo": "{0.69199772897185807, 0.48120318280494589}",
      "hasCurveFrom": true,
      "hasCurveTo": true,
      "point": "{0.95666706783298094, 0.24950815071073054}"
    }
  ],
  "resizingConstraint": 63,
  "resizingType": 0,
  "rotation": 0,
  "shouldBreakMaskChain": false,
  "style": {
    "_class": "style",
    "do_objectID": "71F1F95C-0EA6-44CA-A9F9-A8505052A46B",
    "endMarkerType": 0,
    "fills": [
      {
        "_class": "fill",
        "color": {
          "_class": "color",
          "alpha": 1,
          "blue": 0.1764705882352941,
          "green": 0.1764705882352941,
          "red": 0.1764705882352941
        },
        "fillType": 0,
        "isEnabled": true,
        "noiseIndex": 0,
        "noiseIntensity": 0,
        "patternFillType": 1,
        "patternTileScale": 1
      }
    ],
    "miterLimit": 10,
    "startMarkerType": 0,
    "windingRule": 1
  }
}