{
  "_class": "shapePath",
  "booleanOperation": -1,
  "clippingMaskMode": 0,
  "do_objectID": "29F06FAF-7F1D-4938-BDB5-2B5754BD1DD2",
  "edited": true,
  "exportOptions": {
    "_class": "exportOptions",
    "do_objectID": "88EC4679-DD7D-4CA7-A572-D48260CACD72",
    "exportFormats": [
    ],
    "includedLayerIds": [
    ],
    "layerOptions": 0,
    "shouldTrim": false
  },
  "frame": {
    "_class": "rect",
    "constrainProportions": false,
    "do_objectID": "707925B8-E31C-445D-B01F-097F0F3396EB",
    "height": 0.1058906030855624,
    "width": 0.1059863482545538,
    "x": 28.11660556962489,
    "y": 20.63310220076988
  },
  "hasClippingMask": false,
  "isClosed": true,
  "isFixedToViewport": false,
  "isFlippedHorizontal": false,
  "isFlippedVertical": false,
  "isLocked": false,
  "isVisible": true,
  "layerListExpandedType": 0,
  "name": "Path",
  "nameIsFixed": false,
  "pointRadiusBehaviour": 0,
  "points": [
    {
      "_class": "curvePoint",
      "cornerRadius": 0,
      "curveFrom": "{-0.25662584993915516, 0.51440557297632949}",
      "curveMode": 3,
      "curveTo": "{0.32037415006084302, 0.86640557297633336}",
      "hasCurveFrom": true,
      "hasCurveTo": true,
      "point": "{0.11837415006084484, 0.74440557297631926}"
    },
    {
      "_class": "curvePoint",
      "cornerRadius": 0,
      "curveFrom": "{0.93937415006087122, 0.24640557297632881}",
      "curveMode": 3,
      "curveTo": "{0.36137415006083984, -0.10859442702368938}",
      "hasCurveFrom": true,
      "hasCurveTo": true,
      "point": "{0.56237415006086167, 0.016405572976310623}"
    }
  ],
  "resizingConstraint": 63,
  "resizingType": 0,
  "rotation": 0,
  "shouldBreakMaskChain": false,
  "style": {
    "_class": "style",
    "do_objectID": "423E13FC-65F3-447E-BC74-F4008E78A4E0",
    "endMarkerType": 0,
    "fills": [
      {
        "_class": "fill",
        "color": {
          "_class": "color",
          "alpha": 1,
          "blue": 0.1764705882352941,
          "green": 0.1764705882352941,
          "red": 0.1764705882352941
        },
        "fillType": 0,
        "isEnabled": true,
        "noiseIndex": 0,
        "noiseIntensity": 0,
        "patternFillType": 1,
        "patternTileScale": 1
      }
    ],
    "miterLimit": 10,
    "startMarkerType": 0,
    "windingRule": 1
  }
}