{
  "_class": "shapePath",
  "booleanOperation": -1,
  "clippingMaskMode": 0,
  "do_objectID": "382496FC-FD6A-41DB-A175-0EB99E531B13",
  "edited": true,
  "exportOptions": {
    "_class": "exportOptions",
    "do_objectID": "93A4CE99-FB42-4664-BAE6-299CA029EA82",
    "exportFormats": [
    ],
    "includedLayerIds": [
    ],
    "layerOptions": 0,
    "shouldTrim": false
  },
  "frame": {
    "_class": "rect",
    "constrainProportions": false,
    "do_objectID": "A9E30321-6FFB-41F3-B058-F6CB4390F395",
    "height": 0.1058906030855553,
    "width": 0.1102573417041519,
    "x": 22.07852741336433,
    "y": 14.7073549772509
  },
  "hasClippingMask": false,
  "isClosed": true,
  "isFixedToViewport": false,
  "isFlippedHorizontal": false,
  "isFlippedVertical": false,
  "isLocked": false,
  "isVisible": true,
  "layerListExpandedType": 0,
  "name": "Path",
  "nameIsFixed": false,
  "pointRadiusBehaviour": 0,
  "points": [
    {
      "_class": "curvePoint",
      "cornerRadius": 0,
      "curveFrom": "{0.47363937075278001, 0.13152198011556493}",
      "curveMode": 3,
      "curveTo": "{0.1813690188763358, -0.011478019884407331}",
      "hasCurveFrom": true,
      "hasCurveTo": true,
      "point": "{0.35658399053020268, 0.073521980115572205}"
    },
    {
      "_class": "curvePoint",
      "cornerRadius": 0,
      "curveFrom": "{0.56713643545880044, 0.16552198011555674}",
      "curveMode": 4,
      "curveTo": "{0.49793388362912611, 0.26852198011556538}",
      "hasCurveFrom": true,
      "hasCurveTo": true,
      "point": "{0.47584796283244024, 0.41552198011555674}"
    },
    {
      "_class": "curvePoint",
      "cornerRadius": 0,
      "curveFrom": "{1.2120453227226387, 0.27652198011560358}",
      "curveMode": 3,
      "curveTo": "{0.79977480118412581, -0.066478019884414152}",
      "hasCurveFrom": true,
      "hasCurveTo": true,
      "point": "{0.90210623420887071, 0.017521980115589031}"
    },
    {
      "_class": "curvePoint",
      "cornerRadius": 0,
      "curveFrom": "{0.44566387107694444, 0.76252198011559358}",
      "curveMode": 3,
      "curveTo": "{0.70186055231874322, 0.97252198011557311}",
      "hasCurveFrom": true,
      "hasCurveTo": true,
      "point": "{0.53400755426377156, 0.83452198011559631}"
    },
    {
      "_class": "curvePoint",
      "cornerRadius": 0,
      "curveFrom": "{0.37498892452748273, 0.76852198011556538}",
      "curveMode": 4,
      "curveTo": "{0.42799513443957904, 0.65552198011556584}",
      "hasCurveFrom": true,
      "hasCurveTo": true,
      "point": "{0.44492767371702979, 0.54252198011556629}"
    },
    {
      "_class": "curvePoint",
      "cornerRadius": 0,
      "curveFrom": "{-0.19850881882697907, 0.76852198011556538}",
      "curveMode": 4,
      "curveTo": "{0.22333226839008916, 0.97752198011556857}",
      "hasCurveFrom": true,
      "hasCurveTo": true,
      "point": "{0.12836280896423952, 0.92952198011556675}"
    }
  ],
  "resizingConstraint": 63,
  "resizingType": 0,
  "rotation": 0,
  "shouldBreakMaskChain": false,
  "style": {
    "_class": "style",
    "do_objectID": "C5FB05C3-C729-4E28-A2B7-07AF409FC589",
    "endMarkerType": 0,
    "fills": [
      {
        "_class": "fill",
        "color": {
          "_class": "color",
          "alpha": 1,
          "blue": 0.1764705882352941,
          "green": 0.1764705882352941,
          "red": 0.1764705882352941
        },
        "fillType": 0,
        "isEnabled": true,
        "noiseIndex": 0,
        "noiseIntensity": 0,
        "patternFillType": 1,
        "patternTileScale": 1
      }
    ],
    "miterLimit": 10,
    "startMarkerType": 0,
    "windingRule": 1
  }
}