{
  "_class": "shapePath",
  "booleanOperation": -1,
  "clippingMaskMode": 0,
  "do_objectID": "3998C9EA-85B3-4FFA-9E42-1AD1E010171B",
  "edited": true,
  "exportOptions": {
    "_class": "exportOptions",
    "do_objectID": "7749EE09-7D49-4118-974C-D4E102D07034",
    "exportFormats": [
    ],
    "includedLayerIds": [
    ],
    "layerOptions": 0,
    "shouldTrim": false
  },
  "frame": {
    "_class": "rect",
    "constrainProportions": false,
    "do_objectID": "069120B2-74EA-41B8-B944-E52D764CA460",
    "height": 0.1058906030855731,
    "width": 0.1560921481240953,
    "x": 42.08343342246656,
    "y": 18.94999131488417
  },
  "hasClippingMask": false,
  "isClosed": true,
  "isFixedToViewport": false,
  "isFlippedHorizontal": false,
  "isFlippedVertical": false,
  "isLocked": false,
  "isVisible": true,
  "layerListExpandedType": 0,
  "name": "Path",
  "nameIsFixed": false,
  "pointRadiusBehaviour": 0,
  "points": [
    {
      "_class": "curvePoint",
      "cornerRadius": 0,
      "curveFrom": "{0.28289131565261683, 0.61548444404127167}",
      "curveMode": 4,
      "curveTo": "{0.57202288091524789, 1.0804844440412751}",
      "hasCurveFrom": true,
      "hasCurveTo": true,
      "point": "{0.49973998959959015, 0.46548444404129441}"
    },
    {
      "_class": "curvePoint",
      "cornerRadius": 0,
      "curveFrom": "{0.21632865314615354, -0.030515555958714913}",
      "curveMode": 4,
      "curveTo": "{0.073322932917356351, 0.72848444404127122}",
      "hasCurveFrom": true,
      "hasCurveTo": true,
      "point": "{0, 0.118484444041286}"
    },
    {
      "_class": "curvePoint",
      "cornerRadius": 0,
      "curveFrom": "{0.71606864274574367, 0.3164844440412935}",
      "curveMode": 4,
      "curveTo": "{0.42641705668229291, -0.14551555595872401}",
      "hasCurveFrom": true,
      "hasCurveTo": true,
      "point": "{0.49973998959959015, 0.46548444404129441}"
    },
    {
      "_class": "curvePoint",
      "cornerRadius": 0,
      "curveFrom": "{0.78263130525220703, 0.96648444404127076}",
      "curveMode": 4,
      "curveTo": "{0.92719708788352251, 0.20248444404128918}",
      "hasCurveFrom": true,
      "hasCurveTo": true,
      "point": "{1, 0.81548444404128873}"
    }
  ],
  "resizingConstraint": 63,
  "resizingType": 0,
  "rotation": 0,
  "shouldBreakMaskChain": false,
  "style": {
    "_class": "style",
    "do_objectID": "CA361D22-C891-4A2C-A560-80FF662C9D18",
    "endMarkerType": 0,
    "fills": [
      {
        "_class": "fill",
        "color": {
          "_class": "color",
          "alpha": 1,
          "blue": 0.1764705882352941,
          "green": 0.1764705882352941,
          "red": 0.1764705882352941
        },
        "fillType": 0,
        "isEnabled": true,
        "noiseIndex": 0,
        "noiseIntensity": 0,
        "patternFillType": 1,
        "patternTileScale": 1
      }
    ],
    "miterLimit": 10,
    "startMarkerType": 0,
    "windingRule": 1
  }
}