{
  "_class": "shapePath",
  "booleanOperation": -1,
  "clippingMaskMode": 0,
  "do_objectID": "4018E9E4-1E25-4019-8AFB-84758440AC6A",
  "edited": true,
  "exportOptions": {
    "_class": "exportOptions",
    "do_objectID": "0A0E681C-41DC-4DBE-BCEF-AE1395265A91",
    "exportFormats": [
    ],
    "includedLayerIds": [
    ],
    "layerOptions": 0,
    "shouldTrim": false
  },
  "frame": {
    "_class": "rect",
    "constrainProportions": false,
    "do_objectID": "7D4D1C55-76BE-49C5-865F-5584C345D690",
    "height": 0.1143231962313287,
    "width": 0.2354620051969221,
    "x": 18.13185597419013,
    "y": 16.8308602847905
  },
  "hasClippingMask": false,
  "isClosed": true,
  "isFixedToViewport": false,
  "isFlippedHorizontal": false,
  "isFlippedVertical": false,
  "isLocked": false,
  "isVisible": true,
  "layerListExpandedType": 0,
  "name": "Path",
  "nameIsFixed": false,
  "pointRadiusBehaviour": 0,
  "points": [
    {
      "_class": "curvePoint",
      "cornerRadius": 0,
      "curveFrom": "{0.92489869647475143, 0.83637542695980682}",
      "curveMode": 4,
      "curveTo": "{1.1875840788490946, -0.6050713511971666}",
      "hasCurveFrom": true,
      "hasCurveTo": true,
      "point": "{0.97764261183337642, 0.87610033816884514}"
    },
    {
      "_class": "curvePoint",
      "cornerRadius": 0,
      "curveFrom": "{0.72047293302595528, 0.95058454668582726}",
      "curveMode": 3,
      "curveTo": "{0.79734805148983257, 1.0484780778795417}",
      "hasCurveFrom": true,
      "hasCurveTo": true,
      "point": "{0.75115403411692139, 0.98960008448041492}"
    },
    {
      "_class": "curvePoint",
      "cornerRadius": 0,
      "curveFrom": "{0.48433187406739159, 0.44763879584267108}",
      "curveMode": 4,
      "curveTo": "{0.72702283101165932, 0.53347297899078394}",
      "hasCurveFrom": true,
      "hasCurveTo": true,
      "point": "{0.69599699844775942, 0.52212300435963299}"
    },
    {
      "_class": "curvePoint",
      "cornerRadius": 0,
      "curveFrom": "{-0.15445554527599409, 0.072380259600038341}",
      "curveMode": 4,
      "curveTo": "{0.22923058409755401, 0.89738154060226571}",
      "hasCurveFrom": true,
      "hasCurveTo": true,
      "point": "{0.01480760793371535, 0.8612034964654609}"
    }
  ],
  "resizingConstraint": 63,
  "resizingType": 0,
  "rotation": 0,
  "shouldBreakMaskChain": false,
  "style": {
    "_class": "style",
    "do_objectID": "576D187D-C4E0-4DF8-B8E2-C53BAB3E4C01",
    "endMarkerType": 0,
    "fills": [
      {
        "_class": "fill",
        "color": {
          "_class": "color",
          "alpha": 1,
          "blue": 0.1764705882352941,
          "green": 0.1764705882352941,
          "red": 0.1764705882352941
        },
        "fillType": 0,
        "isEnabled": true,
        "noiseIndex": 0,
        "noiseIntensity": 0,
        "patternFillType": 1,
        "patternTileScale": 1
      }
    ],
    "miterLimit": 10,
    "startMarkerType": 0,
    "windingRule": 1
  }
}