{
  "_class": "shapePath",
  "booleanOperation": -1,
  "clippingMaskMode": 0,
  "do_objectID": "44E83717-5B90-4573-8D0F-494FF3BF64E2",
  "edited": true,
  "exportOptions": {
    "_class": "exportOptions",
    "do_objectID": "FDEBA6D1-B6B8-48D9-A584-E6D14F01DB29",
    "exportFormats": [
    ],
    "includedLayerIds": [
    ],
    "layerOptions": 0,
    "shouldTrim": false
  },
  "frame": {
    "_class": "rect",
    "constrainProportions": false,
    "do_objectID": "8E6BAD78-4B78-4B52-B449-E31006542E87",
    "height": 0.105890603085566,
    "width": 0.1059863482545564,
    "x": 5.665697185505418,
    "y": 28.42836283626014
  },
  "hasClippingMask": false,
  "isClosed": true,
  "isFixedToViewport": false,
  "isFlippedHorizontal": false,
  "isFlippedVertical": false,
  "isLocked": false,
  "isVisible": true,
  "layerListExpandedType": 0,
  "name": "Path",
  "nameIsFixed": false,
  "pointRadiusBehaviour": 0,
  "points": [
    {
      "_class": "curvePoint",
      "cornerRadius": 0,
      "curveFrom": "{-0.25738336848466759, 0.51472077718540277}",
      "curveMode": 4,
      "curveTo": "{0.32161663151532593, 0.8687207771854446}",
      "hasCurveFrom": true,
      "hasCurveTo": true,
      "point": "{0.11861663151533719, 0.74272077718541141}"
    },
    {
      "_class": "curvePoint",
      "cornerRadius": 0,
      "curveFrom": "{0.94161663151533048, 0.24672077718543051}",
      "curveMode": 4,
      "curveTo": "{0.36261663151533696, -0.10627922281457813}",
      "hasCurveFrom": true,
      "hasCurveTo": true,
      "point": "{0.56661663151533048, 0.01572077718537912}"
    }
  ],
  "resizingConstraint": 63,
  "resizingType": 0,
  "rotation": 0,
  "shouldBreakMaskChain": false,
  "style": {
    "_class": "style",
    "do_objectID": "97369FF9-413E-43C4-9783-2B9474440B58",
    "endMarkerType": 0,
    "fills": [
      {
        "_class": "fill",
        "color": {
          "_class": "color",
          "alpha": 1,
          "blue": 0.1764705882352941,
          "green": 0.1764705882352941,
          "red": 0.1764705882352941
        },
        "fillType": 0,
        "isEnabled": true,
        "noiseIndex": 0,
        "noiseIntensity": 0,
        "patternFillType": 1,
        "patternTileScale": 1
      }
    ],
    "miterLimit": 10,
    "startMarkerType": 0,
    "windingRule": 1
  }
}