{
  "_class": "shapePath",
  "booleanOperation": -1,
  "clippingMaskMode": 0,
  "do_objectID": "496F6A79-DB52-4B31-954C-E119CE329FC4",
  "edited": true,
  "exportOptions": {
    "_class": "exportOptions",
    "do_objectID": "AEA2CB34-FD4A-40FB-9972-E08B03A62EB0",
    "exportFormats": [
    ],
    "includedLayerIds": [
    ],
    "layerOptions": 0,
    "shouldTrim": false
  },
  "frame": {
    "_class": "rect",
    "constrainProportions": false,
    "do_objectID": "2A7775A0-FBEA-469F-8247-3389C59A58BC",
    "height": 0.1058906030855837,
    "width": 0.1059863482545715,
    "x": 22.04586589733253,
    "y": 36.08319605081545
  },
  "hasClippingMask": false,
  "isClosed": true,
  "isFixedToViewport": false,
  "isFlippedHorizontal": false,
  "isFlippedVertical": false,
  "isLocked": false,
  "isVisible": true,
  "layerListExpandedType": 0,
  "name": "Path",
  "nameIsFixed": false,
  "pointRadiusBehaviour": 0,
  "points": [
    {
      "_class": "curvePoint",
      "cornerRadius": 0,
      "curveFrom": "{-0.28826245073668133, 0.5796163509253347}",
      "curveMode": 4,
      "curveTo": "{0.35973754926328638, 0.9726163509253638}",
      "hasCurveFrom": true,
      "hasCurveTo": true,
      "point": "{0.13273754926331094, 0.8376163509253729}"
    },
    {
      "_class": "curvePoint",
      "cornerRadius": 0,
      "curveFrom": "{1.0547375492632796, 0.27761635092537063}",
      "curveMode": 3,
      "curveTo": "{0.40673754926331185, -0.11938364907462073}",
      "hasCurveFrom": true,
      "hasCurveTo": true,
      "point": "{0.63273754926331094, 0.01761635092537972}"
    }
  ],
  "resizingConstraint": 63,
  "resizingType": 0,
  "rotation": 0,
  "shouldBreakMaskChain": false,
  "style": {
    "_class": "style",
    "do_objectID": "5E441B36-DF39-4C0F-B733-59531D08083E",
    "endMarkerType": 0,
    "fills": [
      {
        "_class": "fill",
        "color": {
          "_class": "color",
          "alpha": 1,
          "blue": 0.1764705882352941,
          "green": 0.1764705882352941,
          "red": 0.1764705882352941
        },
        "fillType": 0,
        "isEnabled": true,
        "noiseIndex": 0,
        "noiseIntensity": 0,
        "patternFillType": 1,
        "patternTileScale": 1
      }
    ],
    "miterLimit": 10,
    "startMarkerType": 0,
    "windingRule": 1
  }
}