{
  "_class": "shapePath",
  "booleanOperation": -1,
  "clippingMaskMode": 0,
  "do_objectID": "550DE434-9BEA-46EE-AAB2-38282EF7B28C",
  "edited": true,
  "exportOptions": {
    "_class": "exportOptions",
    "do_objectID": "67A47E04-7881-4744-876A-BF7DE0437E1D",
    "exportFormats": [
    ],
    "includedLayerIds": [
    ],
    "layerOptions": 0,
    "shouldTrim": false
  },
  "frame": {
    "_class": "rect",
    "constrainProportions": false,
    "do_objectID": "A021DB7C-1A77-4A54-93C3-294042ACE53F",
    "height": 0.1058906030855535,
    "width": 0.1059863482545449,
    "x": 14.75119351838046,
    "y": 4.571384268606366
  },
  "hasClippingMask": false,
  "isClosed": true,
  "isFixedToViewport": false,
  "isFlippedHorizontal": false,
  "isFlippedVertical": false,
  "isLocked": false,
  "isVisible": true,
  "layerListExpandedType": 0,
  "name": "Path",
  "nameIsFixed": false,
  "pointRadiusBehaviour": 0,
  "points": [
    {
      "_class": "curvePoint",
      "cornerRadius": 0,
      "curveFrom": "{0.36209603008785235, 1.0699999999999932}",
      "curveMode": 4,
      "curveTo": "{0.86514038324227061, 0.61000000000001364}",
      "hasCurveFrom": true,
      "hasCurveTo": true,
      "point": "{0.58874238700356152, 0.72899999999998499}"
    },
    {
      "_class": "curvePoint",
      "cornerRadius": 0,
      "curveFrom": "{0.13071142180802872, 0.043000000000006366}",
      "curveMode": 3,
      "curveTo": "{-0.084089306697484031, 0.48599999999999}",
      "hasCurveFrom": true,
      "hasCurveTo": true,
      "point": "{0.013834554827099509, 0.28300000000001546}"
    },
    {
      "_class": "curvePoint",
      "cornerRadius": 0,
      "curveFrom": "{1.1210059569032176, 0.47300000000001319}",
      "curveMode": 4,
      "curveTo": "{0.77590331588520778, 0.20800000000002683}",
      "hasCurveFrom": true,
      "hasCurveTo": true,
      "point": "{0.93858327938568586, 0}"
    }
  ],
  "resizingConstraint": 63,
  "resizingType": 0,
  "rotation": 0,
  "shouldBreakMaskChain": false,
  "style": {
    "_class": "style",
    "do_objectID": "FA1DA002-3724-4E6F-BB18-6276EEE2E516",
    "endMarkerType": 0,
    "fills": [
      {
        "_class": "fill",
        "color": {
          "_class": "color",
          "alpha": 1,
          "blue": 0.1764705882352941,
          "green": 0.1764705882352941,
          "red": 0.1764705882352941
        },
        "fillType": 0,
        "isEnabled": true,
        "noiseIndex": 0,
        "noiseIntensity": 0,
        "patternFillType": 1,
        "patternTileScale": 1
      }
    ],
    "miterLimit": 10,
    "startMarkerType": 0,
    "windingRule": 1
  }
}