{
  "_class": "shapePath",
  "booleanOperation": -1,
  "clippingMaskMode": 0,
  "do_objectID": "556D9DDF-56EE-4AA0-9967-4E29717DC6E1",
  "edited": true,
  "exportOptions": {
    "_class": "exportOptions",
    "do_objectID": "629A1CD5-87A7-4D9D-A782-9BAF064E7C0B",
    "exportFormats": [
    ],
    "includedLayerIds": [
    ],
    "layerOptions": 0,
    "shouldTrim": false
  },
  "frame": {
    "_class": "rect",
    "constrainProportions": false,
    "do_objectID": "EE41F34A-52DC-4C1E-9D32-24A4D040163D",
    "height": 0.1475627436193534,
    "width": 0.1804952466577632,
    "x": 34.59435539714799,
    "y": 11.72583536592069
  },
  "hasClippingMask": false,
  "isClosed": true,
  "isFixedToViewport": false,
  "isFlippedHorizontal": false,
  "isFlippedVertical": false,
  "isLocked": false,
  "isVisible": true,
  "layerListExpandedType": 0,
  "name": "Path",
  "nameIsFixed": false,
  "pointRadiusBehaviour": 0,
  "points": [
    {
      "_class": "curvePoint",
      "cornerRadius": 0,
      "curveFrom": "{1.0868631711235599, 0.41658319862171472}",
      "curveMode": 4,
      "curveTo": "{0.81163845906604193, 0.47483889658200573}",
      "hasCurveFrom": true,
      "hasCurveTo": true,
      "point": "{0.93396055331381922, 0.17256876565594573}"
    },
    {
      "_class": "curvePoint",
      "cornerRadius": 0,
      "curveFrom": "{0.6974112092905318, 0.73204329889727582}",
      "curveMode": 4,
      "curveTo": "{0.94655253360404101, 0.53364417659851293}",
      "hasCurveFrom": true,
      "hasCurveTo": true,
      "point": "{0.79364991579430022, 0.64191184167566462}"
    },
    {
      "_class": "curvePoint",
      "cornerRadius": 0,
      "curveFrom": "{0.56564512982511372, 0.83591430752457296}",
      "curveMode": 4,
      "curveTo": "{0.62680617694898955, 0.73643995534709905}",
      "hasCurveFrom": true,
      "hasCurveTo": true,
      "point": "{0.56789369773407816, 0.69961795757973944}"
    },
    {
      "_class": "curvePoint",
      "cornerRadius": 0,
      "curveFrom": "{0.2063239779722407, 1.1299407076072026}",
      "curveMode": 4,
      "curveTo": "{0.45411616154037632, 0.89197167725996795}",
      "hasCurveFrom": true,
      "hasCurveTo": true,
      "point": "{0.33494206236512891, 0.94253322643304482}"
    },
    {
      "_class": "curvePoint",
      "cornerRadius": 0,
      "curveFrom": "{0.063315058961974466, 0.58585447194030082}",
      "curveMode": 2,
      "curveTo": "{-0.046864768577389311, 0.80843520471310726}",
      "hasCurveFrom": true,
      "hasCurveTo": true,
      "point": "{0.007550574819592995, 0.69796921141105961}"
    },
    {
      "_class": "curvePoint",
      "cornerRadius": 0,
      "curveFrom": "{0.44467217632271, 0.54408623566687053}",
      "curveMode": 4,
      "curveTo": "{0.32414893640208897, 0.62597396204502009}",
      "hasCurveFrom": true,
      "hasCurveTo": true,
      "point": "{0.4635601467580171, 0.57651157698440691}"
    },
    {
      "_class": "curvePoint",
      "cornerRadius": 0,
      "curveFrom": "{0.26523645718717759, 0.27204311783341961}",
      "curveMode": 4,
      "curveTo": "{0.42668363305096824, 0.50891298406822194}",
      "hasCurveFrom": true,
      "hasCurveTo": true,
      "point": "{0.40869508977922653, 0.47154140424461488}"
    },
    {
      "_class": "curvePoint",
      "cornerRadius": 0,
      "curveFrom": "{0.54405887789903384, 0.0027479102811434441}",
      "curveMode": 4,
      "curveTo": "{0.38351112919880853, 0.050561549173076856}",
      "hasCurveFrom": true,
      "hasCurveTo": true,
      "point": "{0.5481063001351546, 0}"
    }
  ],
  "resizingConstraint": 63,
  "resizingType": 0,
  "rotation": 0,
  "shouldBreakMaskChain": false,
  "style": {
    "_class": "style",
    "do_objectID": "398202D8-2DDD-4A83-807D-3A546D368F18",
    "endMarkerType": 0,
    "fills": [
      {
        "_class": "fill",
        "color": {
          "_class": "color",
          "alpha": 1,
          "blue": 0.1764705882352941,
          "green": 0.1764705882352941,
          "red": 0.1764705882352941
        },
        "fillType": 0,
        "isEnabled": true,
        "noiseIndex": 0,
        "noiseIntensity": 0,
        "patternFillType": 1,
        "patternTileScale": 1
      }
    ],
    "miterLimit": 10,
    "startMarkerType": 0,
    "windingRule": 1
  }
}