{
  "_class": "shapePath",
  "booleanOperation": -1,
  "clippingMaskMode": 0,
  "do_objectID": "56312F1C-23E1-402C-BF23-BFFE09739D6A",
  "edited": true,
  "exportOptions": {
    "_class": "exportOptions",
    "do_objectID": "F9BFB5CE-724F-4260-8C2A-F5D8D0D6322F",
    "exportFormats": [
    ],
    "includedLayerIds": [
    ],
    "layerOptions": 0,
    "shouldTrim": false
  },
  "frame": {
    "_class": "rect",
    "constrainProportions": false,
    "do_objectID": "94AA85B7-2C9D-48E6-BE30-653DD5BC31E5",
    "height": 0.107419899331731,
    "width": 0.3932708622248811,
    "x": 10.26008396969903,
    "y": 21.34326247786132
  },
  "hasClippingMask": false,
  "isClosed": true,
  "isFixedToViewport": false,
  "isFlippedHorizontal": false,
  "isFlippedVertical": false,
  "isLocked": false,
  "isVisible": true,
  "layerListExpandedType": 0,
  "name": "Path",
  "nameIsFixed": false,
  "pointRadiusBehaviour": 0,
  "points": [
    {
      "_class": "curvePoint",
      "cornerRadius": 0,
      "curveFrom": "{0.48739291690189696, 0.017795721538567417}",
      "curveMode": 4,
      "curveTo": "{0.35777362443088778, -0.062985106897516893}",
      "hasCurveFrom": true,
      "hasCurveTo": true,
      "point": "{0.47046810482765783, 0.0079812283640618101}"
    },
    {
      "_class": "curvePoint",
      "cornerRadius": 0,
      "curveFrom": "{0.59967459700417725, 0.67385684220191922}",
      "curveMode": 3,
      "curveTo": "{0.4838841143987016, 0.41415025358486612}",
      "hasCurveFrom": true,
      "hasCurveTo": true,
      "point": "{0.49977692573670751, 0.44963342121569844}"
    },
    {
      "_class": "curvePoint",
      "cornerRadius": 0,
      "curveFrom": "{1.0314637050445519, 0.37866708595407678}",
      "curveMode": 4,
      "curveTo": "{0.86943958945578748, -0.11734229986387085}",
      "hasCurveFrom": true,
      "hasCurveTo": true,
      "point": "{0.9841980713250299, 0.020815565592268055}"
    },
    {
      "_class": "curvePoint",
      "cornerRadius": 0,
      "curveFrom": "{0.8114411480794258, 0.64290344065159499}",
      "curveMode": 4,
      "curveTo": "{0.96438365718933305, 0.47983186175253312}",
      "hasCurveFrom": true,
      "hasCurveTo": true,
      "point": "{0.89255640594743191, 0.57118214437656967}"
    },
    {
      "_class": "curvePoint",
      "cornerRadius": 0,
      "curveFrom": "{0.56933377535888852, 0.85655740744990649}",
      "curveMode": 2,
      "curveTo": "{0.73053229035866751, 0.71462473692666317}",
      "hasCurveFrom": true,
      "hasCurveTo": true,
      "point": "{0.65024263307965269, 0.78559107218828483}"
    },
    {
      "_class": "curvePoint",
      "cornerRadius": 0,
      "curveFrom": "{0.40524565829765757, 0.5719371053900163}",
      "curveMode": 4,
      "curveTo": "{0.48863131778537799, 0.92827870372497467}",
      "hasCurveFrom": true,
      "hasCurveTo": true,
      "point": "{0.40813526035911535, 1}"
    },
    {
      "_class": "curvePoint",
      "cornerRadius": 0,
      "curveFrom": "{0.17696709544265676, 0.66328738801400988}",
      "curveMode": 4,
      "curveTo": "{0.33321200690851449, 0.66706219308111425}",
      "hasCurveFrom": true,
      "hasCurveTo": true,
      "point": "{0.25787595316341799, 0.66404234902741355}"
    },
    {
      "_class": "curvePoint",
      "cornerRadius": 0,
      "curveFrom": "{-0.031290653129396426, 0.522864639517574}",
      "curveMode": 4,
      "curveTo": "{0.096264637869146297, 0.86486197859756175}",
      "hasCurveFrom": true,
      "hasCurveTo": true,
      "point": "{0.015768580442880702, 0.87845127683912871}"
    },
    {
      "_class": "curvePoint",
      "cornerRadius": 0,
      "curveFrom": "{0.22196232754246742, 0.3635678656856165}",
      "curveMode": 4,
      "curveTo": "{0.035170194284081926, 0.41943498067882079}",
      "hasCurveFrom": true,
      "hasCurveTo": true,
      "point": "{0.10741024582047579, 0.3295946200816775}"
    }
  ],
  "resizingConstraint": 63,
  "resizingType": 0,
  "rotation": 0,
  "shouldBreakMaskChain": false,
  "style": {
    "_class": "style",
    "do_objectID": "B523416B-5476-4D6F-8453-9B874CF944B4",
    "endMarkerType": 0,
    "fills": [
      {
        "_class": "fill",
        "color": {
          "_class": "color",
          "alpha": 1,
          "blue": 0.1764705882352941,
          "green": 0.1764705882352941,
          "red": 0.1764705882352941
        },
        "fillType": 0,
        "isEnabled": true,
        "noiseIndex": 0,
        "noiseIntensity": 0,
        "patternFillType": 1,
        "patternTileScale": 1
      }
    ],
    "miterLimit": 10,
    "startMarkerType": 0,
    "windingRule": 1
  }
}