{
  "_class": "shapePath",
  "booleanOperation": -1,
  "clippingMaskMode": 0,
  "do_objectID": "5BB33098-04D1-4433-A685-C8C9EEDAF626",
  "edited": true,
  "exportOptions": {
    "_class": "exportOptions",
    "do_objectID": "9BF60F00-DDD4-4784-A732-CF217C976170",
    "exportFormats": [
    ],
    "includedLayerIds": [
    ],
    "layerOptions": 0,
    "shouldTrim": false
  },
  "frame": {
    "_class": "rect",
    "constrainProportions": false,
    "do_objectID": "CA7713C4-CE6C-4E9B-BEC1-828B0094C4D6",
    "height": 0.105890603085554,
    "width": 0.1059863482545609,
    "x": 17.83737862286861,
    "y": 1.710577003713359
  },
  "hasClippingMask": false,
  "isClosed": true,
  "isFixedToViewport": false,
  "isFlippedHorizontal": false,
  "isFlippedVertical": false,
  "isLocked": false,
  "isVisible": true,
  "layerListExpandedType": 0,
  "name": "Path",
  "nameIsFixed": false,
  "pointRadiusBehaviour": 0,
  "points": [
    {
      "_class": "curvePoint",
      "cornerRadius": 0,
      "curveFrom": "{0.36140844458742211, 1.0720000000000027}",
      "curveMode": 4,
      "curveTo": "{0.86506326497170727, 0.60800000000000409}",
      "hasCurveFrom": true,
      "hasCurveTo": true,
      "point": "{0.59113188147115903, 0.72800000000000864}"
    },
    {
      "_class": "curvePoint",
      "cornerRadius": 0,
      "curveFrom": "{0.13089558008552424, 0.040999999999996817}",
      "curveMode": 3,
      "curveTo": "{-0.082249876816900061, 0.48200000000002774}",
      "hasCurveFrom": true,
      "hasCurveTo": true,
      "point": "{0.013270864980103676, 0.28399999999999181}"
    },
    {
      "_class": "curvePoint",
      "cornerRadius": 0,
      "curveFrom": "{1.1184695304001604, 0.47300000000001319}",
      "curveMode": 4,
      "curveTo": "{0.77743679935626819, 0.20800000000002683}",
      "hasCurveFrom": true,
      "hasCurveTo": true,
      "point": "{0.94084831631479937, 0}"
    }
  ],
  "resizingConstraint": 63,
  "resizingType": 0,
  "rotation": 0,
  "shouldBreakMaskChain": false,
  "style": {
    "_class": "style",
    "do_objectID": "41187FD8-4110-4ECA-AA0A-E7D52C73A0DF",
    "endMarkerType": 0,
    "fills": [
      {
        "_class": "fill",
        "color": {
          "_class": "color",
          "alpha": 1,
          "blue": 0.1764705882352941,
          "green": 0.1764705882352941,
          "red": 0.1764705882352941
        },
        "fillType": 0,
        "isEnabled": true,
        "noiseIndex": 0,
        "noiseIntensity": 0,
        "patternFillType": 1,
        "patternTileScale": 1
      }
    ],
    "miterLimit": 10,
    "startMarkerType": 0,
    "windingRule": 1
  }
}