{
  "_class": "shapePath",
  "booleanOperation": -1,
  "clippingMaskMode": 0,
  "do_objectID": "6349EA53-BF7D-4656-AC6E-35A0D71B5EC5",
  "edited": true,
  "exportOptions": {
    "_class": "exportOptions",
    "do_objectID": "AAACBF2B-4E2A-46CD-8C42-BF16CAD5EB15",
    "exportFormats": [
    ],
    "includedLayerIds": [
    ],
    "layerOptions": 0,
    "shouldTrim": false
  },
  "frame": {
    "_class": "rect",
    "constrainProportions": false,
    "do_objectID": "EA673467-5FED-4A7E-A235-0328117B4B25",
    "height": 0.1419242395204137,
    "width": 0.2636427586874284,
    "x": 14.25672872363145,
    "y": 17.2242686508664
  },
  "hasClippingMask": false,
  "isClosed": true,
  "isFixedToViewport": false,
  "isFlippedHorizontal": false,
  "isFlippedVertical": false,
  "isLocked": false,
  "isVisible": true,
  "layerListExpandedType": 0,
  "name": "Path",
  "nameIsFixed": false,
  "pointRadiusBehaviour": 0,
  "points": [
    {
      "_class": "curvePoint",
      "cornerRadius": 0,
      "curveFrom": "{0.047767997970432761, 0.45941877450599505}",
      "curveMode": 4,
      "curveTo": "{-0.023353010425836804, 1.6931067523149963}",
      "hasCurveFrom": true,
      "hasCurveTo": true,
      "point": "{0.00035399237291971688, 0.44627619762336312}"
    },
    {
      "_class": "curvePoint",
      "cornerRadius": 0,
      "curveFrom": "{0.20786723765035386, 0.30913626493500151}",
      "curveMode": 4,
      "curveTo": "{0.13674622925407554, 0.26113728849407497}",
      "hasCurveFrom": true,
      "hasCurveTo": true,
      "point": "{0.18046563701282112, 0.28970810780415573}"
    },
    {
      "_class": "curvePoint",
      "cornerRadius": 0,
      "curveFrom": "{0.50743754574373412, 0.60798703491837591}",
      "curveMode": 4,
      "curveTo": "{0.23742402036048493, 0.62684377566301752}",
      "hasCurveFrom": true,
      "hasCurveTo": true,
      "point": "{0.2642098546915535, 0.62341527734580848}"
    },
    {
      "_class": "curvePoint",
      "cornerRadius": 0,
      "curveFrom": "{1.1521448686086326, 0.51713182951234449}",
      "curveMode": 4,
      "curveTo": "{0.74081297589254058, 0.061712969709762713}",
      "hasCurveFrom": true,
      "hasCurveTo": true,
      "point": "{0.98342490063825705, 0}"
    }
  ],
  "resizingConstraint": 63,
  "resizingType": 0,
  "rotation": 0,
  "shouldBreakMaskChain": false,
  "style": {
    "_class": "style",
    "do_objectID": "8159D23B-F8A1-4149-8FDB-5DC6E4AEDDD6",
    "endMarkerType": 0,
    "fills": [
      {
        "_class": "fill",
        "color": {
          "_class": "color",
          "alpha": 1,
          "blue": 0.1764705882352941,
          "green": 0.1764705882352941,
          "red": 0.1764705882352941
        },
        "fillType": 0,
        "isEnabled": true,
        "noiseIndex": 0,
        "noiseIntensity": 0,
        "patternFillType": 1,
        "patternTileScale": 1
      }
    ],
    "miterLimit": 10,
    "startMarkerType": 0,
    "windingRule": 1
  }
}