{
  "_class": "shapePath",
  "booleanOperation": -1,
  "clippingMaskMode": 0,
  "do_objectID": "6405A085-1C8D-41E6-9AD8-A11ABAB72610",
  "edited": true,
  "exportOptions": {
    "_class": "exportOptions",
    "do_objectID": "866E73E3-1D2A-40A6-85C1-06A719D8F05F",
    "exportFormats": [
    ],
    "includedLayerIds": [
    ],
    "layerOptions": 0,
    "shouldTrim": false
  },
  "frame": {
    "_class": "rect",
    "constrainProportions": false,
    "do_objectID": "01B2AA01-3DE1-4812-8573-B0C428A0A94A",
    "height": 0.1474359867329227,
    "width": 0.1991940361396942,
    "x": 16.95657496151017,
    "y": 35.40680886418198
  },
  "hasClippingMask": false,
  "isClosed": true,
  "isFixedToViewport": false,
  "isFlippedHorizontal": false,
  "isFlippedVertical": false,
  "isLocked": false,
  "isVisible": true,
  "layerListExpandedType": 0,
  "name": "Path",
  "nameIsFixed": false,
  "pointRadiusBehaviour": 0,
  "points": [
    {
      "_class": "curvePoint",
      "cornerRadius": 0,
      "curveFrom": "{0.82110839445803119, 0.88228832524775824}",
      "curveMode": 4,
      "curveTo": "{0.97392013039935099, 0.70462070400957189}",
      "hasCurveFrom": true,
      "hasCurveTo": true,
      "point": "{1, 0.82453259698146097}"
    },
    {
      "_class": "curvePoint",
      "cornerRadius": 0,
      "curveFrom": "{0.45965770171149584, 0.81188134221838726}",
      "curveMode": 4,
      "curveTo": "{0.64221678891605072, 0.94114416262386347}",
      "hasCurveFrom": true,
      "hasCurveTo": true,
      "point": "{0.46251018744905759, 1}"
    },
    {
      "_class": "curvePoint",
      "cornerRadius": 0,
      "curveFrom": "{0.28850855745721116, 0.75082528662260339}",
      "curveMode": 4,
      "curveTo": "{0.40220048899755162, 0.74422463196359889}",
      "hasCurveFrom": true,
      "hasCurveTo": true,
      "point": "{0.32396088019560448, 0.72222244976690686}"
    },
    {
      "_class": "curvePoint",
      "cornerRadius": 0,
      "curveFrom": "{0.22127139364303369, 0.73652386819475513}",
      "curveMode": 4,
      "curveTo": "{0.2542787286063542, 0.76347654138567711}",
      "hasCurveFrom": true,
      "hasCurveTo": true,
      "point": "{0.23227383863080334, 0.74532474107340696}"
    },
    {
      "_class": "curvePoint",
      "cornerRadius": 0,
      "curveFrom": "{0.18337408312959072, 0.71617184966280634}",
      "curveMode": 4,
      "curveTo": "{0.21678891605542339, 0.72497272254148948}",
      "hasCurveFrom": true,
      "hasCurveTo": true,
      "point": "{0.20986145069275189, 0.713971631443159}"
    },
    {
      "_class": "curvePoint",
      "cornerRadius": 0,
      "curveFrom": "{0.086389568052166604, 0.48184860926816209}",
      "curveMode": 4,
      "curveTo": "{0.15729421352893011, 0.71837206788248487}",
      "hasCurveFrom": true,
      "hasCurveTo": true,
      "point": "{0.12999185004075625, 0.7238726134316501}"
    },
    {
      "_class": "curvePoint",
      "cornerRadius": 0,
      "curveFrom": "{0.23023634881825425, -0.00054923539407073407}",
      "curveMode": 4,
      "curveTo": "{0.043194784026077508, 0.24092471421451331}",
      "hasCurveFrom": true,
      "hasCurveTo": true,
      "point": "{0, 8.1916086454700969e-07}"
    },
    {
      "_class": "curvePoint",
      "cornerRadius": 0,
      "curveFrom": "{0.81295843520782329, 0.048955674548478677}",
      "curveMode": 4,
      "curveTo": "{0.33211083944580078, 0.27612820572921443}",
      "hasCurveFrom": true,
      "hasCurveTo": true,
      "point": "{0.60065199674001013, 0.1886695314973813}"
    },
    {
      "_class": "curvePoint",
      "cornerRadius": 0,
      "curveFrom": "{0.96047269763650855, 0.58085842915322961}",
      "curveMode": 3,
      "curveTo": "{0.88630806845965959, 0.2420248233243526}",
      "hasCurveFrom": true,
      "hasCurveTo": true,
      "point": "{0.93439282803585944, 0.46094653618130926}"
    }
  ],
  "resizingConstraint": 63,
  "resizingType": 0,
  "rotation": 0,
  "shouldBreakMaskChain": false,
  "style": {
    "_class": "style",
    "do_objectID": "9536972F-A2F2-4423-B9E1-7431D0531BF7",
    "endMarkerType": 0,
    "fills": [
      {
        "_class": "fill",
        "color": {
          "_class": "color",
          "alpha": 1,
          "blue": 0.1764705882352941,
          "green": 0.1764705882352941,
          "red": 0.1764705882352941
        },
        "fillType": 0,
        "isEnabled": true,
        "noiseIndex": 0,
        "noiseIntensity": 0,
        "patternFillType": 1,
        "patternTileScale": 1
      }
    ],
    "miterLimit": 10,
    "startMarkerType": 0,
    "windingRule": 1
  }
}