{
  "_class": "shapePath",
  "booleanOperation": -1,
  "clippingMaskMode": 0,
  "do_objectID": "6BD12FA0-8221-41E2-A1B8-32CB6FBF5200",
  "edited": true,
  "exportOptions": {
    "_class": "exportOptions",
    "do_objectID": "499CDDD0-278D-4C24-9781-130BB63556DB",
    "exportFormats": [
    ],
    "includedLayerIds": [
    ],
    "layerOptions": 0,
    "shouldTrim": false
  },
  "frame": {
    "_class": "rect",
    "constrainProportions": false,
    "do_objectID": "574F2F27-D59A-471F-9E9C-77C750D5F2FB",
    "height": 0.1266770541867217,
    "width": 0.1755063027440524,
    "x": 13.4692765102846,
    "y": 17.7836815240162
  },
  "hasClippingMask": false,
  "isClosed": true,
  "isFixedToViewport": false,
  "isFlippedHorizontal": false,
  "isFlippedVertical": false,
  "isLocked": false,
  "isVisible": true,
  "layerListExpandedType": 0,
  "name": "Path",
  "nameIsFixed": false,
  "pointRadiusBehaviour": 0,
  "points": [
    {
      "_class": "curvePoint",
      "cornerRadius": 0,
      "curveFrom": "{0.18559188586488878, 0.23303046092899554}",
      "curveMode": 4,
      "curveTo": "{-0.10346882948401438, 1.5403057389976869}",
      "hasCurveFrom": true,
      "hasCurveTo": true,
      "point": "{0.0061429937763004313, 0.34954569139348424}"
    },
    {
      "_class": "curvePoint",
      "cornerRadius": 0,
      "curveFrom": "{0.60322680740099333, 0.350185884967468}",
      "curveMode": 4,
      "curveTo": "{0.36596577224261123, 0.11587503689050486}",
      "hasCurveFrom": true,
      "hasCurveTo": true,
      "point": "{0.54726465290944137, 0}"
    },
    {
      "_class": "curvePoint",
      "cornerRadius": 0,
      "curveFrom": "{1.2946600385155587, 0.85529861483827108}",
      "curveMode": 4,
      "curveTo": "{0.77018827658651523, 0.28360575327346149}",
      "hasCurveFrom": true,
      "hasCurveTo": true,
      "point": "{0.94316220865129663, 0.19910020150801758}"
    }
  ],
  "resizingConstraint": 63,
  "resizingType": 0,
  "rotation": 0,
  "shouldBreakMaskChain": false,
  "style": {
    "_class": "style",
    "do_objectID": "B5A2AB50-4CAA-4262-846E-A9E998E18E2B",
    "endMarkerType": 0,
    "fills": [
      {
        "_class": "fill",
        "color": {
          "_class": "color",
          "alpha": 1,
          "blue": 0.1764705882352941,
          "green": 0.1764705882352941,
          "red": 0.1764705882352941
        },
        "fillType": 0,
        "isEnabled": true,
        "noiseIndex": 0,
        "noiseIntensity": 0,
        "patternFillType": 1,
        "patternTileScale": 1
      }
    ],
    "miterLimit": 10,
    "startMarkerType": 0,
    "windingRule": 1
  }
}