{
  "_class": "shapePath",
  "booleanOperation": -1,
  "clippingMaskMode": 0,
  "do_objectID": "6CC0FAF7-7573-48FD-A6B1-313A1FB5F72D",
  "edited": true,
  "exportOptions": {
    "_class": "exportOptions",
    "do_objectID": "C85C62E9-520B-4860-BA92-E8F97409E7A9",
    "exportFormats": [
    ],
    "includedLayerIds": [
    ],
    "layerOptions": 0,
    "shouldTrim": false
  },
  "frame": {
    "_class": "rect",
    "constrainProportions": false,
    "do_objectID": "59775C4A-EC7C-4887-9F25-EB59B4FBE95E",
    "height": 0.1136180683216583,
    "width": 0.1439731464404375,
    "x": 36.88256775469093,
    "y": 8.91165935676286
  },
  "hasClippingMask": false,
  "isClosed": true,
  "isFixedToViewport": false,
  "isFlippedHorizontal": false,
  "isFlippedVertical": false,
  "isLocked": false,
  "isVisible": true,
  "layerListExpandedType": 0,
  "name": "Path",
  "nameIsFixed": false,
  "pointRadiusBehaviour": 0,
  "points": [
    {
      "_class": "curvePoint",
      "cornerRadius": 0,
      "curveFrom": "{0.47799769419759808, 0.25838686652392612}",
      "curveMode": 4,
      "curveTo": "{0.065864443957655283, 0.53176302640970663}",
      "hasCurveFrom": true,
      "hasCurveTo": true,
      "point": "{0.25811812156617092, 0.38972162740898514}"
    },
    {
      "_class": "curvePoint",
      "cornerRadius": 0,
      "curveFrom": "{1.1088829295170386, 0.31763026409706629}",
      "curveMode": 4,
      "curveTo": "{0.69674967927706377, 0.12990720913634191}",
      "hasCurveFrom": true,
      "hasCurveTo": true,
      "point": "{0.91662925190852307, 0}"
    },
    {
      "_class": "curvePoint",
      "cornerRadius": 0,
      "curveFrom": "{0.52197360872387066, 0.74018558172731619}",
      "curveMode": 4,
      "curveTo": "{0.9341068589638456, 0.46895074946465193}",
      "hasCurveFrom": true,
      "hasCurveTo": true,
      "point": "{0.74072559380336844, 0.61099214846537342}"
    },
    {
      "_class": "curvePoint",
      "cornerRadius": 0,
      "curveFrom": "{-0.10834783281957311, 0.68236973590293371}",
      "curveMode": 4,
      "curveTo": "{0.30265782986844025, 0.87009279086365809}",
      "hasCurveFrom": true,
      "hasCurveTo": true,
      "point": "{0.08277825723698104, 1}"
    }
  ],
  "resizingConstraint": 63,
  "resizingType": 0,
  "rotation": 0,
  "shouldBreakMaskChain": false,
  "style": {
    "_class": "style",
    "do_objectID": "5DFE53D6-F69C-4A8B-8F72-0FE1769FA4ED",
    "endMarkerType": 0,
    "fills": [
      {
        "_class": "fill",
        "color": {
          "_class": "color",
          "alpha": 1,
          "blue": 0.1764705882352941,
          "green": 0.1764705882352941,
          "red": 0.1764705882352941
        },
        "fillType": 0,
        "isEnabled": true,
        "noiseIndex": 0,
        "noiseIntensity": 0,
        "patternFillType": 1,
        "patternTileScale": 1
      }
    ],
    "miterLimit": 10,
    "startMarkerType": 0,
    "windingRule": 1
  }
}