{
  "_class": "shapePath",
  "booleanOperation": -1,
  "clippingMaskMode": 0,
  "do_objectID": "7615B143-F3D5-4470-99E0-410E7E85E191",
  "edited": true,
  "exportOptions": {
    "_class": "exportOptions",
    "do_objectID": "FFF8F8BD-40BA-42D9-9673-2211AF83CDE1",
    "exportFormats": [
    ],
    "includedLayerIds": [
    ],
    "layerOptions": 0,
    "shouldTrim": false
  },
  "frame": {
    "_class": "rect",
    "constrainProportions": false,
    "do_objectID": "F7E18CEF-380B-41FA-9E92-9FB29E520547",
    "height": 0.1058906030855731,
    "width": 0.1059863482545502,
    "x": 23.31303995408141,
    "y": 18.46290960967187
  },
  "hasClippingMask": false,
  "isClosed": true,
  "isFixedToViewport": false,
  "isFlippedHorizontal": false,
  "isFlippedVertical": false,
  "isLocked": false,
  "isVisible": true,
  "layerListExpandedType": 0,
  "name": "Path",
  "nameIsFixed": false,
  "pointRadiusBehaviour": 0,
  "points": [
    {
      "_class": "curvePoint",
      "cornerRadius": 0,
      "curveFrom": "{-0.26939818313854857, 0.70258434595533004}",
      "curveMode": 4,
      "curveTo": "{0.4086018168614487, 0.95058434595532049}",
      "hasCurveFrom": true,
      "hasCurveTo": true,
      "point": "{0.17360181686143505, 0.86258434595532663}"
    },
    {
      "_class": "curvePoint",
      "cornerRadius": 0,
      "curveFrom": "{0.92760181686145415, 0.16758434595533345}",
      "curveMode": 3,
      "curveTo": "{0.24760181686144733, -0.07941565404468065}",
      "hasCurveFrom": true,
      "hasCurveTo": true,
      "point": "{0.48260181686146097, 0.0065843459553320827}"
    }
  ],
  "resizingConstraint": 63,
  "resizingType": 0,
  "rotation": 0,
  "shouldBreakMaskChain": false,
  "style": {
    "_class": "style",
    "do_objectID": "2AE40BA4-02F8-439B-99B6-6918D1605A0A",
    "endMarkerType": 0,
    "fills": [
      {
        "_class": "fill",
        "color": {
          "_class": "color",
          "alpha": 1,
          "blue": 0.1764705882352941,
          "green": 0.1764705882352941,
          "red": 0.1764705882352941
        },
        "fillType": 0,
        "isEnabled": true,
        "noiseIndex": 0,
        "noiseIntensity": 0,
        "patternFillType": 1,
        "patternTileScale": 1
      }
    ],
    "miterLimit": 10,
    "startMarkerType": 0,
    "windingRule": 1
  }
}