{
  "_class": "shapePath",
  "booleanOperation": -1,
  "clippingMaskMode": 0,
  "do_objectID": "7A0EE7C9-8736-4157-8BAE-8FC31CDA4772",
  "edited": true,
  "exportOptions": {
    "_class": "exportOptions",
    "do_objectID": "70FDB27F-1232-43B4-80EF-D58CB03A3631",
    "exportFormats": [
    ],
    "includedLayerIds": [
    ],
    "layerOptions": 0,
    "shouldTrim": false
  },
  "frame": {
    "_class": "rect",
    "constrainProportions": false,
    "do_objectID": "8E72995B-DA85-4774-B7A9-820ECB478236",
    "height": 0.1058906030855589,
    "width": 0.1059863482545609,
    "x": 20.66516874494529,
    "y": 23.82442663209695
  },
  "hasClippingMask": false,
  "isClosed": true,
  "isFixedToViewport": false,
  "isFlippedHorizontal": false,
  "isFlippedVertical": false,
  "isLocked": false,
  "isVisible": true,
  "layerListExpandedType": 0,
  "name": "Path",
  "nameIsFixed": false,
  "pointRadiusBehaviour": 0,
  "points": [
    {
      "_class": "curvePoint",
      "cornerRadius": 0,
      "curveFrom": "{-0.30356237325972302, 0.79286937513199973}",
      "curveMode": 4,
      "curveTo": "{0.45743762674030108, 1.0698693751319297}",
      "hasCurveFrom": true,
      "hasCurveTo": true,
      "point": "{0.19543762674030063, 0.96886937513193061}"
    },
    {
      "_class": "curvePoint",
      "cornerRadius": 0,
      "curveFrom": "{1.0404376267402995, 0.19186937513200064}",
      "curveMode": 4,
      "curveTo": "{0.27943762674030381, -0.086130624868019368}",
      "hasCurveFrom": true,
      "hasCurveTo": true,
      "point": "{0.5434376267402854, 0.0068693751319415242}"
    }
  ],
  "resizingConstraint": 63,
  "resizingType": 0,
  "rotation": 0,
  "shouldBreakMaskChain": false,
  "style": {
    "_class": "style",
    "do_objectID": "F885EE4A-5A73-4780-BF4B-D2D0F1B14FF1",
    "endMarkerType": 0,
    "fills": [
      {
        "_class": "fill",
        "color": {
          "_class": "color",
          "alpha": 1,
          "blue": 0.1764705882352941,
          "green": 0.1764705882352941,
          "red": 0.1764705882352941
        },
        "fillType": 0,
        "isEnabled": true,
        "noiseIndex": 0,
        "noiseIntensity": 0,
        "patternFillType": 1,
        "patternTileScale": 1
      }
    ],
    "miterLimit": 10,
    "startMarkerType": 0,
    "windingRule": 1
  }
}