{
  "_class": "shapePath",
  "booleanOperation": -1,
  "clippingMaskMode": 0,
  "do_objectID": "7D730FEE-D94B-4AF0-BF3C-F2437069BCBB",
  "edited": true,
  "exportOptions": {
    "_class": "exportOptions",
    "do_objectID": "6BE92289-E19D-427D-AD7C-68B63E281CD8",
    "exportFormats": [
    ],
    "includedLayerIds": [
    ],
    "layerOptions": 0,
    "shouldTrim": false
  },
  "frame": {
    "_class": "rect",
    "constrainProportions": false,
    "do_objectID": "43B9FCD6-52C7-4F11-BC9F-EA223837A065",
    "height": 0.105890603085566,
    "width": 0.105986348254568,
    "x": 22.02629713962459,
    "y": 17.56378979929779
  },
  "hasClippingMask": false,
  "isClosed": true,
  "isFixedToViewport": false,
  "isFlippedHorizontal": false,
  "isFlippedVertical": false,
  "isLocked": false,
  "isVisible": true,
  "layerListExpandedType": 0,
  "name": "Path",
  "nameIsFixed": false,
  "pointRadiusBehaviour": 0,
  "points": [
    {
      "_class": "curvePoint",
      "cornerRadius": 0,
      "curveFrom": "{-0.26818228415180556, 0.70343763383050373}",
      "curveMode": 3,
      "curveTo": "{0.41281771584817761, 0.94843763383050828}",
      "hasCurveFrom": true,
      "hasCurveTo": true,
      "point": "{0.17181771584819217, 0.86243763383052396}"
    },
    {
      "_class": "curvePoint",
      "cornerRadius": 0,
      "curveFrom": "{0.92681771584818762, 0.16743763383050236}",
      "curveMode": 3,
      "curveTo": "{0.24781771584815715, -0.078562366169478537}",
      "hasCurveFrom": true,
      "hasCurveTo": true,
      "point": "{0.48681771584818989, 0.0064376338305009995}"
    }
  ],
  "resizingConstraint": 63,
  "resizingType": 0,
  "rotation": 0,
  "shouldBreakMaskChain": false,
  "style": {
    "_class": "style",
    "do_objectID": "4C7CA316-B079-445B-A417-7D900686722D",
    "endMarkerType": 0,
    "fills": [
      {
        "_class": "fill",
        "color": {
          "_class": "color",
          "alpha": 1,
          "blue": 0.1764705882352941,
          "green": 0.1764705882352941,
          "red": 0.1764705882352941
        },
        "fillType": 0,
        "isEnabled": true,
        "noiseIndex": 0,
        "noiseIntensity": 0,
        "patternFillType": 1,
        "patternTileScale": 1
      }
    ],
    "miterLimit": 10,
    "startMarkerType": 0,
    "windingRule": 1
  }
}