{
  "_class": "shapePath",
  "booleanOperation": -1,
  "clippingMaskMode": 0,
  "do_objectID": "8B1EF1A6-BA9F-45C9-BB28-D853F1AAF548",
  "edited": true,
  "exportOptions": {
    "_class": "exportOptions",
    "do_objectID": "BA46C353-F4D2-40F2-BA9E-3CCB913FED03",
    "exportFormats": [
    ],
    "includedLayerIds": [
    ],
    "layerOptions": 0,
    "shouldTrim": false
  },
  "frame": {
    "_class": "rect",
    "constrainProportions": false,
    "do_objectID": "1C469EE2-4D7D-4702-BCB6-DD804D4FC156",
    "height": 0.1058906030855766,
    "width": 0.105986348254568,
    "x": 30.43105279028809,
    "y": 25.41145077101094
  },
  "hasClippingMask": false,
  "isClosed": true,
  "isFixedToViewport": false,
  "isFlippedHorizontal": false,
  "isFlippedVertical": false,
  "isLocked": false,
  "isVisible": true,
  "layerListExpandedType": 0,
  "name": "Path",
  "nameIsFixed": false,
  "pointRadiusBehaviour": 0,
  "points": [
    {
      "_class": "curvePoint",
      "cornerRadius": 0,
      "curveFrom": "{-0.29179617158661131, 0.57561554550551364}",
      "curveMode": 3,
      "curveTo": "{0.3602038284133755, 0.96961554550551909}",
      "hasCurveFrom": true,
      "hasCurveTo": true,
      "point": "{0.13520382841340961, 0.83261554550551864}"
    },
    {
      "_class": "curvePoint",
      "cornerRadius": 0,
      "curveFrom": "{1.0552038284133687, 0.27361554550549272}",
      "curveMode": 4,
      "curveTo": "{0.40920382841341052, -0.12238445449446544}",
      "hasCurveFrom": true,
      "hasCurveTo": true,
      "point": "{0.63220382841336686, 0.018615545505497266}"
    }
  ],
  "resizingConstraint": 63,
  "resizingType": 0,
  "rotation": 0,
  "shouldBreakMaskChain": false,
  "style": {
    "_class": "style",
    "do_objectID": "2D12E7A2-697E-451E-AF15-47C806ED4643",
    "endMarkerType": 0,
    "fills": [
      {
        "_class": "fill",
        "color": {
          "_class": "color",
          "alpha": 1,
          "blue": 0.1764705882352941,
          "green": 0.1764705882352941,
          "red": 0.1764705882352941
        },
        "fillType": 0,
        "isEnabled": true,
        "noiseIndex": 0,
        "noiseIntensity": 0,
        "patternFillType": 1,
        "patternTileScale": 1
      }
    ],
    "miterLimit": 10,
    "startMarkerType": 0,
    "windingRule": 1
  }
}