{
  "_class": "shapePath",
  "booleanOperation": -1,
  "clippingMaskMode": 0,
  "do_objectID": "8B8810C2-750D-4E18-A4BE-BCBD72512E72",
  "edited": true,
  "exportOptions": {
    "_class": "exportOptions",
    "do_objectID": "A2322AB4-29F7-4B93-8ABE-A9D933565623",
    "exportFormats": [
    ],
    "includedLayerIds": [
    ],
    "layerOptions": 0,
    "shouldTrim": false
  },
  "frame": {
    "_class": "rect",
    "constrainProportions": false,
    "do_objectID": "566B7909-3A0E-4C14-94A4-EE0CE7114AF4",
    "height": 0.1058906030855589,
    "width": 0.1059863482545538,
    "x": 16.65419830428616,
    "y": 23.65669086340107
  },
  "hasClippingMask": false,
  "isClosed": true,
  "isFixedToViewport": false,
  "isFlippedHorizontal": false,
  "isFlippedVertical": false,
  "isLocked": false,
  "isVisible": true,
  "layerListExpandedType": 0,
  "name": "Path",
  "nameIsFixed": false,
  "pointRadiusBehaviour": 0,
  "points": [
    {
      "_class": "curvePoint",
      "cornerRadius": 0,
      "curveFrom": "{-0.25782664035517655, 0.5141831161963637}",
      "curveMode": 3,
      "curveTo": "{0.32017335964482641, 0.86618311619639599}",
      "hasCurveFrom": true,
      "hasCurveTo": true,
      "point": "{0.119173359644833, 0.74418311619638189}"
    },
    {
      "_class": "curvePoint",
      "cornerRadius": 0,
      "curveFrom": "{0.94117335964483573, 0.24418311619638189}",
      "curveMode": 3,
      "curveTo": "{0.362173359644828, -0.1078168838036504}",
      "hasCurveFrom": true,
      "hasCurveTo": true,
      "point": "{0.56417335964482618, 0.016183116196373248}"
    }
  ],
  "resizingConstraint": 63,
  "resizingType": 0,
  "rotation": 0,
  "shouldBreakMaskChain": false,
  "style": {
    "_class": "style",
    "do_objectID": "495C70FB-BB98-4218-8273-878F4732FF8C",
    "endMarkerType": 0,
    "fills": [
      {
        "_class": "fill",
        "color": {
          "_class": "color",
          "alpha": 1,
          "blue": 0.1764705882352941,
          "green": 0.1764705882352941,
          "red": 0.1764705882352941
        },
        "fillType": 0,
        "isEnabled": true,
        "noiseIndex": 0,
        "noiseIntensity": 0,
        "patternFillType": 1,
        "patternTileScale": 1
      }
    ],
    "miterLimit": 10,
    "startMarkerType": 0,
    "windingRule": 1
  }
}