{
  "_class": "shapePath",
  "booleanOperation": -1,
  "clippingMaskMode": 0,
  "do_objectID": "959AF0EB-28BD-4DA2-80CD-45E158D22A83",
  "edited": true,
  "exportOptions": {
    "_class": "exportOptions",
    "do_objectID": "A22DE95E-D7D2-4501-B971-964E05F87FE2",
    "exportFormats": [
    ],
    "includedLayerIds": [
    ],
    "layerOptions": 0,
    "shouldTrim": false
  },
  "frame": {
    "_class": "rect",
    "constrainProportions": false,
    "do_objectID": "EE9A384D-74B5-47BE-9DE5-AAB6D2C0F247",
    "height": 0.1058906030855535,
    "width": 0.1155885481783088,
    "x": 33.52307212071029,
    "y": 5.498332534785265
  },
  "hasClippingMask": false,
  "isClosed": true,
  "isFixedToViewport": false,
  "isFlippedHorizontal": false,
  "isFlippedVertical": false,
  "isLocked": false,
  "isVisible": true,
  "layerListExpandedType": 0,
  "name": "Path",
  "nameIsFixed": false,
  "pointRadiusBehaviour": 0,
  "points": [
    {
      "_class": "curvePoint",
      "cornerRadius": 0,
      "curveFrom": "{0.13245722831929652, 0.045999999999992269}",
      "curveMode": 3,
      "curveTo": "{-0.083833389274875977, 0.54599999999999227}",
      "hasCurveFrom": true,
      "hasCurveTo": true,
      "point": "{0.013778285548477433, 0.31900000000001683}"
    },
    {
      "_class": "curvePoint",
      "cornerRadius": 0,
      "curveFrom": "{1.1205120950563627, 0.52899999999999636}",
      "curveMode": 4,
      "curveTo": "{0.77922235430711539, 0.23300000000000409}",
      "hasCurveFrom": true,
      "hasCurveTo": true,
      "point": "{0.93933359070796629, 0}"
    },
    {
      "_class": "curvePoint",
      "cornerRadius": 0,
      "curveFrom": "{0.36138820668198035, 1.1999999999999886}",
      "curveMode": 4,
      "curveTo": "{0.86419366836195743, 0.68200000000001637}",
      "hasCurveFrom": true,
      "hasCurveTo": true,
      "point": "{0.58751021598498609, 0.81499999999999773}"
    }
  ],
  "resizingConstraint": 63,
  "resizingType": 0,
  "rotation": 0,
  "shouldBreakMaskChain": false,
  "style": {
    "_class": "style",
    "do_objectID": "AE15FEE7-3669-47F0-BD43-4778E9EC2CE1",
    "endMarkerType": 0,
    "fills": [
      {
        "_class": "fill",
        "color": {
          "_class": "color",
          "alpha": 1,
          "blue": 0.1764705882352941,
          "green": 0.1764705882352941,
          "red": 0.1764705882352941
        },
        "fillType": 0,
        "isEnabled": true,
        "noiseIndex": 0,
        "noiseIntensity": 0,
        "patternFillType": 1,
        "patternTileScale": 1
      }
    ],
    "miterLimit": 10,
    "startMarkerType": 0,
    "windingRule": 1
  }
}