{
  "_class": "shapePath",
  "booleanOperation": -1,
  "clippingMaskMode": 0,
  "do_objectID": "9A008D17-0B58-4ADD-AD2B-9D426FFC8453",
  "edited": true,
  "exportOptions": {
    "_class": "exportOptions",
    "do_objectID": "E86CC68B-0670-4014-B276-59446DF22BA9",
    "exportFormats": [
    ],
    "includedLayerIds": [
    ],
    "layerOptions": 0,
    "shouldTrim": false
  },
  "frame": {
    "_class": "rect",
    "constrainProportions": false,
    "do_objectID": "1DA00F11-AA24-4A32-A04D-9365E7E5FD70",
    "height": 0.105890603085566,
    "width": 0.1059863482545751,
    "x": 41.39758183280709,
    "y": 19.38807190225056
  },
  "hasClippingMask": false,
  "isClosed": true,
  "isFixedToViewport": false,
  "isFlippedHorizontal": false,
  "isFlippedVertical": false,
  "isLocked": false,
  "isVisible": true,
  "layerListExpandedType": 0,
  "name": "Path",
  "nameIsFixed": false,
  "pointRadiusBehaviour": 0,
  "points": [
    {
      "_class": "curvePoint",
      "cornerRadius": 0,
      "curveFrom": "{-0.30255124319154447, 0.78760680286580964}",
      "curveMode": 3,
      "curveTo": "{0.46344875680841824, 1.066606802865806}",
      "hasCurveFrom": true,
      "hasCurveTo": true,
      "point": "{0.19544875680844598, 0.96860680286582124}"
    },
    {
      "_class": "curvePoint",
      "cornerRadius": 0,
      "curveFrom": "{1.042448756808426, 0.184606802865801}",
      "curveMode": 3,
      "curveTo": "{0.27644875680846326, -0.090393197134204684}",
      "hasCurveFrom": true,
      "hasCurveTo": true,
      "point": "{0.54644875680844507, 0.0076068028658085041}"
    }
  ],
  "resizingConstraint": 63,
  "resizingType": 0,
  "rotation": 0,
  "shouldBreakMaskChain": false,
  "style": {
    "_class": "style",
    "do_objectID": "096AE3DE-4D39-4D5D-903E-B168A716F8E5",
    "endMarkerType": 0,
    "fills": [
      {
        "_class": "fill",
        "color": {
          "_class": "color",
          "alpha": 1,
          "blue": 0.1764705882352941,
          "green": 0.1764705882352941,
          "red": 0.1764705882352941
        },
        "fillType": 0,
        "isEnabled": true,
        "noiseIndex": 0,
        "noiseIntensity": 0,
        "patternFillType": 1,
        "patternTileScale": 1
      }
    ],
    "miterLimit": 10,
    "startMarkerType": 0,
    "windingRule": 1
  }
}