{
  "_class": "shapePath",
  "booleanOperation": -1,
  "clippingMaskMode": 0,
  "do_objectID": "9C5ED1C7-CAF5-4739-B49C-B57F7E4D1233",
  "edited": true,
  "exportOptions": {
    "_class": "exportOptions",
    "do_objectID": "2A627DBA-EDAB-4516-8ABB-22A27FBE3919",
    "exportFormats": [
    ],
    "includedLayerIds": [
    ],
    "layerOptions": 0,
    "shouldTrim": false
  },
  "frame": {
    "_class": "rect",
    "constrainProportions": false,
    "do_objectID": "6C72A537-1170-4847-AFA1-E005963DBDCA",
    "height": 0.1058906030855731,
    "width": 0.1059863482545857,
    "x": 18.44593209250497,
    "y": 17.56249345592051
  },
  "hasClippingMask": false,
  "isClosed": true,
  "isFixedToViewport": false,
  "isFlippedHorizontal": false,
  "isFlippedVertical": false,
  "isLocked": false,
  "isVisible": true,
  "layerListExpandedType": 0,
  "name": "Path",
  "nameIsFixed": false,
  "pointRadiusBehaviour": 0,
  "points": [
    {
      "_class": "curvePoint",
      "cornerRadius": 0,
      "curveFrom": "{0.92664745746665744, 0.17042256561450131}",
      "curveMode": 4,
      "curveTo": "{0.24864745746666017, -0.078577434385493916}",
      "hasCurveFrom": true,
      "hasCurveTo": true,
      "point": "{0.48664745746665972, 0.006422565614514042}"
    },
    {
      "_class": "curvePoint",
      "cornerRadius": 0,
      "curveFrom": "{-0.26835254253333574, 0.70542256561452632}",
      "curveMode": 4,
      "curveTo": "{0.41064745746666631, 0.952422565614512}",
      "hasCurveFrom": true,
      "hasCurveTo": true,
      "point": "{0.17164745746666199, 0.86342256561451336}"
    }
  ],
  "resizingConstraint": 63,
  "resizingType": 0,
  "rotation": 0,
  "shouldBreakMaskChain": false,
  "style": {
    "_class": "style",
    "do_objectID": "21C03677-8834-4F63-A862-29A9D8FAC443",
    "endMarkerType": 0,
    "fills": [
      {
        "_class": "fill",
        "color": {
          "_class": "color",
          "alpha": 1,
          "blue": 0.1764705882352941,
          "green": 0.1764705882352941,
          "red": 0.1764705882352941
        },
        "fillType": 0,
        "isEnabled": true,
        "noiseIndex": 0,
        "noiseIntensity": 0,
        "patternFillType": 1,
        "patternTileScale": 1
      }
    ],
    "miterLimit": 10,
    "startMarkerType": 0,
    "windingRule": 1
  }
}