{
  "_class": "shapePath",
  "booleanOperation": -1,
  "clippingMaskMode": 0,
  "do_objectID": "A84E329B-A070-427B-BD41-3EDCC83C803A",
  "edited": true,
  "exportOptions": {
    "_class": "exportOptions",
    "do_objectID": "4606346E-7022-4970-ADEA-88117217935E",
    "exportFormats": [
    ],
    "includedLayerIds": [
    ],
    "layerOptions": 0,
    "shouldTrim": false
  },
  "frame": {
    "_class": "rect",
    "constrainProportions": false,
    "do_objectID": "7D17873D-08D9-476D-9E72-18D0521A5C3D",
    "height": 0.1058906030855553,
    "width": 0.1059863482545538,
    "x": 17.96587350704256,
    "y": 18.01753219205992
  },
  "hasClippingMask": false,
  "isClosed": true,
  "isFixedToViewport": false,
  "isFlippedHorizontal": false,
  "isFlippedVertical": false,
  "isLocked": false,
  "isVisible": true,
  "layerListExpandedType": 0,
  "name": "Path",
  "nameIsFixed": false,
  "pointRadiusBehaviour": 0,
  "points": [
    {
      "_class": "curvePoint",
      "cornerRadius": 0,
      "curveFrom": "{0.92679926419350522, 0.16643763383049759}",
      "curveMode": 3,
      "curveTo": "{0.24879926419350795, -0.078562366169478537}",
      "hasCurveFrom": true,
      "hasCurveTo": true,
      "point": "{0.48579926419353114, 0.0064376338305009995}"
    },
    {
      "_class": "curvePoint",
      "cornerRadius": 0,
      "curveFrom": "{-0.27020073580646908, 0.70343763383050373}",
      "curveMode": 3,
      "curveTo": "{0.41079926419351409, 0.94843763383050828}",
      "hasCurveFrom": true,
      "hasCurveTo": true,
      "point": "{0.17379926419351932, 0.86243763383052396}"
    }
  ],
  "resizingConstraint": 63,
  "resizingType": 0,
  "rotation": 0,
  "shouldBreakMaskChain": false,
  "style": {
    "_class": "style",
    "do_objectID": "906AA385-33C6-4611-B013-C3564155FB7C",
    "endMarkerType": 0,
    "fills": [
      {
        "_class": "fill",
        "color": {
          "_class": "color",
          "alpha": 1,
          "blue": 0.1764705882352941,
          "green": 0.1764705882352941,
          "red": 0.1764705882352941
        },
        "fillType": 0,
        "isEnabled": true,
        "noiseIndex": 0,
        "noiseIntensity": 0,
        "patternFillType": 1,
        "patternTileScale": 1
      }
    ],
    "miterLimit": 10,
    "startMarkerType": 0,
    "windingRule": 1
  }
}