{
  "_class": "shapePath",
  "booleanOperation": -1,
  "clippingMaskMode": 0,
  "do_objectID": "AEE6EB8B-C190-4D44-9415-A922F3652AB0",
  "edited": true,
  "exportOptions": {
    "_class": "exportOptions",
    "do_objectID": "B665C13E-E0BA-470D-B345-A8AFCE55363F",
    "exportFormats": [
    ],
    "includedLayerIds": [
    ],
    "layerOptions": 0,
    "shouldTrim": false
  },
  "frame": {
    "_class": "rect",
    "constrainProportions": false,
    "do_objectID": "53841C71-0C10-4D4C-A773-0B96F853A6B8",
    "height": 0.1058906030855589,
    "width": 0.1059863482545538,
    "x": 38.53229892557911,
    "y": 16.20124053854736
  },
  "hasClippingMask": false,
  "isClosed": true,
  "isFixedToViewport": false,
  "isFlippedHorizontal": false,
  "isFlippedVertical": false,
  "isLocked": false,
  "isVisible": true,
  "layerListExpandedType": 0,
  "name": "Path",
  "nameIsFixed": false,
  "pointRadiusBehaviour": 0,
  "points": [
    {
      "_class": "curvePoint",
      "cornerRadius": 0,
      "curveFrom": "{0.93971971192092951, 0.24773994876645133}",
      "curveMode": 3,
      "curveTo": "{0.36171971192095498, -0.1062600512335905}",
      "hasCurveFrom": true,
      "hasCurveTo": true,
      "point": "{0.56271971192091996, 0.015739948766423595}"
    },
    {
      "_class": "curvePoint",
      "cornerRadius": 0,
      "curveFrom": "{-0.25828028807904957, 0.51373994876641405}",
      "curveMode": 3,
      "curveTo": "{0.31871971192094861, 0.86673994876642269}",
      "hasCurveFrom": true,
      "hasCurveTo": true,
      "point": "{0.11971971192093633, 0.74573994876644178}"
    }
  ],
  "resizingConstraint": 63,
  "resizingType": 0,
  "rotation": 0,
  "shouldBreakMaskChain": false,
  "style": {
    "_class": "style",
    "do_objectID": "966694AE-4326-49C6-90A7-E3EF477BC5AE",
    "endMarkerType": 0,
    "fills": [
      {
        "_class": "fill",
        "color": {
          "_class": "color",
          "alpha": 1,
          "blue": 0.1764705882352941,
          "green": 0.1764705882352941,
          "red": 0.1764705882352941
        },
        "fillType": 0,
        "isEnabled": true,
        "noiseIndex": 0,
        "noiseIntensity": 0,
        "patternFillType": 1,
        "patternTileScale": 1
      }
    ],
    "miterLimit": 10,
    "startMarkerType": 0,
    "windingRule": 1
  }
}