{
  "_class": "shapePath",
  "booleanOperation": -1,
  "clippingMaskMode": 0,
  "do_objectID": "B882BC69-33B8-4C1C-A2A3-704E98AB3BC5",
  "edited": true,
  "exportOptions": {
    "_class": "exportOptions",
    "do_objectID": "DBC14269-AEAF-46D6-810D-598B165E6E2A",
    "exportFormats": [
    ],
    "includedLayerIds": [
    ],
    "layerOptions": 0,
    "shouldTrim": false
  },
  "frame": {
    "_class": "rect",
    "constrainProportions": false,
    "do_objectID": "2EB331AF-B1E6-48B9-B2C3-BCB2B6E3730B",
    "height": 0.1325949619599704,
    "width": 0.105986348254568,
    "x": 33.63051991912154,
    "y": 10.5068537920856
  },
  "hasClippingMask": false,
  "isClosed": true,
  "isFixedToViewport": false,
  "isFlippedHorizontal": false,
  "isFlippedVertical": false,
  "isLocked": false,
  "isVisible": true,
  "layerListExpandedType": 0,
  "name": "Path",
  "nameIsFixed": false,
  "pointRadiusBehaviour": 0,
  "points": [
    {
      "_class": "curvePoint",
      "cornerRadius": 0,
      "curveFrom": "{0.55530823559612863, 0.74984709480122691}",
      "curveMode": 4,
      "curveTo": "{1.0559249610093895, 0.49051987767582172}",
      "hasCurveFrom": true,
      "hasCurveTo": true,
      "point": "{0.49957920389921301, 0.49969418960245371}"
    },
    {
      "_class": "curvePoint",
      "cornerRadius": 0,
      "curveFrom": "{-0.028429757432881671, 0.74801223241587955}",
      "curveMode": 4,
      "curveTo": "{0.58553415109281359, 0.98899082568805552}",
      "hasCurveFrom": true,
      "hasCurveTo": true,
      "point": "{0.029188393982637131, 1}"
    },
    {
      "_class": "curvePoint",
      "cornerRadius": 0,
      "curveFrom": "{0.44479473206154529, 0.24831804281346065}",
      "curveMode": 4,
      "curveTo": "{-0.055821993351715504, 0.50764525993883103}",
      "hasCurveFrom": true,
      "hasCurveTo": true,
      "point": "{0.49957920389921301, 0.49969418960245371}"
    },
    {
      "_class": "curvePoint",
      "cornerRadius": 0,
      "curveFrom": "{1.0266436053720061, 0.25015290519877315}",
      "curveMode": 4,
      "curveTo": "{0.41645793628340988, 0.0085626911314698705}",
      "hasCurveFrom": true,
      "hasCurveTo": true,
      "point": "{0.9728036933935863, 0}"
    }
  ],
  "resizingConstraint": 63,
  "resizingType": 0,
  "rotation": 0,
  "shouldBreakMaskChain": false,
  "style": {
    "_class": "style",
    "do_objectID": "96195B16-DD6D-42D7-825F-5217E6A58552",
    "endMarkerType": 0,
    "fills": [
      {
        "_class": "fill",
        "color": {
          "_class": "color",
          "alpha": 1,
          "blue": 0.1764705882352941,
          "green": 0.1764705882352941,
          "red": 0.1764705882352941
        },
        "fillType": 0,
        "isEnabled": true,
        "noiseIndex": 0,
        "noiseIntensity": 0,
        "patternFillType": 1,
        "patternTileScale": 1
      }
    ],
    "miterLimit": 10,
    "startMarkerType": 0,
    "windingRule": 1
  }
}