{
  "_class": "shapePath",
  "booleanOperation": -1,
  "clippingMaskMode": 0,
  "do_objectID": "BD88D1E0-CB50-48ED-90C5-A4FBE36D0A1C",
  "edited": true,
  "exportOptions": {
    "_class": "exportOptions",
    "do_objectID": "77774787-5BDD-42C2-849C-3CD19B45973A",
    "exportFormats": [
    ],
    "includedLayerIds": [
    ],
    "layerOptions": 0,
    "shouldTrim": false
  },
  "frame": {
    "_class": "rect",
    "constrainProportions": false,
    "do_objectID": "A781C70C-DBCD-4673-9493-94683615FC96",
    "height": 0.1058906030855553,
    "width": 0.1922640965967766,
    "x": 28.33547775670214,
    "y": 24.40561537694752
  },
  "hasClippingMask": false,
  "isClosed": true,
  "isFixedToViewport": false,
  "isFlippedHorizontal": false,
  "isFlippedVertical": false,
  "isLocked": false,
  "isVisible": true,
  "layerListExpandedType": 0,
  "name": "Path",
  "nameIsFixed": false,
  "pointRadiusBehaviour": 0,
  "points": [
    {
      "_class": "curvePoint",
      "cornerRadius": 0,
      "curveFrom": "{1.1018821629658575, 1.5554896964582694}",
      "curveMode": 4,
      "curveTo": "{0.58681553494931604, 0.95467256835966074}",
      "hasCurveFrom": true,
      "hasCurveTo": true,
      "point": "{0.99084730790983966, 0.20181939869958357}"
    },
    {
      "_class": "curvePoint",
      "cornerRadius": 0,
      "curveFrom": "{-0.017754474329137834, -0.97508610374953086}",
      "curveMode": 4,
      "curveTo": "{0.16927381764735805, 0.79347772911377135}",
      "hasCurveFrom": true,
      "hasCurveTo": true,
      "point": "{0.00039951337964503589, 0.72203910717519537}"
    }
  ],
  "resizingConstraint": 63,
  "resizingType": 0,
  "rotation": 0,
  "shouldBreakMaskChain": false,
  "style": {
    "_class": "style",
    "do_objectID": "A89E2DEA-9DB9-4734-A697-B812AB9E6B30",
    "endMarkerType": 0,
    "fills": [
      {
        "_class": "fill",
        "color": {
          "_class": "color",
          "alpha": 1,
          "blue": 0.1764705882352941,
          "green": 0.1764705882352941,
          "red": 0.1764705882352941
        },
        "fillType": 0,
        "isEnabled": true,
        "noiseIndex": 0,
        "noiseIntensity": 0,
        "patternFillType": 1,
        "patternTileScale": 1
      }
    ],
    "miterLimit": 10,
    "startMarkerType": 0,
    "windingRule": 1
  }
}