{
  "_class": "shapePath",
  "booleanOperation": -1,
  "clippingMaskMode": 0,
  "do_objectID": "C7262F96-23CE-45C1-BC5E-221BE8ADFC60",
  "edited": true,
  "exportOptions": {
    "_class": "exportOptions",
    "do_objectID": "F3DBD308-3BDC-4D80-8328-E131680C0ECA",
    "exportFormats": [
    ],
    "includedLayerIds": [
    ],
    "layerOptions": 0,
    "shouldTrim": false
  },
  "frame": {
    "_class": "rect",
    "constrainProportions": false,
    "do_objectID": "B4B374A4-82C5-453A-8D3D-220AA7FA8E2C",
    "height": 0.1058906030855535,
    "width": 0.1059863482545573,
    "x": 16.12777723426016,
    "y": 7.752258873806373
  },
  "hasClippingMask": false,
  "isClosed": true,
  "isFixedToViewport": false,
  "isFlippedHorizontal": false,
  "isFlippedVertical": false,
  "isLocked": false,
  "isVisible": true,
  "layerListExpandedType": 0,
  "name": "Path",
  "nameIsFixed": false,
  "pointRadiusBehaviour": 0,
  "points": [
    {
      "_class": "curvePoint",
      "cornerRadius": 0,
      "curveFrom": "{-0.30150543858027845, 0.78831836393656829}",
      "curveMode": 3,
      "curveTo": "{0.460494561419722, 1.0653183639365551}",
      "hasCurveFrom": true,
      "hasCurveTo": true,
      "point": "{0.19449456141973087, 0.96731836393654191}"
    },
    {
      "_class": "curvePoint",
      "cornerRadius": 0,
      "curveFrom": "{1.0374945614197202, 0.18931836393652191}",
      "curveMode": 3,
      "curveTo": "{0.2764945614197245, -0.08868163606344126}",
      "hasCurveFrom": true,
      "hasCurveTo": true,
      "point": "{0.54149456141973928, 0.0073183639365623776}"
    }
  ],
  "resizingConstraint": 63,
  "resizingType": 0,
  "rotation": 0,
  "shouldBreakMaskChain": false,
  "style": {
    "_class": "style",
    "do_objectID": "7E816480-5FBC-4F6E-A87A-7530D5153C1B",
    "endMarkerType": 0,
    "fills": [
      {
        "_class": "fill",
        "color": {
          "_class": "color",
          "alpha": 1,
          "blue": 0.1764705882352941,
          "green": 0.1764705882352941,
          "red": 0.1764705882352941
        },
        "fillType": 0,
        "isEnabled": true,
        "noiseIndex": 0,
        "noiseIntensity": 0,
        "patternFillType": 1,
        "patternTileScale": 1
      }
    ],
    "miterLimit": 10,
    "startMarkerType": 0,
    "windingRule": 1
  }
}