{
  "_class": "shapePath",
  "booleanOperation": -1,
  "clippingMaskMode": 0,
  "do_objectID": "CF378ECD-5E1C-4E7D-AB86-E0DAC8D5B61E",
  "edited": true,
  "exportOptions": {
    "_class": "exportOptions",
    "do_objectID": "3E223510-0973-4F59-92DD-41207EADA0A2",
    "exportFormats": [
    ],
    "includedLayerIds": [
    ],
    "layerOptions": 0,
    "shouldTrim": false
  },
  "frame": {
    "_class": "rect",
    "constrainProportions": false,
    "do_objectID": "D6BEDF63-ECD4-4C54-8414-C25B1C880357",
    "height": 0.1378821798796466,
    "width": 0.1684332026847954,
    "x": 29.87597073134216,
    "y": 13.96029170275172
  },
  "hasClippingMask": false,
  "isClosed": true,
  "isFixedToViewport": false,
  "isFlippedHorizontal": false,
  "isFlippedVertical": false,
  "isLocked": false,
  "isVisible": true,
  "layerListExpandedType": 0,
  "name": "Path",
  "nameIsFixed": false,
  "pointRadiusBehaviour": 0,
  "points": [
    {
      "_class": "curvePoint",
      "cornerRadius": 0,
      "curveFrom": "{0.29282279899940306, 0.3884251903243795}",
      "curveMode": 4,
      "curveTo": "{0.28173866155337524, 0.46488698326347466}",
      "hasCurveFrom": true,
      "hasCurveTo": true,
      "point": "{0.28559401370851178, 0.4337140984498441}"
    },
    {
      "_class": "curvePoint",
      "cornerRadius": 0,
      "curveFrom": "{0.3289667254539142, -0.15445353954321595}",
      "curveMode": 4,
      "curveTo": "{0.11644043790150256, 0.071402833446127661}",
      "hasCurveFrom": true,
      "hasCurveTo": true,
      "point": "{0.13909063181299475, 0.049052463202384954}"
    },
    {
      "_class": "curvePoint",
      "cornerRadius": 0,
      "curveFrom": "{1.1154585651036026, 0.39136602851434216}",
      "curveMode": 4,
      "curveTo": "{0.67450266235882395, 0.35960497606273245}",
      "hasCurveFrom": true,
      "hasCurveTo": true,
      "point": "{0.91931752421055546, 0.073167336360098548}"
    },
    {
      "_class": "curvePoint",
      "cornerRadius": 0,
      "curveFrom": "{0.68510488078546994, 0.70133037373667706}",
      "curveMode": 3,
      "curveTo": "{0.9125706579390459, 0.4766503360233586}",
      "hasCurveFrom": true,
      "hasCurveTo": true,
      "point": "{0.74968202938416439, 0.63780826883345754}"
    },
    {
      "_class": "curvePoint",
      "cornerRadius": 0,
      "curveFrom": "{-0.22331247077068866, 0.84719594795898379}",
      "curveMode": 4,
      "curveTo": "{0.18390910061654259, 1.0301160833748129}",
      "hasCurveFrom": true,
      "hasCurveTo": true,
      "point": "{0.11885003299846632, 0.99776686328519049}"
    }
  ],
  "resizingConstraint": 63,
  "resizingType": 0,
  "rotation": 0,
  "shouldBreakMaskChain": false,
  "style": {
    "_class": "style",
    "do_objectID": "59A1A9BD-7F19-4089-8DBA-413D9BFEC390",
    "endMarkerType": 0,
    "fills": [
      {
        "_class": "fill",
        "color": {
          "_class": "color",
          "alpha": 1,
          "blue": 0.1764705882352941,
          "green": 0.1764705882352941,
          "red": 0.1764705882352941
        },
        "fillType": 0,
        "isEnabled": true,
        "noiseIndex": 0,
        "noiseIntensity": 0,
        "patternFillType": 1,
        "patternTileScale": 1
      }
    ],
    "miterLimit": 10,
    "startMarkerType": 0,
    "windingRule": 1
  }
}