{
  "_class": "shapePath",
  "booleanOperation": -1,
  "clippingMaskMode": 0,
  "do_objectID": "D10AEE6E-E3EB-48B3-97E6-C7CF4D777DD1",
  "edited": true,
  "exportOptions": {
    "_class": "exportOptions",
    "do_objectID": "254D9F2A-CC2E-4D97-ACEB-79D59AA8E843",
    "exportFormats": [
    ],
    "includedLayerIds": [
    ],
    "layerOptions": 0,
    "shouldTrim": false
  },
  "frame": {
    "_class": "rect",
    "constrainProportions": false,
    "do_objectID": "D75C1D07-DA04-428E-BAD2-AC6F848BB55C",
    "height": 0.1066436544204237,
    "width": 0.1059863482545502,
    "x": 25.52336569150711,
    "y": 28.45996834795794
  },
  "hasClippingMask": false,
  "isClosed": true,
  "isFixedToViewport": false,
  "isFlippedHorizontal": false,
  "isFlippedVertical": false,
  "isLocked": false,
  "isVisible": true,
  "layerListExpandedType": 0,
  "name": "Path",
  "nameIsFixed": false,
  "pointRadiusBehaviour": 0,
  "points": [
    {
      "_class": "curvePoint",
      "cornerRadius": 0,
      "curveFrom": "{0.12217130417906219, 0.012167300380243029}",
      "curveMode": 3,
      "curveTo": "{-0.12582869582092826, 0.26235741444869043}",
      "hasCurveFrom": true,
      "hasCurveTo": true,
      "point": "{0.028171304179068102, 0.10722433460077552}"
    },
    {
      "_class": "curvePoint",
      "cornerRadius": 0,
      "curveFrom": "{0.5181713041790772, 0.19011406844106496}",
      "curveMode": 4,
      "curveTo": "{0.49917130417907174, 0.085171102661614748}",
      "hasCurveFrom": true,
      "hasCurveTo": true,
      "point": "{0.61517130417911403, 0}"
    },
    {
      "_class": "curvePoint",
      "cornerRadius": 0,
      "curveFrom": "{0.80317130417910221, 0.9855513307984749}",
      "curveMode": 4,
      "curveTo": "{1.0511713041790927, 0.73612167300381703}",
      "hasCurveFrom": true,
      "hasCurveTo": true,
      "point": "{0.89917130417910585, 0.89125475285173195}"
    },
    {
      "_class": "curvePoint",
      "cornerRadius": 0,
      "curveFrom": "{0.40617130417911085, 0.81292775665400663}",
      "curveMode": 4,
      "curveTo": "{0.42717130417906901, 0.9178707224334568}",
      "hasCurveFrom": true,
      "hasCurveTo": true,
      "point": "{0.31117130417908356, 1}"
    }
  ],
  "resizingConstraint": 63,
  "resizingType": 0,
  "rotation": 0,
  "shouldBreakMaskChain": false,
  "style": {
    "_class": "style",
    "do_objectID": "825AF090-064F-47DA-B4F0-AED097B32F2D",
    "endMarkerType": 0,
    "fills": [
      {
        "_class": "fill",
        "color": {
          "_class": "color",
          "alpha": 1,
          "blue": 0.1764705882352941,
          "green": 0.1764705882352941,
          "red": 0.1764705882352941
        },
        "fillType": 0,
        "isEnabled": true,
        "noiseIndex": 0,
        "noiseIntensity": 0,
        "patternFillType": 1,
        "patternTileScale": 1
      }
    ],
    "miterLimit": 10,
    "startMarkerType": 0,
    "windingRule": 1
  }
}