{
  "_class": "shapePath",
  "booleanOperation": -1,
  "clippingMaskMode": 0,
  "do_objectID": "D3312E1D-38C5-48AC-BD3E-7F1004C50FFD",
  "edited": true,
  "exportOptions": {
    "_class": "exportOptions",
    "do_objectID": "DF4EF3A6-6791-44DF-9E34-3ECB15D9B907",
    "exportFormats": [
    ],
    "includedLayerIds": [
    ],
    "layerOptions": 0,
    "shouldTrim": false
  },
  "frame": {
    "_class": "rect",
    "constrainProportions": false,
    "do_objectID": "573A23FC-7E71-4B62-8F00-A36F94E6B9A9",
    "height": 0.1058906030855677,
    "width": 0.1059863482545609,
    "x": 32.21119189219127,
    "y": 12.7848920070432
  },
  "hasClippingMask": false,
  "isClosed": true,
  "isFixedToViewport": false,
  "isFlippedHorizontal": false,
  "isFlippedVertical": false,
  "isLocked": false,
  "isVisible": true,
  "layerListExpandedType": 0,
  "name": "Path",
  "nameIsFixed": false,
  "pointRadiusBehaviour": 0,
  "points": [
    {
      "_class": "curvePoint",
      "cornerRadius": 0,
      "curveFrom": "{0.13001014880949807, 0.040999999999996817}",
      "curveMode": 3,
      "curveTo": "{-0.084144203117663213, 0.48599999999999}",
      "hasCurveFrom": true,
      "hasCurveTo": true,
      "point": "{0.013845242044593593, 0.28399999999999181}"
    },
    {
      "_class": "curvePoint",
      "cornerRadius": 0,
      "curveFrom": "{1.1201776874246834, 0.47199999999997999}",
      "curveMode": 4,
      "curveTo": "{0.77879510427885357, 0.20800000000002683}",
      "hasCurveFrom": true,
      "hasCurveTo": true,
      "point": "{0.93921330885894905, 0}"
    },
    {
      "_class": "curvePoint",
      "cornerRadius": 0,
      "curveFrom": "{0.36233996233930704, 1.0690000000000168}",
      "curveMode": 4,
      "curveTo": "{0.86572122498725645, 0.60700000000002774}",
      "hasCurveFrom": true,
      "hasCurveTo": true,
      "point": "{0.58755763872027733, 0.72700000000003229}"
    }
  ],
  "resizingConstraint": 63,
  "resizingType": 0,
  "rotation": 0,
  "shouldBreakMaskChain": false,
  "style": {
    "_class": "style",
    "do_objectID": "39157563-EEB8-45F9-A3ED-9171ACAD3C21",
    "endMarkerType": 0,
    "fills": [
      {
        "_class": "fill",
        "color": {
          "_class": "color",
          "alpha": 1,
          "blue": 0.1764705882352941,
          "green": 0.1764705882352941,
          "red": 0.1764705882352941
        },
        "fillType": 0,
        "isEnabled": true,
        "noiseIndex": 0,
        "noiseIntensity": 0,
        "patternFillType": 1,
        "patternTileScale": 1
      }
    ],
    "miterLimit": 10,
    "startMarkerType": 0,
    "windingRule": 1
  }
}