{
  "_class": "shapePath",
  "booleanOperation": -1,
  "clippingMaskMode": 0,
  "do_objectID": "D37356EA-8250-4BAF-AF12-FE9C6EAF4F50",
  "edited": true,
  "exportOptions": {
    "_class": "exportOptions",
    "do_objectID": "1B834E4A-1C19-4DBD-9A21-4F2812A88292",
    "exportFormats": [
    ],
    "includedLayerIds": [
    ],
    "layerOptions": 0,
    "shouldTrim": false
  },
  "frame": {
    "_class": "rect",
    "constrainProportions": false,
    "do_objectID": "B66E3917-49C1-4B78-9F82-4BC540B02129",
    "height": 0.1058906030855571,
    "width": 0.1072888823268414,
    "x": 25.76053752297013,
    "y": 14.06404817523567
  },
  "hasClippingMask": false,
  "isClosed": true,
  "isFixedToViewport": false,
  "isFlippedHorizontal": false,
  "isFlippedVertical": false,
  "isLocked": false,
  "isVisible": true,
  "layerListExpandedType": 0,
  "name": "Path",
  "nameIsFixed": false,
  "pointRadiusBehaviour": 0,
  "points": [
    {
      "_class": "curvePoint",
      "cornerRadius": 0,
      "curveFrom": "{0.083447997216335945, 0.25315971427148332}",
      "curveMode": 3,
      "curveTo": "{-0.060299619508094288, 0.76732905643530924}",
      "hasCurveFrom": true,
      "hasCurveTo": true,
      "point": "{0.0055216576236110362, 0.53575660462107721}"
    },
    {
      "_class": "curvePoint",
      "cornerRadius": 0,
      "curveFrom": "{1.1456672281695042, 0.43763268436078301}",
      "curveMode": 4,
      "curveTo": "{0.75981836222498311, 0.25512219267669811}",
      "hasCurveFrom": true,
      "hasCurveTo": true,
      "point": "{0.88919121727696604, 0}"
    },
    {
      "_class": "curvePoint",
      "cornerRadius": 0,
      "curveFrom": "{0.48064535921803864, 1.2510799833184449}",
      "curveMode": 4,
      "curveTo": "{0.91037507658373951, 0.64663663451518405}",
      "hasCurveFrom": true,
      "hasCurveTo": true,
      "point": "{0.65465563209499633, 0.83994075742792251}"
    }
  ],
  "resizingConstraint": 63,
  "resizingType": 0,
  "rotation": 0,
  "shouldBreakMaskChain": false,
  "style": {
    "_class": "style",
    "do_objectID": "7FCAB693-03A3-4AF2-AC5E-CD31F5B1EFD7",
    "endMarkerType": 0,
    "fills": [
      {
        "_class": "fill",
        "color": {
          "_class": "color",
          "alpha": 1,
          "blue": 0.1764705882352941,
          "green": 0.1764705882352941,
          "red": 0.1764705882352941
        },
        "fillType": 0,
        "isEnabled": true,
        "noiseIndex": 0,
        "noiseIntensity": 0,
        "patternFillType": 1,
        "patternTileScale": 1
      }
    ],
    "miterLimit": 10,
    "startMarkerType": 0,
    "windingRule": 1
  }
}