{
  "_class": "shapePath",
  "booleanOperation": -1,
  "clippingMaskMode": 0,
  "do_objectID": "D5AEC9DD-7BD2-4C12-9E04-2775B8D67E3E",
  "edited": true,
  "exportOptions": {
    "_class": "exportOptions",
    "do_objectID": "EA884DB3-5E4B-4696-9744-D372889DEA84",
    "exportFormats": [
    ],
    "includedLayerIds": [
    ],
    "layerOptions": 0,
    "shouldTrim": false
  },
  "frame": {
    "_class": "rect",
    "constrainProportions": false,
    "do_objectID": "0A266368-F90D-43B1-9316-37A021ACA133",
    "height": 0.1058906030855766,
    "width": 0.1181470507998945,
    "x": 23.35091008805615,
    "y": 19.77382242095671
  },
  "hasClippingMask": false,
  "isClosed": true,
  "isFixedToViewport": false,
  "isFlippedHorizontal": false,
  "isFlippedVertical": false,
  "isLocked": false,
  "isVisible": true,
  "layerListExpandedType": 0,
  "name": "Path",
  "nameIsFixed": false,
  "pointRadiusBehaviour": 0,
  "points": [
    {
      "_class": "curvePoint",
      "cornerRadius": 0,
      "curveFrom": "{0.30645553490881772, 0.0007791248081913041}",
      "curveMode": 4,
      "curveTo": "{0.05980995524820662, 0.070121232736885197}",
      "hasCurveFrom": true,
      "hasCurveTo": true,
      "point": "{0.31401292035804562, 0}"
    },
    {
      "_class": "curvePoint",
      "cornerRadius": 0,
      "curveFrom": "{1.1254013035869967, 0.5695402347851195}",
      "curveMode": 4,
      "curveTo": "{0.71386731412540472, 0.67082645984952405}",
      "hasCurveFrom": true,
      "hasCurveTo": true,
      "point": "{0.90074084523317, 0.24152869053815276}"
    },
    {
      "_class": "curvePoint",
      "cornerRadius": 0,
      "curveFrom": "{0.3469906023182418, 1.0907747314626217}",
      "curveMode": 3,
      "curveTo": "{0.93165742207086366, 0.78068305780396641}",
      "hasCurveFrom": true,
      "hasCurveTo": true,
      "point": "{0.68707294753275505, 0.90923865115491154}"
    },
    {
      "_class": "curvePoint",
      "cornerRadius": 0,
      "curveFrom": "{-0.12088026049201213, 0.38410853043647492}",
      "curveMode": 4,
      "curveTo": "{0.26179825725438866, 0.99494238005555646}",
      "hasCurveFrom": true,
      "hasCurveTo": true,
      "point": "{0.098283917535089138, 0.66693083580856749}"
    }
  ],
  "resizingConstraint": 63,
  "resizingType": 0,
  "rotation": 0,
  "shouldBreakMaskChain": false,
  "style": {
    "_class": "style",
    "do_objectID": "E2054CB3-AB7C-4C06-9551-85CD6900F8F9",
    "endMarkerType": 0,
    "fills": [
      {
        "_class": "fill",
        "color": {
          "_class": "color",
          "alpha": 1,
          "blue": 0.1764705882352941,
          "green": 0.1764705882352941,
          "red": 0.1764705882352941
        },
        "fillType": 0,
        "isEnabled": true,
        "noiseIndex": 0,
        "noiseIntensity": 0,
        "patternFillType": 1,
        "patternTileScale": 1
      }
    ],
    "miterLimit": 10,
    "startMarkerType": 0,
    "windingRule": 1
  }
}