{
  "_class": "shapePath",
  "booleanOperation": -1,
  "clippingMaskMode": 0,
  "do_objectID": "D8F18FB9-D095-4F90-8907-04D1005474E1",
  "edited": true,
  "exportOptions": {
    "_class": "exportOptions",
    "do_objectID": "A264F3F7-0A50-42CA-9F9D-632EC83F2798",
    "exportFormats": [
    ],
    "includedLayerIds": [
    ],
    "layerOptions": 0,
    "shouldTrim": false
  },
  "frame": {
    "_class": "rect",
    "constrainProportions": false,
    "do_objectID": "6C67FAB5-42B0-4CFC-885D-4BF287677A4B",
    "height": 0.1058906030855553,
    "width": 0.1059863482545573,
    "x": 26.4795494902605,
    "y": 36.1328268959466
  },
  "hasClippingMask": false,
  "isClosed": true,
  "isFixedToViewport": false,
  "isFlippedHorizontal": false,
  "isFlippedVertical": false,
  "isLocked": false,
  "isVisible": true,
  "layerListExpandedType": 0,
  "name": "Path",
  "nameIsFixed": false,
  "pointRadiusBehaviour": 0,
  "points": [
    {
      "_class": "curvePoint",
      "cornerRadius": 0,
      "curveFrom": "{-0.25767455674423445, 0.51462905827185068}",
      "curveMode": 3,
      "curveTo": "{0.32032544325574008, 0.86462905827187342}",
      "hasCurveFrom": true,
      "hasCurveTo": true,
      "point": "{0.1193254432557751, 0.74462905827186887}"
    },
    {
      "_class": "curvePoint",
      "cornerRadius": 0,
      "curveFrom": "{0.93932544325576828, 0.24662905827187842}",
      "curveMode": 4,
      "curveTo": "{0.3613254432557369, -0.10937094172817297}",
      "hasCurveFrom": true,
      "hasCurveTo": true,
      "point": "{0.56132544325578237, 0.016629058271860231}"
    }
  ],
  "resizingConstraint": 63,
  "resizingType": 0,
  "rotation": 0,
  "shouldBreakMaskChain": false,
  "style": {
    "_class": "style",
    "do_objectID": "BD182171-BA6C-4A23-AA68-1AEB571F6808",
    "endMarkerType": 0,
    "fills": [
      {
        "_class": "fill",
        "color": {
          "_class": "color",
          "alpha": 1,
          "blue": 0.1764705882352941,
          "green": 0.1764705882352941,
          "red": 0.1764705882352941
        },
        "fillType": 0,
        "isEnabled": true,
        "noiseIndex": 0,
        "noiseIntensity": 0,
        "patternFillType": 1,
        "patternTileScale": 1
      }
    ],
    "miterLimit": 10,
    "startMarkerType": 0,
    "windingRule": 1
  }
}