{
  "_class": "shapePath",
  "booleanOperation": -1,
  "clippingMaskMode": 0,
  "do_objectID": "DAB93CFE-B6C7-43AB-9722-812F3CC561BD",
  "edited": true,
  "exportOptions": {
    "_class": "exportOptions",
    "do_objectID": "4CEA822E-84C3-46AE-992B-304902C8F64D",
    "exportFormats": [
    ],
    "includedLayerIds": [
    ],
    "layerOptions": 0,
    "shouldTrim": false
  },
  "frame": {
    "_class": "rect",
    "constrainProportions": false,
    "do_objectID": "9A4288B1-EB85-4162-A8FC-371BFE7B565D",
    "height": 0.1058906030855624,
    "width": 0.105986348254568,
    "x": 32.05566850314189,
    "y": 27.64893058820625
  },
  "hasClippingMask": false,
  "isClosed": true,
  "isFixedToViewport": false,
  "isFlippedHorizontal": false,
  "isFlippedVertical": false,
  "isLocked": false,
  "isVisible": true,
  "layerListExpandedType": 0,
  "name": "Path",
  "nameIsFixed": false,
  "pointRadiusBehaviour": 0,
  "points": [
    {
      "_class": "curvePoint",
      "cornerRadius": 0,
      "curveFrom": "{0.92851344608021691, 0.1667324380416062}",
      "curveMode": 3,
      "curveTo": "{0.24751344608023373, -0.080267561958407896}",
      "hasCurveFrom": true,
      "hasCurveTo": true,
      "point": "{0.48351344608022373, 0.0067324380416380336}"
    },
    {
      "_class": "curvePoint",
      "cornerRadius": 0,
      "curveFrom": "{-0.26848655391978582, 0.70173243804163121}",
      "curveMode": 3,
      "curveTo": "{0.4105134460801878, 0.95073243804159802}",
      "hasCurveFrom": true,
      "hasCurveTo": true,
      "point": "{0.17251344608018826, 0.86373243804160893}"
    }
  ],
  "resizingConstraint": 63,
  "resizingType": 0,
  "rotation": 0,
  "shouldBreakMaskChain": false,
  "style": {
    "_class": "style",
    "do_objectID": "8D22AAB4-4914-494B-AC58-769647FB4E39",
    "endMarkerType": 0,
    "fills": [
      {
        "_class": "fill",
        "color": {
          "_class": "color",
          "alpha": 1,
          "blue": 0.1764705882352941,
          "green": 0.1764705882352941,
          "red": 0.1764705882352941
        },
        "fillType": 0,
        "isEnabled": true,
        "noiseIndex": 0,
        "noiseIntensity": 0,
        "patternFillType": 1,
        "patternTileScale": 1
      }
    ],
    "miterLimit": 10,
    "startMarkerType": 0,
    "windingRule": 1
  }
}