{
  "_class": "shapePath",
  "booleanOperation": -1,
  "clippingMaskMode": 0,
  "do_objectID": "E1E00E38-23EF-4D71-BE64-E92940EF2811",
  "edited": true,
  "exportOptions": {
    "_class": "exportOptions",
    "do_objectID": "A60410F7-FF7D-4D23-B624-42D978964406",
    "exportFormats": [
    ],
    "includedLayerIds": [
    ],
    "layerOptions": 0,
    "shouldTrim": false
  },
  "frame": {
    "_class": "rect",
    "constrainProportions": false,
    "do_objectID": "1ECB7A0C-568D-4A96-88A9-F1D46CED67EA",
    "height": 0.1058906030855731,
    "width": 0.105986348254568,
    "x": 18.54328389408459,
    "y": 20.0170348313041
  },
  "hasClippingMask": false,
  "isClosed": true,
  "isFixedToViewport": false,
  "isFlippedHorizontal": false,
  "isFlippedVertical": false,
  "isLocked": false,
  "isVisible": true,
  "layerListExpandedType": 0,
  "name": "Path",
  "nameIsFixed": false,
  "pointRadiusBehaviour": 0,
  "points": [
    {
      "_class": "curvePoint",
      "cornerRadius": 0,
      "curveFrom": "{0.12968860188660994, 0.040999999999996817}",
      "curveMode": 3,
      "curveTo": "{-0.083423237545071735, 0.48500000000001364}",
      "hasCurveFrom": true,
      "hasCurveTo": true,
      "point": "{0.013661044862683139, 0.28400000000002024}"
    },
    {
      "_class": "curvePoint",
      "cornerRadius": 0,
      "curveFrom": "{1.1210533067983954, 0.47300000000001319}",
      "curveMode": 4,
      "curveTo": "{0.7777064543806973, 0.20799999999999841}",
      "hasCurveFrom": true,
      "hasCurveTo": true,
      "point": "{0.93872428861794543, 0}"
    },
    {
      "_class": "curvePoint",
      "cornerRadius": 0,
      "curveFrom": "{0.36095441282540869, 1.0700000000000216}",
      "curveMode": 4,
      "curveTo": "{0.8645297963713674, 0.60800000000000409}",
      "hasCurveFrom": true,
      "hasCurveTo": true,
      "point": "{0.58827370821920244, 0.72900000000001342}"
    }
  ],
  "resizingConstraint": 63,
  "resizingType": 0,
  "rotation": 0,
  "shouldBreakMaskChain": false,
  "style": {
    "_class": "style",
    "do_objectID": "3CC7A38C-E323-492C-9762-5A3C9C2F24B0",
    "endMarkerType": 0,
    "fills": [
      {
        "_class": "fill",
        "color": {
          "_class": "color",
          "alpha": 1,
          "blue": 0.1764705882352941,
          "green": 0.1764705882352941,
          "red": 0.1764705882352941
        },
        "fillType": 0,
        "isEnabled": true,
        "noiseIndex": 0,
        "noiseIntensity": 0,
        "patternFillType": 1,
        "patternTileScale": 1
      }
    ],
    "miterLimit": 10,
    "startMarkerType": 0,
    "windingRule": 1
  }
}