{
  "_class": "shapePath",
  "booleanOperation": -1,
  "clippingMaskMode": 0,
  "do_objectID": "EC5C224D-C3C4-4AC3-BE4A-484AB081F412",
  "edited": true,
  "exportOptions": {
    "_class": "exportOptions",
    "do_objectID": "6CEB21A6-BECF-4BB5-85F4-F71EF1112E1C",
    "exportFormats": [
    ],
    "includedLayerIds": [
    ],
    "layerOptions": 0,
    "shouldTrim": false
  },
  "frame": {
    "_class": "rect",
    "constrainProportions": false,
    "do_objectID": "9EF32AD5-3924-479B-B2AC-423B015C19F2",
    "height": 0.1058906030855624,
    "width": 0.1059863482545644,
    "x": 26.07921862776271,
    "y": 19.11896688667867
  },
  "hasClippingMask": false,
  "isClosed": true,
  "isFixedToViewport": false,
  "isFlippedHorizontal": false,
  "isFlippedVertical": false,
  "isLocked": false,
  "isVisible": true,
  "layerListExpandedType": 0,
  "name": "Path",
  "nameIsFixed": false,
  "pointRadiusBehaviour": 0,
  "points": [
    {
      "_class": "curvePoint",
      "cornerRadius": 0,
      "curveFrom": "{1.0582599308953604, 0.2758829572259458}",
      "curveMode": 3,
      "curveTo": "{0.40625993089531676, -0.12011704277404078}",
      "hasCurveFrom": true,
      "hasCurveTo": true,
      "point": "{0.63325993089534904, 0.017882957225964446}"
    },
    {
      "_class": "curvePoint",
      "cornerRadius": 0,
      "curveFrom": "{-0.28874006910467642, 0.57788295722596672}",
      "curveMode": 4,
      "curveTo": "{0.35925993089534813, 0.97388295722595331}",
      "hasCurveFrom": true,
      "hasCurveTo": true,
      "point": "{0.13325993089534904, 0.8318829572259574}"
    }
  ],
  "resizingConstraint": 63,
  "resizingType": 0,
  "rotation": 0,
  "shouldBreakMaskChain": false,
  "style": {
    "_class": "style",
    "do_objectID": "2407766A-9E63-4CC7-AB2E-B45FE7B62E81",
    "endMarkerType": 0,
    "fills": [
      {
        "_class": "fill",
        "color": {
          "_class": "color",
          "alpha": 1,
          "blue": 0.1764705882352941,
          "green": 0.1764705882352941,
          "red": 0.1764705882352941
        },
        "fillType": 0,
        "isEnabled": true,
        "noiseIndex": 0,
        "noiseIntensity": 0,
        "patternFillType": 1,
        "patternTileScale": 1
      }
    ],
    "miterLimit": 10,
    "startMarkerType": 0,
    "windingRule": 1
  }
}