{
  "_class": "shapePath",
  "booleanOperation": -1,
  "clippingMaskMode": 0,
  "do_objectID": "EF768D00-2F68-4B2D-9632-FD386269A212",
  "edited": true,
  "exportOptions": {
    "_class": "exportOptions",
    "do_objectID": "453ADAD5-9C3D-4283-92FA-BF6A79BD9C3D",
    "exportFormats": [
    ],
    "includedLayerIds": [
    ],
    "layerOptions": 0,
    "shouldTrim": false
  },
  "frame": {
    "_class": "rect",
    "constrainProportions": false,
    "do_objectID": "1485811C-F78A-4153-BF06-CBA5DE7AAE63",
    "height": 0.1058906030855535,
    "width": 0.1059863482545538,
    "x": 21.40523729539073,
    "y": 14.50785994620683
  },
  "hasClippingMask": false,
  "isClosed": true,
  "isFixedToViewport": false,
  "isFlippedHorizontal": false,
  "isFlippedVertical": false,
  "isLocked": false,
  "isVisible": true,
  "layerListExpandedType": 0,
  "name": "Path",
  "nameIsFixed": false,
  "pointRadiusBehaviour": 0,
  "points": [
    {
      "_class": "curvePoint",
      "cornerRadius": 0,
      "curveFrom": "{0.92805510872449304, 0.16745236461622426}",
      "curveMode": 3,
      "curveTo": "{0.24705510872450986, -0.078547635383756642}",
      "hasCurveFrom": true,
      "hasCurveTo": true,
      "point": "{0.48405510872453306, 0.0064523646162228943}"
    },
    {
      "_class": "curvePoint",
      "cornerRadius": 0,
      "curveFrom": "{-0.26794489127547649, 0.70145236461621607}",
      "curveMode": 4,
      "curveTo": "{0.41005510872452078, 0.94945236461620652}",
      "hasCurveFrom": true,
      "hasCurveTo": true,
      "point": "{0.17205510872452123, 0.86445236461622699}"
    }
  ],
  "resizingConstraint": 63,
  "resizingType": 0,
  "rotation": 0,
  "shouldBreakMaskChain": false,
  "style": {
    "_class": "style",
    "do_objectID": "0E367380-8A67-48D6-ABB0-AB2EF97A1E96",
    "endMarkerType": 0,
    "fills": [
      {
        "_class": "fill",
        "color": {
          "_class": "color",
          "alpha": 1,
          "blue": 0.1764705882352941,
          "green": 0.1764705882352941,
          "red": 0.1764705882352941
        },
        "fillType": 0,
        "isEnabled": true,
        "noiseIndex": 0,
        "noiseIntensity": 0,
        "patternFillType": 1,
        "patternTileScale": 1
      }
    ],
    "miterLimit": 10,
    "startMarkerType": 0,
    "windingRule": 1
  }
}