{
  "_class": "shapePath",
  "booleanOperation": -1,
  "clippingMaskMode": 0,
  "do_objectID": "EFA343F7-2685-4452-AFCD-A6E18F99E920",
  "edited": true,
  "exportOptions": {
    "_class": "exportOptions",
    "do_objectID": "D0651E5C-2277-4823-A6E5-89A913A23FB3",
    "exportFormats": [
    ],
    "includedLayerIds": [
    ],
    "layerOptions": 0,
    "shouldTrim": false
  },
  "frame": {
    "_class": "rect",
    "constrainProportions": false,
    "do_objectID": "2963D359-CC74-4B80-AA67-43A1B24FD583",
    "height": 0.1058906030855731,
    "width": 0.1059863482545609,
    "x": 24.74918379805327,
    "y": 22.95778965471005
  },
  "hasClippingMask": false,
  "isClosed": true,
  "isFixedToViewport": false,
  "isFlippedHorizontal": false,
  "isFlippedVertical": false,
  "isLocked": false,
  "isVisible": true,
  "layerListExpandedType": 0,
  "name": "Path",
  "nameIsFixed": false,
  "pointRadiusBehaviour": 0,
  "points": [
    {
      "_class": "curvePoint",
      "cornerRadius": 0,
      "curveFrom": "{0.94081813012792281, 0.24618382541450501}",
      "curveMode": 3,
      "curveTo": "{0.36181813012797193, -0.10781617458542314}",
      "hasCurveFrom": true,
      "hasCurveTo": true,
      "point": "{0.56481813012794646, 0.016183825414543662}"
    },
    {
      "_class": "curvePoint",
      "cornerRadius": 0,
      "curveFrom": "{-0.25618186987207991, 0.51418382541453411}",
      "curveMode": 4,
      "curveTo": "{0.32081813012791827, 0.86418382541455685}",
      "hasCurveFrom": true,
      "hasCurveTo": true,
      "point": "{0.11781813012794373, 0.74318382541457595}"
    }
  ],
  "resizingConstraint": 63,
  "resizingType": 0,
  "rotation": 0,
  "shouldBreakMaskChain": false,
  "style": {
    "_class": "style",
    "do_objectID": "731E0D06-2EB6-4206-B682-0BF444D31E28",
    "endMarkerType": 0,
    "fills": [
      {
        "_class": "fill",
        "color": {
          "_class": "color",
          "alpha": 1,
          "blue": 0.1764705882352941,
          "green": 0.1764705882352941,
          "red": 0.1764705882352941
        },
        "fillType": 0,
        "isEnabled": true,
        "noiseIndex": 0,
        "noiseIntensity": 0,
        "patternFillType": 1,
        "patternTileScale": 1
      }
    ],
    "miterLimit": 10,
    "startMarkerType": 0,
    "windingRule": 1
  }
}