{
  "_class": "group",
  "booleanOperation": -1,
  "clippingMaskMode": 0,
  "do_objectID": "671A6B03-7F4A-44CB-8F06-023B005D75B7",
  "exportOptions": {
    "_class": "exportOptions",
    "do_objectID": "C8A22E3C-2585-484F-AA72-F758FF229A77",
    "exportFormats": [
    ],
    "includedLayerIds": [
    ],
    "layerOptions": 0,
    "shouldTrim": false
  },
  "frame": {
    "_class": "rect",
    "constrainProportions": false,
    "do_objectID": "7CCA69A0-863E-48F0-95F1-C2D3CEBA5E18",
    "height": 103,
    "width": 320,
    "x": 0,
    "y": 0
  },
  "groupLayout": {
    "_class": "MSImmutableFreeformGroupLayout",
    "do_objectID": "505C961D-CD7F-4A22-97B4-A201185BA797"
  },
  "hasClickThrough": false,
  "hasClippingMask": false,
  "isFixedToViewport": false,
  "isFlippedHorizontal": false,
  "isFlippedVertical": false,
  "isLocked": false,
  "isVisible": true,
  "layerListExpandedType": 0,
  "layers": [
    {
      "class": "rectangle",
      "id": "50AE9EA7-8D30-4D9A-BA27-4D3ADB6AE656"
    },
    {
      "class": "group",
      "id": "F4DA076F-5115-49CF-8773-47A02456936D"
    }
  ],
  "name": "token",
  "nameIsFixed": true,
  "resizingConstraint": 63,
  "resizingType": 0,
  "rotation": 0,
  "shouldBreakMaskChain": false,
  "style": {
    "_class": "style",
    "blur": {
      "_class": "blur",
      "center": "{0.5, 0.5}",
      "do_objectID": "D23418AF-2576-4633-86C6-F07E261B0A86",
      "isEnabled": false,
      "motionAngle": 0,
      "radius": 7.999999523162842,
      "saturation": 1,
      "type": 0
    },
    "borders": [
      {
        "_class": "border",
        "color": {
          "_class": "color",
          "alpha": 1,
          "blue": 0.8352941176,
          "green": 0.7921568627,
          "red": 0.7294117647
        },
        "fillType": 0,
        "isEnabled": false,
        "position": 1,
        "thickness": 0.7999999523162842
      }
    ],
    "do_objectID": "024AEF2F-DFED-4CFD-830D-C8919BDE3311",
    "endMarkerType": 0,
    "fills": [
      {
        "_class": "fill",
        "color": {
          "_class": "color",
          "alpha": 1,
          "blue": 1,
          "green": 1,
          "red": 1
        },
        "fillType": 0,
        "isEnabled": true,
        "noiseIndex": 0,
        "noiseIntensity": 0,
        "patternFillType": 0,
        "patternTileScale": 1
      }
    ],
    "miterLimit": 10,
    "startMarkerType": 0,
    "windingRule": 1
  }
}