{
  "_class": "shapePath",
  "booleanOperation": -1,
  "clippingMaskMode": 0,
  "do_objectID": "3221A1E8-CFA5-4C7D-8718-C45AED0DB5B3",
  "edited": true,
  "exportOptions": {
    "_class": "exportOptions",
    "exportFormats": [
    ],
    "includedLayerIds": [
    ],
    "layerOptions": 0,
    "shouldTrim": false
  },
  "frame": {
    "_class": "rect",
    "constrainProportions": false,
    "height": 4.094794117647055,
    "width": 4.095205882352943,
    "x": 24.48511470588236,
    "y": 0.1526411764705879
  },
  "hasClippingMask": false,
  "isClosed": true,
  "isFixedToViewport": false,
  "isFlippedHorizontal": false,
  "isFlippedVertical": false,
  "isLocked": false,
  "isVisible": true,
  "layerListExpandedType": 0,
  "maintainScrollPosition": false,
  "name": "Fill 11",
  "nameIsFixed": false,
  "pointRadiusBehaviour": 1,
  "points": [
    {
      "_class": "curvePoint",
      "cornerRadius": 0,
      "curveFrom": "{1.0302398069478658, 0.59158328724420506}",
      "curveMode": 4,
      "curveTo": "{0.90928057915640204, 0.47061189602292658}",
      "hasCurveFrom": true,
      "hasCurveTo": false,
      "point": "{0.90928057915640204, 0.47061189602292658}"
    },
    {
      "_class": "curvePoint",
      "cornerRadius": 0,
      "curveFrom": "{0.78832135136493842, 1.0303182663784003}",
      "curveMode": 2,
      "curveTo": "{1.0302398069478658, 0.78827492583840331}",
      "hasCurveFrom": true,
      "hasCurveTo": true,
      "point": "{0.90928057915640204, 0.90904520086479923}"
    },
    {
      "_class": "curvePoint",
      "cornerRadius": 0,
      "curveFrom": "{0.47069026192750552, 0.90904520086479923}",
      "curveMode": 4,
      "curveTo": "{0.59185058569202187, 1.0303182663784003}",
      "hasCurveFrom": false,
      "hasCurveTo": true,
      "point": "{0.47069026192750552, 0.90904520086479923}"
    },
    {
      "_class": "curvePoint",
      "cornerRadius": 0,
      "curveFrom": "{-0.030239806947864697, 0.40826587560963229}",
      "curveMode": 4,
      "curveTo": "{0.090719420843597534, 0.5290361506360296}",
      "hasCurveFrom": true,
      "hasCurveTo": false,
      "point": "{0.090719420843597534, 0.5290361506360296}"
    },
    {
      "_class": "curvePoint",
      "cornerRadius": 0,
      "curveFrom": "{0.21177919662158823, -0.030267987329680449}",
      "curveMode": 2,
      "curveTo": "{-0.030239806947864697, 0.21167479511287518}",
      "hasCurveFrom": true,
      "hasCurveTo": true,
      "point": "{0.090719420843597534, 0.090803961989037923}"
    },
    {
      "_class": "curvePoint",
      "cornerRadius": 0,
      "curveFrom": "{0.52900809411291583, 0.090803961989037923}",
      "curveMode": 4,
      "curveTo": "{0.40845105826755884, -0.030267987329680449}",
      "hasCurveFrom": false,
      "hasCurveTo": true,
      "point": "{0.52900809411291583, 0.090803961989037923}"
    }
  ],
  "resizingConstraint": 63,
  "resizingType": 0,
  "rotation": 0,
  "shouldBreakMaskChain": false,
  "style": {
    "_class": "style",
    "blur": {
      "_class": "blur",
      "center": "{0.5, 0.5}",
      "isEnabled": false,
      "motionAngle": 0,
      "radius": 10,
      "saturation": 1,
      "type": 0
    },
    "borderOptions": {
      "_class": "borderOptions",
      "dashPattern": [
      ],
      "isEnabled": true,
      "lineCapStyle": 0,
      "lineJoinStyle": 0
    },
    "borders": [
    ],
    "colorControls": {
      "_class": "colorControls",
      "brightness": 0,
      "contrast": 1,
      "hue": 0,
      "isEnabled": true,
      "saturation": 1
    },
    "contextSettings": {
      "_class": "graphicsContextSettings",
      "blendMode": 0,
      "opacity": 1
    },
    "do_objectID": "92726E10-D743-405B-BC99-C889A8922AAD",
    "endMarkerType": 0,
    "fills": [
      {
        "_class": "fill",
        "color": {
          "_class": "color",
          "alpha": 1,
          "blue": 0.2666666666666664,
          "green": 0.1568627450980393,
          "red": 0.8705882352941177
        },
        "contextSettings": {
          "_class": "graphicsContextSettings",
          "blendMode": 0,
          "opacity": 1
        },
        "fillType": 0,
        "gradient": {
          "_class": "gradient",
          "elipseLength": 0,
          "from": "{0.5, 0}",
          "gradientType": 0,
          "stops": [
            {
              "_class": "gradientStop",
              "color": {
                "_class": "color",
                "alpha": 1,
                "blue": 1,
                "green": 1,
                "red": 1
              },
              "position": 0
            },
            {
              "_class": "gradientStop",
              "color": {
                "_class": "color",
                "alpha": 1,
                "blue": 0,
                "green": 0,
                "red": 0
              },
              "position": 1
            }
          ],
          "to": "{0.5, 1}"
        },
        "isEnabled": true,
        "noiseIndex": 0,
        "noiseIntensity": 0,
        "patternFillType": 1,
        "patternTileScale": 1
      }
    ],
    "innerShadows": [
    ],
    "miterLimit": 10,
    "shadows": [
    ],
    "startMarkerType": 0,
    "windingRule": 1
  }
}