{
  "_class": "symbolInstance",
  "booleanOperation": -1,
  "clippingMaskMode": 0,
  "do_objectID": "A7AAB2CF-1E10-4F69-9875-BA8938FE5650",
  "exportOptions": {
    "_class": "exportOptions",
    "exportFormats": [
    ],
    "includedLayerIds": [
    ],
    "layerOptions": 0,
    "shouldTrim": false
  },
  "frame": {
    "_class": "rect",
    "constrainProportions": false,
    "height": 316,
    "width": 375,
    "x": 0,
    "y": 156
  },
  "hasClippingMask": false,
  "horizontalSpacing": 0,
  "isFixedToViewport": false,
  "isFlippedHorizontal": false,
  "isFlippedVertical": false,
  "isLocked": false,
  "isVisible": true,
  "layerListExpandedType": 0,
  "maintainScrollPosition": false,
  "name": "m/info/product/with offer/2",
  "nameIsFixed": false,
  "overrideValues": [
    {
      "_class": "overrideValue",
      "overrideName": "1774BEE6-9436-4005-95F5-69080B1513A1_symbolID",
      "value": "3D500BE1-08A8-43C2-8C7F-C826F3D2CBD4"
    },
    {
      "_class": "overrideValue",
      "overrideName": "1774BEE6-9436-4005-95F5-69080B1513A1/730468DD-A759-47F8-99CE-64578C40C96F_stringValue",
      "value": "Sold by Samar Lifestyle Private Limited"
    },
    {
      "_class": "overrideValue",
      "overrideName": "2D7C64EC-CB3A-42F3-AFA1-AB5C43EFE0D0_stringValue",
      "value": "Love Moschino"
    },
    {
      "_class": "overrideValue",
      "overrideName": "A8F1B7F2-B4E6-4172-99E1-264D61F83495_stringValue",
      "value": "Cirpa Scarpad Spilla 70 Crosta Pumps"
    }
  ],
  "resizingConstraint": 63,
  "resizingType": 0,
  "rotation": 0,
  "scale": 1,
  "shouldBreakMaskChain": false,
  "style": {
    "_class": "style",
    "blur": {
      "_class": "blur",
      "center": "{0.5, 0.5}",
      "isEnabled": false,
      "motionAngle": 0,
      "radius": 10,
      "saturation": 1,
      "type": 0
    },
    "borderOptions": {
      "_class": "borderOptions",
      "dashPattern": [
      ],
      "isEnabled": true,
      "lineCapStyle": 0,
      "lineJoinStyle": 0
    },
    "borders": [
    ],
    "colorControls": {
      "_class": "colorControls",
      "brightness": 0,
      "contrast": 1,
      "hue": 0,
      "isEnabled": true,
      "saturation": 1
    },
    "contextSettings": {
      "_class": "graphicsContextSettings",
      "blendMode": 0,
      "opacity": 1
    },
    "do_objectID": "5285E2C3-1A7A-417E-A1FC-0ABD834E8B61",
    "endMarkerType": 0,
    "fills": [
    ],
    "innerShadows": [
    ],
    "miterLimit": 10,
    "shadows": [
    ],
    "startMarkerType": 0,
    "windingRule": 1
  },
  "symbolID": "FA0A5C0A-52C1-4D00-8F38-AAC836260F1D",
  "verticalSpacing": 0
}