{
  "_class": "symbolInstance",
  "booleanOperation": -1,
  "clippingMaskMode": 0,
  "do_objectID": "16896632-4AC2-4150-BF0A-E145FDC0BAC2",
  "exportOptions": {
    "_class": "exportOptions",
    "do_objectID": "F670980D-6999-4FD5-B39E-A8ECE4388BE1",
    "exportFormats": [
    ],
    "includedLayerIds": [
    ],
    "layerOptions": 0,
    "shouldTrim": false
  },
  "frame": {
    "_class": "rect",
    "constrainProportions": false,
    "do_objectID": "FDB2AA04-6A3E-4D67-92C0-7412BB8932F2",
    "height": 32,
    "width": 200,
    "x": 200,
    "y": 0
  },
  "hasClippingMask": false,
  "horizontalSpacing": 0,
  "isFixedToViewport": false,
  "isFlippedHorizontal": false,
  "isFlippedVertical": false,
  "isLocked": false,
  "isVisible": true,
  "layerListExpandedType": 0,
  "name": "column header 2",
  "nameIsFixed": true,
  "overrideValues": [
  ],
  "resizingConstraint": 63,
  "resizingType": 0,
  "rotation": 0,
  "scale": 1,
  "shouldBreakMaskChain": false,
  "style": {
    "_class": "style",
    "do_objectID": "0675B0CD-93F0-4B48-B385-F091EB72C351",
    "endMarkerType": 0,
    "miterLimit": 10,
    "startMarkerType": 0,
    "windingRule": 1
  },
  "symbolID": "2983F435-C8F4-4D99-96B8-01C7A8D30C06",
  "verticalSpacing": 0
}