{
  "_class": "shapePath",
  "booleanOperation": -1,
  "clippingMaskMode": 0,
  "do_objectID": "00FDAD4C-F0A5-4D83-9E21-1EF96999AB8E",
  "edited": true,
  "exportOptions": {
    "_class": "exportOptions",
    "do_objectID": "FB20F030-5F3E-4A4B-8398-D6BF15AFAF77",
    "exportFormats": [
    ],
    "includedLayerIds": [
    ],
    "layerOptions": 0,
    "shouldTrim": false
  },
  "frame": {
    "_class": "rect",
    "constrainProportions": false,
    "do_objectID": "892DC9F7-FFEE-4A43-B33C-920A2DFD3A81",
    "height": 0.105890603085566,
    "width": 0.1059863482545467,
    "x": 21.08535488725724,
    "y": 18.8593226994882
  },
  "hasClippingMask": false,
  "isClosed": true,
  "isFixedToViewport": false,
  "isFlippedHorizontal": false,
  "isFlippedVertical": false,
  "isLocked": false,
  "isVisible": true,
  "layerListExpandedType": 0,
  "name": "Path",
  "nameIsFixed": false,
  "pointRadiusBehaviour": 0,
  "points": [
    {
      "_class": "curvePoint",
      "cornerRadius": 0,
      "curveFrom": "{0.94189312161097405, 0.24549966861033568}",
      "curveMode": 4,
      "curveTo": "{0.36389312161094267, -0.10550033138966342}",
      "hasCurveFrom": true,
      "hasCurveTo": true,
      "point": "{0.5678931216109504, 0.015499668610345907}"
    },
    {
      "_class": "curvePoint",
      "cornerRadius": 0,
      "curveFrom": "{-0.25810687838901458, 0.51449966861034113}",
      "curveMode": 3,
      "curveTo": "{0.32289312161094585, 0.86949966861035932}",
      "hasCurveFrom": true,
      "hasCurveTo": true,
      "point": "{0.11889312161093812, 0.74549966861033568}"
    }
  ],
  "resizingConstraint": 63,
  "resizingType": 0,
  "rotation": 0,
  "shouldBreakMaskChain": false,
  "style": {
    "_class": "style",
    "do_objectID": "9D017ED5-E10C-4643-9FF5-A8C59F56C720",
    "endMarkerType": 0,
    "fills": [
      {
        "_class": "fill",
        "color": {
          "_class": "color",
          "alpha": 1,
          "blue": 0.1764705882352941,
          "green": 0.1764705882352941,
          "red": 0.1764705882352941
        },
        "fillType": 0,
        "isEnabled": true,
        "noiseIndex": 0,
        "noiseIntensity": 0,
        "patternFillType": 1,
        "patternTileScale": 1
      }
    ],
    "miterLimit": 10,
    "startMarkerType": 0,
    "windingRule": 1
  }
}