{
  "_class": "shapePath",
  "booleanOperation": -1,
  "clippingMaskMode": 0,
  "do_objectID": "03F7B183-1BC3-448C-A073-83FB531F8EAB",
  "edited": true,
  "exportOptions": {
    "_class": "exportOptions",
    "do_objectID": "1915C4BD-4400-4F88-A6DE-615A159D73E4",
    "exportFormats": [
    ],
    "includedLayerIds": [
    ],
    "layerOptions": 0,
    "shouldTrim": false
  },
  "frame": {
    "_class": "rect",
    "constrainProportions": false,
    "do_objectID": "8CC119AD-8FEB-48DF-B996-4B144FC09CB2",
    "height": 0.1074245206015583,
    "width": 0.1059863482545627,
    "x": 11.80807804787106,
    "y": 31.92317476097574
  },
  "hasClippingMask": false,
  "isClosed": true,
  "isFixedToViewport": false,
  "isFlippedHorizontal": false,
  "isFlippedVertical": false,
  "isLocked": false,
  "isVisible": true,
  "layerListExpandedType": 0,
  "name": "Path",
  "nameIsFixed": false,
  "pointRadiusBehaviour": 0,
  "points": [
    {
      "_class": "curvePoint",
      "cornerRadius": 0,
      "curveFrom": "{0.26619989880961747, 1.1134784279957739}",
      "curveMode": 4,
      "curveTo": "{0.60149132999694344, 0.66656073472275523}",
      "hasCurveFrom": true,
      "hasCurveTo": true,
      "point": "{0.64550333170409191, 0.9436195074105842}"
    },
    {
      "_class": "curvePoint",
      "cornerRadius": 0,
      "curveFrom": "{-0.1219059344262866, 0.25059511142307506}",
      "curveMode": 4,
      "curveTo": "{0.15657000364813159, 0.86963651088903238}",
      "hasCurveFrom": true,
      "hasCurveTo": true,
      "point": "{0.061344036318082308, 0.60918616599178999}"
    },
    {
      "_class": "curvePoint",
      "cornerRadius": 0,
      "curveFrom": "{0.79754479214702623, -0.11554522850497399}",
      "curveMode": 4,
      "curveTo": "{0.13736476653954946, 0.14943468760789461}",
      "hasCurveFrom": true,
      "hasCurveTo": true,
      "point": "{0.41824135925255179, 0.058088334759882856}"
    },
    {
      "_class": "curvePoint",
      "cornerRadius": 0,
      "curveFrom": "{0.58228609288836131, 0.40611038982551284}",
      "curveMode": 4,
      "curveTo": "{0.90477403266995071, 0.13056147420955927}",
      "hasCurveFrom": true,
      "hasCurveTo": true,
      "point": "{1, 0.39478646178651161}"
    }
  ],
  "resizingConstraint": 63,
  "resizingType": 0,
  "rotation": 0,
  "shouldBreakMaskChain": false,
  "style": {
    "_class": "style",
    "do_objectID": "75AC8632-7470-4B45-B0A3-79731506FD7D",
    "endMarkerType": 0,
    "fills": [
      {
        "_class": "fill",
        "color": {
          "_class": "color",
          "alpha": 1,
          "blue": 0.1764705882352941,
          "green": 0.1764705882352941,
          "red": 0.1764705882352941
        },
        "fillType": 0,
        "isEnabled": true,
        "noiseIndex": 0,
        "noiseIntensity": 0,
        "patternFillType": 1,
        "patternTileScale": 1
      }
    ],
    "miterLimit": 10,
    "startMarkerType": 0,
    "windingRule": 1
  }
}