{
  "_class": "shapePath",
  "booleanOperation": -1,
  "clippingMaskMode": 0,
  "do_objectID": "1764DA3D-2B14-4BDF-9F6D-FEF0476FC1ED",
  "edited": true,
  "exportOptions": {
    "_class": "exportOptions",
    "do_objectID": "B8257111-7C11-42A7-ABA1-D00ED398E806",
    "exportFormats": [
    ],
    "includedLayerIds": [
    ],
    "layerOptions": 0,
    "shouldTrim": false
  },
  "frame": {
    "_class": "rect",
    "constrainProportions": false,
    "do_objectID": "BB977E51-7489-4FC1-99D1-B130CDBB9DBB",
    "height": 0.105890603085566,
    "width": 0.1074164743960857,
    "x": 26.68402758512681,
    "y": 18.8671485463302
  },
  "hasClippingMask": false,
  "isClosed": true,
  "isFixedToViewport": false,
  "isFlippedHorizontal": false,
  "isFlippedVertical": false,
  "isLocked": false,
  "isVisible": true,
  "layerListExpandedType": 0,
  "name": "Path",
  "nameIsFixed": false,
  "pointRadiusBehaviour": 0,
  "points": [
    {
      "_class": "curvePoint",
      "cornerRadius": 0,
      "curveFrom": "{0.38858528914901302, -0.00082228846111766327}",
      "curveMode": 4,
      "curveTo": "{0.12485724975563572, 0.011522307562175963}",
      "hasCurveFrom": true,
      "hasCurveTo": true,
      "point": "{0.39387496329157756, 6.8460708319952363e-07}"
    },
    {
      "_class": "curvePoint",
      "cornerRadius": 0,
      "curveFrom": "{1.111759311210526, 0.73409266145963181}",
      "curveMode": 4,
      "curveTo": "{0.6787616992552129, 0.74067644600537907}",
      "hasCurveFrom": true,
      "hasCurveTo": true,
      "point": "{0.94324540638322396, 0.36622369996514492}"
    },
    {
      "_class": "curvePoint",
      "cornerRadius": 0,
      "curveFrom": "{0.23291773581078407, 1.0641048618159668}",
      "curveMode": 3,
      "curveTo": "{0.87674664573391503, 0.89457240976258923}",
      "hasCurveFrom": true,
      "hasCurveTo": true,
      "point": "{0.60848459993260695, 0.96534809362952412}"
    },
    {
      "_class": "curvePoint",
      "cornerRadius": 0,
      "curveFrom": "{-0.11242241892496198, 0.27569666246089813}",
      "curveMode": 4,
      "curveTo": "{0.162640636488221, 0.95464944374267902}",
      "hasCurveFrom": true,
      "hasCurveTo": true,
      "point": "{0.056847153636973645, 0.59994805133971008}"
    }
  ],
  "resizingConstraint": 63,
  "resizingType": 0,
  "rotation": 0,
  "shouldBreakMaskChain": false,
  "style": {
    "_class": "style",
    "do_objectID": "C80C810C-51FE-4153-B23E-EDE01EE6A243",
    "endMarkerType": 0,
    "fills": [
      {
        "_class": "fill",
        "color": {
          "_class": "color",
          "alpha": 1,
          "blue": 0.1764705882352941,
          "green": 0.1764705882352941,
          "red": 0.1764705882352941
        },
        "fillType": 0,
        "isEnabled": true,
        "noiseIndex": 0,
        "noiseIntensity": 0,
        "patternFillType": 1,
        "patternTileScale": 1
      }
    ],
    "miterLimit": 10,
    "startMarkerType": 0,
    "windingRule": 1
  }
}