{
  "_class": "shapePath",
  "booleanOperation": -1,
  "clippingMaskMode": 0,
  "do_objectID": "18857E2E-C9D2-4C40-8EF3-C7B04867ED7D",
  "edited": true,
  "exportOptions": {
    "_class": "exportOptions",
    "do_objectID": "B3FEB77F-A5C6-4B69-8FC2-F0264A31D36C",
    "exportFormats": [
    ],
    "includedLayerIds": [
    ],
    "layerOptions": 0,
    "shouldTrim": false
  },
  "frame": {
    "_class": "rect",
    "constrainProportions": false,
    "do_objectID": "215F828D-6DD3-4D41-A282-02B50B69621F",
    "height": 0.1058906030855589,
    "width": 0.1059863482545538,
    "x": 40.43743618507015,
    "y": 20.93680872660381
  },
  "hasClippingMask": false,
  "isClosed": true,
  "isFixedToViewport": false,
  "isFlippedHorizontal": false,
  "isFlippedVertical": false,
  "isLocked": false,
  "isVisible": true,
  "layerListExpandedType": 0,
  "name": "Path",
  "nameIsFixed": false,
  "pointRadiusBehaviour": 0,
  "points": [
    {
      "_class": "curvePoint",
      "cornerRadius": 0,
      "curveFrom": "{-0.299896805494825, 0.78746562655271646}",
      "curveMode": 4,
      "curveTo": "{0.46310319450520865, 1.0664656265527128}",
      "hasCurveFrom": true,
      "hasCurveTo": true,
      "point": "{0.19210319450519364, 0.96946562655267599}"
    },
    {
      "_class": "curvePoint",
      "cornerRadius": 0,
      "curveFrom": "{1.0411031945051832, 0.18846562655272692}",
      "curveMode": 3,
      "curveTo": "{0.27710319450517318, -0.089534373447293092}",
      "hasCurveFrom": true,
      "hasCurveTo": true,
      "point": "{0.54510319450520228, 0.0074656265526868992}"
    }
  ],
  "resizingConstraint": 63,
  "resizingType": 0,
  "rotation": 0,
  "shouldBreakMaskChain": false,
  "style": {
    "_class": "style",
    "do_objectID": "718F15AC-B6D5-43F2-BEC6-757309850680",
    "endMarkerType": 0,
    "fills": [
      {
        "_class": "fill",
        "color": {
          "_class": "color",
          "alpha": 1,
          "blue": 0.1764705882352941,
          "green": 0.1764705882352941,
          "red": 0.1764705882352941
        },
        "fillType": 0,
        "isEnabled": true,
        "noiseIndex": 0,
        "noiseIntensity": 0,
        "patternFillType": 1,
        "patternTileScale": 1
      }
    ],
    "miterLimit": 10,
    "startMarkerType": 0,
    "windingRule": 1
  }
}