{
  "_class": "shapePath",
  "booleanOperation": -1,
  "clippingMaskMode": 0,
  "do_objectID": "18982FC4-6FF2-415B-9CC9-2FF285D2AA1B",
  "edited": true,
  "exportOptions": {
    "_class": "exportOptions",
    "do_objectID": "14455C0D-0D6D-415D-B358-05AE5914641F",
    "exportFormats": [
    ],
    "includedLayerIds": [
    ],
    "layerOptions": 0,
    "shouldTrim": false
  },
  "frame": {
    "_class": "rect",
    "constrainProportions": false,
    "do_objectID": "22FA2D2D-4A80-4992-B7F0-D4EF3468E4F8",
    "height": 0.105890603085566,
    "width": 0.27837447075105,
    "x": 26.98604541958699,
    "y": 8.327620099606852
  },
  "hasClippingMask": false,
  "isClosed": true,
  "isFixedToViewport": false,
  "isFlippedHorizontal": false,
  "isFlippedVertical": false,
  "isLocked": false,
  "isVisible": true,
  "layerListExpandedType": 0,
  "name": "Path",
  "nameIsFixed": false,
  "pointRadiusBehaviour": 0,
  "points": [
    {
      "_class": "curvePoint",
      "cornerRadius": 0,
      "curveFrom": "{0.50575524260421711, 0.52813702291493647}",
      "curveMode": 4,
      "curveTo": "{0.19958592386348903, -1.1145225510478738}",
      "hasCurveFrom": true,
      "hasCurveTo": true,
      "point": "{0.37803889821522563, 0.54440945873621327}"
    },
    {
      "_class": "curvePoint",
      "cornerRadius": 0,
      "curveFrom": "{0.88073976060478276, 0.27634248967972813}",
      "curveMode": 4,
      "curveTo": "{0.63405476664795579, 0.27120382573617724}",
      "hasCurveFrom": true,
      "hasCurveTo": true,
      "point": "{0.76089634155483499, 0.27291671371737708}"
    },
    {
      "_class": "curvePoint",
      "cornerRadius": 0,
      "curveFrom": "{0.87199206578362665, 0.79192177201844638}",
      "curveMode": 4,
      "curveTo": "{0.99475138310729305, 0.15472744301512353}",
      "hasCurveFrom": true,
      "hasCurveTo": true,
      "point": "{1, 0.70113870901529285}"
    },
    {
      "_class": "curvePoint",
      "cornerRadius": 0,
      "curveFrom": "{0.49613277830094882, 1.0248745374605051}",
      "curveMode": 4,
      "curveTo": "{0.74456731122200037, 0.8827048350215998}",
      "hasCurveFrom": true,
      "hasCurveTo": true,
      "point": "{0.61539301769614951, 0.97434434201532882}"
    },
    {
      "_class": "curvePoint",
      "cornerRadius": 0,
      "curveFrom": "{-0.37513762588698946, 1.6526479825672531}",
      "curveMode": 4,
      "curveTo": "{0.38153797614369139, 1.051424301168981}",
      "hasCurveFrom": true,
      "hasCurveTo": true,
      "point": "{0.37803889821522563, 0.54440945873621327}"
    }
  ],
  "resizingConstraint": 63,
  "resizingType": 0,
  "rotation": 0,
  "shouldBreakMaskChain": false,
  "style": {
    "_class": "style",
    "do_objectID": "F499FBEF-E4CC-4FD2-84CD-E8544E61FFEA",
    "endMarkerType": 0,
    "fills": [
      {
        "_class": "fill",
        "color": {
          "_class": "color",
          "alpha": 1,
          "blue": 0.1764705882352941,
          "green": 0.1764705882352941,
          "red": 0.1764705882352941
        },
        "fillType": 0,
        "isEnabled": true,
        "noiseIndex": 0,
        "noiseIntensity": 0,
        "patternFillType": 1,
        "patternTileScale": 1
      }
    ],
    "miterLimit": 10,
    "startMarkerType": 0,
    "windingRule": 1
  }
}