{
  "_class": "shapePath",
  "booleanOperation": -1,
  "clippingMaskMode": 0,
  "do_objectID": "1B29BE30-C3B4-4313-AEC3-4C2B0C34A405",
  "edited": true,
  "exportOptions": {
    "_class": "exportOptions",
    "do_objectID": "8C73A7EE-A9C3-4FEE-AC14-7E80D5E16776",
    "exportFormats": [
    ],
    "includedLayerIds": [
    ],
    "layerOptions": 0,
    "shouldTrim": false
  },
  "frame": {
    "_class": "rect",
    "constrainProportions": false,
    "do_objectID": "195D33C9-04AA-4681-89E6-C41EA77E31E3",
    "height": 0.2136012774278804,
    "width": 0.139744502997786,
    "x": 38.27718853057267,
    "y": 12.61888282639426
  },
  "hasClippingMask": false,
  "isClosed": true,
  "isFixedToViewport": false,
  "isFlippedHorizontal": false,
  "isFlippedVertical": false,
  "isLocked": false,
  "isVisible": true,
  "layerListExpandedType": 0,
  "name": "Path",
  "nameIsFixed": false,
  "pointRadiusBehaviour": 0,
  "points": [
    {
      "_class": "curvePoint",
      "cornerRadius": 0,
      "curveFrom": "{0.47025333358980809, -0.0015097340069626717}",
      "curveMode": 4,
      "curveTo": "{0.67936080019298239, 0.40777371376376015}",
      "hasCurveFrom": true,
      "hasCurveTo": true,
      "point": "{0.14265163591144994, 8.9429792068523387e-06}"
    },
    {
      "_class": "curvePoint",
      "cornerRadius": 0,
      "curveFrom": "{1.0017348112062521, 0.34285027260532591}",
      "curveMode": 4,
      "curveTo": "{0.61720941428593723, 0.19098257398910728}",
      "hasCurveFrom": true,
      "hasCurveTo": true,
      "point": "{0.99999224898456696, 0.12909648680299055}"
    },
    {
      "_class": "curvePoint",
      "cornerRadius": 0,
      "curveFrom": "{0.45979796025963121, 0.69442399490188733}",
      "curveMode": 4,
      "curveTo": "{0.70898435796176185, 0.4385269227335527}",
      "hasCurveFrom": true,
      "hasCurveTo": true,
      "point": "{0.8036635720071057, 0.68872895620378405}"
    },
    {
      "_class": "curvePoint",
      "cornerRadius": 0,
      "curveFrom": "{-0.69261652235354521, 1.0160038467217627}",
      "curveMode": 4,
      "curveTo": "{0.47780443655046573, 0.84401367803887328}",
      "hasCurveFrom": true,
      "hasCurveTo": true,
      "point": "{0.5120748269104165, 0.99967806912051571}"
    }
  ],
  "resizingConstraint": 63,
  "resizingType": 0,
  "rotation": 0,
  "shouldBreakMaskChain": false,
  "style": {
    "_class": "style",
    "do_objectID": "FE1CD2F3-CA12-4CCE-928D-A285FE79515E",
    "endMarkerType": 0,
    "fills": [
      {
        "_class": "fill",
        "color": {
          "_class": "color",
          "alpha": 1,
          "blue": 0.1764705882352941,
          "green": 0.1764705882352941,
          "red": 0.1764705882352941
        },
        "fillType": 0,
        "isEnabled": true,
        "noiseIndex": 0,
        "noiseIntensity": 0,
        "patternFillType": 1,
        "patternTileScale": 1
      }
    ],
    "miterLimit": 10,
    "startMarkerType": 0,
    "windingRule": 1
  }
}