{
  "_class": "shapePath",
  "booleanOperation": -1,
  "clippingMaskMode": 0,
  "do_objectID": "24E4D364-0143-4BDC-9D9A-58FF21B78D3D",
  "edited": true,
  "exportOptions": {
    "_class": "exportOptions",
    "do_objectID": "F7B87C4D-9DED-4E8C-90AC-F34707F67028",
    "exportFormats": [
    ],
    "includedLayerIds": [
    ],
    "layerOptions": 0,
    "shouldTrim": false
  },
  "frame": {
    "_class": "rect",
    "constrainProportions": false,
    "do_objectID": "4E5B8C1A-A033-4D73-A789-342C845DAFA6",
    "height": 0.1390016910088088,
    "width": 0.1392085460389296,
    "x": 18.41879230748428,
    "y": 5.897090594697915
  },
  "hasClippingMask": false,
  "isClosed": true,
  "isFixedToViewport": false,
  "isFlippedHorizontal": false,
  "isFlippedVertical": false,
  "isLocked": false,
  "isVisible": true,
  "layerListExpandedType": 0,
  "name": "Path",
  "nameIsFixed": false,
  "pointRadiusBehaviour": 0,
  "points": [
    {
      "_class": "curvePoint",
      "cornerRadius": 0,
      "curveFrom": "{0.78833819241982572, 0.22753792298718992}",
      "curveMode": 4,
      "curveTo": "{0.45422740524781041, 0.10618436406068642}",
      "hasCurveFrom": true,
      "hasCurveTo": true,
      "point": "{0.68104956268221806, 0}"
    },
    {
      "_class": "curvePoint",
      "cornerRadius": 0,
      "curveFrom": "{0.7725947521865808, 0.78763127187866033}",
      "curveMode": 4,
      "curveTo": "{0.89329446064138729, 0.45390898483081715}",
      "hasCurveFrom": true,
      "hasCurveTo": true,
      "point": "{1, 0.68086347724622576}"
    },
    {
      "_class": "curvePoint",
      "cornerRadius": 0,
      "curveFrom": "{0.21166180758017425, 0.7724620770128432}",
      "curveMode": 4,
      "curveTo": "{0.54577259475218964, 0.89323220536756542}",
      "hasCurveFrom": true,
      "hasCurveTo": true,
      "point": "{0.31836734693877039, 1}"
    },
    {
      "_class": "curvePoint",
      "cornerRadius": 0,
      "curveFrom": "{0.22623906705539618, 0.21236872812137284}",
      "curveMode": 4,
      "curveTo": "{0.1061224489795846, 0.54609101516921599}",
      "hasCurveFrom": true,
      "hasCurveTo": true,
      "point": "{0, 0.3185530921820261}"
    }
  ],
  "resizingConstraint": 63,
  "resizingType": 0,
  "rotation": 0,
  "shouldBreakMaskChain": false,
  "style": {
    "_class": "style",
    "do_objectID": "5153566D-0B0B-46B7-8586-127E33F64E3A",
    "endMarkerType": 0,
    "fills": [
      {
        "_class": "fill",
        "color": {
          "_class": "color",
          "alpha": 1,
          "blue": 0.1764705882352941,
          "green": 0.1764705882352941,
          "red": 0.1764705882352941
        },
        "fillType": 0,
        "isEnabled": true,
        "noiseIndex": 0,
        "noiseIntensity": 0,
        "patternFillType": 1,
        "patternTileScale": 1
      }
    ],
    "miterLimit": 10,
    "startMarkerType": 0,
    "windingRule": 1
  }
}