{
  "_class": "shapePath",
  "booleanOperation": -1,
  "clippingMaskMode": 0,
  "do_objectID": "25482778-C3B7-4938-8580-D7B030965A9D",
  "edited": true,
  "exportOptions": {
    "_class": "exportOptions",
    "do_objectID": "B6549CB8-010F-4209-95B6-FE36113709E1",
    "exportFormats": [
    ],
    "includedLayerIds": [
    ],
    "layerOptions": 0,
    "shouldTrim": false
  },
  "frame": {
    "_class": "rect",
    "constrainProportions": false,
    "do_objectID": "E902E134-83F9-451C-9A74-C40D54EF0CD2",
    "height": 0.105890603085566,
    "width": 0.1153433386559506,
    "x": 23.39171250879466,
    "y": 19.6997800966329
  },
  "hasClippingMask": false,
  "isClosed": true,
  "isFixedToViewport": false,
  "isFlippedHorizontal": false,
  "isFlippedVertical": false,
  "isLocked": false,
  "isVisible": true,
  "layerListExpandedType": 0,
  "name": "Path",
  "nameIsFixed": false,
  "pointRadiusBehaviour": 0,
  "points": [
    {
      "_class": "curvePoint",
      "cornerRadius": 0,
      "curveFrom": "{0.36198996811774636, 1.2009999999999934}",
      "curveMode": 4,
      "curveTo": "{0.86445687846828179, 0.68499999999997385}",
      "hasCurveFrom": true,
      "hasCurveTo": true,
      "point": "{0.58929642756202194, 0.81999999999999318}"
    },
    {
      "_class": "curvePoint",
      "cornerRadius": 0,
      "curveFrom": "{0.13046109766210159, 0.046999999999997044}",
      "curveMode": 3,
      "curveTo": "{-0.083474393579564807, 0.54499999999998749}",
      "hasCurveFrom": true,
      "hasCurveTo": true,
      "point": "{0.013641059681446917, 0.31799999999998363}"
    },
    {
      "_class": "curvePoint",
      "cornerRadius": 0,
      "curveFrom": "{1.1199127446548987, 0.53199999999998226}",
      "curveMode": 4,
      "curveTo": "{0.77719371756705158, 0.23399999999998045}",
      "hasCurveFrom": true,
      "hasCurveTo": true,
      "point": "{0.93975654150402599, 0}"
    }
  ],
  "resizingConstraint": 63,
  "resizingType": 0,
  "rotation": 0,
  "shouldBreakMaskChain": false,
  "style": {
    "_class": "style",
    "do_objectID": "28327638-91E4-4E11-B9EC-2E701EE5B5F8",
    "endMarkerType": 0,
    "fills": [
      {
        "_class": "fill",
        "color": {
          "_class": "color",
          "alpha": 1,
          "blue": 0.1764705882352941,
          "green": 0.1764705882352941,
          "red": 0.1764705882352941
        },
        "fillType": 0,
        "isEnabled": true,
        "noiseIndex": 0,
        "noiseIntensity": 0,
        "patternFillType": 1,
        "patternTileScale": 1
      }
    ],
    "miterLimit": 10,
    "startMarkerType": 0,
    "windingRule": 1
  }
}