{
  "_class": "shapePath",
  "booleanOperation": -1,
  "clippingMaskMode": 0,
  "do_objectID": "2614DBB8-A1F1-4EBA-A894-0A2896427690",
  "edited": true,
  "exportOptions": {
    "_class": "exportOptions",
    "do_objectID": "65B1D3F1-7C09-4E92-83B8-2B0893EABB94",
    "exportFormats": [
    ],
    "includedLayerIds": [
    ],
    "layerOptions": 0,
    "shouldTrim": false
  },
  "frame": {
    "_class": "rect",
    "constrainProportions": false,
    "do_objectID": "A97F0461-6164-4868-AF18-E2881A5ECDA1",
    "height": 0.1058906030855624,
    "width": 0.1059863482545556,
    "x": 11.52654752095028,
    "y": 31.40774621305368
  },
  "hasClippingMask": false,
  "isClosed": true,
  "isFixedToViewport": false,
  "isFlippedHorizontal": false,
  "isFlippedVertical": false,
  "isLocked": false,
  "isVisible": true,
  "layerListExpandedType": 0,
  "name": "Path",
  "nameIsFixed": false,
  "pointRadiusBehaviour": 0,
  "points": [
    {
      "_class": "curvePoint",
      "cornerRadius": 0,
      "curveFrom": "{0.92701555033005434, 0.16658420659729245}",
      "curveMode": 3,
      "curveTo": "{0.24801555033005229, -0.07941579340268845}",
      "hasCurveFrom": true,
      "hasCurveTo": true,
      "point": "{0.48401555033004229, 0.0065842065973242825}"
    },
    {
      "_class": "curvePoint",
      "cornerRadius": 0,
      "curveFrom": "{-0.26998444966994839, 0.70258420659729381}",
      "curveMode": 4,
      "curveTo": "{0.41101555033006321, 0.95258420659729381}",
      "hasCurveFrom": true,
      "hasCurveTo": true,
      "point": "{0.17401555033004001, 0.86358420659729518}"
    }
  ],
  "resizingConstraint": 63,
  "resizingType": 0,
  "rotation": 0,
  "shouldBreakMaskChain": false,
  "style": {
    "_class": "style",
    "do_objectID": "AC22BD75-96C0-41EE-81DF-558CFF029F74",
    "endMarkerType": 0,
    "fills": [
      {
        "_class": "fill",
        "color": {
          "_class": "color",
          "alpha": 1,
          "blue": 0.1764705882352941,
          "green": 0.1764705882352941,
          "red": 0.1764705882352941
        },
        "fillType": 0,
        "isEnabled": true,
        "noiseIndex": 0,
        "noiseIntensity": 0,
        "patternFillType": 1,
        "patternTileScale": 1
      }
    ],
    "miterLimit": 10,
    "startMarkerType": 0,
    "windingRule": 1
  }
}