{
  "_class": "shapePath",
  "booleanOperation": -1,
  "clippingMaskMode": 0,
  "do_objectID": "26FF84A4-5CAD-4F41-B4F8-6CE2765747BA",
  "edited": true,
  "exportOptions": {
    "_class": "exportOptions",
    "do_objectID": "7E4550AF-FE83-413E-BBDA-5955A092460E",
    "exportFormats": [
    ],
    "includedLayerIds": [
    ],
    "layerOptions": 0,
    "shouldTrim": false
  },
  "frame": {
    "_class": "rect",
    "constrainProportions": false,
    "do_objectID": "068F514F-6C22-4B17-A242-B61E6C929AE3",
    "height": 6.428542373798216,
    "width": 5.106204660007879,
    "x": 18.60892491890218,
    "y": 15.7713970244023
  },
  "hasClippingMask": false,
  "isClosed": true,
  "isFixedToViewport": false,
  "isFlippedHorizontal": false,
  "isFlippedVertical": false,
  "isLocked": false,
  "isVisible": true,
  "layerListExpandedType": 0,
  "name": "Path",
  "nameIsFixed": false,
  "pointRadiusBehaviour": 0,
  "points": [
    {
      "_class": "curvePoint",
      "cornerRadius": 0,
      "curveFrom": "{0.095564381777158855, 0.14874732448262235}",
      "curveMode": 3,
      "curveTo": "{0.037064986838059866, 0.21925410181882707}",
      "hasCurveFrom": true,
      "hasCurveTo": true,
      "point": "{0.091955859317600225, 0.15308697941260158}"
    },
    {
      "_class": "curvePoint",
      "cornerRadius": 0,
      "curveFrom": "{0.098870869317194882, 0.14164492411756877}",
      "curveMode": 4,
      "curveTo": "{0.099363663133258034, 0.14479874310737931}",
      "hasCurveFrom": true,
      "hasCurveTo": true,
      "point": "{0.10308346161579873, 0.14067354786870714}"
    },
    {
      "_class": "curvePoint",
      "cornerRadius": 0,
      "curveFrom": "{0.091097444283168197, 0.13561482220905088}",
      "curveMode": 2,
      "curveTo": "{0.094912622213978726, 0.1425153781587567}",
      "hasCurveFrom": true,
      "hasCurveTo": true,
      "point": "{0.094721863317438176, 0.14217476570785695}"
    },
    {
      "_class": "curvePoint",
      "cornerRadius": 0,
      "curveFrom": "{0.10286090956983461, 0.13253669487499578}",
      "curveMode": 2,
      "curveTo": "{0.096359210512744625, 0.13521113337835536}",
      "hasCurveFrom": true,
      "hasCurveTo": true,
      "point": "{0.10179583906414981, 0.13297822953356958}"
    },
    {
      "_class": "curvePoint",
      "cornerRadius": 0,
      "curveFrom": "{0.11540330701737544, 0.12717520259231804}",
      "curveMode": 4,
      "curveTo": "{0.10778884773046529, 0.13128778255503093}",
      "hasCurveFrom": true,
      "hasCurveTo": true,
      "point": "{0.1123193715233031, 0.13036686741000617}"
    },
    {
      "_class": "curvePoint",
      "cornerRadius": 0,
      "curveFrom": "{0.11537151386795187, 0.11792820531419346}",
      "curveMode": 4,
      "curveTo": "{0.11863031168385299, 0.12428630439765141}",
      "hasCurveFrom": true,
      "hasCurveTo": true,
      "point": "{0.12177783347677158, 0.12124602289147422}"
    },
    {
      "_class": "curvePoint",
      "cornerRadius": 0,
      "curveFrom": "{0.13048915641878966, 0.11131780071155052}",
      "curveMode": 2,
      "curveTo": "{0.1262447709707627, 0.10927412600615322}",
      "hasCurveFrom": true,
      "hasCurveTo": true,
      "point": "{0.12982150028089776, 0.1109898035366101}"
    },
    {
      "_class": "curvePoint",
      "cornerRadius": 0,
      "curveFrom": "{0.1781152942550783, 0.069838773357562348}",
      "curveMode": 4,
      "curveTo": "{0.13085477763715897, 0.11173410481820535}",
      "hasCurveFrom": true,
      "hasCurveTo": true,
      "point": "{0.13120450228081695, 0.11215040892486054}"
    },
    {
      "_class": "curvePoint",
      "cornerRadius": 0,
      "curveFrom": "{0.33515755583207879, 0.022947792617058514}",
      "curveMode": 3,
      "curveTo": "{0.23268823524038471, 0.042640238389436057}",
      "hasCurveFrom": true,
      "hasCurveTo": true,
      "point": "{0.29493922181144794, 0.030680956780073987}"
    },
    {
      "_class": "curvePoint",
      "cornerRadius": 0,
      "curveFrom": "{0.43853298118234024, 0.026517915713524257}",
      "curveMode": 3,
      "curveTo": "{0.38111455332363781, 0.021396113674071841}",
      "hasCurveFrom": true,
      "hasCurveTo": true,
      "point": "{0.43277842113670106, 0.025988074123236421}"
    },
    {
      "_class": "curvePoint",
      "cornerRadius": 0,
      "curveFrom": "{0.44726020069907052, 0.025357310325274166}",
      "curveMode": 4,
      "curveTo": "{0.44360398851537652, 0.026757605956749926}",
      "hasCurveFrom": true,
      "hasCurveTo": true,
      "point": "{0.44830937463004311, 0.026871143440383289}"
    },
    {
      "_class": "curvePoint",
      "cornerRadius": 0,
      "curveFrom": "{0.44832527120475535, 0.021244730362560929}",
      "curveMode": 4,
      "curveTo": "{0.44664023428531396, 0.024020091073594561}",
      "hasCurveFrom": true,
      "hasCurveTo": true,
      "point": "{0.44716482125079982, 0.023124406480488031}"
    },
    {
      "_class": "curvePoint",
      "cornerRadius": 0,
      "curveFrom": "{0.45613048938820561, 0.021320422018316743}",
      "curveMode": 4,
      "curveTo": "{0.45490645313540384, 0.021421344225990447}",
      "hasCurveFrom": true,
      "hasCurveTo": true,
      "point": "{0.45648021403186312, 0.019680436143615313}"
    },
    {
      "_class": "curvePoint",
      "cornerRadius": 0,
      "curveFrom": "{0.46314087883607008, 0.026429608781809496}",
      "curveMode": 4,
      "curveTo": "{0.45840369957197996, 0.02396962996975735}",
      "hasCurveFrom": true,
      "hasCurveTo": true,
      "point": "{0.46074049605460232, 0.026631453197157619}"
    },
    {
      "_class": "curvePoint",
      "cornerRadius": 0,
      "curveFrom": "{0.47123223536433162, 0.025016697874374792}",
      "curveMode": 2,
      "curveTo": "{0.46531870957157462, 0.026152072710706277}",
      "hasCurveFrom": true,
      "hasCurveTo": true,
      "point": "{0.46727398826111499, 0.025773614431929354}"
    },
    {
      "_class": "curvePoint",
      "cornerRadius": 0,
      "curveFrom": "{0.49634882340883596, 0.012414037191091522}",
      "curveMode": 2,
      "curveTo": "{0.47830621111104321, 0.021938570540319339}",
      "hasCurveFrom": true,
      "hasCurveTo": true,
      "point": "{0.4885436052253857, 0.016501386601886155}"
    },
    {
      "_class": "curvePoint",
      "cornerRadius": 0,
      "curveFrom": "{0.50917735920118756, 0.0086546849552373191}",
      "curveMode": 4,
      "curveTo": "{0.50324793683371927, 0.0097900597915695203}",
      "hasCurveFrom": false,
      "hasCurveTo": true,
      "point": "{0.50917735920118756, 0.0086546849552373191}"
    },
    {
      "_class": "curvePoint",
      "cornerRadius": 0,
      "curveFrom": "{0.56033253662347637, -0.0011852302929712634}",
      "curveMode": 4,
      "curveTo": "{0.54775834602651241, 0.0012369026912026164}",
      "hasCurveFrom": true,
      "hasCurveTo": false,
      "point": "{0.54775834602651241, 0.0012369026912026164}"
    },
    {
      "_class": "curvePoint",
      "cornerRadius": 0,
      "curveFrom": "{0.57637218050759376, 0.0019055123170431366}",
      "curveMode": 4,
      "curveTo": "{0.56912334243905294, 1.322092315637407e-05}",
      "hasCurveFrom": true,
      "hasCurveTo": true,
      "point": "{0.57467124701344019, 0.0042771841973805241}"
    },
    {
      "_class": "curvePoint",
      "cornerRadius": 0,
      "curveFrom": "{0.58610088423116091, 0.0019812039727982343}",
      "curveMode": 2,
      "curveTo": "{0.57909049478329644, -3.7240180680835733e-05}",
      "hasCurveFrom": true,
      "hasCurveTo": true,
      "point": "{0.58085501457629629, 0.00046737085768911102}"
    },
    {
      "_class": "curvePoint",
      "cornerRadius": 0,
      "curveFrom": "{0.57963097832349442, 0.010950665179819609}",
      "curveMode": 4,
      "curveTo": "{0.58287387956468384, 0.0078346920178866044}",
      "hasCurveFrom": true,
      "hasCurveTo": true,
      "point": "{0.5793289434039719, 0.010269440278020145}"
    },
    {
      "_class": "curvePoint",
      "cornerRadius": 0,
      "curveFrom": "{0.58040991048436796, 0.012161731671906907}",
      "curveMode": 4,
      "curveTo": "{0.58018735843840386, 0.011404815114352346}",
      "hasCurveFrom": false,
      "hasCurveTo": true,
      "point": "{0.58040991048436796, 0.012161731671906907}"
    },
    {
      "_class": "curvePoint",
      "cornerRadius": 0,
      "curveFrom": "{0.62221790197616988, 0.10717999019691904}",
      "curveMode": 4,
      "curveTo": "{0.6106928853101794, 0.11145656874710214}",
      "hasCurveFrom": true,
      "hasCurveTo": false,
      "point": "{0.6106928853101794, 0.11145656874710214}"
    },
    {
      "_class": "curvePoint",
      "cornerRadius": 0,
      "curveFrom": "{0.663882824295567, 0.089468142750143018}",
      "curveMode": 4,
      "curveTo": "{0.63377471179158484, 0.10290341164673596}",
      "hasCurveFrom": true,
      "hasCurveTo": true,
      "point": "{0.64528383188286398, 0.09862683309655286}"
    },
    {
      "_class": "curvePoint",
      "cornerRadius": 0,
      "curveFrom": "{0.69451552376503511, 0.090426903723045349}",
      "curveMode": 4,
      "curveTo": "{0.67372280404211615, 0.099408980206026024}",
      "hasCurveFrom": true,
      "hasCurveTo": true,
      "point": "{0.69178131291462119, 0.091436125799784884}"
    },
    {
      "_class": "curvePoint",
      "cornerRadius": 0,
      "curveFrom": "{0.69437245459262942, 0.085456484995103846}",
      "curveMode": 4,
      "curveTo": "{0.69721794146602634, 0.089430296922265479}",
      "hasCurveFrom": true,
      "hasCurveTo": true,
      "point": "{0.69995215231644026, 0.088421074845525943}"
    },
    {
      "_class": "curvePoint",
      "cornerRadius": 0,
      "curveFrom": "{0.7103008224537648, 0.080877139821898925}",
      "curveMode": 4,
      "curveTo": "{0.70398988229321535, 0.077824243039762431}",
      "hasCurveFrom": true,
      "hasCurveTo": true,
      "point": "{0.70712150751142255, 0.079363306706790163}"
    },
    {
      "_class": "curvePoint",
      "cornerRadius": 0,
      "curveFrom": "{0.70867937183317053, 0.085191564199959921}",
      "curveMode": 4,
      "curveTo": "{0.70904499305153945, 0.08374080746464696}",
      "hasCurveFrom": true,
      "hasCurveTo": true,
      "point": "{0.70670819656891792, 0.08592325020559588}"
    },
    {
      "_class": "curvePoint",
      "cornerRadius": 0,
      "curveFrom": "{0.71425906955698137, 0.086478322347802686}",
      "curveMode": 4,
      "curveTo": "{0.7106664436721345, 0.084447262918364671}",
      "hasCurveFrom": true,
      "hasCurveTo": true,
      "point": "{0.71262172236167498, 0.083728192188687656}"
    },
    {
      "_class": "curvePoint",
      "cornerRadius": 0,
      "curveFrom": "{0.72411494587824277, 0.090073675996186667}",
      "curveMode": 4,
      "curveTo": "{0.71588052017757564, 0.089203221954999107}",
      "hasCurveFrom": true,
      "hasCurveTo": true,
      "point": "{0.71751786737288203, 0.091978582666032371}"
    },
    {
      "_class": "curvePoint",
      "cornerRadius": 0,
      "curveFrom": "{0.7261973971654766, 0.098273605369694178}",
      "curveMode": 4,
      "curveTo": "{0.7305689552111978, 0.088635534536832997}",
      "hasCurveFrom": true,
      "hasCurveTo": true,
      "point": "{0.73277857909612598, 0.096381313975807778}"
    },
    {
      "_class": "curvePoint",
      "cornerRadius": 0,
      "curveFrom": "{0.71565796813161242, 0.092659807567831487}",
      "curveMode": 4,
      "curveTo": "{0.71969569810838652, 0.099711746829047848}",
      "hasCurveFrom": true,
      "hasCurveTo": true,
      "point": "{0.71751786737288203, 0.091978582666032371}"
    },
    {
      "_class": "curvePoint",
      "cornerRadius": 0,
      "curveFrom": "{0.71028492587905345, 0.09631823759601163}",
      "curveMode": 4,
      "curveTo": "{0.71382986203976539, 0.093341032469630228}",
      "hasCurveFrom": true,
      "hasCurveTo": true,
      "point": "{0.71196996279849478, 0.094034872647388634}"
    },
    {
      "_class": "curvePoint",
      "cornerRadius": 0,
      "curveFrom": "{0.70522981512072935, 0.09747884298426171}",
      "curveMode": 2,
      "curveTo": "{0.70764609447690929, 0.098147452610101521}",
      "hasCurveFrom": true,
      "hasCurveTo": true,
      "point": "{0.70591336783333214, 0.097668072123650529}"
    },
    {
      "_class": "curvePoint",
      "cornerRadius": 0,
      "curveFrom": "{0.68793434183438662, 0.10294125747461386}",
      "curveMode": 4,
      "curveTo": "{0.70483240075293607, 0.097163461085280942}",
      "hasCurveFrom": true,
      "hasCurveTo": true,
      "point": "{0.70440319323571998, 0.096835463910340508}"
    },
    {
      "_class": "curvePoint",
      "cornerRadius": 0,
      "curveFrom": "{0.63819395956144009, 0.12339061980454524}",
      "curveMode": 4,
      "curveTo": "{0.6714813870077645, 0.10904705103888684}",
      "hasCurveFrom": true,
      "hasCurveTo": true,
      "point": "{0.65502843218114337, 0.11515284460316019}"
    },
    {
      "_class": "curvePoint",
      "cornerRadius": 0,
      "curveFrom": "{0.6134906824594405, 0.12062787436947128}",
      "curveMode": 4,
      "curveTo": "{0.6284811524125844, 0.11623775833565518}",
      "hasCurveFrom": false,
      "hasCurveTo": true,
      "point": "{0.6134906824594405, 0.12062787436947128}"
    },
    {
      "_class": "curvePoint",
      "cornerRadius": 0,
      "curveFrom": "{0.64455258944612537, 0.22244576663651516}",
      "curveMode": 4,
      "curveTo": "{0.64099175671070208, 0.21081448220209387}",
      "hasCurveFrom": true,
      "hasCurveTo": false,
      "point": "{0.64099175671070208, 0.21081448220209387}"
    },
    {
      "_class": "curvePoint",
      "cornerRadius": 0,
      "curveFrom": "{0.62158203898770203, 0.23301736789036007}",
      "curveMode": 4,
      "curveTo": "{0.6380826835384581, 0.22983831834863128}",
      "hasCurveFrom": false,
      "hasCurveTo": true,
      "point": "{0.62158203898770203, 0.23301736789036007}"
    },
    {
      "_class": "curvePoint",
      "cornerRadius": 0,
      "curveFrom": "{0.56685013225527769, 0.24352589276440881}",
      "curveMode": 4,
      "curveTo": "{0.58004428926599916, 0.2410028375725605}",
      "hasCurveFrom": true,
      "hasCurveTo": false,
      "point": "{0.58004428926599916, 0.2410028375725605}"
    },
    {
      "_class": "curvePoint",
      "cornerRadius": 0,
      "curveFrom": "{0.5530995951296469, 0.24139391112729708}",
      "curveMode": 2,
      "curveTo": "{0.55882236202586333, 0.24410619545853421}",
      "hasCurveFrom": true,
      "hasCurveTo": true,
      "point": "{0.55596097857775506, 0.24275636093089531}"
    },
    {
      "_class": "curvePoint",
      "cornerRadius": 0,
      "curveFrom": "{0.46649505610024145, 0.12050172160987897}",
      "curveMode": 3,
      "curveTo": "{0.54378420234858449, 0.22969955031307965}",
      "hasCurveFrom": true,
      "hasCurveTo": true,
      "point": "{0.52798300708514256, 0.20766066321228333}"
    },
    {
      "_class": "curvePoint",
      "cornerRadius": 0,
      "curveFrom": "{0.27252505146793443, 0.10826490392941404}",
      "curveMode": 3,
      "curveTo": "{0.39453126238032249, 0.084825721197141948}",
      "hasCurveFrom": true,
      "hasCurveTo": true,
      "point": "{0.31210752250009688, 0.10067050780195018}"
    },
    {
      "_class": "curvePoint",
      "cornerRadius": 0,
      "curveFrom": "{0.2187787323676369, 0.16034076308916573}",
      "curveMode": 3,
      "curveTo": "{0.24325945742367291, 0.12556044726953486}",
      "hasCurveFrom": true,
      "hasCurveTo": true,
      "point": "{0.22424715406846565, 0.15255713782231339}"
    },
    {
      "_class": "curvePoint",
      "cornerRadius": 0,
      "curveFrom": "{0.21683935025280829, 0.18288426122833162}",
      "curveMode": 4,
      "curveTo": "{0.21482048526442074, 0.17068528937574426}",
      "hasCurveFrom": true,
      "hasCurveTo": true,
      "point": "{0.212038584689871, 0.18303564453984256}"
    },
    {
      "_class": "curvePoint",
      "cornerRadius": 0,
      "curveFrom": "{0.21108479020716825, 0.19044081152791759}",
      "curveMode": 4,
      "curveTo": "{0.2187787323676369, 0.18640392322096017}",
      "hasCurveFrom": true,
      "hasCurveTo": true,
      "point": "{0.22046376928707825, 0.19028942821640668}"
    },
    {
      "_class": "curvePoint",
      "cornerRadius": 0,
      "curveFrom": "{0.21113247993130363, 0.20110071971347723}",
      "curveMode": 4,
      "curveTo": "{0.21152989429909649, 0.1954112302558591}",
      "hasCurveFrom": true,
      "hasCurveTo": true,
      "point": "{0.21246779220708745, 0.20058349339914835}"
    },
    {
      "_class": "curvePoint",
      "cornerRadius": 0,
      "curveFrom": "{0.20660195613846583, 0.22472913158513816}",
      "curveMode": 4,
      "curveTo": "{0.21017868544860088, 0.20112595026539584}",
      "hasCurveFrom": true,
      "hasCurveTo": true,
      "point": "{0.20911361494291608, 0.20127733357690678}"
    },
    {
      "_class": "curvePoint",
      "cornerRadius": 0,
      "curveFrom": "{0.21621938383905129, 0.29084579288752643}",
      "curveMode": 4,
      "curveTo": "{0.20755575062116857, 0.25403441763845758}",
      "hasCurveFrom": true,
      "hasCurveTo": true,
      "point": "{0.21214986071285305, 0.28958426529160225}"
    },
    {
      "_class": "curvePoint",
      "cornerRadius": 0,
      "curveFrom": "{0.21418462227595239, 0.30366291326211675}",
      "curveMode": 4,
      "curveTo": "{0.21550403797702444, 0.29450422291570694}",
      "hasCurveFrom": true,
      "hasCurveTo": true,
      "point": "{0.21331031066680814, 0.29750665859400655}"
    },
    {
      "_class": "curvePoint",
      "cornerRadius": 0,
      "curveFrom": "{0.22955661002217745, 0.39827748295643334}",
      "curveMode": 3,
      "curveTo": "{0.21496355443682594, 0.309680399894675}",
      "hasCurveFrom": true,
      "hasCurveTo": true,
      "point": "{0.21604452151722253, 0.31618988228964423}"
    },
    {
      "_class": "curvePoint",
      "cornerRadius": 0,
      "curveFrom": "{0.29808674360436699, 0.64181538534960403}",
      "curveMode": 2,
      "curveTo": "{0.24842584420497951, 0.47901524909558324}",
      "hasCurveFrom": true,
      "hasCurveTo": true,
      "point": "{0.27265222406562828, 0.55841579598305391}"
    },
    {
      "_class": "curvePoint",
      "cornerRadius": 0,
      "curveFrom": "{0.37830085959966453, 0.81330744673954258}",
      "curveMode": 2,
      "curveTo": "{0.32430019530397974, 0.7094837255949793}",
      "hasCurveFrom": true,
      "hasCurveTo": true,
      "point": "{0.35130847573917823, 0.76138297089130191}"
    },
    {
      "_class": "curvePoint",
      "cornerRadius": 0,
      "curveFrom": "{0.44900882391735902, 0.90097099938031688}",
      "curveMode": 2,
      "curveTo": "{0.40324258532234053, 0.85159480927584308}",
      "hasCurveFrom": true,
      "hasCurveTo": true,
      "point": "{0.42613365290720545, 0.87628290432807998}"
    },
    {
      "_class": "curvePoint",
      "cornerRadius": 0,
      "curveFrom": "{0.51839737253398022, 0.92871199121469072}",
      "curveMode": 2,
      "curveTo": "{0.4720429606746287, 0.9163742513265517}",
      "hasCurveFrom": true,
      "hasCurveTo": true,
      "point": "{0.4952201666043049, 0.92254312127062088}"
    },
    {
      "_class": "curvePoint",
      "cornerRadius": 0,
      "curveFrom": "{0.62856063528614292, 0.91284197405796352}",
      "curveMode": 3,
      "curveTo": "{0.54348216742906186, 0.92917875642518244}",
      "hasCurveFrom": true,
      "hasCurveTo": true,
      "point": "{0.57053813758839533, 0.9239938780059338}"
    },
    {
      "_class": "curvePoint",
      "cornerRadius": 0,
      "curveFrom": "{0.63445826450418852, 0.83142298301701489}",
      "curveMode": 4,
      "curveTo": "{0.64987794197454851, 0.88199762433761708}",
      "hasCurveFrom": false,
      "hasCurveTo": true,
      "point": "{0.63445826450418852, 0.83142298301701489}"
    },
    {
      "_class": "curvePoint",
      "cornerRadius": 0,
      "curveFrom": "{0.58794488689771918, 0.67892952722169475}",
      "curveMode": 4,
      "curveTo": "{0.59481220717317895, 0.70140994898106446}",
      "hasCurveFrom": true,
      "hasCurveTo": false,
      "point": "{0.59481220717317895, 0.70140994898106446}"
    },
    {
      "_class": "curvePoint",
      "cornerRadius": 0,
      "curveFrom": "{0.55553177106053908, 0.64861501909163577}",
      "curveMode": 2,
      "curveTo": "{0.57840694207069265, 0.6636650433110115}",
      "hasCurveFrom": true,
      "hasCurveTo": true,
      "point": "{0.56618247611738626, 0.65560388197305597}"
    },
    {
      "_class": "curvePoint",
      "cornerRadius": 0,
      "curveFrom": "{0.50954298041955737, 0.64435105581741203}",
      "curveMode": 4,
      "curveTo": "{0.53740967588918787, 0.64393475171075676}",
      "hasCurveFrom": true,
      "hasCurveTo": true,
      "point": "{0.51181619060333172, 0.64155046455446008}"
    },
    {
      "_class": "curvePoint",
      "cornerRadius": 0,
      "curveFrom": "{0.5008952437763855, 0.64451505440488188}",
      "curveMode": 2,
      "curveTo": "{0.5052985949715304, 0.64665965131795322}",
      "hasCurveFrom": true,
      "hasCurveTo": true,
      "point": "{0.50331152313256644, 0.64568827506909166}"
    },
    {
      "_class": "curvePoint",
      "cornerRadius": 0,
      "curveFrom": "{0.50113369239706196, 0.64074308689306869}",
      "curveMode": 4,
      "curveTo": "{0.50079986432811574, 0.64263537828695472}",
      "hasCurveFrom": true,
      "hasCurveTo": true,
      "point": "{0.50181724510966474, 0.64079354799690558}"
    },
    {
      "_class": "curvePoint",
      "cornerRadius": 0,
      "curveFrom": "{0.48420384032908892, 0.63979694119612529}",
      "curveMode": 3,
      "curveTo": "{0.50051372598330446, 0.64068001051327217}",
      "hasCurveFrom": true,
      "hasCurveTo": true,
      "point": "{0.49981427669598938, 0.6406421646853947}"
    },
    {
      "_class": "curvePoint",
      "cornerRadius": 0,
      "curveFrom": "{0.47310803118031353, 0.62856934559239996}",
      "curveMode": 4,
      "curveTo": "{0.47530175849053025, 0.63578528344108654}",
      "hasCurveFrom": false,
      "hasCurveTo": true,
      "point": "{0.47310803118031353, 0.62856934559239996}"
    },
    {
      "_class": "curvePoint",
      "cornerRadius": 0,
      "curveFrom": "{0.46258449872116064, 0.59405395056791299}",
      "curveMode": 4,
      "curveTo": "{0.46539819244513309, 0.60327571729411933}",
      "hasCurveFrom": true,
      "hasCurveTo": false,
      "point": "{0.46539819244513309, 0.60327571729411933}"
    },
    {
      "_class": "curvePoint",
      "cornerRadius": 0,
      "curveFrom": "{0.4859047738232416, 0.58468080053019611}",
      "curveMode": 4,
      "curveTo": "{0.46940412927248459, 0.5878472347959659}",
      "hasCurveFrom": false,
      "hasCurveTo": true,
      "point": "{0.4859047738232416, 0.58468080053019611}"
    },
    {
      "_class": "curvePoint",
      "cornerRadius": 0,
      "curveFrom": "{0.74010690003822432, 0.53585968256792871}",
      "curveMode": 4,
      "curveTo": "{0.73519485845230592, 0.536805828264872}",
      "hasCurveFrom": true,
      "hasCurveTo": false,
      "point": "{0.73519485845230592, 0.536805828264872}"
    },
    {
      "_class": "curvePoint",
      "cornerRadius": 0,
      "curveFrom": "{0.74888180927908954, 0.53121726101492761}",
      "curveMode": 4,
      "curveTo": "{0.7443194923368287, 0.53517845766612959}",
      "hasCurveFrom": true,
      "hasCurveTo": true,
      "point": "{0.74821415314119721, 0.53463600079988238}"
    },
    {
      "_class": "curvePoint",
      "cornerRadius": 0,
      "curveFrom": "{0.75891254792217933, 0.52880774330671232}",
      "curveMode": 2,
      "curveTo": "{0.75323747075009861, 0.52715514215605153}",
      "hasCurveFrom": true,
      "hasCurveTo": true,
      "point": "{0.75574912955454931, 0.52789944343764683}"
    },
    {
      "_class": "curvePoint",
      "cornerRadius": 0,
      "curveFrom": "{0.76186931081855824, 0.53347539541163203}",
      "curveMode": 4,
      "curveTo": "{0.75891254792217933, 0.5313181832226016}",
      "hasCurveFrom": true,
      "hasCurveTo": true,
      "point": "{0.75768851166937745, 0.5337024703788984}"
    },
    {
      "_class": "curvePoint",
      "cornerRadius": 0,
      "curveFrom": "{0.77231336040415255, 0.53551907011702926}",
      "curveMode": 2,
      "curveTo": "{0.76525528123215225, 0.53356370234334671}",
      "hasCurveFrom": true,
      "hasCurveTo": true,
      "point": "{0.76735362909409832, 0.53413138976151253}"
    },
    {
      "_class": "curvePoint",
      "cornerRadius": 0,
      "curveFrom": "{0.7791011978060538, 0.55026632771338324}",
      "curveMode": 2,
      "curveTo": "{0.77589008971428808, 0.53983349449508988}",
      "hasCurveFrom": true,
      "hasCurveTo": true,
      "point": "{0.77809971359921615, 0.54704943234377656}"
    },
    {
      "_class": "curvePoint",
      "cornerRadius": 0,
      "curveFrom": "{0.78382248049543168, 0.58161528847210031}",
      "curveMode": 4,
      "curveTo": "{0.78022985461058492, 0.55745703501015154}",
      "hasCurveFrom": true,
      "hasCurveTo": true,
      "point": "{0.78156516688636868, 0.56867201533791767}"
    },
    {
      "_class": "curvePoint",
      "cornerRadius": 0,
      "curveFrom": "{0.79154821580532353, 0.60354063808926328}",
      "curveMode": 4,
      "curveTo": "{0.78614338040334186, 0.59339795621803249}",
      "hasCurveFrom": true,
      "hasCurveTo": true,
      "point": "{0.78852786661009833, 0.60410832550742899}"
    },
    {
      "_class": "curvePoint",
      "cornerRadius": 0,
      "curveFrom": "{0.80121333323004429, 0.60801906105479409}",
      "curveMode": 4,
      "curveTo": "{0.79455266842583738, 0.60296033539513827}",
      "hasCurveFrom": true,
      "hasCurveTo": true,
      "point": "{0.79758891419577482, 0.60238003270101281}"
    },
    {
      "_class": "curvePoint",
      "cornerRadius": 0,
      "curveFrom": "{0.81292910879257629, 0.62030633983909622}",
      "curveMode": 2,
      "curveTo": "{0.80916162058590024, 0.6079433693990387}",
      "hasCurveFrom": true,
      "hasCurveTo": true,
      "point": "{0.81141893419496325, 0.61538638221499165}"
    },
    {
      "_class": "curvePoint",
      "cornerRadius": 0,
      "curveFrom": "{0.809368276057153, 0.63144562851110686}",
      "curveMode": 4,
      "curveTo": "{0.8144233868154771, 0.62525152801511918}",
      "hasCurveFrom": true,
      "hasCurveTo": true,
      "point": "{0.81593356141309015, 0.63019671619114204}"
    },
    {
      "_class": "curvePoint",
      "cornerRadius": 0,
      "curveFrom": "{0.79633308479354947, 0.63418314339426263}",
      "curveMode": 4,
      "curveTo": "{0.80281888727592721, 0.63270715610703143}",
      "hasCurveFrom": true,
      "hasCurveTo": true,
      "point": "{0.79625360191999095, 0.63398129897891486}"
    },
    {
      "_class": "curvePoint",
      "cornerRadius": 0,
      "curveFrom": "{0.79644436081653147, 0.63463729332879537}",
      "curveMode": 4,
      "curveTo": "{0.79638077451768441, 0.63443544891344761}",
      "hasCurveFrom": false,
      "hasCurveTo": true,
      "point": "{0.79644436081653147, 0.63463729332879537}"
    },
    {
      "_class": "curvePoint",
      "cornerRadius": 0,
      "curveFrom": "{0.84583501844581954, 0.79324915796434781}",
      "curveMode": 4,
      "curveTo": "{0.84453149931945926, 0.79232824281932268}",
      "hasCurveFrom": true,
      "hasCurveTo": false,
      "point": "{0.84453149931945926, 0.79232824281932268}"
    },
    {
      "_class": "curvePoint",
      "cornerRadius": 0,
      "curveFrom": "{0.84569194927341396, 0.79613805615901412}",
      "curveMode": 4,
      "curveTo": "{0.84613705336534217, 0.79462422304390501}",
      "hasCurveFrom": false,
      "hasCurveTo": true,
      "point": "{0.84569194927341396, 0.79613805615901412}"
    },
    {
      "_class": "curvePoint",
      "cornerRadius": 0,
      "curveFrom": "{0.85127164699722468, 0.81441759102395628}",
      "curveMode": 4,
      "curveTo": "{0.84785388343420709, 0.80318999542023006}",
      "hasCurveFrom": true,
      "hasCurveTo": false,
      "point": "{0.84785388343420709, 0.80318999542023006}"
    },
    {
      "_class": "curvePoint",
      "cornerRadius": 0,
      "curveFrom": "{0.87953575683464857, 0.82810516543973378}",
      "curveMode": 4,
      "curveTo": "{0.85879072683586455, 0.82189844966778713}",
      "hasCurveFrom": true,
      "hasCurveTo": true,
      "point": "{0.87039522637541444, 0.825619956075763}"
    },
    {
      "_class": "curvePoint",
      "cornerRadius": 0,
      "curveFrom": "{0.88721380242040537, 0.83958506656264453}",
      "curveMode": 4,
      "curveTo": "{0.885147247707883, 0.83276020226869452}",
      "hasCurveFrom": false,
      "hasCurveTo": true,
      "point": "{0.88721380242040537, 0.83958506656264453}"
    },
    {
      "_class": "curvePoint",
      "cornerRadius": 0,
      "curveFrom": "{0.88915318453523451, 0.84263796334478136}",
      "curveMode": 4,
      "curveTo": "{0.88807221745483744, 0.84238565782559605}",
      "hasCurveFrom": true,
      "hasCurveTo": false,
      "point": "{0.88807221745483744, 0.84238565782559605}"
    },
    {
      "_class": "curvePoint",
      "cornerRadius": 0,
      "curveFrom": "{0.90314217028154076, 0.8405564428115061}",
      "curveMode": 4,
      "curveTo": "{0.89010697901793723, 0.84283980776012879}",
      "hasCurveFrom": true,
      "hasCurveTo": true,
      "point": "{0.89072694543169384, 0.84294072996780323}"
    },
    {
      "_class": "curvePoint",
      "cornerRadius": 0,
      "curveFrom": "{0.94509323094574826, 0.83074175811521545}",
      "curveMode": 4,
      "curveTo": "{0.91557329170609913, 0.83817215565520908}",
      "hasCurveFrom": true,
      "hasCurveTo": true,
      "point": "{0.92798851655594605, 0.83578786849891273}"
    },
    {
      "_class": "curvePoint",
      "cornerRadius": 0,
      "curveFrom": "{0.97375475515096455, 0.83481649225005117}",
      "curveMode": 4,
      "curveTo": "{0.95114982591091002, 0.84015275398081057}",
      "hasCurveFrom": true,
      "hasCurveTo": true,
      "point": "{0.96752329786397362, 0.83601494346617877}"
    },
    {
      "_class": "curvePoint",
      "cornerRadius": 0,
      "curveFrom": "{0.98694891216168512, 0.83487956862984725}",
      "curveMode": 4,
      "curveTo": "{0.97998621243795558, 0.83363065630988176}",
      "hasCurveFrom": true,
      "hasCurveTo": true,
      "point": "{0.98620177315023427, 0.83243220509375404}"
    },
    {
      "_class": "curvePoint",
      "cornerRadius": 0,
      "curveFrom": "{0.99424543995436088, 0.83915614718002962}",
      "curveMode": 4,
      "curveTo": "{0.98771194774784732, 0.837377393269777}",
      "hasCurveFrom": true,
      "hasCurveTo": true,
      "point": "{0.98845908675929728, 0.83983737208182907}"
    },
    {
      "_class": "curvePoint",
      "cornerRadius": 0,
      "curveFrom": "{0.9941818536555137, 0.84610716423357268}",
      "curveMode": 4,
      "curveTo": "{0.99980924110346037, 0.83881553472913095}",
      "hasCurveFrom": true,
      "hasCurveTo": true,
      "point": "{1, 0.84545116988369184}"
    },
    {
      "_class": "curvePoint",
      "cornerRadius": 0,
      "curveFrom": "{0.96979650804774797, 0.84342011045425447}",
      "curveMode": 4,
      "curveTo": "{0.9886180525064151, 0.84644777668447202}",
      "hasCurveFrom": true,
      "hasCurveTo": true,
      "point": "{0.98845908675929728, 0.83983737208182907}"
    },
    {
      "_class": "curvePoint",
      "cornerRadius": 0,
      "curveFrom": "{0.91535073966013503, 0.85563169758280044}",
      "curveMode": 4,
      "curveTo": "{0.95118161906033361, 0.84699023355071956}",
      "hasCurveFrom": true,
      "hasCurveTo": true,
      "point": "{0.93250314377407206, 0.85057297192314418}"
    },
    {
      "_class": "curvePoint",
      "cornerRadius": 0,
      "curveFrom": "{0.8922053268798833, 0.85049728026738847}",
      "curveMode": 4,
      "curveTo": "{0.90940542071795527, 0.84619547116528748}",
      "hasCurveFrom": true,
      "hasCurveTo": true,
      "point": "{0.89298425904075684, 0.85034589695587826}"
    },
    {
      "_class": "curvePoint",
      "cornerRadius": 0,
      "curveFrom": "{0.89063156598342308, 0.85078743161445125}",
      "curveMode": 4,
      "curveTo": "{0.89141049814429751, 0.85063604830294037}",
      "hasCurveFrom": false,
      "hasCurveTo": true,
      "point": "{0.89063156598342308, 0.85078743161445125}"
    },
    {
      "_class": "curvePoint",
      "cornerRadius": 0,
      "curveFrom": "{0.89640202260377444, 0.86968511500139678}",
      "curveMode": 4,
      "curveTo": "{0.89382677750047745, 0.86125811066062286}",
      "hasCurveFrom": true,
      "hasCurveTo": false,
      "point": "{0.89382677750047745, 0.86125811066062286}"
    },
    {
      "_class": "curvePoint",
      "cornerRadius": 0,
      "curveFrom": "{0.86182697260580199, 0.89938147460945195}",
      "curveMode": 2,
      "curveTo": "{0.89048849681101838, 0.87900780393527644}",
      "hasCurveFrom": true,
      "hasCurveTo": true,
      "point": "{0.8761656829957658, 0.88917571635842541}"
    },
    {
      "_class": "curvePoint",
      "cornerRadius": 0,
      "curveFrom": "{0.73462258176268425, 0.95724774543449664}",
      "curveMode": 2,
      "curveTo": "{0.83063789302142277, 0.91503703207487208}",
      "hasCurveFrom": true,
      "hasCurveTo": true,
      "point": "{0.78263023739205351, 0.93614238875468436}"
    },
    {
      "_class": "curvePoint",
      "cornerRadius": 0,
      "curveFrom": "{0.37909568833525026, 1.0314886444546369}",
      "curveMode": 3,
      "curveTo": "{0.67896867369698077, 0.97388729442473732}",
      "hasCurveFrom": true,
      "hasCurveTo": true,
      "point": "{0.61563672004552139, 0.98604842044944607}"
    },
    {
      "_class": "curvePoint",
      "cornerRadius": 0,
      "curveFrom": "{0.09990414667345611, 0.79143255822621683}",
      "curveMode": 4,
      "curveTo": "{0.20792137183953788, 0.96591444001849547}",
      "hasCurveFrom": true,
      "hasCurveTo": true,
      "point": "{0.10200249453540214, 0.78955288210828978}"
    },
    {
      "_class": "curvePoint",
      "cornerRadius": 0,
      "curveFrom": "{0.091335892903843668, 0.79000703204282252}",
      "curveMode": 2,
      "curveTo": "{0.097026866650636548, 0.79275716220193682}",
      "hasCurveFrom": true,
      "hasCurveTo": true,
      "point": "{0.095548485202447062, 0.79203809147226056}"
    },
    {
      "_class": "curvePoint",
      "cornerRadius": 0,
      "curveFrom": "{0.072212313525654354, 0.73863762833678814}",
      "curveMode": 4,
      "curveTo": "{0.094896725639266932, 0.78562953128496571}",
      "hasCurveFrom": true,
      "hasCurveTo": true,
      "point": "{0.098537041248249149, 0.78367416351128283}"
    },
    {
      "_class": "curvePoint",
      "cornerRadius": 0,
      "curveFrom": "{0.006130252449068333, 0.5429620829329822}",
      "curveMode": 3,
      "curveTo": "{0.049973005503969561, 0.68668792193662875}",
      "hasCurveFrom": true,
      "hasCurveTo": true,
      "point": "{0.031946289780888634, 0.62758535406757898}"
    },
    {
      "_class": "curvePoint",
      "cornerRadius": 0,
      "curveFrom": "{0.0069091846099423142, 0.29370946053027447}",
      "curveMode": 2,
      "curveTo": "{-0.0040435553664269859, 0.45925972694340989}",
      "hasCurveFrom": true,
      "hasCurveTo": true,
      "point": "{0.001440762909113558, 0.37647828609886269}"
    }
  ],
  "resizingConstraint": 63,
  "resizingType": 0,
  "rotation": 0,
  "shouldBreakMaskChain": false,
  "style": {
    "_class": "style",
    "do_objectID": "75EFFB4E-639C-4E53-A7EE-89FA8B356766",
    "endMarkerType": 0,
    "fills": [
      {
        "_class": "fill",
        "color": {
          "_class": "color",
          "alpha": 1,
          "blue": 0.1764705882352941,
          "green": 0.1764705882352941,
          "red": 0.1764705882352941
        },
        "fillType": 0,
        "isEnabled": true,
        "noiseIndex": 0,
        "noiseIntensity": 0,
        "patternFillType": 1,
        "patternTileScale": 1
      }
    ],
    "miterLimit": 10,
    "startMarkerType": 0,
    "windingRule": 1
  }
}