{
  "_class": "shapePath",
  "booleanOperation": -1,
  "clippingMaskMode": 0,
  "do_objectID": "2A56A96E-E184-4FAA-9054-FDEF8D800EE2",
  "edited": true,
  "exportOptions": {
    "_class": "exportOptions",
    "do_objectID": "4CBF6E46-668F-43DF-A3A0-809DD6E16EAB",
    "exportFormats": [
    ],
    "includedLayerIds": [
    ],
    "layerOptions": 0,
    "shouldTrim": false
  },
  "frame": {
    "_class": "rect",
    "constrainProportions": false,
    "do_objectID": "7280065D-F516-4D4D-B9DB-72CFC824425C",
    "height": 0.1221167573790716,
    "width": 0.1802943786363125,
    "x": 5.731567404217902,
    "y": 29.15647315644124
  },
  "hasClippingMask": false,
  "isClosed": true,
  "isFixedToViewport": false,
  "isFlippedHorizontal": false,
  "isFlippedVertical": false,
  "isLocked": false,
  "isVisible": true,
  "layerListExpandedType": 0,
  "name": "Path",
  "nameIsFixed": false,
  "pointRadiusBehaviour": 0,
  "points": [
    {
      "_class": "curvePoint",
      "cornerRadius": 0,
      "curveFrom": "{0.83159990172039067, 1.2787584866739015}",
      "curveMode": 4,
      "curveTo": "{1.0148372491375361, 0.83713145580487702}",
      "hasCurveFrom": true,
      "hasCurveTo": true,
      "point": "{0.99862952307607444, 0.880962108492649}"
    },
    {
      "_class": "curvePoint",
      "cornerRadius": 0,
      "curveFrom": "{0.57497757241382408, 0.53496559257872223}",
      "curveMode": 4,
      "curveTo": "{0.64476083740069878, 0.55223221333451011}",
      "hasCurveFrom": true,
      "hasCurveTo": true,
      "point": "{0.62945354056486569, 0.55023991093962166}"
    },
    {
      "_class": "curvePoint",
      "cornerRadius": 0,
      "curveFrom": "{-0.077383401560244133, 0.37358909859200429}",
      "curveMode": 3,
      "curveTo": "{0.050477548480218452, 0.80525461748651106}",
      "hasCurveFrom": true,
      "hasCurveTo": true,
      "point": "{0.037871539321303029, 0.76142396479877683}"
    },
    {
      "_class": "curvePoint",
      "cornerRadius": 0,
      "curveFrom": "{0.32555867691235024, 0.17037425431244052}",
      "curveMode": 3,
      "curveTo": "{0.091447078246709571, 0.34968146985322984}",
      "hasCurveFrom": true,
      "hasCurveTo": true,
      "point": "{0.26252863111775393, 0.21818951178998938}"
    },
    {
      "_class": "curvePoint",
      "cornerRadius": 0,
      "curveFrom": "{0.88247415296888587, 0.030913086669570818}",
      "curveMode": 4,
      "curveTo": "{0.80323638111282136, -0.038817497151826287}",
      "hasCurveFrom": true,
      "hasCurveTo": true,
      "point": "{0.8554612761997723, 0.0063413571325128286}"
    }
  ],
  "resizingConstraint": 63,
  "resizingType": 0,
  "rotation": 0,
  "shouldBreakMaskChain": false,
  "style": {
    "_class": "style",
    "do_objectID": "95FB4397-3893-4F92-A0E4-48913F32F893",
    "endMarkerType": 0,
    "fills": [
      {
        "_class": "fill",
        "color": {
          "_class": "color",
          "alpha": 1,
          "blue": 0.1764705882352941,
          "green": 0.1764705882352941,
          "red": 0.1764705882352941
        },
        "fillType": 0,
        "isEnabled": true,
        "noiseIndex": 0,
        "noiseIntensity": 0,
        "patternFillType": 1,
        "patternTileScale": 1
      }
    ],
    "miterLimit": 10,
    "startMarkerType": 0,
    "windingRule": 1
  }
}