{
  "_class": "shapePath",
  "booleanOperation": -1,
  "clippingMaskMode": 0,
  "do_objectID": "2C70B5E1-C769-4A78-B63B-755478D86C03",
  "edited": true,
  "exportOptions": {
    "_class": "exportOptions",
    "do_objectID": "41E8CC53-D1C7-495D-A010-35DB140C1B98",
    "exportFormats": [
    ],
    "includedLayerIds": [
    ],
    "layerOptions": 0,
    "shouldTrim": false
  },
  "frame": {
    "_class": "rect",
    "constrainProportions": false,
    "do_objectID": "25C505AE-BE52-454F-A35C-07D4ACCB15FF",
    "height": 0.1058906030855571,
    "width": 0.1059863482545644,
    "x": 17.84371922258789,
    "y": 9.221663492933871
  },
  "hasClippingMask": false,
  "isClosed": true,
  "isFixedToViewport": false,
  "isFlippedHorizontal": false,
  "isFlippedVertical": false,
  "isLocked": false,
  "isVisible": true,
  "layerListExpandedType": 0,
  "name": "Path",
  "nameIsFixed": false,
  "pointRadiusBehaviour": 0,
  "points": [
    {
      "_class": "curvePoint",
      "cornerRadius": 0,
      "curveFrom": "{0.93869679958697816, 0.24440557297630505}",
      "curveMode": 3,
      "curveTo": "{0.36169679958697998, -0.10859442702370359}",
      "hasCurveFrom": true,
      "hasCurveTo": true,
      "point": "{0.56469679958698293, 0.016405572976296412}"
    },
    {
      "_class": "curvePoint",
      "cornerRadius": 0,
      "curveFrom": "{-0.25830320041302457, 0.51440557297628686}",
      "curveMode": 3,
      "curveTo": "{0.31969679958697839, 0.86640557297631915}",
      "hasCurveFrom": true,
      "hasCurveTo": true,
      "point": "{0.11969679958698975, 0.74440557297630505}"
    }
  ],
  "resizingConstraint": 63,
  "resizingType": 0,
  "rotation": 0,
  "shouldBreakMaskChain": false,
  "style": {
    "_class": "style",
    "do_objectID": "EAFE484A-42CD-4FC1-96EB-B22EEA563B1F",
    "endMarkerType": 0,
    "fills": [
      {
        "_class": "fill",
        "color": {
          "_class": "color",
          "alpha": 1,
          "blue": 0.1764705882352941,
          "green": 0.1764705882352941,
          "red": 0.1764705882352941
        },
        "fillType": 0,
        "isEnabled": true,
        "noiseIndex": 0,
        "noiseIntensity": 0,
        "patternFillType": 1,
        "patternTileScale": 1
      }
    ],
    "miterLimit": 10,
    "startMarkerType": 0,
    "windingRule": 1
  }
}