{
  "_class": "shapePath",
  "booleanOperation": -1,
  "clippingMaskMode": 0,
  "do_objectID": "2D305FEA-5E36-401C-B282-BD85A46C3B49",
  "edited": true,
  "exportOptions": {
    "_class": "exportOptions",
    "do_objectID": "220D32DD-6CD7-4C79-804E-E22917D98F6C",
    "exportFormats": [
    ],
    "includedLayerIds": [
    ],
    "layerOptions": 0,
    "shouldTrim": false
  },
  "frame": {
    "_class": "rect",
    "constrainProportions": false,
    "do_objectID": "542005C8-2DBA-4191-BA6E-BA76738C89B1",
    "height": 0.1609792045813707,
    "width": 0.105986348254568,
    "x": 16.89267416788948,
    "y": 2.396502501118539
  },
  "hasClippingMask": false,
  "isClosed": true,
  "isFixedToViewport": false,
  "isFlippedHorizontal": false,
  "isFlippedVertical": false,
  "isLocked": false,
  "isVisible": true,
  "layerListExpandedType": 0,
  "name": "Path",
  "nameIsFixed": false,
  "pointRadiusBehaviour": 0,
  "points": [
    {
      "_class": "curvePoint",
      "cornerRadius": 0,
      "curveFrom": "{1.0540739301586763, 0.42317380352644496}",
      "curveMode": 4,
      "curveTo": "{0.16313720502379897, 0.2216624685138576}",
      "hasCurveFrom": true,
      "hasCurveTo": true,
      "point": "{0.98921957346094924, 0}"
    },
    {
      "_class": "curvePoint",
      "cornerRadius": 0,
      "curveFrom": "{-0.054124889913553187, 0.57934508816121022}",
      "curveMode": 4,
      "curveTo": "{0.83843319413877482, 0.78035264483627798}",
      "hasCurveFrom": true,
      "hasCurveTo": true,
      "point": "{0.010729466784150807, 1}"
    }
  ],
  "resizingConstraint": 63,
  "resizingType": 0,
  "rotation": 0,
  "shouldBreakMaskChain": false,
  "style": {
    "_class": "style",
    "do_objectID": "D62BBA9F-2113-4393-BAC8-A34EC606AEE1",
    "endMarkerType": 0,
    "fills": [
      {
        "_class": "fill",
        "color": {
          "_class": "color",
          "alpha": 1,
          "blue": 0.1764705882352941,
          "green": 0.1764705882352941,
          "red": 0.1764705882352941
        },
        "fillType": 0,
        "isEnabled": true,
        "noiseIndex": 0,
        "noiseIntensity": 0,
        "patternFillType": 1,
        "patternTileScale": 1
      }
    ],
    "miterLimit": 10,
    "startMarkerType": 0,
    "windingRule": 1
  }
}