{
  "_class": "shapePath",
  "booleanOperation": -1,
  "clippingMaskMode": 0,
  "do_objectID": "34A32E29-0141-4D02-85C4-7F6CEB88F839",
  "edited": true,
  "exportOptions": {
    "_class": "exportOptions",
    "do_objectID": "72986114-E663-42F9-8F07-03077187F6DC",
    "exportFormats": [
    ],
    "includedLayerIds": [
    ],
    "layerOptions": 0,
    "shouldTrim": false
  },
  "frame": {
    "_class": "rect",
    "constrainProportions": false,
    "do_objectID": "440184EA-CD02-4959-A669-D915FB909C39",
    "height": 0.1058906030855731,
    "width": 0.1059863482545609,
    "x": 5.880501744292978,
    "y": 16.87413151980046
  },
  "hasClippingMask": false,
  "isClosed": true,
  "isFixedToViewport": false,
  "isFlippedHorizontal": false,
  "isFlippedVertical": false,
  "isLocked": false,
  "isVisible": true,
  "layerListExpandedType": 0,
  "name": "Path",
  "nameIsFixed": false,
  "pointRadiusBehaviour": 0,
  "points": [
    {
      "_class": "curvePoint",
      "cornerRadius": 0,
      "curveFrom": "{-0.30169948055431917, 0.78746576816129732}",
      "curveMode": 3,
      "curveTo": "{0.46030051944568129, 1.0674657681612985}",
      "hasCurveFrom": true,
      "hasCurveTo": true,
      "point": "{0.19430051944567595, 0.96846576816128049}"
    },
    {
      "_class": "curvePoint",
      "cornerRadius": 0,
      "curveFrom": "{1.0413005194456701, 0.187465768161303}",
      "curveMode": 3,
      "curveTo": "{0.27730051944567435, -0.08953423183871223}",
      "hasCurveFrom": true,
      "hasCurveTo": true,
      "point": "{0.54230051944567492, 0.0074657681612961824}"
    }
  ],
  "resizingConstraint": 63,
  "resizingType": 0,
  "rotation": 0,
  "shouldBreakMaskChain": false,
  "style": {
    "_class": "style",
    "do_objectID": "DEA22D71-7430-4AEE-B455-B499FAA81A73",
    "endMarkerType": 0,
    "fills": [
      {
        "_class": "fill",
        "color": {
          "_class": "color",
          "alpha": 1,
          "blue": 0.1764705882352941,
          "green": 0.1764705882352941,
          "red": 0.1764705882352941
        },
        "fillType": 0,
        "isEnabled": true,
        "noiseIndex": 0,
        "noiseIntensity": 0,
        "patternFillType": 1,
        "patternTileScale": 1
      }
    ],
    "miterLimit": 10,
    "startMarkerType": 0,
    "windingRule": 1
  }
}