{
  "_class": "shapePath",
  "booleanOperation": -1,
  "clippingMaskMode": 0,
  "do_objectID": "355AD8F3-A611-4C7C-9A84-24B1AF028150",
  "edited": true,
  "exportOptions": {
    "_class": "exportOptions",
    "do_objectID": "5E060A0E-4778-4308-A8E6-25A627C83E90",
    "exportFormats": [
    ],
    "includedLayerIds": [
    ],
    "layerOptions": 0,
    "shouldTrim": false
  },
  "frame": {
    "_class": "rect",
    "constrainProportions": false,
    "do_objectID": "7AD69CA6-9825-43FD-95B4-32DFABC3F8CB",
    "height": 0.105890603085554,
    "width": 0.1493850735184772,
    "x": 24.43511780244678,
    "y": 1.27068760952745
  },
  "hasClippingMask": false,
  "isClosed": true,
  "isFixedToViewport": false,
  "isFlippedHorizontal": false,
  "isFlippedVertical": false,
  "isLocked": false,
  "isVisible": true,
  "layerListExpandedType": 0,
  "name": "Path",
  "nameIsFixed": false,
  "pointRadiusBehaviour": 0,
  "points": [
    {
      "_class": "curvePoint",
      "cornerRadius": 0,
      "curveFrom": "{0.59770550132751243, 1.0392403686035407}",
      "curveMode": 3,
      "curveTo": "{1.1954110026550249, 0.82530919404147685}",
      "hasCurveFrom": true,
      "hasCurveTo": true,
      "point": "{0.79223147357773738, 0.97007465051202657}"
    },
    {
      "_class": "curvePoint",
      "cornerRadius": 0,
      "curveFrom": "{0.19561270952537108, 0.65561190895649724}",
      "curveMode": 4,
      "curveTo": "{0.39991931725188007, 1.0143085399891567}",
      "hasCurveFrom": true,
      "hasCurveTo": true,
      "point": "{0.39557236815129565, 0.61379077708719887}"
    },
    {
      "_class": "curvePoint",
      "cornerRadius": 0,
      "curveFrom": "{0.19832955271322086, 0.21327301418524103}",
      "curveMode": 4,
      "curveTo": "{0.0070637922884341951, 0.67732672742707511}",
      "hasCurveFrom": true,
      "hasCurveTo": true,
      "point": "{0, 0.25670265112639679}"
    },
    {
      "_class": "curvePoint",
      "cornerRadius": 0,
      "curveFrom": "{0.67703732241280701, 0.80922414332249126}",
      "curveMode": 4,
      "curveTo": "{0.38850857586289234, 0.18994969064276002}",
      "hasCurveFrom": true,
      "hasCurveTo": true,
      "point": "{0.39557236815129565, 0.61379077708719887}"
    },
    {
      "_class": "curvePoint",
      "cornerRadius": 0,
      "curveFrom": "{0.93894100572175021, -0.18000647589317562}",
      "curveMode": 4,
      "curveTo": "{0.64171836097072865, 0.025077920773489817}",
      "hasCurveFrom": true,
      "hasCurveTo": true,
      "point": "{0.63791478050773276, 0.028294930917250348}"
    }
  ],
  "resizingConstraint": 63,
  "resizingType": 0,
  "rotation": 0,
  "shouldBreakMaskChain": false,
  "style": {
    "_class": "style",
    "do_objectID": "11941399-3536-46F8-B6ED-83DFCEE5D668",
    "endMarkerType": 0,
    "fills": [
      {
        "_class": "fill",
        "color": {
          "_class": "color",
          "alpha": 1,
          "blue": 0.1764705882352941,
          "green": 0.1764705882352941,
          "red": 0.1764705882352941
        },
        "fillType": 0,
        "isEnabled": true,
        "noiseIndex": 0,
        "noiseIntensity": 0,
        "patternFillType": 1,
        "patternTileScale": 1
      }
    ],
    "miterLimit": 10,
    "startMarkerType": 0,
    "windingRule": 1
  }
}