{
  "_class": "shapePath",
  "booleanOperation": -1,
  "clippingMaskMode": 0,
  "do_objectID": "37D7D3FC-DBD5-4167-9989-D9C174DBEF76",
  "edited": true,
  "exportOptions": {
    "_class": "exportOptions",
    "do_objectID": "1DA6C778-C36A-4FC1-9656-B0B8AD3BC900",
    "exportFormats": [
    ],
    "includedLayerIds": [
    ],
    "layerOptions": 0,
    "shouldTrim": false
  },
  "frame": {
    "_class": "rect",
    "constrainProportions": false,
    "do_objectID": "DA2D010E-9FE8-483D-B5A5-FB57D86C450C",
    "height": 0.1067247522564649,
    "width": 0.105986348254568,
    "x": 26.13728061502303,
    "y": 2.081113016676738
  },
  "hasClippingMask": false,
  "isClosed": true,
  "isFixedToViewport": false,
  "isFlippedHorizontal": false,
  "isFlippedVertical": false,
  "isLocked": false,
  "isVisible": true,
  "layerListExpandedType": 0,
  "name": "Path",
  "nameIsFixed": false,
  "pointRadiusBehaviour": 0,
  "points": [
    {
      "_class": "curvePoint",
      "cornerRadius": 0,
      "curveFrom": "{0.51995680486771789, 0.18693009118539949}",
      "curveMode": 4,
      "curveTo": "{0.50095680486771244, 0.082066869300916584}",
      "hasCurveFrom": true,
      "hasCurveTo": true,
      "point": "{0.61695680486775473, 0}"
    },
    {
      "_class": "curvePoint",
      "cornerRadius": 0,
      "curveFrom": "{0.80595680486771926, 0.98632218844986885}",
      "curveMode": 3,
      "curveTo": "{1.0539568048677097, 0.73632218844985808}",
      "hasCurveFrom": true,
      "hasCurveTo": true,
      "point": "{0.90095680486774654, 0.89133738601825607}"
    },
    {
      "_class": "curvePoint",
      "cornerRadius": 0,
      "curveFrom": "{0.41095680486773745, 0.81003039513677433}",
      "curveMode": 4,
      "curveTo": "{0.4299568048677429, 0.91565349544073538}",
      "hasCurveFrom": true,
      "hasCurveTo": true,
      "point": "{0.31195680486774791, 1}"
    },
    {
      "_class": "curvePoint",
      "cornerRadius": 0,
      "curveFrom": "{0.12395680486775973, 0.012917933130696233}",
      "curveMode": 3,
      "curveTo": "{-0.12604319513224027, 0.26139817629179396}",
      "hasCurveFrom": true,
      "hasCurveTo": true,
      "point": "{0.027956804867756091, 0.10790273556230905}"
    }
  ],
  "resizingConstraint": 63,
  "resizingType": 0,
  "rotation": 0,
  "shouldBreakMaskChain": false,
  "style": {
    "_class": "style",
    "do_objectID": "4368FABB-578B-41A6-A8BE-06683653D708",
    "endMarkerType": 0,
    "fills": [
      {
        "_class": "fill",
        "color": {
          "_class": "color",
          "alpha": 1,
          "blue": 0.1764705882352941,
          "green": 0.1764705882352941,
          "red": 0.1764705882352941
        },
        "fillType": 0,
        "isEnabled": true,
        "noiseIndex": 0,
        "noiseIntensity": 0,
        "patternFillType": 1,
        "patternTileScale": 1
      }
    ],
    "miterLimit": 10,
    "startMarkerType": 0,
    "windingRule": 1
  }
}