{
  "_class": "shapePath",
  "booleanOperation": -1,
  "clippingMaskMode": 0,
  "do_objectID": "3A407C9E-59C4-4D57-8E7A-D50BE735A0ED",
  "edited": true,
  "exportOptions": {
    "_class": "exportOptions",
    "do_objectID": "F68F5D54-0E62-4233-B140-F2CBAB39D42A",
    "exportFormats": [
    ],
    "includedLayerIds": [
    ],
    "layerOptions": 0,
    "shouldTrim": false
  },
  "frame": {
    "_class": "rect",
    "constrainProportions": false,
    "do_objectID": "A79A4AE3-EEC1-41E6-9615-C6627FB7160F",
    "height": 0.1058906030855544,
    "width": 0.1074612370911918,
    "x": 14.03068084438512,
    "y": 3.676794039015852
  },
  "hasClippingMask": false,
  "isClosed": true,
  "isFixedToViewport": false,
  "isFlippedHorizontal": false,
  "isFlippedVertical": false,
  "isLocked": false,
  "isVisible": true,
  "layerListExpandedType": 0,
  "name": "Path",
  "nameIsFixed": false,
  "pointRadiusBehaviour": 0,
  "points": [
    {
      "_class": "curvePoint",
      "cornerRadius": 0,
      "curveFrom": "{0.086094829716243604, 0.25604498634757511}",
      "curveMode": 4,
      "curveTo": "{-0.058932939227356616, 0.76911597431600864}",
      "hasCurveFrom": true,
      "hasCurveTo": true,
      "point": "{0.0052720626487199754, 0.53367230870905591}"
    },
    {
      "_class": "curvePoint",
      "cornerRadius": 0,
      "curveFrom": "{1.1458550371530256, 0.43851382719293569}",
      "curveMode": 4,
      "curveTo": "{0.75986967293335761, 0.25604498634757511}",
      "hasCurveFrom": true,
      "hasCurveTo": true,
      "point": "{0.88903502964874082, 0}"
    },
    {
      "_class": "curvePoint",
      "cornerRadius": 0,
      "curveFrom": "{0.48114442949488667, 1.2498134582635281}",
      "curveMode": 4,
      "curveTo": "{0.91018491261967538, 0.64452703459899152}",
      "hasCurveFrom": true,
      "hasCurveTo": true,
      "point": "{0.65487561104189351, 0.8407300892714894}"
    }
  ],
  "resizingConstraint": 63,
  "resizingType": 0,
  "rotation": 0,
  "shouldBreakMaskChain": false,
  "style": {
    "_class": "style",
    "do_objectID": "C5563653-EB8C-4151-823C-23C5373A0602",
    "endMarkerType": 0,
    "fills": [
      {
        "_class": "fill",
        "color": {
          "_class": "color",
          "alpha": 1,
          "blue": 0.1764705882352941,
          "green": 0.1764705882352941,
          "red": 0.1764705882352941
        },
        "fillType": 0,
        "isEnabled": true,
        "noiseIndex": 0,
        "noiseIntensity": 0,
        "patternFillType": 1,
        "patternTileScale": 1
      }
    ],
    "miterLimit": 10,
    "startMarkerType": 0,
    "windingRule": 1
  }
}