{
  "_class": "shapePath",
  "booleanOperation": -1,
  "clippingMaskMode": 0,
  "do_objectID": "3D9B6814-3B72-4A91-AC07-A7CFD2DB9D84",
  "edited": true,
  "exportOptions": {
    "_class": "exportOptions",
    "do_objectID": "F8AC45D4-24C9-4974-81C7-B4EDC6D030C2",
    "exportFormats": [
    ],
    "includedLayerIds": [
    ],
    "layerOptions": 0,
    "shouldTrim": false
  },
  "frame": {
    "_class": "rect",
    "constrainProportions": false,
    "do_objectID": "18DE522D-D1BC-47A3-B442-1F5999BD802C",
    "height": 0.105890603085566,
    "width": 0.1059863482545751,
    "x": 23.73110443610944,
    "y": 21.09828710843757
  },
  "hasClippingMask": false,
  "isClosed": true,
  "isFixedToViewport": false,
  "isFlippedHorizontal": false,
  "isFlippedVertical": false,
  "isLocked": false,
  "isVisible": true,
  "layerListExpandedType": 0,
  "name": "Path",
  "nameIsFixed": false,
  "pointRadiusBehaviour": 0,
  "points": [
    {
      "_class": "curvePoint",
      "cornerRadius": 0,
      "curveFrom": "{1.0391954152494804, 0.18831037905601988}",
      "curveMode": 3,
      "curveTo": "{0.27819541524945635, -0.088689620944023773}",
      "hasCurveFrom": true,
      "hasCurveTo": true,
      "point": "{0.54219541524946635, 0.0073103790559798654}"
    },
    {
      "_class": "curvePoint",
      "cornerRadius": 0,
      "curveFrom": "{-0.30280458475056093, 0.78931037905601897}",
      "curveMode": 3,
      "curveTo": "{0.46019541524947272, 1.0663103790560058}",
      "hasCurveFrom": true,
      "hasCurveTo": true,
      "point": "{0.19519541524948636, 0.97031037905600215}"
    }
  ],
  "resizingConstraint": 63,
  "resizingType": 0,
  "rotation": 0,
  "shouldBreakMaskChain": false,
  "style": {
    "_class": "style",
    "do_objectID": "AB914FF7-F6D2-4B44-A615-8AC100E9BD4F",
    "endMarkerType": 0,
    "fills": [
      {
        "_class": "fill",
        "color": {
          "_class": "color",
          "alpha": 1,
          "blue": 0.1764705882352941,
          "green": 0.1764705882352941,
          "red": 0.1764705882352941
        },
        "fillType": 0,
        "isEnabled": true,
        "noiseIndex": 0,
        "noiseIntensity": 0,
        "patternFillType": 1,
        "patternTileScale": 1
      }
    ],
    "miterLimit": 10,
    "startMarkerType": 0,
    "windingRule": 1
  }
}