{
  "_class": "shapePath",
  "booleanOperation": -1,
  "clippingMaskMode": 0,
  "do_objectID": "5B836D79-AC94-40F5-820B-850C0D5EED8B",
  "edited": true,
  "exportOptions": {
    "_class": "exportOptions",
    "do_objectID": "C2C81212-8DD1-4C0B-A66C-BC76052EBCCE",
    "exportFormats": [
    ],
    "includedLayerIds": [
    ],
    "layerOptions": 0,
    "shouldTrim": false
  },
  "frame": {
    "_class": "rect",
    "constrainProportions": false,
    "do_objectID": "D8FEA635-8A08-4162-99BA-2C64E8123159",
    "height": 0.1058906030855837,
    "width": 0.1059863482545538,
    "x": 12.52066130971732,
    "y": 18.86634079836702
  },
  "hasClippingMask": false,
  "isClosed": true,
  "isFixedToViewport": false,
  "isFlippedHorizontal": false,
  "isFlippedVertical": false,
  "isLocked": false,
  "isVisible": true,
  "layerListExpandedType": 0,
  "name": "Path",
  "nameIsFixed": false,
  "pointRadiusBehaviour": 0,
  "points": [
    {
      "_class": "curvePoint",
      "cornerRadius": 0,
      "curveFrom": "{0.93888564166408628, 0.245960998533576}",
      "curveMode": 3,
      "curveTo": "{0.36088564166408332, -0.10703900146643264}",
      "hasCurveFrom": true,
      "hasCurveTo": true,
      "point": "{0.56388564166408628, 0.015960998533557813}"
    },
    {
      "_class": "curvePoint",
      "cornerRadius": 0,
      "curveFrom": "{-0.25711435833591167, 0.51396099853357669}",
      "curveMode": 3,
      "curveTo": "{0.31988564166408651, 0.86796099853356168}",
      "hasCurveFrom": true,
      "hasCurveTo": true,
      "point": "{0.1188856416640931, 0.74496099853357123}"
    }
  ],
  "resizingConstraint": 63,
  "resizingType": 0,
  "rotation": 0,
  "shouldBreakMaskChain": false,
  "style": {
    "_class": "style",
    "do_objectID": "3EAB8275-6C2F-4AC0-A8DB-49A9346C0BFF",
    "endMarkerType": 0,
    "fills": [
      {
        "_class": "fill",
        "color": {
          "_class": "color",
          "alpha": 1,
          "blue": 0.1764705882352941,
          "green": 0.1764705882352941,
          "red": 0.1764705882352941
        },
        "fillType": 0,
        "isEnabled": true,
        "noiseIndex": 0,
        "noiseIntensity": 0,
        "patternFillType": 1,
        "patternTileScale": 1
      }
    ],
    "miterLimit": 10,
    "startMarkerType": 0,
    "windingRule": 1
  }
}