{
  "_class": "shapePath",
  "booleanOperation": -1,
  "clippingMaskMode": 0,
  "do_objectID": "6C580E14-A98C-4B18-A61B-56DE8BB6C8A9",
  "edited": true,
  "exportOptions": {
    "_class": "exportOptions",
    "do_objectID": "0CF49AE7-211D-4DDA-82D2-D49C9910E4D0",
    "exportFormats": [
    ],
    "includedLayerIds": [
    ],
    "layerOptions": 0,
    "shouldTrim": false
  },
  "frame": {
    "_class": "rect",
    "constrainProportions": false,
    "do_objectID": "46D91D1C-863C-4FC3-BB21-DAF77A8AA3E8",
    "height": 7.928038071542726,
    "width": 18.30158114685442,
    "x": 12.28079123787898,
    "y": 7.578172922368296
  },
  "hasClippingMask": false,
  "isClosed": true,
  "isFixedToViewport": false,
  "isFlippedHorizontal": false,
  "isFlippedVertical": false,
  "isLocked": false,
  "isVisible": true,
  "layerListExpandedType": 0,
  "name": "Path",
  "nameIsFixed": false,
  "pointRadiusBehaviour": 0,
  "points": [
    {
      "_class": "curvePoint",
      "cornerRadius": 0,
      "curveFrom": "{0.050064532152978826, 0.70934626031721226}",
      "curveMode": 4,
      "curveTo": "{0.048924685876994077, 0.71787744983278368}",
      "hasCurveFrom": true,
      "hasCurveTo": true,
      "point": "{0.048259405949376638, 0.71358116734292742}"
    },
    {
      "_class": "curvePoint",
      "cornerRadius": 0,
      "curveFrom": "{0.063312473111602832, 0.66575945153322025}",
      "curveMode": 4,
      "curveTo": "{0.050743117679148686, 0.71230251183999405}",
      "hasCurveFrom": true,
      "hasCurveTo": true,
      "point": "{0.051483795998562891, 0.71481890586976726}"
    },
    {
      "_class": "curvePoint",
      "cornerRadius": 0,
      "curveFrom": "{0.090619996540544326, 0.57192659610595853}",
      "curveMode": 4,
      "curveTo": "{0.076471710079877908, 0.61844919792468589}",
      "hasCurveFrom": true,
      "hasCurveTo": true,
      "point": "{0.090815145319312188, 0.57307227143658646}"
    },
    {
      "_class": "curvePoint",
      "cornerRadius": 0,
      "curveFrom": "{0.089316047882413888, 0.57026945857415656}",
      "curveMode": 4,
      "curveTo": "{0.090389366165636947, 0.57098550565579909}",
      "hasCurveFrom": true,
      "hasCurveTo": true,
      "point": "{0.090083337398932803, 0.5705354189187668}"
    },
    {
      "_class": "curvePoint",
      "cornerRadius": 0,
      "curveFrom": "{0.085754582669901311, 0.57246874603920228}",
      "curveMode": 2,
      "curveTo": "{0.087887913637794884, 0.57426909298733231}",
      "hasCurveFrom": true,
      "hasCurveTo": true,
      "point": "{0.087178281715002845, 0.57366556758994747}"
    },
    {
      "_class": "curvePoint",
      "cornerRadius": 0,
      "curveFrom": "{0.082614461411546519, 0.56179964452272624}",
      "curveMode": 4,
      "curveTo": "{0.085759017869418794, 0.56220881428366454}",
      "hasCurveFrom": true,
      "hasCurveTo": true,
      "point": "{0.084463939610323294, 0.56025502867518262}"
    },
    {
      "_class": "curvePoint",
      "cornerRadius": 0,
      "curveFrom": "{0.078347799475759386, 0.55826032609060661}",
      "curveMode": 4,
      "curveTo": "{0.080822640806496621, 0.56297600758542499}",
      "hasCurveFrom": true,
      "hasCurveTo": true,
      "point": "{0.080201712874053629, 0.556695251755016}"
    },
    {
      "_class": "curvePoint",
      "cornerRadius": 0,
      "curveFrom": "{0.074085572739489597, 0.55463917370629956}",
      "curveMode": 4,
      "curveTo": "{0.076551543671192004, 0.5593855429331881}",
      "hasCurveFrom": true,
      "hasCurveTo": true,
      "point": "{0.075935050938266371, 0.55311501634680293}"
    },
    {
      "_class": "curvePoint",
      "cornerRadius": 0,
      "curveFrom": "{0.073522302400773495, 0.54802085282311597}",
      "curveMode": 4,
      "curveTo": "{0.072293752134439698, 0.55582576601302147}",
      "hasCurveFrom": true,
      "hasCurveTo": true,
      "point": "{0.071668389002479238, 0.54956546867065958}"
    },
    {
      "_class": "curvePoint",
      "cornerRadius": 0,
      "curveFrom": "{0.07778452913704316, 0.55157040049925932}",
      "curveMode": 4,
      "curveTo": "{0.075314123005823394, 0.54684448976041777}",
      "hasCurveFrom": true,
      "hasCurveTo": true,
      "point": "{0.075935050938266371, 0.55311501634680293}"
    },
    {
      "_class": "curvePoint",
      "cornerRadius": 0,
      "curveFrom": "{0.082051191072830418, 0.55517109439551937}",
      "curveMode": 4,
      "curveTo": "{0.079576349742093058, 0.55041449592460756}",
      "hasCurveFrom": true,
      "hasCurveTo": true,
      "point": "{0.080201712874053629, 0.556695251755016}"
    },
    {
      "_class": "curvePoint",
      "cornerRadius": 0,
      "curveFrom": "{0.085222358727807257, 0.56052098901979286}",
      "curveMode": 4,
      "curveTo": "{0.083843011677880316, 0.55399473133282062}",
      "hasCurveFrom": true,
      "hasCurveTo": true,
      "point": "{0.084463939610323294, 0.56025502867518262}"
    },
    {
      "_class": "curvePoint",
      "cornerRadius": 0,
      "curveFrom": "{0.088788259139837303, 0.55832170155474714}",
      "curveMode": 4,
      "curveTo": "{0.086654928171943743, 0.55656227158271121}",
      "hasCurveFrom": true,
      "hasCurveTo": true,
      "point": "{0.087368995294253238, 0.55713510924802512}"
    },
    {
      "_class": "curvePoint",
      "cornerRadius": 0,
      "curveFrom": "{0.090708700530893374, 0.57076046228728294}",
      "curveMode": 4,
      "curveTo": "{0.08877938874080249, 0.56858163331028488}",
      "hasCurveFrom": true,
      "hasCurveTo": true,
      "point": "{0.090083337398932803, 0.5705354189187668}"
    },
    {
      "_class": "curvePoint",
      "cornerRadius": 0,
      "curveFrom": "{0.094057276166568324, 0.56274073497288501}",
      "curveMode": 4,
      "curveTo": "{0.091746537217976654, 0.56828498523360438}",
      "hasCurveFrom": true,
      "hasCurveTo": true,
      "point": "{0.092500521135943273, 0.56762008437207845}"
    },
    {
      "_class": "curvePoint",
      "cornerRadius": 0,
      "curveFrom": "{0.096527682297788089, 0.54843002258405482}",
      "curveMode": 4,
      "curveTo": "{0.095676123990437595, 0.55797390725794938}",
      "hasCurveFrom": true,
      "hasCurveTo": true,
      "point": "{0.097259490218167349, 0.55315593332289636}"
    },
    {
      "_class": "curvePoint",
      "cornerRadius": 0,
      "curveFrom": "{0.091542518040173979, 0.54603637948256378}",
      "curveMode": 4,
      "curveTo": "{0.094873352877779177, 0.54946317623042495}",
      "hasCurveFrom": true,
      "hasCurveTo": true,
      "point": "{0.09317910666211314, 0.55086458266163996}"
    },
    {
      "_class": "curvePoint",
      "cornerRadius": 0,
      "curveFrom": "{0.097201832624440598, 0.53838490495301061}",
      "curveMode": 2,
      "curveTo": "{0.09295291148672323, 0.54294714778747655}",
      "hasCurveFrom": true,
      "hasCurveTo": true,
      "point": "{0.094726991293703239, 0.541044508399112}"
    },
    {
      "_class": "curvePoint",
      "cornerRadius": 0,
      "curveFrom": "{0.099210978005845593, 0.54525895693678006}",
      "curveMode": 4,
      "curveTo": "{0.097800584559296341, 0.53974539440813152}",
      "hasCurveFrom": true,
      "hasCurveTo": true,
      "point": "{0.098993653229490497, 0.54460428531927796}"
    },
    {
      "_class": "curvePoint",
      "cornerRadius": 0,
      "curveFrom": "{0.15723669329264778, 0.37272229799296402}",
      "curveMode": 4,
      "curveTo": "{0.099370645188473813, 0.5458624823341649}",
      "hasCurveFrom": true,
      "hasCurveTo": true,
      "point": "{0.09948596037592744, 0.54642509075545564}"
    },
    {
      "_class": "curvePoint",
      "cornerRadius": 0,
      "curveFrom": "{0.32237691212539188, 0.13439114149020945}",
      "curveMode": 4,
      "curveTo": "{0.23326931862029812, 0.23012663630583577}",
      "hasCurveFrom": true,
      "hasCurveTo": true,
      "point": "{0.32304219205300944, 0.13585392338556551}"
    },
    {
      "_class": "curvePoint",
      "cornerRadius": 0,
      "curveFrom": "{0.3193033188597989, 0.13183383048434275}",
      "curveMode": 4,
      "curveTo": "{0.32172493779632672, 0.13288744261875993}",
      "hasCurveFrom": true,
      "hasCurveTo": true,
      "point": "{0.32111288026291857, 0.13124053433098173}"
    },
    {
      "_class": "curvePoint",
      "cornerRadius": 0,
      "curveFrom": "{0.31930775405931638, 0.12551215767784027}",
      "curveMode": 4,
      "curveTo": "{0.31756472064895841, 0.13217139553711732}",
      "hasCurveFrom": true,
      "hasCurveTo": true,
      "point": "{0.31749375745667913, 0.12613614156327152}"
    },
    {
      "_class": "curvePoint",
      "cornerRadius": 0,
      "curveFrom": "{0.32350345280282433, 0.1301971514405878}",
      "curveMode": 4,
      "curveTo": "{0.32105965786870916, 0.12521550960115976}",
      "hasCurveFrom": true,
      "hasCurveTo": true,
      "point": "{0.32111288026291857, 0.13124053433098173}"
    },
    {
      "_class": "curvePoint",
      "cornerRadius": 0,
      "curveFrom": "{0.35984547764881197, 0.097964803522644125}",
      "curveMode": 4,
      "curveTo": "{0.32559243177554342, 0.13027898539277591}",
      "hasCurveFrom": true,
      "hasCurveTo": true,
      "point": "{0.32744190997432021, 0.13126099281902878}"
    },
    {
      "_class": "curvePoint",
      "cornerRadius": 0,
      "curveFrom": "{0.4331770664703351, 0.048915578430120281}",
      "curveMode": 3,
      "curveTo": "{0.39396546753655715, 0.070806160640339261}",
      "hasCurveFrom": true,
      "hasCurveTo": true,
      "point": "{0.42967325885154939, 0.050869364038602191}"
    },
    {
      "_class": "curvePoint",
      "cornerRadius": 0,
      "curveFrom": "{0.43863236187679905, 0.042900782944321529}",
      "curveMode": 4,
      "curveTo": "{0.43668087408912093, 0.047207294678201006}",
      "hasCurveFrom": true,
      "hasCurveTo": true,
      "point": "{0.44018468170790659, 0.045406947730070958}"
    },
    {
      "_class": "curvePoint",
      "cornerRadius": 0,
      "curveFrom": "{0.44360422053586074, 0.037366761927625981}",
      "curveMode": 2,
      "curveTo": "{0.44092092482780332, 0.035106098998439764}",
      "hasCurveFrom": true,
      "hasCurveTo": true,
      "point": "{0.44202972470716589, 0.036036960204575329}"
    },
    {
      "_class": "curvePoint",
      "cornerRadius": 0,
      "curveFrom": "{0.47934305824747525, 0.025470151128333889}",
      "curveMode": 4,
      "curveTo": "{0.44274822702899286, 0.042235882082796203}",
      "hasCurveFrom": true,
      "hasCurveTo": true,
      "point": "{0.44170151994287465, 0.044609066696240804}"
    },
    {
      "_class": "curvePoint",
      "cornerRadius": 0,
      "curveFrom": "{0.55146383760073436, -0.0039491546831566136}",
      "curveMode": 4,
      "curveTo": "{0.51696685575400614, 0.015005634492327601}",
      "hasCurveFrom": true,
      "hasCurveTo": true,
      "point": "{0.55418261490493137, 0.01277565929521164}"
    },
    {
      "_class": "curvePoint",
      "cornerRadius": 0,
      "curveFrom": "{0.56704469350553732, 0.00756897408726685}",
      "curveMode": 4,
      "curveTo": "{0.56368724747082743, 0.00053125419912175803}",
      "hasCurveFrom": true,
      "hasCurveTo": true,
      "point": "{0.56584275443630827, 0.00058240041923904599}"
    },
    {
      "_class": "curvePoint",
      "cornerRadius": 0,
      "curveFrom": "{0.68318482806949066, 0.0097273445762184919}",
      "curveMode": 4,
      "curveTo": "{0.56568752245319764, 0.010913936882940501}",
      "hasCurveFrom": true,
      "hasCurveTo": true,
      "point": "{0.56353201548771659, 0.012468781974507912}"
    },
    {
      "_class": "curvePoint",
      "cornerRadius": 0,
      "curveFrom": "{0.89379027715561787, 0.23315449253678247}",
      "curveMode": 4,
      "curveTo": "{0.79809641236711026, 0.091315794907390307}",
      "hasCurveFrom": true,
      "hasCurveTo": true,
      "point": "{0.89468618745814277, 0.23809521740011644}"
    },
    {
      "_class": "curvePoint",
      "cornerRadius": 0,
      "curveFrom": "{0.90085111478739865, 0.22808078750114252}",
      "curveMode": 4,
      "curveTo": "{0.89528493939299858, 0.23157918895716803}",
      "hasCurveFrom": true,
      "hasCurveTo": true,
      "point": "{0.89694813921204242, 0.23025961647814119}"
    },
    {
      "_class": "curvePoint",
      "cornerRadius": 0,
      "curveFrom": "{0.90977917141602627, 0.22916508736762994}",
      "curveMode": 4,
      "curveTo": "{0.90474078476420261, 0.22591218776816765}",
      "hasCurveFrom": true,
      "hasCurveTo": true,
      "point": "{0.9086215843419716, 0.22374358803519279}"
    },
    {
      "_class": "curvePoint",
      "cornerRadius": 0,
      "curveFrom": "{0.90258527779872177, 0.23421833391522287}",
      "curveMode": 4,
      "curveTo": "{0.90816475879167413, 0.23069947397115034}",
      "hasCurveFrom": true,
      "hasCurveTo": true,
      "point": "{0.9064261605808337, 0.23207019267029447}"
    },
    {
      "_class": "curvePoint",
      "cornerRadius": 0,
      "curveFrom": "{0.90063822521056103, 0.24714809836088511}",
      "curveMode": 4,
      "curveTo": "{0.8987665710141971, 0.23634601667210367}",
      "hasCurveFrom": true,
      "hasCurveTo": true,
      "point": "{0.89493899383063757, 0.2384839286730083}"
    },
    {
      "_class": "curvePoint",
      "cornerRadius": 0,
      "curveFrom": "{0.91419663013540664, 0.2638217661191361}",
      "curveMode": 4,
      "curveTo": "{0.90627092859772307, 0.25604754066130136}",
      "hasCurveFrom": true,
      "hasCurveTo": true,
      "point": "{0.91183710399212314, 0.26516179708620996}"
    },
    {
      "_class": "curvePoint",
      "cornerRadius": 0,
      "curveFrom": "{0.91742545538411047, 0.25312197687058979}",
      "curveMode": 4,
      "curveTo": "{0.91624125711295124, 0.26204187765905251}",
      "hasCurveFrom": true,
      "hasCurveTo": true,
      "point": "{0.91508810523841422, 0.25576112182864408}"
    },
    {
      "_class": "curvePoint",
      "cornerRadius": 0,
      "curveFrom": "{0.91984707432063828, 0.2663074724168385}",
      "curveMode": 4,
      "curveTo": "{0.9181173465088327, 0.25685565093915474}",
      "hasCurveFrom": true,
      "hasCurveTo": true,
      "point": "{0.91871166324417119, 0.26086551459635371}"
    },
    {
      "_class": "curvePoint",
      "cornerRadius": 0,
      "curveFrom": "{0.9157711259641016, 0.26926372393962028}",
      "curveMode": 4,
      "curveTo": "{0.91824153209532122, 0.26785208826438206}",
      "hasCurveFrom": true,
      "hasCurveTo": true,
      "point": "{0.91650293388448067, 0.26921257771950297}"
    },
    {
      "_class": "curvePoint",
      "cornerRadius": 0,
      "curveFrom": "{0.93013230200160557, 0.29545058863969553}",
      "curveMode": 4,
      "curveTo": "{0.91529212441621688, 0.26966266445653536}",
      "hasCurveFrom": true,
      "hasCurveTo": true,
      "point": "{0.91493287325530337, 0.27022527287782611}"
    },
    {
      "_class": "curvePoint",
      "cornerRadius": 0,
      "curveFrom": "{0.96143150499625218, 0.34819257082469079}",
      "curveMode": 4,
      "curveTo": "{0.94485272920002294, 0.32226143722520201}",
      "hasCurveFrom": true,
      "hasCurveTo": true,
      "point": "{0.95898327486261969, 0.3507498818305575}"
    },
    {
      "_class": "curvePoint",
      "cornerRadius": 0,
      "curveFrom": "{0.97086073917035165, 0.35202853733349088}",
      "curveMode": 4,
      "curveTo": "{0.96739241314770552, 0.35621229813908872}",
      "hasCurveFrom": true,
      "hasCurveTo": true,
      "point": "{0.9709317023626306, 0.34550227964651864}"
    },
    {
      "_class": "curvePoint",
      "cornerRadius": 0,
      "curveFrom": "{0.96670939242201792, 0.36373079249633705}",
      "curveMode": 4,
      "curveTo": "{0.97081638717517715, 0.35863662897265064}",
      "hasCurveFrom": true,
      "hasCurveTo": true,
      "point": "{0.96817300826277675, 0.36302497465871764}"
    },
    {
      "_class": "curvePoint",
      "cornerRadius": 0,
      "curveFrom": "{0.96660738283311676, 0.36657452233486043}",
      "curveMode": 4,
      "curveTo": "{0.96557841654506815, 0.36226801060098096}",
      "hasCurveFrom": true,
      "hasCurveTo": true,
      "point": "{0.96430107908404272, 0.36179746537590157}"
    },
    {
      "_class": "curvePoint",
      "cornerRadius": 0,
      "curveFrom": "{0.9720804190376503, 0.37567854951574642}",
      "curveMode": 4,
      "curveTo": "{0.96893586257977804, 0.37131066231772586}",
      "hasCurveFrom": true,
      "hasCurveTo": true,
      "point": "{0.97121111993223019, 0.37616955322887285}"
    },
    {
      "_class": "curvePoint",
      "cornerRadius": 0,
      "curveFrom": "{0.97435567639010245, 0.37828700674173044}",
      "curveMode": 4,
      "curveTo": "{0.97294084774403577, 0.3751977750466432}",
      "hasCurveFrom": true,
      "hasCurveTo": true,
      "point": "{0.97380571164993857, 0.37471700057754059}"
    },
    {
      "_class": "curvePoint",
      "cornerRadius": 0,
      "curveFrom": "{0.97725629687451498, 0.38125348750853544}",
      "curveMode": 4,
      "curveTo": "{0.9749455579259233, 0.38160128180533381}",
      "hasCurveFrom": true,
      "hasCurveTo": true,
      "point": "{0.97704340729767736, 0.37925878492395948}"
    },
    {
      "_class": "curvePoint",
      "cornerRadius": 0,
      "curveFrom": "{0.98450784808554614, 0.37621047020496634}",
      "curveMode": 4,
      "curveTo": "{0.97746918645135261, 0.38326864858115844}",
      "hasCurveFrom": true,
      "hasCurveTo": true,
      "point": "{0.97767320562915527, 0.38527358040975823}"
    },
    {
      "_class": "curvePoint",
      "cornerRadius": 0,
      "curveFrom": "{0.99128926814772766, 0.38959032138766092}",
      "curveMode": 4,
      "curveTo": "{0.98530618399868719, 0.38994834492848252}",
      "hasCurveFrom": true,
      "hasCurveTo": true,
      "point": "{0.99131144414531491, 0.38399492490682485}"
    },
    {
      "_class": "curvePoint",
      "cornerRadius": 0,
      "curveFrom": "{0.98619322390217723, 0.39316032755185137}",
      "curveMode": 4,
      "curveTo": "{0.98980791150889924, 0.39143158531188504}",
      "hasCurveFrom": true,
      "hasCurveTo": true,
      "point": "{0.98673431824330626, 0.39289436720724108}"
    },
    {
      "_class": "curvePoint",
      "cornerRadius": 0,
      "curveFrom": "{0.98555011997214703, 0.39621887151486773}",
      "curveMode": 4,
      "curveTo": "{0.98582066714271144, 0.39311941057575728}",
      "hasCurveFrom": true,
      "hasCurveTo": true,
      "point": "{0.98550576797697231, 0.39297620115942866}"
    },
    {
      "_class": "curvePoint",
      "cornerRadius": 0,
      "curveFrom": "{0.98110605005566176, 0.39833632502772531}",
      "curveMode": 2,
      "curveTo": "{0.98397118894393476, 0.4007504266172634}",
      "hasCurveFrom": true,
      "hasCurveTo": true,
      "point": "{0.98311519543706671, 0.40003437953562077}"
    },
    {
      "_class": "curvePoint",
      "cornerRadius": 0,
      "curveFrom": "{0.98414859692463263, 0.38934481953109773}",
      "curveMode": 4,
      "curveTo": "{0.98307084344189222, 0.39081783067047698}",
      "hasCurveFrom": true,
      "hasCurveTo": true,
      "point": "{0.98432156970581308, 0.3902347637611398}"
    },
    {
      "_class": "curvePoint",
      "cornerRadius": 0,
      "curveFrom": "{0.98138990282477845, 0.38753424333894443}",
      "curveMode": 2,
      "curveTo": "{0.98396231854489979, 0.38853670925324435}",
      "hasCurveFrom": true,
      "hasCurveTo": true,
      "point": "{0.98350549299460244, 0.38836281210484486}"
    },
    {
      "_class": "curvePoint",
      "cornerRadius": 0,
      "curveFrom": "{0.97745144565328268, 0.38539633133803985}",
      "curveMode": 4,
      "curveTo": "{0.97832074475870312, 0.39155433624016667}",
      "hasCurveFrom": true,
      "hasCurveTo": true,
      "point": "{0.97767320562915527, 0.38527358040975823}"
    },
    {
      "_class": "curvePoint",
      "cornerRadius": 0,
      "curveFrom": "{0.97701236090105514, 0.38648063120452725}",
      "curveMode": 4,
      "curveTo": "{0.9772163800788578, 0.3855293115103447}",
      "hasCurveFrom": true,
      "hasCurveTo": true,
      "point": "{0.97698574970395036, 0.38565206243862626}"
    },
    {
      "_class": "curvePoint",
      "cornerRadius": 0,
      "curveFrom": "{0.97773086322288205, 0.39040866090953869}",
      "curveMode": 4,
      "curveTo": "{0.97691922171118861, 0.38737057543456876}",
      "hasCurveFrom": true,
      "hasCurveTo": true,
      "point": "{0.97676398972807799, 0.38826051966461028}"
    },
    {
      "_class": "curvePoint",
      "cornerRadius": 0,
      "curveFrom": "{0.98009482456568309, 0.39432646137052635}",
      "curveMode": 4,
      "curveTo": "{0.97870217191720366, 0.39256703139848975}",
      "hasCurveFrom": true,
      "hasCurveTo": true,
      "point": "{0.9796779158110428, 0.39472540188744143}"
    },
    {
      "_class": "curvePoint",
      "cornerRadius": 0,
      "curveFrom": "{0.98125241163973775, 0.39521640560056781}",
      "curveMode": 4,
      "curveTo": "{0.98044520532756174, 0.39387637463349395}",
      "hasCurveFrom": true,
      "hasCurveTo": true,
      "point": "{0.98061374290922487, 0.39327284923610917}"
    },
    {
      "_class": "curvePoint",
      "cornerRadius": 0,
      "curveFrom": "{0.98752821895692977, 0.41222763841159338}",
      "curveMode": 4,
      "curveTo": "{0.98130563403394711, 0.39665872900787685}",
      "hasCurveFrom": true,
      "hasCurveTo": true,
      "point": "{0.98111492045469673, 0.39790669677873997}"
    },
    {
      "_class": "curvePoint",
      "cornerRadius": 0,
      "curveFrom": "{1, 0.44177992439538927}",
      "curveMode": 4,
      "curveTo": "{0.99385724866833136, 0.42677362341296354}",
      "hasCurveFrom": false,
      "hasCurveTo": true,
      "point": "{1, 0.44177992439538927}"
    },
    {
      "_class": "curvePoint",
      "cornerRadius": 0,
      "curveFrom": "{0.94583734349289705, 0.37061507372413027}",
      "curveMode": 4,
      "curveTo": "{0.98055608531549787, 0.45263315230428741}",
      "hasCurveFrom": true,
      "hasCurveTo": false,
      "point": "{0.98055608531549787, 0.45263315230428741}"
    },
    {
      "_class": "curvePoint",
      "cornerRadius": 0,
      "curveFrom": "{0.86466432192452169, 0.24282112813895862}",
      "curveMode": 4,
      "curveTo": "{0.90672331894850289, 0.2995320570050588}",
      "hasCurveFrom": true,
      "hasCurveTo": true,
      "point": "{0.86435829315781754, 0.24094917648266426}"
    },
    {
      "_class": "curvePoint",
      "cornerRadius": 0,
      "curveFrom": "{0.85536814373594594, 0.25238547130090017}",
      "curveMode": 4,
      "curveTo": "{0.86488164670087697, 0.24503064484802695}",
      "hasCurveFrom": true,
      "hasCurveTo": true,
      "point": "{0.86485060030425476, 0.24818125200725527}"
    },
    {
      "_class": "curvePoint",
      "cornerRadius": 0,
      "curveFrom": "{0.87514469838425679, 0.27987144999195518}",
      "curveMode": 4,
      "curveTo": "{0.8614088854787133, 0.25383802395223243}",
      "hasCurveFrom": true,
      "hasCurveTo": true,
      "point": "{0.86344907725674036, 0.26341259635819719}"
    },
    {
      "_class": "curvePoint",
      "cornerRadius": 0,
      "curveFrom": "{0.89895728459344748, 0.31489638152830618}",
      "curveMode": 4,
      "curveTo": "{0.88661412433638331, 0.29718956012368503}",
      "hasCurveFrom": true,
      "hasCurveTo": true,
      "point": "{0.89777752152180568, 0.31555105314580767}"
    },
    {
      "_class": "curvePoint",
      "cornerRadius": 0,
      "curveFrom": "{0.90207079465469764, 0.31715704445749238}",
      "curveMode": 4,
      "curveTo": "{0.90014148286460671, 0.3142314806667808}",
      "hasCurveFrom": true,
      "hasCurveTo": true,
      "point": "{0.90132568113576594, 0.31357680904927876}"
    },
    {
      "_class": "curvePoint",
      "cornerRadius": 0,
      "curveFrom": "{0.92539994411648607, 0.36149058805519785}",
      "curveMode": 4,
      "curveTo": "{0.90148091311887657, 0.31883464047734084}",
      "hasCurveFrom": true,
      "hasCurveTo": true,
      "point": "{0.90049629882600268, 0.31999054505199254}"
    },
    {
      "_class": "curvePoint",
      "cornerRadius": 0,
      "curveFrom": "{0.97069220158868841, 0.45813648558891273}",
      "curveMode": 4,
      "curveTo": "{0.94891093675849003, 0.4076244786010334}",
      "hasCurveFrom": false,
      "hasCurveTo": true,
      "point": "{0.97069220158868841, 0.45813648558891273}"
    },
    {
      "_class": "curvePoint",
      "cornerRadius": 0,
      "curveFrom": "{0.95171841805303603, 0.47048318312523718}",
      "curveMode": 4,
      "curveTo": "{0.95236595718258377, 0.4683657296123796}",
      "hasCurveFrom": true,
      "hasCurveTo": false,
      "point": "{0.95236595718258377, 0.4683657296123796}"
    },
    {
      "_class": "curvePoint",
      "cornerRadius": 0,
      "curveFrom": "{0.94978467106342779, 0.47101510381445766}",
      "curveMode": 4,
      "curveTo": "{0.95061405337319105, 0.47216077914508559}",
      "hasCurveFrom": true,
      "hasCurveTo": true,
      "point": "{0.95007295903206201, 0.47140381508734952}"
    },
    {
      "_class": "curvePoint",
      "cornerRadius": 0,
      "curveFrom": "{0.94957178148659016, 0.46993080394797021}",
      "curveMode": 4,
      "curveTo": "{0.94964717987838676, 0.47049341236926095}",
      "hasCurveFrom": false,
      "hasCurveTo": true,
      "point": "{0.94957178148659016, 0.46993080394797021}"
    },
    {
      "_class": "curvePoint",
      "cornerRadius": 0,
      "curveFrom": "{0.86103189351972986, 0.52417648500441505}",
      "curveMode": 4,
      "curveTo": "{0.86116494950525346, 0.51927667711717396}",
      "hasCurveFrom": true,
      "hasCurveTo": false,
      "point": "{0.86116494950525346, 0.51927667711717396}"
    },
    {
      "_class": "curvePoint",
      "cornerRadius": 0,
      "curveFrom": "{0.86040209518825195, 0.53283042544826809}",
      "curveMode": 4,
      "curveTo": "{0.86074360555109564, 0.52894331271935069}",
      "hasCurveFrom": true,
      "hasCurveTo": true,
      "point": "{0.86002066802975141, 0.53335211689346473}"
    },
    {
      "_class": "curvePoint",
      "cornerRadius": 0,
      "curveFrom": "{0.86268178774022142, 0.53529567325792349}",
      "curveMode": 2,
      "curveTo": "{0.86076578154868288, 0.53260538207975194}",
      "hasCurveFrom": true,
      "hasCurveTo": true,
      "point": "{0.8610052823226253, 0.53294294713252588}"
    },
    {
      "_class": "curvePoint",
      "cornerRadius": 0,
      "curveFrom": "{0.85884534015762692, 0.54010341794895256}",
      "curveMode": 2,
      "curveTo": "{0.85994526963795481, 0.54164803379649618}",
      "hasCurveFrom": true,
      "hasCurveTo": true,
      "point": "{0.85904492413591227, 0.54037960753758663}"
    },
    {
      "_class": "curvePoint",
      "cornerRadius": 0,
      "curveFrom": "{0.85712891794437363, 0.54412351085017541}",
      "curveMode": 4,
      "curveTo": "{0.85871228417210355, 0.53975562365215479}",
      "hasCurveFrom": true,
      "hasCurveTo": true,
      "point": "{0.85862801538127187, 0.53938737086730992}"
    },
    {
      "_class": "curvePoint",
      "cornerRadius": 0,
      "curveFrom": "{0.85180224332391596, 0.55470054917043998}",
      "curveMode": 4,
      "curveTo": "{0.85476052140205516, 0.54812314526335115}",
      "hasCurveFrom": true,
      "hasCurveTo": true,
      "point": "{0.85080875863200711, 0.55080320719749942}"
    },
    {
      "_class": "curvePoint",
      "cornerRadius": 0,
      "curveFrom": "{0.85573183009637677, 0.55865926660752174}",
      "curveMode": 4,
      "curveTo": "{0.8528533856095516, 0.55828078457865371}",
      "hasCurveFrom": true,
      "hasCurveTo": true,
      "point": "{0.85507542056779429, 0.55437321336168921}"
    },
    {
      "_class": "curvePoint",
      "cornerRadius": 0,
      "curveFrom": "{0.84262581552231119, 0.57741970014655997}",
      "curveMode": 4,
      "curveTo": "{0.85625518363943587, 0.56277142270495528}",
      "hasCurveFrom": true,
      "hasCurveTo": true,
      "point": "{0.85351866553716926, 0.56421374611226427}"
    },
    {
      "_class": "curvePoint",
      "cornerRadius": 0,
      "curveFrom": "{0.8498064035410634, 0.54817429148346841}",
      "curveMode": 4,
      "curveTo": "{0.85136759377120574, 0.55988677589033775}",
      "hasCurveFrom": true,
      "hasCurveTo": true,
      "point": "{0.84654653189573736, 0.5472434302773328}"
    },
    {
      "_class": "curvePoint",
      "cornerRadius": 0,
      "curveFrom": "{0.84941167078401036, 0.53402724699901327}",
      "curveMode": 2,
      "curveTo": "{0.84773516536641391, 0.53830307100082253}",
      "hasCurveFrom": true,
      "hasCurveTo": true,
      "point": "{0.84808998132781011, 0.53741312677078101}"
    },
    {
      "_class": "curvePoint",
      "cornerRadius": 0,
      "curveFrom": "{0.85419281586382168, 0.53045724083482348}",
      "curveMode": 2,
      "curveTo": "{0.85254292164333001, 0.5344466460039754}",
      "hasCurveFrom": true,
      "hasCurveTo": true,
      "point": "{0.85390896309470476, 0.53113237094037258}"
    },
    {
      "_class": "curvePoint",
      "cornerRadius": 0,
      "curveFrom": "{0.85257396803995222, 0.52428900668867284}",
      "curveMode": 4,
      "curveTo": "{0.85238768966021949, 0.52541422353125433}",
      "hasCurveFrom": true,
      "hasCurveTo": true,
      "point": "{0.85255179204236498, 0.52446290383707173}"
    },
    {
      "_class": "curvePoint",
      "cornerRadius": 0,
      "curveFrom": "{0.85270258882595829, 0.52400258785601617}",
      "curveMode": 4,
      "curveTo": "{0.85266267203030111, 0.52416625576039122}",
      "hasCurveFrom": false,
      "hasCurveTo": true,
      "point": "{0.85270258882595829, 0.52400258785601617}"
    },
    {
      "_class": "curvePoint",
      "cornerRadius": 0,
      "curveFrom": "{0.71175194816138809, 0.60528416086648362}",
      "curveMode": 4,
      "curveTo": "{0.71319338800455934, 0.60187782260666955}",
      "hasCurveFrom": true,
      "hasCurveTo": false,
      "point": "{0.71319338800455934, 0.60187782260666955}"
    },
    {
      "_class": "curvePoint",
      "cornerRadius": 0,
      "curveFrom": "{0.70770261100195597, 0.61603509633514719}",
      "curveMode": 4,
      "curveTo": "{0.71199144893533028, 0.61006121782544254}",
      "hasCurveFrom": true,
      "hasCurveTo": true,
      "point": "{0.70957870039783744, 0.61264921656338012}"
    },
    {
      "_class": "curvePoint",
      "cornerRadius": 0,
      "curveFrom": "{0.7031831426936741, 0.62547668856880723}",
      "curveMode": 4,
      "curveTo": "{0.70821709414598011, 0.62139522020344384}",
      "hasCurveFrom": true,
      "hasCurveTo": true,
      "point": "{0.70561363202923688, 0.62420826230989768}"
    },
    {
      "_class": "curvePoint",
      "cornerRadius": 0,
      "curveFrom": "{0.7022428803959746, 0.63644243816196366}",
      "curveMode": 4,
      "curveTo": "{0.70363553304445392, 0.62916944566127919}",
      "hasCurveFrom": true,
      "hasCurveTo": true,
      "point": "{0.70423428497930984, 0.63296449519398523}"
    },
    {
      "_class": "curvePoint",
      "cornerRadius": 0,
      "curveFrom": "{0.69892535115692189, 0.62521072822419754}",
      "curveMode": 4,
      "curveTo": "{0.70131592369682749, 0.63326114327066574}",
      "hasCurveFrom": true,
      "hasCurveTo": true,
      "point": "{0.7004377541923722, 0.6297627418146402}"
    },
    {
      "_class": "curvePoint",
      "cornerRadius": 0,
      "curveFrom": "{0.70030913340636614, 0.61644426609608616}",
      "curveMode": 4,
      "curveTo": "{0.70029139260829654, 0.62305235773524592}",
      "hasCurveFrom": true,
      "hasCurveTo": true,
      "point": "{0.70180823084326449, 0.62101673817457581}"
    },
    {
      "_class": "curvePoint",
      "cornerRadius": 0,
      "curveFrom": "{0.7039770434072975, 0.6110636837397424}",
      "curveMode": 4,
      "curveTo": "{0.70167961005725843, 0.61430635409518153}",
      "hasCurveFrom": true,
      "hasCurveTo": true,
      "point": "{0.70318757789319142, 0.61224004680244126}"
    },
    {
      "_class": "curvePoint",
      "cornerRadius": 0,
      "curveFrom": "{0.70647849593513956, 0.60830178785340661}",
      "curveMode": 2,
      "curveTo": "{0.70502375049341603, 0.61072611868696847}",
      "hasCurveFrom": true,
      "hasCurveTo": true,
      "point": "{0.70578216961090001, 0.60945769242805836}"
    },
    {
      "_class": "curvePoint",
      "cornerRadius": 0,
      "curveFrom": "{0.70714377586275701, 0.60526370237843663}",
      "curveMode": 4,
      "curveTo": "{0.70683774709605318, 0.60680831822598025}",
      "hasCurveFrom": false,
      "hasCurveTo": true,
      "point": "{0.70714377586275701, 0.60526370237843663}"
    },
    {
      "_class": "curvePoint",
      "cornerRadius": 0,
      "curveFrom": "{0.50600747774638644, 0.71779561588059615}",
      "curveMode": 4,
      "curveTo": "{0.50602521854445637, 0.71752965553598591}",
      "hasCurveFrom": true,
      "hasCurveTo": false,
      "point": "{0.50602521854445637, 0.71752965553598591}"
    },
    {
      "_class": "curvePoint",
      "cornerRadius": 0,
      "curveFrom": "{0.50586998656134541, 0.7189719789432949}",
      "curveMode": 4,
      "curveTo": "{0.50607400573914807, 0.71818432715348801}",
      "hasCurveFrom": true,
      "hasCurveTo": true,
      "point": "{0.50602078334493872, 0.71839914127798032}"
    },
    {
      "_class": "curvePoint",
      "cornerRadius": 0,
      "curveFrom": "{0.50064532152978902, 0.72107920321212871}",
      "curveMode": 4,
      "curveTo": "{0.50105335988539434, 0.72166227012146644}",
      "hasCurveFrom": true,
      "hasCurveTo": true,
      "point": "{0.50080498871241719, 0.72130424658064485}"
    },
    {
      "_class": "curvePoint",
      "cornerRadius": 0,
      "curveFrom": "{0.50047678394812589, 0.72062911647509631}",
      "curveMode": 4,
      "curveTo": "{0.50058322873654471, 0.72085415984361245}",
      "hasCurveFrom": false,
      "hasCurveTo": true,
      "point": "{0.50047678394812589, 0.72062911647509631}"
    },
    {
      "_class": "curvePoint",
      "cornerRadius": 0,
      "curveFrom": "{0.1872452532277164, 0.89820879272248144}",
      "curveMode": 4,
      "curveTo": "{0.18760450438862983, 0.8952729996877461}",
      "hasCurveFrom": true,
      "hasCurveTo": false,
      "point": "{0.18760450438862983, 0.8952729996877461}"
    },
    {
      "_class": "curvePoint",
      "cornerRadius": 0,
      "curveFrom": "{0.18456639271917638, 0.90005005664670557}",
      "curveMode": 2,
      "curveTo": "{0.18602557336041756, 0.90129802441756812}",
      "hasCurveFrom": true,
      "hasCurveTo": true,
      "point": "{0.18531150623810805, 0.90068426977616001}"
    },
    {
      "_class": "curvePoint",
      "cornerRadius": 0,
      "curveFrom": "{0.18449542952689721, 0.89701197117173559}",
      "curveMode": 4,
      "curveTo": "{0.1843889847384784, 0.89860773323939658}",
      "hasCurveFrom": false,
      "hasCurveTo": true,
      "point": "{0.18449542952689721, 0.89701197117173559}"
    },
    {
      "_class": "curvePoint",
      "cornerRadius": 0,
      "curveFrom": "{0.081940311084894135, 0.95472536595213575}",
      "curveMode": 4,
      "curveTo": "{0.081891523890202197, 0.95428550845912663}",
      "hasCurveFrom": true,
      "hasCurveTo": false,
      "point": "{0.081891523890202197, 0.95428550845912663}"
    },
    {
      "_class": "curvePoint",
      "cornerRadius": 0,
      "curveFrom": "{0.081660893515294694, 0.95505270176088708}",
      "curveMode": 4,
      "curveTo": "{0.081989098279586059, 0.95507316024893352}",
      "hasCurveFrom": true,
      "hasCurveTo": true,
      "point": "{0.082037885474277997, 0.95507316024893352}"
    },
    {
      "_class": "curvePoint",
      "cornerRadius": 0,
      "curveFrom": "{0.081022224784781952, 0.95477651217225301}",
      "curveMode": 4,
      "curveTo": "{0.08133268875100344, 0.95491972158858163}",
      "hasCurveFrom": false,
      "hasCurveTo": true,
      "point": "{0.081022224784781952, 0.95477651217225301}"
    },
    {
      "_class": "curvePoint",
      "cornerRadius": 0,
      "curveFrom": "{0.035907375293277456, 0.93566828433641691}",
      "curveMode": 4,
      "curveTo": "{0.029294492812759136, 0.98364343880647653}",
      "hasCurveFrom": true,
      "hasCurveTo": false,
      "point": "{0.029294492812759136, 0.98364343880647653}"
    },
    {
      "_class": "curvePoint",
      "cornerRadius": 0,
      "curveFrom": "{0.049665364196408282, 0.84254124674677466}",
      "curveMode": 4,
      "curveTo": "{0.043722196843024877, 0.88872628351272742}",
      "hasCurveFrom": true,
      "hasCurveTo": true,
      "point": "{0.052641383072617523, 0.84299133348380695}"
    },
    {
      "_class": "curvePoint",
      "cornerRadius": 0,
      "curveFrom": "{0.035091298582066617, 0.8841026652141204}",
      "curveMode": 4,
      "curveTo": "{0.047106254074839475, 0.83946224429571126}",
      "hasCurveFrom": true,
      "hasCurveTo": true,
      "point": "{0.044972923106945908, 0.83366226293440537}"
    },
    {
      "_class": "curvePoint",
      "cornerRadius": 0,
      "curveFrom": "{0.019430609085949731, 0.98915700133512507}",
      "curveMode": 4,
      "curveTo": "{0.026522493114352706, 0.93600584938919151}",
      "hasCurveFrom": false,
      "hasCurveTo": true,
      "point": "{0.019430609085949731, 0.98915700133512507}"
    },
    {
      "_class": "curvePoint",
      "cornerRadius": 0,
      "curveFrom": "{0.011793195516900291, 0.90593187196019886}",
      "curveMode": 4,
      "curveTo": "{0, 1}",
      "hasCurveFrom": true,
      "hasCurveTo": false,
      "point": "{0, 1}"
    },
    {
      "_class": "curvePoint",
      "cornerRadius": 0,
      "curveFrom": "{0.047571950024171833, 0.72769752409531163}",
      "curveMode": 4,
      "curveTo": "{0.027972803356558943, 0.8154235208405638}",
      "hasCurveFrom": true,
      "hasCurveTo": true,
      "point": "{0.048006599576881893, 0.72982520685219299}"
    },
    {
      "_class": "curvePoint",
      "cornerRadius": 0,
      "curveFrom": "{0.049443604220535842, 0.72197937668619394}",
      "curveMode": 4,
      "curveTo": "{0.047137300471461648, 0.72558007058245411}",
      "hasCurveFrom": true,
      "hasCurveTo": true,
      "point": "{0.0467115213177864, 0.72345238782557331}"
    }
  ],
  "resizingConstraint": 63,
  "resizingType": 0,
  "rotation": 0,
  "shouldBreakMaskChain": false,
  "style": {
    "_class": "style",
    "do_objectID": "03B65299-53DF-4D61-96D0-0072DDDB81D5",
    "endMarkerType": 0,
    "fills": [
      {
        "_class": "fill",
        "color": {
          "_class": "color",
          "alpha": 1,
          "blue": 0.1764705882352941,
          "green": 0.1764705882352941,
          "red": 0.1764705882352941
        },
        "fillType": 0,
        "isEnabled": true,
        "noiseIndex": 0,
        "noiseIntensity": 0,
        "patternFillType": 1,
        "patternTileScale": 1
      }
    ],
    "miterLimit": 10,
    "startMarkerType": 0,
    "windingRule": 1
  }
}