{
  "_class": "shapePath",
  "booleanOperation": -1,
  "clippingMaskMode": 0,
  "do_objectID": "6E9870BD-D03F-4DA2-A05A-EB86894142DA",
  "edited": true,
  "exportOptions": {
    "_class": "exportOptions",
    "do_objectID": "3AB3C3D9-F173-403F-911C-ABAF6C417C78",
    "exportFormats": [
    ],
    "includedLayerIds": [
    ],
    "layerOptions": 0,
    "shouldTrim": false
  },
  "frame": {
    "_class": "rect",
    "constrainProportions": false,
    "do_objectID": "7BC47E63-BFA3-4CD6-B3CD-CAE1AC560F30",
    "height": 0.1181595471410937,
    "width": 0.1183475569240713,
    "x": 11.69100156119152,
    "y": 10.44708468690854
  },
  "hasClippingMask": false,
  "isClosed": true,
  "isFixedToViewport": false,
  "isFlippedHorizontal": false,
  "isFlippedVertical": false,
  "isLocked": false,
  "isVisible": true,
  "layerListExpandedType": 0,
  "name": "Path",
  "nameIsFixed": false,
  "pointRadiusBehaviour": 0,
  "points": [
    {
      "_class": "curvePoint",
      "cornerRadius": 0,
      "curveFrom": "{0.26748971193416682, 0.12971859986274686}",
      "curveMode": 4,
      "curveTo": "{0.06515775034293482, 0.46259437199724168}",
      "hasCurveFrom": true,
      "hasCurveTo": true,
      "point": "{0, 0.19492107069320044}"
    },
    {
      "_class": "curvePoint",
      "cornerRadius": 0,
      "curveFrom": "{0.87037037037037501, 0.26767330130404121}",
      "curveMode": 4,
      "curveTo": "{0.53703703703704819, 0.06520247083049259}",
      "hasCurveFrom": true,
      "hasCurveTo": true,
      "point": "{0.80521262002744021, 0}"
    },
    {
      "_class": "curvePoint",
      "cornerRadius": 0,
      "curveFrom": "{0.73113854595336325, 0.87028140013729216}",
      "curveMode": 4,
      "curveTo": "{0.93552812071330993, 0.53603294440632077}",
      "hasCurveFrom": true,
      "hasCurveTo": true,
      "point": "{1, 0.80507892930679958}"
    },
    {
      "_class": "curvePoint",
      "cornerRadius": 0,
      "curveFrom": "{0.12962962962962493, 0.73095401509952118}",
      "curveMode": 4,
      "curveTo": "{0.46227709190672656, 0.93548387096774566}",
      "hasCurveFrom": true,
      "hasCurveTo": true,
      "point": "{0.19478737997257925, 1}"
    }
  ],
  "resizingConstraint": 63,
  "resizingType": 0,
  "rotation": 0,
  "shouldBreakMaskChain": false,
  "style": {
    "_class": "style",
    "do_objectID": "E70AC5A8-A40C-46FD-8D52-75642187A8B7",
    "endMarkerType": 0,
    "fills": [
      {
        "_class": "fill",
        "color": {
          "_class": "color",
          "alpha": 1,
          "blue": 0.1764705882352941,
          "green": 0.1764705882352941,
          "red": 0.1764705882352941
        },
        "fillType": 0,
        "isEnabled": true,
        "noiseIndex": 0,
        "noiseIntensity": 0,
        "patternFillType": 1,
        "patternTileScale": 1
      }
    ],
    "miterLimit": 10,
    "startMarkerType": 0,
    "windingRule": 1
  }
}