{
  "_class": "shapePath",
  "booleanOperation": -1,
  "clippingMaskMode": 0,
  "do_objectID": "739CD32E-4B2A-409B-86ED-95C91A70A3F0",
  "edited": true,
  "exportOptions": {
    "_class": "exportOptions",
    "do_objectID": "07AB3C04-447D-4696-B877-AF3F70D368B7",
    "exportFormats": [
    ],
    "includedLayerIds": [
    ],
    "layerOptions": 0,
    "shouldTrim": false
  },
  "frame": {
    "_class": "rect",
    "constrainProportions": false,
    "do_objectID": "E669D7E5-F94C-4EFC-A6B6-74456EBA9D4F",
    "height": 0.105890603085566,
    "width": 0.1527430809467347,
    "x": 33.31922051697546,
    "y": 31.51862800033596
  },
  "hasClippingMask": false,
  "isClosed": true,
  "isFixedToViewport": false,
  "isFlippedHorizontal": false,
  "isFlippedVertical": false,
  "isLocked": false,
  "isVisible": true,
  "layerListExpandedType": 0,
  "name": "Path",
  "nameIsFixed": false,
  "pointRadiusBehaviour": 0,
  "points": [
    {
      "_class": "curvePoint",
      "cornerRadius": 0,
      "curveFrom": "{0.19184364997641565, 0.50485876442076616}",
      "curveMode": 4,
      "curveTo": "{0.67596986916899116, 2.1155640833191298}",
      "hasCurveFrom": true,
      "hasCurveTo": true,
      "point": "{0.3868758370715682, 0.4539235723553684}"
    },
    {
      "_class": "curvePoint",
      "cornerRadius": 0,
      "curveFrom": "{0.1939693413889069, -0.025636066147142755}",
      "curveMode": 4,
      "curveTo": "{0.0069084970905815184, 0.52888479841391223}",
      "hasCurveFrom": true,
      "hasCurveTo": true,
      "point": "{0, 0.026260167277956794}"
    },
    {
      "_class": "curvePoint",
      "cornerRadius": 0,
      "curveFrom": "{1.6086169763950795, -0.65031294996812339}",
      "curveMode": 4,
      "curveTo": "{0.37943591712787894, -0.050623141499990719}",
      "hasCurveFrom": true,
      "hasCurveTo": true,
      "point": "{0.3868758370715682, 0.4539235723553684}"
    }
  ],
  "resizingConstraint": 63,
  "resizingType": 0,
  "rotation": 0,
  "shouldBreakMaskChain": false,
  "style": {
    "_class": "style",
    "do_objectID": "AA3FD287-6EDD-4C20-A546-4A6E16B75DBB",
    "endMarkerType": 0,
    "fills": [
      {
        "_class": "fill",
        "color": {
          "_class": "color",
          "alpha": 1,
          "blue": 0.1764705882352941,
          "green": 0.1764705882352941,
          "red": 0.1764705882352941
        },
        "fillType": 0,
        "isEnabled": true,
        "noiseIndex": 0,
        "noiseIntensity": 0,
        "patternFillType": 1,
        "patternTileScale": 1
      }
    ],
    "miterLimit": 10,
    "startMarkerType": 0,
    "windingRule": 1
  }
}