{
  "_class": "shapePath",
  "booleanOperation": -1,
  "clippingMaskMode": 0,
  "do_objectID": "7A2C28A0-172D-49E1-BB38-E7CD41734CFF",
  "edited": true,
  "exportOptions": {
    "_class": "exportOptions",
    "do_objectID": "8E5A47E9-E888-4A67-ABFA-798957730BD7",
    "exportFormats": [
    ],
    "includedLayerIds": [
    ],
    "layerOptions": 0,
    "shouldTrim": false
  },
  "frame": {
    "_class": "rect",
    "constrainProportions": false,
    "do_objectID": "334F6929-F9C8-4532-A186-31F088C4EE47",
    "height": 0.1058906030855731,
    "width": 0.1059863482545627,
    "x": 10.9312816541968,
    "y": 26.45023556845649
  },
  "hasClippingMask": false,
  "isClosed": true,
  "isFixedToViewport": false,
  "isFlippedHorizontal": false,
  "isFlippedVertical": false,
  "isLocked": false,
  "isVisible": true,
  "layerListExpandedType": 0,
  "name": "Path",
  "nameIsFixed": false,
  "pointRadiusBehaviour": 0,
  "points": [
    {
      "_class": "curvePoint",
      "cornerRadius": 0,
      "curveFrom": "{-0.2565197269178725, 0.51658329633033873}",
      "curveMode": 3,
      "curveTo": "{0.31848027308211613, 0.86758329633033782}",
      "hasCurveFrom": true,
      "hasCurveTo": true,
      "point": "{0.1184802730821275, 0.74658329633035692}"
    },
    {
      "_class": "curvePoint",
      "cornerRadius": 0,
      "curveFrom": "{0.94148027308210658, 0.24558329633032372}",
      "curveMode": 4,
      "curveTo": "{0.36048027308211772, -0.10941670366963763}",
      "hasCurveFrom": true,
      "hasCurveTo": true,
      "point": "{0.56348027308212068, 0.016583296330338726}"
    }
  ],
  "resizingConstraint": 63,
  "resizingType": 0,
  "rotation": 0,
  "shouldBreakMaskChain": false,
  "style": {
    "_class": "style",
    "do_objectID": "5B4F5820-95C9-4EA8-B261-055EB8857E26",
    "endMarkerType": 0,
    "fills": [
      {
        "_class": "fill",
        "color": {
          "_class": "color",
          "alpha": 1,
          "blue": 0.1764705882352941,
          "green": 0.1764705882352941,
          "red": 0.1764705882352941
        },
        "fillType": 0,
        "isEnabled": true,
        "noiseIndex": 0,
        "noiseIntensity": 0,
        "patternFillType": 1,
        "patternTileScale": 1
      }
    ],
    "miterLimit": 10,
    "startMarkerType": 0,
    "windingRule": 1
  }
}