{
  "_class": "shapePath",
  "booleanOperation": -1,
  "clippingMaskMode": 0,
  "do_objectID": "7FD67951-1CC6-46AB-9A10-038012CC9D49",
  "edited": true,
  "exportOptions": {
    "_class": "exportOptions",
    "do_objectID": "ED2CB3B9-52D5-4918-8E43-D6926305D6D1",
    "exportFormats": [
    ],
    "includedLayerIds": [
    ],
    "layerOptions": 0,
    "shouldTrim": false
  },
  "frame": {
    "_class": "rect",
    "constrainProportions": false,
    "do_objectID": "AE2252CB-BCA2-40D4-8B1D-5BD051829911",
    "height": 0.1058906030855535,
    "width": 0.1073122854941992,
    "x": 22.24034361704398,
    "y": 14.43847688432998
  },
  "hasClippingMask": false,
  "isClosed": true,
  "isFixedToViewport": false,
  "isFlippedHorizontal": false,
  "isFlippedVertical": false,
  "isLocked": false,
  "isVisible": true,
  "layerListExpandedType": 0,
  "name": "Path",
  "nameIsFixed": false,
  "pointRadiusBehaviour": 0,
  "points": [
    {
      "_class": "curvePoint",
      "cornerRadius": 0,
      "curveFrom": "{0.083083809805437184, 0.25499188829554631}",
      "curveMode": 3,
      "curveTo": "{-0.05836325353861592, 0.76791787898223096}",
      "hasCurveFrom": true,
      "hasCurveTo": true,
      "point": "{0.0051744647549678236, 0.53450222738865882}"
    },
    {
      "_class": "curvePoint",
      "cornerRadius": 0,
      "curveFrom": "{1.1458277884063901, 0.439370638293819}",
      "curveMode": 4,
      "curveTo": "{0.76006307019536745, 0.25695336435931149}",
      "hasCurveFrom": true,
      "hasCurveTo": true,
      "point": "{0.88865130959905603, 0}"
    },
    {
      "_class": "curvePoint",
      "cornerRadius": 0,
      "curveFrom": "{0.48095095054858539, 1.2504409906798868}",
      "curveMode": 4,
      "curveTo": "{0.91134335184674298, 0.64532562499401003}",
      "hasCurveFrom": true,
      "hasCurveTo": true,
      "point": "{0.65189766881464872, 0.84049249334326981}"
    }
  ],
  "resizingConstraint": 63,
  "resizingType": 0,
  "rotation": 0,
  "shouldBreakMaskChain": false,
  "style": {
    "_class": "style",
    "do_objectID": "0A5CD4A8-99A7-4D80-9122-3FAB5DFE7F41",
    "endMarkerType": 0,
    "fills": [
      {
        "_class": "fill",
        "color": {
          "_class": "color",
          "alpha": 1,
          "blue": 0.1764705882352941,
          "green": 0.1764705882352941,
          "red": 0.1764705882352941
        },
        "fillType": 0,
        "isEnabled": true,
        "noiseIndex": 0,
        "noiseIntensity": 0,
        "patternFillType": 1,
        "patternTileScale": 1
      }
    ],
    "miterLimit": 10,
    "startMarkerType": 0,
    "windingRule": 1
  }
}