{
  "_class": "shapePath",
  "booleanOperation": -1,
  "clippingMaskMode": 0,
  "do_objectID": "801A7E71-1109-4969-8A30-B699274393B2",
  "edited": true,
  "exportOptions": {
    "_class": "exportOptions",
    "do_objectID": "6D059A04-484F-47E8-B57B-45AABD6B7B50",
    "exportFormats": [
    ],
    "includedLayerIds": [
    ],
    "layerOptions": 0,
    "shouldTrim": false
  },
  "frame": {
    "_class": "rect",
    "constrainProportions": false,
    "do_objectID": "99A23030-6E5C-4685-86E4-6B261FD1D850",
    "height": 0.1508765311099936,
    "width": 0.1695133022222208,
    "x": 29.27279569486419,
    "y": 31.69220370201097
  },
  "hasClippingMask": false,
  "isClosed": true,
  "isFixedToViewport": false,
  "isFlippedHorizontal": false,
  "isFlippedVertical": false,
  "isLocked": false,
  "isVisible": true,
  "layerListExpandedType": 0,
  "name": "Path",
  "nameIsFixed": false,
  "pointRadiusBehaviour": 0,
  "points": [
    {
      "_class": "curvePoint",
      "cornerRadius": 0,
      "curveFrom": "{0.71852207081452768, 0.32680685301036705}",
      "curveMode": 4,
      "curveTo": "{0.61796391880240098, 0.2875685301982786}",
      "hasCurveFrom": true,
      "hasCurveTo": true,
      "point": "{0.68596038349630151, 0.31444409376821603}"
    },
    {
      "_class": "curvePoint",
      "cornerRadius": 0,
      "curveFrom": "{1.1102200153188311, 0.36228259692269305}",
      "curveMode": 4,
      "curveTo": "{0.94693273038487824, 0.14190297564924276}",
      "hasCurveFrom": true,
      "hasCurveTo": true,
      "point": "{0.96512896741564613, 0.16824102794776372}"
    },
    {
      "_class": "curvePoint",
      "cornerRadius": 0,
      "curveFrom": "{0.6744680232663457, 1.2432635707450166}",
      "curveMode": 4,
      "curveTo": "{0.74246448796024611, 0.69768963027541808}",
      "hasCurveFrom": true,
      "hasCurveTo": true,
      "point": "{0.94645388204197478, 0.9422572587618151}"
    },
    {
      "_class": "curvePoint",
      "cornerRadius": 0,
      "curveFrom": "{0.61987931217406933, 0.044075924254683943}",
      "curveMode": 4,
      "curveTo": "{-0.77883669748007489, 0.28326844002709961}",
      "hasCurveFrom": true,
      "hasCurveTo": true,
      "point": "{0.55571363422347841, 0}"
    }
  ],
  "resizingConstraint": 63,
  "resizingType": 0,
  "rotation": 0,
  "shouldBreakMaskChain": false,
  "style": {
    "_class": "style",
    "do_objectID": "9EAEFBE6-37B6-480D-AFAD-1763BE6A95CE",
    "endMarkerType": 0,
    "fills": [
      {
        "_class": "fill",
        "color": {
          "_class": "color",
          "alpha": 1,
          "blue": 0.1764705882352941,
          "green": 0.1764705882352941,
          "red": 0.1764705882352941
        },
        "fillType": 0,
        "isEnabled": true,
        "noiseIndex": 0,
        "noiseIntensity": 0,
        "patternFillType": 1,
        "patternTileScale": 1
      }
    ],
    "miterLimit": 10,
    "startMarkerType": 0,
    "windingRule": 1
  }
}