{
  "_class": "shapePath",
  "booleanOperation": -1,
  "clippingMaskMode": 0,
  "do_objectID": "819FB21B-6ABD-4CD5-BECE-ED80259B79BF",
  "edited": true,
  "exportOptions": {
    "_class": "exportOptions",
    "do_objectID": "D63B3145-DDD8-438F-A836-9CFC4A53C41A",
    "exportFormats": [
    ],
    "includedLayerIds": [
    ],
    "layerOptions": 0,
    "shouldTrim": false
  },
  "frame": {
    "_class": "rect",
    "constrainProportions": false,
    "do_objectID": "C317A65D-AACB-4FB7-9258-3DA64A5E4AF9",
    "height": 0.1806859787442334,
    "width": 0.2029043558142725,
    "x": 26.61650011918482,
    "y": 1.422760783532353
  },
  "hasClippingMask": false,
  "isClosed": true,
  "isFixedToViewport": false,
  "isFlippedHorizontal": false,
  "isFlippedVertical": false,
  "isLocked": false,
  "isVisible": true,
  "layerListExpandedType": 0,
  "name": "Path",
  "nameIsFixed": false,
  "pointRadiusBehaviour": 0,
  "points": [
    {
      "_class": "curvePoint",
      "cornerRadius": 0,
      "curveFrom": "{0.46811120679042667, 0.27468581687610594}",
      "curveMode": 4,
      "curveTo": "{0.05246296245562055, 0.51166965888688598}",
      "hasCurveFrom": true,
      "hasCurveTo": true,
      "point": "{0.20488065359282107, 0.41247755834828509}"
    },
    {
      "_class": "curvePoint",
      "cornerRadius": 0,
      "curveFrom": "{1.0425778851973371, 0.26391382405743408}",
      "curveMode": 4,
      "curveTo": "{0.73054166712116642, 0.13689407540395226}",
      "hasCurveFrom": true,
      "hasCurveTo": true,
      "point": "{0.99097189528473029, 0}"
    },
    {
      "_class": "curvePoint",
      "cornerRadius": 0,
      "curveFrom": "{0.80014974653815207, 0.81642728904845285}",
      "curveMode": 4,
      "curveTo": "{0.85055559715044882, 0.43087971274684733}",
      "hasCurveFrom": true,
      "hasCurveTo": true,
      "point": "{0.97537008438092621, 0.7244165170556417}"
    },
    {
      "_class": "curvePoint",
      "cornerRadius": 0,
      "curveFrom": "{0.39530275590597774, 0.72531418312386853}",
      "curveMode": 4,
      "curveTo": "{0.62572950156224372, 0.90843806104128955}",
      "hasCurveFrom": true,
      "hasCurveTo": true,
      "point": "{0.45010911728602521, 1}"
    },
    {
      "_class": "curvePoint",
      "cornerRadius": 0,
      "curveFrom": "{-0.086353149944951926, 0.61849192100537731}",
      "curveMode": 4,
      "curveTo": "{0.23368399679985433, 0.77648114901254695}",
      "hasCurveFrom": true,
      "hasCurveTo": true,
      "point": "{0.066064541192271342, 0.84380610412925861}"
    }
  ],
  "resizingConstraint": 63,
  "resizingType": 0,
  "rotation": 0,
  "shouldBreakMaskChain": false,
  "style": {
    "_class": "style",
    "do_objectID": "5E23F4A5-AEE9-4912-A8CD-D1BBD5B3FD48",
    "endMarkerType": 0,
    "fills": [
      {
        "_class": "fill",
        "color": {
          "_class": "color",
          "alpha": 1,
          "blue": 0.1764705882352941,
          "green": 0.1764705882352941,
          "red": 0.1764705882352941
        },
        "fillType": 0,
        "isEnabled": true,
        "noiseIndex": 0,
        "noiseIntensity": 0,
        "patternFillType": 1,
        "patternTileScale": 1
      }
    ],
    "miterLimit": 10,
    "startMarkerType": 0,
    "windingRule": 1
  }
}