{
  "_class": "shapePath",
  "booleanOperation": -1,
  "clippingMaskMode": 0,
  "do_objectID": "82877C67-4BD9-4D09-8189-A345B42B74AD",
  "edited": true,
  "exportOptions": {
    "_class": "exportOptions",
    "do_objectID": "65B1500F-4247-4333-80F8-0A724FDAF344",
    "exportFormats": [
    ],
    "includedLayerIds": [
    ],
    "layerOptions": 0,
    "shouldTrim": false
  },
  "frame": {
    "_class": "rect",
    "constrainProportions": false,
    "do_objectID": "642FC60C-81F5-454C-9947-8C270D0F8DAC",
    "height": 0.119766985526029,
    "width": 0.1059863482545618,
    "x": 6.872276232022632,
    "y": 10.05337181332811
  },
  "hasClippingMask": false,
  "isClosed": true,
  "isFixedToViewport": false,
  "isFlippedHorizontal": false,
  "isFlippedVertical": false,
  "isLocked": false,
  "isVisible": true,
  "layerListExpandedType": 0,
  "name": "Path",
  "nameIsFixed": false,
  "pointRadiusBehaviour": 0,
  "points": [
    {
      "_class": "curvePoint",
      "cornerRadius": 0,
      "curveFrom": "{0.17256256027337583, 0.31065978735471905}",
      "curveMode": 4,
      "curveTo": "{0.2549956881501233, 0.46030554900426579}",
      "hasCurveFrom": true,
      "hasCurveTo": true,
      "point": "{0.43604040825326101, 0.50499613845618685}"
    },
    {
      "_class": "curvePoint",
      "cornerRadius": 0,
      "curveFrom": "{0.82201234345186991, 0.034390688924819141}",
      "curveMode": 3,
      "curveTo": "{0.62401875593481704, -0.070564483272845063}",
      "hasCurveFrom": true,
      "hasCurveTo": true,
      "point": "{0.77886977185281525, 0.011368264055625528}"
    },
    {
      "_class": "curvePoint",
      "cornerRadius": 0,
      "curveFrom": "{0.97070013485572204, 0.84356121006149065}",
      "curveMode": 4,
      "curveTo": "{1.0238579462902515, 0.7670455038786923}",
      "hasCurveFrom": true,
      "hasCurveTo": true,
      "point": "{0.99766424210512306, 0.80631905218490263}"
    },
    {
      "_class": "curvePoint",
      "cornerRadius": 0,
      "curveFrom": "{-0.19569010444705651, 0.84220694977506305}",
      "curveMode": 4,
      "curveTo": "{0.13712401931701187, 1.0209693075826702}",
      "hasCurveFrom": true,
      "hasCurveTo": true,
      "point": "{0.095522253846501967, 0.99794688271351506}"
    }
  ],
  "resizingConstraint": 63,
  "resizingType": 0,
  "rotation": 0,
  "shouldBreakMaskChain": false,
  "style": {
    "_class": "style",
    "do_objectID": "B093D05F-D70A-4625-A99E-160F9D70AC5D",
    "endMarkerType": 0,
    "fills": [
      {
        "_class": "fill",
        "color": {
          "_class": "color",
          "alpha": 1,
          "blue": 0.1764705882352941,
          "green": 0.1764705882352941,
          "red": 0.1764705882352941
        },
        "fillType": 0,
        "isEnabled": true,
        "noiseIndex": 0,
        "noiseIntensity": 0,
        "patternFillType": 1,
        "patternTileScale": 1
      }
    ],
    "miterLimit": 10,
    "startMarkerType": 0,
    "windingRule": 1
  }
}