{
  "_class": "shapePath",
  "booleanOperation": -1,
  "clippingMaskMode": 0,
  "do_objectID": "838D4060-413D-4ED2-A141-3B01DBCB3EF0",
  "edited": true,
  "exportOptions": {
    "_class": "exportOptions",
    "do_objectID": "7796FE39-F1F1-4638-BB91-7B9CB2B6DB5D",
    "exportFormats": [
    ],
    "includedLayerIds": [
    ],
    "layerOptions": 0,
    "shouldTrim": false
  },
  "frame": {
    "_class": "rect",
    "constrainProportions": false,
    "do_objectID": "7E88EC2B-1522-448D-B878-EEDF630C320F",
    "height": 0.230642245757938,
    "width": 0.3572954804052983,
    "x": 14.3112879021147,
    "y": 16.42342751976256
  },
  "hasClippingMask": false,
  "isClosed": true,
  "isFixedToViewport": false,
  "isFlippedHorizontal": false,
  "isFlippedVertical": false,
  "isLocked": false,
  "isVisible": true,
  "layerListExpandedType": 0,
  "name": "Path",
  "nameIsFixed": false,
  "pointRadiusBehaviour": 0,
  "points": [
    {
      "_class": "curvePoint",
      "cornerRadius": 0,
      "curveFrom": "{0.31737349657851893, 0.46694796061884869}",
      "curveMode": 4,
      "curveTo": "{0.16720607980085053, 0.40400843881856657}",
      "hasCurveFrom": true,
      "hasCurveTo": true,
      "point": "{0.21854925104404699, 0.5393811533052022}"
    },
    {
      "_class": "curvePoint",
      "cornerRadius": 0,
      "curveFrom": "{0.51911126677302732, 0.25703234880449932}",
      "curveMode": 4,
      "curveTo": "{0.41733365298120212, 0.39521800281293867}",
      "hasCurveFrom": true,
      "hasCurveTo": true,
      "point": "{0.51638508068931765, 0.32313642756680189}"
    },
    {
      "_class": "curvePoint",
      "cornerRadius": 0,
      "curveFrom": "{0.47299328552360664, -0.074191279887487055}",
      "curveMode": 3,
      "curveTo": "{0.43664413774081329, 0.15787623066103543}",
      "hasCurveFrom": true,
      "hasCurveTo": true,
      "point": "{0.44709451772836484, 0.093178621659629715}"
    },
    {
      "_class": "curvePoint",
      "cornerRadius": 0,
      "curveFrom": "{0.76424083213324667, 0.1434599156118101}",
      "curveMode": 4,
      "curveTo": "{0.68131933875374562, 0.10689170182841164}",
      "hasCurveFrom": true,
      "hasCurveTo": true,
      "point": "{0.6649622222514876, 0.21554149085794685}"
    },
    {
      "_class": "curvePoint",
      "cornerRadius": 0,
      "curveFrom": "{1.0489000957072496, 0.17721518987341481}",
      "curveMode": 4,
      "curveTo": "{0.86397380636228638, 0.072081575246126767}",
      "hasCurveFrom": true,
      "hasCurveTo": true,
      "point": "{0.96279805189675827, 0}"
    },
    {
      "_class": "curvePoint",
      "cornerRadius": 0,
      "curveFrom": "{0.8333042129205559, 0.37447257383966243}",
      "curveMode": 4,
      "curveTo": "{0.97006788145331957, 0.25949367088607633}",
      "hasCurveFrom": true,
      "hasCurveTo": true,
      "point": "{0.88305710894825395, 0.33790436005625396}"
    },
    {
      "_class": "curvePoint",
      "cornerRadius": 0,
      "curveFrom": "{0.77832612689907565, 0.53902953586497548}",
      "curveMode": 4,
      "curveTo": "{0.78286977037192718, 0.41068917018284418}",
      "hasCurveFrom": true,
      "hasCurveTo": true,
      "point": "{0.73266250999694205, 0.44690576652601588}"
    },
    {
      "_class": "curvePoint",
      "cornerRadius": 0,
      "curveFrom": "{0.58249509321927362, 0.64592123769338705}",
      "curveMode": 3,
      "curveTo": "{0.65882830356314415, 0.71800281293952384}",
      "hasCurveFrom": true,
      "hasCurveTo": true,
      "point": "{0.61679960143928791, 0.67827004219409492}"
    },
    {
      "_class": "curvePoint",
      "cornerRadius": 0,
      "curveFrom": "{0.54773622065197869, 0.58052039381152798}",
      "curveMode": 4,
      "curveTo": "{0.58544846147662688, 0.59142053445850618}",
      "hasCurveFrom": true,
      "hasCurveTo": true,
      "point": "{0.60339585319438316, 0.54043600562588234}"
    },
    {
      "_class": "curvePoint",
      "cornerRadius": 0,
      "curveFrom": "{0.52342772807223537, 0.83755274261603729}",
      "curveMode": 4,
      "curveTo": "{0.49230377028321781, 0.62060478199718361}",
      "hasCurveFrom": true,
      "hasCurveTo": true,
      "point": "{0.43664413774081329, 0.66104078762306584}"
    },
    {
      "_class": "curvePoint",
      "cornerRadius": 0,
      "curveFrom": "{0.32532487265600435, 0.78410689170182646}",
      "curveMode": 4,
      "curveTo": "{0.44414114947101813, 0.9212376933895956}",
      "hasCurveFrom": true,
      "hasCurveTo": true,
      "point": "{0.35781192348687674, 1}"
    },
    {
      "_class": "curvePoint",
      "cornerRadius": 0,
      "curveFrom": "{0.092690326846128435, 0.72292545710266787}",
      "curveMode": 4,
      "curveTo": "{0.23377045667809365, 0.82419127988748209}",
      "hasCurveFrom": true,
      "hasCurveTo": true,
      "point": "{0.13903549026918621, 0.87693389592123938}"
    },
    {
      "_class": "curvePoint",
      "cornerRadius": 0,
      "curveFrom": "{0.11381826899487507, 0.28129395218002273}",
      "curveMode": 4,
      "curveTo": "{0.046799527770344858, 0.57032348804500321}",
      "hasCurveFrom": true,
      "hasCurveTo": true,
      "point": "{0, 0.41596343178621492}"
    }
  ],
  "resizingConstraint": 63,
  "resizingType": 0,
  "rotation": 0,
  "shouldBreakMaskChain": false,
  "style": {
    "_class": "style",
    "do_objectID": "146AF479-7BB9-478B-8F0B-9443AE1CB02B",
    "endMarkerType": 0,
    "fills": [
      {
        "_class": "fill",
        "color": {
          "_class": "color",
          "alpha": 1,
          "blue": 0.1764705882352941,
          "green": 0.1764705882352941,
          "red": 0.1764705882352941
        },
        "fillType": 0,
        "isEnabled": true,
        "noiseIndex": 0,
        "noiseIntensity": 0,
        "patternFillType": 1,
        "patternTileScale": 1
      }
    ],
    "miterLimit": 10,
    "startMarkerType": 0,
    "windingRule": 1
  }
}