{
  "_class": "shapePath",
  "booleanOperation": -1,
  "clippingMaskMode": 0,
  "do_objectID": "85A38A0E-F9B6-4F7B-91F5-133E8F59989E",
  "edited": true,
  "exportOptions": {
    "_class": "exportOptions",
    "do_objectID": "6045BEC7-0E33-49A5-B920-D555CEEE317C",
    "exportFormats": [
    ],
    "includedLayerIds": [
    ],
    "layerOptions": 0,
    "shouldTrim": false
  },
  "frame": {
    "_class": "rect",
    "constrainProportions": false,
    "do_objectID": "54B72F81-EA57-4679-9FDD-09A951F635F9",
    "height": 0.1058906030855624,
    "width": 0.1436397930044269,
    "x": 2.275151980630204,
    "y": 24.79702238658414
  },
  "hasClippingMask": false,
  "isClosed": true,
  "isFixedToViewport": false,
  "isFlippedHorizontal": false,
  "isFlippedVertical": false,
  "isLocked": false,
  "isVisible": true,
  "layerListExpandedType": 0,
  "name": "Path",
  "nameIsFixed": false,
  "pointRadiusBehaviour": 0,
  "points": [
    {
      "_class": "curvePoint",
      "cornerRadius": 0,
      "curveFrom": "{0.48595010464840971, 0.81305637982194179}",
      "curveMode": 4,
      "curveTo": "{0.90299553254755538, 0.60039564787340582}",
      "hasCurveFrom": true,
      "hasCurveTo": true,
      "point": "{0.70633996492031648, 0.71909000989121163}"
    },
    {
      "_class": "curvePoint",
      "cornerRadius": 0,
      "curveFrom": "{-0.08536822544107027, 0.53214638971315342}",
      "curveMode": 4,
      "curveTo": "{0.26443003996485281, 0.90702274975272812}",
      "hasCurveFrom": true,
      "hasCurveTo": true,
      "point": "{0.042344873075469844, 1}"
    },
    {
      "_class": "curvePoint",
      "cornerRadius": 0,
      "curveFrom": "{0.51533541935133031, 0.18595450049459994}",
      "curveMode": 4,
      "curveTo": "{0.098289991452184658, 0.39663699307621936}",
      "hasCurveFrom": true,
      "hasCurveTo": true,
      "point": "{0.29438045687359954, 0.27992087042533009}"
    },
    {
      "_class": "curvePoint",
      "cornerRadius": 0,
      "curveFrom": "{1.0866537494408124, 0.46488625123641553}",
      "curveMode": 4,
      "curveTo": "{0.73629038182906315, 0.091988130563869799}",
      "hasCurveFrom": true,
      "hasCurveTo": true,
      "point": "{0.95611513989514385, 0}"
    }
  ],
  "resizingConstraint": 63,
  "resizingType": 0,
  "rotation": 0,
  "shouldBreakMaskChain": false,
  "style": {
    "_class": "style",
    "do_objectID": "78C98FBD-5B0B-4CD8-B8C9-B206B0B93A7C",
    "endMarkerType": 0,
    "fills": [
      {
        "_class": "fill",
        "color": {
          "_class": "color",
          "alpha": 1,
          "blue": 0.1764705882352941,
          "green": 0.1764705882352941,
          "red": 0.1764705882352941
        },
        "fillType": 0,
        "isEnabled": true,
        "noiseIndex": 0,
        "noiseIntensity": 0,
        "patternFillType": 1,
        "patternTileScale": 1
      }
    ],
    "miterLimit": 10,
    "startMarkerType": 0,
    "windingRule": 1
  }
}