{
  "_class": "shapePath",
  "booleanOperation": -1,
  "clippingMaskMode": 0,
  "do_objectID": "89764066-5EB9-4E6E-9987-F0AB11F87B71",
  "edited": true,
  "exportOptions": {
    "_class": "exportOptions",
    "do_objectID": "195247D3-3CA3-4B08-A58F-3C3A65F51E9A",
    "exportFormats": [
    ],
    "includedLayerIds": [
    ],
    "layerOptions": 0,
    "shouldTrim": false
  },
  "frame": {
    "_class": "rect",
    "constrainProportions": false,
    "do_objectID": "4B7C2296-85BB-469F-9E23-78D16F3B6743",
    "height": 0.1058906030855624,
    "width": 0.1528938621093516,
    "x": 38.4468841098771,
    "y": 19.4037778246324
  },
  "hasClippingMask": false,
  "isClosed": true,
  "isFixedToViewport": false,
  "isFlippedHorizontal": false,
  "isFlippedVertical": false,
  "isLocked": false,
  "isVisible": true,
  "layerListExpandedType": 0,
  "name": "Path",
  "nameIsFixed": false,
  "pointRadiusBehaviour": 0,
  "points": [
    {
      "_class": "curvePoint",
      "cornerRadius": 0,
      "curveFrom": "{0.19430895110478863, 0.50425698144859799}",
      "curveMode": 4,
      "curveTo": "{0.67636503745211007, 2.1153679232413269}",
      "hasCurveFrom": true,
      "hasCurveTo": true,
      "point": "{0.38808700343604935, 0.45421052447532717}"
    },
    {
      "_class": "curvePoint",
      "cornerRadius": 0,
      "curveFrom": "{0.19537074865178411, -0.026042976094900361}",
      "curveMode": 4,
      "curveTo": "{0.0074325828291493734, 0.53216750552983039}",
      "hasCurveFrom": true,
      "hasCurveTo": true,
      "point": "{0, 0.026890776472967462}"
    },
    {
      "_class": "curvePoint",
      "cornerRadius": 0,
      "curveFrom": "{1.6075614861891692, -0.65066125639566408}",
      "curveMode": 4,
      "curveTo": "{0.38065442060689997, -0.051066204581508394}",
      "hasCurveFrom": true,
      "hasCurveTo": true,
      "point": "{0.38808700343604935, 0.45421052447532717}"
    }
  ],
  "resizingConstraint": 63,
  "resizingType": 0,
  "rotation": 0,
  "shouldBreakMaskChain": false,
  "style": {
    "_class": "style",
    "do_objectID": "52274AFA-C084-4864-85FD-69643A564FBC",
    "endMarkerType": 0,
    "fills": [
      {
        "_class": "fill",
        "color": {
          "_class": "color",
          "alpha": 1,
          "blue": 0.1764705882352941,
          "green": 0.1764705882352941,
          "red": 0.1764705882352941
        },
        "fillType": 0,
        "isEnabled": true,
        "noiseIndex": 0,
        "noiseIntensity": 0,
        "patternFillType": 1,
        "patternTileScale": 1
      }
    ],
    "miterLimit": 10,
    "startMarkerType": 0,
    "windingRule": 1
  }
}