{
  "_class": "shapePath",
  "booleanOperation": -1,
  "clippingMaskMode": 0,
  "do_objectID": "8ADA6B3E-D770-42D9-9412-3562FA4308D2",
  "edited": true,
  "exportOptions": {
    "_class": "exportOptions",
    "do_objectID": "E8B30F04-DE3C-4043-BAB3-B0081B9261A3",
    "exportFormats": [
    ],
    "includedLayerIds": [
    ],
    "layerOptions": 0,
    "shouldTrim": false
  },
  "frame": {
    "_class": "rect",
    "constrainProportions": false,
    "do_objectID": "89A5172D-9198-49C9-A6CD-91CBFB7B5D4E",
    "height": 0.1058906030855553,
    "width": 0.1059863482545644,
    "x": 26.99536803528047,
    "y": 8.436759946813602
  },
  "hasClippingMask": false,
  "isClosed": true,
  "isFixedToViewport": false,
  "isFlippedHorizontal": false,
  "isFlippedVertical": false,
  "isLocked": false,
  "isVisible": true,
  "layerListExpandedType": 0,
  "name": "Path",
  "nameIsFixed": false,
  "pointRadiusBehaviour": 0,
  "points": [
    {
      "_class": "curvePoint",
      "cornerRadius": 0,
      "curveFrom": "{-0.27037640430017973, 0.70088263527989625}",
      "curveMode": 3,
      "curveTo": "{0.41062359569980345, 0.94688263527993399}",
      "hasCurveFrom": true,
      "hasCurveTo": true,
      "point": "{0.17462359569981345, 0.86088263527992126}"
    },
    {
      "_class": "curvePoint",
      "cornerRadius": 0,
      "curveFrom": "{0.926623595699823, 0.16688263527990443}",
      "curveMode": 3,
      "curveTo": "{0.24762359569984937, -0.081117364720086016}",
      "hasCurveFrom": true,
      "hasCurveTo": true,
      "point": "{0.48462359569981572, 0.0068826352799362667}"
    }
  ],
  "resizingConstraint": 63,
  "resizingType": 0,
  "rotation": 0,
  "shouldBreakMaskChain": false,
  "style": {
    "_class": "style",
    "do_objectID": "1C9AD0DE-08F9-4D5B-9125-BB95C371AAFE",
    "endMarkerType": 0,
    "fills": [
      {
        "_class": "fill",
        "color": {
          "_class": "color",
          "alpha": 1,
          "blue": 0.1764705882352941,
          "green": 0.1764705882352941,
          "red": 0.1764705882352941
        },
        "fillType": 0,
        "isEnabled": true,
        "noiseIndex": 0,
        "noiseIntensity": 0,
        "patternFillType": 1,
        "patternTileScale": 1
      }
    ],
    "miterLimit": 10,
    "startMarkerType": 0,
    "windingRule": 1
  }
}