{
  "_class": "shapePath",
  "booleanOperation": -1,
  "clippingMaskMode": 0,
  "do_objectID": "91E399EB-E808-4BB6-B824-AEF37ACB113B",
  "edited": true,
  "exportOptions": {
    "_class": "exportOptions",
    "do_objectID": "FCE6254F-E693-49E4-A891-5B9BCB0021E9",
    "exportFormats": [
    ],
    "includedLayerIds": [
    ],
    "layerOptions": 0,
    "shouldTrim": false
  },
  "frame": {
    "_class": "rect",
    "constrainProportions": false,
    "do_objectID": "EF7E9ABF-C54E-4C7A-9444-3A1A56D88003",
    "height": 0.1058906030855546,
    "width": 0.1059863482545538,
    "x": 26.4099301951259,
    "y": 1.383554451866636
  },
  "hasClippingMask": false,
  "isClosed": true,
  "isFixedToViewport": false,
  "isFlippedHorizontal": false,
  "isFlippedVertical": false,
  "isLocked": false,
  "isVisible": true,
  "layerListExpandedType": 0,
  "name": "Path",
  "nameIsFixed": false,
  "pointRadiusBehaviour": 0,
  "points": [
    {
      "_class": "curvePoint",
      "cornerRadius": 0,
      "curveFrom": "{0.92801051039515414, 0.16944485586710201}",
      "curveMode": 4,
      "curveTo": "{0.24701051039517097, -0.078555144132888444}",
      "hasCurveFrom": true,
      "hasCurveTo": true,
      "point": "{0.48601051039514687, 0.0064448558670910927}"
    },
    {
      "_class": "curvePoint",
      "cornerRadius": 0,
      "curveFrom": "{-0.26798948960481539, 0.70244485586711747}",
      "curveMode": 3,
      "curveTo": "{0.41201051039519143, 0.95144485586708427}",
      "hasCurveFrom": true,
      "hasCurveTo": true,
      "point": "{0.17201051039518234, 0.86444485586709519}"
    }
  ],
  "resizingConstraint": 63,
  "resizingType": 0,
  "rotation": 0,
  "shouldBreakMaskChain": false,
  "style": {
    "_class": "style",
    "do_objectID": "DCF4AE43-5C0A-4F19-B28C-CBD3DE5DFB4D",
    "endMarkerType": 0,
    "fills": [
      {
        "_class": "fill",
        "color": {
          "_class": "color",
          "alpha": 1,
          "blue": 0.1764705882352941,
          "green": 0.1764705882352941,
          "red": 0.1764705882352941
        },
        "fillType": 0,
        "isEnabled": true,
        "noiseIndex": 0,
        "noiseIntensity": 0,
        "patternFillType": 1,
        "patternTileScale": 1
      }
    ],
    "miterLimit": 10,
    "startMarkerType": 0,
    "windingRule": 1
  }
}