{
  "_class": "shapePath",
  "booleanOperation": -1,
  "clippingMaskMode": 0,
  "do_objectID": "997C02CE-1CBD-4B75-AF7D-DD83965E0B5E",
  "edited": true,
  "exportOptions": {
    "_class": "exportOptions",
    "do_objectID": "5912602A-C05B-42FB-9B08-C99D7781CFEB",
    "exportFormats": [
    ],
    "includedLayerIds": [
    ],
    "layerOptions": 0,
    "shouldTrim": false
  },
  "frame": {
    "_class": "rect",
    "constrainProportions": false,
    "do_objectID": "C3F61968-007A-4B49-8914-9A6DFA68F288",
    "height": 0.1058906030855553,
    "width": 0.1059863482545751,
    "x": 17.92981891778777,
    "y": 34.87684402122223
  },
  "hasClippingMask": false,
  "isClosed": true,
  "isFixedToViewport": false,
  "isFlippedHorizontal": false,
  "isFlippedVertical": false,
  "isLocked": false,
  "isVisible": true,
  "layerListExpandedType": 0,
  "name": "Path",
  "nameIsFixed": false,
  "pointRadiusBehaviour": 0,
  "points": [
    {
      "_class": "curvePoint",
      "cornerRadius": 0,
      "curveFrom": "{-0.30302096142227697, 0.79088415318449279}",
      "curveMode": 4,
      "curveTo": "{0.46297903857771416, 1.0638841531845173}",
      "hasCurveFrom": true,
      "hasCurveTo": true,
      "point": "{0.19497903857771348, 0.9648841531845278}"
    },
    {
      "_class": "curvePoint",
      "cornerRadius": 0,
      "curveFrom": "{1.043979038577703, 0.1898841531844937}",
      "curveMode": 4,
      "curveTo": "{0.27897903857771666, -0.086115846815516761}",
      "hasCurveFrom": true,
      "hasCurveTo": true,
      "point": "{0.54397903857770302, 0.006884153184500974}"
    }
  ],
  "resizingConstraint": 63,
  "resizingType": 0,
  "rotation": 0,
  "shouldBreakMaskChain": false,
  "style": {
    "_class": "style",
    "do_objectID": "4B77B6AE-B22D-4EB6-9D38-4DC3FC0C66AF",
    "endMarkerType": 0,
    "fills": [
      {
        "_class": "fill",
        "color": {
          "_class": "color",
          "alpha": 1,
          "blue": 0.1764705882352941,
          "green": 0.1764705882352941,
          "red": 0.1764705882352941
        },
        "fillType": 0,
        "isEnabled": true,
        "noiseIndex": 0,
        "noiseIntensity": 0,
        "patternFillType": 1,
        "patternTileScale": 1
      }
    ],
    "miterLimit": 10,
    "startMarkerType": 0,
    "windingRule": 1
  }
}