{
  "_class": "shapePath",
  "booleanOperation": -1,
  "clippingMaskMode": 0,
  "do_objectID": "9FF5BB9C-7ABE-416F-B4A7-47BA5393AA66",
  "edited": true,
  "exportOptions": {
    "_class": "exportOptions",
    "do_objectID": "CDBEAFD2-DF54-479F-97E4-E45F450AC3C6",
    "exportFormats": [
    ],
    "includedLayerIds": [
    ],
    "layerOptions": 0,
    "shouldTrim": false
  },
  "frame": {
    "_class": "rect",
    "constrainProportions": false,
    "do_objectID": "8BE23340-6310-45EC-8863-28A87609F672",
    "height": 0.105890603085554,
    "width": 0.1560109769602818,
    "x": 24.08664999594813,
    "y": 0.422554670311407
  },
  "hasClippingMask": false,
  "isClosed": true,
  "isFixedToViewport": false,
  "isFlippedHorizontal": false,
  "isFlippedVertical": false,
  "isLocked": false,
  "isVisible": true,
  "layerListExpandedType": 0,
  "name": "Path",
  "nameIsFixed": false,
  "pointRadiusBehaviour": 0,
  "points": [
    {
      "_class": "curvePoint",
      "cornerRadius": 0,
      "curveFrom": "{0.71696149843913026, 0.3163267791116855}",
      "curveMode": 4,
      "curveTo": "{0.42872008324660194, -0.14767322088831314}",
      "hasCurveFrom": true,
      "hasCurveTo": true,
      "point": "{0.49843912591050243, 0.46732677911169596}"
    },
    {
      "_class": "curvePoint",
      "cornerRadius": 0,
      "curveFrom": "{0.7830385015608845, 0.96532677911168641}",
      "curveMode": 4,
      "curveTo": "{0.92767950052028503, 0.20232677911165275}",
      "hasCurveFrom": true,
      "hasCurveTo": true,
      "point": "{1, 0.8163267791116855}"
    },
    {
      "_class": "curvePoint",
      "cornerRadius": 0,
      "curveFrom": "{0.28199791883453801, 0.61432677911168732}",
      "curveMode": 4,
      "curveTo": "{0.57388137356918301, 1.0803267791116955}",
      "hasCurveFrom": true,
      "hasCurveTo": true,
      "point": "{0.49843912591050243, 0.46732677911169596}"
    },
    {
      "_class": "curvePoint",
      "cornerRadius": 0,
      "curveFrom": "{0.2154006243496327, -0.029673220888318141}",
      "curveMode": 4,
      "curveTo": "{0.07180020811653437, 0.73132677911164912}",
      "hasCurveFrom": true,
      "hasCurveTo": true,
      "point": "{0, 0.11932677911168277}"
    }
  ],
  "resizingConstraint": 63,
  "resizingType": 0,
  "rotation": 0,
  "shouldBreakMaskChain": false,
  "style": {
    "_class": "style",
    "do_objectID": "71EA7CF4-8029-433A-9F07-0885278F1BDD",
    "endMarkerType": 0,
    "fills": [
      {
        "_class": "fill",
        "color": {
          "_class": "color",
          "alpha": 1,
          "blue": 0.1764705882352941,
          "green": 0.1764705882352941,
          "red": 0.1764705882352941
        },
        "fillType": 0,
        "isEnabled": true,
        "noiseIndex": 0,
        "noiseIntensity": 0,
        "patternFillType": 1,
        "patternTileScale": 1
      }
    ],
    "miterLimit": 10,
    "startMarkerType": 0,
    "windingRule": 1
  }
}