{
  "_class": "shapePath",
  "booleanOperation": -1,
  "clippingMaskMode": 0,
  "do_objectID": "A38B74A0-3E66-42B6-88AB-706E4C6F51D3",
  "edited": true,
  "exportOptions": {
    "_class": "exportOptions",
    "do_objectID": "A3A90397-BB4D-412A-90DA-590EAC1E9626",
    "exportFormats": [
    ],
    "includedLayerIds": [
    ],
    "layerOptions": 0,
    "shouldTrim": false
  },
  "frame": {
    "_class": "rect",
    "constrainProportions": false,
    "do_objectID": "46B18C95-67C1-43D2-AC07-A07E6C3B4823",
    "height": 0.1312162987469385,
    "width": 0.1059863482545502,
    "x": 29.39816985816815,
    "y": 20.90805675610792
  },
  "hasClippingMask": false,
  "isClosed": true,
  "isFixedToViewport": false,
  "isFlippedHorizontal": false,
  "isFlippedVertical": false,
  "isLocked": false,
  "isVisible": true,
  "layerListExpandedType": 0,
  "name": "Path",
  "nameIsFixed": false,
  "pointRadiusBehaviour": 0,
  "points": [
    {
      "_class": "curvePoint",
      "cornerRadius": 0,
      "curveFrom": "{0.073841104877802294, 0.083436341161922944}",
      "curveMode": 4,
      "curveTo": "{-0.087760620460992103, 0.3603213844251989}",
      "hasCurveFrom": true,
      "hasCurveTo": true,
      "point": "{0.010739478793128948, 0.18974042027195137}"
    },
    {
      "_class": "curvePoint",
      "cornerRadius": 0,
      "curveFrom": "{0.47476729012314756, 0.19344870210135298}",
      "curveMode": 4,
      "curveTo": "{0.43475162480114038, 0.093943139678607721}",
      "hasCurveFrom": true,
      "hasCurveTo": true,
      "point": "{0.51555248747055948, 0}"
    },
    {
      "_class": "curvePoint",
      "cornerRadius": 0,
      "curveFrom": "{0.9257130570209362, 0.91409147095178589}",
      "curveMode": 4,
      "curveTo": "{1.0896233784360323, 0.63844252163165549}",
      "hasCurveFrom": true,
      "hasCurveTo": true,
      "point": "{0.98881468310560949, 0.81087762669963903}"
    },
    {
      "_class": "curvePoint",
      "cornerRadius": 0,
      "curveFrom": "{0.52478687177563466, 0.80531520395550138}",
      "curveMode": 4,
      "curveTo": "{0.56788066519930447, 0.90234857849195549}",
      "hasCurveFrom": true,
      "hasCurveTo": true,
      "point": "{0.48400167442822278, 1}"
    }
  ],
  "resizingConstraint": 63,
  "resizingType": 0,
  "rotation": 0,
  "shouldBreakMaskChain": false,
  "style": {
    "_class": "style",
    "do_objectID": "A25D5257-0689-4959-BA4F-B1A34DA6C3AB",
    "endMarkerType": 0,
    "fills": [
      {
        "_class": "fill",
        "color": {
          "_class": "color",
          "alpha": 1,
          "blue": 0.1764705882352941,
          "green": 0.1764705882352941,
          "red": 0.1764705882352941
        },
        "fillType": 0,
        "isEnabled": true,
        "noiseIndex": 0,
        "noiseIntensity": 0,
        "patternFillType": 1,
        "patternTileScale": 1
      }
    ],
    "miterLimit": 10,
    "startMarkerType": 0,
    "windingRule": 1
  }
}