{
  "_class": "shapePath",
  "booleanOperation": -1,
  "clippingMaskMode": 0,
  "do_objectID": "A456BE12-E997-4C72-8A5D-8C7B84D2764E",
  "edited": true,
  "exportOptions": {
    "_class": "exportOptions",
    "do_objectID": "921E8C20-58E2-4BB6-981C-30E5B6908B54",
    "exportFormats": [
    ],
    "includedLayerIds": [
    ],
    "layerOptions": 0,
    "shouldTrim": false
  },
  "frame": {
    "_class": "rect",
    "constrainProportions": false,
    "do_objectID": "D2C44F5B-795B-43AF-AD4E-6A42DC52B1AE",
    "height": 0.1058906030855624,
    "width": 0.105986348254568,
    "x": 32.10214096544348,
    "y": 11.91593185658254
  },
  "hasClippingMask": false,
  "isClosed": true,
  "isFixedToViewport": false,
  "isFlippedHorizontal": false,
  "isFlippedVertical": false,
  "isLocked": false,
  "isVisible": true,
  "layerListExpandedType": 0,
  "name": "Path",
  "nameIsFixed": false,
  "pointRadiusBehaviour": 0,
  "points": [
    {
      "_class": "curvePoint",
      "cornerRadius": 0,
      "curveFrom": "{0.94198916423800938, 0.24696099853355236}",
      "curveMode": 3,
      "curveTo": "{0.363989164237978, -0.10703900146643264}",
      "hasCurveFrom": true,
      "hasCurveTo": true,
      "point": "{0.56498916423799983, 0.015960998533557813}"
    },
    {
      "_class": "curvePoint",
      "cornerRadius": 0,
      "curveFrom": "{-0.2570108357620029, 0.51396099853354826}",
      "curveMode": 4,
      "curveTo": "{0.32098916423797164, 0.8669609985335569}",
      "hasCurveFrom": true,
      "hasCurveTo": true,
      "point": "{0.1179891642379971, 0.74496099853359965}"
    }
  ],
  "resizingConstraint": 63,
  "resizingType": 0,
  "rotation": 0,
  "shouldBreakMaskChain": false,
  "style": {
    "_class": "style",
    "do_objectID": "66B9C776-61A6-4C30-9241-8A8DE4262CA8",
    "endMarkerType": 0,
    "fills": [
      {
        "_class": "fill",
        "color": {
          "_class": "color",
          "alpha": 1,
          "blue": 0.1764705882352941,
          "green": 0.1764705882352941,
          "red": 0.1764705882352941
        },
        "fillType": 0,
        "isEnabled": true,
        "noiseIndex": 0,
        "noiseIntensity": 0,
        "patternFillType": 1,
        "patternTileScale": 1
      }
    ],
    "miterLimit": 10,
    "startMarkerType": 0,
    "windingRule": 1
  }
}