{
  "_class": "shapePath",
  "booleanOperation": -1,
  "clippingMaskMode": 0,
  "do_objectID": "B0CB2387-0902-475F-B2EB-CEA67771191D",
  "edited": true,
  "exportOptions": {
    "_class": "exportOptions",
    "do_objectID": "1F0A53F7-7561-4FE0-AA5B-983DEDF8402A",
    "exportFormats": [
    ],
    "includedLayerIds": [
    ],
    "layerOptions": 0,
    "shouldTrim": false
  },
  "frame": {
    "_class": "rect",
    "constrainProportions": false,
    "do_objectID": "43E33ACC-9C55-4512-9869-88ABED59324A",
    "height": 0.1098993550965996,
    "width": 0.1217695910850587,
    "x": 22.18675247278375,
    "y": 14.69417836143077
  },
  "hasClippingMask": false,
  "isClosed": true,
  "isFixedToViewport": false,
  "isFlippedHorizontal": false,
  "isFlippedVertical": false,
  "isLocked": false,
  "isVisible": true,
  "layerListExpandedType": 0,
  "name": "Path",
  "nameIsFixed": false,
  "pointRadiusBehaviour": 0,
  "points": [
    {
      "_class": "curvePoint",
      "cornerRadius": 0,
      "curveFrom": "{0.87328441625581887, 0.37191582551955354}",
      "curveMode": 4,
      "curveTo": "{0.89661528819330694, 0.27672308446394306}",
      "hasCurveFrom": true,
      "hasCurveTo": true,
      "point": "{0.85062014065934888, 0.3741296101952547}"
    },
    {
      "_class": "curvePoint",
      "cornerRadius": 0,
      "curveFrom": "{1.1932506599702062, 0.57484608745976162}",
      "curveMode": 4,
      "curveTo": "{0.89461549917010119, 0.37265375374477328}",
      "hasCurveFrom": true,
      "hasCurveTo": true,
      "point": "{0.91061381135582253, 0.38372267712332092}"
    },
    {
      "_class": "curvePoint",
      "cornerRadius": 0,
      "curveFrom": "{0.47999257502349829, 0.92019649687077565}",
      "curveMode": 3,
      "curveTo": "{0.72863301024323368, 1.089182060450079}",
      "hasCurveFrom": true,
      "hasCurveTo": true,
      "point": "{0.57864883350212537, 0.98661003714210349}"
    },
    {
      "_class": "curvePoint",
      "cornerRadius": 0,
      "curveFrom": "{0.32467562755379087, 0.86042431062655123}",
      "curveMode": 4,
      "curveTo": "{0.47599299697708691, 0.81393483243661746}",
      "hasCurveFrom": true,
      "hasCurveTo": true,
      "point": "{0.51398898841814644, 0.70841109622767906}"
    },
    {
      "_class": "curvePoint",
      "cornerRadius": 0,
      "curveFrom": "{0.073368806969755937, 0.19186133856166046}",
      "curveMode": 3,
      "curveTo": "{-0.045951938082059676, 0.55934959472976975}",
      "hasCurveFrom": true,
      "hasCurveTo": true,
      "point": "{0.0047093838394036067, 0.40364673920475702}"
    },
    {
      "_class": "curvePoint",
      "cornerRadius": 0,
      "curveFrom": "{0.89194911380580177, 0.15939249665123723}",
      "curveMode": 4,
      "curveTo": "{0.6699725322289477, 0.19407512323736159}",
      "hasCurveFrom": true,
      "hasCurveTo": true,
      "point": "{0.78329391021110839, 0}"
    }
  ],
  "resizingConstraint": 63,
  "resizingType": 0,
  "rotation": 0,
  "shouldBreakMaskChain": false,
  "style": {
    "_class": "style",
    "do_objectID": "97036D44-CA47-4FE5-B86D-05FC26F171F7",
    "endMarkerType": 0,
    "fills": [
      {
        "_class": "fill",
        "color": {
          "_class": "color",
          "alpha": 1,
          "blue": 0.1764705882352941,
          "green": 0.1764705882352941,
          "red": 0.1764705882352941
        },
        "fillType": 0,
        "isEnabled": true,
        "noiseIndex": 0,
        "noiseIntensity": 0,
        "patternFillType": 1,
        "patternTileScale": 1
      }
    ],
    "miterLimit": 10,
    "startMarkerType": 0,
    "windingRule": 1
  }
}