{
  "_class": "shapePath",
  "booleanOperation": -1,
  "clippingMaskMode": 0,
  "do_objectID": "B21CBF14-54E3-4C85-87D2-6AF84ED5A1B2",
  "edited": true,
  "exportOptions": {
    "_class": "exportOptions",
    "do_objectID": "7C51E936-47BF-4E10-BCDC-F9242936721D",
    "exportFormats": [
    ],
    "includedLayerIds": [
    ],
    "layerOptions": 0,
    "shouldTrim": false
  },
  "frame": {
    "_class": "rect",
    "constrainProportions": false,
    "do_objectID": "7125091B-4222-4CE2-ACE8-0CD63BCC5BEE",
    "height": 0.1058906030855518,
    "width": 0.1059863482545822,
    "x": 34.26682004969884,
    "y": 13.97813974822059
  },
  "hasClippingMask": false,
  "isClosed": true,
  "isFixedToViewport": false,
  "isFlippedHorizontal": false,
  "isFlippedVertical": false,
  "isLocked": false,
  "isVisible": true,
  "layerListExpandedType": 0,
  "name": "Path",
  "nameIsFixed": false,
  "pointRadiusBehaviour": 0,
  "points": [
    {
      "_class": "curvePoint",
      "cornerRadius": 0,
      "curveFrom": "{-0.30109074271877034, 0.7883183639365825}",
      "curveMode": 3,
      "curveTo": "{0.45890925728127741, 1.064318363936593}",
      "hasCurveFrom": true,
      "hasCurveTo": true,
      "point": "{0.1939092572812342, 0.96731836393655612}"
    },
    {
      "_class": "curvePoint",
      "cornerRadius": 0,
      "curveFrom": "{1.0399092572812378, 0.18631836393660706}",
      "curveMode": 3,
      "curveTo": "{0.27690925728126103, -0.08868163606342705}",
      "hasCurveFrom": true,
      "hasCurveTo": true,
      "point": "{0.53990925728123784, 0.0073183639365765885}"
    }
  ],
  "resizingConstraint": 63,
  "resizingType": 0,
  "rotation": 0,
  "shouldBreakMaskChain": false,
  "style": {
    "_class": "style",
    "do_objectID": "26F09F37-56C3-4EC4-B6B4-6C95CE2F1E02",
    "endMarkerType": 0,
    "fills": [
      {
        "_class": "fill",
        "color": {
          "_class": "color",
          "alpha": 1,
          "blue": 0.1764705882352941,
          "green": 0.1764705882352941,
          "red": 0.1764705882352941
        },
        "fillType": 0,
        "isEnabled": true,
        "noiseIndex": 0,
        "noiseIntensity": 0,
        "patternFillType": 1,
        "patternTileScale": 1
      }
    ],
    "miterLimit": 10,
    "startMarkerType": 0,
    "windingRule": 1
  }
}