{
  "_class": "shapePath",
  "booleanOperation": -1,
  "clippingMaskMode": 0,
  "do_objectID": "B422758C-00A8-45DC-8779-7E5BDC774A02",
  "edited": true,
  "exportOptions": {
    "_class": "exportOptions",
    "do_objectID": "DE344E28-EC4A-4DDA-988A-3F51B11C5885",
    "exportFormats": [
    ],
    "includedLayerIds": [
    ],
    "layerOptions": 0,
    "shouldTrim": false
  },
  "frame": {
    "_class": "rect",
    "constrainProportions": false,
    "do_objectID": "A7139C61-520C-418B-86B0-9241501FA575",
    "height": 0.1058906030855624,
    "width": 0.1059863482545538,
    "x": 13.84103878937228,
    "y": 32.84547758689556
  },
  "hasClippingMask": false,
  "isClosed": true,
  "isFixedToViewport": false,
  "isFlippedHorizontal": false,
  "isFlippedVertical": false,
  "isLocked": false,
  "isVisible": true,
  "layerListExpandedType": 0,
  "name": "Path",
  "nameIsFixed": false,
  "pointRadiusBehaviour": 0,
  "points": [
    {
      "_class": "curvePoint",
      "cornerRadius": 0,
      "curveFrom": "{0.94030257588929089, 0.24522740114718999}",
      "curveMode": 3,
      "curveTo": "{0.36130257588931158, -0.10777259885281865}",
      "hasCurveFrom": true,
      "hasCurveTo": true,
      "point": "{0.56330257588930976, 0.016227401147205001}"
    },
    {
      "_class": "curvePoint",
      "cornerRadius": 0,
      "curveFrom": "{-0.25769742411068819, 0.5122274011471859}",
      "curveMode": 3,
      "curveTo": "{0.32030257588931477, 0.86522740114719454}",
      "hasCurveFrom": true,
      "hasCurveTo": true,
      "point": "{0.11930257588929294, 0.74322740114718044}"
    }
  ],
  "resizingConstraint": 63,
  "resizingType": 0,
  "rotation": 0,
  "shouldBreakMaskChain": false,
  "style": {
    "_class": "style",
    "do_objectID": "4EFF4388-DFB9-47B2-8BC9-DAA8682E6C92",
    "endMarkerType": 0,
    "fills": [
      {
        "_class": "fill",
        "color": {
          "_class": "color",
          "alpha": 1,
          "blue": 0.1764705882352941,
          "green": 0.1764705882352941,
          "red": 0.1764705882352941
        },
        "fillType": 0,
        "isEnabled": true,
        "noiseIndex": 0,
        "noiseIntensity": 0,
        "patternFillType": 1,
        "patternTileScale": 1
      }
    ],
    "miterLimit": 10,
    "startMarkerType": 0,
    "windingRule": 1
  }
}