{
  "_class": "shapePath",
  "booleanOperation": -1,
  "clippingMaskMode": 0,
  "do_objectID": "BC144D37-00B6-49FB-81F0-475F6CAE4A49",
  "edited": true,
  "exportOptions": {
    "_class": "exportOptions",
    "do_objectID": "AE431E48-34DC-40B6-8A49-35C238E4F30B",
    "exportFormats": [
    ],
    "includedLayerIds": [
    ],
    "layerOptions": 0,
    "shouldTrim": false
  },
  "frame": {
    "_class": "rect",
    "constrainProportions": false,
    "do_objectID": "5EA34BB1-A27A-4322-83CC-209C4886E334",
    "height": 0.1058906030855553,
    "width": 0.1438042482941775,
    "x": 17.37780889352809,
    "y": 14.75078465100145
  },
  "hasClippingMask": false,
  "isClosed": true,
  "isFixedToViewport": false,
  "isFlippedHorizontal": false,
  "isFlippedVertical": false,
  "isLocked": false,
  "isVisible": true,
  "layerListExpandedType": 0,
  "name": "Path",
  "nameIsFixed": false,
  "pointRadiusBehaviour": 0,
  "points": [
    {
      "_class": "curvePoint",
      "cornerRadius": 0,
      "curveFrom": "{0.48348310687281087, 0.81342546890422995}",
      "curveMode": 4,
      "curveTo": "{0.90287387920138207, 0.600197433366223}",
      "hasCurveFrom": true,
      "hasCurveTo": true,
      "point": "{0.7047498400528982, 0.71964461994078743}"
    },
    {
      "_class": "curvePoint",
      "cornerRadius": 0,
      "curveFrom": "{-0.086052948685074987, 0.53307008884501728}",
      "curveMode": 4,
      "curveTo": "{0.26390974154871755, 0.9062191510365013}",
      "hasCurveFrom": true,
      "hasCurveTo": true,
      "point": "{0.043207464320622835, 1}"
    },
    {
      "_class": "curvePoint",
      "cornerRadius": 0,
      "curveFrom": "{0.51396372828027115, 0.18756169792694119}",
      "curveMode": 4,
      "curveTo": "{0.097395235711663336, 0.399802566633777}",
      "hasCurveFrom": true,
      "hasCurveTo": true,
      "point": "{0.29439036295617782, 0.28035538005926874}"
    },
    {
      "_class": "curvePoint",
      "cornerRadius": 0,
      "curveFrom": "{1.0863220635981203, 0.46791707798620991}",
      "curveMode": 4,
      "curveTo": "{0.73523046146034243, 0.093780848963498642}",
      "hasCurveFrom": true,
      "hasCurveTo": true,
      "point": "{0.95649719464042982, 0}"
    }
  ],
  "resizingConstraint": 63,
  "resizingType": 0,
  "rotation": 0,
  "shouldBreakMaskChain": false,
  "style": {
    "_class": "style",
    "do_objectID": "A0C92BC9-4281-49E5-A208-F2444550ADC4",
    "endMarkerType": 0,
    "fills": [
      {
        "_class": "fill",
        "color": {
          "_class": "color",
          "alpha": 1,
          "blue": 0.1764705882352941,
          "green": 0.1764705882352941,
          "red": 0.1764705882352941
        },
        "fillType": 0,
        "isEnabled": true,
        "noiseIndex": 0,
        "noiseIntensity": 0,
        "patternFillType": 1,
        "patternTileScale": 1
      }
    ],
    "miterLimit": 10,
    "startMarkerType": 0,
    "windingRule": 1
  }
}