{
  "_class": "shapePath",
  "booleanOperation": -1,
  "clippingMaskMode": 0,
  "do_objectID": "BC4DC2CF-D948-4159-BAB6-E9A18BC9DC0D",
  "edited": true,
  "exportOptions": {
    "_class": "exportOptions",
    "do_objectID": "44EF5A82-FD3B-47E4-AC40-C3F1DBA0538B",
    "exportFormats": [
    ],
    "includedLayerIds": [
    ],
    "layerOptions": 0,
    "shouldTrim": false
  },
  "frame": {
    "_class": "rect",
    "constrainProportions": false,
    "do_objectID": "D60F008D-70B7-4B68-826A-10776ADF3899",
    "height": 0.1058906030855589,
    "width": 0.1203784883620944,
    "x": 15.14769379042884,
    "y": 16.59673359542527
  },
  "hasClippingMask": false,
  "isClosed": true,
  "isFixedToViewport": false,
  "isFlippedHorizontal": false,
  "isFlippedVertical": false,
  "isLocked": false,
  "isVisible": true,
  "layerListExpandedType": 0,
  "name": "Path",
  "nameIsFixed": false,
  "pointRadiusBehaviour": 0,
  "points": [
    {
      "_class": "curvePoint",
      "cornerRadius": 0,
      "curveFrom": "{0.084136126274985221, 0.25592553585122485}",
      "curveMode": 3,
      "curveTo": "{-0.058815384205109261, 0.76777660755364963}",
      "hasCurveFrom": true,
      "hasCurveTo": true,
      "point": "{0.0052430756798412699, 0.53456118751175719}"
    },
    {
      "_class": "curvePoint",
      "cornerRadius": 0,
      "curveFrom": "{1.1468322607874359, 0.43847992831845478}",
      "curveMode": 4,
      "curveTo": "{0.7597843031667938, 0.25592553585122485}",
      "hasCurveFrom": true,
      "hasCurveTo": true,
      "point": "{0.88790122293669482, 0}"
    },
    {
      "_class": "curvePoint",
      "cornerRadius": 0,
      "curveFrom": "{0.48197287713942194, 1.2499298355054282}",
      "curveMode": 4,
      "curveTo": "{0.91015310900198498, 0.64374443659504188}",
      "hasCurveFrom": true,
      "hasCurveTo": true,
      "point": "{0.65324496988444336, 0.84114775093761973}"
    }
  ],
  "resizingConstraint": 63,
  "resizingType": 0,
  "rotation": 0,
  "shouldBreakMaskChain": false,
  "style": {
    "_class": "style",
    "do_objectID": "65038205-32F4-46C2-887D-EEA65ABB21C5",
    "endMarkerType": 0,
    "fills": [
      {
        "_class": "fill",
        "color": {
          "_class": "color",
          "alpha": 1,
          "blue": 0.1764705882352941,
          "green": 0.1764705882352941,
          "red": 0.1764705882352941
        },
        "fillType": 0,
        "isEnabled": true,
        "noiseIndex": 0,
        "noiseIntensity": 0,
        "patternFillType": 1,
        "patternTileScale": 1
      }
    ],
    "miterLimit": 10,
    "startMarkerType": 0,
    "windingRule": 1
  }
}