{
  "_class": "shapePath",
  "booleanOperation": -1,
  "clippingMaskMode": 0,
  "do_objectID": "C02FD475-D747-42C1-90A4-9694F13DDE1B",
  "edited": true,
  "exportOptions": {
    "_class": "exportOptions",
    "do_objectID": "D2D48D5F-53E9-48A6-B0FE-59321C0E6D24",
    "exportFormats": [
    ],
    "includedLayerIds": [
    ],
    "layerOptions": 0,
    "shouldTrim": false
  },
  "frame": {
    "_class": "rect",
    "constrainProportions": false,
    "do_objectID": "4956A0DA-E936-418B-AE10-EABF946C3063",
    "height": 0.1058906030855695,
    "width": 0.1059863482545573,
    "x": 16.04642108585805,
    "y": 33.0470471368217
  },
  "hasClippingMask": false,
  "isClosed": true,
  "isFixedToViewport": false,
  "isFlippedHorizontal": false,
  "isFlippedVertical": false,
  "isLocked": false,
  "isVisible": true,
  "layerListExpandedType": 0,
  "name": "Path",
  "nameIsFixed": false,
  "pointRadiusBehaviour": 0,
  "points": [
    {
      "_class": "curvePoint",
      "cornerRadius": 0,
      "curveFrom": "{0.927773505347119, 0.16871656983300909}",
      "curveMode": 3,
      "curveTo": "{0.2467735053471074, -0.080283430166957714}",
      "hasCurveFrom": true,
      "hasCurveTo": true,
      "point": "{0.48277350534712582, 0.0067165698330313717}"
    },
    {
      "_class": "curvePoint",
      "cornerRadius": 0,
      "curveFrom": "{-0.26922649465288373, 0.7037165698330341}",
      "curveMode": 3,
      "curveTo": "{0.40977350534711832, 0.9507165698330482}",
      "hasCurveFrom": true,
      "hasCurveTo": true,
      "point": "{0.17377350534712832, 0.86571656983301182}"
    }
  ],
  "resizingConstraint": 63,
  "resizingType": 0,
  "rotation": 0,
  "shouldBreakMaskChain": false,
  "style": {
    "_class": "style",
    "do_objectID": "2252C47A-ADDA-4477-B9B7-2F0582173D82",
    "endMarkerType": 0,
    "fills": [
      {
        "_class": "fill",
        "color": {
          "_class": "color",
          "alpha": 1,
          "blue": 0.1764705882352941,
          "green": 0.1764705882352941,
          "red": 0.1764705882352941
        },
        "fillType": 0,
        "isEnabled": true,
        "noiseIndex": 0,
        "noiseIntensity": 0,
        "patternFillType": 1,
        "patternTileScale": 1
      }
    ],
    "miterLimit": 10,
    "startMarkerType": 0,
    "windingRule": 1
  }
}