{
  "_class": "shapePath",
  "booleanOperation": -1,
  "clippingMaskMode": 0,
  "do_objectID": "C65708C1-D585-4EC7-9720-ACBC87B3936C",
  "edited": true,
  "exportOptions": {
    "_class": "exportOptions",
    "do_objectID": "3F1772BC-223D-46F2-8E74-5AC5A476BF96",
    "exportFormats": [
    ],
    "includedLayerIds": [
    ],
    "layerOptions": 0,
    "shouldTrim": false
  },
  "frame": {
    "_class": "rect",
    "constrainProportions": false,
    "do_objectID": "FD6FC2F6-4138-42EA-B287-B8AE651EB6F8",
    "height": 0.1058906030855546,
    "width": 0.1059863482545715,
    "x": 21.74895139079529,
    "y": 1.540815536941243
  },
  "hasClippingMask": false,
  "isClosed": true,
  "isFixedToViewport": false,
  "isFlippedHorizontal": false,
  "isFlippedVertical": false,
  "isLocked": false,
  "isVisible": true,
  "layerListExpandedType": 0,
  "name": "Path",
  "nameIsFixed": false,
  "pointRadiusBehaviour": 0,
  "points": [
    {
      "_class": "curvePoint",
      "cornerRadius": 0,
      "curveFrom": "{-0.26738085366218911, 0.70429218900634183}",
      "curveMode": 3,
      "curveTo": "{0.41161914633778451, 0.94929218900634638}",
      "hasCurveFrom": true,
      "hasCurveTo": true,
      "point": "{0.17161914633777542, 0.86429218900636684}"
    },
    {
      "_class": "curvePoint",
      "cornerRadius": 0,
      "curveFrom": "{0.92761914633780407, 0.16929218900637366}",
      "curveMode": 4,
      "curveTo": "{0.24661914633776405, -0.077707810993640436}",
      "hasCurveFrom": true,
      "hasCurveTo": true,
      "point": "{0.48361914633778724, 0.0062921890063627473}"
    }
  ],
  "resizingConstraint": 63,
  "resizingType": 0,
  "rotation": 0,
  "shouldBreakMaskChain": false,
  "style": {
    "_class": "style",
    "do_objectID": "50C469DC-EBF7-432A-9A41-CB12CCAB923E",
    "endMarkerType": 0,
    "fills": [
      {
        "_class": "fill",
        "color": {
          "_class": "color",
          "alpha": 1,
          "blue": 0.1764705882352941,
          "green": 0.1764705882352941,
          "red": 0.1764705882352941
        },
        "fillType": 0,
        "isEnabled": true,
        "noiseIndex": 0,
        "noiseIntensity": 0,
        "patternFillType": 1,
        "patternTileScale": 1
      }
    ],
    "miterLimit": 10,
    "startMarkerType": 0,
    "windingRule": 1
  }
}