{
  "_class": "shapePath",
  "booleanOperation": -1,
  "clippingMaskMode": 0,
  "do_objectID": "CBF22C3B-FD27-4E4D-B104-F8493E5BD683",
  "edited": true,
  "exportOptions": {
    "_class": "exportOptions",
    "do_objectID": "A0E08FD5-CD8F-4509-BFBA-03939A18128C",
    "exportFormats": [
    ],
    "includedLayerIds": [
    ],
    "layerOptions": 0,
    "shouldTrim": false
  },
  "frame": {
    "_class": "rect",
    "constrainProportions": false,
    "do_objectID": "F976E782-EF1F-4EB5-BED8-4F201EC5C468",
    "height": 0.1058906030855589,
    "width": 0.1059863482545582,
    "x": 7.889977084549407,
    "y": 21.16453252577789
  },
  "hasClippingMask": false,
  "isClosed": true,
  "isFixedToViewport": false,
  "isFlippedHorizontal": false,
  "isFlippedVertical": false,
  "isLocked": false,
  "isVisible": true,
  "layerListExpandedType": 0,
  "name": "Path",
  "nameIsFixed": false,
  "pointRadiusBehaviour": 0,
  "points": [
    {
      "_class": "curvePoint",
      "cornerRadius": 0,
      "curveFrom": "{0.92727578820816348, 0.16945236461623381}",
      "curveMode": 4,
      "curveTo": "{0.24827578820816143, -0.078547635383813486}",
      "hasCurveFrom": true,
      "hasCurveTo": true,
      "point": "{0.48627578820816098, 0.0064523646162228943}"
    },
    {
      "_class": "curvePoint",
      "cornerRadius": 0,
      "curveFrom": "{-0.26872421179183448, 0.70145236461621607}",
      "curveMode": 3,
      "curveTo": "{0.41027578820816757, 0.95145236461621607}",
      "hasCurveFrom": true,
      "hasCurveTo": true,
      "point": "{0.17227578820815381, 0.86445236461622699}"
    }
  ],
  "resizingConstraint": 63,
  "resizingType": 0,
  "rotation": 0,
  "shouldBreakMaskChain": false,
  "style": {
    "_class": "style",
    "do_objectID": "5DCB159D-605B-4329-ADC3-2A2A9CFDAF40",
    "endMarkerType": 0,
    "fills": [
      {
        "_class": "fill",
        "color": {
          "_class": "color",
          "alpha": 1,
          "blue": 0.1764705882352941,
          "green": 0.1764705882352941,
          "red": 0.1764705882352941
        },
        "fillType": 0,
        "isEnabled": true,
        "noiseIndex": 0,
        "noiseIntensity": 0,
        "patternFillType": 1,
        "patternTileScale": 1
      }
    ],
    "miterLimit": 10,
    "startMarkerType": 0,
    "windingRule": 1
  }
}