{
  "_class": "shapePath",
  "booleanOperation": -1,
  "clippingMaskMode": 0,
  "do_objectID": "D32DE952-45F3-4423-B669-CF4ECCC156B6",
  "edited": true,
  "exportOptions": {
    "_class": "exportOptions",
    "do_objectID": "F239465F-BD41-4BDC-B028-698BB0109583",
    "exportFormats": [
    ],
    "includedLayerIds": [
    ],
    "layerOptions": 0,
    "shouldTrim": false
  },
  "frame": {
    "_class": "rect",
    "constrainProportions": false,
    "do_objectID": "8B259B9F-108B-474E-A00A-0FE967631DA2",
    "height": 0.1195382103541611,
    "width": 0.1059863482545502,
    "x": 26.4832689129357,
    "y": 21.50761305810796
  },
  "hasClippingMask": false,
  "isClosed": true,
  "isFixedToViewport": false,
  "isFlippedHorizontal": false,
  "isFlippedVertical": false,
  "isLocked": false,
  "isVisible": true,
  "layerListExpandedType": 0,
  "name": "Path",
  "nameIsFixed": false,
  "pointRadiusBehaviour": 0,
  "points": [
    {
      "_class": "curvePoint",
      "cornerRadius": 0,
      "curveFrom": "{0.13332914460768702, 0.014246947082740246}",
      "curveMode": 3,
      "curveTo": "{-0.13621038204533809, 0.26187245590229641}",
      "hasCurveFrom": true,
      "hasCurveTo": true,
      "point": "{0.030326539779550889, 0.10786974219809978}"
    },
    {
      "_class": "curvePoint",
      "cornerRadius": 0,
      "curveFrom": "{0.56170446375262162, 0.18656716417909758}",
      "curveMode": 4,
      "curveTo": "{0.54052635808703731, 0.082089552238796756}",
      "hasCurveFrom": true,
      "hasCurveTo": true,
      "point": "{0.66374442741410788, 0}"
    },
    {
      "_class": "curvePoint",
      "cornerRadius": 0,
      "curveFrom": "{0.86782435473708053, 0.98575305291725979}",
      "curveMode": 3,
      "curveTo": "{1.1373638813901057, 0.73541383989144904}",
      "hasCurveFrom": true,
      "hasCurveTo": true,
      "point": "{0.96890167723197185, 0.89213025780190025}"
    },
    {
      "_class": "curvePoint",
      "cornerRadius": 0,
      "curveFrom": "{0.442336959091986, 0.81275440976935809}",
      "curveMode": 4,
      "curveTo": "{0.46158978242438009, 0.9172320217096589}",
      "hasCurveFrom": true,
      "hasCurveTo": true,
      "point": "{0.33644643076406461, 1}"
    }
  ],
  "resizingConstraint": 63,
  "resizingType": 0,
  "rotation": 0,
  "shouldBreakMaskChain": false,
  "style": {
    "_class": "style",
    "do_objectID": "F9B68448-99D5-44A5-8798-9D3F7780EA09",
    "endMarkerType": 0,
    "fills": [
      {
        "_class": "fill",
        "color": {
          "_class": "color",
          "alpha": 1,
          "blue": 0.1764705882352941,
          "green": 0.1764705882352941,
          "red": 0.1764705882352941
        },
        "fillType": 0,
        "isEnabled": true,
        "noiseIndex": 0,
        "noiseIntensity": 0,
        "patternFillType": 1,
        "patternTileScale": 1
      }
    ],
    "miterLimit": 10,
    "startMarkerType": 0,
    "windingRule": 1
  }
}