{
  "_class": "shapePath",
  "booleanOperation": -1,
  "clippingMaskMode": 0,
  "do_objectID": "D4A8BEA1-66C3-4F41-AEE5-FF03E8E67332",
  "edited": true,
  "exportOptions": {
    "_class": "exportOptions",
    "do_objectID": "AE4F1276-B7BB-4FCE-AE04-58F5073630A9",
    "exportFormats": [
    ],
    "includedLayerIds": [
    ],
    "layerOptions": 0,
    "shouldTrim": false
  },
  "frame": {
    "_class": "rect",
    "constrainProportions": false,
    "do_objectID": "D543883F-62EB-4DBC-ADCB-CEDB429E0A76",
    "height": 0.1058906030855553,
    "width": 0.1059863482545613,
    "x": 3.129704993953496,
    "y": 20.09215365195908
  },
  "hasClippingMask": false,
  "isClosed": true,
  "isFixedToViewport": false,
  "isFlippedHorizontal": false,
  "isFlippedVertical": false,
  "isLocked": false,
  "isVisible": true,
  "layerListExpandedType": 0,
  "name": "Path",
  "nameIsFixed": false,
  "pointRadiusBehaviour": 0,
  "points": [
    {
      "_class": "curvePoint",
      "cornerRadius": 0,
      "curveFrom": "{1.0531425558558496, 0.27572595492773644}",
      "curveMode": 3,
      "curveTo": "{0.4071425558558488, -0.11927404507224537}",
      "hasCurveFrom": true,
      "hasCurveTo": true,
      "point": "{0.63314255585584789, 0.017725954927755083}"
    },
    {
      "_class": "curvePoint",
      "cornerRadius": 0,
      "curveFrom": "{-0.28885744414414916, 0.57472595492774303}",
      "curveMode": 3,
      "curveTo": "{0.3621425558558542, 0.97072595492775804}",
      "hasCurveFrom": true,
      "hasCurveTo": true,
      "point": "{0.13314255585584789, 0.83272595492775281}"
    }
  ],
  "resizingConstraint": 63,
  "resizingType": 0,
  "rotation": 0,
  "shouldBreakMaskChain": false,
  "style": {
    "_class": "style",
    "do_objectID": "D83DB7A6-62B1-4EF1-8E11-8C4082BC8DAF",
    "endMarkerType": 0,
    "fills": [
      {
        "_class": "fill",
        "color": {
          "_class": "color",
          "alpha": 1,
          "blue": 0.1764705882352941,
          "green": 0.1764705882352941,
          "red": 0.1764705882352941
        },
        "fillType": 0,
        "isEnabled": true,
        "noiseIndex": 0,
        "noiseIntensity": 0,
        "patternFillType": 1,
        "patternTileScale": 1
      }
    ],
    "miterLimit": 10,
    "startMarkerType": 0,
    "windingRule": 1
  }
}