{
  "_class": "shapePath",
  "booleanOperation": -1,
  "clippingMaskMode": 0,
  "do_objectID": "DC72D97F-39FE-4012-BB0B-E42787012773",
  "edited": true,
  "exportOptions": {
    "_class": "exportOptions",
    "do_objectID": "F7EAA8E1-0285-4016-BF7B-A854BC91E425",
    "exportFormats": [
    ],
    "includedLayerIds": [
    ],
    "layerOptions": 0,
    "shouldTrim": false
  },
  "frame": {
    "_class": "rect",
    "constrainProportions": false,
    "do_objectID": "10239921-721C-47C6-8218-25744A42D681",
    "height": 0.105890603085566,
    "width": 0.1059863482545604,
    "x": 3.968325099721137,
    "y": 26.97600342488436
  },
  "hasClippingMask": false,
  "isClosed": true,
  "isFixedToViewport": false,
  "isFlippedHorizontal": false,
  "isFlippedVertical": false,
  "isLocked": false,
  "isVisible": true,
  "layerListExpandedType": 0,
  "name": "Path",
  "nameIsFixed": false,
  "pointRadiusBehaviour": 0,
  "points": [
    {
      "_class": "curvePoint",
      "cornerRadius": 0,
      "curveFrom": "{-0.26836023125834174, 0.70145277196644429}",
      "curveMode": 3,
      "curveTo": "{0.41163976874165797, 0.95045277196641109}",
      "hasCurveFrom": true,
      "hasCurveTo": true,
      "point": "{0.17263976874165365, 0.86145277196641246}"
    },
    {
      "_class": "curvePoint",
      "cornerRadius": 0,
      "curveFrom": "{0.92663976874165144, 0.16645277196641928}",
      "curveMode": 3,
      "curveTo": "{0.24663976874165172, -0.07854722803358527}",
      "hasCurveFrom": true,
      "hasCurveTo": true,
      "point": "{0.48563976874165604, 0.0064527719664511096}"
    }
  ],
  "resizingConstraint": 63,
  "resizingType": 0,
  "rotation": 0,
  "shouldBreakMaskChain": false,
  "style": {
    "_class": "style",
    "do_objectID": "2638CC86-171F-46FD-AE3D-0D2C1B401919",
    "endMarkerType": 0,
    "fills": [
      {
        "_class": "fill",
        "color": {
          "_class": "color",
          "alpha": 1,
          "blue": 0.1764705882352941,
          "green": 0.1764705882352941,
          "red": 0.1764705882352941
        },
        "fillType": 0,
        "isEnabled": true,
        "noiseIndex": 0,
        "noiseIntensity": 0,
        "patternFillType": 1,
        "patternTileScale": 1
      }
    ],
    "miterLimit": 10,
    "startMarkerType": 0,
    "windingRule": 1
  }
}