{
  "_class": "shapePath",
  "booleanOperation": -1,
  "clippingMaskMode": 0,
  "do_objectID": "DD15F0CB-F9D5-402E-BBA0-6A2A579BB833",
  "edited": true,
  "exportOptions": {
    "_class": "exportOptions",
    "do_objectID": "6477B1D6-C3FA-4786-AA71-FFD57B20002A",
    "exportFormats": [
    ],
    "includedLayerIds": [
    ],
    "layerOptions": 0,
    "shouldTrim": false
  },
  "frame": {
    "_class": "rect",
    "constrainProportions": false,
    "do_objectID": "324CBCB6-4A30-4EA6-8C69-B8F112C6AE17",
    "height": 0.1058906030855873,
    "width": 0.105986348254568,
    "x": 19.15495861065101,
    "y": 31.26248595868873
  },
  "hasClippingMask": false,
  "isClosed": true,
  "isFixedToViewport": false,
  "isFlippedHorizontal": false,
  "isFlippedVertical": false,
  "isLocked": false,
  "isVisible": true,
  "layerListExpandedType": 0,
  "name": "Path",
  "nameIsFixed": false,
  "pointRadiusBehaviour": 0,
  "points": [
    {
      "_class": "curvePoint",
      "cornerRadius": 0,
      "curveFrom": "{1.0386917868553951, 0.18575720726073541}",
      "curveMode": 3,
      "curveTo": "{0.27769178685537099, -0.091242792739251399}",
      "hasCurveFrom": true,
      "hasCurveTo": true,
      "point": "{0.54469178685539532, 0.0077572072607381415}"
    },
    {
      "_class": "curvePoint",
      "cornerRadius": 0,
      "curveFrom": "{-0.30230821314461309, 0.7867572072607345}",
      "curveMode": 4,
      "curveTo": "{0.46169178685539691, 1.0667572072607641}",
      "hasCurveFrom": true,
      "hasCurveTo": true,
      "point": "{0.19469178685537258, 0.96675720726074132}"
    }
  ],
  "resizingConstraint": 63,
  "resizingType": 0,
  "rotation": 0,
  "shouldBreakMaskChain": false,
  "style": {
    "_class": "style",
    "do_objectID": "FA7A993A-4AE2-467D-91BB-B5A8A98A6C80",
    "endMarkerType": 0,
    "fills": [
      {
        "_class": "fill",
        "color": {
          "_class": "color",
          "alpha": 1,
          "blue": 0.1764705882352941,
          "green": 0.1764705882352941,
          "red": 0.1764705882352941
        },
        "fillType": 0,
        "isEnabled": true,
        "noiseIndex": 0,
        "noiseIntensity": 0,
        "patternFillType": 1,
        "patternTileScale": 1
      }
    ],
    "miterLimit": 10,
    "startMarkerType": 0,
    "windingRule": 1
  }
}