{
  "_class": "shapePath",
  "booleanOperation": -1,
  "clippingMaskMode": 0,
  "do_objectID": "E19A92D4-6905-4B40-B3E6-FBF0F93D2220",
  "edited": true,
  "exportOptions": {
    "_class": "exportOptions",
    "do_objectID": "1537ADD3-AB1B-4C93-8D58-DBA15390DFE1",
    "exportFormats": [
    ],
    "includedLayerIds": [
    ],
    "layerOptions": 0,
    "shouldTrim": false
  },
  "frame": {
    "_class": "rect",
    "constrainProportions": false,
    "do_objectID": "77755041-2CE2-44AC-B7A9-1C7755D99AA9",
    "height": 0.1058906030855624,
    "width": 0.1059863482545547,
    "x": 7.55657888259188,
    "y": 24.03142333394505
  },
  "hasClippingMask": false,
  "isClosed": true,
  "isFixedToViewport": false,
  "isFlippedHorizontal": false,
  "isFlippedVertical": false,
  "isLocked": false,
  "isVisible": true,
  "layerListExpandedType": 0,
  "name": "Path",
  "nameIsFixed": false,
  "pointRadiusBehaviour": 0,
  "points": [
    {
      "_class": "curvePoint",
      "cornerRadius": 0,
      "curveFrom": "{-0.27037640430017973, 0.70343749899598151}",
      "curveMode": 3,
      "curveTo": "{0.41162359569982243, 0.95043749899599561}",
      "hasCurveFrom": true,
      "hasCurveTo": true,
      "point": "{0.17462359569982766, 0.86343749899594968}"
    },
    {
      "_class": "curvePoint",
      "cornerRadius": 0,
      "curveFrom": "{0.926623595699823, 0.1694374989959897}",
      "curveMode": 3,
      "curveTo": "{0.24762359569982095, -0.078562501004057594}",
      "hasCurveFrom": true,
      "hasCurveTo": true,
      "point": "{0.48462359569982993, 0.0064374989959787854}"
    }
  ],
  "resizingConstraint": 63,
  "resizingType": 0,
  "rotation": 0,
  "shouldBreakMaskChain": false,
  "style": {
    "_class": "style",
    "do_objectID": "7B13C77E-D8D9-4AAA-8FDA-8A99D03BD97E",
    "endMarkerType": 0,
    "fills": [
      {
        "_class": "fill",
        "color": {
          "_class": "color",
          "alpha": 1,
          "blue": 0.1764705882352941,
          "green": 0.1764705882352941,
          "red": 0.1764705882352941
        },
        "fillType": 0,
        "isEnabled": true,
        "noiseIndex": 0,
        "noiseIntensity": 0,
        "patternFillType": 1,
        "patternTileScale": 1
      }
    ],
    "miterLimit": 10,
    "startMarkerType": 0,
    "windingRule": 1
  }
}