{
  "_class": "shapePath",
  "booleanOperation": -1,
  "clippingMaskMode": 0,
  "do_objectID": "E63C2B07-BF86-44B9-83C3-1C343019CD7C",
  "edited": true,
  "exportOptions": {
    "_class": "exportOptions",
    "do_objectID": "2836ACB9-0BFD-4F52-B1AB-35ECAAFE0A3E",
    "exportFormats": [
    ],
    "includedLayerIds": [
    ],
    "layerOptions": 0,
    "shouldTrim": false
  },
  "frame": {
    "_class": "rect",
    "constrainProportions": false,
    "do_objectID": "69C62324-B746-4D6E-9F58-0F768255A0DA",
    "height": 0.1632236525190507,
    "width": 0.5706935271513061,
    "x": 42.36423317084156,
    "y": 18.87890780002199
  },
  "hasClippingMask": false,
  "isClosed": true,
  "isFixedToViewport": false,
  "isFlippedHorizontal": false,
  "isFlippedVertical": false,
  "isLocked": false,
  "isVisible": true,
  "layerListExpandedType": 0,
  "name": "Path",
  "nameIsFixed": false,
  "pointRadiusBehaviour": 0,
  "points": [
    {
      "_class": "curvePoint",
      "cornerRadius": 0,
      "curveFrom": "{0.85889175670070028, 1.0751855783636106}",
      "curveMode": 4,
      "curveTo": "{0.97552240206045615, 0.9012877260404657}",
      "hasCurveFrom": true,
      "hasCurveTo": true,
      "point": "{0.92588326153539502, 0.96240039985689063}"
    },
    {
      "_class": "curvePoint",
      "cornerRadius": 0,
      "curveFrom": "{0.73884753147673987, 0.80986714081916245}",
      "curveMode": 4,
      "curveTo": "{0.83940590497595091, 0.9147027032196865}",
      "hasCurveFrom": true,
      "hasCurveTo": true,
      "point": "{0.82219577316067127, 0.73931429787663605}"
    },
    {
      "_class": "curvePoint",
      "cornerRadius": 0,
      "curveFrom": "{0.57030202568245314, 0.69211345224607179}",
      "curveMode": 4,
      "curveTo": "{0.65521482480413284, 0.88041998376168895}",
      "hasCurveFrom": true,
      "hasCurveTo": true,
      "point": "{0.57186658312020144, 0.95146967771085522}"
    },
    {
      "_class": "curvePoint",
      "cornerRadius": 0,
      "curveFrom": "{0.39023568784652862, 0.94799172066440418}",
      "curveMode": 4,
      "curveTo": "{0.52023618767436242, 0.70453472741201273}",
      "hasCurveFrom": true,
      "hasCurveTo": true,
      "point": "{0.46832132723983161, 0.73235838378370577}"
    },
    {
      "_class": "curvePoint",
      "cornerRadius": 0,
      "curveFrom": "{0.293944289177549, 0.42033595161534743}",
      "curveMode": 4,
      "curveTo": "{0.39606722011450834, 0.55051091535437902}",
      "hasCurveFrom": true,
      "hasCurveTo": true,
      "point": "{0.36491830385379959, 0.51225338784329055}"
    },
    {
      "_class": "curvePoint",
      "cornerRadius": 0,
      "curveFrom": "{0.12198520351905774, 0.40791467644940649}",
      "curveMode": 4,
      "curveTo": "{0.19352814817267575, 0.74875446700275172}",
      "hasCurveFrom": true,
      "hasCurveTo": true,
      "point": "{0.17774034130080654, 0.36121068182548216}"
    },
    {
      "_class": "curvePoint",
      "cornerRadius": 0,
      "curveFrom": "{-0.021669615765529504, 0.26581528855107384}",
      "curveMode": 4,
      "curveTo": "{0.066798995714692541, 0.45461867107333087}",
      "hasCurveFrom": true,
      "hasCurveTo": true,
      "point": "{0.010901625438605926, 0.50231636771053501}"
    },
    {
      "_class": "curvePoint",
      "cornerRadius": 0,
      "curveFrom": "{0.12980799070783153, 0.0939048402544886}",
      "curveMode": 4,
      "curveTo": "{0.024413712401021598, 0.19774670064173278}",
      "hasCurveFrom": true,
      "hasCurveTo": true,
      "point": "{0.074479550409112333, 0.14060883487842707}"
    },
    {
      "_class": "curvePoint",
      "cornerRadius": 0,
      "curveFrom": "{0.2363401289693601, 0.32295315431439364}",
      "curveMode": 4,
      "curveTo": "{0.18556312848956413, 0.046703994623924355}",
      "hasCurveFrom": true,
      "hasCurveTo": true,
      "point": "{0.24117603377697514, 0}"
    },
    {
      "_class": "curvePoint",
      "cornerRadius": 0,
      "curveFrom": "{0.39364926771071701, 0.28121766975684004}",
      "curveMode": 2,
      "curveTo": "{0.30062921641158791, 0.16396083219038926}",
      "hasCurveFrom": true,
      "hasCurveTo": true,
      "point": "{0.34457905716300713, 0.21960814493378938}"
    },
    {
      "_class": "curvePoint",
      "cornerRadius": 0,
      "curveFrom": "{0.56475495840314904, 0.31450668720155778}",
      "curveMode": 4,
      "curveTo": "{0.44527966315655604, 0.13216236776557708}",
      "hasCurveFrom": true,
      "hasCurveTo": true,
      "point": "{0.44812431304337697, 0.44219739590740403}"
    },
    {
      "_class": "curvePoint",
      "cornerRadius": 0,
      "curveFrom": "{0.7742634225676962, 0.47349900932556221}",
      "curveMode": 4,
      "curveTo": "{0.68095890627989153, 0.19228133956872215}",
      "hasCurveFrom": true,
      "hasCurveTo": true,
      "point": "{0.71893498226897701, 0.52069985495612647}"
    },
    {
      "_class": "curvePoint",
      "cornerRadius": 0,
      "curveFrom": "{0.88748048806327995, 0.64044094755577674}",
      "curveMode": 4,
      "curveTo": "{0.83001856034944499, 0.42629816369499796}",
      "hasCurveFrom": true,
      "hasCurveTo": true,
      "point": "{0.88548923314250205, 0.37959416907107357}"
    },
    {
      "_class": "curvePoint",
      "cornerRadius": 0,
      "curveFrom": "{1.021747962721345, 0.83570339316430997}",
      "curveMode": 4,
      "curveTo": "{0.93697739609400321, 0.62652911936991607}",
      "hasCurveFrom": true,
      "hasCurveTo": true,
      "point": "{0.98903448902287183, 0.59870546299822314}"
    }
  ],
  "resizingConstraint": 63,
  "resizingType": 0,
  "rotation": 0,
  "shouldBreakMaskChain": false,
  "style": {
    "_class": "style",
    "do_objectID": "309B7F48-4CF5-4AD4-A733-825210E3F16F",
    "endMarkerType": 0,
    "fills": [
      {
        "_class": "fill",
        "color": {
          "_class": "color",
          "alpha": 1,
          "blue": 0.1764705882352941,
          "green": 0.1764705882352941,
          "red": 0.1764705882352941
        },
        "fillType": 0,
        "isEnabled": true,
        "noiseIndex": 0,
        "noiseIntensity": 0,
        "patternFillType": 1,
        "patternTileScale": 1
      }
    ],
    "miterLimit": 10,
    "startMarkerType": 0,
    "windingRule": 1
  }
}