{
  "_class": "shapePath",
  "booleanOperation": -1,
  "clippingMaskMode": 0,
  "do_objectID": "E749312A-2C65-4B1F-9D84-5E261E99F816",
  "edited": true,
  "exportOptions": {
    "_class": "exportOptions",
    "do_objectID": "886CD343-14AD-4156-9FAA-53DACE3F2107",
    "exportFormats": [
    ],
    "includedLayerIds": [
    ],
    "layerOptions": 0,
    "shouldTrim": false
  },
  "frame": {
    "_class": "rect",
    "constrainProportions": false,
    "do_objectID": "313E4A4D-571C-4E5C-BD97-36085FDD712E",
    "height": 0.1058906030855589,
    "width": 0.1154083912260901,
    "x": 6.269082338826894,
    "y": 16.94772502989792
  },
  "hasClippingMask": false,
  "isClosed": true,
  "isFixedToViewport": false,
  "isFlippedHorizontal": false,
  "isFlippedVertical": false,
  "isLocked": false,
  "isVisible": true,
  "layerListExpandedType": 0,
  "name": "Path",
  "nameIsFixed": false,
  "pointRadiusBehaviour": 0,
  "points": [
    {
      "_class": "curvePoint",
      "cornerRadius": 0,
      "curveFrom": "{0.12950232148402693, 0.044999999999987494}",
      "curveMode": 3,
      "curveTo": "{-0.082905903157540664, 0.54399999999998272}",
      "hasCurveFrom": true,
      "hasCurveTo": true,
      "point": "{0.013451470272572616, 0.31799999999998363}"
    },
    {
      "_class": "curvePoint",
      "cornerRadius": 0,
      "curveFrom": "{1.1205062569805944, 0.53099999999997749}",
      "curveMode": 4,
      "curveTo": "{0.7772770727915792, 0.23399999999998045}",
      "hasCurveFrom": true,
      "hasCurveTo": true,
      "point": "{0.93904492599541123, 0}"
    },
    {
      "_class": "curvePoint",
      "cornerRadius": 0,
      "curveFrom": "{0.36230736239911954, 1.2009999999999934}",
      "curveMode": 4,
      "curveTo": "{0.86519438431540485, 0.68199999999998795}",
      "hasCurveFrom": true,
      "hasCurveTo": true,
      "point": "{0.58807901839230248, 0.81499999999999773}"
    }
  ],
  "resizingConstraint": 63,
  "resizingType": 0,
  "rotation": 0,
  "shouldBreakMaskChain": false,
  "style": {
    "_class": "style",
    "do_objectID": "A43AC2FA-01E1-488D-90DF-4ED113EB02F3",
    "endMarkerType": 0,
    "fills": [
      {
        "_class": "fill",
        "color": {
          "_class": "color",
          "alpha": 1,
          "blue": 0.1764705882352941,
          "green": 0.1764705882352941,
          "red": 0.1764705882352941
        },
        "fillType": 0,
        "isEnabled": true,
        "noiseIndex": 0,
        "noiseIntensity": 0,
        "patternFillType": 1,
        "patternTileScale": 1
      }
    ],
    "miterLimit": 10,
    "startMarkerType": 0,
    "windingRule": 1
  }
}