{
  "_class": "shapePath",
  "booleanOperation": -1,
  "clippingMaskMode": 0,
  "do_objectID": "EFC5165D-0075-4084-BF1C-46076D613803",
  "edited": true,
  "exportOptions": {
    "_class": "exportOptions",
    "do_objectID": "C00DA9AB-914D-49AB-B9FD-D21670C08819",
    "exportFormats": [
    ],
    "includedLayerIds": [
    ],
    "layerOptions": 0,
    "shouldTrim": false
  },
  "frame": {
    "_class": "rect",
    "constrainProportions": false,
    "do_objectID": "63DB71B8-EDC3-4CB0-8E85-08C9B0461E97",
    "height": 0.1058906030855606,
    "width": 0.1059863482545786,
    "x": 28.25337623550182,
    "y": 14.82940214018165
  },
  "hasClippingMask": false,
  "isClosed": true,
  "isFixedToViewport": false,
  "isFlippedHorizontal": false,
  "isFlippedVertical": false,
  "isLocked": false,
  "isVisible": true,
  "layerListExpandedType": 0,
  "name": "Path",
  "nameIsFixed": false,
  "pointRadiusBehaviour": 0,
  "points": [
    {
      "_class": "curvePoint",
      "cornerRadius": 0,
      "curveFrom": "{0.92740797051806112, 0.16658462471252733}",
      "curveMode": 3,
      "curveTo": "{0.24840797051803065, -0.079415375287453571}",
      "hasCurveFrom": true,
      "hasCurveTo": true,
      "point": "{0.48340797051804429, 0.0065846247125023183}"
    },
    {
      "_class": "curvePoint",
      "cornerRadius": 0,
      "curveFrom": "{-0.26959202948194161, 0.70258462471252869}",
      "curveMode": 4,
      "curveTo": "{0.40940797051803202, 0.94958462471254279}",
      "hasCurveFrom": true,
      "hasCurveTo": true,
      "point": "{0.17340797051804202, 0.86058462471254416}"
    }
  ],
  "resizingConstraint": 63,
  "resizingType": 0,
  "rotation": 0,
  "shouldBreakMaskChain": false,
  "style": {
    "_class": "style",
    "do_objectID": "C36F2C39-3DAB-4506-9522-C0AC70CB8FEA",
    "endMarkerType": 0,
    "fills": [
      {
        "_class": "fill",
        "color": {
          "_class": "color",
          "alpha": 1,
          "blue": 0.1764705882352941,
          "green": 0.1764705882352941,
          "red": 0.1764705882352941
        },
        "fillType": 0,
        "isEnabled": true,
        "noiseIndex": 0,
        "noiseIntensity": 0,
        "patternFillType": 1,
        "patternTileScale": 1
      }
    ],
    "miterLimit": 10,
    "startMarkerType": 0,
    "windingRule": 1
  }
}