{
  "_class": "shapePath",
  "booleanOperation": -1,
  "clippingMaskMode": 0,
  "do_objectID": "F3F42168-F124-456A-8B7B-322B7B8706A3",
  "edited": true,
  "exportOptions": {
    "_class": "exportOptions",
    "do_objectID": "E676ADC4-7F4D-4FBB-A729-3A0BD87FBD7C",
    "exportFormats": [
    ],
    "includedLayerIds": [
    ],
    "layerOptions": 0,
    "shouldTrim": false
  },
  "frame": {
    "_class": "rect",
    "constrainProportions": false,
    "do_objectID": "15A1E951-FF59-467E-9D8A-AFAB526D7AC6",
    "height": 0.1058906030855589,
    "width": 0.1059863482545822,
    "x": 37.0201112387059,
    "y": 27.52292848081933
  },
  "hasClippingMask": false,
  "isClosed": true,
  "isFixedToViewport": false,
  "isFlippedHorizontal": false,
  "isFlippedVertical": false,
  "isLocked": false,
  "isVisible": true,
  "layerListExpandedType": 0,
  "name": "Path",
  "nameIsFixed": false,
  "pointRadiusBehaviour": 0,
  "points": [
    {
      "_class": "curvePoint",
      "cornerRadius": 0,
      "curveFrom": "{0.9293366196497459, 0.16843736417462196}",
      "curveMode": 3,
      "curveTo": "{0.24633661964975317, -0.078562635825392135}",
      "hasCurveFrom": true,
      "hasCurveTo": true,
      "point": "{0.48533661964972907, 0.0064373641745874011}"
    },
    {
      "_class": "curvePoint",
      "cornerRadius": 0,
      "curveFrom": "{-0.26966338035026638, 0.70343736417459013}",
      "curveMode": 3,
      "curveTo": "{0.41033661964974044, 0.95043736417460423}",
      "hasCurveFrom": true,
      "hasCurveTo": true,
      "point": "{0.17433661964975045, 0.86443736417459149}"
    }
  ],
  "resizingConstraint": 63,
  "resizingType": 0,
  "rotation": 0,
  "shouldBreakMaskChain": false,
  "style": {
    "_class": "style",
    "do_objectID": "2BE109D2-1C45-4116-A500-96A84725CC57",
    "endMarkerType": 0,
    "fills": [
      {
        "_class": "fill",
        "color": {
          "_class": "color",
          "alpha": 1,
          "blue": 0.1764705882352941,
          "green": 0.1764705882352941,
          "red": 0.1764705882352941
        },
        "fillType": 0,
        "isEnabled": true,
        "noiseIndex": 0,
        "noiseIntensity": 0,
        "patternFillType": 1,
        "patternTileScale": 1
      }
    ],
    "miterLimit": 10,
    "startMarkerType": 0,
    "windingRule": 1
  }
}