{
  "_class": "shapePath",
  "booleanOperation": -1,
  "clippingMaskMode": 0,
  "do_objectID": "FA1EB6A0-344B-42DC-9B16-54D0181ADB03",
  "edited": true,
  "exportOptions": {
    "_class": "exportOptions",
    "do_objectID": "23D92E02-FB6E-4D9F-8DB7-E04D769750AF",
    "exportFormats": [
    ],
    "includedLayerIds": [
    ],
    "layerOptions": 0,
    "shouldTrim": false
  },
  "frame": {
    "_class": "rect",
    "constrainProportions": false,
    "do_objectID": "733D0088-CC6D-443E-A9B1-F9149D20676F",
    "height": 0.2089385740611434,
    "width": 0.2336917807849233,
    "x": 30.79366092428986,
    "y": 34.28368505334495
  },
  "hasClippingMask": false,
  "isClosed": true,
  "isFixedToViewport": false,
  "isFlippedHorizontal": false,
  "isFlippedVertical": false,
  "isLocked": false,
  "isVisible": true,
  "layerListExpandedType": 0,
  "name": "Path",
  "nameIsFixed": false,
  "pointRadiusBehaviour": 0,
  "points": [
    {
      "_class": "curvePoint",
      "cornerRadius": 0,
      "curveFrom": "{0.61236540465439382, 0.95444117856367261}",
      "curveMode": 4,
      "curveTo": "{0.84543244182007671, 0.64043430037823201}",
      "hasCurveFrom": true,
      "hasCurveTo": true,
      "point": "{0.89267106634248938, 0.78365869846280922}"
    },
    {
      "_class": "curvePoint",
      "cornerRadius": 0,
      "curveFrom": "{0.12643278916289707, 0.72466111442797043}",
      "curveMode": 4,
      "curveTo": "{0.33379645710316963, 1.1221185226627093}",
      "hasCurveFrom": true,
      "hasCurveTo": true,
      "point": "{0.18895449808961093, 0.87564835251714745}"
    },
    {
      "_class": "curvePoint",
      "cornerRadius": 0,
      "curveFrom": "{0.18999652657171789, 0.37455703022120385}",
      "curveMode": 4,
      "curveTo": "{0.063216394581458404, 0.57367387633879341}",
      "hasCurveFrom": true,
      "hasCurveTo": true,
      "point": "{0, 0.42346292225007853}"
    },
    {
      "_class": "curvePoint",
      "cornerRadius": 0,
      "curveFrom": "{0.26259117749217842, -0.041143052024296987}",
      "curveMode": 4,
      "curveTo": "{0.15387287252517867, 0.23404962613821112}",
      "hasCurveFrom": true,
      "hasCurveTo": true,
      "point": "{0.1080236193122552, 0.090825228053633841}"
    },
    {
      "_class": "curvePoint",
      "cornerRadius": 0,
      "curveFrom": "{0.54150746787078485, 0.13973112008250851}",
      "curveMode": 4,
      "curveTo": "{0.33622785689474594, 0.078404684046305143}",
      "hasCurveFrom": true,
      "hasCurveTo": true,
      "point": "{0.40569642236888559, 0.2099848221240159}"
    },
    {
      "_class": "curvePoint",
      "cornerRadius": 0,
      "curveFrom": "{0.87391455366446535, 0.14982281208847273}",
      "curveMode": 4,
      "curveTo": "{0.67592914206321464, 0.069865560041243224}",
      "hasCurveFrom": true,
      "hasCurveTo": true,
      "point": "{0.81069815908302667, 0}"
    },
    {
      "_class": "curvePoint",
      "cornerRadius": 0,
      "curveFrom": "{0.8103508162556643, 0.50070318029570138}",
      "curveMode": 4,
      "curveTo": "{0.93643626259117918, 0.30119819217786981}",
      "hasCurveFrom": true,
      "hasCurveTo": true,
      "point": "{1, 0.45179728826682675}"
    }
  ],
  "resizingConstraint": 63,
  "resizingType": 0,
  "rotation": 0,
  "shouldBreakMaskChain": false,
  "style": {
    "_class": "style",
    "do_objectID": "490AAEEF-44FB-4CF0-B1EE-52FCF168B657",
    "endMarkerType": 0,
    "fills": [
      {
        "_class": "fill",
        "color": {
          "_class": "color",
          "alpha": 1,
          "blue": 0.1764705882352941,
          "green": 0.1764705882352941,
          "red": 0.1764705882352941
        },
        "fillType": 0,
        "isEnabled": true,
        "noiseIndex": 0,
        "noiseIntensity": 0,
        "patternFillType": 1,
        "patternTileScale": 1
      }
    ],
    "miterLimit": 10,
    "startMarkerType": 0,
    "windingRule": 1
  }
}