{
  "_class": "shapePath",
  "booleanOperation": -1,
  "clippingMaskMode": 0,
  "do_objectID": "FC2F1C35-F3DD-4B81-9351-EF86B129C25B",
  "edited": true,
  "exportOptions": {
    "_class": "exportOptions",
    "do_objectID": "F6089810-A632-4B8E-B979-BE45059B137A",
    "exportFormats": [
    ],
    "includedLayerIds": [
    ],
    "layerOptions": 0,
    "shouldTrim": false
  },
  "frame": {
    "_class": "rect",
    "constrainProportions": false,
    "do_objectID": "B68F026E-5DEA-470D-AC8B-677FE29001DC",
    "height": 0.1058906030855908,
    "width": 0.1059863482545511,
    "x": 4.57195201454113,
    "y": 27.15557693648574
  },
  "hasClippingMask": false,
  "isClosed": true,
  "isFixedToViewport": false,
  "isFlippedHorizontal": false,
  "isFlippedVertical": false,
  "isLocked": false,
  "isVisible": true,
  "layerListExpandedType": 0,
  "name": "Path",
  "nameIsFixed": false,
  "pointRadiusBehaviour": 0,
  "points": [
    {
      "_class": "curvePoint",
      "cornerRadius": 0,
      "curveFrom": "{-0.26983010593593093, 0.70217036539281708}",
      "curveMode": 3,
      "curveTo": "{0.41216989406407123, 0.95117036539284072}",
      "hasCurveFrom": true,
      "hasCurveTo": true,
      "point": "{0.17316989406407401, 0.86217036539284209}"
    },
    {
      "_class": "curvePoint",
      "cornerRadius": 0,
      "curveFrom": "{0.9271698940640718, 0.17017036539283481}",
      "curveMode": 4,
      "curveTo": "{0.24916989406406742, -0.076829634607179287}",
      "hasCurveFrom": true,
      "hasCurveTo": true,
      "point": "{0.4861698940640693, 0.0061703653928475433}"
    }
  ],
  "resizingConstraint": 63,
  "resizingType": 0,
  "rotation": 0,
  "shouldBreakMaskChain": false,
  "style": {
    "_class": "style",
    "do_objectID": "E2CBB8B0-9C66-4D40-BC11-66CABF04E0EB",
    "endMarkerType": 0,
    "fills": [
      {
        "_class": "fill",
        "color": {
          "_class": "color",
          "alpha": 1,
          "blue": 0.1764705882352941,
          "green": 0.1764705882352941,
          "red": 0.1764705882352941
        },
        "fillType": 0,
        "isEnabled": true,
        "noiseIndex": 0,
        "noiseIntensity": 0,
        "patternFillType": 1,
        "patternTileScale": 1
      }
    ],
    "miterLimit": 10,
    "startMarkerType": 0,
    "windingRule": 1
  }
}