{
  "_class": "group",
  "booleanOperation": 0,
  "clippingMaskMode": 0,
  "do_objectID": "67896441-BDA5-45EF-9F54-B19FA63901F9",
  "exportOptions": {
    "_class": "exportOptions",
    "do_objectID": "AB3E823D-EF69-4EDC-AA0E-569494FD95A0",
    "exportFormats": [
    ],
    "includedLayerIds": [
    ],
    "layerOptions": 0,
    "shouldTrim": false
  },
  "frame": {
    "_class": "rect",
    "constrainProportions": true,
    "do_objectID": "CC9B7125-523B-46E7-B987-8EF69646E65B",
    "height": 15,
    "width": 15,
    "x": 570,
    "y": 19
  },
  "groupLayout": {
    "_class": "MSImmutableFreeformGroupLayout",
    "do_objectID": "F9D01B3C-DF94-4C73-8174-9D1492FAC32B"
  },
  "hasClickThrough": false,
  "hasClippingMask": false,
  "isFixedToViewport": false,
  "isFlippedHorizontal": false,
  "isFlippedVertical": false,
  "isLocked": false,
  "isVisible": true,
  "layerListExpandedType": 0,
  "layers": [
    {
      "class": "shapePath",
      "id": "EF4950B8-28FF-488A-B6A8-18AFECCF1EF4"
    }
  ],
  "name": "cancel",
  "nameIsFixed": false,
  "resizingConstraint": 63,
  "resizingType": 0,
  "rotation": 270,
  "shouldBreakMaskChain": false,
  "style": {
    "_class": "style",
    "do_objectID": "A3D5AD82-5A05-414A-ABB8-4F110ED591DA",
    "endMarkerType": 0,
    "miterLimit": 10,
    "startMarkerType": 0,
    "windingRule": 1
  }
}