{
  "_class": "group",
  "booleanOperation": 0,
  "clippingMaskMode": 0,
  "do_objectID": "82DF5CCE-EF83-4F31-8DB1-8288E1AEF24C",
  "exportOptions": {
    "_class": "exportOptions",
    "exportFormats": [
    ],
    "includedLayerIds": [
    ],
    "layerOptions": 0,
    "shouldTrim": false
  },
  "frame": {
    "_class": "rect",
    "constrainProportions": false,
    "height": 20,
    "width": 20,
    "x": 130,
    "y": 95
  },
  "groupLayout": {
    "_class": "MSImmutableFreeformGroupLayout"
  },
  "hasClickThrough": false,
  "hasClippingMask": false,
  "isFixedToViewport": false,
  "isFlippedHorizontal": false,
  "isFlippedVertical": false,
  "isLocked": false,
  "isVisible": true,
  "layerListExpandedType": 0,
  "layers": [
    {
      "class": "rectangle",
      "id": "CB3DA9AB-3AF3-463F-9188-42455D74A84F"
    },
    {
      "class": "shapePath",
      "id": "3334D8C0-E507-4247-BED7-112AE97CC3AA"
    },
    {
      "class": "shapePath",
      "id": "71250263-88F9-467C-9A37-03E35160D7F7"
    },
    {
      "class": "shapePath",
      "id": "1CB11203-AB7E-4DEF-9904-FF9E358122E3"
    },
    {
      "class": "shapePath",
      "id": "EA6C4931-158F-4B80-A2DD-0FA1E03E2495"
    },
    {
      "class": "shapePath",
      "id": "61D1E8BC-E1D8-439F-BB04-14CBBEEFFFFF"
    },
    {
      "class": "shapePath",
      "id": "9E77027C-0EF7-444F-B12D-20A3A3A7D9B0"
    },
    {
      "class": "shapePath",
      "id": "E9B2B91F-484D-459D-87DB-FB5F54E00C98"
    }
  ],
  "name": "Cursor - Pointer",
  "nameIsFixed": true,
  "resizingConstraint": 63,
  "resizingType": 0,
  "rotation": 0,
  "shouldBreakMaskChain": false,
  "style": {
    "_class": "style",
    "endMarkerType": 0,
    "miterLimit": 10,
    "startMarkerType": 0,
    "windingRule": 1
  }
}