{
  "_class": "group",
  "booleanOperation": -1,
  "clippingMaskMode": 0,
  "do_objectID": "7365C2FB-41BC-450B-9708-60521E6893A0",
  "exportOptions": {
    "_class": "exportOptions",
    "do_objectID": "F5FF4DFF-06CA-40D0-955F-5A0B4FE7AD43",
    "exportFormats": [
    ],
    "includedLayerIds": [
    ],
    "layerOptions": 0,
    "shouldTrim": false
  },
  "frame": {
    "_class": "rect",
    "constrainProportions": false,
    "do_objectID": "4CEB8604-7298-4135-A1E6-BA0E40C74954",
    "height": 103,
    "width": 319,
    "x": 321,
    "y": 0
  },
  "groupLayout": {
    "_class": "MSImmutableFreeformGroupLayout",
    "do_objectID": "2AE30DB5-79D3-40E1-B3EE-53B6BE683D1C"
  },
  "hasClickThrough": false,
  "hasClippingMask": false,
  "isFixedToViewport": false,
  "isFlippedHorizontal": false,
  "isFlippedVertical": false,
  "isLocked": false,
  "isVisible": true,
  "layerListExpandedType": 0,
  "layers": [
    {
      "class": "rectangle",
      "id": "252B0F7B-363B-4755-9E31-8133D56D0449"
    },
    {
      "class": "text",
      "id": "C182C0DB-B71F-4968-9E15-EEF49982B408"
    }
  ],
  "name": "role",
  "nameIsFixed": true,
  "resizingConstraint": 63,
  "resizingType": 0,
  "rotation": 0,
  "shouldBreakMaskChain": false,
  "style": {
    "_class": "style",
    "do_objectID": "0354A56C-D969-47E1-9602-A296BE06959D",
    "endMarkerType": 0,
    "miterLimit": 10,
    "startMarkerType": 0,
    "windingRule": 1
  }
}