{
  "_class": "symbolInstance",
  "booleanOperation": -1,
  "clippingMaskMode": 0,
  "do_objectID": "F046B5B4-3030-4FC8-A99E-2C35A9EF53AA",
  "exportOptions": {
    "_class": "exportOptions",
    "do_objectID": "C69D98AD-F1ED-45E9-A73E-02538655071F",
    "exportFormats": [
    ],
    "includedLayerIds": [
    ],
    "layerOptions": 0,
    "shouldTrim": false
  },
  "frame": {
    "_class": "rect",
    "constrainProportions": false,
    "do_objectID": "3F262781-1EED-41C8-ADAD-BA95F3B0F504",
    "height": 40,
    "width": 378,
    "x": 0,
    "y": 416
  },
  "hasClippingMask": false,
  "horizontalSpacing": 0,
  "isFixedToViewport": false,
  "isFlippedHorizontal": false,
  "isFlippedVertical": false,
  "isLocked": false,
  "isVisible": true,
  "layerListExpandedType": 0,
  "name": "Context Switcher / focus",
  "nameIsFixed": true,
  "overrideValues": [
    {
      "_class": "overrideValue",
      "do_objectID": "FEBC5D62-A1D8-4F0D-BD9E-C10BFD668FEE",
      "overrideName": "928CB1E8-9B6C-4CC3-9BAB-D646C67BB228_symbolID",
      "value": "5DD0B13D-6F2F-43B2-A7D3-502BAF2FFA11"
    },
    {
      "_class": "overrideValue",
      "do_objectID": "74AE78FD-610F-4A32-952E-FA82063C82D0",
      "overrideName": "928CB1E8-9B6C-4CC3-9BAB-D646C67BB228/6F0A6308-5794-4D05-AB87-C2B794E75040_symbolID",
      "value": "3A19977D-57D4-4AD2-9B2D-BBC8FCB2B31A"
    }
  ],
  "resizingConstraint": 63,
  "resizingType": 0,
  "rotation": 0,
  "scale": 1,
  "shouldBreakMaskChain": false,
  "style": {
    "_class": "style",
    "do_objectID": "C32AE671-8390-451C-A82C-A071B5546363",
    "endMarkerType": 0,
    "miterLimit": 10,
    "startMarkerType": 0,
    "windingRule": 1
  },
  "symbolID": "050E947F-2F87-41B2-83CE-7E5B869771E7",
  "userInfo": {
    "com.animaapp.stc-sketch-plugin": {
      "kModelPropertiesKey": {
      }
    }
  },
  "verticalSpacing": 0
}