{
  "_class": "group",
  "booleanOperation": 0,
  "clippingMaskMode": 0,
  "do_objectID": "5C449995-08B6-4C8E-AD27-CC2E330FF2CE",
  "exportOptions": {
    "_class": "exportOptions",
    "do_objectID": "3D59F193-3A5F-4FF3-B0F8-748B8FD8F90D",
    "exportFormats": [
    ],
    "includedLayerIds": [
    ],
    "layerOptions": 0,
    "shouldTrim": false
  },
  "frame": {
    "_class": "rect",
    "constrainProportions": false,
    "do_objectID": "85AEB1FD-A067-460C-9ADE-2A81106E4BFE",
    "height": 20,
    "width": 549,
    "x": 447,
    "y": 82
  },
  "groupLayout": {
    "_class": "MSImmutableFreeformGroupLayout",
    "do_objectID": "6F718B15-FF34-4C4C-947D-1130A5CD4AC4"
  },
  "hasClickThrough": false,
  "hasClippingMask": false,
  "isFixedToViewport": false,
  "isFlippedHorizontal": false,
  "isFlippedVertical": false,
  "isLocked": false,
  "isVisible": true,
  "layerListExpandedType": 0,
  "layers": [
    {
      "class": "text",
      "id": "D637A653-54FE-40B8-B9E0-B1BC91AF1654"
    },
    {
      "class": "text",
      "id": "718898E1-4075-4D4C-83AF-DFD4B78D8C30"
    },
    {
      "class": "text",
      "id": "1316005C-6D88-4BF9-A145-83AD24AE0B86"
    },
    {
      "class": "text",
      "id": "3DC1D40D-5236-4B66-B30A-89F6244233AF"
    },
    {
      "class": "text",
      "id": "B03347D0-27F9-4B2B-BEF1-CA5B5BB8469A"
    },
    {
      "class": "text",
      "id": "BE7DFB61-CCAC-447F-85DC-C9BAA9D760FD"
    },
    {
      "class": "text",
      "id": "0B25DDB7-F754-4CB3-921A-D1E24D896C12"
    }
  ],
  "name": "Nav",
  "nameIsFixed": true,
  "resizingConstraint": 63,
  "resizingType": 0,
  "rotation": 0,
  "shouldBreakMaskChain": false,
  "style": {
    "_class": "style",
    "do_objectID": "DD67AFB1-70DD-4646-86E1-CC642273AC7D",
    "endMarkerType": 0,
    "miterLimit": 10,
    "startMarkerType": 0,
    "windingRule": 1
  }
}