{
  "_class": "symbolInstance",
  "booleanOperation": -1,
  "clippingMaskMode": 0,
  "do_objectID": "47D0CCC4-31F6-4BE4-BD0B-2A525DDA86AA",
  "exportOptions": {
    "_class": "exportOptions",
    "exportFormats": [
    ],
    "includedLayerIds": [
    ],
    "layerOptions": 0,
    "shouldTrim": false
  },
  "frame": {
    "_class": "rect",
    "constrainProportions": false,
    "height": 120,
    "width": 453,
    "x": 8,
    "y": 172
  },
  "hasClippingMask": false,
  "horizontalSpacing": 0,
  "isFixedToViewport": false,
  "isFlippedHorizontal": false,
  "isFlippedVertical": false,
  "isLocked": false,
  "isVisible": true,
  "layerListExpandedType": 0,
  "name": "m-colour selection/expanded",
  "nameIsFixed": false,
  "overrideValues": [
    {
      "_class": "overrideValue",
      "overrideName": "AC7EAC93-BD25-49D5-9340-84EADC5A6CA2_symbolID",
      "value": ""
    },
    {
      "_class": "overrideValue",
      "overrideName": "98BDB515-4200-4832-8FB7-30A4BB8ECCBD_symbolID",
      "value": ""
    },
    {
      "_class": "overrideValue",
      "overrideName": "57A5AEBE-1A14-46DF-91DB-F27E4858F18C_symbolID",
      "value": ""
    }
  ],
  "resizingConstraint": 63,
  "resizingType": 0,
  "rotation": 0,
  "scale": 1,
  "shouldBreakMaskChain": false,
  "style": {
    "_class": "style",
    "endMarkerType": 0,
    "miterLimit": 10,
    "startMarkerType": 0,
    "windingRule": 1
  },
  "symbolID": "9D9ABF11-312A-4D1A-8975-BBA220D0F06A",
  "verticalSpacing": 0
}