{
  "_class": "group",
  "booleanOperation": -1,
  "clippingMaskMode": 0,
  "do_objectID": "148E8437-FCAD-47A3-BA7B-4D48D368920E",
  "exportOptions": {
    "_class": "exportOptions",
    "do_objectID": "5D68A972-D684-4659-9EFF-F9510197E6E1",
    "exportFormats": [
    ],
    "includedLayerIds": [
    ],
    "layerOptions": 0,
    "shouldTrim": false
  },
  "frame": {
    "_class": "rect",
    "constrainProportions": false,
    "do_objectID": "BEF364B6-53DF-465E-A810-0A97D93ABD5F",
    "height": 24,
    "width": 81,
    "x": 0,
    "y": 0
  },
  "groupLayout": {
    "_class": "MSImmutableFreeformGroupLayout",
    "do_objectID": "C7E9285D-08CA-49EE-8688-3B0DFA14DFDD"
  },
  "hasClickThrough": false,
  "hasClippingMask": false,
  "isFixedToViewport": false,
  "isFlippedHorizontal": false,
  "isFlippedVertical": false,
  "isLocked": false,
  "isVisible": true,
  "layerListExpandedType": 2,
  "layers": [
    {
      "class": "rectangle",
      "id": "E9152932-9AED-49AF-82E8-AAC5A07E0AFD"
    },
    {
      "class": "symbolInstance",
      "id": "E8883B32-C288-4EF4-ABDB-3F2EA918DE7D"
    },
    {
      "class": "oval",
      "id": "2E98C498-A1A1-4666-BC72-7135D3221FC3"
    },
    {
      "class": "text",
      "id": "1F49A292-0017-4169-8263-70B208BD31A1"
    }
  ],
  "name": "Tag",
  "nameIsFixed": false,
  "resizingConstraint": 63,
  "resizingType": 0,
  "rotation": 0,
  "shouldBreakMaskChain": false,
  "style": {
    "_class": "style",
    "do_objectID": "BA2656F3-7401-4BFD-BC05-572AB213A224",
    "endMarkerType": 0,
    "miterLimit": 10,
    "startMarkerType": 0,
    "windingRule": 1
  }
}