{
  "_class": "symbolInstance",
  "booleanOperation": 0,
  "clippingMaskMode": 0,
  "do_objectID": "EE6EA5AD-BBA7-41E5-821F-B8F232770E2E",
  "exportOptions": {
    "_class": "exportOptions",
    "do_objectID": "54ED8EEE-9AEC-4AF4-B640-8D16B05461C5",
    "exportFormats": [
    ],
    "includedLayerIds": [
    ],
    "layerOptions": 0,
    "shouldTrim": false
  },
  "frame": {
    "_class": "rect",
    "constrainProportions": false,
    "do_objectID": "E58BD375-93ED-4EFE-A456-84CF07B16FCD",
    "height": 381,
    "width": 262,
    "x": 991,
    "y": 903
  },
  "hasClippingMask": false,
  "horizontalSpacing": 0,
  "isFixedToViewport": false,
  "isFlippedHorizontal": false,
  "isFlippedVertical": false,
  "isLocked": false,
  "isVisible": true,
  "layerListExpandedType": 0,
  "name": "Product Cell PLP",
  "nameIsFixed": false,
  "overrideValues": [
    {
      "_class": "overrideValue",
      "overrideName": "62ED740E-5966-4A62-93AB-4756368516BF_image",
      "value": {
        "_class": "MSJSONFileReference",
        "_ref": "images/e2d820ce5f2212d38cfda0410f9802d6c02f5ab8.png",
        "_ref_class": "MSImageData"
      }
    }
  ],
  "resizingConstraint": 63,
  "resizingType": 0,
  "rotation": 0,
  "scale": 1,
  "shouldBreakMaskChain": false,
  "style": {
    "_class": "style",
    "do_objectID": "AB3E601A-3C61-4051-8522-76B3FD3443BE",
    "endMarkerType": 0,
    "miterLimit": 10,
    "startMarkerType": 0,
    "windingRule": 1
  },
  "symbolID": "BDD11894-57FF-436C-9B8A-CEE1E00552B9",
  "verticalSpacing": 0
}