{
  "_class": "group",
  "booleanOperation": 0,
  "clippingMaskMode": 0,
  "do_objectID": "F03ABD06-2879-4E40-9537-A10CF3607724",
  "exportOptions": {
    "_class": "exportOptions",
    "do_objectID": "0E3CB0D9-36CD-4598-B575-CF8EC3214BFD",
    "exportFormats": [
    ],
    "includedLayerIds": [
    ],
    "layerOptions": 0,
    "shouldTrim": false
  },
  "frame": {
    "_class": "rect",
    "constrainProportions": true,
    "do_objectID": "60FB21D6-72DD-4035-8D6B-BFF227B63B2B",
    "height": 22,
    "width": 24,
    "x": 1.953125,
    "y": 0
  },
  "groupLayout": {
    "_class": "MSImmutableFreeformGroupLayout",
    "do_objectID": "55696E4C-2352-45A2-AA57-79C585B51A1A"
  },
  "hasClickThrough": false,
  "hasClippingMask": false,
  "isFixedToViewport": false,
  "isFlippedHorizontal": false,
  "isFlippedVertical": false,
  "isLocked": false,
  "isVisible": true,
  "layerListExpandedType": 0,
  "layers": [
    {
      "class": "shapePath",
      "id": "8B556148-7A69-45B9-8769-6FBDE293B16C"
    },
    {
      "class": "shapeGroup",
      "id": "58369C25-3EF9-446F-96BE-1341B1BF4215"
    }
  ],
  "name": "heart",
  "nameIsFixed": false,
  "resizingConstraint": 63,
  "resizingType": 0,
  "rotation": 0,
  "shouldBreakMaskChain": false,
  "style": {
    "_class": "style",
    "do_objectID": "995E81AA-81FD-4C10-967F-A22A4D70B9C3",
    "endMarkerType": 0,
    "miterLimit": 10,
    "startMarkerType": 0,
    "windingRule": 1
  }
}