{
  "_class": "shapePath",
  "booleanOperation": -1,
  "clippingMaskMode": 0,
  "do_objectID": "C04868DD-DC26-4312-99E5-2CBC79D9718F",
  "edited": true,
  "exportOptions": {
    "_class": "exportOptions",
    "exportFormats": [
    ],
    "includedLayerIds": [
    ],
    "layerOptions": 0,
    "shouldTrim": false
  },
  "frame": {
    "_class": "rect",
    "constrainProportions": false,
    "height": 255,
    "width": 146,
    "x": 146,
    "y": 0
  },
  "hasClippingMask": false,
  "isClosed": true,
  "isFixedToViewport": false,
  "isFlippedHorizontal": false,
  "isFlippedVertical": false,
  "isLocked": false,
  "isVisible": true,
  "layerListExpandedType": 1,
  "maintainScrollPosition": false,
  "name": "Shape",
  "nameIsFixed": false,
  "pointRadiusBehaviour": 1,
  "points": [
    {
      "_class": "curvePoint",
      "cornerRadius": 0,
      "curveFrom": "{0.10262499999999997, 0.96131558023260433}",
      "curveMode": 3,
      "curveTo": "{0.030230468749999906, 0.99698350021786997}",
      "hasCurveFrom": true,
      "hasCurveTo": true,
      "point": "{0.042437499999999906, 0.99096622328836581}"
    },
    {
      "_class": "curvePoint",
      "cornerRadius": 0,
      "curveFrom": "{0.67162109375000001, 0.68436136903719036}",
      "curveMode": 3,
      "curveTo": "{0.16096484374999998, 0.93290927141310465}",
      "hasCurveFrom": true,
      "hasCurveTo": true,
      "point": "{0.21716015624999985, 0.90556536348485384}"
    },
    {
      "_class": "curvePoint",
      "cornerRadius": 0,
      "curveFrom": "{1, 0.13728106231104753}",
      "curveMode": 3,
      "curveTo": "{1, 0.52453404848860519}",
      "hasCurveFrom": true,
      "hasCurveTo": true,
      "point": "{1, 0.31932221967665253}"
    },
    {
      "_class": "curvePoint",
      "cornerRadius": 0,
      "curveFrom": "{0.22520703125000008, 0}",
      "curveMode": 3,
      "curveTo": "{0.77570703125000007, 0}",
      "hasCurveFrom": true,
      "hasCurveTo": true,
      "point": "{0.47826171875000001, 0}"
    },
    {
      "_class": "curvePoint",
      "cornerRadius": 0,
      "curveFrom": "{0, 0.17541518986204496}",
      "curveMode": 4,
      "curveTo": "{0.075453125000000121, 0.10152554478929414}",
      "hasCurveFrom": false,
      "hasCurveTo": true,
      "point": "{0, 0.17541518986204496}"
    },
    {
      "_class": "curvePoint",
      "cornerRadius": 0,
      "curveFrom": "{0.015117187500000018, 0.99999999999999911}",
      "curveMode": 4,
      "curveTo": "{0, 0.99999999999999911}",
      "hasCurveFrom": true,
      "hasCurveTo": false,
      "point": "{0, 0.99999999999999911}"
    }
  ],
  "resizingConstraint": 63,
  "resizingType": 0,
  "rotation": 0,
  "shouldBreakMaskChain": false,
  "style": {
    "_class": "style",
    "blur": {
      "_class": "blur",
      "center": "{0.5, 0.5}",
      "isEnabled": false,
      "motionAngle": 0,
      "radius": 10,
      "saturation": 1,
      "type": 0
    },
    "borderOptions": {
      "_class": "borderOptions",
      "dashPattern": [
      ],
      "isEnabled": true,
      "lineCapStyle": 0,
      "lineJoinStyle": 0
    },
    "borders": [
    ],
    "colorControls": {
      "_class": "colorControls",
      "brightness": 0,
      "contrast": 1,
      "hue": 0,
      "isEnabled": false,
      "saturation": 1
    },
    "contextSettings": {
      "_class": "graphicsContextSettings",
      "blendMode": 0,
      "opacity": 1
    },
    "do_objectID": "DF790038-4A5C-4BCF-9FDC-3B134C76268B",
    "endMarkerType": 0,
    "fills": [
      {
        "_class": "fill",
        "color": {
          "_class": "color",
          "alpha": 1,
          "blue": 0.1686274509803922,
          "green": 0.2784313725490196,
          "red": 0.8509803921568627
        },
        "contextSettings": {
          "_class": "graphicsContextSettings",
          "blendMode": 0,
          "opacity": 1
        },
        "fillType": 0,
        "gradient": {
          "_class": "gradient",
          "elipseLength": 0,
          "from": "{0.5, 0}",
          "gradientType": 0,
          "stops": [
            {
              "_class": "gradientStop",
              "color": {
                "_class": "color",
                "alpha": 1,
                "blue": 1,
                "green": 1,
                "red": 1
              },
              "position": 0
            },
            {
              "_class": "gradientStop",
              "color": {
                "_class": "color",
                "alpha": 1,
                "blue": 0,
                "green": 0,
                "red": 0
              },
              "position": 1
            }
          ],
          "to": "{0.5, 1}"
        },
        "isEnabled": true,
        "noiseIndex": 0,
        "noiseIntensity": 0,
        "patternFillType": 1,
        "patternTileScale": 1
      }
    ],
    "innerShadows": [
    ],
    "miterLimit": 10,
    "shadows": [
    ],
    "startMarkerType": 0,
    "windingRule": 0
  }
}