{
  "_class": "symbolInstance",
  "booleanOperation": -1,
  "clippingMaskMode": 0,
  "do_objectID": "DEA4F59A-1E59-436F-9E37-B37BCC1CA823",
  "exportOptions": {
    "_class": "exportOptions",
    "do_objectID": "2EF0FCA4-CD6E-4A0A-9C24-376487E98B4E",
    "exportFormats": [
    ],
    "includedLayerIds": [
    ],
    "layerOptions": 0,
    "shouldTrim": false
  },
  "frame": {
    "_class": "rect",
    "constrainProportions": false,
    "do_objectID": "3EFEE8D6-07FE-4A71-AEDE-D59333C090F6",
    "height": 40,
    "width": 64,
    "x": 108,
    "y": 0
  },
  "hasClippingMask": false,
  "horizontalSpacing": 0,
  "isFixedToViewport": false,
  "isFlippedHorizontal": false,
  "isFlippedVertical": false,
  "isLocked": false,
  "isVisible": true,
  "layerListExpandedType": 0,
  "name": "Spacer",
  "nameIsFixed": true,
  "overrideValues": [
  ],
  "resizingConstraint": 12,
  "resizingType": 0,
  "rotation": 0,
  "scale": 1,
  "shouldBreakMaskChain": false,
  "style": {
    "_class": "style",
    "do_objectID": "D9A4F407-1EA0-41E2-A4CE-00F7FDCFB8D0",
    "endMarkerType": 0,
    "miterLimit": 10,
    "startMarkerType": 0,
    "windingRule": 1
  },
  "symbolID": "06DFE8D1-9097-4F21-A292-9407DF96437F",
  "verticalSpacing": 0
}