{
  "_class": "group",
  "booleanOperation": 0,
  "clippingMaskMode": 0,
  "do_objectID": "5F7D9A89-3BFA-47B7-A2C0-F024356A9595",
  "exportOptions": {
    "_class": "exportOptions",
    "do_objectID": "55DA276B-D0EC-4382-9B58-89146B2CADBD",
    "exportFormats": [
    ],
    "includedLayerIds": [
    ],
    "layerOptions": 0,
    "shouldTrim": false
  },
  "frame": {
    "_class": "rect",
    "constrainProportions": false,
    "do_objectID": "4511BC15-FBE4-446A-AE99-578E3A71EFA0",
    "height": 76,
    "width": 60,
    "x": 0,
    "y": 295
  },
  "groupLayout": {
    "_class": "MSImmutableFreeformGroupLayout",
    "do_objectID": "33997F08-C99F-4ADA-91E0-016B55E47B1C"
  },
  "hasClickThrough": false,
  "hasClippingMask": false,
  "isFixedToViewport": false,
  "isFlippedHorizontal": false,
  "isFlippedVertical": false,
  "isLocked": false,
  "isVisible": true,
  "layerListExpandedType": 0,
  "layers": [
    {
      "class": "rectangle",
      "id": "49AD3425-7A34-471C-AF2D-A97D3996B173"
    },
    {
      "class": "bitmap",
      "id": "C321D548-F744-4F60-817D-460C952EE050"
    }
  ],
  "name": "211199857_blk_fr",
  "nameIsFixed": false,
  "resizingConstraint": 63,
  "resizingType": 0,
  "rotation": 0,
  "shouldBreakMaskChain": false,
  "style": {
    "_class": "style",
    "do_objectID": "3907E02F-2FC6-447F-AC9B-B5AA7AB87940",
    "endMarkerType": 0,
    "miterLimit": 10,
    "shadows": [
      {
        "_class": "shadow",
        "blurRadius": 5,
        "color": {
          "_class": "color",
          "alpha": 0.5,
          "blue": 0,
          "green": 0,
          "red": 0
        },
        "contextSettings": {
          "_class": "graphicsContextSettings",
          "blendMode": 0,
          "opacity": 1
        },
        "isEnabled": false,
        "offsetX": 0,
        "offsetY": 0,
        "spread": 0
      }
    ],
    "startMarkerType": 0,
    "windingRule": 1
  }
}