{
  "_class": "group",
  "booleanOperation": -1,
  "clippingMaskMode": 0,
  "do_objectID": "5AD71B88-3DFF-4AB6-B36B-6F062F3EEBD1",
  "exportOptions": {
    "_class": "exportOptions",
    "exportFormats": [
    ],
    "includedLayerIds": [
    ],
    "layerOptions": 0,
    "shouldTrim": false
  },
  "frame": {
    "_class": "rect",
    "constrainProportions": false,
    "height": 2469,
    "width": 236,
    "x": 26,
    "y": 24
  },
  "groupLayout": {
    "_class": "MSImmutableFreeformGroupLayout"
  },
  "hasClickThrough": false,
  "hasClippingMask": false,
  "isFixedToViewport": false,
  "isFlippedHorizontal": false,
  "isFlippedVertical": false,
  "isLocked": true,
  "isVisible": true,
  "layerListExpandedType": 0,
  "layers": [
    {
      "class": "text",
      "id": "FAC49260-0086-42D4-824C-0ED123249783"
    },
    {
      "class": "text",
      "id": "AE28C0C3-5CBB-462E-A62C-AB0A01EBAD91"
    },
    {
      "class": "text",
      "id": "38DA6F63-4BBA-4BB3-A93C-CDC2EBB45AC1"
    },
    {
      "class": "text",
      "id": "B3DD8E25-EBF7-4718-B648-ADEA561DE9EC"
    },
    {
      "class": "text",
      "id": "FD432210-7977-4FA0-B8E8-13F911238F2C"
    },
    {
      "class": "text",
      "id": "A309D799-9967-4068-ACF2-F236C289D6D9"
    },
    {
      "class": "text",
      "id": "D80E2679-E6BC-4092-8B13-D237A280579E"
    },
    {
      "class": "text",
      "id": "8547FB74-94E0-44BA-B5E0-59CAE2B14DC9"
    }
  ],
  "name": "labels",
  "nameIsFixed": true,
  "resizingConstraint": 63,
  "resizingType": 0,
  "rotation": 0,
  "shouldBreakMaskChain": false,
  "style": {
    "_class": "style",
    "endMarkerType": 0,
    "miterLimit": 10,
    "startMarkerType": 0,
    "windingRule": 1
  }
}