{
  "_class": "symbolMaster",
  "allowsOverrides": true,
  "backgroundColor": {
    "_class": "color",
    "alpha": 1,
    "blue": 1,
    "green": 1,
    "red": 1
  },
  "booleanOperation": -1,
  "changeIdentifier": 1015,
  "clippingMaskMode": 0,
  "do_objectID": "0D78012A-FBF4-4F2A-A0A5-C9B2E55C5BB3",
  "exportOptions": {
    "_class": "exportOptions",
    "exportFormats": [
    ],
    "includedLayerIds": [
    ],
    "layerOptions": 0,
    "shouldTrim": false
  },
  "frame": {
    "_class": "rect",
    "constrainProportions": false,
    "height": 24,
    "width": 98,
    "x": 103075,
    "y": 0
  },
  "groupLayout": {
    "_class": "MSImmutableFreeformGroupLayout"
  },
  "hasBackgroundColor": false,
  "hasClickThrough": true,
  "hasClippingMask": false,
  "horizontalRulerData": {
    "_class": "rulerData",
    "base": 0,
    "guides": [
    ]
  },
  "includeBackgroundColorInExport": true,
  "includeBackgroundColorInInstance": false,
  "includeInCloudUpload": true,
  "isFixedToViewport": false,
  "isFlippedHorizontal": false,
  "isFlippedVertical": false,
  "isFlowHome": false,
  "isLocked": false,
  "isVisible": true,
  "layerListExpandedType": 0,
  "layers": [
    {
      "class": "rectangle",
      "id": "514931C9-47AC-4B7A-8CA3-26765B118D16"
    },
    {
      "class": "symbolInstance",
      "id": "14771981-D846-49AF-8452-05654844DA56"
    },
    {
      "class": "text",
      "id": "4E9D5875-986A-4C0F-953E-7E2AEA7C5FCF"
    }
  ],
  "name": "tag / 01 default / warm gray / 01 enabled",
  "nameIsFixed": true,
  "overrideProperties": [
    {
      "_class": "MSImmutableOverrideProperty",
      "canOverride": true,
      "overrideName": "14771981-D846-49AF-8452-05654844DA56_symbolID"
    },
    {
      "_class": "MSImmutableOverrideProperty",
      "canOverride": false,
      "overrideName": "514931C9-47AC-4B7A-8CA3-26765B118D16_layerStyle"
    },
    {
      "_class": "MSImmutableOverrideProperty",
      "canOverride": false,
      "overrideName": "4E9D5875-986A-4C0F-953E-7E2AEA7C5FCF_textStyle"
    },
    {
      "_class": "MSImmutableOverrideProperty",
      "canOverride": true,
      "overrideName": "4E9D5875-986A-4C0F-953E-7E2AEA7C5FCF_stringValue"
    }
  ],
  "resizesContent": true,
  "resizingConstraint": 63,
  "resizingType": 0,
  "rotation": 0,
  "shouldBreakMaskChain": true,
  "style": {
    "_class": "style",
    "endMarkerType": 0,
    "miterLimit": 10,
    "startMarkerType": 0,
    "windingRule": 1
  },
  "symbolID": "EB1A37F2-CACE-4ED3-989A-5C974C9304CE",
  "verticalRulerData": {
    "_class": "rulerData",
    "base": 0,
    "guides": [
      -1168
    ]
  }
}