{
  "_class": "group",
  "booleanOperation": -1,
  "clippingMaskMode": 0,
  "do_objectID": "D7AFA03D-7385-42FC-A992-13D4A11A80DE",
  "exportOptions": {
    "_class": "exportOptions",
    "do_objectID": "0415B8E0-99F5-4838-9097-B5DA321D7105",
    "exportFormats": [
    ],
    "includedLayerIds": [
    ],
    "layerOptions": 0,
    "shouldTrim": false
  },
  "frame": {
    "_class": "rect",
    "constrainProportions": false,
    "do_objectID": "8CC60A87-D699-42C9-8959-D88CB54A2693",
    "height": 395,
    "width": 1024,
    "x": 0,
    "y": 436
  },
  "groupLayout": {
    "_class": "MSImmutableFreeformGroupLayout"
  },
  "hasClickThrough": false,
  "hasClippingMask": false,
  "isFixedToViewport": false,
  "isFlippedHorizontal": false,
  "isFlippedVertical": false,
  "isLocked": false,
  "isVisible": true,
  "layerListExpandedType": 0,
  "layers": [
    {
      "class": "rectangle",
      "id": "A4294297-9490-4A31-A0F1-8EA33DCB4A9B"
    },
    {
      "class": "rectangle",
      "id": "011D387E-E28D-4E4E-A83E-3395E91B2967"
    },
    {
      "class": "rectangle",
      "id": "40C1CACA-8656-4A6C-807D-EC4F0F0D4241"
    },
    {
      "class": "rectangle",
      "id": "0930FA33-FD2C-412E-8B3F-5CFEAF78D277"
    },
    {
      "class": "rectangle",
      "id": "E0C9864E-A91F-42A5-859E-D9E057EF981F"
    },
    {
      "class": "rectangle",
      "id": "6FDB7C7F-8526-4142-ADD5-A77016CF1295"
    },
    {
      "class": "rectangle",
      "id": "3D2F1ED3-C154-4AF6-B97C-27167D03DB4B"
    },
    {
      "class": "symbolInstance",
      "id": "C10D4190-3567-417F-8837-F981565CDFAA"
    },
    {
      "class": "symbolInstance",
      "id": "3D1D506C-816F-4BBD-BF6B-3D9EDB1A1E2E"
    }
  ],
  "name": "Select 2",
  "nameIsFixed": true,
  "resizingConstraint": 63,
  "resizingType": 0,
  "rotation": 0,
  "shouldBreakMaskChain": false,
  "style": {
    "_class": "style",
    "do_objectID": "D5637EB9-D9EB-433A-9FA7-74577D22E029",
    "endMarkerType": 0,
    "miterLimit": 10,
    "startMarkerType": 0,
    "windingRule": 1
  }
}