{
  "_class": "shapePath",
  "booleanOperation": -1,
  "clippingMaskMode": 0,
  "do_objectID": "078335E9-6294-411A-8BBE-E20209BD56B0",
  "edited": true,
  "exportOptions": {
    "_class": "exportOptions",
    "do_objectID": "33849FCA-A302-48E0-81FD-88715D78E76E",
    "exportFormats": [
    ],
    "includedLayerIds": [
    ],
    "layerOptions": 0,
    "shouldTrim": false
  },
  "frame": {
    "_class": "rect",
    "constrainProportions": false,
    "do_objectID": "63BEF294-7148-46A5-9E5C-36C786944BA4",
    "height": 0.1058906030855571,
    "width": 0.1059863482545582,
    "x": 6.024367636580778,
    "y": 14.53321055325323
  },
  "hasClippingMask": false,
  "isClosed": true,
  "isFixedToViewport": false,
  "isFlippedHorizontal": false,
  "isFlippedVertical": false,
  "isLocked": false,
  "isVisible": true,
  "layerListExpandedType": 0,
  "name": "Path",
  "nameIsFixed": false,
  "pointRadiusBehaviour": 0,
  "points": [
    {
      "_class": "curvePoint",
      "cornerRadius": 0,
      "curveFrom": "{-0.28907633739295591, 0.57885947339164545}",
      "curveMode": 4,
      "curveTo": "{0.35592366260704011, 0.97285947339165091}",
      "hasCurveFrom": true,
      "hasCurveTo": true,
      "point": "{0.13392366260704591, 0.8348594733916741}"
    },
    {
      "_class": "curvePoint",
      "cornerRadius": 0,
      "curveFrom": "{1.0539236626070476, 0.27685947339162453}",
      "curveMode": 3,
      "curveTo": "{0.40492366260704671, -0.12014052660836683}",
      "hasCurveFrom": true,
      "hasCurveTo": true,
      "point": "{0.63192366260705057, 0.017859473391666825}"
    }
  ],
  "resizingConstraint": 63,
  "resizingType": 0,
  "rotation": 0,
  "shouldBreakMaskChain": false,
  "style": {
    "_class": "style",
    "do_objectID": "724533E2-2AA9-4E1C-90C3-0FE7895ED001",
    "endMarkerType": 0,
    "fills": [
      {
        "_class": "fill",
        "color": {
          "_class": "color",
          "alpha": 1,
          "blue": 0.1764705882352941,
          "green": 0.1764705882352941,
          "red": 0.1764705882352941
        },
        "fillType": 0,
        "isEnabled": true,
        "noiseIndex": 0,
        "noiseIntensity": 0,
        "patternFillType": 1,
        "patternTileScale": 1
      }
    ],
    "miterLimit": 10,
    "startMarkerType": 0,
    "windingRule": 1
  }
}