{
  "_class": "shapePath",
  "booleanOperation": -1,
  "clippingMaskMode": 0,
  "do_objectID": "12BD0482-DE68-4722-9050-C237B83BD3AB",
  "edited": true,
  "exportOptions": {
    "_class": "exportOptions",
    "do_objectID": "E3765D0B-B3C7-4CB7-85EA-669FB8357713",
    "exportFormats": [
    ],
    "includedLayerIds": [
    ],
    "layerOptions": 0,
    "shouldTrim": false
  },
  "frame": {
    "_class": "rect",
    "constrainProportions": false,
    "do_objectID": "B8DC81AD-6438-43F9-976E-0A9E1F9699F7",
    "height": 0.1058906030855695,
    "width": 0.1059863482545467,
    "x": 20.78640756336125,
    "y": 21.0848937962305
  },
  "hasClippingMask": false,
  "isClosed": true,
  "isFixedToViewport": false,
  "isFlippedHorizontal": false,
  "isFlippedVertical": false,
  "isLocked": false,
  "isVisible": true,
  "layerListExpandedType": 0,
  "name": "Path",
  "nameIsFixed": false,
  "pointRadiusBehaviour": 0,
  "points": [
    {
      "_class": "curvePoint",
      "cornerRadius": 0,
      "curveFrom": "{0.92681830881980432, 0.16646043555010692}",
      "curveMode": 3,
      "curveTo": "{0.24681830881985434, -0.078539564449897625}",
      "hasCurveFrom": true,
      "hasCurveTo": true,
      "point": "{0.48381830881982069, 0.0064604355501387545}"
    },
    {
      "_class": "curvePoint",
      "cornerRadius": 0,
      "curveFrom": "{-0.27018169118016999, 0.70046043555009874}",
      "curveMode": 4,
      "curveTo": "{0.40981830881980841, 0.94846043555014603}",
      "hasCurveFrom": true,
      "hasCurveTo": true,
      "point": "{0.17481830881985161, 0.86046043555012375}"
    }
  ],
  "resizingConstraint": 63,
  "resizingType": 0,
  "rotation": 0,
  "shouldBreakMaskChain": false,
  "style": {
    "_class": "style",
    "do_objectID": "5DA13CA0-6E37-4AA8-8BC8-25B900C6ED49",
    "endMarkerType": 0,
    "fills": [
      {
        "_class": "fill",
        "color": {
          "_class": "color",
          "alpha": 1,
          "blue": 0.1764705882352941,
          "green": 0.1764705882352941,
          "red": 0.1764705882352941
        },
        "fillType": 0,
        "isEnabled": true,
        "noiseIndex": 0,
        "noiseIntensity": 0,
        "patternFillType": 1,
        "patternTileScale": 1
      }
    ],
    "miterLimit": 10,
    "startMarkerType": 0,
    "windingRule": 1
  }
}