{
  "_class": "shapePath",
  "booleanOperation": -1,
  "clippingMaskMode": 0,
  "do_objectID": "12F8D575-A1A9-4C5C-B3BC-58C0A7D64DA9",
  "edited": true,
  "exportOptions": {
    "_class": "exportOptions",
    "do_objectID": "AF781BF0-1E95-41D2-BB26-15D57E1A214F",
    "exportFormats": [
    ],
    "includedLayerIds": [
    ],
    "layerOptions": 0,
    "shouldTrim": false
  },
  "frame": {
    "_class": "rect",
    "constrainProportions": false,
    "do_objectID": "85BA3218-30BD-4F24-A097-F51333FB5B86",
    "height": 0.1058906030855837,
    "width": 0.115379505716934,
    "x": 17.06657471807506,
    "y": 31.17293425771146
  },
  "hasClippingMask": false,
  "isClosed": true,
  "isFixedToViewport": false,
  "isFlippedHorizontal": false,
  "isFlippedVertical": false,
  "isLocked": false,
  "isVisible": true,
  "layerListExpandedType": 0,
  "name": "Path",
  "nameIsFixed": false,
  "pointRadiusBehaviour": 0,
  "points": [
    {
      "_class": "curvePoint",
      "cornerRadius": 0,
      "curveFrom": "{0.36360584092582066, 1.2050000000000409}",
      "curveMode": 4,
      "curveTo": "{0.86450821797364574, 0.68200000000001637}",
      "hasCurveFrom": true,
      "hasCurveTo": true,
      "point": "{0.58873050476753841, 0.81800000000004047}"
    },
    {
      "_class": "curvePoint",
      "cornerRadius": 0,
      "curveFrom": "{0.13144603133903546, 0.050000000000068212}",
      "curveMode": 4,
      "curveTo": "{-0.082422399310602454, 0.54800000000000182}",
      "hasCurveFrom": true,
      "hasCurveTo": true,
      "point": "{0.01325558282212661, 0.31900000000001683}"
    },
    {
      "_class": "curvePoint",
      "cornerRadius": 0,
      "curveFrom": "{1.1198840085190995, 0.53500000000002501}",
      "curveMode": 4,
      "curveTo": "{0.77797592530949033, 0.23400000000003729}",
      "hasCurveFrom": true,
      "hasCurveTo": true,
      "point": "{0.93978427744572124, 0}"
    }
  ],
  "resizingConstraint": 63,
  "resizingType": 0,
  "rotation": 0,
  "shouldBreakMaskChain": false,
  "style": {
    "_class": "style",
    "do_objectID": "503E29EB-9921-4B46-BE39-8AF0178EE6F1",
    "endMarkerType": 0,
    "fills": [
      {
        "_class": "fill",
        "color": {
          "_class": "color",
          "alpha": 1,
          "blue": 0.1764705882352941,
          "green": 0.1764705882352941,
          "red": 0.1764705882352941
        },
        "fillType": 0,
        "isEnabled": true,
        "noiseIndex": 0,
        "noiseIntensity": 0,
        "patternFillType": 1,
        "patternTileScale": 1
      }
    ],
    "miterLimit": 10,
    "startMarkerType": 0,
    "windingRule": 1
  }
}