{
  "_class": "shapePath",
  "booleanOperation": -1,
  "clippingMaskMode": 0,
  "do_objectID": "1998B23F-3FD4-42B7-B79F-1AF4F46BDA4F",
  "edited": true,
  "exportOptions": {
    "_class": "exportOptions",
    "do_objectID": "84647F26-39F0-4E34-8586-1694C18F478C",
    "exportFormats": [
    ],
    "includedLayerIds": [
    ],
    "layerOptions": 0,
    "shouldTrim": false
  },
  "frame": {
    "_class": "rect",
    "constrainProportions": false,
    "do_objectID": "3CA2EFE5-6D9F-4E2D-A1D9-14DA52D25741",
    "height": 0.3401243244404473,
    "width": 0.1940356366213933,
    "x": 21.87546282031058,
    "y": 3.367081403098333
  },
  "hasClippingMask": false,
  "isClosed": true,
  "isFixedToViewport": false,
  "isFlippedHorizontal": false,
  "isFlippedVertical": false,
  "isLocked": false,
  "isVisible": true,
  "layerListExpandedType": 0,
  "name": "Path",
  "nameIsFixed": false,
  "pointRadiusBehaviour": 0,
  "points": [
    {
      "_class": "curvePoint",
      "cornerRadius": 0,
      "curveFrom": "{0.2288452164530686, 0.12947067238912832}",
      "curveMode": 4,
      "curveTo": "{-0.071098265625640866, 0.27658559847401537}",
      "hasCurveFrom": true,
      "hasCurveTo": true,
      "point": "{0.2924315613288857, 0.22865999046256541}"
    },
    {
      "_class": "curvePoint",
      "cornerRadius": 0,
      "curveFrom": "{0.49992384460787787, 0.098950882212689273}",
      "curveMode": 4,
      "curveTo": "{0.18241045144507073, 0.032904148783985003}",
      "hasCurveFrom": true,
      "hasCurveTo": true,
      "point": "{0.43759249338091977, 0}"
    },
    {
      "_class": "curvePoint",
      "cornerRadius": 0,
      "curveFrom": "{0.37651613580284449, 0.33309489747259002}",
      "curveMode": 4,
      "curveTo": "{0.54803193448103693, 0.19551740581784616}",
      "hasCurveFrom": true,
      "hasCurveTo": true,
      "point": "{0.2924315613288857, 0.22865999046256541}"
    },
    {
      "_class": "curvePoint",
      "cornerRadius": 0,
      "curveFrom": "{0.64131979571333486, 0.63233190271817663}",
      "curveMode": 4,
      "curveTo": "{0.46269236635821914, 0.43776824034334894}",
      "hasCurveFrom": true,
      "hasCurveTo": true,
      "point": "{0.5476136032647585, 0.54124940391035514}"
    },
    {
      "_class": "curvePoint",
      "cornerRadius": 0,
      "curveFrom": "{1.0132162469936437, 0.7238912732474938}",
      "curveMode": 4,
      "curveTo": "{0.74130095640623006, 0.71530758226036906}",
      "hasCurveFrom": true,
      "hasCurveTo": true,
      "point": "{0.95004823333410504, 0.62398664759179978}"
    },
    {
      "_class": "curvePoint",
      "cornerRadius": 0,
      "curveFrom": "{0.62165822854777375, 0.90247973295183825}",
      "curveMode": 4,
      "curveTo": "{1.0604876744342222, 0.82045779685265074}",
      "hasCurveFrom": true,
      "hasCurveTo": true,
      "point": "{0.80530563249834941, 0.85383881735813139}"
    },
    {
      "_class": "curvePoint",
      "cornerRadius": 0,
      "curveFrom": "{0.22131525455986689, 0.89270386266094737}",
      "curveMode": 4,
      "curveTo": "{0.43926581824608096, 0.95112064854554523}",
      "hasCurveFrom": true,
      "hasCurveTo": true,
      "point": "{0.25561841429550541, 1}"
    },
    {
      "_class": "curvePoint",
      "cornerRadius": 0,
      "curveFrom": "{-0.0024919461543638907, 0.66881258941344668}",
      "curveMode": 4,
      "curveTo": "{0.020516270741495833, 0.79589890319504264}",
      "hasCurveFrom": true,
      "hasCurveTo": true,
      "point": "{1.8041143354155158e-05, 0.68717215069146242}"
    },
    {
      "_class": "curvePoint",
      "cornerRadius": 0,
      "curveFrom": "{0.36229287444904551, 0.51072961373390258}",
      "curveMode": 4,
      "curveTo": "{0.2577100703769688, 0.63352408202194288}",
      "hasCurveFrom": true,
      "hasCurveTo": true,
      "point": "{0.27444331902848584, 0.61421077730090878}"
    }
  ],
  "resizingConstraint": 63,
  "resizingType": 0,
  "rotation": 0,
  "shouldBreakMaskChain": false,
  "style": {
    "_class": "style",
    "do_objectID": "F2BA38F3-DD9A-4B7F-8F25-9239F61947AD",
    "endMarkerType": 0,
    "fills": [
      {
        "_class": "fill",
        "color": {
          "_class": "color",
          "alpha": 1,
          "blue": 0.1764705882352941,
          "green": 0.1764705882352941,
          "red": 0.1764705882352941
        },
        "fillType": 0,
        "isEnabled": true,
        "noiseIndex": 0,
        "noiseIntensity": 0,
        "patternFillType": 1,
        "patternTileScale": 1
      }
    ],
    "miterLimit": 10,
    "startMarkerType": 0,
    "windingRule": 1
  }
}