{
  "_class": "shapePath",
  "booleanOperation": -1,
  "clippingMaskMode": 0,
  "do_objectID": "1D2A073D-1177-4EF0-8055-C64874B76C32",
  "edited": true,
  "exportOptions": {
    "_class": "exportOptions",
    "do_objectID": "90EEABB7-05B1-4F28-80D8-7D1EF3EC1A08",
    "exportFormats": [
    ],
    "includedLayerIds": [
    ],
    "layerOptions": 0,
    "shouldTrim": false
  },
  "frame": {
    "_class": "rect",
    "constrainProportions": false,
    "do_objectID": "F8CED10C-485E-471B-8B54-F6E83330FBA7",
    "height": 0.1058906030855553,
    "width": 0.1059863482545573,
    "x": 31.00098135941589,
    "y": 17.77076858432385
  },
  "hasClippingMask": false,
  "isClosed": true,
  "isFixedToViewport": false,
  "isFlippedHorizontal": false,
  "isFlippedVertical": false,
  "isLocked": false,
  "isVisible": true,
  "layerListExpandedType": 0,
  "name": "Path",
  "nameIsFixed": false,
  "pointRadiusBehaviour": 0,
  "points": [
    {
      "_class": "curvePoint",
      "cornerRadius": 0,
      "curveFrom": "{-0.25711435833591167, 0.51222668617970157}",
      "curveMode": 3,
      "curveTo": "{0.31988564166408651, 0.86822668617969612}",
      "hasCurveFrom": true,
      "hasCurveTo": true,
      "point": "{0.11888564166412152, 0.74422668617970089}"
    },
    {
      "_class": "curvePoint",
      "cornerRadius": 0,
      "curveFrom": "{0.9388856416641147, 0.24622668617968202}",
      "curveMode": 3,
      "curveTo": "{0.36088564166408332, -0.10777331382030297}",
      "hasCurveFrom": true,
      "hasCurveTo": true,
      "point": "{0.5638856416641147, 0.016226686179692251}"
    }
  ],
  "resizingConstraint": 63,
  "resizingType": 0,
  "rotation": 0,
  "shouldBreakMaskChain": false,
  "style": {
    "_class": "style",
    "do_objectID": "B6D1FC99-C937-4869-977A-D9E8F26CBB69",
    "endMarkerType": 0,
    "fills": [
      {
        "_class": "fill",
        "color": {
          "_class": "color",
          "alpha": 1,
          "blue": 0.1764705882352941,
          "green": 0.1764705882352941,
          "red": 0.1764705882352941
        },
        "fillType": 0,
        "isEnabled": true,
        "noiseIndex": 0,
        "noiseIntensity": 0,
        "patternFillType": 1,
        "patternTileScale": 1
      }
    ],
    "miterLimit": 10,
    "startMarkerType": 0,
    "windingRule": 1
  }
}