{
  "_class": "shapePath",
  "booleanOperation": -1,
  "clippingMaskMode": 0,
  "do_objectID": "1D34A861-41D6-49BD-8146-BEA9F4414D6B",
  "edited": true,
  "exportOptions": {
    "_class": "exportOptions",
    "do_objectID": "B9DA55C8-5ADD-4348-A7CF-C049192D3AEF",
    "exportFormats": [
    ],
    "includedLayerIds": [
    ],
    "layerOptions": 0,
    "shouldTrim": false
  },
  "frame": {
    "_class": "rect",
    "constrainProportions": false,
    "do_objectID": "AB5B26E1-08B4-47E4-9091-C2AC5E303D5F",
    "height": 0.1058906030855589,
    "width": 0.1059863482545564,
    "x": 6.585950058787255,
    "y": 10.07114700636579
  },
  "hasClippingMask": false,
  "isClosed": true,
  "isFixedToViewport": false,
  "isFlippedHorizontal": false,
  "isFlippedVertical": false,
  "isLocked": false,
  "isVisible": true,
  "layerListExpandedType": 0,
  "name": "Path",
  "nameIsFixed": false,
  "pointRadiusBehaviour": 0,
  "points": [
    {
      "_class": "curvePoint",
      "cornerRadius": 0,
      "curveFrom": "{1.0424270509503515, 0.18960680286583909}",
      "curveMode": 3,
      "curveTo": "{0.27642705095034614, -0.090393197134190473}",
      "hasCurveFrom": true,
      "hasCurveTo": true,
      "point": "{0.54442705095034682, 0.0076068028658227149}"
    },
    {
      "_class": "curvePoint",
      "cornerRadius": 0,
      "curveFrom": "{-0.3015729490496426, 0.78760680286579543}",
      "curveMode": 3,
      "curveTo": "{0.46142705095034842, 1.0636068028658059}",
      "hasCurveFrom": true,
      "hasCurveTo": true,
      "point": "{0.19442705095035251, 0.96860680286583545}"
    }
  ],
  "resizingConstraint": 63,
  "resizingType": 0,
  "rotation": 0,
  "shouldBreakMaskChain": false,
  "style": {
    "_class": "style",
    "do_objectID": "453AB5AD-1C60-4520-AAB1-F2DD55545E1A",
    "endMarkerType": 0,
    "fills": [
      {
        "_class": "fill",
        "color": {
          "_class": "color",
          "alpha": 1,
          "blue": 0.1764705882352941,
          "green": 0.1764705882352941,
          "red": 0.1764705882352941
        },
        "fillType": 0,
        "isEnabled": true,
        "noiseIndex": 0,
        "noiseIntensity": 0,
        "patternFillType": 1,
        "patternTileScale": 1
      }
    ],
    "miterLimit": 10,
    "startMarkerType": 0,
    "windingRule": 1
  }
}