{
  "_class": "shapePath",
  "booleanOperation": -1,
  "clippingMaskMode": 0,
  "do_objectID": "28FF8EE8-3162-49A9-B5B6-66F337C1D1E8",
  "edited": true,
  "exportOptions": {
    "_class": "exportOptions",
    "do_objectID": "B608B660-19C9-4388-BDA6-50E4199357DC",
    "exportFormats": [
    ],
    "includedLayerIds": [
    ],
    "layerOptions": 0,
    "shouldTrim": false
  },
  "frame": {
    "_class": "rect",
    "constrainProportions": false,
    "do_objectID": "7E2AE190-2FAC-4523-B750-8861ADF2C5CF",
    "height": 0.1058906030855553,
    "width": 0.1059863482545609,
    "x": 16.005184043736,
    "y": 21.35576242877965
  },
  "hasClippingMask": false,
  "isClosed": true,
  "isFixedToViewport": false,
  "isFlippedHorizontal": false,
  "isFlippedVertical": false,
  "isLocked": false,
  "isVisible": true,
  "layerListExpandedType": 0,
  "name": "Path",
  "nameIsFixed": false,
  "pointRadiusBehaviour": 0,
  "points": [
    {
      "_class": "curvePoint",
      "cornerRadius": 0,
      "curveFrom": "{-0.27020073580646908, 0.70343749899598151}",
      "curveMode": 3,
      "curveTo": "{0.41379926419352842, 0.95043749899599561}",
      "hasCurveFrom": true,
      "hasCurveTo": true,
      "point": "{0.17379926419351932, 0.86343749899600652}"
    },
    {
      "_class": "curvePoint",
      "cornerRadius": 0,
      "curveFrom": "{0.92979926419351955, 0.1684374989959565}",
      "curveMode": 3,
      "curveTo": "{0.24879926419350795, -0.078562501004000751}",
      "hasCurveFrom": true,
      "hasCurveTo": true,
      "point": "{0.48579926419353114, 0.0064374989959787854}"
    }
  ],
  "resizingConstraint": 63,
  "resizingType": 0,
  "rotation": 0,
  "shouldBreakMaskChain": false,
  "style": {
    "_class": "style",
    "do_objectID": "B466FFA2-9961-45D6-A256-17878CE9F8D2",
    "endMarkerType": 0,
    "fills": [
      {
        "_class": "fill",
        "color": {
          "_class": "color",
          "alpha": 1,
          "blue": 0.1764705882352941,
          "green": 0.1764705882352941,
          "red": 0.1764705882352941
        },
        "fillType": 0,
        "isEnabled": true,
        "noiseIndex": 0,
        "noiseIntensity": 0,
        "patternFillType": 1,
        "patternTileScale": 1
      }
    ],
    "miterLimit": 10,
    "startMarkerType": 0,
    "windingRule": 1
  }
}