{
  "_class": "shapePath",
  "booleanOperation": -1,
  "clippingMaskMode": 0,
  "do_objectID": "2A539C3B-4E56-49D1-B1BE-B008459D9B82",
  "edited": true,
  "exportOptions": {
    "_class": "exportOptions",
    "do_objectID": "F17B4BF5-916C-4B7A-9E73-189F636256CA",
    "exportFormats": [
    ],
    "includedLayerIds": [
    ],
    "layerOptions": 0,
    "shouldTrim": false
  },
  "frame": {
    "_class": "rect",
    "constrainProportions": false,
    "do_objectID": "A175F837-C396-4544-87D3-06C3F38CB1FF",
    "height": 0.1058906030855518,
    "width": 0.1203247699080947,
    "x": 17.47568061528901,
    "y": 12.98536585778636
  },
  "hasClippingMask": false,
  "isClosed": true,
  "isFixedToViewport": false,
  "isFlippedHorizontal": false,
  "isFlippedVertical": false,
  "isLocked": false,
  "isVisible": true,
  "layerListExpandedType": 0,
  "name": "Path",
  "nameIsFixed": false,
  "pointRadiusBehaviour": 0,
  "points": [
    {
      "_class": "curvePoint",
      "cornerRadius": 0,
      "curveFrom": "{0.48018215947752507, 1.2509615075637761}",
      "curveMode": 4,
      "curveTo": "{0.91260115417928256, 0.64517748850560697}",
      "hasCurveFrom": true,
      "hasCurveTo": true,
      "point": "{0.6522053164961642, 0.84039401487840792}"
    },
    {
      "_class": "curvePoint",
      "cornerRadius": 0,
      "curveFrom": "{0.081493195563725196, 0.25299361489571642}",
      "curveMode": 3,
      "curveTo": "{-0.058823732514225055, 0.76685953857654721}",
      "hasCurveFrom": true,
      "hasCurveTo": true,
      "point": "{0.0052633259829154054, 0.53400036362064673}"
    },
    {
      "_class": "curvePoint",
      "cornerRadius": 0,
      "curveFrom": "{1.1460129672320309, 0.43770521608248752}",
      "curveMode": 4,
      "curveTo": "{0.75946681440191954, 0.2564952566243433}",
      "hasCurveFrom": true,
      "hasCurveTo": true,
      "point": "{0.88764093139620048, 0}"
    }
  ],
  "resizingConstraint": 63,
  "resizingType": 0,
  "rotation": 0,
  "shouldBreakMaskChain": false,
  "style": {
    "_class": "style",
    "do_objectID": "5E8388C0-B647-4B30-B6AC-8BC2ED141F42",
    "endMarkerType": 0,
    "fills": [
      {
        "_class": "fill",
        "color": {
          "_class": "color",
          "alpha": 1,
          "blue": 0.1764705882352941,
          "green": 0.1764705882352941,
          "red": 0.1764705882352941
        },
        "fillType": 0,
        "isEnabled": true,
        "noiseIndex": 0,
        "noiseIntensity": 0,
        "patternFillType": 1,
        "patternTileScale": 1
      }
    ],
    "miterLimit": 10,
    "startMarkerType": 0,
    "windingRule": 1
  }
}