{
  "_class": "shapePath",
  "booleanOperation": -1,
  "clippingMaskMode": 0,
  "do_objectID": "393176B8-C525-437A-9DD4-CA9EB74AEBB4",
  "edited": true,
  "exportOptions": {
    "_class": "exportOptions",
    "do_objectID": "A3EEF1D5-3256-45E4-898E-2ACE9B4E37DD",
    "exportFormats": [
    ],
    "includedLayerIds": [
    ],
    "layerOptions": 0,
    "shouldTrim": false
  },
  "frame": {
    "_class": "rect",
    "constrainProportions": false,
    "do_objectID": "E6BEBF4C-01CA-4784-BBB5-3BC862FF1A75",
    "height": 0.129432146353583,
    "width": 0.1850322353541642,
    "x": 29.66307060002863,
    "y": 9.70455289993268
  },
  "hasClippingMask": false,
  "isClosed": true,
  "isFixedToViewport": false,
  "isFlippedHorizontal": false,
  "isFlippedVertical": false,
  "isLocked": false,
  "isVisible": true,
  "layerListExpandedType": 0,
  "name": "Path",
  "nameIsFixed": false,
  "pointRadiusBehaviour": 0,
  "points": [
    {
      "_class": "curvePoint",
      "cornerRadius": 0,
      "curveFrom": "{0.48539467155012733, 0.17794486215538294}",
      "curveMode": 4,
      "curveTo": "{0.074345318978416175, 0.33959899749375239}",
      "hasCurveFrom": true,
      "hasCurveTo": true,
      "point": "{0.22876300532337926, 0.26691729323307439}"
    },
    {
      "_class": "curvePoint",
      "cornerRadius": 0,
      "curveFrom": "{1.0026061834839912, 0.31265664160402412}",
      "curveMode": 4,
      "curveTo": "{0.74378108421259714, 0.088972431077691469}",
      "hasCurveFrom": true,
      "hasCurveTo": true,
      "point": "{0.99997406383039611, 0}"
    },
    {
      "_class": "curvePoint",
      "cornerRadius": 0,
      "curveFrom": "{0.69508687062086261, 0.88157894736840792}",
      "curveMode": 4,
      "curveTo": "{0.80388114963663548, 0.45551378446117208}",
      "hasCurveFrom": true,
      "hasCurveTo": true,
      "point": "{0.86792939454109141, 0.82205513784461703}"
    },
    {
      "_class": "curvePoint",
      "cornerRadius": 0,
      "curveFrom": "{0.34720838973573409, 0.6723057644110485}",
      "curveMode": 4,
      "curveTo": "{0.52487646635422902, 0.94110275689223444}",
      "hasCurveFrom": true,
      "hasCurveTo": true,
      "point": "{0.35291131565187356, 1}"
    },
    {
      "_class": "curvePoint",
      "cornerRadius": 0,
      "curveFrom": "{-0.06691176909852134, 0.42418546365915999}",
      "curveMode": 4,
      "curveTo": "{0.19366807660861945, 0.68796992481203678}",
      "hasCurveFrom": true,
      "hasCurveTo": true,
      "point": "{0.033986150956441148, 0.72180451127818557}"
    }
  ],
  "resizingConstraint": 63,
  "resizingType": 0,
  "rotation": 0,
  "shouldBreakMaskChain": false,
  "style": {
    "_class": "style",
    "do_objectID": "B87CFFDD-497D-4A37-9D4E-1D4D7101EE7E",
    "endMarkerType": 0,
    "fills": [
      {
        "_class": "fill",
        "color": {
          "_class": "color",
          "alpha": 1,
          "blue": 0.1764705882352941,
          "green": 0.1764705882352941,
          "red": 0.1764705882352941
        },
        "fillType": 0,
        "isEnabled": true,
        "noiseIndex": 0,
        "noiseIntensity": 0,
        "patternFillType": 1,
        "patternTileScale": 1
      }
    ],
    "miterLimit": 10,
    "startMarkerType": 0,
    "windingRule": 1
  }
}