{
  "_class": "shapePath",
  "booleanOperation": -1,
  "clippingMaskMode": 0,
  "do_objectID": "44A7AB2A-419F-4F84-B058-4920D53144AD",
  "edited": true,
  "exportOptions": {
    "_class": "exportOptions",
    "do_objectID": "81EC82AB-DCE0-45D6-A9E6-BBB182CD65E1",
    "exportFormats": [
    ],
    "includedLayerIds": [
    ],
    "layerOptions": 0,
    "shouldTrim": false
  },
  "frame": {
    "_class": "rect",
    "constrainProportions": false,
    "do_objectID": "23ED0C2C-326B-4EA4-A530-983643E46AD1",
    "height": 0.1371260662805476,
    "width": 0.245956418246049,
    "x": 14.9334623532765,
    "y": 20.36081893286616
  },
  "hasClippingMask": false,
  "isClosed": true,
  "isFixedToViewport": false,
  "isFlippedHorizontal": false,
  "isFlippedVertical": false,
  "isLocked": false,
  "isVisible": true,
  "layerListExpandedType": 0,
  "name": "Path",
  "nameIsFixed": false,
  "pointRadiusBehaviour": 0,
  "points": [
    {
      "_class": "curvePoint",
      "cornerRadius": 0,
      "curveFrom": "{0.94090452998559904, 0.64692775457112928}",
      "curveMode": 4,
      "curveTo": "{1.061692782590195, -0.70681155830436371}",
      "hasCurveFrom": true,
      "hasCurveTo": true,
      "point": "{0.99766840825879399, 0.66289584607294627}"
    },
    {
      "_class": "curvePoint",
      "cornerRadius": 0,
      "curveFrom": "{0.7481713618952115, 0.82375958268374772}",
      "curveMode": 4,
      "curveTo": "{0.8339772244012118, 0.87935219754189053}",
      "hasCurveFrom": true,
      "hasCurveTo": true,
      "point": "{0.78150363925331823, 0.84327613896374432}"
    },
    {
      "_class": "curvePoint",
      "cornerRadius": 0,
      "curveFrom": "{0.46105174504823965, 0.46891310486579546}",
      "curveMode": 3,
      "curveTo": "{0.71186888160421891, 0.45471924575307671}",
      "hasCurveFrom": true,
      "hasCurveTo": true,
      "point": "{0.68051673953472158, 0.45649347814217495}"
    },
    {
      "_class": "curvePoint",
      "cornerRadius": 0,
      "curveFrom": "{-0.21615452365291957, 0.37133032346586237}",
      "curveMode": 4,
      "curveTo": "{0.2501673368123512, 0.95505277947639622}",
      "hasCurveFrom": true,
      "hasCurveTo": true,
      "point": "{0.0320224325182661, 1}"
    }
  ],
  "resizingConstraint": 63,
  "resizingType": 0,
  "rotation": 0,
  "shouldBreakMaskChain": false,
  "style": {
    "_class": "style",
    "do_objectID": "AE0387DD-2599-4E11-ACD5-79B648839DCB",
    "endMarkerType": 0,
    "fills": [
      {
        "_class": "fill",
        "color": {
          "_class": "color",
          "alpha": 1,
          "blue": 0.1764705882352941,
          "green": 0.1764705882352941,
          "red": 0.1764705882352941
        },
        "fillType": 0,
        "isEnabled": true,
        "noiseIndex": 0,
        "noiseIntensity": 0,
        "patternFillType": 1,
        "patternTileScale": 1
      }
    ],
    "miterLimit": 10,
    "startMarkerType": 0,
    "windingRule": 1
  }
}