{
  "_class": "shapePath",
  "booleanOperation": -1,
  "clippingMaskMode": 0,
  "do_objectID": "463B3DC5-0305-4AFC-A6D7-3837220C2A77",
  "edited": true,
  "exportOptions": {
    "_class": "exportOptions",
    "do_objectID": "0D09C94B-CB40-4DB0-AD53-A9B92E838F33",
    "exportFormats": [
    ],
    "includedLayerIds": [
    ],
    "layerOptions": 0,
    "shouldTrim": false
  },
  "frame": {
    "_class": "rect",
    "constrainProportions": false,
    "do_objectID": "B2035A8A-1B94-4CCF-B56F-5FF1BBF3E059",
    "height": 0.1058906030855695,
    "width": 0.1059863482545591,
    "x": 12.73771207680884,
    "y": 32.65913281333602
  },
  "hasClippingMask": false,
  "isClosed": true,
  "isFixedToViewport": false,
  "isFlippedHorizontal": false,
  "isFlippedVertical": false,
  "isLocked": false,
  "isVisible": true,
  "layerListExpandedType": 0,
  "name": "Path",
  "nameIsFixed": false,
  "pointRadiusBehaviour": 0,
  "points": [
    {
      "_class": "curvePoint",
      "cornerRadius": 0,
      "curveFrom": "{-0.25710296143358846, 0.51200478473936073}",
      "curveMode": 3,
      "curveTo": "{0.31889703856640494, 0.86800478473935527}",
      "hasCurveFrom": true,
      "hasCurveTo": true,
      "point": "{0.11889703856641631, 0.74400478473938847}"
    },
    {
      "_class": "curvePoint",
      "cornerRadius": 0,
      "curveFrom": "{0.93989703856641427, 0.24400478473938847}",
      "curveMode": 3,
      "curveTo": "{0.36089703856640654, -0.10699521526061062}",
      "hasCurveFrom": true,
      "hasCurveTo": true,
      "point": "{0.56289703856640472, 0.016004784739379829}"
    }
  ],
  "resizingConstraint": 63,
  "resizingType": 0,
  "rotation": 0,
  "shouldBreakMaskChain": false,
  "style": {
    "_class": "style",
    "do_objectID": "B639DFD6-E2DB-4D00-88F3-806457B72C52",
    "endMarkerType": 0,
    "fills": [
      {
        "_class": "fill",
        "color": {
          "_class": "color",
          "alpha": 1,
          "blue": 0.1764705882352941,
          "green": 0.1764705882352941,
          "red": 0.1764705882352941
        },
        "fillType": 0,
        "isEnabled": true,
        "noiseIndex": 0,
        "noiseIntensity": 0,
        "patternFillType": 1,
        "patternTileScale": 1
      }
    ],
    "miterLimit": 10,
    "startMarkerType": 0,
    "windingRule": 1
  }
}