{
  "_class": "shapePath",
  "booleanOperation": -1,
  "clippingMaskMode": 0,
  "do_objectID": "471EFB2F-649B-4522-9E66-E902E5801CD8",
  "edited": true,
  "exportOptions": {
    "_class": "exportOptions",
    "do_objectID": "801F5FC5-5606-4788-A29D-F4702DDA51F3",
    "exportFormats": [
    ],
    "includedLayerIds": [
    ],
    "layerOptions": 0,
    "shouldTrim": false
  },
  "frame": {
    "_class": "rect",
    "constrainProportions": false,
    "do_objectID": "2232C843-E3FC-44B5-996B-F8A6EDC79001",
    "height": 0.1058906030855553,
    "width": 0.1072097094766349,
    "x": 18.00202445276191,
    "y": 7.47598436497238
  },
  "hasClippingMask": false,
  "isClosed": true,
  "isFixedToViewport": false,
  "isFlippedHorizontal": false,
  "isFlippedVertical": false,
  "isLocked": false,
  "isVisible": true,
  "layerListExpandedType": 0,
  "name": "Path",
  "nameIsFixed": false,
  "pointRadiusBehaviour": 0,
  "points": [
    {
      "_class": "curvePoint",
      "cornerRadius": 0,
      "curveFrom": "{0.4826160899659942, 1.251079983318431}",
      "curveMode": 4,
      "curveTo": "{0.91266315663435582, 0.64369291690735386}",
      "hasCurveFrom": true,
      "hasCurveTo": true,
      "point": "{0.65372636649248594, 0.83994075742793139}"
    },
    {
      "_class": "curvePoint",
      "cornerRadius": 0,
      "curveFrom": "{0.083611153109979908, 0.25512219267673969}",
      "curveMode": 3,
      "curveTo": "{-0.06099974430842927, 0.76732905643532223}",
      "hasCurveFrom": true,
      "hasCurveTo": true,
      "point": "{0.0056272660204657729, 0.53575660462110308}"
    },
    {
      "_class": "curvePoint",
      "cornerRadius": 0,
      "curveFrom": "{1.1458576927854993, 0.4366514451582349}",
      "curveMode": 4,
      "curveTo": "{0.76048100804221497, 0.25610343187931917}",
      "hasCurveFrom": true,
      "hasCurveTo": true,
      "point": "{0.88767802776100679, 0}"
    }
  ],
  "resizingConstraint": 63,
  "resizingType": 0,
  "rotation": 0,
  "shouldBreakMaskChain": false,
  "style": {
    "_class": "style",
    "do_objectID": "B880FAF8-E2E5-4128-B2AC-121F8D12C4D2",
    "endMarkerType": 0,
    "fills": [
      {
        "_class": "fill",
        "color": {
          "_class": "color",
          "alpha": 1,
          "blue": 0.1764705882352941,
          "green": 0.1764705882352941,
          "red": 0.1764705882352941
        },
        "fillType": 0,
        "isEnabled": true,
        "noiseIndex": 0,
        "noiseIntensity": 0,
        "patternFillType": 1,
        "patternTileScale": 1
      }
    ],
    "miterLimit": 10,
    "startMarkerType": 0,
    "windingRule": 1
  }
}