{
  "_class": "shapePath",
  "booleanOperation": -1,
  "clippingMaskMode": 0,
  "do_objectID": "5075BF33-8CBE-4448-8A64-B13C2A342387",
  "edited": true,
  "exportOptions": {
    "_class": "exportOptions",
    "do_objectID": "98F189BF-F71F-4AC1-8821-024B78A82395",
    "exportFormats": [
    ],
    "includedLayerIds": [
    ],
    "layerOptions": 0,
    "shouldTrim": false
  },
  "frame": {
    "_class": "rect",
    "constrainProportions": false,
    "do_objectID": "842CCBAE-732C-405D-A398-A5983F8F67B5",
    "height": 0.1058906030855553,
    "width": 0.1059863482545644,
    "x": 16.06057792738009,
    "y": 22.03806091340676
  },
  "hasClippingMask": false,
  "isClosed": true,
  "isFixedToViewport": false,
  "isFlippedHorizontal": false,
  "isFlippedVertical": false,
  "isLocked": false,
  "isVisible": true,
  "layerListExpandedType": 0,
  "name": "Path",
  "nameIsFixed": false,
  "pointRadiusBehaviour": 0,
  "points": [
    {
      "_class": "curvePoint",
      "cornerRadius": 0,
      "curveFrom": "{-0.25863376993245879, 0.51516141462963105}",
      "curveMode": 3,
      "curveTo": "{0.31836623006753939, 0.86716141462966334}",
      "hasCurveFrom": true,
      "hasCurveTo": true,
      "point": "{0.11936623006755553, 0.74416141462967289}"
    },
    {
      "_class": "curvePoint",
      "cornerRadius": 0,
      "curveFrom": "{0.94036623006755349, 0.2461614146296256}",
      "curveMode": 4,
      "curveTo": "{0.36436623006753166, -0.10783858537030255}",
      "hasCurveFrom": true,
      "hasCurveTo": true,
      "point": "{0.56236623006753916, 0.01616141462966425}"
    }
  ],
  "resizingConstraint": 63,
  "resizingType": 0,
  "rotation": 0,
  "shouldBreakMaskChain": false,
  "style": {
    "_class": "style",
    "do_objectID": "C49391EF-A17B-43F8-A101-FDB304E70ED4",
    "endMarkerType": 0,
    "fills": [
      {
        "_class": "fill",
        "color": {
          "_class": "color",
          "alpha": 1,
          "blue": 0.1764705882352941,
          "green": 0.1764705882352941,
          "red": 0.1764705882352941
        },
        "fillType": 0,
        "isEnabled": true,
        "noiseIndex": 0,
        "noiseIntensity": 0,
        "patternFillType": 1,
        "patternTileScale": 1
      }
    ],
    "miterLimit": 10,
    "startMarkerType": 0,
    "windingRule": 1
  }
}