{
  "_class": "shapePath",
  "booleanOperation": -1,
  "clippingMaskMode": 0,
  "do_objectID": "57FC73FD-ABFE-42D2-87D5-481B6CB1092D",
  "edited": true,
  "exportOptions": {
    "_class": "exportOptions",
    "do_objectID": "8790154B-A494-43B3-84B1-42D0C6C38C9D",
    "exportFormats": [
    ],
    "includedLayerIds": [
    ],
    "layerOptions": 0,
    "shouldTrim": false
  },
  "frame": {
    "_class": "rect",
    "constrainProportions": false,
    "do_objectID": "1D151D94-3465-486F-9FC5-D8C16E25B377",
    "height": 0.1058906030856015,
    "width": 0.1437508351443597,
    "x": 40.61080719639456,
    "y": 21.41727006873583
  },
  "hasClippingMask": false,
  "isClosed": true,
  "isFixedToViewport": false,
  "isFlippedHorizontal": false,
  "isFlippedVertical": false,
  "isLocked": false,
  "isVisible": true,
  "layerListExpandedType": 0,
  "name": "Path",
  "nameIsFixed": false,
  "pointRadiusBehaviour": 0,
  "points": [
    {
      "_class": "curvePoint",
      "cornerRadius": 0,
      "curveFrom": "{0.48574446180703429, 0.81397637795278399}",
      "curveMode": 4,
      "curveTo": "{0.90303240340761759, 0.59744094488188304}",
      "hasCurveFrom": true,
      "hasCurveTo": true,
      "point": "{0.70596407916053672, 0.72047244094487972}"
    },
    {
      "_class": "curvePoint",
      "cornerRadius": 0,
      "curveFrom": "{-0.086261877626473873, 0.53051181102362899}",
      "curveMode": 4,
      "curveTo": "{0.26439551308251502, 0.90748031496068826}",
      "hasCurveFrom": true,
      "hasCurveTo": true,
      "point": "{0.043611230043536287, 1}"
    },
    {
      "_class": "curvePoint",
      "cornerRadius": 0,
      "curveFrom": "{0.51567174313968489, 0.18602362204721601}",
      "curveMode": 4,
      "curveTo": "{0.096689804482576372, 0.39763779527560156}",
      "hasCurveFrom": true,
      "hasCurveTo": true,
      "point": "{0.29375812872965729, 0.27952755905512033}"
    },
    {
      "_class": "curvePoint",
      "cornerRadius": 0,
      "curveFrom": "{1.0854194198311273, 0.46358267716537493}",
      "curveMode": 4,
      "curveTo": "{0.73645602617869577, 0.092519685039367652}",
      "hasCurveFrom": true,
      "hasCurveTo": true,
      "point": "{0.95724030921770653, 0}"
    }
  ],
  "resizingConstraint": 63,
  "resizingType": 0,
  "rotation": 0,
  "shouldBreakMaskChain": false,
  "style": {
    "_class": "style",
    "do_objectID": "913367DF-B113-4418-BBAE-8FC8550A1FF7",
    "endMarkerType": 0,
    "fills": [
      {
        "_class": "fill",
        "color": {
          "_class": "color",
          "alpha": 1,
          "blue": 0.1764705882352941,
          "green": 0.1764705882352941,
          "red": 0.1764705882352941
        },
        "fillType": 0,
        "isEnabled": true,
        "noiseIndex": 0,
        "noiseIntensity": 0,
        "patternFillType": 1,
        "patternTileScale": 1
      }
    ],
    "miterLimit": 10,
    "startMarkerType": 0,
    "windingRule": 1
  }
}