{
  "_class": "shapePath",
  "booleanOperation": -1,
  "clippingMaskMode": 0,
  "do_objectID": "5A8FB606-1AA3-42CC-8007-B5D7E33CEAE9",
  "edited": true,
  "exportOptions": {
    "_class": "exportOptions",
    "do_objectID": "EC4B1248-CC00-4CAD-B395-FECC20C16B40",
    "exportFormats": [
    ],
    "includedLayerIds": [
    ],
    "layerOptions": 0,
    "shouldTrim": false
  },
  "frame": {
    "_class": "rect",
    "constrainProportions": false,
    "do_objectID": "6E7A293C-357B-4D11-B574-76FD3C0635F3",
    "height": 0.105890603085566,
    "width": 0.1059863482545547,
    "x": 6.394033750807102,
    "y": 24.77831320280455
  },
  "hasClippingMask": false,
  "isClosed": true,
  "isFixedToViewport": false,
  "isFlippedHorizontal": false,
  "isFlippedVertical": false,
  "isLocked": false,
  "isVisible": true,
  "layerListExpandedType": 0,
  "name": "Path",
  "nameIsFixed": false,
  "pointRadiusBehaviour": 0,
  "points": [
    {
      "_class": "curvePoint",
      "cornerRadius": 0,
      "curveFrom": "{-0.25723198327392538, 0.51569892722511668}",
      "curveMode": 3,
      "curveTo": "{0.32276801672607291, 0.86769892722514896}",
      "hasCurveFrom": true,
      "hasCurveTo": true,
      "point": "{0.1187680167260794, 0.74369892722512532}"
    },
    {
      "_class": "curvePoint",
      "cornerRadius": 0,
      "curveFrom": "{0.93976801672607735, 0.24569892722513487}",
      "curveMode": 3,
      "curveTo": "{0.36176801672607439, -0.10630107277489742}",
      "hasCurveFrom": true,
      "hasCurveTo": true,
      "point": "{0.56376801672607257, 0.015698927225116677}"
    }
  ],
  "resizingConstraint": 63,
  "resizingType": 0,
  "rotation": 0,
  "shouldBreakMaskChain": false,
  "style": {
    "_class": "style",
    "do_objectID": "359E6A83-D9C5-4587-A56D-60A83DD5F998",
    "endMarkerType": 0,
    "fills": [
      {
        "_class": "fill",
        "color": {
          "_class": "color",
          "alpha": 1,
          "blue": 0.1764705882352941,
          "green": 0.1764705882352941,
          "red": 0.1764705882352941
        },
        "fillType": 0,
        "isEnabled": true,
        "noiseIndex": 0,
        "noiseIntensity": 0,
        "patternFillType": 1,
        "patternTileScale": 1
      }
    ],
    "miterLimit": 10,
    "startMarkerType": 0,
    "windingRule": 1
  }
}