{
  "_class": "shapePath",
  "booleanOperation": -1,
  "clippingMaskMode": 0,
  "do_objectID": "64B7CFAC-7E79-4217-8F3C-B6A332B0CE43",
  "edited": true,
  "exportOptions": {
    "_class": "exportOptions",
    "do_objectID": "B92F9E14-A7D3-489D-8051-BA17E660BA49",
    "exportFormats": [
    ],
    "includedLayerIds": [
    ],
    "layerOptions": 0,
    "shouldTrim": false
  },
  "frame": {
    "_class": "rect",
    "constrainProportions": false,
    "do_objectID": "1EC4F491-0898-431B-AFDB-3BBC6D64B587",
    "height": 0.4421473045576008,
    "width": 0.4533686133990145,
    "x": 17.42206392313207,
    "y": 17.31258419433704
  },
  "hasClippingMask": false,
  "isClosed": true,
  "isFixedToViewport": false,
  "isFlippedHorizontal": false,
  "isFlippedVertical": false,
  "isLocked": false,
  "isVisible": true,
  "layerListExpandedType": 0,
  "name": "Path",
  "nameIsFixed": false,
  "pointRadiusBehaviour": 0,
  "points": [
    {
      "_class": "curvePoint",
      "cornerRadius": 0,
      "curveFrom": "{0.33468697207861697, 0.93103047695435726}",
      "curveMode": 2,
      "curveTo": "{0.43226382897235954, 0.99192529932410534}",
      "hasCurveFrom": true,
      "hasCurveTo": true,
      "point": "{0.3833858804732917, 0.96111105185989376}"
    },
    {
      "_class": "curvePoint",
      "cornerRadius": 0,
      "curveFrom": "{0.40558685341792272, 0.70065729353145056}",
      "curveMode": 4,
      "curveTo": "{0.36852555180874003, 0.762102370320205}",
      "hasCurveFrom": true,
      "hasCurveTo": true,
      "point": "{0.32663016738096545, 0.72009961633624897}"
    },
    {
      "_class": "curvePoint",
      "cornerRadius": 0,
      "curveFrom": "{0.49797154728429238, 0.48825908779600236}",
      "curveMode": 4,
      "curveTo": "{0.48364833893291981, 0.68121497072665216}",
      "hasCurveFrom": true,
      "hasCurveTo": true,
      "point": "{0.56224694476109094, 0.66177264792185364}"
    },
    {
      "_class": "curvePoint",
      "cornerRadius": 0,
      "curveFrom": "{0.051803607138950838, 0.58235259344564072}",
      "curveMode": 4,
      "curveTo": "{0.25161236364063994, 0.621787493474244}",
      "hasCurveFrom": true,
      "hasCurveTo": true,
      "point": "{0.062187933193696691, 0.65755403070949225}"
    },
    {
      "_class": "curvePoint",
      "cornerRadius": 0,
      "curveFrom": "{0.12735853119245547, 0.43598491799064076}",
      "curveMode": 4,
      "curveTo": "{0.046074323798398771, 0.51045268269581712}",
      "hasCurveFrom": true,
      "hasCurveTo": true,
      "point": "{0.15170798538979285, 0.50806824688013319}"
    },
    {
      "_class": "curvePoint",
      "cornerRadius": 0,
      "curveFrom": "{-0.0051311460577633892, 0.34097432164265845}",
      "curveMode": 4,
      "curveTo": "{0.1001444353248446, 0.36903729701185378}",
      "hasCurveFrom": true,
      "hasCurveTo": true,
      "point": "{0.0054322201013755102, 0.41672601332551112}"
    },
    {
      "_class": "curvePoint",
      "cornerRadius": 0,
      "curveFrom": "{0.16495695311481728, 0.24229536250132105}",
      "curveMode": 4,
      "curveTo": "{-0.011039469502708505, 0.26870757461350242}",
      "hasCurveFrom": true,
      "hasCurveTo": true,
      "point": "{0.094773232193078621, 0.26668997507715614}"
    },
    {
      "_class": "curvePoint",
      "cornerRadius": 0,
      "curveFrom": "{0.34113241583673609, 0.07776929121919901}",
      "curveMode": 4,
      "curveTo": "{0.23030659121796912, 0.21404896899246215}",
      "hasCurveFrom": true,
      "hasCurveTo": true,
      "point": "{0.1839352041803887, 0.11683735496846469}"
    },
    {
      "_class": "curvePoint",
      "cornerRadius": 0,
      "curveFrom": "{0.64675387403420725, 0.030814247464211613}",
      "curveMode": 4,
      "curveTo": "{0.4981505873886854, 0.038701227469928101}",
      "hasCurveFrom": true,
      "hasCurveTo": true,
      "point": "{0.65534779904503282, 0}"
    },
    {
      "_class": "curvePoint",
      "cornerRadius": 0,
      "curveFrom": "{0.6612561224899729, 0.16819443407548232}",
      "curveMode": 3,
      "curveTo": "{0.69742222357719541, 0.091892487973628464}",
      "hasCurveFrom": true,
      "hasCurveTo": true,
      "point": "{0.68399421574778296, 0.12050571776181974}"
    },
    {
      "_class": "curvePoint",
      "cornerRadius": 0,
      "curveFrom": "{0.45947792483997546, 0.21826758620482359}",
      "curveMode": 4,
      "curveTo": "{0.48382737903731288, 0.13793044103027188}",
      "hasCurveFrom": true,
      "hasCurveTo": true,
      "point": "{0.44819839826326441, 0.17883268617622031}"
    },
    {
      "_class": "curvePoint",
      "cornerRadius": 0,
      "curveFrom": "{0.49797154728429238, 0.37252224166554526}",
      "curveMode": 3,
      "curveTo": "{0.46538624828491554, 0.259903503909442}",
      "hasCurveFrom": true,
      "hasCurveTo": true,
      "point": "{0.47666577486162154, 0.29970524021737766}"
    },
    {
      "_class": "curvePoint",
      "cornerRadius": 0,
      "curveFrom": "{0.61255721409529806, 0.3156626183684898}",
      "curveMode": 4,
      "curveTo": "{0.53019876607488825, 0.43745226310798591}",
      "hasCurveFrom": true,
      "hasCurveTo": true,
      "point": "{0.62312058025443695, 0.39123089191166849}"
    },
    {
      "_class": "curvePoint",
      "cornerRadius": 0,
      "curveFrom": "{0.72320399860967211, 0.31676312720649741}",
      "curveMode": 4,
      "curveTo": "{0.60682793075474606, 0.24339587133932861}",
      "hasCurveFrom": true,
      "hasCurveTo": true,
      "point": "{0.71246159234614015, 0.2413782718029823}"
    },
    {
      "_class": "curvePoint",
      "cornerRadius": 0,
      "curveFrom": "{0.64209883132000845, 0.47138461894655143}",
      "curveMode": 4,
      "curveTo": "{0.72821712153265195, 0.38847961981665219}",
      "hasCurveFrom": true,
      "hasCurveTo": true,
      "point": "{0.62312058025443695, 0.39123089191166849}"
    },
    {
      "_class": "curvePoint",
      "cornerRadius": 0,
      "curveFrom": "{0.6922300605498225, 0.62637294696594303}",
      "curveMode": 4,
      "curveTo": "{0.6612561224899729, 0.55227201854010433}",
      "hasCurveFrom": true,
      "hasCurveTo": true,
      "point": "{0.68023437355554428, 0.63260916371465081}"
    },
    {
      "_class": "curvePoint",
      "cornerRadius": 0,
      "curveFrom": "{0.70601614858802098, 0.60362909764712191}",
      "curveMode": 4,
      "curveTo": "{0.70154014597821512, 0.62288800231225161}",
      "hasCurveFrom": true,
      "hasCurveTo": true,
      "point": "{0.71246159234614015, 0.61793571254122015}"
    },
    {
      "_class": "curvePoint",
      "cornerRadius": 0,
      "curveFrom": "{0.76295090178474023, 0.54108351202035998}",
      "curveMode": 4,
      "curveTo": "{0.6995707048299018, 0.58913906461335486}",
      "hasCurveFrom": true,
      "hasCurveTo": true,
      "point": "{0.6927671808630016, 0.57483244971925662}"
    },
    {
      "_class": "curvePoint",
      "cornerRadius": 0,
      "curveFrom": "{0.93482940200124631, 0.54621921993106015}",
      "curveMode": 4,
      "curveTo": "{0.83277654249769284, 0.50770141060080087}",
      "hasCurveFrom": true,
      "hasCurveTo": true,
      "point": "{0.90224410300186442, 0.47468614546057408}"
    },
    {
      "_class": "curvePoint",
      "cornerRadius": 0,
      "curveFrom": "{0.93053243949583353, 0.72193379773293176}",
      "curveMode": 4,
      "curveTo": "{0.96723566089623014, 0.61720203998254497}",
      "hasCurveFrom": true,
      "hasCurveTo": true,
      "point": "{1, 0.68891853259270508}"
    },
    {
      "_class": "curvePoint",
      "cornerRadius": 0,
      "curveFrom": "{0.78407763410301801, 0.77475822195728927}",
      "curveMode": 4,
      "curveTo": "{0.86070679878287593, 0.75549931729215969}",
      "hasCurveFrom": true,
      "hasCurveTo": true,
      "point": "{0.79052307786113718, 0.78906483685138762}"
    },
    {
      "_class": "curvePoint",
      "cornerRadius": 0,
      "curveFrom": "{0.73645296633469648, 0.73825801216337628}",
      "curveMode": 4,
      "curveTo": "{0.77745315024050587, 0.76045160706319104}",
      "hasCurveFrom": true,
      "hasCurveTo": true,
      "point": "{0.77082866637799363, 0.7459615740294292}"
    },
    {
      "_class": "curvePoint",
      "cornerRadius": 0,
      "curveFrom": "{0.64048747038048115, 0.64214690697738641}",
      "curveMode": 4,
      "curveTo": "{0.70297246681335435, 0.70689351028015834}",
      "hasCurveFrom": true,
      "hasCurveTo": true,
      "point": "{0.68023437355554428, 0.63260916371465081}"
    },
    {
      "_class": "curvePoint",
      "cornerRadius": 0,
      "curveFrom": "{0.5814042359310555, 0.74247662937573777}",
      "curveMode": 4,
      "curveTo": "{0.60109864741419905, 0.65205148651945444}",
      "hasCurveFrom": true,
      "hasCurveTo": true,
      "point": "{0.56224694476109094, 0.66177264792185364}"
    },
    {
      "_class": "curvePoint",
      "cornerRadius": 0,
      "curveFrom": "{0.69294622096738956, 0.89232924948442394}",
      "curveMode": 4,
      "curveTo": "{0.60020344689223892, 0.82263035641061544}",
      "hasCurveFrom": true,
      "hasCurveTo": true,
      "point": "{0.61918169795781031, 0.90260066530582961}"
    },
    {
      "_class": "curvePoint",
      "cornerRadius": 0,
      "curveFrom": "{0.69205102044542943, 1.0054982416595337}",
      "curveMode": 4,
      "curveTo": "{0.76348802209791433, 0.88664328715472263}",
      "hasCurveFrom": true,
      "hasCurveTo": true,
      "point": "{0.76563650335062072, 0.99430973513978926}"
    },
    {
      "_class": "curvePoint",
      "cornerRadius": 0,
      "curveFrom": "{0.56385830570062334, 0.8842588513390387}",
      "curveMode": 4,
      "curveTo": "{0.6218672995236908, 1.0110007858495713}",
      "hasCurveFrom": true,
      "hasCurveTo": true,
      "point": "{0.61918169795781031, 0.90260066530582961}"
    }
  ],
  "resizingConstraint": 63,
  "resizingType": 0,
  "rotation": 0,
  "shouldBreakMaskChain": false,
  "style": {
    "_class": "style",
    "do_objectID": "F05CB05D-B2E3-4658-BCC9-61947DC45DF4",
    "endMarkerType": 0,
    "fills": [
      {
        "_class": "fill",
        "color": {
          "_class": "color",
          "alpha": 1,
          "blue": 0.1764705882352941,
          "green": 0.1764705882352941,
          "red": 0.1764705882352941
        },
        "fillType": 0,
        "isEnabled": true,
        "noiseIndex": 0,
        "noiseIntensity": 0,
        "patternFillType": 1,
        "patternTileScale": 1
      }
    ],
    "miterLimit": 10,
    "startMarkerType": 0,
    "windingRule": 1
  }
}