{
  "_class": "shapePath",
  "booleanOperation": -1,
  "clippingMaskMode": 0,
  "do_objectID": "7B48F1EC-CAA8-4FC8-B4F4-C0B79A4266ED",
  "edited": true,
  "exportOptions": {
    "_class": "exportOptions",
    "do_objectID": "9D71DBDA-8D7F-4D0F-826B-FCB3173A5ECE",
    "exportFormats": [
    ],
    "includedLayerIds": [
    ],
    "layerOptions": 0,
    "shouldTrim": false
  },
  "frame": {
    "_class": "rect",
    "constrainProportions": false,
    "do_objectID": "4533718F-8F4C-4AC0-968F-7A70AD57ED27",
    "height": 0.1204529863372876,
    "width": 0.1138255157260097,
    "x": 29.9456422313497,
    "y": 26.65415450247953
  },
  "hasClippingMask": false,
  "isClosed": true,
  "isFixedToViewport": false,
  "isFlippedHorizontal": false,
  "isFlippedVertical": false,
  "isLocked": false,
  "isVisible": true,
  "layerListExpandedType": 0,
  "name": "Path",
  "nameIsFixed": false,
  "pointRadiusBehaviour": 0,
  "points": [
    {
      "_class": "curvePoint",
      "cornerRadius": 0,
      "curveFrom": "{0.48940663294156095, 0.21619003457145342}",
      "curveMode": 4,
      "curveTo": "{0.90372890425574881, 0.12933771841060057}",
      "hasCurveFrom": true,
      "hasCurveTo": true,
      "point": "{1, 0.39326103573667753}"
    },
    {
      "_class": "curvePoint",
      "cornerRadius": 0,
      "curveFrom": "{0.26548719543272031, 1.1109708731591499}",
      "curveMode": 3,
      "curveTo": "{0.72117038195550653, 0.91033529008983283}",
      "hasCurveFrom": true,
      "hasCurveTo": true,
      "point": "{0.64415350536013793, 0.94399897852425119}"
    },
    {
      "_class": "curvePoint",
      "cornerRadius": 0,
      "curveFrom": "{-0.12244966445527948, 0.24850717546852563}",
      "curveMode": 4,
      "curveTo": "{0.15994554972788702, 0.87667160165537628}",
      "hasCurveFrom": true,
      "hasCurveTo": true,
      "point": "{0.06153509630044017, 0.60803536794847313}"
    },
    {
      "_class": "curvePoint",
      "cornerRadius": 0,
      "curveFrom": "{0.79533478164000149, -0.1157339333921715}",
      "curveMode": 4,
      "curveTo": "{0.13855197289584922, 0.14751611016519411}",
      "hasCurveFrom": true,
      "hasCurveTo": true,
      "point": "{0.41738159094030219, 0.058643972698245547}"
    }
  ],
  "resizingConstraint": 63,
  "resizingType": 0,
  "rotation": 0,
  "shouldBreakMaskChain": false,
  "style": {
    "_class": "style",
    "do_objectID": "19582609-CD6C-4F8E-81AE-BB33F6F4E904",
    "endMarkerType": 0,
    "fills": [
      {
        "_class": "fill",
        "color": {
          "_class": "color",
          "alpha": 1,
          "blue": 0.1764705882352941,
          "green": 0.1764705882352941,
          "red": 0.1764705882352941
        },
        "fillType": 0,
        "isEnabled": true,
        "noiseIndex": 0,
        "noiseIntensity": 0,
        "patternFillType": 1,
        "patternTileScale": 1
      }
    ],
    "miterLimit": 10,
    "startMarkerType": 0,
    "windingRule": 1
  }
}