{
  "_class": "shapePath",
  "booleanOperation": -1,
  "clippingMaskMode": 0,
  "do_objectID": "7EFB0A1E-BDBF-4C83-BE92-9906C3FAFBBC",
  "edited": true,
  "exportOptions": {
    "_class": "exportOptions",
    "do_objectID": "54BA2887-D153-434A-BE5F-0AE58F76D5CF",
    "exportFormats": [
    ],
    "includedLayerIds": [
    ],
    "layerOptions": 0,
    "shouldTrim": false
  },
  "frame": {
    "_class": "rect",
    "constrainProportions": false,
    "do_objectID": "798D3949-8341-41B1-94CC-56D834418DDD",
    "height": 0.1058906030855549,
    "width": 0.1059863482545502,
    "x": 27.21238084492925,
    "y": 1.386862123566998
  },
  "hasClippingMask": false,
  "isClosed": true,
  "isFixedToViewport": false,
  "isFlippedHorizontal": false,
  "isFlippedVertical": false,
  "isLocked": false,
  "isVisible": true,
  "layerListExpandedType": 0,
  "name": "Path",
  "nameIsFixed": false,
  "pointRadiusBehaviour": 0,
  "points": [
    {
      "_class": "curvePoint",
      "cornerRadius": 0,
      "curveFrom": "{1.0541026148576975, 0.27565866648136961}",
      "curveMode": 3,
      "curveTo": "{0.4031026148577439, -0.1193413335186122}",
      "hasCurveFrom": true,
      "hasCurveTo": true,
      "point": "{0.6321026148577289, 0.017658666481388252}"
    },
    {
      "_class": "curvePoint",
      "cornerRadius": 0,
      "curveFrom": "{-0.28989738514229657, 0.57765866648139053}",
      "curveMode": 3,
      "curveTo": "{0.35710261485769479, 0.97365866648140553}",
      "hasCurveFrom": true,
      "hasCurveTo": true,
      "point": "{0.1351026148577148, 0.83765866648138143}"
    }
  ],
  "resizingConstraint": 63,
  "resizingType": 0,
  "rotation": 0,
  "shouldBreakMaskChain": false,
  "style": {
    "_class": "style",
    "do_objectID": "7AABB6D6-77F3-423E-9DCA-2A5884568EF3",
    "endMarkerType": 0,
    "fills": [
      {
        "_class": "fill",
        "color": {
          "_class": "color",
          "alpha": 1,
          "blue": 0.1764705882352941,
          "green": 0.1764705882352941,
          "red": 0.1764705882352941
        },
        "fillType": 0,
        "isEnabled": true,
        "noiseIndex": 0,
        "noiseIntensity": 0,
        "patternFillType": 1,
        "patternTileScale": 1
      }
    ],
    "miterLimit": 10,
    "startMarkerType": 0,
    "windingRule": 1
  }
}