{
  "_class": "shapePath",
  "booleanOperation": -1,
  "clippingMaskMode": 0,
  "do_objectID": "80C284A9-CD13-4B9F-B8BC-13AA8793ACCD",
  "edited": true,
  "exportOptions": {
    "_class": "exportOptions",
    "do_objectID": "511A7186-6ED7-406D-9634-F818FE02F352",
    "exportFormats": [
    ],
    "includedLayerIds": [
    ],
    "layerOptions": 0,
    "shouldTrim": false
  },
  "frame": {
    "_class": "rect",
    "constrainProportions": false,
    "do_objectID": "336D7A46-5589-427C-8DFD-F7CAF2C4EC23",
    "height": 0.1058906030855589,
    "width": 0.1059863482545573,
    "x": 29.69427400831828,
    "y": 5.17254674906259
  },
  "hasClippingMask": false,
  "isClosed": true,
  "isFixedToViewport": false,
  "isFlippedHorizontal": false,
  "isFlippedVertical": false,
  "isLocked": false,
  "isVisible": true,
  "layerListExpandedType": 0,
  "name": "Path",
  "nameIsFixed": false,
  "pointRadiusBehaviour": 0,
  "points": [
    {
      "_class": "curvePoint",
      "cornerRadius": 0,
      "curveFrom": "{1.0410575635622195, 0.18919455839771615}",
      "curveMode": 4,
      "curveTo": "{0.27605756356217626, -0.087805441602270662}",
      "hasCurveFrom": true,
      "hasCurveTo": true,
      "point": "{0.54405756356220536, 0.007194558397756623}"
    },
    {
      "_class": "curvePoint",
      "cornerRadius": 0,
      "curveFrom": "{-0.30194243643779828, 0.78619455839775299}",
      "curveMode": 3,
      "curveTo": "{0.46205756356221173, 1.0661945583977257}",
      "hasCurveFrom": true,
      "hasCurveTo": true,
      "point": "{0.19505756356221582, 0.96719455839773616}"
    }
  ],
  "resizingConstraint": 63,
  "resizingType": 0,
  "rotation": 0,
  "shouldBreakMaskChain": false,
  "style": {
    "_class": "style",
    "do_objectID": "433E010C-FD64-4DA7-ADE7-78C871B84ED9",
    "endMarkerType": 0,
    "fills": [
      {
        "_class": "fill",
        "color": {
          "_class": "color",
          "alpha": 1,
          "blue": 0.1764705882352941,
          "green": 0.1764705882352941,
          "red": 0.1764705882352941
        },
        "fillType": 0,
        "isEnabled": true,
        "noiseIndex": 0,
        "noiseIntensity": 0,
        "patternFillType": 1,
        "patternTileScale": 1
      }
    ],
    "miterLimit": 10,
    "startMarkerType": 0,
    "windingRule": 1
  }
}