{
  "_class": "shapePath",
  "booleanOperation": -1,
  "clippingMaskMode": 0,
  "do_objectID": "86EB11B1-C0BB-428F-BF4F-9A5E599D44F2",
  "edited": true,
  "exportOptions": {
    "_class": "exportOptions",
    "do_objectID": "CC271DC0-D7AA-4DAF-8078-F69F3CF09F03",
    "exportFormats": [
    ],
    "includedLayerIds": [
    ],
    "layerOptions": 0,
    "shouldTrim": false
  },
  "frame": {
    "_class": "rect",
    "constrainProportions": false,
    "do_objectID": "FC53F155-D3D8-4C2C-A849-58691BB01519",
    "height": 0.1167808839280084,
    "width": 0.1059863482545627,
    "x": 14.81078165950839,
    "y": 32.52426749999837
  },
  "hasClippingMask": false,
  "isClosed": true,
  "isFixedToViewport": false,
  "isFlippedHorizontal": false,
  "isFlippedVertical": false,
  "isLocked": false,
  "isVisible": true,
  "layerListExpandedType": 0,
  "name": "Path",
  "nameIsFixed": false,
  "pointRadiusBehaviour": 0,
  "points": [
    {
      "_class": "curvePoint",
      "cornerRadius": 0,
      "curveFrom": "{0.92858278810770156, 0.91458333333330377}",
      "curveMode": 4,
      "curveTo": "{1.0919296793272739, 0.64097222222219918}",
      "hasCurveFrom": true,
      "hasCurveTo": true,
      "point": "{0.98821736744182342, 0.80972222222222878}"
    },
    {
      "_class": "curvePoint",
      "cornerRadius": 0,
      "curveFrom": "{0.52583331028587676, 0.80624999999997038}",
      "curveMode": 4,
      "curveTo": "{0.56645396577434082, 0.9034722222222189}",
      "hasCurveFrom": true,
      "hasCurveTo": true,
      "point": "{0.48261984700026411, 1}"
    },
    {
      "_class": "curvePoint",
      "cornerRadius": 0,
      "curveFrom": "{0.073820484318475141, 0.084722222222228805}",
      "curveMode": 4,
      "curveTo": "{-0.087797868369689433, 0.35902777777780082}",
      "hasCurveFrom": true,
      "hasCurveTo": true,
      "point": "{0.010728827921488611, 0.1888888888889152}"
    },
    {
      "_class": "curvePoint",
      "cornerRadius": 0,
      "curveFrom": "{0.47570569287458381, 0.19374999999999012}",
      "curveMode": 4,
      "curveTo": "{0.43508503738611976, 0.094444444444457598}",
      "hasCurveFrom": true,
      "hasCurveTo": true,
      "point": "{0.5180548868944802, 0}"
    }
  ],
  "resizingConstraint": 63,
  "resizingType": 0,
  "rotation": 0,
  "shouldBreakMaskChain": false,
  "style": {
    "_class": "style",
    "do_objectID": "28628D18-56CC-4D88-9A85-1BAAAF7E3F69",
    "endMarkerType": 0,
    "fills": [
      {
        "_class": "fill",
        "color": {
          "_class": "color",
          "alpha": 1,
          "blue": 0.1764705882352941,
          "green": 0.1764705882352941,
          "red": 0.1764705882352941
        },
        "fillType": 0,
        "isEnabled": true,
        "noiseIndex": 0,
        "noiseIntensity": 0,
        "patternFillType": 1,
        "patternTileScale": 1
      }
    ],
    "miterLimit": 10,
    "startMarkerType": 0,
    "windingRule": 1
  }
}