{
  "_class": "shapePath",
  "booleanOperation": -1,
  "clippingMaskMode": 0,
  "do_objectID": "8721C984-1B48-4C9B-86EA-6B6323295AC7",
  "edited": true,
  "exportOptions": {
    "_class": "exportOptions",
    "do_objectID": "66C1DBA8-4342-4F55-8B4B-3C5DE8D8FFC8",
    "exportFormats": [
    ],
    "includedLayerIds": [
    ],
    "layerOptions": 0,
    "shouldTrim": false
  },
  "frame": {
    "_class": "rect",
    "constrainProportions": false,
    "do_objectID": "1F6EAAF3-90D2-44ED-BF6B-55538B8D6F16",
    "height": 0.1058906030855553,
    "width": 0.1072934231153084,
    "x": 8.249671222037971,
    "y": 18.72117250888308
  },
  "hasClippingMask": false,
  "isClosed": true,
  "isFixedToViewport": false,
  "isFlippedHorizontal": false,
  "isFlippedVertical": false,
  "isLocked": false,
  "isVisible": true,
  "layerListExpandedType": 0,
  "name": "Path",
  "nameIsFixed": false,
  "pointRadiusBehaviour": 0,
  "points": [
    {
      "_class": "curvePoint",
      "cornerRadius": 0,
      "curveFrom": "{0.085466722239986817, 0.25427633011650325}",
      "curveMode": 3,
      "curveTo": "{-0.059031345295046903, 0.76675603791892344}",
      "hasCurveFrom": true,
      "hasCurveTo": true,
      "point": "{0.0052740774299673146, 0.53604199321859558}"
    },
    {
      "_class": "curvePoint",
      "cornerRadius": 0,
      "curveFrom": "{1.146884464395304, 0.43786580398442471}",
      "curveMode": 4,
      "curveTo": "{0.7610519280451864, 0.25623985390119614}",
      "hasCurveFrom": true,
      "hasCurveTo": true,
      "point": "{0.8873931703402248, 0}"
    },
    {
      "_class": "curvePoint",
      "cornerRadius": 0,
      "curveFrom": "{0.48264727436510813, 1.2517464127357547}",
      "curveMode": 4,
      "curveTo": "{0.91084573627523613, 0.64501756326852155}",
      "hasCurveFrom": true,
      "hasCurveTo": true,
      "point": "{0.65362404537515784, 0.83940641795219817}"
    }
  ],
  "resizingConstraint": 63,
  "resizingType": 0,
  "rotation": 0,
  "shouldBreakMaskChain": false,
  "style": {
    "_class": "style",
    "do_objectID": "FE8769CD-A74E-4B51-BF76-7B06B43E08D2",
    "endMarkerType": 0,
    "fills": [
      {
        "_class": "fill",
        "color": {
          "_class": "color",
          "alpha": 1,
          "blue": 0.1764705882352941,
          "green": 0.1764705882352941,
          "red": 0.1764705882352941
        },
        "fillType": 0,
        "isEnabled": true,
        "noiseIndex": 0,
        "noiseIntensity": 0,
        "patternFillType": 1,
        "patternTileScale": 1
      }
    ],
    "miterLimit": 10,
    "startMarkerType": 0,
    "windingRule": 1
  }
}