{
  "_class": "shapePath",
  "booleanOperation": -1,
  "clippingMaskMode": 0,
  "do_objectID": "889B6CBF-3007-442C-B20E-4C6D32EC2C68",
  "edited": true,
  "exportOptions": {
    "_class": "exportOptions",
    "do_objectID": "FFF864C0-D612-4D25-9A89-16D763C46DB1",
    "exportFormats": [
    ],
    "includedLayerIds": [
    ],
    "layerOptions": 0,
    "shouldTrim": false
  },
  "frame": {
    "_class": "rect",
    "constrainProportions": false,
    "do_objectID": "E60C3580-A644-4631-B658-9A29C6E9DFE7",
    "height": 0.1058906030855766,
    "width": 0.1059863482545822,
    "x": 34.29770846835354,
    "y": 18.98750669724841
  },
  "hasClippingMask": false,
  "isClosed": true,
  "isFixedToViewport": false,
  "isFlippedHorizontal": false,
  "isFlippedVertical": false,
  "isLocked": false,
  "isVisible": true,
  "layerListExpandedType": 0,
  "name": "Path",
  "nameIsFixed": false,
  "pointRadiusBehaviour": 0,
  "points": [
    {
      "_class": "curvePoint",
      "cornerRadius": 0,
      "curveFrom": "{-0.26762512440780029, 0.69989032086419911}",
      "curveMode": 4,
      "curveTo": "{0.41137487559217334, 0.94689032086418479}",
      "hasCurveFrom": true,
      "hasCurveTo": true,
      "point": "{0.17237487559219744, 0.8628903208641816}"
    },
    {
      "_class": "curvePoint",
      "cornerRadius": 0,
      "curveFrom": "{0.92837487559216925, 0.1648903208641741}",
      "curveMode": 3,
      "curveTo": "{0.24537487559217652, -0.0811096791358068}",
      "hasCurveFrom": true,
      "hasCurveTo": true,
      "point": "{0.48537487559218562, 0.0068903208641870606}"
    }
  ],
  "resizingConstraint": 63,
  "resizingType": 0,
  "rotation": 0,
  "shouldBreakMaskChain": false,
  "style": {
    "_class": "style",
    "do_objectID": "0D1A77BA-636A-4C18-9AB6-C9EB96551DB2",
    "endMarkerType": 0,
    "fills": [
      {
        "_class": "fill",
        "color": {
          "_class": "color",
          "alpha": 1,
          "blue": 0.1764705882352941,
          "green": 0.1764705882352941,
          "red": 0.1764705882352941
        },
        "fillType": 0,
        "isEnabled": true,
        "noiseIndex": 0,
        "noiseIntensity": 0,
        "patternFillType": 1,
        "patternTileScale": 1
      }
    ],
    "miterLimit": 10,
    "startMarkerType": 0,
    "windingRule": 1
  }
}