{
  "_class": "shapePath",
  "booleanOperation": -1,
  "clippingMaskMode": 0,
  "do_objectID": "940F8FA1-D467-481C-A745-5FAEBC6284A7",
  "edited": true,
  "exportOptions": {
    "_class": "exportOptions",
    "do_objectID": "91DF03FA-90C8-48E2-9491-B6DB6B9C9B22",
    "exportFormats": [
    ],
    "includedLayerIds": [
    ],
    "layerOptions": 0,
    "shouldTrim": false
  },
  "frame": {
    "_class": "rect",
    "constrainProportions": false,
    "do_objectID": "6D91E0E7-3EAE-4F67-B2F2-76D4D64AD7CE",
    "height": 0.1274047004520433,
    "width": 0.1616503694379503,
    "x": 21.29596732407067,
    "y": 18.88588221392326
  },
  "hasClippingMask": false,
  "isClosed": true,
  "isFixedToViewport": false,
  "isFlippedHorizontal": false,
  "isFlippedVertical": false,
  "isLocked": false,
  "isVisible": true,
  "layerListExpandedType": 0,
  "name": "Path",
  "nameIsFixed": false,
  "pointRadiusBehaviour": 0,
  "points": [
    {
      "_class": "curvePoint",
      "cornerRadius": 0,
      "curveFrom": "{0.47764712879225218, 0.25970719287077504}",
      "curveMode": 4,
      "curveTo": "{0.065389948249495025, 0.53023551877784814}",
      "hasCurveFrom": true,
      "hasCurveTo": true,
      "point": "{0.25921610134267004, 0.38956078930617161}"
    },
    {
      "_class": "curvePoint",
      "cornerRadius": 0,
      "curveFrom": "{1.10833533678462, 0.31699554423933235}",
      "curveMode": 4,
      "curveTo": "{0.69708243682781423, 0.12921705919796514}",
      "hasCurveFrom": true,
      "hasCurveTo": true,
      "point": "{0.91752202544932759, 0}"
    },
    {
      "_class": "curvePoint",
      "cornerRadius": 0,
      "curveFrom": "{0.5218354745751671, 0.74029280712920686}",
      "curveMode": 4,
      "curveTo": "{0.93359051482494859, 0.46912794398472041}",
      "hasCurveFrom": true,
      "hasCurveTo": true,
      "point": "{0.74227506319668046, 0.61107574793124175}"
    },
    {
      "_class": "curvePoint",
      "cornerRadius": 0,
      "curveFrom": "{-0.10835059312419652, 0.68173138128580479}",
      "curveMode": 4,
      "curveTo": "{0.30189802624660084, 0.86950986632717198}",
      "hasCurveFrom": true,
      "hasCurveTo": true,
      "point": "{0.082964858504043032, 1}"
    }
  ],
  "resizingConstraint": 63,
  "resizingType": 0,
  "rotation": 0,
  "shouldBreakMaskChain": false,
  "style": {
    "_class": "style",
    "do_objectID": "BE56B56A-3D8B-4552-BF81-75448F3A1A39",
    "endMarkerType": 0,
    "fills": [
      {
        "_class": "fill",
        "color": {
          "_class": "color",
          "alpha": 1,
          "blue": 0.1764705882352941,
          "green": 0.1764705882352941,
          "red": 0.1764705882352941
        },
        "fillType": 0,
        "isEnabled": true,
        "noiseIndex": 0,
        "noiseIntensity": 0,
        "patternFillType": 1,
        "patternTileScale": 1
      }
    ],
    "miterLimit": 10,
    "startMarkerType": 0,
    "windingRule": 1
  }
}