{
  "_class": "shapePath",
  "booleanOperation": -1,
  "clippingMaskMode": 0,
  "do_objectID": "97F33B08-5D48-4636-A36F-B58EF101D917",
  "edited": true,
  "exportOptions": {
    "_class": "exportOptions",
    "do_objectID": "35EAD12C-4E45-40EA-877D-ADDD194E615D",
    "exportFormats": [
    ],
    "includedLayerIds": [
    ],
    "layerOptions": 0,
    "shouldTrim": false
  },
  "frame": {
    "_class": "rect",
    "constrainProportions": false,
    "do_objectID": "24313548-BC60-4B02-A8F6-B83ECBCDA492",
    "height": 0.105890603085566,
    "width": 0.1072587838388728,
    "x": 23.6470598251037,
    "y": 26.70371361021775
  },
  "hasClippingMask": false,
  "isClosed": true,
  "isFixedToViewport": false,
  "isFlippedHorizontal": false,
  "isFlippedVertical": false,
  "isLocked": false,
  "isVisible": true,
  "layerListExpandedType": 0,
  "name": "Path",
  "nameIsFixed": false,
  "pointRadiusBehaviour": 0,
  "points": [
    {
      "_class": "curvePoint",
      "cornerRadius": 0,
      "curveFrom": "{0.48176174346739531, 1.2504025649034527}",
      "curveMode": 4,
      "curveTo": "{0.91161204969550735, 0.64284019010710469}",
      "hasCurveFrom": true,
      "hasCurveTo": true,
      "point": "{0.65279373150884956, 0.84078793157300835}"
    },
    {
      "_class": "curvePoint",
      "cornerRadius": 0,
      "curveFrom": "{0.084452921689696384, 0.25576416100300048}",
      "curveMode": 3,
      "curveTo": "{-0.061605368982861154, 0.7672924830089457}",
      "hasCurveFrom": true,
      "hasCurveTo": true,
      "point": "{0.0057479360423125479, 0.53504686554644976}"
    },
    {
      "_class": "curvePoint",
      "cornerRadius": 0,
      "curveFrom": "{1.1454566705132254, 0.43607299481349793}",
      "curveMode": 4,
      "curveTo": "{0.75949952935773668, 0.25772403963138513}",
      "hasCurveFrom": true,
      "hasCurveTo": true,
      "point": "{0.88890868845104409, 0}"
    }
  ],
  "resizingConstraint": 63,
  "resizingType": 0,
  "rotation": 0,
  "shouldBreakMaskChain": false,
  "style": {
    "_class": "style",
    "do_objectID": "D606B498-7785-4465-81E2-F184440ECE0F",
    "endMarkerType": 0,
    "fills": [
      {
        "_class": "fill",
        "color": {
          "_class": "color",
          "alpha": 1,
          "blue": 0.1764705882352941,
          "green": 0.1764705882352941,
          "red": 0.1764705882352941
        },
        "fillType": 0,
        "isEnabled": true,
        "noiseIndex": 0,
        "noiseIntensity": 0,
        "patternFillType": 1,
        "patternTileScale": 1
      }
    ],
    "miterLimit": 10,
    "startMarkerType": 0,
    "windingRule": 1
  }
}