{
  "_class": "shapePath",
  "booleanOperation": -1,
  "clippingMaskMode": 0,
  "do_objectID": "985831C6-D591-4C4C-8E02-114E0A41ED7C",
  "edited": true,
  "exportOptions": {
    "_class": "exportOptions",
    "do_objectID": "A98D125C-0FC7-4C16-AE72-546F7043ACC4",
    "exportFormats": [
    ],
    "includedLayerIds": [
    ],
    "layerOptions": 0,
    "shouldTrim": false
  },
  "frame": {
    "_class": "rect",
    "constrainProportions": false,
    "do_objectID": "C8773BDC-3A06-46A3-8B75-BB2AE235059F",
    "height": 0.200114133701554,
    "width": 0.1473261425145864,
    "x": 33.11174702212094,
    "y": 19.59986756260556
  },
  "hasClippingMask": false,
  "isClosed": true,
  "isFixedToViewport": false,
  "isFlippedHorizontal": false,
  "isFlippedVertical": false,
  "isLocked": false,
  "isVisible": true,
  "layerListExpandedType": 0,
  "name": "Path",
  "nameIsFixed": false,
  "pointRadiusBehaviour": 0,
  "points": [
    {
      "_class": "curvePoint",
      "cornerRadius": 0,
      "curveFrom": "{0.44352472548969729, 0.91020927120009376}",
      "curveMode": 4,
      "curveTo": "{0.75371655213651989, 0.87535709073562606}",
      "hasCurveFrom": true,
      "hasCurveTo": true,
      "point": "{0.53718833211485872, 0.93006690890659915}"
    },
    {
      "_class": "curvePoint",
      "cornerRadius": 0,
      "curveFrom": "{0.032506781122830064, 0.9434404200150549}",
      "curveMode": 4,
      "curveTo": "{0.26060521137469678, 1.0261130341400895}",
      "hasCurveFrom": true,
      "hasCurveTo": true,
      "point": "{0.17520604062821774, 0.994502916974635}"
    },
    {
      "_class": "curvePoint",
      "cornerRadius": 0,
      "curveFrom": "{0.32341492405272704, 0.45510463560004688}",
      "curveMode": 4,
      "curveTo": "{0.12176268861270048, 0.54142457093647434}",
      "hasCurveFrom": true,
      "hasCurveTo": true,
      "point": "{0, 0.46118350428570543}"
    },
    {
      "_class": "curvePoint",
      "cornerRadius": 0,
      "curveFrom": "{0.515149836438341, 0.086319935336427442}",
      "curveMode": 4,
      "curveTo": "{0.30798797707916148, 0.29583827603564772}",
      "hasCurveFrom": true,
      "hasCurveTo": true,
      "point": "{0.27437927117250083, 0.12927727404845141}"
    },
    {
      "_class": "curvePoint",
      "cornerRadius": 0,
      "curveFrom": "{1.0010986661053123, 0.22937597840571411}",
      "curveMode": 4,
      "curveTo": "{0.75647136409608073, 0.04336259662440349}",
      "hasCurveFrom": true,
      "hasCurveTo": true,
      "point": "{0.99999674132148164, 0}"
    },
    {
      "_class": "curvePoint",
      "cornerRadius": 0,
      "curveFrom": "{0.95371590040081622, 0.81335263014184433}",
      "curveMode": 4,
      "curveTo": "{0.72231169579748911, 0.33190623023725407}",
      "hasCurveFrom": true,
      "hasCurveTo": true,
      "point": "{0.81211856567925922, 0.59816067866934508}"
    }
  ],
  "resizingConstraint": 63,
  "resizingType": 0,
  "rotation": 0,
  "shouldBreakMaskChain": false,
  "style": {
    "_class": "style",
    "do_objectID": "9B6C72A8-71C2-4AA7-94F7-3D7B1CC02A96",
    "endMarkerType": 0,
    "fills": [
      {
        "_class": "fill",
        "color": {
          "_class": "color",
          "alpha": 1,
          "blue": 0.1764705882352941,
          "green": 0.1764705882352941,
          "red": 0.1764705882352941
        },
        "fillType": 0,
        "isEnabled": true,
        "noiseIndex": 0,
        "noiseIntensity": 0,
        "patternFillType": 1,
        "patternTileScale": 1
      }
    ],
    "miterLimit": 10,
    "startMarkerType": 0,
    "windingRule": 1
  }
}