{
  "_class": "shapePath",
  "booleanOperation": -1,
  "clippingMaskMode": 0,
  "do_objectID": "985D90BE-3111-4400-B3A1-4F1703DEE614",
  "edited": true,
  "exportOptions": {
    "_class": "exportOptions",
    "do_objectID": "DD6C5C3D-FF39-4BA2-B6B9-0403072BDA84",
    "exportFormats": [
    ],
    "includedLayerIds": [
    ],
    "layerOptions": 0,
    "shouldTrim": false
  },
  "frame": {
    "_class": "rect",
    "constrainProportions": false,
    "do_objectID": "DF77620D-1B6C-480E-9C3B-72BE663EA357",
    "height": 0.1058906030856015,
    "width": 0.1059863482545573,
    "x": 27.56256749053564,
    "y": 17.05553841582319
  },
  "hasClippingMask": false,
  "isClosed": true,
  "isFixedToViewport": false,
  "isFlippedHorizontal": false,
  "isFlippedVertical": false,
  "isLocked": false,
  "isVisible": true,
  "layerListExpandedType": 0,
  "name": "Path",
  "nameIsFixed": false,
  "pointRadiusBehaviour": 0,
  "points": [
    {
      "_class": "curvePoint",
      "cornerRadius": 0,
      "curveFrom": "{0.9279271256108359, 0.16857629202343105}",
      "curveMode": 3,
      "curveTo": "{0.24792712561082908, -0.079423707976559399}",
      "hasCurveFrom": true,
      "hasCurveTo": true,
      "point": "{0.48492712561079543, 0.0065762920234249123}"
    },
    {
      "_class": "curvePoint",
      "cornerRadius": 0,
      "curveFrom": "{-0.26907287438916683, 0.70357629202342764}",
      "curveMode": 3,
      "curveTo": "{0.40892712561083044, 0.95157629202341809}",
      "hasCurveFrom": true,
      "hasCurveTo": true,
      "point": "{0.17292712561078361, 0.86557629202343378}"
    }
  ],
  "resizingConstraint": 63,
  "resizingType": 0,
  "rotation": 0,
  "shouldBreakMaskChain": false,
  "style": {
    "_class": "style",
    "do_objectID": "1FDC7C4E-BA5E-452F-865D-64FC6A8B19B5",
    "endMarkerType": 0,
    "fills": [
      {
        "_class": "fill",
        "color": {
          "_class": "color",
          "alpha": 1,
          "blue": 0.1764705882352941,
          "green": 0.1764705882352941,
          "red": 0.1764705882352941
        },
        "fillType": 0,
        "isEnabled": true,
        "noiseIndex": 0,
        "noiseIntensity": 0,
        "patternFillType": 1,
        "patternTileScale": 1
      }
    ],
    "miterLimit": 10,
    "startMarkerType": 0,
    "windingRule": 1
  }
}