{
  "_class": "shapePath",
  "booleanOperation": -1,
  "clippingMaskMode": 0,
  "do_objectID": "987F4C13-D4F3-4C06-847E-BE7A1D57E2E0",
  "edited": true,
  "exportOptions": {
    "_class": "exportOptions",
    "do_objectID": "47463E72-19C3-4832-8B65-B4476336051B",
    "exportFormats": [
    ],
    "includedLayerIds": [
    ],
    "layerOptions": 0,
    "shouldTrim": false
  },
  "frame": {
    "_class": "rect",
    "constrainProportions": false,
    "do_objectID": "DC4A6652-CE10-4F64-B198-25722FE9ED60",
    "height": 0.1058906030855624,
    "width": 0.1059863482545822,
    "x": 41.16880901653333,
    "y": 16.12854061579683
  },
  "hasClippingMask": false,
  "isClosed": true,
  "isFixedToViewport": false,
  "isFlippedHorizontal": false,
  "isFlippedVertical": false,
  "isLocked": false,
  "isVisible": true,
  "layerListExpandedType": 0,
  "name": "Path",
  "nameIsFixed": false,
  "pointRadiusBehaviour": 0,
  "points": [
    {
      "_class": "curvePoint",
      "cornerRadius": 0,
      "curveFrom": "{1.0428488556052571, 0.1861870832587158}",
      "curveMode": 3,
      "curveTo": "{0.27884885560524708, -0.087812916741285107}",
      "hasCurveFrom": true,
      "hasCurveTo": true,
      "point": "{0.54384885560523344, 0.0071870832587421773}"
    },
    {
      "_class": "curvePoint",
      "cornerRadius": 0,
      "curveFrom": "{-0.301151144394737, 0.78718708325871489}",
      "curveMode": 3,
      "curveTo": "{0.46184885560523981, 1.0641870832587017}",
      "hasCurveFrom": true,
      "hasCurveTo": true,
      "point": "{0.19284885560523435, 0.96718708325872171}"
    }
  ],
  "resizingConstraint": 63,
  "resizingType": 0,
  "rotation": 0,
  "shouldBreakMaskChain": false,
  "style": {
    "_class": "style",
    "do_objectID": "61470570-8F22-4226-99FF-25B3A2E2B84C",
    "endMarkerType": 0,
    "fills": [
      {
        "_class": "fill",
        "color": {
          "_class": "color",
          "alpha": 1,
          "blue": 0.1764705882352941,
          "green": 0.1764705882352941,
          "red": 0.1764705882352941
        },
        "fillType": 0,
        "isEnabled": true,
        "noiseIndex": 0,
        "noiseIntensity": 0,
        "patternFillType": 1,
        "patternTileScale": 1
      }
    ],
    "miterLimit": 10,
    "startMarkerType": 0,
    "windingRule": 1
  }
}