{
  "_class": "shapePath",
  "booleanOperation": -1,
  "clippingMaskMode": 0,
  "do_objectID": "998635DF-8AC5-476C-890A-5A0D4CCF289D",
  "edited": true,
  "exportOptions": {
    "_class": "exportOptions",
    "do_objectID": "0ADDC47A-0DA8-4FA0-B2EB-8DBA2B05A66A",
    "exportFormats": [
    ],
    "includedLayerIds": [
    ],
    "layerOptions": 0,
    "shouldTrim": false
  },
  "frame": {
    "_class": "rect",
    "constrainProportions": false,
    "do_objectID": "339C9371-8CF2-4203-AEB6-D68CD5EDB88D",
    "height": 0.1058906030855589,
    "width": 0.1437756699108661,
    "x": 18.76737110138117,
    "y": 21.11080134626081
  },
  "hasClippingMask": false,
  "isClosed": true,
  "isFixedToViewport": false,
  "isFlippedHorizontal": false,
  "isFlippedVertical": false,
  "isLocked": false,
  "isVisible": true,
  "layerListExpandedType": 0,
  "name": "Path",
  "nameIsFixed": false,
  "pointRadiusBehaviour": 0,
  "points": [
    {
      "_class": "curvePoint",
      "cornerRadius": 0,
      "curveFrom": "{0.48419209182053846, 0.81379310344830835}",
      "curveMode": 4,
      "curveTo": "{0.90310165857619307, 0.60098522167489832}",
      "hasCurveFrom": true,
      "hasCurveTo": true,
      "point": "{0.70550280633295193, 0.72019704433497966}"
    },
    {
      "_class": "curvePoint",
      "cornerRadius": 0,
      "curveFrom": "{-0.086586307087755818, 0.53300492610837846}",
      "curveMode": 4,
      "curveTo": "{0.2645750817559322, 0.90640394088667142}",
      "hasCurveFrom": true,
      "hasCurveTo": true,
      "point": "{0.043828935392771801, 1}"
    },
    {
      "_class": "curvePoint",
      "cornerRadius": 0,
      "curveFrom": "{0.51580790817946154, 0.18719211822660126}",
      "curveMode": 4,
      "curveTo": "{0.096898341423806933, 0.39901477832510163}",
      "hasCurveFrom": true,
      "hasCurveTo": true,
      "point": "{0.29449719366704813, 0.28078817733987388}"
    },
    {
      "_class": "curvePoint",
      "cornerRadius": 0,
      "curveFrom": "{1.0865863070877557, 0.46600985221671204}",
      "curveMode": 4,
      "curveTo": "{0.73598948639333683, 0.093596059113328633}",
      "hasCurveFrom": true,
      "hasCurveTo": true,
      "point": "{0.95617106460722823, 0}"
    }
  ],
  "resizingConstraint": 63,
  "resizingType": 0,
  "rotation": 0,
  "shouldBreakMaskChain": false,
  "style": {
    "_class": "style",
    "do_objectID": "F729B319-257F-4DAB-98F4-594563B590AD",
    "endMarkerType": 0,
    "fills": [
      {
        "_class": "fill",
        "color": {
          "_class": "color",
          "alpha": 1,
          "blue": 0.1764705882352941,
          "green": 0.1764705882352941,
          "red": 0.1764705882352941
        },
        "fillType": 0,
        "isEnabled": true,
        "noiseIndex": 0,
        "noiseIntensity": 0,
        "patternFillType": 1,
        "patternTileScale": 1
      }
    ],
    "miterLimit": 10,
    "startMarkerType": 0,
    "windingRule": 1
  }
}