{
  "_class": "shapePath",
  "booleanOperation": -1,
  "clippingMaskMode": 0,
  "do_objectID": "9AF9BDCF-4FC4-4978-9966-EBBF22CA0E1B",
  "edited": true,
  "exportOptions": {
    "_class": "exportOptions",
    "do_objectID": "22455942-3C98-4DB8-B0BC-E7CEC91C1575",
    "exportFormats": [
    ],
    "includedLayerIds": [
    ],
    "layerOptions": 0,
    "shouldTrim": false
  },
  "frame": {
    "_class": "rect",
    "constrainProportions": false,
    "do_objectID": "8DABCCF7-D031-4662-A182-D4228D43C14C",
    "height": 0.1058906030855526,
    "width": 0.1059863482545644,
    "x": 23.31581695519155,
    "y": 7.244398234095688
  },
  "hasClippingMask": false,
  "isClosed": true,
  "isFixedToViewport": false,
  "isFlippedHorizontal": false,
  "isFlippedVertical": false,
  "isLocked": false,
  "isVisible": true,
  "layerListExpandedType": 0,
  "name": "Path",
  "nameIsFixed": false,
  "pointRadiusBehaviour": 0,
  "points": [
    {
      "_class": "curvePoint",
      "cornerRadius": 0,
      "curveFrom": "{1.0533901463899156, 0.27663884469217237}",
      "curveMode": 4,
      "curveTo": "{0.40439014638991466, -0.11936115530784264}",
      "hasCurveFrom": true,
      "hasCurveTo": true,
      "point": "{0.6323901463899233, 0.017638844692157818}"
    },
    {
      "_class": "curvePoint",
      "cornerRadius": 0,
      "curveFrom": "{-0.29060985361007852, 0.57863884469213644}",
      "curveMode": 4,
      "curveTo": "{0.35939014638995559, 0.9756388446921278}",
      "hasCurveFrom": true,
      "hasCurveTo": true,
      "point": "{0.13539014638990921, 0.83563884469214145}"
    }
  ],
  "resizingConstraint": 63,
  "resizingType": 0,
  "rotation": 0,
  "shouldBreakMaskChain": false,
  "style": {
    "_class": "style",
    "do_objectID": "C21B6894-2BAD-41F2-8B4A-E7FCA2B70167",
    "endMarkerType": 0,
    "fills": [
      {
        "_class": "fill",
        "color": {
          "_class": "color",
          "alpha": 1,
          "blue": 0.1764705882352941,
          "green": 0.1764705882352941,
          "red": 0.1764705882352941
        },
        "fillType": 0,
        "isEnabled": true,
        "noiseIndex": 0,
        "noiseIntensity": 0,
        "patternFillType": 1,
        "patternTileScale": 1
      }
    ],
    "miterLimit": 10,
    "startMarkerType": 0,
    "windingRule": 1
  }
}