{
  "_class": "shapePath",
  "booleanOperation": -1,
  "clippingMaskMode": 0,
  "do_objectID": "9BED7E5B-4235-4B81-97CA-3606AAEFC0A3",
  "edited": true,
  "exportOptions": {
    "_class": "exportOptions",
    "do_objectID": "3C78160F-87C9-44C2-B72F-9C4CEAAFA78E",
    "exportFormats": [
    ],
    "includedLayerIds": [
    ],
    "layerOptions": 0,
    "shouldTrim": false
  },
  "frame": {
    "_class": "rect",
    "constrainProportions": false,
    "do_objectID": "91232EBA-AF3C-48CB-92BF-EB8936E2963B",
    "height": 0.1058906030855571,
    "width": 0.1059863482545609,
    "x": 7.023350723106382,
    "y": 9.319818249324916
  },
  "hasClippingMask": false,
  "isClosed": true,
  "isFixedToViewport": false,
  "isFlippedHorizontal": false,
  "isFlippedVertical": false,
  "isLocked": false,
  "isVisible": true,
  "layerListExpandedType": 0,
  "name": "Path",
  "nameIsFixed": false,
  "pointRadiusBehaviour": 0,
  "points": [
    {
      "_class": "curvePoint",
      "cornerRadius": 0,
      "curveFrom": "{1.0558057295449288, 0.27508035151136312}",
      "curveMode": 3,
      "curveTo": "{0.40580572954492311, -0.12091964848865189}",
      "hasCurveFrom": true,
      "hasCurveTo": true,
      "point": "{0.6318057295449222, 0.018080351511358117}"
    },
    {
      "_class": "curvePoint",
      "cornerRadius": 0,
      "curveFrom": "{-0.28919427045507007, 0.57908035151139359}",
      "curveMode": 3,
      "curveTo": "{0.36080572954492141, 0.9730803515113422}",
      "hasCurveFrom": true,
      "hasCurveTo": true,
      "point": "{0.13380572954493175, 0.83508035151136539}"
    }
  ],
  "resizingConstraint": 63,
  "resizingType": 0,
  "rotation": 0,
  "shouldBreakMaskChain": false,
  "style": {
    "_class": "style",
    "do_objectID": "D91BB400-C40E-4F11-91A8-7219F1916BF4",
    "endMarkerType": 0,
    "fills": [
      {
        "_class": "fill",
        "color": {
          "_class": "color",
          "alpha": 1,
          "blue": 0.1764705882352941,
          "green": 0.1764705882352941,
          "red": 0.1764705882352941
        },
        "fillType": 0,
        "isEnabled": true,
        "noiseIndex": 0,
        "noiseIntensity": 0,
        "patternFillType": 1,
        "patternTileScale": 1
      }
    ],
    "miterLimit": 10,
    "startMarkerType": 0,
    "windingRule": 1
  }
}