{
  "_class": "shapePath",
  "booleanOperation": -1,
  "clippingMaskMode": 0,
  "do_objectID": "A75E1A64-0746-4260-B137-C67F0546680D",
  "edited": true,
  "exportOptions": {
    "_class": "exportOptions",
    "do_objectID": "A1A6138C-6739-4DB5-BBF2-CC314EFCD6D1",
    "exportFormats": [
    ],
    "includedLayerIds": [
    ],
    "layerOptions": 0,
    "shouldTrim": false
  },
  "frame": {
    "_class": "rect",
    "constrainProportions": false,
    "do_objectID": "FF2AD167-82AA-4E50-9BDD-B42C85FB8F0F",
    "height": 0.105890603085566,
    "width": 0.1059863482545644,
    "x": 26.15662256917831,
    "y": 20.7426132036894
  },
  "hasClippingMask": false,
  "isClosed": true,
  "isFixedToViewport": false,
  "isFlippedHorizontal": false,
  "isFlippedVertical": false,
  "isLocked": false,
  "isVisible": true,
  "layerListExpandedType": 0,
  "name": "Path",
  "nameIsFixed": false,
  "pointRadiusBehaviour": 0,
  "points": [
    {
      "_class": "curvePoint",
      "cornerRadius": 0,
      "curveFrom": "{1.039670777751212, 0.19104891442222538}",
      "curveMode": 4,
      "curveTo": "{0.27767077775121152, -0.086951085577766207}",
      "hasCurveFrom": true,
      "hasCurveTo": true,
      "point": "{0.54267077775119787, 0.007048914422227881}"
    },
    {
      "_class": "curvePoint",
      "cornerRadius": 0,
      "curveFrom": "{-0.30132922224879621, 0.7870489144222006}",
      "curveMode": 4,
      "curveTo": "{0.45967077775122789, 1.0630489144222679}",
      "hasCurveFrom": true,
      "hasCurveTo": true,
      "point": "{0.19367077775120833, 0.97004891442219332}"
    }
  ],
  "resizingConstraint": 63,
  "resizingType": 0,
  "rotation": 0,
  "shouldBreakMaskChain": false,
  "style": {
    "_class": "style",
    "do_objectID": "C40B9512-EC7B-46AC-BE28-2ADCDC082CEC",
    "endMarkerType": 0,
    "fills": [
      {
        "_class": "fill",
        "color": {
          "_class": "color",
          "alpha": 1,
          "blue": 0.1764705882352941,
          "green": 0.1764705882352941,
          "red": 0.1764705882352941
        },
        "fillType": 0,
        "isEnabled": true,
        "noiseIndex": 0,
        "noiseIntensity": 0,
        "patternFillType": 1,
        "patternTileScale": 1
      }
    ],
    "miterLimit": 10,
    "startMarkerType": 0,
    "windingRule": 1
  }
}