{
  "_class": "shapePath",
  "booleanOperation": -1,
  "clippingMaskMode": 0,
  "do_objectID": "AB33D531-2B7B-4096-9150-2478EC5D3188",
  "edited": true,
  "exportOptions": {
    "_class": "exportOptions",
    "do_objectID": "13FA8263-16B8-47E8-96C3-C7CEE42401E3",
    "exportFormats": [
    ],
    "includedLayerIds": [
    ],
    "layerOptions": 0,
    "shouldTrim": false
  },
  "frame": {
    "_class": "rect",
    "constrainProportions": false,
    "do_objectID": "6C820E7A-5159-4267-9640-6E1D3C093DAA",
    "height": 0.1058906030855589,
    "width": 0.1059863482545662,
    "x": 5.522404878105807,
    "y": 14.25136045949089
  },
  "hasClippingMask": false,
  "isClosed": true,
  "isFixedToViewport": false,
  "isFlippedHorizontal": false,
  "isFlippedVertical": false,
  "isLocked": false,
  "isVisible": true,
  "layerListExpandedType": 0,
  "name": "Path",
  "nameIsFixed": false,
  "pointRadiusBehaviour": 0,
  "points": [
    {
      "_class": "curvePoint",
      "cornerRadius": 0,
      "curveFrom": "{-0.26907287438920946, 0.70429244980095973}",
      "curveMode": 4,
      "curveTo": "{0.40992712561079259, 0.95229244980100702}",
      "hasCurveFrom": true,
      "hasCurveTo": true,
      "point": "{0.17292712561079782, 0.86229244980097519}"
    },
    {
      "_class": "curvePoint",
      "cornerRadius": 0,
      "curveFrom": "{0.92792712561079327, 0.16929244980099156}",
      "curveMode": 4,
      "curveTo": "{0.24792712561078645, -0.077707550199022535}",
      "hasCurveFrom": true,
      "hasCurveTo": true,
      "point": "{0.48492712561079543, 0.0062924498009806484}"
    }
  ],
  "resizingConstraint": 63,
  "resizingType": 0,
  "rotation": 0,
  "shouldBreakMaskChain": false,
  "style": {
    "_class": "style",
    "do_objectID": "8F812E42-067B-411F-8F45-C5A2A1C00B81",
    "endMarkerType": 0,
    "fills": [
      {
        "_class": "fill",
        "color": {
          "_class": "color",
          "alpha": 1,
          "blue": 0.1764705882352941,
          "green": 0.1764705882352941,
          "red": 0.1764705882352941
        },
        "fillType": 0,
        "isEnabled": true,
        "noiseIndex": 0,
        "noiseIntensity": 0,
        "patternFillType": 1,
        "patternTileScale": 1
      }
    ],
    "miterLimit": 10,
    "startMarkerType": 0,
    "windingRule": 1
  }
}