{
  "_class": "shapePath",
  "booleanOperation": -1,
  "clippingMaskMode": 0,
  "do_objectID": "BD2CC4C9-0F16-4A83-91AA-18864AD59089",
  "edited": true,
  "exportOptions": {
    "_class": "exportOptions",
    "do_objectID": "0EA4AD56-F88A-47BC-A882-EA3C7E7243A9",
    "exportFormats": [
    ],
    "includedLayerIds": [
    ],
    "layerOptions": 0,
    "shouldTrim": false
  },
  "frame": {
    "_class": "rect",
    "constrainProportions": false,
    "do_objectID": "AE3B105C-8718-4819-9C2E-FBC8293CA29F",
    "height": 0.1058906030855553,
    "width": 0.1059863482545822,
    "x": 38.58716172945059,
    "y": 12.05955960037785
  },
  "hasClippingMask": false,
  "isClosed": true,
  "isFixedToViewport": false,
  "isFlippedHorizontal": false,
  "isFlippedVertical": false,
  "isLocked": false,
  "isVisible": true,
  "layerListExpandedType": 0,
  "name": "Path",
  "nameIsFixed": false,
  "pointRadiusBehaviour": 0,
  "points": [
    {
      "_class": "curvePoint",
      "cornerRadius": 0,
      "curveFrom": "{0.94182939256268128, 0.24691813510867178}",
      "curveMode": 3,
      "curveTo": "{0.36182939256269719, -0.10708186489131322}",
      "hasCurveFrom": true,
      "hasCurveTo": true,
      "point": "{0.56382939256269538, 0.015918135108677234}"
    },
    {
      "_class": "curvePoint",
      "cornerRadius": 0,
      "curveFrom": "{-0.2561706074372978, 0.51591813510867723}",
      "curveMode": 3,
      "curveTo": "{0.32082939256270038, 0.86691813510867632}",
      "hasCurveFrom": true,
      "hasCurveTo": true,
      "point": "{0.117829392562669, 0.74491813510866223}"
    }
  ],
  "resizingConstraint": 63,
  "resizingType": 0,
  "rotation": 0,
  "shouldBreakMaskChain": false,
  "style": {
    "_class": "style",
    "do_objectID": "14C1A4A7-E61C-4896-A78D-587755B97EC8",
    "endMarkerType": 0,
    "fills": [
      {
        "_class": "fill",
        "color": {
          "_class": "color",
          "alpha": 1,
          "blue": 0.1764705882352941,
          "green": 0.1764705882352941,
          "red": 0.1764705882352941
        },
        "fillType": 0,
        "isEnabled": true,
        "noiseIndex": 0,
        "noiseIntensity": 0,
        "patternFillType": 1,
        "patternTileScale": 1
      }
    ],
    "miterLimit": 10,
    "startMarkerType": 0,
    "windingRule": 1
  }
}