{
  "_class": "shapePath",
  "booleanOperation": -1,
  "clippingMaskMode": 0,
  "do_objectID": "C5D1A88D-F232-4E24-A9F9-85E42CF24C15",
  "edited": true,
  "exportOptions": {
    "_class": "exportOptions",
    "do_objectID": "D9B54370-C5F4-46B7-99FE-D379DE213AEC",
    "exportFormats": [
    ],
    "includedLayerIds": [
    ],
    "layerOptions": 0,
    "shouldTrim": false
  },
  "frame": {
    "_class": "rect",
    "constrainProportions": false,
    "do_objectID": "BA8F8AAE-7472-4331-8D38-C1CE3EA668DA",
    "height": 0.1058906030855731,
    "width": 0.1059863482545396,
    "x": 26.53336986601909,
    "y": 18.80525889767978
  },
  "hasClippingMask": false,
  "isClosed": true,
  "isFixedToViewport": false,
  "isFlippedHorizontal": false,
  "isFlippedVertical": false,
  "isLocked": false,
  "isVisible": true,
  "layerListExpandedType": 0,
  "name": "Path",
  "nameIsFixed": false,
  "pointRadiusBehaviour": 0,
  "points": [
    {
      "_class": "curvePoint",
      "cornerRadius": 0,
      "curveFrom": "{0.9282774691740201, 0.16814879803558824}",
      "curveMode": 4,
      "curveTo": "{0.24727746917403692, -0.076851201964387883}",
      "hasCurveFrom": true,
      "hasCurveTo": true,
      "point": "{0.48327746917402692, 0.0061487980356105254}"
    },
    {
      "_class": "curvePoint",
      "cornerRadius": 0,
      "curveFrom": "{-0.27072253082599218, 0.70514879803559438}",
      "curveMode": 4,
      "curveTo": "{0.40927746917401464, 0.95014879803559893}",
      "hasCurveFrom": true,
      "hasCurveTo": true,
      "point": "{0.1752774691740342, 0.86214879803560507}"
    }
  ],
  "resizingConstraint": 63,
  "resizingType": 0,
  "rotation": 0,
  "shouldBreakMaskChain": false,
  "style": {
    "_class": "style",
    "do_objectID": "825C35EE-3830-483A-AF05-C821AFF7C3B5",
    "endMarkerType": 0,
    "fills": [
      {
        "_class": "fill",
        "color": {
          "_class": "color",
          "alpha": 1,
          "blue": 0.1764705882352941,
          "green": 0.1764705882352941,
          "red": 0.1764705882352941
        },
        "fillType": 0,
        "isEnabled": true,
        "noiseIndex": 0,
        "noiseIntensity": 0,
        "patternFillType": 1,
        "patternTileScale": 1
      }
    ],
    "miterLimit": 10,
    "startMarkerType": 0,
    "windingRule": 1
  }
}