{
  "_class": "shapePath",
  "booleanOperation": -1,
  "clippingMaskMode": 0,
  "do_objectID": "C7CF252F-DF25-49A4-B5A4-80DF8640E2A1",
  "edited": true,
  "exportOptions": {
    "_class": "exportOptions",
    "do_objectID": "B4B671E1-E34C-4556-A83A-40BCCBC530CF",
    "exportFormats": [
    ],
    "includedLayerIds": [
    ],
    "layerOptions": 0,
    "shouldTrim": false
  },
  "frame": {
    "_class": "rect",
    "constrainProportions": false,
    "do_objectID": "C606BBDD-7DFD-4BD5-A6E7-756D93288C4D",
    "height": 0.1058906030855624,
    "width": 0.10598634825456,
    "x": 4.954774222225869,
    "y": 23.06796666178408
  },
  "hasClippingMask": false,
  "isClosed": true,
  "isFixedToViewport": false,
  "isFlippedHorizontal": false,
  "isFlippedVertical": false,
  "isLocked": false,
  "isVisible": true,
  "layerListExpandedType": 0,
  "name": "Path",
  "nameIsFixed": false,
  "pointRadiusBehaviour": 0,
  "points": [
    {
      "_class": "curvePoint",
      "cornerRadius": 0,
      "curveFrom": "{1.0419358347295287, 0.18861481266145574}",
      "curveMode": 3,
      "curveTo": "{0.27893583472953054, -0.090385187338540618}",
      "hasCurveFrom": true,
      "hasCurveTo": true,
      "point": "{0.54293583472953344, 0.0076148126614157263}"
    },
    {
      "_class": "curvePoint",
      "cornerRadius": 0,
      "curveFrom": "{-0.30206416527046542, 0.78661481266141209}",
      "curveMode": 3,
      "curveTo": "{0.45993583472953503, 1.0676148126614748}",
      "hasCurveFrom": true,
      "hasCurveTo": true,
      "point": "{0.19393583472952969, 0.96761481266145211}"
    }
  ],
  "resizingConstraint": 63,
  "resizingType": 0,
  "rotation": 0,
  "shouldBreakMaskChain": false,
  "style": {
    "_class": "style",
    "do_objectID": "04786184-12B9-4A81-B311-77CFC36ED695",
    "endMarkerType": 0,
    "fills": [
      {
        "_class": "fill",
        "color": {
          "_class": "color",
          "alpha": 1,
          "blue": 0.1764705882352941,
          "green": 0.1764705882352941,
          "red": 0.1764705882352941
        },
        "fillType": 0,
        "isEnabled": true,
        "noiseIndex": 0,
        "noiseIntensity": 0,
        "patternFillType": 1,
        "patternTileScale": 1
      }
    ],
    "miterLimit": 10,
    "startMarkerType": 0,
    "windingRule": 1
  }
}