{
  "_class": "shapePath",
  "booleanOperation": -1,
  "clippingMaskMode": 0,
  "do_objectID": "CB8B2002-36BB-4358-9F03-13EEC2ADF4D2",
  "edited": true,
  "exportOptions": {
    "_class": "exportOptions",
    "do_objectID": "320C107B-5B83-496A-B232-24A8BEF32E38",
    "exportFormats": [
    ],
    "includedLayerIds": [
    ],
    "layerOptions": 0,
    "shouldTrim": false
  },
  "frame": {
    "_class": "rect",
    "constrainProportions": false,
    "do_objectID": "FFECC2C6-6BD6-42D0-8BBA-5542B25A3726",
    "height": 0.1058906030855526,
    "width": 0.1059863482545857,
    "x": 26.45981697544095,
    "y": 5.749787039112381
  },
  "hasClippingMask": false,
  "isClosed": true,
  "isFixedToViewport": false,
  "isFlippedHorizontal": false,
  "isFlippedVertical": false,
  "isLocked": false,
  "isVisible": true,
  "layerListExpandedType": 0,
  "name": "Path",
  "nameIsFixed": false,
  "pointRadiusBehaviour": 0,
  "points": [
    {
      "_class": "curvePoint",
      "cornerRadius": 0,
      "curveFrom": "{-0.28857696052341453, 0.57636850919759297}",
      "curveMode": 4,
      "curveTo": "{0.35542303947659093, 0.97436850919756068}",
      "hasCurveFrom": true,
      "hasCurveTo": true,
      "point": "{0.1334230394765541, 0.83436850919757433}"
    },
    {
      "_class": "curvePoint",
      "cornerRadius": 0,
      "curveFrom": "{1.0524230394765937, 0.27536850919754841}",
      "curveMode": 4,
      "curveTo": "{0.4054230394766023, -0.12163149080244295}",
      "hasCurveFrom": true,
      "hasCurveTo": true,
      "point": "{0.62942303947659184, 0.018368509197543403}"
    }
  ],
  "resizingConstraint": 63,
  "resizingType": 0,
  "rotation": 0,
  "shouldBreakMaskChain": false,
  "style": {
    "_class": "style",
    "do_objectID": "673BC2D4-5AF2-47A4-A983-38D2887BA01C",
    "endMarkerType": 0,
    "fills": [
      {
        "_class": "fill",
        "color": {
          "_class": "color",
          "alpha": 1,
          "blue": 0.1764705882352941,
          "green": 0.1764705882352941,
          "red": 0.1764705882352941
        },
        "fillType": 0,
        "isEnabled": true,
        "noiseIndex": 0,
        "noiseIntensity": 0,
        "patternFillType": 1,
        "patternTileScale": 1
      }
    ],
    "miterLimit": 10,
    "startMarkerType": 0,
    "windingRule": 1
  }
}