{
  "_class": "shapePath",
  "booleanOperation": -1,
  "clippingMaskMode": 0,
  "do_objectID": "CEC5F0B3-CFD6-4851-8648-E6983515F814",
  "edited": true,
  "exportOptions": {
    "_class": "exportOptions",
    "do_objectID": "9D73DF07-0B21-4412-8D74-80A66888F2C4",
    "exportFormats": [
    ],
    "includedLayerIds": [
    ],
    "layerOptions": 0,
    "shouldTrim": false
  },
  "frame": {
    "_class": "rect",
    "constrainProportions": false,
    "do_objectID": "2160F0D4-B13F-4689-8340-682D93589DF1",
    "height": 0.1058906030855535,
    "width": 0.1059863482545573,
    "x": 19.29088678205648,
    "y": 14.20662265770825
  },
  "hasClippingMask": false,
  "isClosed": true,
  "isFixedToViewport": false,
  "isFlippedHorizontal": false,
  "isFlippedVertical": false,
  "isLocked": false,
  "isVisible": true,
  "layerListExpandedType": 0,
  "name": "Path",
  "nameIsFixed": false,
  "pointRadiusBehaviour": 0,
  "points": [
    {
      "_class": "curvePoint",
      "cornerRadius": 0,
      "curveFrom": "{-0.28989515908654084, 0.57494467574815644}",
      "curveMode": 3,
      "curveTo": "{0.36110484091344119, 0.97394467574815735}",
      "hasCurveFrom": true,
      "hasCurveTo": true,
      "point": "{0.13410484091343733, 0.83594467574818054}"
    },
    {
      "_class": "curvePoint",
      "cornerRadius": 0,
      "curveFrom": "{1.055104840913458, 0.27694467574815462}",
      "curveMode": 3,
      "curveTo": "{0.40710484091343346, -0.12005532425183674}",
      "hasCurveFrom": true,
      "hasCurveTo": true,
      "point": "{0.63110484091345143, 0.017944675748140071}"
    }
  ],
  "resizingConstraint": 63,
  "resizingType": 0,
  "rotation": 0,
  "shouldBreakMaskChain": false,
  "style": {
    "_class": "style",
    "do_objectID": "18C9044C-33B6-420C-A4C5-7968E70A0BC4",
    "endMarkerType": 0,
    "fills": [
      {
        "_class": "fill",
        "color": {
          "_class": "color",
          "alpha": 1,
          "blue": 0.1764705882352941,
          "green": 0.1764705882352941,
          "red": 0.1764705882352941
        },
        "fillType": 0,
        "isEnabled": true,
        "noiseIndex": 0,
        "noiseIntensity": 0,
        "patternFillType": 1,
        "patternTileScale": 1
      }
    ],
    "miterLimit": 10,
    "startMarkerType": 0,
    "windingRule": 1
  }
}