{
  "_class": "shapePath",
  "booleanOperation": -1,
  "clippingMaskMode": 0,
  "do_objectID": "D1F98AE7-67F9-4749-BB67-56E1CF068A9B",
  "edited": true,
  "exportOptions": {
    "_class": "exportOptions",
    "do_objectID": "A3EBD0FD-9064-49A1-89A9-D46A3F8C3100",
    "exportFormats": [
    ],
    "includedLayerIds": [
    ],
    "layerOptions": 0,
    "shouldTrim": false
  },
  "frame": {
    "_class": "rect",
    "constrainProportions": false,
    "do_objectID": "573DF8EE-A251-4526-9E03-549C1B354578",
    "height": 0.1058906030855606,
    "width": 0.1059863482546035,
    "x": 39.53277879255918,
    "y": 9.514950949878438
  },
  "hasClippingMask": false,
  "isClosed": true,
  "isFixedToViewport": false,
  "isFlippedHorizontal": false,
  "isFlippedVertical": false,
  "isLocked": false,
  "isVisible": true,
  "layerListExpandedType": 0,
  "name": "Path",
  "nameIsFixed": false,
  "pointRadiusBehaviour": 0,
  "points": [
    {
      "_class": "curvePoint",
      "cornerRadius": 0,
      "curveFrom": "{0.9411619735989234, 0.24594092744077045}",
      "curveMode": 3,
      "curveTo": "{0.36216197359891567, -0.10705907255923819}",
      "hasCurveFrom": true,
      "hasCurveTo": true,
      "point": "{0.56516197359894704, 0.015940927440752262}"
    },
    {
      "_class": "curvePoint",
      "cornerRadius": 0,
      "curveFrom": "{-0.25783802640108888, 0.51494092744077591}",
      "curveMode": 3,
      "curveTo": "{0.32116197359891885, 0.865940927440775}",
      "hasCurveFrom": true,
      "hasCurveTo": true,
      "point": "{0.11916197359892067, 0.74294092744078455}"
    }
  ],
  "resizingConstraint": 63,
  "resizingType": 0,
  "rotation": 0,
  "shouldBreakMaskChain": false,
  "style": {
    "_class": "style",
    "do_objectID": "33814B12-C272-4B1C-807A-C457D7655E45",
    "endMarkerType": 0,
    "fills": [
      {
        "_class": "fill",
        "color": {
          "_class": "color",
          "alpha": 1,
          "blue": 0.1764705882352941,
          "green": 0.1764705882352941,
          "red": 0.1764705882352941
        },
        "fillType": 0,
        "isEnabled": true,
        "noiseIndex": 0,
        "noiseIntensity": 0,
        "patternFillType": 1,
        "patternTileScale": 1
      }
    ],
    "miterLimit": 10,
    "startMarkerType": 0,
    "windingRule": 1
  }
}