{
  "_class": "shapePath",
  "booleanOperation": -1,
  "clippingMaskMode": 0,
  "do_objectID": "D4BA73DA-6168-43DD-9418-CAE336FB3985",
  "edited": true,
  "exportOptions": {
    "_class": "exportOptions",
    "do_objectID": "FD32F918-55DC-4528-A17B-75F712F6FF57",
    "exportFormats": [
    ],
    "includedLayerIds": [
    ],
    "layerOptions": 0,
    "shouldTrim": false
  },
  "frame": {
    "_class": "rect",
    "constrainProportions": false,
    "do_objectID": "7334B357-332F-47E1-A2FA-5B9682BE8463",
    "height": 0.1058906030855695,
    "width": 0.3086939362018075,
    "x": 8.160137103962287,
    "y": 21.88017292376584
  },
  "hasClippingMask": false,
  "isClosed": true,
  "isFixedToViewport": false,
  "isFlippedHorizontal": false,
  "isFlippedVertical": false,
  "isLocked": false,
  "isVisible": true,
  "layerListExpandedType": 0,
  "name": "Path",
  "nameIsFixed": false,
  "pointRadiusBehaviour": 0,
  "points": [
    {
      "_class": "curvePoint",
      "cornerRadius": 0,
      "curveFrom": "{0.096239810675782259, 0.1326953710234012}",
      "curveMode": 4,
      "curveTo": "{0.0039442545358928686, 0.64729351946826719}",
      "hasCurveFrom": true,
      "hasCurveTo": true,
      "point": "{0, 0.18166232286504411}"
    },
    {
      "_class": "curvePoint",
      "cornerRadius": 0,
      "curveFrom": "{0.43623455166973629, 0.67845430700387654}",
      "curveMode": 4,
      "curveTo": "{0.18774651590849306, 0.11043766564085926}",
      "hasCurveFrom": true,
      "hasCurveTo": true,
      "point": "{0.19195372074678005, 0.57517855402875029}"
    },
    {
      "_class": "curvePoint",
      "cornerRadius": 0,
      "curveFrom": "{0.84591112279779146, 0.59298471833483446}",
      "curveMode": 4,
      "curveTo": "{0.94556928740468216, -0.68816880348546472}",
      "hasCurveFrom": true,
      "hasCurveTo": true,
      "point": "{1, 0.46567064354655274}"
    },
    {
      "_class": "curvePoint",
      "cornerRadius": 0,
      "curveFrom": "{0.48566920851958861, 0.88055427187751945}",
      "curveMode": 4,
      "curveTo": "{0.69155929529318894, 0.71851817669245199}",
      "hasCurveFrom": true,
      "hasCurveTo": true,
      "point": "{0.53720746778858997, 0.84583225148073371}"
    },
    {
      "_class": "curvePoint",
      "cornerRadius": 0,
      "curveFrom": "{0.28766763081777408, 1.031906668478906}",
      "curveMode": 3,
      "curveTo": "{0.43518275046016364, 0.93931461408751116}",
      "hasCurveFrom": true,
      "hasCurveTo": true,
      "point": "{0.38338154088877185, 0.97225601805363271}"
    },
    {
      "_class": "curvePoint",
      "cornerRadius": 0,
      "curveFrom": "{0.09571391007099779, 0.62414550587039319}",
      "curveMode": 4,
      "curveTo": "{0.19458322377070614, 1.03368728490957}",
      "hasCurveFrom": true,
      "hasCurveTo": true,
      "point": "{0.19195372074678005, 0.57517855402875029}"
    }
  ],
  "resizingConstraint": 63,
  "resizingType": 0,
  "rotation": 0,
  "shouldBreakMaskChain": false,
  "style": {
    "_class": "style",
    "do_objectID": "81FD6463-A9B0-4896-804C-F6BBA6A814FD",
    "endMarkerType": 0,
    "fills": [
      {
        "_class": "fill",
        "color": {
          "_class": "color",
          "alpha": 1,
          "blue": 0.1764705882352941,
          "green": 0.1764705882352941,
          "red": 0.1764705882352941
        },
        "fillType": 0,
        "isEnabled": true,
        "noiseIndex": 0,
        "noiseIntensity": 0,
        "patternFillType": 1,
        "patternTileScale": 1
      }
    ],
    "miterLimit": 10,
    "startMarkerType": 0,
    "windingRule": 1
  }
}