{
  "_class": "shapePath",
  "booleanOperation": -1,
  "clippingMaskMode": 0,
  "do_objectID": "D4C7B5C7-391E-4880-8D33-10AEB2A3FDED",
  "edited": true,
  "exportOptions": {
    "_class": "exportOptions",
    "do_objectID": "9D0AB45F-C25D-441D-9C34-3A68F9312C5A",
    "exportFormats": [
    ],
    "includedLayerIds": [
    ],
    "layerOptions": 0,
    "shouldTrim": false
  },
  "frame": {
    "_class": "rect",
    "constrainProportions": false,
    "do_objectID": "CC8345A1-D40A-497A-B855-AFF8CEF5527A",
    "height": 0.1058906030855624,
    "width": 0.1059863482545547,
    "x": 7.55657888259188,
    "y": 24.03142333394505
  },
  "hasClippingMask": false,
  "isClosed": true,
  "isFixedToViewport": false,
  "isFlippedHorizontal": false,
  "isFlippedVertical": false,
  "isLocked": false,
  "isVisible": true,
  "layerListExpandedType": 0,
  "name": "Path",
  "nameIsFixed": false,
  "pointRadiusBehaviour": 0,
  "points": [
    {
      "_class": "curvePoint",
      "cornerRadius": 0,
      "curveFrom": "{-0.27037640430017973, 0.70343749899598151}",
      "curveMode": 3,
      "curveTo": "{0.41162359569982243, 0.95043749899599561}",
      "hasCurveFrom": true,
      "hasCurveTo": true,
      "point": "{0.17462359569982766, 0.86343749899594968}"
    },
    {
      "_class": "curvePoint",
      "cornerRadius": 0,
      "curveFrom": "{0.926623595699823, 0.1694374989959897}",
      "curveMode": 3,
      "curveTo": "{0.24762359569982095, -0.078562501004057594}",
      "hasCurveFrom": true,
      "hasCurveTo": true,
      "point": "{0.48462359569982993, 0.0064374989959787854}"
    }
  ],
  "resizingConstraint": 63,
  "resizingType": 0,
  "rotation": 0,
  "shouldBreakMaskChain": false,
  "style": {
    "_class": "style",
    "do_objectID": "E0CE951C-517F-480F-B988-B88483D8B33F",
    "endMarkerType": 0,
    "fills": [
      {
        "_class": "fill",
        "color": {
          "_class": "color",
          "alpha": 1,
          "blue": 0.1764705882352941,
          "green": 0.1764705882352941,
          "red": 0.1764705882352941
        },
        "fillType": 0,
        "isEnabled": true,
        "noiseIndex": 0,
        "noiseIntensity": 0,
        "patternFillType": 1,
        "patternTileScale": 1
      }
    ],
    "miterLimit": 10,
    "startMarkerType": 0,
    "windingRule": 1
  }
}