{
  "_class": "shapePath",
  "booleanOperation": -1,
  "clippingMaskMode": 0,
  "do_objectID": "D624E6AB-BDE6-48D4-8B21-DB530406A154",
  "edited": true,
  "exportOptions": {
    "_class": "exportOptions",
    "do_objectID": "A8AD5799-17C9-4712-81BF-6A9C2F2D97C8",
    "exportFormats": [
    ],
    "includedLayerIds": [
    ],
    "layerOptions": 0,
    "shouldTrim": false
  },
  "frame": {
    "_class": "rect",
    "constrainProportions": false,
    "do_objectID": "FC150BA4-41E2-4BA4-8493-3584EE90CE36",
    "height": 0.1058906030855624,
    "width": 0.1059863482545591,
    "x": 7.106265741774645,
    "y": 21.15687381316621
  },
  "hasClippingMask": false,
  "isClosed": true,
  "isFixedToViewport": false,
  "isFlippedHorizontal": false,
  "isFlippedVertical": false,
  "isLocked": false,
  "isVisible": true,
  "layerListExpandedType": 0,
  "name": "Path",
  "nameIsFixed": false,
  "pointRadiusBehaviour": 0,
  "points": [
    {
      "_class": "curvePoint",
      "cornerRadius": 0,
      "curveFrom": "{1.0433220558610259, 0.18689030505493065}",
      "curveMode": 4,
      "curveTo": "{0.27732205586102054, -0.086109694945093906}",
      "hasCurveFrom": true,
      "hasCurveTo": true,
      "point": "{0.54432205586103066, 0.0068903050549238287}"
    },
    {
      "_class": "curvePoint",
      "cornerRadius": 0,
      "curveFrom": "{-0.30267794413897775, 0.78989030505488245}",
      "curveMode": 4,
      "curveTo": "{0.46032205586102748, 1.0668903050549261}",
      "hasCurveFrom": true,
      "hasCurveTo": true,
      "point": "{0.19532205586102691, 0.97289030505493201}"
    }
  ],
  "resizingConstraint": 63,
  "resizingType": 0,
  "rotation": 0,
  "shouldBreakMaskChain": false,
  "style": {
    "_class": "style",
    "do_objectID": "B41B6B24-9B11-4860-92F4-21871F88C246",
    "endMarkerType": 0,
    "fills": [
      {
        "_class": "fill",
        "color": {
          "_class": "color",
          "alpha": 1,
          "blue": 0.1764705882352941,
          "green": 0.1764705882352941,
          "red": 0.1764705882352941
        },
        "fillType": 0,
        "isEnabled": true,
        "noiseIndex": 0,
        "noiseIntensity": 0,
        "patternFillType": 1,
        "patternTileScale": 1
      }
    ],
    "miterLimit": 10,
    "startMarkerType": 0,
    "windingRule": 1
  }
}