{
  "_class": "shapePath",
  "booleanOperation": -1,
  "clippingMaskMode": 0,
  "do_objectID": "DAEFAAF6-9221-4167-8242-99AE2CFBBE85",
  "edited": true,
  "exportOptions": {
    "_class": "exportOptions",
    "do_objectID": "6D52D7F6-6F70-4A52-B365-3ABF53AE3294",
    "exportFormats": [
    ],
    "includedLayerIds": [
    ],
    "layerOptions": 0,
    "shouldTrim": false
  },
  "frame": {
    "_class": "rect",
    "constrainProportions": false,
    "do_objectID": "518E704B-F383-426B-89CA-0A02670C4050",
    "height": 0.1105963180017326,
    "width": 0.1207760151684365,
    "x": 9.70029485364317,
    "y": 29.68854059683391
  },
  "hasClippingMask": false,
  "isClosed": true,
  "isFixedToViewport": false,
  "isFlippedHorizontal": false,
  "isFlippedVertical": false,
  "isLocked": false,
  "isVisible": true,
  "layerListExpandedType": 0,
  "name": "Path",
  "nameIsFixed": false,
  "pointRadiusBehaviour": 0,
  "points": [
    {
      "_class": "curvePoint",
      "cornerRadius": 0,
      "curveFrom": "{0.59734607231637116, 0.56663275976888172}",
      "curveMode": 4,
      "curveTo": "{0.87088269835477428, 0.90027420529366886}",
      "hasCurveFrom": true,
      "hasCurveTo": true,
      "point": "{0.60608311442570917, 1}"
    },
    {
      "_class": "curvePoint",
      "cornerRadius": 0,
      "curveFrom": "{-0.11169849886423269, 0.26452226404090678}",
      "curveMode": 4,
      "curveTo": "{0.33254648838731554, 0.5915642084454541}",
      "hasCurveFrom": true,
      "hasCurveTo": true,
      "point": "{0.056993621862142761, 0.63409432677608246}"
    },
    {
      "_class": "curvePoint",
      "cornerRadius": 0,
      "curveFrom": "{0.76738235336726601, -0.064719514070345485}",
      "curveMode": 3,
      "curveTo": "{0.12218539760102903, 0.10613423715440289}",
      "hasCurveFrom": true,
      "hasCurveTo": true,
      "point": "{0.39168954266588352, 0.035006280635943979}"
    },
    {
      "_class": "curvePoint",
      "cornerRadius": 0,
      "curveFrom": "{1.1148477972538744, 0.78808268624905153}",
      "curveMode": 4,
      "curveTo": "{0.83660661007969139, 0.046005449169718549}",
      "hasCurveFrom": true,
      "hasCurveTo": true,
      "point": "{0.94212319555395974, 0.4009119538598615}"
    }
  ],
  "resizingConstraint": 63,
  "resizingType": 0,
  "rotation": 0,
  "shouldBreakMaskChain": false,
  "style": {
    "_class": "style",
    "do_objectID": "BEEC80A1-8040-4979-9FD2-634E5F395D8F",
    "endMarkerType": 0,
    "fills": [
      {
        "_class": "fill",
        "color": {
          "_class": "color",
          "alpha": 1,
          "blue": 0.1764705882352941,
          "green": 0.1764705882352941,
          "red": 0.1764705882352941
        },
        "fillType": 0,
        "isEnabled": true,
        "noiseIndex": 0,
        "noiseIntensity": 0,
        "patternFillType": 1,
        "patternTileScale": 1
      }
    ],
    "miterLimit": 10,
    "startMarkerType": 0,
    "windingRule": 1
  }
}