{
  "_class": "shapePath",
  "booleanOperation": -1,
  "clippingMaskMode": 0,
  "do_objectID": "DDF42D03-6C55-4266-8ED4-D592551A2209",
  "edited": true,
  "exportOptions": {
    "_class": "exportOptions",
    "do_objectID": "8F1325F2-0E49-4912-BDED-8CA49DB50967",
    "exportFormats": [
    ],
    "includedLayerIds": [
    ],
    "layerOptions": 0,
    "shouldTrim": false
  },
  "frame": {
    "_class": "rect",
    "constrainProportions": false,
    "do_objectID": "9B838331-715B-4047-890C-579A5BB78544",
    "height": 0.105890603085566,
    "width": 0.1059863482545573,
    "x": 16.41080392697856,
    "y": 29.0118841433419
  },
  "hasClippingMask": false,
  "isClosed": true,
  "isFixedToViewport": false,
  "isFlippedHorizontal": false,
  "isFlippedVertical": false,
  "isLocked": false,
  "isVisible": true,
  "layerListExpandedType": 0,
  "name": "Path",
  "nameIsFixed": false,
  "pointRadiusBehaviour": 0,
  "points": [
    {
      "_class": "curvePoint",
      "cornerRadius": 0,
      "curveFrom": "{0.92770591357108856, 0.16844485586705105}",
      "curveMode": 3,
      "curveTo": "{0.24670591357107696, -0.078555144132963051}",
      "hasCurveFrom": true,
      "hasCurveTo": true,
      "point": "{0.48570591357108128, 0.0064448558670733291}"
    },
    {
      "_class": "curvePoint",
      "cornerRadius": 0,
      "curveFrom": "{-0.26929408642891417, 0.7024448558670997}",
      "curveMode": 4,
      "curveTo": "{0.41070591357109265, 0.94744485586710425}",
      "hasCurveFrom": true,
      "hasCurveTo": true,
      "point": "{0.17370591357109788, 0.86444485586707742}"
    }
  ],
  "resizingConstraint": 63,
  "resizingType": 0,
  "rotation": 0,
  "shouldBreakMaskChain": false,
  "style": {
    "_class": "style",
    "do_objectID": "06506EF9-DFA6-4B32-9769-1F3312D82323",
    "endMarkerType": 0,
    "fills": [
      {
        "_class": "fill",
        "color": {
          "_class": "color",
          "alpha": 1,
          "blue": 0.1764705882352941,
          "green": 0.1764705882352941,
          "red": 0.1764705882352941
        },
        "fillType": 0,
        "isEnabled": true,
        "noiseIndex": 0,
        "noiseIntensity": 0,
        "patternFillType": 1,
        "patternTileScale": 1
      }
    ],
    "miterLimit": 10,
    "startMarkerType": 0,
    "windingRule": 1
  }
}