{
  "_class": "shapePath",
  "booleanOperation": -1,
  "clippingMaskMode": 0,
  "do_objectID": "DEED24C7-07DA-4B51-A2CC-6C4EA323762E",
  "edited": true,
  "exportOptions": {
    "_class": "exportOptions",
    "do_objectID": "8AF8B842-5FCC-4FCC-A5BF-BE83040BF012",
    "exportFormats": [
    ],
    "includedLayerIds": [
    ],
    "layerOptions": 0,
    "shouldTrim": false
  },
  "frame": {
    "_class": "rect",
    "constrainProportions": false,
    "do_objectID": "B6611D2D-EB09-4D53-B420-A0F1B479D9E8",
    "height": 0.1058906030855553,
    "width": 0.1059863482545538,
    "x": 23.28076250321504,
    "y": 1.264159153609591
  },
  "hasClippingMask": false,
  "isClosed": true,
  "isFixedToViewport": false,
  "isFlippedHorizontal": false,
  "isFlippedVertical": false,
  "isLocked": false,
  "isVisible": true,
  "layerListExpandedType": 0,
  "name": "Path",
  "nameIsFixed": false,
  "pointRadiusBehaviour": 0,
  "points": [
    {
      "_class": "curvePoint",
      "cornerRadius": 0,
      "curveFrom": "{-0.28875141639269941, 0.57668263748955795}",
      "curveMode": 3,
      "curveTo": "{0.36124858360733469, 0.97168263748953976}",
      "hasCurveFrom": true,
      "hasCurveTo": true,
      "point": "{0.13324858360732605, 0.83368263748956295}"
    },
    {
      "_class": "curvePoint",
      "cornerRadius": 0,
      "curveFrom": "{1.0572485836073042, 0.27468263748953703}",
      "curveMode": 3,
      "curveTo": "{0.40624858360729377, -0.11931736251041158}",
      "hasCurveFrom": true,
      "hasCurveTo": true,
      "point": "{0.63424858360730241, 0.01768263748958887}"
    }
  ],
  "resizingConstraint": 63,
  "resizingType": 0,
  "rotation": 0,
  "shouldBreakMaskChain": false,
  "style": {
    "_class": "style",
    "do_objectID": "EC501B04-2536-4B6D-AA6D-EDA46A00D6BD",
    "endMarkerType": 0,
    "fills": [
      {
        "_class": "fill",
        "color": {
          "_class": "color",
          "alpha": 1,
          "blue": 0.1764705882352941,
          "green": 0.1764705882352941,
          "red": 0.1764705882352941
        },
        "fillType": 0,
        "isEnabled": true,
        "noiseIndex": 0,
        "noiseIntensity": 0,
        "patternFillType": 1,
        "patternTileScale": 1
      }
    ],
    "miterLimit": 10,
    "startMarkerType": 0,
    "windingRule": 1
  }
}