{
  "_class": "shapePath",
  "booleanOperation": -1,
  "clippingMaskMode": 0,
  "do_objectID": "E73E8568-78E3-4FE4-9B23-766D1918CD1D",
  "edited": true,
  "exportOptions": {
    "_class": "exportOptions",
    "do_objectID": "80B82B8B-423D-4D2F-AEFD-CEF11F9378DB",
    "exportFormats": [
    ],
    "includedLayerIds": [
    ],
    "layerOptions": 0,
    "shouldTrim": false
  },
  "frame": {
    "_class": "rect",
    "constrainProportions": false,
    "do_objectID": "D6020609-437B-47FF-B5A6-4750BA7177A9",
    "height": 0.1166997860920027,
    "width": 0.1059863482545573,
    "x": 21.59983850741357,
    "y": 17.41306441321675
  },
  "hasClippingMask": false,
  "isClosed": true,
  "isFixedToViewport": false,
  "isFlippedHorizontal": false,
  "isFlippedVertical": false,
  "isLocked": false,
  "isVisible": true,
  "layerListExpandedType": 0,
  "name": "Path",
  "nameIsFixed": false,
  "pointRadiusBehaviour": 0,
  "points": [
    {
      "_class": "curvePoint",
      "cornerRadius": 0,
      "curveFrom": "{0.92486556109923657, 0.91382904794996811}",
      "curveMode": 4,
      "curveTo": "{1.0897061831427384, 0.64211257817927914}",
      "hasCurveFrom": true,
      "hasCurveTo": true,
      "point": "{0.98873051414226898, 0.81236970118136798}"
    },
    {
      "_class": "curvePoint",
      "cornerRadius": 0,
      "curveFrom": "{0.52355200481540487, 0.80611535788742339}",
      "curveMode": 4,
      "curveTo": "{0.56843007992673555, 0.90548992355802893}",
      "hasCurveFrom": true,
      "hasCurveTo": true,
      "point": "{0.48212608932803774, 1}"
    },
    {
      "_class": "curvePoint",
      "cornerRadius": 0,
      "curveFrom": "{0.074771253702294288, 0.086865879082696745}",
      "curveMode": 4,
      "curveTo": "{-0.088343288529225808, 0.35997220291867604}",
      "hasCurveFrom": true,
      "hasCurveTo": true,
      "point": "{0.010906300659261878, 0.18971507991660699}"
    },
    {
      "_class": "curvePoint",
      "cornerRadius": 0,
      "curveFrom": "{0.47781088979810776, 0.19388464211257661}",
      "curveMode": 4,
      "curveTo": "{0.43120673487484434, 0.095205003474635952}",
      "hasCurveFrom": true,
      "hasCurveTo": true,
      "point": "{0.51837376537950852, 0}"
    }
  ],
  "resizingConstraint": 63,
  "resizingType": 0,
  "rotation": 0,
  "shouldBreakMaskChain": false,
  "style": {
    "_class": "style",
    "do_objectID": "AC222D20-0DE8-4F46-9AE8-A36EB2FD4227",
    "endMarkerType": 0,
    "fills": [
      {
        "_class": "fill",
        "color": {
          "_class": "color",
          "alpha": 1,
          "blue": 0.1764705882352941,
          "green": 0.1764705882352941,
          "red": 0.1764705882352941
        },
        "fillType": 0,
        "isEnabled": true,
        "noiseIndex": 0,
        "noiseIntensity": 0,
        "patternFillType": 1,
        "patternTileScale": 1
      }
    ],
    "miterLimit": 10,
    "startMarkerType": 0,
    "windingRule": 1
  }
}