{
  "_class": "shapePath",
  "booleanOperation": -1,
  "clippingMaskMode": 0,
  "do_objectID": "EE7E2FB2-671D-4E89-BC47-C8872F95535E",
  "edited": true,
  "exportOptions": {
    "_class": "exportOptions",
    "do_objectID": "36DEF0A6-2647-4B49-A6FF-7AC83ADF2F94",
    "exportFormats": [
    ],
    "includedLayerIds": [
    ],
    "layerOptions": 0,
    "shouldTrim": false
  },
  "frame": {
    "_class": "rect",
    "constrainProportions": false,
    "do_objectID": "2A69DAE8-AD8F-4ADB-A498-3CB29A23BFA3",
    "height": 0.1058906030855731,
    "width": 0.1327148529292543,
    "x": 29.78494687086361,
    "y": 20.66361130424224
  },
  "hasClippingMask": false,
  "isClosed": true,
  "isFixedToViewport": false,
  "isFlippedHorizontal": false,
  "isFlippedVertical": false,
  "isLocked": false,
  "isVisible": true,
  "layerListExpandedType": 0,
  "name": "Path",
  "nameIsFixed": false,
  "pointRadiusBehaviour": 0,
  "points": [
    {
      "_class": "curvePoint",
      "cornerRadius": 0,
      "curveFrom": "{0.25137614678899306, -0.027228577004808581}",
      "curveMode": 4,
      "curveTo": "{0.0085626911315046378, 0.58361622271169222}",
      "hasCurveFrom": true,
      "hasCurveTo": true,
      "point": "{0, 0.027615073743725994}"
    },
    {
      "_class": "curvePoint",
      "cornerRadius": 0,
      "curveFrom": "{0.74984709480122691, 0.44556151565503155}",
      "curveMode": 4,
      "curveTo": "{0.49113149847094906, -0.055595982564400064}",
      "hasCurveFrom": true,
      "hasCurveTo": true,
      "point": "{0.49908256880736113, 0.50229632677421454}"
    },
    {
      "_class": "curvePoint",
      "cornerRadius": 0,
      "curveFrom": "{0.748623853211007, 1.0280389098119409}",
      "curveMode": 4,
      "curveTo": "{0.99204892966362268, 0.4134117893541433}",
      "hasCurveFrom": true,
      "hasCurveTo": true,
      "point": "{1, 0.9713040986927578}"
    },
    {
      "_class": "curvePoint",
      "cornerRadius": 0,
      "curveFrom": "{0.25076452599390048, 0.55713997752274913}",
      "curveMode": 4,
      "curveTo": "{0.50948012232417828, 1.0554607351862082}",
      "hasCurveFrom": true,
      "hasCurveTo": true,
      "point": "{0.49908256880736113, 0.50229632677421454}"
    }
  ],
  "resizingConstraint": 63,
  "resizingType": 0,
  "rotation": 0,
  "shouldBreakMaskChain": false,
  "style": {
    "_class": "style",
    "do_objectID": "58B1A926-8477-4D83-95BA-15D87E19E189",
    "endMarkerType": 0,
    "fills": [
      {
        "_class": "fill",
        "color": {
          "_class": "color",
          "alpha": 1,
          "blue": 0.1764705882352941,
          "green": 0.1764705882352941,
          "red": 0.1764705882352941
        },
        "fillType": 0,
        "isEnabled": true,
        "noiseIndex": 0,
        "noiseIntensity": 0,
        "patternFillType": 1,
        "patternTileScale": 1
      }
    ],
    "miterLimit": 10,
    "startMarkerType": 0,
    "windingRule": 1
  }
}