{
  "_class": "artboard",
  "backgroundColor": {
    "_class": "color",
    "alpha": 1,
    "blue": 0.8980392156862745,
    "do_objectID": "9F6DAC2E-9016-4FC3-8615-AE580813E9F0",
    "green": 0.8980392156862745,
    "red": 0.8980392156862745
  },
  "booleanOperation": 0,
  "clippingMaskMode": 0,
  "do_objectID": "A2A62F8C-5BC0-49B7-9F0E-79BC192DEE7F",
  "exportOptions": {
    "_class": "exportOptions",
    "do_objectID": "69D47AEF-5316-4C40-97E7-DFE41244E33E",
    "exportFormats": [
    ],
    "includedLayerIds": [
    ],
    "layerOptions": 0,
    "shouldTrim": false
  },
  "frame": {
    "_class": "rect",
    "constrainProportions": false,
    "do_objectID": "48AA6B89-35BE-4CBF-8B82-E15D4B6CE296",
    "height": 2921,
    "width": 1584,
    "x": -25,
    "y": -1268
  },
  "grid": {
    "_class": "simpleGrid",
    "do_objectID": "C2957694-4D6E-4700-B218-C540EB461FDD",
    "gridSize": 8,
    "isEnabled": false,
    "thickGridTimes": 0
  },
  "groupLayout": {
    "_class": "MSImmutableFreeformGroupLayout",
    "do_objectID": "B299A49D-8189-4001-9FAC-0F1649824E57"
  },
  "hasBackgroundColor": true,
  "hasClickThrough": true,
  "hasClippingMask": false,
  "horizontalRulerData": {
    "_class": "rulerData",
    "base": 0,
    "do_objectID": "C1D66D27-EF20-4684-A991-5B4BDA53CEFC",
    "guides": [
    ]
  },
  "includeBackgroundColorInExport": true,
  "includeInCloudUpload": true,
  "isFixedToViewport": false,
  "isFlippedHorizontal": false,
  "isFlippedVertical": false,
  "isFlowHome": false,
  "isLocked": false,
  "isVisible": true,
  "layerListExpandedType": 1,
  "layers": [
    {
      "class": "group",
      "id": "793EBAEC-041C-4108-92BE-82CBEFCB47EA"
    },
    {
      "class": "group",
      "id": "DF55C983-A79D-4889-99DA-0E54F20B0D37"
    },
    {
      "class": "group",
      "id": "96AC3C56-25E8-459A-AB3D-184DCFC11288"
    },
    {
      "class": "group",
      "id": "DA7E79A0-EFEE-4CA4-84BD-729688371215"
    },
    {
      "class": "group",
      "id": "A162DA04-DF00-4D44-83E8-ADDA36C46B0B"
    },
    {
      "class": "symbolInstance",
      "id": "F435B635-1FC5-41A0-B839-EA45AAB52AEB"
    },
    {
      "class": "symbolInstance",
      "id": "F6CF2C32-659E-44E5-8AB1-2571DF10CBB6"
    },
    {
      "class": "symbolInstance",
      "id": "8FD490A6-7CBD-4EB9-96D8-EB3D27CB226B"
    },
    {
      "class": "symbolInstance",
      "id": "1F81C686-402A-4762-B358-4168CF0BEAA6"
    },
    {
      "class": "symbolInstance",
      "id": "52256AE0-DB36-49AC-92F8-F5BF5E20A7D0"
    },
    {
      "class": "symbolInstance",
      "id": "0EA523D9-6361-4768-8A4C-B74655C80EEA"
    },
    {
      "class": "symbolInstance",
      "id": "C492C2A2-49B1-41F7-AB8A-CA18DF21FB83"
    },
    {
      "class": "symbolInstance",
      "id": "77F4836A-2107-4A23-973B-0C7BD8A1FBA3"
    },
    {
      "class": "symbolInstance",
      "id": "ADFB21A9-9E7C-490B-944E-5F6A1C0C0006"
    }
  ],
  "layout": {
    "_class": "layoutGrid",
    "columnWidth": 64,
    "do_objectID": "43BE9969-C4BD-4D75-89B9-221200978DE9",
    "drawHorizontal": false,
    "drawHorizontalLines": false,
    "drawVertical": true,
    "gutterHeight": 12,
    "gutterWidth": 32,
    "guttersOutside": true,
    "horizontalOffset": 24,
    "isEnabled": false,
    "numberOfColumns": 16,
    "rowHeightMultiplication": 5,
    "totalWidth": 1536
  },
  "name": "UI Shell – Header",
  "nameIsFixed": true,
  "resizesContent": false,
  "resizingConstraint": 63,
  "resizingType": 0,
  "rotation": 0,
  "shouldBreakMaskChain": true,
  "style": {
    "_class": "style",
    "do_objectID": "72CC3311-D10F-4BA5-A79C-E39853B59567",
    "endMarkerType": 0,
    "miterLimit": 10,
    "startMarkerType": 0,
    "windingRule": 1
  },
  "verticalRulerData": {
    "_class": "rulerData",
    "base": 0,
    "do_objectID": "E40BCAD0-4C48-4B6E-8A29-CF5FC2660287",
    "guides": [
    ]
  }
}