{
  "_class": "text",
  "attributedString": {
    "_class": "attributedString",
    "attributes": [
      {
        "_class": "stringAttribute",
        "attributes": {
          "MSAttributedStringColorAttribute": {
            "_class": "color",
            "alpha": 1,
            "blue": 0.419608,
            "green": 0.6196079999999999,
            "red": 0.7254900000000001
          },
          "MSAttributedStringFontAttribute": {
            "_class": "fontDescriptor",
            "attributes": {
              "name": "LucidaGrande",
              "size": 23.993472
            }
          },
          "kerning": -0.0126
        },
        "length": 1,
        "location": 0
      },
      {
        "_class": "stringAttribute",
        "attributes": {
          "MSAttributedStringColorAttribute": {
            "_class": "color",
            "alpha": 1,
            "blue": 0.419608,
            "green": 0.6196079999999999,
            "red": 0.7254900000000001
          },
          "MSAttributedStringFontAttribute": {
            "_class": "fontDescriptor",
            "attributes": {
              "name": "LucidaGrande",
              "size": 23.993472
            }
          },
          "kerning": 0.1554
        },
        "length": 2,
        "location": 1
      },
      {
        "_class": "stringAttribute",
        "attributes": {
          "MSAttributedStringColorAttribute": {
            "_class": "color",
            "alpha": 1,
            "blue": 0.419608,
            "green": 0.6196079999999999,
            "red": 0.7254900000000001
          },
          "MSAttributedStringFontAttribute": {
            "_class": "fontDescriptor",
            "attributes": {
              "name": "LucidaGrande",
              "size": 23.993472
            }
          },
          "kerning": 0.1074
        },
        "length": 1,
        "location": 3
      },
      {
        "_class": "stringAttribute",
        "attributes": {
          "MSAttributedStringColorAttribute": {
            "_class": "color",
            "alpha": 1,
            "blue": 0.419608,
            "green": 0.6196079999999999,
            "red": 0.7254900000000001
          },
          "MSAttributedStringFontAttribute": {
            "_class": "fontDescriptor",
            "attributes": {
              "name": "LucidaGrande",
              "size": 23.993472
            }
          },
          "kerning": 0.1794
        },
        "length": 1,
        "location": 4
      },
      {
        "_class": "stringAttribute",
        "attributes": {
          "MSAttributedStringColorAttribute": {
            "_class": "color",
            "alpha": 1,
            "blue": 0.419608,
            "green": 0.6196079999999999,
            "red": 0.7254900000000001
          },
          "MSAttributedStringFontAttribute": {
            "_class": "fontDescriptor",
            "attributes": {
              "name": "LucidaGrande",
              "size": 23.993472
            }
          },
          "kerning": 0.0834
        },
        "length": 1,
        "location": 5
      },
      {
        "_class": "stringAttribute",
        "attributes": {
          "MSAttributedStringColorAttribute": {
            "_class": "color",
            "alpha": 1,
            "blue": 0.419608,
            "green": 0.6196079999999999,
            "red": 0.7254900000000001
          },
          "MSAttributedStringFontAttribute": {
            "_class": "fontDescriptor",
            "attributes": {
              "name": "LucidaGrande",
              "size": 23.993472
            }
          },
          "kerning": 0.1554
        },
        "length": 1,
        "location": 6
      },
      {
        "_class": "stringAttribute",
        "attributes": {
          "MSAttributedStringColorAttribute": {
            "_class": "color",
            "alpha": 1,
            "blue": 0.419608,
            "green": 0.6196079999999999,
            "red": 0.7254900000000001
          },
          "MSAttributedStringFontAttribute": {
            "_class": "fontDescriptor",
            "attributes": {
              "name": "LucidaGrande",
              "size": 23.993472
            }
          },
          "kerning": 0.1074
        },
        "length": 1,
        "location": 7
      },
      {
        "_class": "stringAttribute",
        "attributes": {
          "MSAttributedStringColorAttribute": {
            "_class": "color",
            "alpha": 1,
            "blue": 0.419608,
            "green": 0.6196079999999999,
            "red": 0.7254900000000001
          },
          "MSAttributedStringFontAttribute": {
            "_class": "fontDescriptor",
            "attributes": {
              "name": "LucidaGrande",
              "size": 23.993472
            }
          },
          "kerning": -0.2526
        },
        "length": 1,
        "location": 8
      },
      {
        "_class": "stringAttribute",
        "attributes": {
          "MSAttributedStringColorAttribute": {
            "_class": "color",
            "alpha": 1,
            "blue": 0.419608,
            "green": 0.6196079999999999,
            "red": 0.7254900000000001
          },
          "MSAttributedStringFontAttribute": {
            "_class": "fontDescriptor",
            "attributes": {
              "name": "LucidaGrande",
              "size": 23.993472
            }
          },
          "kerning": 0.1074
        },
        "length": 2,
        "location": 9
      },
      {
        "_class": "stringAttribute",
        "attributes": {
          "MSAttributedStringColorAttribute": {
            "_class": "color",
            "alpha": 1,
            "blue": 0.419608,
            "green": 0.6196079999999999,
            "red": 0.7254900000000001
          },
          "MSAttributedStringFontAttribute": {
            "_class": "fontDescriptor",
            "attributes": {
              "name": "LucidaGrande",
              "size": 23.993472
            }
          },
          "kerning": -0.0126
        },
        "length": 1,
        "location": 11
      }
    ],
    "string": "Mood Boards "
  },
  "automaticallyDrawOnUnderlyingPath": false,
  "booleanOperation": -1,
  "clippingMaskMode": 0,
  "do_objectID": "F41C2B49-BF46-4559-9040-AC80DBEEF4ED",
  "dontSynchroniseWithSymbol": false,
  "exportOptions": {
    "_class": "exportOptions",
    "do_objectID": "87F77574-8446-4A01-BB7B-243E41E02461",
    "exportFormats": [
    ],
    "includedLayerIds": [
    ],
    "layerOptions": 0,
    "shouldTrim": false
  },
  "frame": {
    "_class": "rect",
    "constrainProportions": false,
    "do_objectID": "3A7EC464-0C50-4228-BAF3-66CD6D1288D7",
    "height": 28,
    "width": 159.6,
    "x": 189.2697391304348,
    "y": 11.24263661304346
  },
  "glyphBounds": "{{2, 4}, {149, 20}}",
  "hasClippingMask": false,
  "isFixedToViewport": false,
  "isFlippedHorizontal": false,
  "isFlippedVertical": false,
  "isLocked": false,
  "isVisible": true,
  "layerListExpandedType": 0,
  "lineSpacingBehaviour": 1,
  "name": "Mood Boards ",
  "nameIsFixed": false,
  "resizingConstraint": 63,
  "resizingType": 0,
  "rotation": 0,
  "shouldBreakMaskChain": false,
  "style": {
    "_class": "style",
    "do_objectID": "269D1C63-AB73-46EA-BE77-987088CD8E2E",
    "endMarkerType": 0,
    "miterLimit": 10,
    "startMarkerType": 0,
    "textStyle": {
      "_class": "textStyle",
      "do_objectID": "7C378F43-74B8-4F33-B6F7-CA00FF083592",
      "encodedAttributes": {
        "MSAttributedStringColorAttribute": {
          "_class": "color",
          "alpha": 1,
          "blue": 0.419608,
          "green": 0.6196079999999999,
          "red": 0.7254900000000001
        },
        "MSAttributedStringFontAttribute": {
          "_class": "fontDescriptor",
          "attributes": {
            "name": "LucidaGrande",
            "size": 23.993472
          }
        },
        "kerning": -0.0126
      },
      "verticalAlignment": 0
    },
    "windingRule": 1
  },
  "textBehaviour": 1
}