{
  "_class": "group",
  "booleanOperation": 0,
  "clippingMaskMode": 0,
  "do_objectID": "D3498C76-C247-4B55-9CD6-D24275CEDBCF",
  "exportOptions": {
    "_class": "exportOptions",
    "exportFormats": [
    ],
    "includedLayerIds": [
    ],
    "layerOptions": 0,
    "shouldTrim": false
  },
  "frame": {
    "_class": "rect",
    "constrainProportions": false,
    "height": 68,
    "width": 1366,
    "x": 0,
    "y": 0
  },
  "groupLayout": {
    "_class": "MSImmutableFreeformGroupLayout"
  },
  "hasClickThrough": false,
  "hasClippingMask": false,
  "isFixedToViewport": false,
  "isFlippedHorizontal": false,
  "isFlippedVertical": false,
  "isLocked": false,
  "isVisible": true,
  "layerListExpandedType": 2,
  "layers": [
    {
      "class": "rectangle",
      "id": "F501A363-2A53-4AFB-9ADC-26374B206514"
    },
    {
      "class": "group",
      "id": "83CF98CF-1B58-48D8-B37B-8CEC1B678DEB"
    },
    {
      "class": "bitmap",
      "id": "FD57DF26-746D-4D44-A380-DF842BE0C9A1"
    },
    {
      "class": "bitmap",
      "id": "3A962842-6B23-4521-9252-34C3B412F03E"
    }
  ],
  "name": "Navigation Bar",
  "nameIsFixed": true,
  "resizingConstraint": 63,
  "resizingType": 0,
  "rotation": 0,
  "shouldBreakMaskChain": false,
  "style": {
    "_class": "style",
    "endMarkerType": 0,
    "miterLimit": 10,
    "startMarkerType": 0,
    "windingRule": 1
  }
}