{
  "_class": "shapePath",
  "booleanOperation": -1,
  "clippingMaskMode": 0,
  "do_objectID": "11AA1DD9-D998-4C8B-A1A8-40EB50E2D925",
  "edited": true,
  "exportOptions": {
    "_class": "exportOptions",
    "do_objectID": "CE6EDF68-DADA-4D1D-9CB8-25B91CD3B1B6",
    "exportFormats": [
    ],
    "includedLayerIds": [
    ],
    "layerOptions": 0,
    "shouldTrim": false
  },
  "frame": {
    "_class": "rect",
    "constrainProportions": false,
    "do_objectID": "01146325-32C0-40C5-980E-AA966EA64D19",
    "height": 9.24363636363637,
    "width": 19.39757575757576,
    "x": 0,
    "y": 0
  },
  "hasClippingMask": false,
  "isClosed": true,
  "isFixedToViewport": false,
  "isFlippedHorizontal": false,
  "isFlippedVertical": false,
  "isLocked": false,
  "isVisible": true,
  "layerListExpandedType": 0,
  "name": "Path",
  "nameIsFixed": false,
  "pointRadiusBehaviour": 0,
  "points": [
    {
      "_class": "curvePoint",
      "cornerRadius": 0,
      "curveFrom": "{0.98434668499656308, 1}",
      "curveMode": 4,
      "curveTo": "{0.99297006811222888, 1}",
      "hasCurveFrom": false,
      "hasCurveTo": true,
      "point": "{0.98434668499656308, 1}"
    },
    {
      "_class": "curvePoint",
      "cornerRadius": 0,
      "curveFrom": "{0.011466600012497656, 1}",
      "curveMode": 4,
      "curveTo": "{0.015622070861713428, 1}",
      "hasCurveFrom": true,
      "hasCurveTo": false,
      "point": "{0.015622070861713428, 1}"
    },
    {
      "_class": "curvePoint",
      "cornerRadius": 0,
      "curveFrom": "{0.001624695369618198, 0.98432992394440066}",
      "curveMode": 2,
      "curveTo": "{0.0074985940136224451, 0.99652504589562019}",
      "hasCurveFrom": true,
      "hasCurveTo": true,
      "point": "{0.0045616446916203219, 0.99042748492001043}"
    },
    {
      "_class": "curvePoint",
      "cornerRadius": 0,
      "curveFrom": "{0, 0.96721741410962492}",
      "curveMode": 4,
      "curveTo": "{0, 0.97593758195646485}",
      "hasCurveFrom": false,
      "hasCurveTo": true,
      "point": "{0, 0.96721741410962492}"
    },
    {
      "_class": "curvePoint",
      "cornerRadius": 0,
      "curveFrom": "{6.2488283446853718e-05, 0.014686598478888029}",
      "curveMode": 4,
      "curveTo": "{6.2488283446853718e-05, 0.032782585890375034}",
      "hasCurveFrom": true,
      "hasCurveTo": false,
      "point": "{6.2488283446853718e-05, 0.032782585890375034}"
    },
    {
      "_class": "curvePoint",
      "cornerRadius": 0,
      "curveFrom": "{0.015684559145160284, 0}",
      "curveMode": 4,
      "curveTo": "{0.00706117602949447, 0}",
      "hasCurveFrom": false,
      "hasCurveTo": true,
      "point": "{0.015684559145160284, 0}"
    },
    {
      "_class": "curvePoint",
      "cornerRadius": 0,
      "curveFrom": "{0.98853339998750234, 0}",
      "curveMode": 4,
      "curveTo": "{0.98437792913828659, 0}",
      "hasCurveFrom": true,
      "hasCurveTo": false,
      "point": "{0.98437792913828659, 0}"
    },
    {
      "_class": "curvePoint",
      "cornerRadius": 0,
      "curveFrom": "{0.99837530463038171, 0.015670076055599318}",
      "curveMode": 2,
      "curveTo": "{0.99250140598637759, 0.0034749541043798079}",
      "hasCurveFrom": true,
      "hasCurveTo": true,
      "point": "{0.99543835530837965, 0.009572515079989562}"
    },
    {
      "_class": "curvePoint",
      "cornerRadius": 0,
      "curveFrom": "{1, 0.032782585890375034}",
      "curveMode": 4,
      "curveTo": "{1, 0.024062418043535334}",
      "hasCurveFrom": false,
      "hasCurveTo": true,
      "point": "{1, 0.032782585890375034}"
    },
    {
      "_class": "curvePoint",
      "cornerRadius": 0,
      "curveFrom": "{0.9999687558582766, 0.98531340152111202}",
      "curveMode": 4,
      "curveTo": "{0.9999687558582766, 0.96721741410962492}",
      "hasCurveFrom": true,
      "hasCurveTo": false,
      "point": "{0.9999687558582766, 0.96721741410962492}"
    }
  ],
  "resizingConstraint": 63,
  "resizingType": 0,
  "rotation": 0,
  "shouldBreakMaskChain": false,
  "style": {
    "_class": "style",
    "do_objectID": "FF1D5098-001A-4CBA-8A4B-2CE8505B249F",
    "endMarkerType": 0,
    "fills": [
      {
        "_class": "fill",
        "color": {
          "_class": "color",
          "alpha": 1,
          "blue": 0.1764705882352941,
          "green": 0.1764705882352941,
          "red": 0.1764705882352941
        },
        "fillType": 0,
        "isEnabled": true,
        "noiseIndex": 0,
        "noiseIntensity": 0,
        "patternFillType": 1,
        "patternTileScale": 1
      }
    ],
    "miterLimit": 10,
    "startMarkerType": 0,
    "windingRule": 0
  }
}