{
  "_class": "group",
  "booleanOperation": 0,
  "clippingMaskMode": 0,
  "do_objectID": "426CD8DE-902A-4A85-80D6-42848B21F866",
  "exportOptions": {
    "_class": "exportOptions",
    "do_objectID": "3481EE5C-5923-4C33-A6EF-C52E8407C285",
    "exportFormats": [
    ],
    "includedLayerIds": [
    ],
    "layerOptions": 0,
    "shouldTrim": false
  },
  "frame": {
    "_class": "rect",
    "constrainProportions": true,
    "do_objectID": "CFDAD9AD-46DA-414A-B893-FB0A26EBFD3A",
    "height": 19,
    "width": 20,
    "x": 43,
    "y": 0
  },
  "groupLayout": {
    "_class": "MSImmutableFreeformGroupLayout",
    "do_objectID": "CE2DC0AC-038B-47B3-8E40-BFAA43D651EC"
  },
  "hasClickThrough": false,
  "hasClippingMask": false,
  "isFixedToViewport": false,
  "isFlippedHorizontal": false,
  "isFlippedVertical": false,
  "isLocked": false,
  "isVisible": true,
  "layerListExpandedType": 0,
  "layers": [
    {
      "class": "shapePath",
      "id": "B10686DC-EC3A-4D7F-9FEA-A8B521E6D13B"
    }
  ],
  "name": "star icon",
  "nameIsFixed": true,
  "resizingConstraint": 63,
  "resizingType": 0,
  "rotation": 0,
  "shouldBreakMaskChain": false,
  "style": {
    "_class": "style",
    "do_objectID": "50D2086A-0509-4331-B1FC-4CCC73048575",
    "endMarkerType": 0,
    "miterLimit": 10,
    "startMarkerType": 0,
    "windingRule": 1
  }
}