{
  "_class": "symbolInstance",
  "booleanOperation": -1,
  "clippingMaskMode": 0,
  "do_objectID": "790B6942-353B-4BAF-A69F-4939658B3DC0",
  "exportOptions": {
    "_class": "exportOptions",
    "do_objectID": "8F0CCF44-9129-4D15-BE0D-F299B162640A",
    "exportFormats": [
    ],
    "includedLayerIds": [
    ],
    "layerOptions": 0,
    "shouldTrim": false
  },
  "frame": {
    "_class": "rect",
    "constrainProportions": false,
    "do_objectID": "70684778-B4ED-4518-B045-7ABD9196B432",
    "height": 40,
    "width": 172,
    "x": 0,
    "y": 577
  },
  "hasClippingMask": false,
  "horizontalSpacing": 0,
  "isFixedToViewport": false,
  "isFlippedHorizontal": false,
  "isFlippedVertical": false,
  "isLocked": false,
  "isVisible": true,
  "layerListExpandedType": 0,
  "name": "button / 05 danger / medium / 02 text and icon / 01 enabled copy 4",
  "nameIsFixed": false,
  "overrideValues": [
  ],
  "resizingConstraint": 63,
  "resizingType": 0,
  "rotation": 0,
  "scale": 1,
  "shouldBreakMaskChain": false,
  "style": {
    "_class": "style",
    "do_objectID": "AA78D607-39CE-4A8E-BF53-83C4C3437557",
    "endMarkerType": 0,
    "miterLimit": 10,
    "startMarkerType": 0,
    "windingRule": 1
  },
  "symbolID": "C544E716-5C95-4D66-B62B-E557F0A6A4F2",
  "verticalSpacing": 0
}