{
  "_class": "symbolInstance",
  "booleanOperation": 0,
  "clippingMaskMode": 0,
  "do_objectID": "968F8278-6074-465E-8DDF-A25D47F1AD24",
  "exportOptions": {
    "_class": "exportOptions",
    "do_objectID": "399C9B13-238C-4B4F-A0FB-FB52AAA4F26E",
    "exportFormats": [
    ],
    "includedLayerIds": [
    ],
    "layerOptions": 0,
    "shouldTrim": false
  },
  "frame": {
    "_class": "rect",
    "constrainProportions": false,
    "do_objectID": "F10A92E6-C0AD-477F-8671-DFE81B1898C8",
    "height": 108,
    "width": 1366,
    "x": 0,
    "y": 0
  },
  "hasClippingMask": false,
  "horizontalSpacing": 0,
  "isFixedToViewport": false,
  "isFlippedHorizontal": false,
  "isFlippedVertical": false,
  "isLocked": false,
  "isVisible": true,
  "layerListExpandedType": 0,
  "name": "Closed Navigation",
  "nameIsFixed": false,
  "overrideValues": [
  ],
  "resizingConstraint": 63,
  "resizingType": 0,
  "rotation": 0,
  "scale": 1,
  "shouldBreakMaskChain": false,
  "style": {
    "_class": "style",
    "do_objectID": "9A3F9AF1-731A-4954-B10B-E7A167D6FE8F",
    "endMarkerType": 0,
    "miterLimit": 10,
    "startMarkerType": 0,
    "windingRule": 1
  },
  "symbolID": "483DFAED-436F-480A-9D5D-27980FBC234E",
  "verticalSpacing": 0
}