{
  "_class": "symbolMaster",
  "allowsOverrides": true,
  "backgroundColor": {
    "_class": "color",
    "alpha": 1,
    "blue": 1,
    "green": 1,
    "red": 1
  },
  "booleanOperation": -1,
  "changeIdentifier": 1381,
  "clippingMaskMode": 0,
  "do_objectID": "5A44DEDF-A4DE-4511-BA9E-DC73188376D9",
  "exportOptions": {
    "_class": "exportOptions",
    "exportFormats": [
    ],
    "includedLayerIds": [
    ],
    "layerOptions": 0,
    "shouldTrim": false
  },
  "frame": {
    "_class": "rect",
    "constrainProportions": false,
    "height": 64,
    "width": 226,
    "x": 58828,
    "y": 456
  },
  "groupLayout": {
    "_class": "MSImmutableFreeformGroupLayout"
  },
  "hasBackgroundColor": false,
  "hasClickThrough": true,
  "hasClippingMask": false,
  "horizontalRulerData": {
    "_class": "rulerData",
    "base": 0,
    "guides": [
    ]
  },
  "includeBackgroundColorInExport": true,
  "includeBackgroundColorInInstance": false,
  "includeInCloudUpload": true,
  "isFixedToViewport": false,
  "isFlippedHorizontal": false,
  "isFlippedVertical": false,
  "isFlowHome": false,
  "isLocked": false,
  "isVisible": true,
  "layerListExpandedType": 2,
  "layers": [
    {
      "class": "rectangle",
      "id": "00563846-E56D-4B15-9D0A-8B5F731C9B92"
    },
    {
      "class": "rectangle",
      "id": "B9FCD74C-C70E-499A-AEE2-08E832425CAE"
    },
    {
      "class": "text",
      "id": "A1F81014-1DD7-4682-9630-49031D6AC463"
    },
    {
      "class": "text",
      "id": "9270A18F-4630-4622-9954-FFB9F57A482F"
    },
    {
      "class": "symbolInstance",
      "id": "B18BF11C-3809-49AA-9A7F-79104E559706"
    },
    {
      "class": "symbolInstance",
      "id": "83E4A576-61D6-4200-8ECB-E39FA13309F7"
    }
  ],
  "name": "dropdown / 03 multi-select / 01 label / closed / 05 selected hover",
  "nameIsFixed": true,
  "overrideProperties": [
    {
      "_class": "MSImmutableOverrideProperty",
      "canOverride": false,
      "overrideName": "9270A18F-4630-4622-9954-FFB9F57A482F_textStyle"
    },
    {
      "_class": "MSImmutableOverrideProperty",
      "canOverride": true,
      "overrideName": "B18BF11C-3809-49AA-9A7F-79104E559706_symbolID"
    },
    {
      "_class": "MSImmutableOverrideProperty",
      "canOverride": false,
      "overrideName": "A1F81014-1DD7-4682-9630-49031D6AC463_textStyle"
    },
    {
      "_class": "MSImmutableOverrideProperty",
      "canOverride": false,
      "overrideName": "B18BF11C-3809-49AA-9A7F-79104E559706/D052A9D1-9F1C-4487-95B3-5CC925EA3CDD_textStyle"
    },
    {
      "_class": "MSImmutableOverrideProperty",
      "canOverride": false,
      "overrideName": "83E4A576-61D6-4200-8ECB-E39FA13309F7_symbolID"
    },
    {
      "_class": "MSImmutableOverrideProperty",
      "canOverride": true,
      "overrideName": "00563846-E56D-4B15-9D0A-8B5F731C9B92_layerStyle"
    },
    {
      "_class": "MSImmutableOverrideProperty",
      "canOverride": false,
      "overrideName": "B9FCD74C-C70E-499A-AEE2-08E832425CAE_layerStyle"
    },
    {
      "_class": "MSImmutableOverrideProperty",
      "canOverride": false,
      "overrideName": "83E4A576-61D6-4200-8ECB-E39FA13309F7/91727CC7-E827-4EEC-9582-21DE23B309B4_layerStyle"
    },
    {
      "_class": "MSImmutableOverrideProperty",
      "canOverride": true,
      "overrideName": "A1F81014-1DD7-4682-9630-49031D6AC463_stringValue"
    },
    {
      "_class": "MSImmutableOverrideProperty",
      "canOverride": true,
      "overrideName": "9270A18F-4630-4622-9954-FFB9F57A482F_stringValue"
    }
  ],
  "resizesContent": true,
  "resizingConstraint": 63,
  "resizingType": 0,
  "rotation": 0,
  "shouldBreakMaskChain": true,
  "style": {
    "_class": "style",
    "endMarkerType": 0,
    "miterLimit": 10,
    "startMarkerType": 0,
    "windingRule": 1
  },
  "symbolID": "BBE8829C-B4A5-4ED0-BB44-C79EA83A4211",
  "verticalRulerData": {
    "_class": "rulerData",
    "base": 0,
    "guides": [
    ]
  }
}