{
  "_class": "shapePath",
  "booleanOperation": -1,
  "clippingMaskMode": 0,
  "do_objectID": "364B97A6-3BB5-40F1-A124-DDB9A7664E16",
  "edited": true,
  "exportOptions": {
    "_class": "exportOptions",
    "exportFormats": [
    ],
    "includedLayerIds": [
    ],
    "layerOptions": 0,
    "shouldTrim": false
  },
  "frame": {
    "_class": "rect",
    "constrainProportions": false,
    "height": 51.24313725490202,
    "width": 42.81960784313726,
    "x": 51.243137254902,
    "y": 34.39607843137257
  },
  "hasClippingMask": false,
  "isClosed": true,
  "isFixedToViewport": false,
  "isFlippedHorizontal": false,
  "isFlippedVertical": false,
  "isLocked": false,
  "isVisible": true,
  "layerListExpandedType": 1,
  "maintainScrollPosition": false,
  "name": "XMLID_114_",
  "nameIsFixed": false,
  "pointRadiusBehaviour": 1,
  "points": [
    {
      "_class": "curvePoint",
      "cornerRadius": 0,
      "curveFrom": "{1, 0.046833333333333428}",
      "curveMode": 4,
      "curveTo": "{1, 0.10458333333333325}",
      "hasCurveFrom": true,
      "hasCurveTo": false,
      "point": "{1, 0.10458333333333325}"
    },
    {
      "_class": "curvePoint",
      "cornerRadius": 0,
      "curveFrom": "{0.87450000000000006, 0}",
      "curveMode": 4,
      "curveTo": "{0.94379999999999986, 0}",
      "hasCurveFrom": false,
      "hasCurveTo": true,
      "point": "{0.87450000000000006, 0}"
    },
    {
      "_class": "curvePoint",
      "cornerRadius": 0,
      "curveFrom": "{0.40000000000000002, 0}",
      "curveMode": 1,
      "curveTo": "{0.40000000000000002, 0}",
      "hasCurveFrom": false,
      "hasCurveTo": false,
      "point": "{0.40000000000000002, 0}"
    },
    {
      "_class": "curvePoint",
      "cornerRadius": 0,
      "curveFrom": "{0.056099999999999997, 0}",
      "curveMode": 4,
      "curveTo": "{0.12549999999999989, 0}",
      "hasCurveFrom": true,
      "hasCurveTo": false,
      "point": "{0.12549999999999989, 0}"
    },
    {
      "_class": "curvePoint",
      "cornerRadius": 0,
      "curveFrom": "{0, 0.10458333333333325}",
      "curveMode": 4,
      "curveTo": "{0, 0.046833333333333428}",
      "hasCurveFrom": false,
      "hasCurveTo": true,
      "point": "{0, 0.10458333333333325}"
    },
    {
      "_class": "curvePoint",
      "cornerRadius": 0,
      "curveFrom": "{0, 0.33333333333333331}",
      "curveMode": 1,
      "curveTo": "{0, 0.33333333333333331}",
      "hasCurveFrom": false,
      "hasCurveTo": false,
      "point": "{0, 0.33333333333333331}"
    },
    {
      "_class": "curvePoint",
      "cornerRadius": 0,
      "curveFrom": "{0, 0.95316666666666661}",
      "curveMode": 4,
      "curveTo": "{0, 0.89541666666666675}",
      "hasCurveFrom": true,
      "hasCurveTo": false,
      "point": "{0, 0.89541666666666675}"
    },
    {
      "_class": "curvePoint",
      "cornerRadius": 0,
      "curveFrom": "{0.12550000000000008, 1}",
      "curveMode": 4,
      "curveTo": "{0.056099999999999997, 1}",
      "hasCurveFrom": false,
      "hasCurveTo": true,
      "point": "{0.12550000000000008, 1}"
    },
    {
      "_class": "curvePoint",
      "cornerRadius": 0,
      "curveFrom": "{0.34380000000000005, 1}",
      "curveMode": 4,
      "curveTo": "{0.27450000000000008, 1}",
      "hasCurveFrom": true,
      "hasCurveTo": false,
      "point": "{0.27450000000000008, 1}"
    },
    {
      "_class": "curvePoint",
      "cornerRadius": 0,
      "curveFrom": "{0.40000000000000002, 0.89541666666666675}",
      "curveMode": 4,
      "curveTo": "{0.40000000000000002, 0.95316666666666661}",
      "hasCurveFrom": false,
      "hasCurveTo": true,
      "point": "{0.40000000000000002, 0.89541666666666675}"
    },
    {
      "_class": "curvePoint",
      "cornerRadius": 0,
      "curveFrom": "{0.40000000000000002, 0.38016666666666676}",
      "curveMode": 4,
      "curveTo": "{0.40000000000000002, 0.4379166666666669}",
      "hasCurveFrom": true,
      "hasCurveTo": false,
      "point": "{0.40000000000000002, 0.4379166666666669}"
    },
    {
      "_class": "curvePoint",
      "cornerRadius": 0,
      "curveFrom": "{0.52549999999999986, 0.33333333333333331}",
      "curveMode": 4,
      "curveTo": "{0.45620000000000011, 0.33333333333333331}",
      "hasCurveFrom": false,
      "hasCurveTo": true,
      "point": "{0.52549999999999986, 0.33333333333333331}"
    },
    {
      "_class": "curvePoint",
      "cornerRadius": 0,
      "curveFrom": "{0.94379999999999986, 0.33333333333333331}",
      "curveMode": 4,
      "curveTo": "{0.87449999999999972, 0.33333333333333331}",
      "hasCurveFrom": true,
      "hasCurveTo": false,
      "point": "{0.87449999999999972, 0.33333333333333331}"
    },
    {
      "_class": "curvePoint",
      "cornerRadius": 0,
      "curveFrom": "{1, 0.22875000000000009}",
      "curveMode": 4,
      "curveTo": "{1, 0.28649999999999992}",
      "hasCurveFrom": false,
      "hasCurveTo": true,
      "point": "{1, 0.22875000000000009}"
    }
  ],
  "resizingConstraint": 63,
  "resizingType": 0,
  "rotation": 0,
  "shouldBreakMaskChain": false,
  "style": {
    "_class": "style",
    "blur": {
      "_class": "blur",
      "center": "{0.5, 0.5}",
      "isEnabled": false,
      "motionAngle": 0,
      "radius": 10,
      "saturation": 1,
      "type": 0
    },
    "borderOptions": {
      "_class": "borderOptions",
      "dashPattern": [
      ],
      "isEnabled": true,
      "lineCapStyle": 0,
      "lineJoinStyle": 0
    },
    "borders": [
    ],
    "colorControls": {
      "_class": "colorControls",
      "brightness": 0,
      "contrast": 1,
      "hue": 0,
      "isEnabled": false,
      "saturation": 1
    },
    "contextSettings": {
      "_class": "graphicsContextSettings",
      "blendMode": 0,
      "opacity": 1
    },
    "do_objectID": "0664A7A0-90B1-4B30-9AEE-8968A7041633",
    "endMarkerType": 0,
    "fills": [
      {
        "_class": "fill",
        "color": {
          "_class": "color",
          "alpha": 1,
          "blue": 0.1058823529411765,
          "green": 0.7686274509803921,
          "red": 0.9411764705882353
        },
        "contextSettings": {
          "_class": "graphicsContextSettings",
          "blendMode": 0,
          "opacity": 1
        },
        "fillType": 0,
        "gradient": {
          "_class": "gradient",
          "elipseLength": 0,
          "from": "{0.5, 0}",
          "gradientType": 0,
          "stops": [
            {
              "_class": "gradientStop",
              "color": {
                "_class": "color",
                "alpha": 1,
                "blue": 1,
                "green": 1,
                "red": 1
              },
              "position": 0
            },
            {
              "_class": "gradientStop",
              "color": {
                "_class": "color",
                "alpha": 1,
                "blue": 0,
                "green": 0,
                "red": 0
              },
              "position": 1
            }
          ],
          "to": "{0.5, 1}"
        },
        "isEnabled": true,
        "noiseIndex": 0,
        "noiseIntensity": 0,
        "patternFillType": 1,
        "patternTileScale": 1
      }
    ],
    "innerShadows": [
    ],
    "miterLimit": 10,
    "shadows": [
    ],
    "startMarkerType": 0,
    "windingRule": 0
  }
}