{
  "_class": "bitmap",
  "booleanOperation": 0,
  "clippingMask": "{{0, 0}, {1, 1}}",
  "clippingMaskMode": 0,
  "do_objectID": "FF73E960-63B3-4749-A072-D21A4E0793DA",
  "exportOptions": {
    "_class": "exportOptions",
    "do_objectID": "DB29B83C-B45B-4FC8-A076-F512A2E9CD53",
    "exportFormats": [
    ],
    "includedLayerIds": [
    ],
    "layerOptions": 0,
    "shouldTrim": false
  },
  "fillReplacesImage": false,
  "frame": {
    "_class": "rect",
    "constrainProportions": true,
    "do_objectID": "E26018C9-E24A-4EF6-845E-B24B0B96433C",
    "height": 103.1484374999996,
    "width": 59.99999999999999,
    "x": -0.5999999999999998,
    "y": -4.813593749999993
  },
  "hasClippingMask": false,
  "image": {
    "_class": "MSJSONFileReference",
    "_ref": "images/0eaebd25f32170a3f4ed19b899c51b56cdc8ef86.png",
    "_ref_class": "MSImageData"
  },
  "intendedDPI": 0,
  "isFixedToViewport": false,
  "isFlippedHorizontal": false,
  "isFlippedVertical": false,
  "isLocked": false,
  "isVisible": true,
  "layerListExpandedType": 0,
  "name": "211199857_blk_e1",
  "nameIsFixed": false,
  "resizingConstraint": 63,
  "resizingType": 0,
  "rotation": 0,
  "shouldBreakMaskChain": false,
  "style": {
    "_class": "style",
    "do_objectID": "B613BDF4-96C0-49ED-AD4F-FE927FDC2B7D",
    "endMarkerType": 0,
    "miterLimit": 10,
    "startMarkerType": 0,
    "windingRule": 1
  }
}