{
  "_class": "shapePath",
  "booleanOperation": -1,
  "clippingMaskMode": 0,
  "do_objectID": "1CC2D343-C983-4044-BC8E-A29BC87992AD",
  "edited": true,
  "exportOptions": {
    "_class": "exportOptions",
    "do_objectID": "139B6217-61D7-4905-B932-52C634E460D0",
    "exportFormats": [
    ],
    "includedLayerIds": [
    ],
    "layerOptions": 0,
    "shouldTrim": false
  },
  "frame": {
    "_class": "rect",
    "constrainProportions": false,
    "do_objectID": "5AD9B890-2DFD-4B84-957D-2B2CD80B2407",
    "height": 4.076969696969696,
    "width": 1,
    "x": 9.459393939393946,
    "y": 0.2278787878787876
  },
  "hasClippingMask": false,
  "isClosed": true,
  "isFixedToViewport": false,
  "isFlippedHorizontal": false,
  "isFlippedVertical": false,
  "isLocked": false,
  "isVisible": true,
  "layerListExpandedType": 0,
  "name": "Shape",
  "nameIsFixed": false,
  "pointRadiusBehaviour": 0,
  "points": [
    {
      "_class": "curvePoint",
      "cornerRadius": 0,
      "curveFrom": "{0.13575757575757574, 1}",
      "curveMode": 2,
      "curveTo": "{0.470909090909091, 1}",
      "hasCurveFrom": true,
      "hasCurveTo": true,
      "point": "{0.30303030303030271, 1}"
    },
    {
      "_class": "curvePoint",
      "cornerRadius": 0,
      "curveFrom": "{0, 0.9256726624052326}",
      "curveMode": 4,
      "curveTo": "{0, 0.96670135275754421}",
      "hasCurveFrom": false,
      "hasCurveTo": true,
      "point": "{0, 0.9256726624052326}"
    },
    {
      "_class": "curvePoint",
      "cornerRadius": 0,
      "curveFrom": "{0, 0.033298647242455806}",
      "curveMode": 4,
      "curveTo": "{0, 0.074327337594767354}",
      "hasCurveFrom": true,
      "hasCurveTo": false,
      "point": "{0, 0.074327337594767354}"
    },
    {
      "_class": "curvePoint",
      "cornerRadius": 0,
      "curveFrom": "{0.47030303030302967, 0}",
      "curveMode": 2,
      "curveTo": "{0.13575757575757574, 0}",
      "hasCurveFrom": true,
      "hasCurveTo": true,
      "point": "{0.30303030303030271, 0}"
    },
    {
      "_class": "curvePoint",
      "cornerRadius": 0,
      "curveFrom": "{0.60606060606060541, 0.074327337594767354}",
      "curveMode": 4,
      "curveTo": "{0.60606060606060541, 0.033298647242455806}",
      "hasCurveFrom": false,
      "hasCurveTo": true,
      "point": "{0.60606060606060541, 0.074327337594767354}"
    },
    {
      "_class": "curvePoint",
      "cornerRadius": 0,
      "curveFrom": "{0.60606060606060541, 0.96670135275754421}",
      "curveMode": 4,
      "curveTo": "{0.60606060606060541, 0.9256726624052326}",
      "hasCurveFrom": true,
      "hasCurveTo": false,
      "point": "{0.60606060606060541, 0.9256726624052326}"
    }
  ],
  "resizingConstraint": 63,
  "resizingType": 0,
  "rotation": 0,
  "shouldBreakMaskChain": false,
  "style": {
    "_class": "style",
    "do_objectID": "807CCBE1-21AE-47BC-99A2-6AD0765C5EAE",
    "endMarkerType": 0,
    "fills": [
      {
        "_class": "fill",
        "color": {
          "_class": "color",
          "alpha": 1,
          "blue": 0.1764705882352941,
          "green": 0.1764705882352941,
          "red": 0.1764705882352941
        },
        "fillType": 0,
        "isEnabled": true,
        "noiseIndex": 0,
        "noiseIntensity": 0,
        "patternFillType": 1,
        "patternTileScale": 1
      }
    ],
    "miterLimit": 10,
    "startMarkerType": 0,
    "windingRule": 0
  }
}