{
  "_class": "group",
  "booleanOperation": 0,
  "clippingMaskMode": 0,
  "do_objectID": "9BB8BF8E-189C-46E3-9FC7-99BDE8889278",
  "exportOptions": {
    "_class": "exportOptions",
    "exportFormats": [
    ],
    "includedLayerIds": [
    ],
    "layerOptions": 0,
    "shouldTrim": false
  },
  "frame": {
    "_class": "rect",
    "constrainProportions": false,
    "height": 20,
    "width": 20,
    "x": 60,
    "y": 983
  },
  "groupLayout": {
    "_class": "MSImmutableFreeformGroupLayout"
  },
  "hasClickThrough": false,
  "hasClippingMask": false,
  "isFixedToViewport": false,
  "isFlippedHorizontal": false,
  "isFlippedVertical": false,
  "isLocked": false,
  "isVisible": true,
  "layerListExpandedType": 0,
  "layers": [
    {
      "class": "rectangle",
      "id": "5622BCE2-BA54-43A4-94CF-E426B96D1881"
    },
    {
      "class": "shapePath",
      "id": "EE6252AE-0911-47ED-BA1A-64698E2E2A7D"
    },
    {
      "class": "shapePath",
      "id": "1213E7F5-4DD0-48BD-89E9-6B8E3AE9F78B"
    },
    {
      "class": "shapePath",
      "id": "334904A9-74CB-44CE-9FB2-A2BEB13D7411"
    },
    {
      "class": "shapePath",
      "id": "CEC976A5-E2B6-4F5F-9C44-1A8765FE869D"
    },
    {
      "class": "shapePath",
      "id": "81FE43FE-AA48-4CB5-B93C-FDC3B3D0C8D5"
    },
    {
      "class": "shapePath",
      "id": "07D87F92-5238-4AAE-BC82-3362F36BDD21"
    },
    {
      "class": "shapePath",
      "id": "FBF905AB-B900-46AC-8595-F204624E85A8"
    }
  ],
  "name": "Cursor - Pointer",
  "nameIsFixed": true,
  "resizingConstraint": 63,
  "resizingType": 0,
  "rotation": 0,
  "shouldBreakMaskChain": false,
  "style": {
    "_class": "style",
    "endMarkerType": 0,
    "miterLimit": 10,
    "startMarkerType": 0,
    "windingRule": 1
  }
}