{
  "_class": "group",
  "booleanOperation": -1,
  "clippingMaskMode": 0,
  "do_objectID": "7A31843F-6EC4-40D7-AAD7-66864DBE065D",
  "exportOptions": {
    "_class": "exportOptions",
    "do_objectID": "F8D15A5F-5FC2-4B74-A4BB-3E8D4A9C43FD",
    "exportFormats": [
    ],
    "includedLayerIds": [
    ],
    "layerOptions": 0,
    "shouldTrim": false
  },
  "frame": {
    "_class": "rect",
    "constrainProportions": false,
    "do_objectID": "DA790121-B82B-4AD8-BBDC-086B59BAED0A",
    "height": 17,
    "width": 114,
    "x": 16,
    "y": 15.85576923076923
  },
  "groupLayout": {
    "_class": "MSImmutableFreeformGroupLayout"
  },
  "hasClickThrough": false,
  "hasClippingMask": false,
  "isFixedToViewport": false,
  "isFlippedHorizontal": false,
  "isFlippedVertical": false,
  "isLocked": false,
  "isVisible": true,
  "layerListExpandedType": 0,
  "layers": [
    {
      "class": "rectangle",
      "id": "67A81ADB-243F-4B19-BA33-38DB312184D8"
    },
    {
      "class": "text",
      "id": "235ED89D-732C-4C56-A37B-2FE0E2927658"
    }
  ],
  "name": "snippet",
  "nameIsFixed": true,
  "resizingConstraint": 63,
  "resizingType": 0,
  "rotation": 0,
  "shouldBreakMaskChain": false,
  "style": {
    "_class": "style",
    "do_objectID": "F5AEE29B-91A7-40B4-BCC7-0B5E6F1E7190",
    "endMarkerType": 0,
    "miterLimit": 10,
    "startMarkerType": 0,
    "windingRule": 1
  }
}