{
  "_class": "group",
  "booleanOperation": -1,
  "clippingMaskMode": 0,
  "do_objectID": "B89F4DE3-6514-4EC2-8BFC-D709D45EEF6C",
  "exportOptions": {
    "_class": "exportOptions",
    "exportFormats": [
    ],
    "includedLayerIds": [
    ],
    "layerOptions": 0,
    "shouldTrim": false
  },
  "frame": {
    "_class": "rect",
    "constrainProportions": true,
    "height": 35,
    "width": 199,
    "x": -608,
    "y": 916
  },
  "groupLayout": {
    "_class": "MSImmutableFreeformGroupLayout"
  },
  "hasClickThrough": false,
  "hasClippingMask": false,
  "isFixedToViewport": false,
  "isFlippedHorizontal": false,
  "isFlippedVertical": false,
  "isLocked": false,
  "isVisible": true,
  "layerListExpandedType": 0,
  "layers": [
    {
      "class": "shapePath",
      "id": "2427E6DB-3EE4-4763-8075-95177AAE13F1"
    },
    {
      "class": "shapeGroup",
      "id": "EC0F93B5-6910-4987-8FA9-D64C2B76D519"
    },
    {
      "class": "shapeGroup",
      "id": "424244C2-430C-4DEE-990F-D66625176562"
    },
    {
      "class": "shapeGroup",
      "id": "D24C3862-CF59-4CFA-AC7F-8086F7DD806E"
    },
    {
      "class": "shapePath",
      "id": "4A4E80E2-0AA6-47FC-8E7E-8EA5827F5A75"
    },
    {
      "class": "shapeGroup",
      "id": "A80F9574-1AFC-463B-951D-A5B42F5924A8"
    },
    {
      "class": "shapeGroup",
      "id": "A9FF43F5-424A-430A-8C08-377A8C4A27B4"
    },
    {
      "class": "group",
      "id": "493CFC19-FAAB-4C39-A3FC-CD684F084C95"
    },
    {
      "class": "group",
      "id": "C59830E5-63A5-4B25-868B-1C585AB25922"
    },
    {
      "class": "shapeGroup",
      "id": "51125F0B-7718-4041-AE95-ED7FAB661D3A"
    }
  ],
  "maintainScrollPosition": false,
  "name": "Group 23",
  "nameIsFixed": false,
  "resizingConstraint": 63,
  "resizingType": 0,
  "rotation": 0,
  "shouldBreakMaskChain": false,
  "style": {
    "_class": "style",
    "blur": {
      "_class": "blur",
      "center": "{0.5, 0.5}",
      "isEnabled": false,
      "motionAngle": 0,
      "radius": 10,
      "saturation": 1,
      "type": 0
    },
    "borderOptions": {
      "_class": "borderOptions",
      "dashPattern": [
      ],
      "isEnabled": true,
      "lineCapStyle": 0,
      "lineJoinStyle": 0
    },
    "borders": [
    ],
    "colorControls": {
      "_class": "colorControls",
      "brightness": 0,
      "contrast": 1,
      "hue": 0,
      "isEnabled": false,
      "saturation": 1
    },
    "contextSettings": {
      "_class": "graphicsContextSettings",
      "blendMode": 0,
      "opacity": 1
    },
    "do_objectID": "2DA3C5EE-9324-4CF2-888C-04F113FC3496",
    "endMarkerType": 0,
    "fills": [
    ],
    "innerShadows": [
    ],
    "miterLimit": 10,
    "shadows": [
    ],
    "startMarkerType": 0,
    "windingRule": 1
  },
  "userInfo": {
    "com.animaapp.stc-sketch-plugin": {
      "kModelPropertiesKey": {
        "constraints": {
          "aspectRatio": {
            "constant": 35.25,
            "enabled": 1,
            "modelID": "constraint_99a9d97f-d3fd-48a2-a818-8e7cb2aff01b",
            "model_class": "ADModelConstraint",
            "model_version": 0.1,
            "multiplier": 199
          },
          "automatic": 1,
          "modelID": "viewConstraints_a1dc4922-dfd8-4c67-b768-3e8df1039519",
          "model_class": "ADModelViewConstraints",
          "model_version": 0.1,
          "scaleFactor": 1
        }
      }
    }
  }
}