{
  "_class": "symbolInstance",
  "booleanOperation": 0,
  "clippingMaskMode": 0,
  "do_objectID": "01A15F89-E1EE-4230-B41E-43E0D57B3E15",
  "exportOptions": {
    "_class": "exportOptions",
    "do_objectID": "B24BAF2C-DEDC-4E82-A245-1C676B0DF601",
    "exportFormats": [
    ],
    "includedLayerIds": [
    ],
    "layerOptions": 0,
    "shouldTrim": false
  },
  "frame": {
    "_class": "rect",
    "constrainProportions": false,
    "do_objectID": "F52F3AEB-F594-4038-9F01-A15B8C74563A",
    "height": 70,
    "width": 360,
    "x": 0,
    "y": 400
  },
  "hasClippingMask": false,
  "horizontalSpacing": 0,
  "isFixedToViewport": false,
  "isFlippedHorizontal": false,
  "isFlippedVertical": false,
  "isLocked": false,
  "isVisible": true,
  "layerListExpandedType": 0,
  "name": "Account Cell",
  "nameIsFixed": false,
  "overrideValues": [
    {
      "_class": "overrideValue",
      "overrideName": "88E991A4-AEDA-4F97-AD8B-AE49747C0ECA_stringValue",
      "value": "T&C"
    }
  ],
  "resizingConstraint": 63,
  "resizingType": 0,
  "rotation": 0,
  "scale": 1,
  "shouldBreakMaskChain": false,
  "style": {
    "_class": "style",
    "do_objectID": "1DE9021E-5CAD-4AD3-AB67-1B5060550D8A",
    "endMarkerType": 0,
    "miterLimit": 10,
    "startMarkerType": 0,
    "windingRule": 1
  },
  "symbolID": "6A99530A-CECC-4ECF-8C09-BBF9EE9DBDD1",
  "verticalSpacing": 0
}