{
  "_class": "group",
  "booleanOperation": 0,
  "clippingMaskMode": 0,
  "do_objectID": "C27D7D5D-7F72-46EE-92CA-84CA303CC0D1",
  "exportOptions": {
    "_class": "exportOptions",
    "exportFormats": [
    ],
    "includedLayerIds": [
    ],
    "layerOptions": 0,
    "shouldTrim": false
  },
  "frame": {
    "_class": "rect",
    "constrainProportions": false,
    "height": 20,
    "width": 375,
    "x": 0,
    "y": 0
  },
  "groupLayout": {
    "_class": "MSImmutableFreeformGroupLayout"
  },
  "hasClickThrough": false,
  "hasClippingMask": false,
  "isFixedToViewport": false,
  "isFlippedHorizontal": false,
  "isFlippedVertical": false,
  "isLocked": false,
  "isVisible": true,
  "layerListExpandedType": 0,
  "layers": [
    {
      "class": "rectangle",
      "id": "6134E75B-5EBD-48F7-8080-4DD73DEF25D5"
    },
    {
      "class": "text",
      "id": "20C4A364-C0E7-4857-8D42-0447E07D1E98"
    },
    {
      "class": "shapeGroup",
      "id": "A5F83827-8F71-45CE-ACA0-04014EDA4B8F"
    },
    {
      "class": "shapeGroup",
      "id": "FDA74C9A-05C5-4BE4-A645-C7AD9AD44416"
    },
    {
      "class": "shapeGroup",
      "id": "0DC846BB-13AA-41ED-B367-7AFBC5D05C22"
    },
    {
      "class": "text",
      "id": "76E5BA38-DCF5-4EBB-A062-124709D17976"
    },
    {
      "class": "text",
      "id": "400EFD26-2A37-4AA9-AA88-C6F5DCFBE611"
    },
    {
      "class": "shapeGroup",
      "id": "28D20862-8E22-43E5-9B38-89EEBCA31915"
    }
  ],
  "maintainScrollPosition": false,
  "name": "Status Bar - Light",
  "nameIsFixed": true,
  "resizingConstraint": 63,
  "resizingType": 0,
  "rotation": 0,
  "shouldBreakMaskChain": false,
  "style": {
    "_class": "style",
    "blur": {
      "_class": "blur",
      "center": "{0.5, 0.5}",
      "isEnabled": false,
      "motionAngle": 0,
      "radius": 10,
      "saturation": 1,
      "type": 0
    },
    "borderOptions": {
      "_class": "borderOptions",
      "dashPattern": [
      ],
      "isEnabled": true,
      "lineCapStyle": 0,
      "lineJoinStyle": 0
    },
    "borders": [
    ],
    "colorControls": {
      "_class": "colorControls",
      "brightness": 0,
      "contrast": 1,
      "hue": 0,
      "isEnabled": false,
      "saturation": 1
    },
    "contextSettings": {
      "_class": "graphicsContextSettings",
      "blendMode": 0,
      "opacity": 1
    },
    "do_objectID": "646D633D-84BF-4238-A732-3F7A3B4B8ABB",
    "endMarkerType": 0,
    "fills": [
    ],
    "innerShadows": [
    ],
    "miterLimit": 10,
    "shadows": [
    ],
    "startMarkerType": 0,
    "windingRule": 1
  }
}