{
  "_class": "group",
  "booleanOperation": 0,
  "clippingMaskMode": 0,
  "do_objectID": "96EF078B-CB61-4355-9C91-23B55E7B2EAC",
  "exportOptions": {
    "_class": "exportOptions",
    "do_objectID": "5F5BDEB2-D496-4929-9974-C0E2E33C7480",
    "exportFormats": [
    ],
    "includedLayerIds": [
    ],
    "layerOptions": 0,
    "shouldTrim": false
  },
  "frame": {
    "_class": "rect",
    "constrainProportions": false,
    "do_objectID": "AEF1B01C-70D7-403F-B2AA-6450C9224BB8",
    "height": 40,
    "width": 40,
    "x": 0,
    "y": 213
  },
  "groupLayout": {
    "_class": "MSImmutableFreeformGroupLayout",
    "do_objectID": "C83227E5-B599-4CD1-A656-4EB9C415D7AC"
  },
  "hasClickThrough": false,
  "hasClippingMask": false,
  "isFixedToViewport": false,
  "isFlippedHorizontal": true,
  "isFlippedVertical": false,
  "isLocked": false,
  "isVisible": true,
  "layerListExpandedType": 0,
  "layers": [
    {
      "class": "oval",
      "id": "D31BE9AE-B0BC-4D9D-99E4-4AB38AC578AB"
    },
    {
      "class": "group",
      "id": "660CCC38-AB83-4CEA-9E84-6B9C4DCD46DB"
    }
  ],
  "name": "arrow small button",
  "nameIsFixed": true,
  "resizingConstraint": 63,
  "resizingType": 0,
  "rotation": 0,
  "shouldBreakMaskChain": false,
  "style": {
    "_class": "style",
    "do_objectID": "28C59952-1ABF-4A1C-95AD-50DD9F10B2C1",
    "endMarkerType": 0,
    "miterLimit": 10,
    "startMarkerType": 0,
    "windingRule": 1
  }
}