{
  "_class": "shapePath",
  "booleanOperation": -1,
  "clippingMaskMode": 0,
  "do_objectID": "0FA60189-102C-4842-B9E5-7DACA4291FB9",
  "edited": true,
  "exportOptions": {
    "_class": "exportOptions",
    "do_objectID": "6CCF120C-50EF-4281-BF42-27C8BCDFF7A8",
    "exportFormats": [
    ],
    "includedLayerIds": [
    ],
    "layerOptions": 0,
    "shouldTrim": false
  },
  "frame": {
    "_class": "rect",
    "constrainProportions": false,
    "do_objectID": "B9DC82A7-1E11-4933-B703-960609C64872",
    "height": 0.1181595471411292,
    "width": 0.1059863482545569,
    "x": 2.842182396551275,
    "y": 27.29305158487407
  },
  "hasClippingMask": false,
  "isClosed": true,
  "isFixedToViewport": false,
  "isFlippedHorizontal": false,
  "isFlippedVertical": false,
  "isLocked": false,
  "isVisible": true,
  "layerListExpandedType": 0,
  "name": "Path",
  "nameIsFixed": false,
  "pointRadiusBehaviour": 0,
  "points": [
    {
      "_class": "curvePoint",
      "cornerRadius": 0,
      "curveFrom": "{0.41731915762034788, 0.24914207275223138}",
      "curveMode": 4,
      "curveTo": "{-0.052680842379650983, 0.50789293067948682}",
      "hasCurveFrom": true,
      "hasCurveTo": true,
      "point": "{0.47031915762034515, 0.49828414550446276}"
    },
    {
      "_class": "curvePoint",
      "cornerRadius": 0,
      "curveFrom": "{0.97031915762034515, 0.25120109814686825}",
      "curveMode": 4,
      "curveTo": "{0.39031915762034686, 0.0089224433768247818}",
      "hasCurveFrom": true,
      "hasCurveTo": true,
      "point": "{0.91631915762034311, 0}"
    },
    {
      "_class": "curvePoint",
      "cornerRadius": 0,
      "curveFrom": "{0.52631915762034964, 0.7501715854495693}",
      "curveMode": 4,
      "curveTo": "{0.99731915762034618, 0.49142072752231386}",
      "hasCurveFrom": true,
      "hasCurveTo": true,
      "point": "{0.47031915762034515, 0.49828414550446276}"
    },
    {
      "_class": "curvePoint",
      "cornerRadius": 0,
      "curveFrom": "{-0.025680842379657065, 0.74948524365133107}",
      "curveMode": 4,
      "curveTo": "{0.55231915762034589, 0.99107755662321428}",
      "hasCurveFrom": true,
      "hasCurveTo": true,
      "point": "{0.026319157620349642, 1}"
    }
  ],
  "resizingConstraint": 63,
  "resizingType": 0,
  "rotation": 0,
  "shouldBreakMaskChain": false,
  "style": {
    "_class": "style",
    "do_objectID": "5D16926B-ADFB-45B1-9474-6C2F173336F5",
    "endMarkerType": 0,
    "fills": [
      {
        "_class": "fill",
        "color": {
          "_class": "color",
          "alpha": 1,
          "blue": 0.1764705882352941,
          "green": 0.1764705882352941,
          "red": 0.1764705882352941
        },
        "fillType": 0,
        "isEnabled": true,
        "noiseIndex": 0,
        "noiseIntensity": 0,
        "patternFillType": 1,
        "patternTileScale": 1
      }
    ],
    "miterLimit": 10,
    "startMarkerType": 0,
    "windingRule": 1
  }
}