{
  "_class": "shapePath",
  "booleanOperation": -1,
  "clippingMaskMode": 0,
  "do_objectID": "18837427-DF13-4B2A-867D-FEDD330F1BEA",
  "edited": true,
  "exportOptions": {
    "_class": "exportOptions",
    "do_objectID": "8F6F50A6-9470-407B-A68F-374F6B05BBC9",
    "exportFormats": [
    ],
    "includedLayerIds": [
    ],
    "layerOptions": 0,
    "shouldTrim": false
  },
  "frame": {
    "_class": "rect",
    "constrainProportions": false,
    "do_objectID": "73423FA6-925D-41AC-BB0E-E9BE15BFBEBA",
    "height": 0.1058906030855553,
    "width": 0.105986348254568,
    "x": 26.53306197170357,
    "y": 34.99812649259395
  },
  "hasClippingMask": false,
  "isClosed": true,
  "isFixedToViewport": false,
  "isFlippedHorizontal": false,
  "isFlippedVertical": false,
  "isLocked": false,
  "isVisible": true,
  "layerListExpandedType": 0,
  "name": "Path",
  "nameIsFixed": false,
  "pointRadiusBehaviour": 0,
  "points": [
    {
      "_class": "curvePoint",
      "cornerRadius": 0,
      "curveFrom": "{-0.28992938187002437, 0.58037604517210184}",
      "curveMode": 4,
      "curveTo": "{0.36307061812993879, 0.97237604517209775}",
      "hasCurveFrom": true,
      "hasCurveTo": true,
      "point": "{0.1340706181299538, 0.8383760451720832}"
    },
    {
      "_class": "curvePoint",
      "cornerRadius": 0,
      "curveFrom": "{1.058070618129932, 0.27637604517207137}",
      "curveMode": 3,
      "curveTo": "{0.40707061812997836, -0.11862395482791044}",
      "hasCurveFrom": true,
      "hasCurveTo": true,
      "point": "{0.6340706181299538, 0.017376045172113663}"
    }
  ],
  "resizingConstraint": 63,
  "resizingType": 0,
  "rotation": 0,
  "shouldBreakMaskChain": false,
  "style": {
    "_class": "style",
    "do_objectID": "6D5076E6-3A65-444C-AB80-408218E6C3D3",
    "endMarkerType": 0,
    "fills": [
      {
        "_class": "fill",
        "color": {
          "_class": "color",
          "alpha": 1,
          "blue": 0.1764705882352941,
          "green": 0.1764705882352941,
          "red": 0.1764705882352941
        },
        "fillType": 0,
        "isEnabled": true,
        "noiseIndex": 0,
        "noiseIntensity": 0,
        "patternFillType": 1,
        "patternTileScale": 1
      }
    ],
    "miterLimit": 10,
    "startMarkerType": 0,
    "windingRule": 1
  }
}