{
  "_class": "shapePath",
  "booleanOperation": -1,
  "clippingMaskMode": 0,
  "do_objectID": "18863636-81CD-469C-BA93-28BF3A95DA6F",
  "edited": true,
  "exportOptions": {
    "_class": "exportOptions",
    "do_objectID": "42C67360-55E1-4368-878B-616D6E70C53F",
    "exportFormats": [
    ],
    "includedLayerIds": [
    ],
    "layerOptions": 0,
    "shouldTrim": false
  },
  "frame": {
    "_class": "rect",
    "constrainProportions": false,
    "do_objectID": "D95B17B2-8F32-4171-BBC8-8DEDF23C600C",
    "height": 0.105890603085566,
    "width": 0.1059863482545609,
    "x": 18.20814092655359,
    "y": 18.43350271704082
  },
  "hasClippingMask": false,
  "isClosed": true,
  "isFixedToViewport": false,
  "isFlippedHorizontal": false,
  "isFlippedVertical": false,
  "isLocked": false,
  "isVisible": true,
  "layerListExpandedType": 0,
  "name": "Path",
  "nameIsFixed": false,
  "pointRadiusBehaviour": 0,
  "points": [
    {
      "_class": "curvePoint",
      "cornerRadius": 0,
      "curveFrom": "{1.0421504313180492, 0.18619442360116523}",
      "curveMode": 3,
      "curveTo": "{0.27815043131803918, -0.087805576398835683}",
      "hasCurveFrom": true,
      "hasCurveTo": true,
      "point": "{0.54415043131803031, 0.0071944236011916018}"
    },
    {
      "_class": "curvePoint",
      "cornerRadius": 0,
      "curveFrom": "{-0.30284956868194968, 0.78619442360118796}",
      "curveMode": 4,
      "curveTo": "{0.46115043131803191, 1.0601944236011889}",
      "hasCurveFrom": true,
      "hasCurveTo": true,
      "point": "{0.19515043131804077, 0.96819442360117591}"
    }
  ],
  "resizingConstraint": 63,
  "resizingType": 0,
  "rotation": 0,
  "shouldBreakMaskChain": false,
  "style": {
    "_class": "style",
    "do_objectID": "B34FBE3E-73F9-4124-8CC3-E83ECECAA409",
    "endMarkerType": 0,
    "fills": [
      {
        "_class": "fill",
        "color": {
          "_class": "color",
          "alpha": 1,
          "blue": 0.1764705882352941,
          "green": 0.1764705882352941,
          "red": 0.1764705882352941
        },
        "fillType": 0,
        "isEnabled": true,
        "noiseIndex": 0,
        "noiseIntensity": 0,
        "patternFillType": 1,
        "patternTileScale": 1
      }
    ],
    "miterLimit": 10,
    "startMarkerType": 0,
    "windingRule": 1
  }
}