{
  "_class": "shapePath",
  "booleanOperation": -1,
  "clippingMaskMode": 0,
  "do_objectID": "1B2E0AE9-1AB6-4E98-9648-3AA3C4AC53D4",
  "edited": true,
  "exportOptions": {
    "_class": "exportOptions",
    "do_objectID": "B85208B1-72F7-444A-B93C-04FDBB517BC2",
    "exportFormats": [
    ],
    "includedLayerIds": [
    ],
    "layerOptions": 0,
    "shouldTrim": false
  },
  "frame": {
    "_class": "rect",
    "constrainProportions": false,
    "do_objectID": "C0F86263-222B-4D20-912B-936C2F6C2C91",
    "height": 0.1058906030855979,
    "width": 0.1059863482545538,
    "x": 15.18408658157331,
    "y": 33.79576437280759
  },
  "hasClippingMask": false,
  "isClosed": true,
  "isFixedToViewport": false,
  "isFlippedHorizontal": false,
  "isFlippedVertical": false,
  "isLocked": false,
  "isVisible": true,
  "layerListExpandedType": 0,
  "name": "Path",
  "nameIsFixed": false,
  "pointRadiusBehaviour": 0,
  "points": [
    {
      "_class": "curvePoint",
      "cornerRadius": 0,
      "curveFrom": "{-0.27057071396129118, 0.7024451264696836}",
      "curveMode": 3,
      "curveTo": "{0.41142928603872519, 0.9494451264696977}",
      "hasCurveFrom": true,
      "hasCurveTo": true,
      "point": "{0.174429286038702, 0.86244512646970861}"
    },
    {
      "_class": "curvePoint",
      "cornerRadius": 0,
      "curveFrom": "{0.9284292860387211, 0.16744512646965859}",
      "curveMode": 3,
      "curveTo": "{0.24842928603871428, -0.078554873530322311}",
      "hasCurveFrom": true,
      "hasCurveTo": true,
      "point": "{0.48542928603870905, 0.0064451264696572252}"
    }
  ],
  "resizingConstraint": 63,
  "resizingType": 0,
  "rotation": 0,
  "shouldBreakMaskChain": false,
  "style": {
    "_class": "style",
    "do_objectID": "1D015808-DF85-4EC6-97D8-535E889FC212",
    "endMarkerType": 0,
    "fills": [
      {
        "_class": "fill",
        "color": {
          "_class": "color",
          "alpha": 1,
          "blue": 0.1764705882352941,
          "green": 0.1764705882352941,
          "red": 0.1764705882352941
        },
        "fillType": 0,
        "isEnabled": true,
        "noiseIndex": 0,
        "noiseIntensity": 0,
        "patternFillType": 1,
        "patternTileScale": 1
      }
    ],
    "miterLimit": 10,
    "startMarkerType": 0,
    "windingRule": 1
  }
}