{
  "_class": "shapePath",
  "booleanOperation": -1,
  "clippingMaskMode": 0,
  "do_objectID": "21364716-C82E-412E-B515-A881FDC3FD45",
  "edited": true,
  "exportOptions": {
    "_class": "exportOptions",
    "do_objectID": "2AA5E08D-5703-4C6D-88A6-58F69084111A",
    "exportFormats": [
    ],
    "includedLayerIds": [
    ],
    "layerOptions": 0,
    "shouldTrim": false
  },
  "frame": {
    "_class": "rect",
    "constrainProportions": false,
    "do_objectID": "023B0991-187D-46B8-872C-7C7538BD5753",
    "height": 0.1297565376978334,
    "width": 0.1427010589143212,
    "x": 13.33025106273959,
    "y": 16.69040159607588
  },
  "hasClippingMask": false,
  "isClosed": true,
  "isFixedToViewport": false,
  "isFlippedHorizontal": false,
  "isFlippedVertical": false,
  "isLocked": false,
  "isVisible": true,
  "layerListExpandedType": 0,
  "name": "Path",
  "nameIsFixed": false,
  "pointRadiusBehaviour": 0,
  "points": [
    {
      "_class": "curvePoint",
      "cornerRadius": 0,
      "curveFrom": "{0.39306945225639667, 0.118749999999999}",
      "curveMode": 4,
      "curveTo": "{0.25370864232465601, 0.54562499999999592}",
      "hasCurveFrom": true,
      "hasCurveTo": true,
      "point": "{0.17122979563034663, 0.17749999999999552}"
    },
    {
      "_class": "curvePoint",
      "cornerRadius": 0,
      "curveFrom": "{0.89249308948122219, 0.2449999999999983}",
      "curveMode": 4,
      "curveTo": "{0.61604674814721738, 0.059374999999999498}",
      "hasCurveFrom": true,
      "hasCurveTo": true,
      "point": "{0.83845522440564457, 0}"
    },
    {
      "_class": "curvePoint",
      "cornerRadius": 0,
      "curveFrom": "{0.66667169542854765, 0.82312499999998967}",
      "curveMode": 4,
      "curveTo": "{0.9465309545567997, 0.48937499999999362}",
      "hasCurveFrom": true,
      "hasCurveTo": true,
      "point": "{1, 0.73374999999998891}"
    },
    {
      "_class": "curvePoint",
      "cornerRadius": 0,
      "curveFrom": "{-0.0022601922438819462, 0.68624999999999292}",
      "curveMode": 4,
      "curveTo": "{0.33334339085707926, 0.91187500000000521}",
      "hasCurveFrom": true,
      "hasCurveTo": true,
      "point": "{1.508628561078009e-05, 1}"
    }
  ],
  "resizingConstraint": 63,
  "resizingType": 0,
  "rotation": 0,
  "shouldBreakMaskChain": false,
  "style": {
    "_class": "style",
    "do_objectID": "DD323C47-789F-45EB-AFB7-91E8C13DDE93",
    "endMarkerType": 0,
    "fills": [
      {
        "_class": "fill",
        "color": {
          "_class": "color",
          "alpha": 1,
          "blue": 0.1764705882352941,
          "green": 0.1764705882352941,
          "red": 0.1764705882352941
        },
        "fillType": 0,
        "isEnabled": true,
        "noiseIndex": 0,
        "noiseIntensity": 0,
        "patternFillType": 1,
        "patternTileScale": 1
      }
    ],
    "miterLimit": 10,
    "startMarkerType": 0,
    "windingRule": 1
  }
}