{
  "_class": "shapePath",
  "booleanOperation": -1,
  "clippingMaskMode": 0,
  "do_objectID": "2BA43D17-9BCC-4763-83B9-4D10A2DA88ED",
  "edited": true,
  "exportOptions": {
    "_class": "exportOptions",
    "do_objectID": "3D85023A-76E2-4EDE-8AF4-4DF997798E6D",
    "exportFormats": [
    ],
    "includedLayerIds": [
    ],
    "layerOptions": 0,
    "shouldTrim": false
  },
  "frame": {
    "_class": "rect",
    "constrainProportions": false,
    "do_objectID": "8DF187DF-0DAD-457E-ADDF-8E01D506142A",
    "height": 0.35764145702964,
    "width": 0.2684138895824564,
    "x": 4.349330074650496,
    "y": 22.75822278800694
  },
  "hasClippingMask": false,
  "isClosed": true,
  "isFixedToViewport": false,
  "isFlippedHorizontal": false,
  "isFlippedVertical": false,
  "isLocked": false,
  "isVisible": true,
  "layerListExpandedType": 0,
  "name": "Path",
  "nameIsFixed": false,
  "pointRadiusBehaviour": 0,
  "points": [
    {
      "_class": "curvePoint",
      "cornerRadius": 0,
      "curveFrom": "{1.0462776547145298, 0.9421768707483007}",
      "curveMode": 4,
      "curveTo": "{0.38490601086158333, 0.76938775510204305}",
      "hasCurveFrom": true,
      "hasCurveTo": true,
      "point": "{0.97672325229743995, 0.83514739229024304}"
    },
    {
      "_class": "curvePoint",
      "cornerRadius": 0,
      "curveFrom": "{0.66493808320169578, 0.96984126984127428}",
      "curveMode": 4,
      "curveTo": "{0.94769184954943564, 0.97324263038548886}",
      "hasCurveFrom": true,
      "hasCurveTo": true,
      "point": "{0.84245301458792443, 1}"
    },
    {
      "_class": "curvePoint",
      "cornerRadius": 0,
      "curveFrom": "{0.34680229475482777, 0.62721088435374239}",
      "curveMode": 4,
      "curveTo": "{0.48742315181546914, 0.94104308390022917}",
      "hasCurveFrom": true,
      "hasCurveTo": true,
      "point": "{0.40184099579791777, 0.79841269841269724}"
    },
    {
      "_class": "curvePoint",
      "cornerRadius": 0,
      "curveFrom": "{0.083402796905758761, 0.25850340136053968}",
      "curveMode": 4,
      "curveTo": "{0.29115877282115576, 0.45532879818594713}",
      "hasCurveFrom": true,
      "hasCurveTo": true,
      "point": "{0.23581766133277474, 0.283673469387761}"
    },
    {
      "_class": "curvePoint",
      "cornerRadius": 0,
      "curveFrom": "{0.078261819335798954, -0.080952380952373892}",
      "curveMode": 3,
      "curveTo": "{-0.042399948335589514, 0.16916099773242102}",
      "hasCurveFrom": true,
      "hasCurveTo": true,
      "point": "{0.013545984043375623, 0.053287981859413219}"
    },
    {
      "_class": "curvePoint",
      "cornerRadius": 0,
      "curveFrom": "{0.30174313840636419, 0.11315192743764645}",
      "curveMode": 4,
      "curveTo": "{0.23884176578569113, 0.095464852607720349}",
      "hasCurveFrom": true,
      "hasCurveTo": true,
      "point": "{0.2672683476431113, 0.11927437641723526}"
    },
    {
      "_class": "curvePoint",
      "cornerRadius": 0,
      "curveFrom": "{0.4559724655051326, 0.066893424036284413}",
      "curveMode": 4,
      "curveTo": "{0.33591551872432612, 0.10702947845805763}",
      "hasCurveFrom": true,
      "hasCurveTo": true,
      "point": "{0.37099513037816534, 0.10045351473922474}"
    },
    {
      "_class": "curvePoint",
      "cornerRadius": 0,
      "curveFrom": "{0.62804400887610845, 0.019274376417241699}",
      "curveMode": 4,
      "curveTo": "{0.53943774840564063, 0.0079365079365135635}",
      "hasCurveFrom": true,
      "hasCurveTo": true,
      "point": "{0.62562472531377611, 0}"
    },
    {
      "_class": "curvePoint",
      "cornerRadius": 0,
      "curveFrom": "{0.65768023251469465, 0.048526077097517974}",
      "curveMode": 4,
      "curveTo": "{0.62743918798552645, 0.0365079365079495}",
      "hasCurveFrom": true,
      "hasCurveTo": true,
      "point": "{0.62713677754023323, 0.053968253968266447}"
    },
    {
      "_class": "curvePoint",
      "cornerRadius": 0,
      "curveFrom": "{1.0211775877553193, 0.34308390022676305}",
      "curveMode": 4,
      "curveTo": "{0.68882850837974019, 0.042630385487525423}",
      "hasCurveFrom": true,
      "hasCurveTo": true,
      "point": "{0.71906955290891061, 0.037414965986398985}"
    }
  ],
  "resizingConstraint": 63,
  "resizingType": 0,
  "rotation": 0,
  "shouldBreakMaskChain": false,
  "style": {
    "_class": "style",
    "do_objectID": "7C9481FE-4BD5-4D9B-ADCF-30F34349876F",
    "endMarkerType": 0,
    "fills": [
      {
        "_class": "fill",
        "color": {
          "_class": "color",
          "alpha": 1,
          "blue": 0.1764705882352941,
          "green": 0.1764705882352941,
          "red": 0.1764705882352941
        },
        "fillType": 0,
        "isEnabled": true,
        "noiseIndex": 0,
        "noiseIntensity": 0,
        "patternFillType": 1,
        "patternTileScale": 1
      }
    ],
    "miterLimit": 10,
    "startMarkerType": 0,
    "windingRule": 1
  }
}