{
  "_class": "shapePath",
  "booleanOperation": -1,
  "clippingMaskMode": 0,
  "do_objectID": "3FC3A139-0375-4CFA-9AD7-A0B0678AD008",
  "edited": true,
  "exportOptions": {
    "_class": "exportOptions",
    "do_objectID": "AE61A11E-F04F-4390-9123-ED1FAD6ABEC3",
    "exportFormats": [
    ],
    "includedLayerIds": [
    ],
    "layerOptions": 0,
    "shouldTrim": false
  },
  "frame": {
    "_class": "rect",
    "constrainProportions": false,
    "do_objectID": "DEC5E503-3EB0-4958-821F-01FE0E9A93DD",
    "height": 0.1058906030855624,
    "width": 0.105986348254568,
    "x": 18.73684533087817,
    "y": 24.05820646902307
  },
  "hasClippingMask": false,
  "isClosed": true,
  "isFixedToViewport": false,
  "isFlippedHorizontal": false,
  "isFlippedVertical": false,
  "isLocked": false,
  "isVisible": true,
  "layerListExpandedType": 0,
  "name": "Path",
  "nameIsFixed": false,
  "pointRadiusBehaviour": 0,
  "points": [
    {
      "_class": "curvePoint",
      "cornerRadius": 0,
      "curveFrom": "{1.054699359406186, 0.27618041226128298}",
      "curveMode": 3,
      "curveTo": "{0.40669935940618984, -0.11781958773872248}",
      "hasCurveFrom": true,
      "hasCurveTo": true,
      "point": "{0.6306993594062078, 0.01718041226126843}"
    },
    {
      "_class": "curvePoint",
      "cornerRadius": 0,
      "curveFrom": "{-0.28930064059380811, 0.57918041226128025}",
      "curveMode": 3,
      "curveTo": "{0.3596993594061928, 0.97518041226123842}",
      "hasCurveFrom": true,
      "hasCurveTo": true,
      "point": "{0.13369935940619371, 0.83618041226122841}"
    }
  ],
  "resizingConstraint": 63,
  "resizingType": 0,
  "rotation": 0,
  "shouldBreakMaskChain": false,
  "style": {
    "_class": "style",
    "do_objectID": "027C684B-B150-4368-9F08-6B535C487E70",
    "endMarkerType": 0,
    "fills": [
      {
        "_class": "fill",
        "color": {
          "_class": "color",
          "alpha": 1,
          "blue": 0.1764705882352941,
          "green": 0.1764705882352941,
          "red": 0.1764705882352941
        },
        "fillType": 0,
        "isEnabled": true,
        "noiseIndex": 0,
        "noiseIntensity": 0,
        "patternFillType": 1,
        "patternTileScale": 1
      }
    ],
    "miterLimit": 10,
    "startMarkerType": 0,
    "windingRule": 1
  }
}