{
  "_class": "shapePath",
  "booleanOperation": -1,
  "clippingMaskMode": 0,
  "do_objectID": "55178C59-46BB-4F71-B9BB-8DA8E405B647",
  "edited": true,
  "exportOptions": {
    "_class": "exportOptions",
    "do_objectID": "3C96FF96-3C17-4478-B4F5-0827DEDCAAFE",
    "exportFormats": [
    ],
    "includedLayerIds": [
    ],
    "layerOptions": 0,
    "shouldTrim": false
  },
  "frame": {
    "_class": "rect",
    "constrainProportions": false,
    "do_objectID": "1A3E0AE9-149D-45C5-9A22-E208B3EB3A6C",
    "height": 0.1058906030855802,
    "width": 0.1059863482545502,
    "x": 16.79745838895097,
    "y": 24.92277357975217
  },
  "hasClippingMask": false,
  "isClosed": true,
  "isFixedToViewport": false,
  "isFlippedHorizontal": false,
  "isFlippedVertical": false,
  "isLocked": false,
  "isVisible": true,
  "layerListExpandedType": 0,
  "name": "Path",
  "nameIsFixed": false,
  "pointRadiusBehaviour": 0,
  "points": [
    {
      "_class": "curvePoint",
      "cornerRadius": 0,
      "curveFrom": "{1.056259838233558, 0.27538904321403379}",
      "curveMode": 3,
      "curveTo": "{0.4052598382335475, -0.12161095678595757}",
      "hasCurveFrom": true,
      "hasCurveTo": true,
      "point": "{0.63325983823355614, 0.018389043214085632}"
    },
    {
      "_class": "curvePoint",
      "cornerRadius": 0,
      "curveFrom": "{-0.29074016176645046, 0.57538904321404516}",
      "curveMode": 3,
      "curveTo": "{0.36125983823356478, 0.97638904321405562}",
      "hasCurveFrom": true,
      "hasCurveTo": true,
      "point": "{0.13525983823356569, 0.83638904321406926}"
    }
  ],
  "resizingConstraint": 63,
  "resizingType": 0,
  "rotation": 0,
  "shouldBreakMaskChain": false,
  "style": {
    "_class": "style",
    "do_objectID": "15E31895-6120-4D3B-B058-6D684D9DBB43",
    "endMarkerType": 0,
    "fills": [
      {
        "_class": "fill",
        "color": {
          "_class": "color",
          "alpha": 1,
          "blue": 0.1764705882352941,
          "green": 0.1764705882352941,
          "red": 0.1764705882352941
        },
        "fillType": 0,
        "isEnabled": true,
        "noiseIndex": 0,
        "noiseIntensity": 0,
        "patternFillType": 1,
        "patternTileScale": 1
      }
    ],
    "miterLimit": 10,
    "startMarkerType": 0,
    "windingRule": 1
  }
}