{
  "_class": "shapePath",
  "booleanOperation": -1,
  "clippingMaskMode": 0,
  "do_objectID": "56FC8C1A-C830-4546-AA1B-B14F09451309",
  "edited": true,
  "exportOptions": {
    "_class": "exportOptions",
    "do_objectID": "F331EEF7-C05C-4A4E-96E1-1E326F334303",
    "exportFormats": [
    ],
    "includedLayerIds": [
    ],
    "layerOptions": 0,
    "shouldTrim": false
  },
  "frame": {
    "_class": "rect",
    "constrainProportions": false,
    "do_objectID": "616BB25E-4025-4C36-89E9-454261D0BF56",
    "height": 0.1058906030855553,
    "width": 0.1059863482545751,
    "x": 20.14651367462049,
    "y": 15.65102653581007
  },
  "hasClippingMask": false,
  "isClosed": true,
  "isFixedToViewport": false,
  "isFlippedHorizontal": false,
  "isFlippedVertical": false,
  "isLocked": false,
  "isVisible": true,
  "layerListExpandedType": 0,
  "name": "Path",
  "nameIsFixed": false,
  "pointRadiusBehaviour": 0,
  "points": [
    {
      "_class": "curvePoint",
      "cornerRadius": 0,
      "curveFrom": "{1.0390844617713242, 0.18931065324778729}",
      "curveMode": 3,
      "curveTo": "{0.27808446177132851, -0.088689346752232723}",
      "hasCurveFrom": true,
      "hasCurveTo": true,
      "point": "{0.54408446177134806, 0.0073106532477709152}"
    },
    {
      "_class": "curvePoint",
      "cornerRadius": 0,
      "curveFrom": "{-0.30191553822865558, 0.78931065324781002}",
      "curveMode": 3,
      "curveTo": "{0.46008446177134488, 1.0663106532477968}",
      "hasCurveFrom": true,
      "hasCurveTo": true,
      "point": "{0.19408446177132532, 0.96831065324778365}"
    }
  ],
  "resizingConstraint": 63,
  "resizingType": 0,
  "rotation": 0,
  "shouldBreakMaskChain": false,
  "style": {
    "_class": "style",
    "do_objectID": "93285A3B-59C1-47F6-BDC9-DDE7AAABDB76",
    "endMarkerType": 0,
    "fills": [
      {
        "_class": "fill",
        "color": {
          "_class": "color",
          "alpha": 1,
          "blue": 0.1764705882352941,
          "green": 0.1764705882352941,
          "red": 0.1764705882352941
        },
        "fillType": 0,
        "isEnabled": true,
        "noiseIndex": 0,
        "noiseIntensity": 0,
        "patternFillType": 1,
        "patternTileScale": 1
      }
    ],
    "miterLimit": 10,
    "startMarkerType": 0,
    "windingRule": 1
  }
}