{
  "_class": "shapePath",
  "booleanOperation": -1,
  "clippingMaskMode": 0,
  "do_objectID": "5931922F-B7FC-4EAE-9404-B6BEBDE5A392",
  "edited": true,
  "exportOptions": {
    "_class": "exportOptions",
    "do_objectID": "84887356-17CF-4CC0-8FBC-3272FD497883",
    "exportFormats": [
    ],
    "includedLayerIds": [
    ],
    "layerOptions": 0,
    "shouldTrim": false
  },
  "frame": {
    "_class": "rect",
    "constrainProportions": false,
    "do_objectID": "5B374FBD-325A-48AC-8778-73713D9563FD",
    "height": 3.422571975288556,
    "width": 2.136749717743022,
    "x": 21.82440965886037,
    "y": 3.21534735182793
  },
  "hasClippingMask": false,
  "isClosed": true,
  "isFixedToViewport": false,
  "isFlippedHorizontal": false,
  "isFlippedVertical": false,
  "isLocked": false,
  "isVisible": true,
  "layerListExpandedType": 0,
  "name": "Path",
  "nameIsFixed": false,
  "pointRadiusBehaviour": 0,
  "points": [
    {
      "_class": "curvePoint",
      "cornerRadius": 0,
      "curveFrom": "{0.98225953502507268, 0.74148757197355597}",
      "curveMode": 4,
      "curveTo": "{0.97485184622397891, 0.74561050162310649}",
      "hasCurveFrom": false,
      "hasCurveTo": true,
      "point": "{0.98225953502507268, 0.74148757197355597}"
    },
    {
      "_class": "curvePoint",
      "cornerRadius": 0,
      "curveFrom": "{1, 0.0092410492145104869}",
      "curveMode": 1,
      "curveTo": "{1, 0.0092410492145104869}",
      "hasCurveFrom": false,
      "hasCurveTo": false,
      "point": "{1, 0.0092410492145104869}"
    },
    {
      "_class": "curvePoint",
      "cornerRadius": 0,
      "curveFrom": "{0.97447196474700004, 0.017510603511598118}",
      "curveMode": 4,
      "curveTo": "{0.97116699589728162, 0.0089567092386793733}",
      "hasCurveFrom": true,
      "hasCurveTo": false,
      "point": "{0.97116699589728162, 0.0089567092386793733}"
    },
    {
      "_class": "curvePoint",
      "cornerRadius": 0,
      "curveFrom": "{0.96634250113964559, 0.036916806862071216}",
      "curveMode": 4,
      "curveTo": "{0.97777693359671858, 0.026064497784518206}",
      "hasCurveFrom": true,
      "hasCurveTo": true,
      "point": "{0.98111989059413618, 0.034665782053409026}"
    },
    {
      "_class": "curvePoint",
      "cornerRadius": 0,
      "curveFrom": "{0.93291293116547769, 0.032083027272942301}",
      "curveMode": 4,
      "curveTo": "{0.95145114724206181, 0.039144136672748041}",
      "hasCurveFrom": true,
      "hasCurveTo": true,
      "point": "{0.93652180519677874, 0.041395161481411577}"
    },
    {
      "_class": "curvePoint",
      "cornerRadius": 0,
      "curveFrom": "{0.9363698526059886, 0.012013363978864171}",
      "curveMode": 4,
      "curveTo": "{0.92934204528187359, 0.022841978058431817}",
      "hasCurveFrom": true,
      "hasCurveTo": true,
      "point": "{0.92573317125057031, 0.013600928843921329}"
    },
    {
      "_class": "curvePoint",
      "cornerRadius": 0,
      "curveFrom": "{0.95737729828293727, 0.0088145392507644905}",
      "curveMode": 4,
      "curveTo": "{0.94685458137061229, 0.01040210411582165}",
      "hasCurveFrom": false,
      "hasCurveTo": true,
      "point": "{0.95737729828293727, 0.0088145392507644905}"
    },
    {
      "_class": "curvePoint",
      "cornerRadius": 0,
      "curveFrom": "{0.67956997416805898, 0.006208089472312401}",
      "curveMode": 1,
      "curveTo": "{0.67956997416805898, 0.006208089472312401}",
      "hasCurveFrom": false,
      "hasCurveTo": false,
      "point": "{0.67956997416805898, 0.006208089472312401}"
    },
    {
      "_class": "curvePoint",
      "cornerRadius": 0,
      "curveFrom": "{0.69529706731499874, 0.20951117219154985}",
      "curveMode": 4,
      "curveTo": "{0.67451755052423656, 0.21313650688339686}",
      "hasCurveFrom": true,
      "hasCurveTo": false,
      "point": "{0.67451755052423656, 0.21313650688339686}"
    },
    {
      "_class": "curvePoint",
      "cornerRadius": 0,
      "curveFrom": "{0.72716912323355221, 0.19069734379072567}",
      "curveMode": 4,
      "curveTo": "{0.69582890138276787, 0.19813757315830668}",
      "hasCurveFrom": true,
      "hasCurveTo": true,
      "point": "{0.71235374563136244, 0.1929246736014025}"
    },
    {
      "_class": "curvePoint",
      "cornerRadius": 0,
      "curveFrom": "{0.7792888618750945, 0.18280690946141195}",
      "curveMode": 2,
      "curveTo": "{0.74206047713113599, 0.18844631898206349}",
      "hasCurveFrom": true,
      "hasCurveTo": true,
      "point": "{0.75698981917641683, 0.18619529417339994}"
    },
    {
      "_class": "curvePoint",
      "cornerRadius": 0,
      "curveFrom": "{0.82020209694575241, 0.19053147880482407}",
      "curveMode": 4,
      "curveTo": "{0.78779820695942993, 0.1934222685591073}",
      "hasCurveFrom": true,
      "hasCurveTo": true,
      "point": "{0.80686825710378318, 0.19335118356514985}"
    },
    {
      "_class": "curvePoint",
      "cornerRadius": 0,
      "curveFrom": "{0.88766904725725582, 0.17276023031538021}",
      "curveMode": 4,
      "curveTo": "{0.83243428050448232, 0.18730895907873904}",
      "hasCurveFrom": true,
      "hasCurveTo": true,
      "point": "{0.82377298282935874, 0.17612492002938149}"
    },
    {
      "_class": "curvePoint",
      "cornerRadius": 0,
      "curveFrom": "{0.80071417717672122, 0.2255289908300363}",
      "curveMode": 4,
      "curveTo": "{0.84181735298586857, 0.21962893633154038}",
      "hasCurveFrom": true,
      "hasCurveTo": true,
      "point": "{0.78992554323051278, 0.21067222709286101}"
    },
    {
      "_class": "curvePoint",
      "cornerRadius": 0,
      "curveFrom": "{0.84679380033429696, 0.2363812999075893}",
      "curveMode": 4,
      "curveTo": "{0.82305120802309806, 0.22853825557424767}",
      "hasCurveFrom": true,
      "hasCurveTo": true,
      "point": "{0.84531226257407655, 0.23166599530838991}"
    },
    {
      "_class": "curvePoint",
      "cornerRadius": 0,
      "curveFrom": "{0.85492326394165152, 0.25964978792976845}",
      "curveMode": 2,
      "curveTo": "{0.84937699437775482, 0.24090704452290174}",
      "hasCurveFrom": true,
      "hasCurveTo": true,
      "point": "{0.85074456769487994, 0.24559865412411444}"
    },
    {
      "_class": "curvePoint",
      "cornerRadius": 0,
      "curveFrom": "{0.84493238109709767, 0.27777646138900086}",
      "curveMode": 4,
      "curveTo": "{0.8400698981917647, 0.26472051749875641}",
      "hasCurveFrom": true,
      "hasCurveTo": true,
      "point": "{0.83927214709010778, 0.27673388147762057}"
    },
    {
      "_class": "curvePoint",
      "cornerRadius": 0,
      "curveFrom": "{0.87023248746391113, 0.27602303153804214}",
      "curveMode": 2,
      "curveTo": "{0.8561008965202872, 0.27175793190057546}",
      "hasCurveFrom": true,
      "hasCurveTo": true,
      "point": "{0.86149521349339142, 0.27339288676160467}"
    },
    {
      "_class": "curvePoint",
      "cornerRadius": 0,
      "curveFrom": "{0.89462087828597459, 0.29784612468307903}",
      "curveMode": 4,
      "curveTo": "{0.86483817049080691, 0.29696940975760033}",
      "hasCurveFrom": true,
      "hasCurveTo": true,
      "point": "{0.87228384743959986, 0.30116342440110822}"
    },
    {
      "_class": "curvePoint",
      "cornerRadius": 0,
      "curveFrom": "{0.9078787418325498, 0.2863777456578917}",
      "curveMode": 4,
      "curveTo": "{0.89446892569518432, 0.28585645570220158}",
      "hasCurveFrom": true,
      "hasCurveTo": true,
      "point": "{0.9114496277161539, 0.28059616614932531}"
    },
    {
      "_class": "curvePoint",
      "cornerRadius": 0,
      "curveFrom": "{0.91866737577875834, 0.31128118854109876}",
      "curveMode": 2,
      "curveTo": "{0.92801246011244554, 0.30355661919768662}",
      "hasCurveFrom": true,
      "hasCurveTo": true,
      "point": "{0.92223826166236245, 0.30834300879084348}"
    },
    {
      "_class": "curvePoint",
      "cornerRadius": 0,
      "curveFrom": "{0.88668135541710946, 0.31452740326517054}",
      "curveMode": 4,
      "curveTo": "{0.90426986780124652, 0.30914863872236609}",
      "hasCurveFrom": true,
      "hasCurveTo": true,
      "point": "{0.89990123081598561, 0.31173139350283147}"
    },
    {
      "_class": "curvePoint",
      "cornerRadius": 0,
      "curveFrom": "{0.89697614344324594, 0.32770182214534449}",
      "curveMode": 4,
      "curveTo": "{0.87441118371068272, 0.31774992299125693}",
      "hasCurveFrom": true,
      "hasCurveTo": true,
      "point": "{0.88307248138580841, 0.32898135203658518}"
    },
    {
      "_class": "curvePoint",
      "cornerRadius": 0,
      "curveFrom": "{0.89686217900015275, 0.34080515603156103}",
      "curveMode": 4,
      "curveTo": "{0.91034797143291446, 0.32706205719972481}",
      "hasCurveFrom": true,
      "hasCurveTo": true,
      "point": "{0.91065187661449709, 0.33947823614434963}"
    },
    {
      "_class": "curvePoint",
      "cornerRadius": 0,
      "curveFrom": "{0.87570278073241159, 0.33009501694192289}",
      "curveMode": 4,
      "curveTo": "{0.88356632730588047, 0.34139753098121001}",
      "hasCurveFrom": true,
      "hasCurveTo": true,
      "point": "{0.88307248138580841, 0.32898135203658518}"
    },
    {
      "_class": "curvePoint",
      "cornerRadius": 0,
      "curveFrom": "{0.84759155143595166, 0.33516574651091086}",
      "curveMode": 4,
      "curveTo": "{0.86821911563592158, 0.33123237684524737}",
      "hasCurveFrom": true,
      "hasCurveTo": true,
      "point": "{0.86081142683482781, 0.33232234675259975}"
    },
    {
      "_class": "curvePoint",
      "cornerRadius": 0,
      "curveFrom": "{0.78650660993769894, 0.34999881525010079}",
      "curveMode": 4,
      "curveTo": "{0.83524540343412867, 0.33838826623699725}",
      "hasCurveFrom": true,
      "hasCurveTo": true,
      "point": "{0.84379273666616117, 0.34957230528635347}"
    },
    {
      "_class": "curvePoint",
      "cornerRadius": 0,
      "curveFrom": "{0.69259990882844558, 0.3233893325119071}",
      "curveMode": 4,
      "curveTo": "{0.77552803525300096, 0.30298793924602441}",
      "hasCurveFrom": true,
      "hasCurveTo": true,
      "point": "{0.69408144658866389, 0.32808094211311978}"
    },
    {
      "_class": "curvePoint",
      "cornerRadius": 0,
      "curveFrom": "{0.68606594742440485, 0.30557069402649112}",
      "curveMode": 4,
      "curveTo": "{0.69001671478498772, 0.31888728289458135}",
      "hasCurveFrom": true,
      "hasCurveTo": true,
      "point": "{0.68868712961555967, 0.31424306328933937}"
    },
    {
      "_class": "curvePoint",
      "cornerRadius": 0,
      "curveFrom": "{0.72044522109101983, 0.29467099495296473}",
      "curveMode": 4,
      "curveTo": "{0.68606594742440485, 0.29715896974148726}",
      "hasCurveFrom": true,
      "hasCurveTo": true,
      "point": "{0.70555386719343605, 0.29692201976162824}"
    },
    {
      "_class": "curvePoint",
      "cornerRadius": 0,
      "curveFrom": "{0.74813858076280171, 0.28154396606876281}",
      "curveMode": 4,
      "curveTo": "{0.73526059869320748, 0.29244366514228787}",
      "hasCurveFrom": true,
      "hasCurveTo": true,
      "point": "{0.75011396444309431, 0.29019264033362568}"
    },
    {
      "_class": "curvePoint",
      "cornerRadius": 0,
      "curveFrom": "{0.76052271691232398, 0.24789706892874869}",
      "curveMode": 4,
      "curveTo": "{0.74696094818416603, 0.27325071677368845}",
      "hasCurveFrom": true,
      "hasCurveTo": true,
      "point": "{0.76698070202097068, 0.27294268179987197}"
    },
    {
      "_class": "curvePoint",
      "cornerRadius": 0,
      "curveFrom": "{0.67307400091171521, 0.27386678672132275}",
      "curveMode": 4,
      "curveTo": "{0.71049232639416526, 0.26730327227922179}",
      "hasCurveFrom": false,
      "hasCurveTo": true,
      "point": "{0.67307400091171521, 0.27386678672132275}"
    },
    {
      "_class": "curvePoint",
      "cornerRadius": 0,
      "curveFrom": "{0.67349187053639326, 0.43359476814444387}",
      "curveMode": 4,
      "curveTo": "{0.66900926910803904, 0.43897353268724965}",
      "hasCurveFrom": true,
      "hasCurveTo": false,
      "point": "{0.66900926910803904, 0.43897353268724965}"
    },
    {
      "_class": "curvePoint",
      "cornerRadius": 0,
      "curveFrom": "{0.70536392645494661, 0.43449517806790927}",
      "curveMode": 3,
      "curveTo": "{0.68139340525755909, 0.42906902352913279}",
      "hasCurveFrom": true,
      "hasCurveTo": true,
      "point": "{0.68640784075368444, 0.43018268843447188}"
    },
    {
      "_class": "curvePoint",
      "cornerRadius": 0,
      "curveFrom": "{0.67121258167451803, 0.45255076653318427}",
      "curveMode": 4,
      "curveTo": "{0.68321683634705921, 0.45532308129753796}",
      "hasCurveFrom": true,
      "hasCurveTo": true,
      "point": "{0.67318796535481062, 0.45297727649693159}"
    },
    {
      "_class": "curvePoint",
      "cornerRadius": 0,
      "curveFrom": "{0.66874335207415347, 0.4510816766580566}",
      "curveMode": 4,
      "curveTo": "{0.66988299650508998, 0.45181622159562046}",
      "hasCurveFrom": false,
      "hasCurveTo": true,
      "point": "{0.66874335207415347, 0.4510816766580566}"
    },
    {
      "_class": "curvePoint",
      "cornerRadius": 0,
      "curveFrom": "{0.66859139948336099, 0.45807170106390493}",
      "curveMode": 1,
      "curveTo": "{0.66859139948336099, 0.45807170106390493}",
      "hasCurveFrom": false,
      "hasCurveTo": false,
      "point": "{0.66859139948336099, 0.45807170106390493}"
    },
    {
      "_class": "curvePoint",
      "cornerRadius": 0,
      "curveFrom": "{0.58118067163045151, 0.27142620192877226}",
      "curveMode": 4,
      "curveTo": "{0.58273818568606595, 0.27111816695495577}",
      "hasCurveFrom": true,
      "hasCurveTo": false,
      "point": "{0.58273818568606595, 0.27111816695495577}"
    },
    {
      "_class": "curvePoint",
      "cornerRadius": 0,
      "curveFrom": "{0.57882540647318004, 0.27005189204558877}",
      "curveMode": 4,
      "curveTo": "{0.57962315757483696, 0.27171054190460336}",
      "hasCurveFrom": true,
      "hasCurveTo": true,
      "point": "{0.57806564351922241, 0.27199488188043447}"
    },
    {
      "_class": "curvePoint",
      "cornerRadius": 0,
      "curveFrom": "{0.58045889682419083, 0.26614221737791199}",
      "curveMode": 4,
      "curveTo": "{0.57966114572253391, 0.26810890221074307}",
      "hasCurveFrom": false,
      "hasCurveTo": true,
      "point": "{0.58045889682419083, 0.26614221737791199}"
    },
    {
      "_class": "curvePoint",
      "cornerRadius": 0,
      "curveFrom": "{0.46022640936027853, 0.0041229296495504594}",
      "curveMode": 1,
      "curveTo": "{0.46022640936027853, 0.0041229296495504594}",
      "hasCurveFrom": false,
      "hasCurveTo": false,
      "point": "{0.46022640936027853, 0.0041229296495504594}"
    },
    {
      "_class": "curvePoint",
      "cornerRadius": 0,
      "curveFrom": "{0.024046497492781583, 0}",
      "curveMode": 1,
      "curveTo": "{0.024046497492781583, 0}",
      "hasCurveFrom": false,
      "hasCurveTo": false,
      "point": "{0.024046497492781583, 0}"
    },
    {
      "_class": "curvePoint",
      "cornerRadius": 0,
      "curveFrom": "{0.017968393861113704, 0.43707793284837598}",
      "curveMode": 4,
      "curveTo": "{0.013371827989666314, 0.43958960263488395}",
      "hasCurveFrom": true,
      "hasCurveTo": false,
      "point": "{0.013371827989666314, 0.43958960263488395}"
    },
    {
      "_class": "curvePoint",
      "cornerRadius": 0,
      "curveFrom": "{0.026933596717824207, 0.42698386370637081}",
      "curveMode": 4,
      "curveTo": "{0.022185078255584415, 0.43513494301352895}",
      "hasCurveFrom": true,
      "hasCurveTo": true,
      "point": "{0.022488983437167053, 0.43456626306186807}"
    },
    {
      "_class": "curvePoint",
      "cornerRadius": 0,
      "curveFrom": "{0.034227321075822638, 0.42004122929649462}",
      "curveMode": 4,
      "curveTo": "{0.0068378665856233959, 0.41380944482619686}",
      "hasCurveFrom": true,
      "hasCurveTo": true,
      "point": "{0.03582282327913635, 0.41179536999739369}"
    },
    {
      "_class": "curvePoint",
      "cornerRadius": 0,
      "curveFrom": "{0.058159854125513166, 0.44439968722602613}",
      "curveMode": 4,
      "curveTo": "{0.063440206655522025, 0.43525341800345979}",
      "hasCurveFrom": true,
      "hasCurveTo": true,
      "point": "{0.05907156967026108, 0.44278842736298363}"
    },
    {
      "_class": "curvePoint",
      "cornerRadius": 0,
      "curveFrom": "{0.012953958364988296, 0.45679217117266557}",
      "curveMode": 4,
      "curveTo": "{0.024426378969760423, 0.45442267137407255}",
      "hasCurveFrom": false,
      "hasCurveTo": true,
      "point": "{0.012953958364988296, 0.45679217117266557}"
    },
    {
      "_class": "curvePoint",
      "cornerRadius": 0,
      "curveFrom": "{0.046877374259230456, 0.85195365258393851}",
      "curveMode": 4,
      "curveTo": "{0.0028870992250404617, 0.87121768594649673}",
      "hasCurveFrom": true,
      "hasCurveTo": false,
      "point": "{0.0028870992250404617, 0.87121768594649673}"
    },
    {
      "_class": "curvePoint",
      "cornerRadius": 0,
      "curveFrom": "{0.067163045129918525, 0.92256474658199594}",
      "curveMode": 4,
      "curveTo": "{0.075140556146480589, 0.90090751842286065}",
      "hasCurveFrom": true,
      "hasCurveTo": true,
      "point": "{0.063060325178543195, 0.92303864654171397}"
    },
    {
      "_class": "curvePoint",
      "cornerRadius": 0,
      "curveFrom": "{0.077875702780730818, 0.93834561524062199}",
      "curveMode": 4,
      "curveTo": "{0.071303753228990879, 0.9220908466222778}",
      "hasCurveFrom": true,
      "hasCurveTo": true,
      "point": "{0.07540647318036621, 0.92164064166054516}"
    },
    {
      "_class": "curvePoint",
      "cornerRadius": 0,
      "curveFrom": "{0.017436559793344627, 0.95827310854678527}",
      "curveMode": 4,
      "curveTo": "{0.046003646862177401, 0.94206572992441184}",
      "hasCurveFrom": true,
      "hasCurveTo": true,
      "point": "{0.013941650205134571, 0.94559628462431466}"
    },
    {
      "_class": "curvePoint",
      "cornerRadius": 0,
      "curveFrom": "{0.00064579851086445583, 0.96429163803521067}",
      "curveMode": 4,
      "curveTo": "{0.010028870992248655, 0.9633201431177878}",
      "hasCurveFrom": false,
      "hasCurveTo": true,
      "point": "{0.00064579851086445583, 0.96429163803521067}"
    },
    {
      "_class": "curvePoint",
      "cornerRadius": 0,
      "curveFrom": "{0, 0.99078264578347486}",
      "curveMode": 1,
      "curveTo": "{0, 0.99078264578347486}",
      "hasCurveFrom": false,
      "hasCurveTo": false,
      "point": "{0, 0.99078264578347486}"
    },
    {
      "_class": "curvePoint",
      "cornerRadius": 0,
      "curveFrom": "{0.32046801397963809, 0.99379191052768756}",
      "curveMode": 1,
      "curveTo": "{0.32046801397963809, 0.99379191052768756}",
      "hasCurveFrom": false,
      "hasCurveTo": false,
      "point": "{0.32046801397963809, 0.99379191052768756}"
    },
    {
      "_class": "curvePoint",
      "cornerRadius": 0,
      "curveFrom": "{0.33323203160613912, 0.46593844039523191}",
      "curveMode": 1,
      "curveTo": "{0.33323203160613912, 0.46593844039523191}",
      "hasCurveFrom": false,
      "hasCurveTo": false,
      "point": "{0.33323203160613912, 0.46593844039523191}"
    },
    {
      "_class": "curvePoint",
      "cornerRadius": 0,
      "curveFrom": "{0.58118067163045151, 0.99625619031822343}",
      "curveMode": 1,
      "curveTo": "{0.58118067163045151, 0.99625619031822343}",
      "hasCurveFrom": false,
      "hasCurveTo": false,
      "point": "{0.58118067163045151, 0.99625619031822343}"
    },
    {
      "_class": "curvePoint",
      "cornerRadius": 0,
      "curveFrom": "{0.97599149065491542, 1}",
      "curveMode": 1,
      "curveTo": "{0.97599149065491542, 1}",
      "hasCurveFrom": false,
      "hasCurveTo": false,
      "point": "{0.97599149065491542, 1}"
    },
    {
      "_class": "curvePoint",
      "cornerRadius": 0,
      "curveFrom": "{0.98039811578787561, 0.75634433571073123}",
      "curveMode": 4,
      "curveTo": "{0.98187965354809392, 0.75615477572684298}",
      "hasCurveFrom": true,
      "hasCurveTo": false,
      "point": "{0.98187965354809392, 0.75615477572684298}"
    },
    {
      "_class": "curvePoint",
      "cornerRadius": 0,
      "curveFrom": "{0.96915362406929206, 0.75255313603298268}",
      "curveMode": 4,
      "curveTo": "{0.97910651876614663, 0.75629694571475925}",
      "hasCurveFrom": true,
      "hasCurveTo": true,
      "point": "{0.97804285063060414, 0.75591782574698396}"
    }
  ],
  "resizingConstraint": 63,
  "resizingType": 0,
  "rotation": 0,
  "shouldBreakMaskChain": false,
  "style": {
    "_class": "style",
    "do_objectID": "6C292DB8-33E1-4BCF-9EF7-9CC46E3984EE",
    "endMarkerType": 0,
    "fills": [
      {
        "_class": "fill",
        "color": {
          "_class": "color",
          "alpha": 1,
          "blue": 0.1764705882352941,
          "green": 0.1764705882352941,
          "red": 0.1764705882352941
        },
        "fillType": 0,
        "isEnabled": true,
        "noiseIndex": 0,
        "noiseIntensity": 0,
        "patternFillType": 1,
        "patternTileScale": 1
      }
    ],
    "miterLimit": 10,
    "startMarkerType": 0,
    "windingRule": 1
  }
}