{
  "_class": "shapePath",
  "booleanOperation": -1,
  "clippingMaskMode": 0,
  "do_objectID": "5A0FB0A0-9EC8-4C2F-8079-DAB822FFDCF5",
  "edited": true,
  "exportOptions": {
    "_class": "exportOptions",
    "do_objectID": "56048B54-517C-48B7-8589-0EC01D8AC49E",
    "exportFormats": [
    ],
    "includedLayerIds": [
    ],
    "layerOptions": 0,
    "shouldTrim": false
  },
  "frame": {
    "_class": "rect",
    "constrainProportions": false,
    "do_objectID": "2EB73912-04A0-4CE9-AB39-7E7D0F4CB7CB",
    "height": 0.1369137078179463,
    "width": 0.2014540584280393,
    "x": 10.05113662107779,
    "y": 17.83598962827565
  },
  "hasClippingMask": false,
  "isClosed": true,
  "isFixedToViewport": false,
  "isFlippedHorizontal": false,
  "isFlippedVertical": false,
  "isLocked": false,
  "isVisible": true,
  "layerListExpandedType": 0,
  "name": "Path",
  "nameIsFixed": false,
  "pointRadiusBehaviour": 0,
  "points": [
    {
      "_class": "curvePoint",
      "cornerRadius": 0,
      "curveFrom": "{1.0756344431703342, 0.25766272237330107}",
      "curveMode": 4,
      "curveTo": "{0.78431863679367886, 0.10661905753377338}",
      "hasCurveFrom": true,
      "hasCurveTo": true,
      "point": "{0.94145994313793013, 0}"
    },
    {
      "_class": "curvePoint",
      "cornerRadius": 0,
      "curveFrom": "{0.73959380344954995, 0.56685798922129271}",
      "curveMode": 3,
      "curveTo": "{0.95596529449278467, 0.39804448145946658}",
      "hasCurveFrom": true,
      "hasCurveTo": true,
      "point": "{0.81534397163601036, 0.50762517948030372}"
    },
    {
      "_class": "curvePoint",
      "cornerRadius": 0,
      "curveFrom": "{0.4676184655460397, 0.64149132949494581}",
      "curveMode": 4,
      "curveTo": "{0.65699388601218789, 0.61069026842961749}",
      "hasCurveFrom": true,
      "hasCurveTo": true,
      "point": "{0.58084079139920186, 0.66873842197579769}"
    },
    {
      "_class": "curvePoint",
      "cornerRadius": 0,
      "curveFrom": "{0.097329079570735971, 0.98504162599269185}",
      "curveMode": 4,
      "curveTo": "{0.20853677329128706, 1.0620442786559792}",
      "hasCurveFrom": true,
      "hasCurveTo": true,
      "point": "{0.11022272521949933, 0.99214956316161118}"
    },
    {
      "_class": "curvePoint",
      "cornerRadius": 0,
      "curveFrom": "{0.059856921904034258, 0.46853152505124734}",
      "curveMode": 4,
      "curveTo": "{-0.0054171591928109516, 0.66163048480687836}",
      "hasCurveFrom": true,
      "hasCurveTo": true,
      "point": "{0.00022381077851944196, 0.64622995427421415}"
    },
    {
      "_class": "curvePoint",
      "cornerRadius": 0,
      "curveFrom": "{0.62717733044942758, 0.21679208365202327}",
      "curveMode": 4,
      "curveTo": "{0.3882419595208656, 0.48511671177872018}",
      "hasCurveFrom": true,
      "hasCurveTo": true,
      "point": "{0.47043895053170204, 0.32400346928322621}"
    }
  ],
  "resizingConstraint": 63,
  "resizingType": 0,
  "rotation": 0,
  "shouldBreakMaskChain": false,
  "style": {
    "_class": "style",
    "do_objectID": "CCBC5D32-671E-4E3C-A6F4-276800E037FA",
    "endMarkerType": 0,
    "fills": [
      {
        "_class": "fill",
        "color": {
          "_class": "color",
          "alpha": 1,
          "blue": 0.1764705882352941,
          "green": 0.1764705882352941,
          "red": 0.1764705882352941
        },
        "fillType": 0,
        "isEnabled": true,
        "noiseIndex": 0,
        "noiseIntensity": 0,
        "patternFillType": 1,
        "patternTileScale": 1
      }
    ],
    "miterLimit": 10,
    "startMarkerType": 0,
    "windingRule": 1
  }
}