{
  "_class": "shapePath",
  "booleanOperation": -1,
  "clippingMaskMode": 0,
  "do_objectID": "5D517F01-B2BE-488D-BDE7-7D6DCD95FE25",
  "edited": true,
  "exportOptions": {
    "_class": "exportOptions",
    "do_objectID": "81E95CF5-F1FC-4761-B11F-27DD2FB75691",
    "exportFormats": [
    ],
    "includedLayerIds": [
    ],
    "layerOptions": 0,
    "shouldTrim": false
  },
  "frame": {
    "_class": "rect",
    "constrainProportions": false,
    "do_objectID": "0F0F328C-8373-495D-BB54-696C5905A2B3",
    "height": 0.3314468559819339,
    "width": 0.2710786806876566,
    "x": 4.56674968817326,
    "y": 29.46696017832918
  },
  "hasClippingMask": false,
  "isClosed": true,
  "isFixedToViewport": false,
  "isFlippedHorizontal": false,
  "isFlippedVertical": false,
  "isLocked": false,
  "isVisible": true,
  "layerListExpandedType": 0,
  "name": "Path",
  "nameIsFixed": false,
  "pointRadiusBehaviour": 0,
  "points": [
    {
      "_class": "curvePoint",
      "cornerRadius": 0,
      "curveFrom": "{0.96306955872092859, 0.42598482994861514}",
      "curveMode": 4,
      "curveTo": "{1.0379289719226568, 0.34573036457059325}",
      "hasCurveFrom": true,
      "hasCurveTo": true,
      "point": "{0.99151613573758501, 0.39588940543185697}"
    },
    {
      "_class": "curvePoint",
      "cornerRadius": 0,
      "curveFrom": "{0.89629496214498516, 0.67457793002201016}",
      "curveMode": 4,
      "curveTo": "{0.84988212595991541, 0.40347443112307446}",
      "hasCurveFrom": true,
      "hasCurveTo": true,
      "point": "{0.81574623353992615, 0.43038903841447573}"
    },
    {
      "_class": "curvePoint",
      "cornerRadius": 0,
      "curveFrom": "{0.47558505995127426, 0.9535111328602891}",
      "curveMode": 4,
      "curveTo": "{0.79538447314905669, 0.82725715683875234}",
      "hasCurveFrom": true,
      "hasCurveTo": true,
      "point": "{0.59236574454597046, 0.93026669929042682}"
    },
    {
      "_class": "curvePoint",
      "cornerRadius": 0,
      "curveFrom": "{0.2369332506641634, 0.87129924149742799}",
      "curveMode": 4,
      "curveTo": "{0.35790606239815731, 0.97700024467824953}",
      "hasCurveFrom": true,
      "hasCurveTo": true,
      "point": "{0.24112537780346105, 1}"
    },
    {
      "_class": "curvePoint",
      "cornerRadius": 0,
      "curveFrom": "{-0.045436455932754853, 0.77538536824076121}",
      "curveMode": 4,
      "curveTo": "{0.13242950983455179, 0.87815023244433776}",
      "hasCurveFrom": true,
      "hasCurveTo": true,
      "point": "{0.022835328907221758, 0.89111817959383544}"
    },
    {
      "_class": "curvePoint",
      "cornerRadius": 0,
      "curveFrom": "{0.37826782278902671, 0.70760949351602731}",
      "curveMode": 4,
      "curveTo": "{0.05128190592387815, 0.74259848299485598}",
      "hasCurveFrom": true,
      "hasCurveTo": true,
      "point": "{0.15608508440629812, 0.71299241497430754}"
    },
    {
      "_class": "curvePoint",
      "cornerRadius": 0,
      "curveFrom": "{0.25998994993029517, 0.37582578908733755}",
      "curveMode": 4,
      "curveTo": "{0.17435078122751979, 0.46904820161487115}",
      "hasCurveFrom": true,
      "hasCurveTo": true,
      "point": "{0.24681469320679192, 0.39099584046977259}"
    },
    {
      "_class": "curvePoint",
      "cornerRadius": 0,
      "curveFrom": "{0.43276547559988554, 0.264007829703928}",
      "curveMode": 3,
      "curveTo": "{0.42048853183480089, 0.3719109371176868}",
      "hasCurveFrom": true,
      "hasCurveTo": true,
      "point": "{0.42228515775164244, 0.35649620748715377}"
    },
    {
      "_class": "curvePoint",
      "cornerRadius": 0,
      "curveFrom": "{0.45432498660198195, 0.046244188891598981}",
      "curveMode": 4,
      "curveTo": "{0.3348493631320234, 0.1622216784927851}",
      "hasCurveFrom": true,
      "hasCurveTo": true,
      "point": "{0.33724486435447948, 0.069488622461461355}"
    },
    {
      "_class": "curvePoint",
      "cornerRadius": 0,
      "curveFrom": "{0.69177904527786371, 0.12845608025446015}",
      "curveMode": 4,
      "curveTo": "{0.57080623354387194, 0.022999755321750512}",
      "hasCurveFrom": true,
      "hasCurveTo": true,
      "point": "{0.68818579344418274, 0}"
    },
    {
      "_class": "curvePoint",
      "cornerRadius": 0,
      "curveFrom": "{0.87743039001815104, 0.16907266943968091}",
      "curveMode": 4,
      "curveTo": "{0.79688166141309202, 0.12160508930755043}",
      "hasCurveFrom": true,
      "hasCurveTo": true,
      "point": "{0.906475842340422, 0.10863714215805265}"
    }
  ],
  "resizingConstraint": 63,
  "resizingType": 0,
  "rotation": 0,
  "shouldBreakMaskChain": false,
  "style": {
    "_class": "style",
    "do_objectID": "E0C841C9-A316-4E9F-B28F-219BB5080EDD",
    "endMarkerType": 0,
    "fills": [
      {
        "_class": "fill",
        "color": {
          "_class": "color",
          "alpha": 1,
          "blue": 0.1764705882352941,
          "green": 0.1764705882352941,
          "red": 0.1764705882352941
        },
        "fillType": 0,
        "isEnabled": true,
        "noiseIndex": 0,
        "noiseIntensity": 0,
        "patternFillType": 1,
        "patternTileScale": 1
      }
    ],
    "miterLimit": 10,
    "startMarkerType": 0,
    "windingRule": 1
  }
}