{
  "_class": "shapePath",
  "booleanOperation": -1,
  "clippingMaskMode": 0,
  "do_objectID": "5FFC10EC-5B81-4EEE-9423-1888A93790BF",
  "edited": true,
  "exportOptions": {
    "_class": "exportOptions",
    "do_objectID": "37CCE634-CE8B-4F50-8CBB-82747AB32095",
    "exportFormats": [
    ],
    "includedLayerIds": [
    ],
    "layerOptions": 0,
    "shouldTrim": false
  },
  "frame": {
    "_class": "rect",
    "constrainProportions": false,
    "do_objectID": "97616F5D-52E7-431E-BBB6-D8B8FFC46289",
    "height": 0.176130197918746,
    "width": 0.2592606974043186,
    "x": 10.3765969046267,
    "y": 6.442163452870947
  },
  "hasClippingMask": false,
  "isClosed": true,
  "isFixedToViewport": false,
  "isFlippedHorizontal": false,
  "isFlippedVertical": false,
  "isLocked": false,
  "isVisible": true,
  "layerListExpandedType": 0,
  "name": "Path",
  "nameIsFixed": false,
  "pointRadiusBehaviour": 0,
  "points": [
    {
      "_class": "curvePoint",
      "cornerRadius": 0,
      "curveFrom": "{0.76549780839073434, 0.63993393211838556}",
      "curveMode": 4,
      "curveTo": "{0.99217282404508278, 0.69334526699595977}",
      "hasCurveFrom": true,
      "hasCurveTo": true,
      "point": "{0.80463368816531156, 0.89179600261868774}"
    },
    {
      "_class": "curvePoint",
      "cornerRadius": 0,
      "curveFrom": "{0.41515341264871841, 0.83239891469447258}",
      "curveMode": 4,
      "curveTo": "{0.65309956167814553, 0.68735951394931882}",
      "hasCurveFrom": true,
      "hasCurveTo": true,
      "point": "{0.53663118346900796, 0.74859837204173507}"
    },
    {
      "_class": "curvePoint",
      "cornerRadius": 0,
      "curveFrom": "{0.11365059486537679, 0.82042740860124308}",
      "curveMode": 4,
      "curveTo": "{0.29304946775203261, 0.91573901480519915}",
      "hasCurveFrom": true,
      "hasCurveTo": true,
      "point": "{0.17031934877895946, 1}"
    },
    {
      "_class": "curvePoint",
      "cornerRadius": 0,
      "curveFrom": "{0.17094552285535566, 0.40464779313178995}",
      "curveMode": 4,
      "curveTo": "{0.057294927989983341, 0.64131525974452341}",
      "hasCurveFrom": true,
      "hasCurveTo": true,
      "point": "{0, 0.46174266834576655}"
    },
    {
      "_class": "curvePoint",
      "cornerRadius": 0,
      "curveFrom": "{0.23700688791483726, -0.088486169401748763}",
      "curveMode": 4,
      "curveTo": "{0.13963681903569561, 0.23842803545242658}",
      "hasCurveFrom": true,
      "hasCurveTo": true,
      "point": "{0.097996242955542309, 0.06760385235256014}"
    },
    {
      "_class": "curvePoint",
      "cornerRadius": 0,
      "curveFrom": "{0.40482154038822515, 0.462663553429841}",
      "curveMode": 4,
      "curveTo": "{0.30369442705072397, 0.053790576091129381}",
      "hasCurveFrom": true,
      "hasCurveTo": true,
      "point": "{0.36568566061364782, 0.2108014829295389}"
    },
    {
      "_class": "curvePoint",
      "cornerRadius": 0,
      "curveFrom": "{0.75610519724483538, 0.26973812831169058}",
      "curveMode": 4,
      "curveTo": "{0.51753287413901206, 0.4152379715989078}",
      "hasCurveFrom": true,
      "hasCurveTo": true,
      "point": "{0.63368816530996042, 0.35399911350649149}"
    },
    {
      "_class": "curvePoint",
      "cornerRadius": 0,
      "curveFrom": "{0.99499060738885692, 0.3982015975431118}",
      "curveMode": 4,
      "curveTo": "{0.87820914214151236, 0.1859375856589269}",
      "hasCurveFrom": true,
      "hasCurveTo": true,
      "point": "{1, 0.10213704300618938}"
    }
  ],
  "resizingConstraint": 63,
  "resizingType": 0,
  "rotation": 0,
  "shouldBreakMaskChain": false,
  "style": {
    "_class": "style",
    "do_objectID": "9DD131DE-DE53-4E1F-A6F5-DD858D010747",
    "endMarkerType": 0,
    "fills": [
      {
        "_class": "fill",
        "color": {
          "_class": "color",
          "alpha": 1,
          "blue": 0.1764705882352941,
          "green": 0.1764705882352941,
          "red": 0.1764705882352941
        },
        "fillType": 0,
        "isEnabled": true,
        "noiseIndex": 0,
        "noiseIntensity": 0,
        "patternFillType": 1,
        "patternTileScale": 1
      }
    ],
    "miterLimit": 10,
    "startMarkerType": 0,
    "windingRule": 1
  }
}