{
  "_class": "shapePath",
  "booleanOperation": -1,
  "clippingMaskMode": 0,
  "do_objectID": "67A065C0-E90C-4C13-AC44-502310CF0D26",
  "edited": true,
  "exportOptions": {
    "_class": "exportOptions",
    "do_objectID": "4E62B03B-A358-4BE6-8E85-D310CE8F2E9E",
    "exportFormats": [
    ],
    "includedLayerIds": [
    ],
    "layerOptions": 0,
    "shouldTrim": false
  },
  "frame": {
    "_class": "rect",
    "constrainProportions": false,
    "do_objectID": "DA023C61-746B-4B1E-924E-084807B6239B",
    "height": 0.105890603085566,
    "width": 0.1059863482545609,
    "x": 20.76372331187151,
    "y": 20.17253368852241
  },
  "hasClippingMask": false,
  "isClosed": true,
  "isFixedToViewport": false,
  "isFlippedHorizontal": false,
  "isFlippedVertical": false,
  "isLocked": false,
  "isVisible": true,
  "layerListExpandedType": 0,
  "name": "Path",
  "nameIsFixed": false,
  "pointRadiusBehaviour": 0,
  "points": [
    {
      "_class": "curvePoint",
      "cornerRadius": 0,
      "curveFrom": "{0.92728025574695039, 0.1665769863812443}",
      "curveMode": 3,
      "curveTo": "{0.24928025574695312, -0.079423013618736604}",
      "hasCurveFrom": true,
      "hasCurveTo": true,
      "point": "{0.48428025574696676, 0.006576986381247707}"
    },
    {
      "_class": "curvePoint",
      "cornerRadius": 0,
      "curveFrom": "{-0.27071974425302869, 0.70357698638125044}",
      "curveMode": 4,
      "curveTo": "{0.40928025574697813, 0.94857698638125498}",
      "hasCurveFrom": true,
      "hasCurveTo": true,
      "point": "{0.17428025574696449, 0.86057698638126112}"
    }
  ],
  "resizingConstraint": 63,
  "resizingType": 0,
  "rotation": 0,
  "shouldBreakMaskChain": false,
  "style": {
    "_class": "style",
    "do_objectID": "D06AF2C7-9E55-4064-8696-2A297DB39870",
    "endMarkerType": 0,
    "fills": [
      {
        "_class": "fill",
        "color": {
          "_class": "color",
          "alpha": 1,
          "blue": 0.1764705882352941,
          "green": 0.1764705882352941,
          "red": 0.1764705882352941
        },
        "fillType": 0,
        "isEnabled": true,
        "noiseIndex": 0,
        "noiseIntensity": 0,
        "patternFillType": 1,
        "patternTileScale": 1
      }
    ],
    "miterLimit": 10,
    "startMarkerType": 0,
    "windingRule": 1
  }
}