{
  "_class": "shapePath",
  "booleanOperation": -1,
  "clippingMaskMode": 0,
  "do_objectID": "70D22DCD-5E10-4962-8E85-68EA0184C4CE",
  "edited": true,
  "exportOptions": {
    "_class": "exportOptions",
    "do_objectID": "EEAB816C-D9F8-417E-91AE-9AAD267793FF",
    "exportFormats": [
    ],
    "includedLayerIds": [
    ],
    "layerOptions": 0,
    "shouldTrim": false
  },
  "frame": {
    "_class": "rect",
    "constrainProportions": false,
    "do_objectID": "D47C345D-AB99-4B6D-85F9-8B9F8CCD12E8",
    "height": 0.1390016910087937,
    "width": 0.1059863482545618,
    "x": 6.249414328602369,
    "y": 27.57519095653082
  },
  "hasClippingMask": false,
  "isClosed": true,
  "isFixedToViewport": false,
  "isFlippedHorizontal": false,
  "isFlippedVertical": false,
  "isLocked": false,
  "isVisible": true,
  "layerListExpandedType": 0,
  "name": "Path",
  "nameIsFixed": false,
  "pointRadiusBehaviour": 0,
  "points": [
    {
      "_class": "curvePoint",
      "cornerRadius": 0,
      "curveFrom": "{0.55142809535172432, 0.71703617269546482}",
      "curveMode": 4,
      "curveTo": "{0.96342809535173046, 0.42590431738622297}",
      "hasCurveFrom": true,
      "hasCurveTo": true,
      "point": "{0.41742809535172398, 0.50058343057174814}"
    },
    {
      "_class": "curvePoint",
      "cornerRadius": 0,
      "curveFrom": "{-0.028571904648273971, 0.78238039673282012}",
      "curveMode": 4,
      "curveTo": "{0.65442809535171875, 0.92648774795800426}",
      "hasCurveFrom": true,
      "hasCurveTo": true,
      "point": "{0.10742809535172171, 1}"
    },
    {
      "_class": "curvePoint",
      "cornerRadius": 0,
      "curveFrom": "{0.28542809535171898, 0.28354725787631652}",
      "curveMode": 4,
      "curveTo": "{-0.12957190464827306, 0.57292882147024748}",
      "hasCurveFrom": true,
      "hasCurveTo": true,
      "point": "{0.41742809535172398, 0.50058343057174814}"
    },
    {
      "_class": "curvePoint",
      "cornerRadius": 0,
      "curveFrom": "{0.8614280953517266, 0.21703617269543168}",
      "curveMode": 4,
      "curveTo": "{0.17942809535172444, 0.072928821470247512}",
      "hasCurveFrom": true,
      "hasCurveTo": true,
      "point": "{0.72842809535173103, 0}"
    }
  ],
  "resizingConstraint": 63,
  "resizingType": 0,
  "rotation": 0,
  "shouldBreakMaskChain": false,
  "style": {
    "_class": "style",
    "do_objectID": "530655FD-ECA5-466A-BDB2-F8893461A3A6",
    "endMarkerType": 0,
    "fills": [
      {
        "_class": "fill",
        "color": {
          "_class": "color",
          "alpha": 1,
          "blue": 0.1764705882352941,
          "green": 0.1764705882352941,
          "red": 0.1764705882352941
        },
        "fillType": 0,
        "isEnabled": true,
        "noiseIndex": 0,
        "noiseIntensity": 0,
        "patternFillType": 1,
        "patternTileScale": 1
      }
    ],
    "miterLimit": 10,
    "startMarkerType": 0,
    "windingRule": 1
  }
}