{
  "_class": "shapePath",
  "booleanOperation": -1,
  "clippingMaskMode": 0,
  "do_objectID": "73BF4449-0A45-41B7-9AF9-446111282792",
  "edited": true,
  "exportOptions": {
    "_class": "exportOptions",
    "do_objectID": "9965B77E-F605-474B-9493-0DADEFC77A68",
    "exportFormats": [
    ],
    "includedLayerIds": [
    ],
    "layerOptions": 0,
    "shouldTrim": false
  },
  "frame": {
    "_class": "rect",
    "constrainProportions": false,
    "do_objectID": "5B4EF2E3-7692-4C6D-A404-2B9A1BE3F302",
    "height": 0.127242504779943,
    "width": 0.1614268296243395,
    "x": 38.72047815383974,
    "y": 15.41132652571948
  },
  "hasClippingMask": false,
  "isClosed": true,
  "isFixedToViewport": false,
  "isFlippedHorizontal": false,
  "isFlippedVertical": false,
  "isLocked": false,
  "isVisible": true,
  "layerListExpandedType": 0,
  "name": "Path",
  "nameIsFixed": false,
  "pointRadiusBehaviour": 0,
  "points": [
    {
      "_class": "curvePoint",
      "cornerRadius": 0,
      "curveFrom": "{1.1089629041172784, 0.31739961759082419}",
      "curveMode": 4,
      "curveTo": "{0.69764334713233522, 0.13001912045889927}",
      "hasCurveFrom": true,
      "hasCurveTo": true,
      "point": "{0.91687968801916897, 0}"
    },
    {
      "_class": "curvePoint",
      "cornerRadius": 0,
      "curveFrom": "{0.52265654293824171, 0.74187380497133015}",
      "curveMode": 4,
      "curveTo": "{0.93347326427896093, 0.46717654557044153}",
      "hasCurveFrom": true,
      "hasCurveTo": true,
      "point": "{0.74088721253662748, 0.60994263862333842}"
    },
    {
      "_class": "curvePoint",
      "cornerRadius": 0,
      "curveFrom": "{-0.10890502622204028, 0.68132568514976877}",
      "curveMode": 4,
      "curveTo": "{0.30191169511867888, 0.8712555768005078}",
      "hasCurveFrom": true,
      "hasCurveTo": true,
      "point": "{0.083681025520321681, 1}"
    },
    {
      "_class": "curvePoint",
      "cornerRadius": 0,
      "curveFrom": "{0.47840700624547294, 0.26003824091776229}",
      "curveMode": 4,
      "curveTo": "{0.065578942327829251, 0.53091140854046603}",
      "hasCurveFrom": true,
      "hasCurveTo": true,
      "point": "{0.25816499407016263, 0.38878266411725454}"
    }
  ],
  "resizingConstraint": 63,
  "resizingType": 0,
  "rotation": 0,
  "shouldBreakMaskChain": false,
  "style": {
    "_class": "style",
    "do_objectID": "D759236E-BEE4-4979-AA42-F76C9438E429",
    "endMarkerType": 0,
    "fills": [
      {
        "_class": "fill",
        "color": {
          "_class": "color",
          "alpha": 1,
          "blue": 0.1764705882352941,
          "green": 0.1764705882352941,
          "red": 0.1764705882352941
        },
        "fillType": 0,
        "isEnabled": true,
        "noiseIndex": 0,
        "noiseIntensity": 0,
        "patternFillType": 1,
        "patternTileScale": 1
      }
    ],
    "miterLimit": 10,
    "startMarkerType": 0,
    "windingRule": 1
  }
}