{
  "_class": "shapePath",
  "booleanOperation": -1,
  "clippingMaskMode": 0,
  "do_objectID": "7F54BA1B-A1D2-434D-BA1D-938BA754C93C",
  "edited": true,
  "exportOptions": {
    "_class": "exportOptions",
    "do_objectID": "7D8D63D6-E18C-4363-B649-2F8993718742",
    "exportFormats": [
    ],
    "includedLayerIds": [
    ],
    "layerOptions": 0,
    "shouldTrim": false
  },
  "frame": {
    "_class": "rect",
    "constrainProportions": false,
    "do_objectID": "35268061-2E15-4DD8-9353-5F3983D79B03",
    "height": 0.1058906030855606,
    "width": 0.1436168721740749,
    "x": 21.61607375153339,
    "y": 13.52466646759298
  },
  "hasClippingMask": false,
  "isClosed": true,
  "isFixedToViewport": false,
  "isFlippedHorizontal": false,
  "isFlippedVertical": false,
  "isLocked": false,
  "isVisible": true,
  "layerListExpandedType": 0,
  "name": "Path",
  "nameIsFixed": false,
  "pointRadiusBehaviour": 0,
  "points": [
    {
      "_class": "curvePoint",
      "cornerRadius": 0,
      "curveFrom": "{0.4847229104593207, 0.81305637982198753}",
      "curveMode": 4,
      "curveTo": "{0.90296528237103757, 0.59940652818992501}",
      "hasCurveFrom": true,
      "hasCurveTo": true,
      "point": "{0.70571313669913649, 0.72007912957471043}"
    },
    {
      "_class": "curvePoint",
      "cornerRadius": 0,
      "curveFrom": "{-0.086121407960745341, 0.53412462908010006}",
      "curveMode": 4,
      "curveTo": "{0.26429787661393467, 0.9070227497527229}",
      "hasCurveFrom": true,
      "hasCurveTo": true,
      "point": "{0.043872842768580764, 1}"
    },
    {
      "_class": "curvePoint",
      "cornerRadius": 0,
      "curveFrom": "{0.51580849215546531, 0.18595450049455417}",
      "curveMode": 4,
      "curveTo": "{0.095305350665836439, 0.39960435212661666}",
      "hasCurveFrom": true,
      "hasCurveTo": true,
      "point": "{0.29368788112666139, 0.2799208704253458}"
    },
    {
      "_class": "curvePoint",
      "cornerRadius": 0,
      "curveFrom": "{1.0860876181810051, 0.46488625123638544}",
      "curveMode": 4,
      "curveTo": "{0.73566833360632511, 0.092977250247277085}",
      "hasCurveFrom": true,
      "hasCurveTo": true,
      "point": "{0.9566585598461731, 0}"
    }
  ],
  "resizingConstraint": 63,
  "resizingType": 0,
  "rotation": 0,
  "shouldBreakMaskChain": false,
  "style": {
    "_class": "style",
    "do_objectID": "65DCE34A-473F-4E7D-970E-DDC90720A52C",
    "endMarkerType": 0,
    "fills": [
      {
        "_class": "fill",
        "color": {
          "_class": "color",
          "alpha": 1,
          "blue": 0.1764705882352941,
          "green": 0.1764705882352941,
          "red": 0.1764705882352941
        },
        "fillType": 0,
        "isEnabled": true,
        "noiseIndex": 0,
        "noiseIntensity": 0,
        "patternFillType": 1,
        "patternTileScale": 1
      }
    ],
    "miterLimit": 10,
    "startMarkerType": 0,
    "windingRule": 1
  }
}