{
  "_class": "shapePath",
  "booleanOperation": -1,
  "clippingMaskMode": 0,
  "do_objectID": "8626DFAB-E31F-4A6E-88C9-FB10ED12B57E",
  "edited": true,
  "exportOptions": {
    "_class": "exportOptions",
    "do_objectID": "7ED307AE-1B43-4067-87D6-BCCE3EEDA740",
    "exportFormats": [
    ],
    "includedLayerIds": [
    ],
    "layerOptions": 0,
    "shouldTrim": false
  },
  "frame": {
    "_class": "rect",
    "constrainProportions": false,
    "do_objectID": "95612F81-1426-4FAE-83F9-D669F3A65012",
    "height": 0.1058906030855695,
    "width": 0.1059863482545467,
    "x": 33.11422618810312,
    "y": 28.99039651954875
  },
  "hasClippingMask": false,
  "isClosed": true,
  "isFixedToViewport": false,
  "isFlippedHorizontal": false,
  "isFlippedVertical": false,
  "isLocked": false,
  "isVisible": true,
  "layerListExpandedType": 0,
  "name": "Path",
  "nameIsFixed": false,
  "pointRadiusBehaviour": 0,
  "points": [
    {
      "_class": "curvePoint",
      "cornerRadius": 0,
      "curveFrom": "{-0.25654244714456809, 0.51440413020503684}",
      "curveMode": 4,
      "curveTo": "{0.32145755285540645, 0.86740413020504548}",
      "hasCurveFrom": true,
      "hasCurveTo": true,
      "point": "{0.11845755285543191, 0.74640413020506458}"
    },
    {
      "_class": "curvePoint",
      "cornerRadius": 0,
      "curveFrom": "{0.93945755285540145, 0.24440413020505503}",
      "curveMode": 3,
      "curveTo": "{0.36045755285545056, -0.10859586979495361}",
      "hasCurveFrom": true,
      "hasCurveTo": true,
      "point": "{0.56545755285543464, 0.016404130205046386}"
    }
  ],
  "resizingConstraint": 63,
  "resizingType": 0,
  "rotation": 0,
  "shouldBreakMaskChain": false,
  "style": {
    "_class": "style",
    "do_objectID": "EE4069A4-9DD8-4EED-9F2B-9A70D8686D45",
    "endMarkerType": 0,
    "fills": [
      {
        "_class": "fill",
        "color": {
          "_class": "color",
          "alpha": 1,
          "blue": 0.1764705882352941,
          "green": 0.1764705882352941,
          "red": 0.1764705882352941
        },
        "fillType": 0,
        "isEnabled": true,
        "noiseIndex": 0,
        "noiseIntensity": 0,
        "patternFillType": 1,
        "patternTileScale": 1
      }
    ],
    "miterLimit": 10,
    "startMarkerType": 0,
    "windingRule": 1
  }
}