{
  "_class": "shapePath",
  "booleanOperation": -1,
  "clippingMaskMode": 0,
  "do_objectID": "8B489824-C8FA-4469-9DEA-D1FADE5BCDF8",
  "edited": true,
  "exportOptions": {
    "_class": "exportOptions",
    "do_objectID": "B338528F-0361-4B5F-8950-399F16CCE6AE",
    "exportFormats": [
    ],
    "includedLayerIds": [
    ],
    "layerOptions": 0,
    "shouldTrim": false
  },
  "frame": {
    "_class": "rect",
    "constrainProportions": false,
    "do_objectID": "176B21EC-056A-41CD-9EC0-5E66F72DDDB8",
    "height": 0.1695504668314172,
    "width": 0.3559270017456413,
    "x": 32.41043671810369,
    "y": 21.13856323880591
  },
  "hasClippingMask": false,
  "isClosed": true,
  "isFixedToViewport": false,
  "isFlippedHorizontal": false,
  "isFlippedVertical": false,
  "isLocked": false,
  "isVisible": true,
  "layerListExpandedType": 0,
  "name": "Path",
  "nameIsFixed": false,
  "pointRadiusBehaviour": 0,
  "points": [
    {
      "_class": "curvePoint",
      "cornerRadius": 0,
      "curveFrom": "{0.95142414646893836, 0.53890048394604573}",
      "curveMode": 4,
      "curveTo": "{0.89897134688142144, 0.26769820473087574}",
      "hasCurveFrom": true,
      "hasCurveTo": true,
      "point": "{0.92747830317898983, 0.32940031058404373}"
    },
    {
      "_class": "curvePoint",
      "cornerRadius": 0,
      "curveFrom": "{0.87890244964792819, 1.0817833532744612}",
      "curveMode": 4,
      "curveTo": "{0.97559804540927519, 0.7488789682061231}",
      "hasCurveFrom": true,
      "hasCurveTo": true,
      "point": "{1, 0.95885745246617338}"
    },
    {
      "_class": "curvePoint",
      "cornerRadius": 0,
      "curveFrom": "{0.78904852339799136, 0.68143713157588715}",
      "curveMode": 4,
      "curveTo": "{0.84423799079008799, 0.90767818637090891}",
      "hasCurveFrom": true,
      "hasCurveTo": true,
      "point": "{0.81390658928946658, 0.7206586252189946}"
    },
    {
      "_class": "curvePoint",
      "cornerRadius": 0,
      "curveFrom": "{0.62005928646600939, 0.27678611179452589}",
      "curveMode": 3,
      "curveTo": "{0.80455630762386487, 0.42793235558991494}",
      "hasCurveFrom": true,
      "hasCurveTo": true,
      "point": "{0.77718962957819815, 0.40545174337985446}"
    },
    {
      "_class": "curvePoint",
      "cornerRadius": 0,
      "curveFrom": "{-0.33024860866973693, 0.68813348414907882}",
      "curveMode": 4,
      "curveTo": "{0.34388389385516399, 0.78379566376644316}",
      "hasCurveFrom": true,
      "hasCurveTo": true,
      "point": "{0.17671910212622211, 0.7106140963591665}"
    },
    {
      "_class": "curvePoint",
      "cornerRadius": 0,
      "curveFrom": "{0.65426763402308619, 0.21795387132986474}",
      "curveMode": 4,
      "curveTo": "{0.39496835954040416, 0.16055656355945697}",
      "hasCurveFrom": true,
      "hasCurveTo": true,
      "point": "{0.59064010756691443, 0.16725291613267573}"
    },
    {
      "_class": "curvePoint",
      "cornerRadius": 0,
      "curveFrom": "{0.92200496756985639, 0.065372694840195117}",
      "curveMode": 3,
      "curveTo": "{0.83876465518095467, -0.067597734827893594}",
      "hasCurveFrom": true,
      "hasCurveTo": true,
      "point": "{0.8909893991180966, 0.015150050541108698}"
    }
  ],
  "resizingConstraint": 63,
  "resizingType": 0,
  "rotation": 0,
  "shouldBreakMaskChain": false,
  "style": {
    "_class": "style",
    "do_objectID": "80D6AF98-F787-43F2-80D6-021596E54241",
    "endMarkerType": 0,
    "fills": [
      {
        "_class": "fill",
        "color": {
          "_class": "color",
          "alpha": 1,
          "blue": 0.1764705882352941,
          "green": 0.1764705882352941,
          "red": 0.1764705882352941
        },
        "fillType": 0,
        "isEnabled": true,
        "noiseIndex": 0,
        "noiseIntensity": 0,
        "patternFillType": 1,
        "patternTileScale": 1
      }
    ],
    "miterLimit": 10,
    "startMarkerType": 0,
    "windingRule": 1
  }
}