{
  "_class": "shapePath",
  "booleanOperation": -1,
  "clippingMaskMode": 0,
  "do_objectID": "9344808A-8CAF-4DD4-B5B8-3F3D982E6C89",
  "edited": true,
  "exportOptions": {
    "_class": "exportOptions",
    "do_objectID": "20717172-A6A1-4443-AB6B-D1FAB872E86B",
    "exportFormats": [
    ],
    "includedLayerIds": [
    ],
    "layerOptions": 0,
    "shouldTrim": false
  },
  "frame": {
    "_class": "rect",
    "constrainProportions": false,
    "do_objectID": "4A42AA6C-D468-4E45-955E-69C7B685FC09",
    "height": 0.1058906030855766,
    "width": 0.1673907392211547,
    "x": 35.77115786402995,
    "y": 17.84245673407898
  },
  "hasClippingMask": false,
  "isClosed": true,
  "isFixedToViewport": false,
  "isFlippedHorizontal": false,
  "isFlippedVertical": false,
  "isLocked": false,
  "isVisible": true,
  "layerListExpandedType": 0,
  "name": "Path",
  "nameIsFixed": false,
  "pointRadiusBehaviour": 0,
  "points": [
    {
      "_class": "curvePoint",
      "cornerRadius": 0,
      "curveFrom": "{0.23615617559943688, 0.62125550720674028}",
      "curveMode": 4,
      "curveTo": "{0.86946205923977748, 2.179255507206733}",
      "hasCurveFrom": true,
      "hasCurveTo": true,
      "point": "{0.41509175834313561, 0.48725550720672572}"
    },
    {
      "_class": "curvePoint",
      "cornerRadius": 0,
      "curveFrom": "{0.18039034357903422, 0.042255507206732545}",
      "curveMode": 4,
      "curveTo": "{0.061099955083235048, 0.72225550720673937}",
      "hasCurveFrom": true,
      "hasCurveTo": true,
      "point": "{0, 0.1762555072067471}"
    },
    {
      "_class": "curvePoint",
      "cornerRadius": 0,
      "curveFrom": "{1.4654290814404016, -1.2017444927932672}",
      "curveMode": 4,
      "curveTo": "{0.35544656409523606, -0.060744492793276095}",
      "hasCurveFrom": true,
      "hasCurveTo": true,
      "point": "{0.41509175834313561, 0.48725550720672572}"
    }
  ],
  "resizingConstraint": 63,
  "resizingType": 0,
  "rotation": 0,
  "shouldBreakMaskChain": false,
  "style": {
    "_class": "style",
    "do_objectID": "C89AD3BD-1F63-4B1A-9F8E-63AF9A37AEB9",
    "endMarkerType": 0,
    "fills": [
      {
        "_class": "fill",
        "color": {
          "_class": "color",
          "alpha": 1,
          "blue": 0.1764705882352941,
          "green": 0.1764705882352941,
          "red": 0.1764705882352941
        },
        "fillType": 0,
        "isEnabled": true,
        "noiseIndex": 0,
        "noiseIntensity": 0,
        "patternFillType": 1,
        "patternTileScale": 1
      }
    ],
    "miterLimit": 10,
    "startMarkerType": 0,
    "windingRule": 1
  }
}