{
  "_class": "shapePath",
  "booleanOperation": -1,
  "clippingMaskMode": 0,
  "do_objectID": "94E6F4A4-E1AC-474A-B4E5-F8AA7AB66D67",
  "edited": true,
  "exportOptions": {
    "_class": "exportOptions",
    "do_objectID": "C150DF44-006E-4D24-BEEE-23961A189475",
    "exportFormats": [
    ],
    "includedLayerIds": [
    ],
    "layerOptions": 0,
    "shouldTrim": false
  },
  "frame": {
    "_class": "rect",
    "constrainProportions": false,
    "do_objectID": "BB06B3DA-CB5C-4718-A224-4C18E59BD2AE",
    "height": 0.1058906030855535,
    "width": 0.1059863482545786,
    "x": 31.75757441055822,
    "y": 14.17381914316997
  },
  "hasClippingMask": false,
  "isClosed": true,
  "isFixedToViewport": false,
  "isFlippedHorizontal": false,
  "isFlippedVertical": false,
  "isLocked": false,
  "isVisible": true,
  "layerListExpandedType": 0,
  "name": "Path",
  "nameIsFixed": false,
  "pointRadiusBehaviour": 0,
  "points": [
    {
      "_class": "curvePoint",
      "cornerRadius": 0,
      "curveFrom": "{-0.26907287438922367, 0.70343776867815677}",
      "curveMode": 4,
      "curveTo": "{0.41092712561078315, 0.95143776867820407}",
      "hasCurveFrom": true,
      "hasCurveTo": true,
      "point": "{0.17292712561078361, 0.86143776867817223}"
    },
    {
      "_class": "curvePoint",
      "cornerRadius": 0,
      "curveFrom": "{0.92692712561074586, 0.16943776867816496}",
      "curveMode": 3,
      "curveTo": "{0.24792712561077224, -0.078562231321825493}",
      "hasCurveFrom": true,
      "hasCurveTo": true,
      "point": "{0.48492712561079543, 0.0064377686781540433}"
    }
  ],
  "resizingConstraint": 63,
  "resizingType": 0,
  "rotation": 0,
  "shouldBreakMaskChain": false,
  "style": {
    "_class": "style",
    "do_objectID": "0330BCD9-D2F3-4F65-B2F1-C305E6911BE1",
    "endMarkerType": 0,
    "fills": [
      {
        "_class": "fill",
        "color": {
          "_class": "color",
          "alpha": 1,
          "blue": 0.1764705882352941,
          "green": 0.1764705882352941,
          "red": 0.1764705882352941
        },
        "fillType": 0,
        "isEnabled": true,
        "noiseIndex": 0,
        "noiseIntensity": 0,
        "patternFillType": 1,
        "patternTileScale": 1
      }
    ],
    "miterLimit": 10,
    "startMarkerType": 0,
    "windingRule": 1
  }
}