{
  "_class": "shapePath",
  "booleanOperation": -1,
  "clippingMaskMode": 0,
  "do_objectID": "99F213A1-3156-41EE-8D35-4D7DF5AEA540",
  "edited": true,
  "exportOptions": {
    "_class": "exportOptions",
    "do_objectID": "52BB24B0-05B6-400A-9CC1-8A484AC93AF3",
    "exportFormats": [
    ],
    "includedLayerIds": [
    ],
    "layerOptions": 0,
    "shouldTrim": false
  },
  "frame": {
    "_class": "rect",
    "constrainProportions": false,
    "do_objectID": "104867B5-A50C-4A49-9F79-56022E989C7A",
    "height": 0.1058906030855606,
    "width": 0.1073719355396108,
    "x": 19.2166492664538,
    "y": 15.50402135233738
  },
  "hasClippingMask": false,
  "isClosed": true,
  "isFixedToViewport": false,
  "isFlippedHorizontal": false,
  "isFlippedVertical": false,
  "isLocked": false,
  "isVisible": true,
  "layerListExpandedType": 0,
  "name": "Path",
  "nameIsFixed": false,
  "pointRadiusBehaviour": 0,
  "points": [
    {
      "_class": "curvePoint",
      "cornerRadius": 0,
      "curveFrom": "{0.082919607443437071, 0.25590333960200812}",
      "curveMode": 3,
      "curveTo": "{-0.057692894363027165, 0.76869049137147016}",
      "hasCurveFrom": true,
      "hasCurveTo": true,
      "point": "{0.0050535446151226465, 0.53631849334211501}"
    },
    {
      "_class": "curvePoint",
      "cornerRadius": 0,
      "curveFrom": "{1.1458291641094696, 0.43925170935516566}",
      "curveMode": 4,
      "curveTo": "{0.75952277473796481, 0.25884475729856882}",
      "hasCurveFrom": true,
      "hasCurveTo": true,
      "point": "{0.88879555865680027, 0}"
    },
    {
      "_class": "curvePoint",
      "cornerRadius": 0,
      "curveFrom": "{0.48132169589508217, 1.2510829936097121}",
      "curveMode": 4,
      "curveTo": "{0.91071901323952498, 0.6461314206808646}",
      "hasCurveFrom": true,
      "hasCurveTo": true,
      "point": "{0.65444138897936699, 0.83928451608926169}"
    }
  ],
  "resizingConstraint": 63,
  "resizingType": 0,
  "rotation": 0,
  "shouldBreakMaskChain": false,
  "style": {
    "_class": "style",
    "do_objectID": "5A4A4A84-BB5D-4B3A-A668-FDAE6497B937",
    "endMarkerType": 0,
    "fills": [
      {
        "_class": "fill",
        "color": {
          "_class": "color",
          "alpha": 1,
          "blue": 0.1764705882352941,
          "green": 0.1764705882352941,
          "red": 0.1764705882352941
        },
        "fillType": 0,
        "isEnabled": true,
        "noiseIndex": 0,
        "noiseIntensity": 0,
        "patternFillType": 1,
        "patternTileScale": 1
      }
    ],
    "miterLimit": 10,
    "startMarkerType": 0,
    "windingRule": 1
  }
}