{
  "_class": "shapePath",
  "booleanOperation": -1,
  "clippingMaskMode": 0,
  "do_objectID": "9A9DA3C7-04CA-46CF-BCE0-713D99FE96F6",
  "edited": true,
  "exportOptions": {
    "_class": "exportOptions",
    "do_objectID": "9489C969-8482-4D5F-AF82-6F54194C4C7D",
    "exportFormats": [
    ],
    "includedLayerIds": [
    ],
    "layerOptions": 0,
    "shouldTrim": false
  },
  "frame": {
    "_class": "rect",
    "constrainProportions": false,
    "do_objectID": "D7157097-144B-45D8-A494-5F2F3449A304",
    "height": 0.1688599319723245,
    "width": 0.1217469026177369,
    "x": 28.9289054222266,
    "y": 30.74108828068587
  },
  "hasClippingMask": false,
  "isClosed": true,
  "isFixedToViewport": false,
  "isFlippedHorizontal": false,
  "isFlippedVertical": false,
  "isLocked": false,
  "isVisible": true,
  "layerListExpandedType": 0,
  "name": "Path",
  "nameIsFixed": false,
  "pointRadiusBehaviour": 0,
  "points": [
    {
      "_class": "curvePoint",
      "cornerRadius": 0,
      "curveFrom": "{0.34811318466265589, 0.59168882078962304}",
      "curveMode": 3,
      "curveTo": "{0.16609847003471187, 0.5441423976904608}",
      "hasCurveFrom": true,
      "hasCurveTo": true,
      "point": "{0.32344452370576698, 0.58544535108971618}"
    },
    {
      "_class": "curvePoint",
      "cornerRadius": 0,
      "curveFrom": "{0.36211431655712478, 0.47354316339170138}",
      "curveMode": 4,
      "curveTo": "{0.36211431655712478, 0.60273495948944134}",
      "hasCurveFrom": true,
      "hasCurveTo": true,
      "point": "{0.37878233071717976, 0.61378109818923232}"
    },
    {
      "_class": "curvePoint",
      "cornerRadius": 0,
      "curveFrom": "{0.65147104237592124, 0.17433688469691908}",
      "curveMode": 4,
      "curveTo": "{0.3961170654436596, 0.35491723909377226}",
      "hasCurveFrom": true,
      "hasCurveTo": true,
      "point": "{0.68614051182888103, 0.34963430319385325}"
    },
    {
      "_class": "curvePoint",
      "cornerRadius": 0,
      "curveFrom": "{1.0175006333310841, 0.17625795229689462}",
      "curveMode": 4,
      "curveTo": "{0.63346958708305434, 0.0052829358998917478}",
      "hasCurveFrom": true,
      "hasCurveTo": true,
      "point": "{0.98216444331173725, 0}"
    },
    {
      "_class": "curvePoint",
      "cornerRadius": 0,
      "curveFrom": "{0.72080998128184071, 0.5153263836909644}",
      "curveMode": 4,
      "curveTo": "{1.0348353680575639, 0.34243029969398597}",
      "hasCurveFrom": true,
      "hasCurveTo": true,
      "point": "{0.68614051182888103, 0.34963430319385325}"
    },
    {
      "_class": "curvePoint",
      "cornerRadius": 0,
      "curveFrom": "{0.45278831358788435, 0.8284604024854737}",
      "curveMode": 4,
      "curveTo": "{0.72614374581305074, 0.66949205858824956}",
      "hasCurveFrom": true,
      "hasCurveTo": true,
      "point": "{0.43745374056064135, 0.69206460288786653}"
    },
    {
      "_class": "curvePoint",
      "cornerRadius": 0,
      "curveFrom": "{-0.17926278336196014, 0.92067164728386219}",
      "curveMode": 4,
      "curveTo": "{0.23343724724139447, 1.0287316997819531}",
      "hasCurveFrom": true,
      "hasCurveTo": true,
      "point": "{0.11476098642169714, 0.99655381748251326}"
    }
  ],
  "resizingConstraint": 63,
  "resizingType": 0,
  "rotation": 0,
  "shouldBreakMaskChain": false,
  "style": {
    "_class": "style",
    "do_objectID": "C975AC85-B042-4649-A30B-8CB4A051363B",
    "endMarkerType": 0,
    "fills": [
      {
        "_class": "fill",
        "color": {
          "_class": "color",
          "alpha": 1,
          "blue": 0.1764705882352941,
          "green": 0.1764705882352941,
          "red": 0.1764705882352941
        },
        "fillType": 0,
        "isEnabled": true,
        "noiseIndex": 0,
        "noiseIntensity": 0,
        "patternFillType": 1,
        "patternTileScale": 1
      }
    ],
    "miterLimit": 10,
    "startMarkerType": 0,
    "windingRule": 1
  }
}