{
  "_class": "shapePath",
  "booleanOperation": -1,
  "clippingMaskMode": 0,
  "do_objectID": "ABF4723B-5483-4D3A-9CEF-181FA8C650EA",
  "edited": true,
  "exportOptions": {
    "_class": "exportOptions",
    "do_objectID": "9E45FB86-4A46-42E5-B147-2491B4F29850",
    "exportFormats": [
    ],
    "includedLayerIds": [
    ],
    "layerOptions": 0,
    "shouldTrim": false
  },
  "frame": {
    "_class": "rect",
    "constrainProportions": false,
    "do_objectID": "DA334AFA-3649-4609-B1AC-DCA6635BDF61",
    "height": 0.1058906030855553,
    "width": 0.1059863482545467,
    "x": 18.33366723518059,
    "y": 24.49476253941612
  },
  "hasClippingMask": false,
  "isClosed": true,
  "isFixedToViewport": false,
  "isFlippedHorizontal": false,
  "isFlippedVertical": false,
  "isLocked": false,
  "isVisible": true,
  "layerListExpandedType": 0,
  "name": "Path",
  "nameIsFixed": false,
  "pointRadiusBehaviour": 0,
  "points": [
    {
      "_class": "curvePoint",
      "cornerRadius": 0,
      "curveFrom": "{1.0557107519962869, 0.27710126248166489}",
      "curveMode": 4,
      "curveTo": "{0.40671075199628604, -0.12089873751835967}",
      "hasCurveFrom": true,
      "hasCurveTo": true,
      "point": "{0.6297107519962708, 0.018101262481650338}"
    },
    {
      "_class": "curvePoint",
      "cornerRadius": 0,
      "curveFrom": "{-0.28928924800371192, 0.57810126248159577}",
      "curveMode": 3,
      "curveTo": "{0.36071075199626534, 0.97410126248166762}",
      "hasCurveFrom": true,
      "hasCurveTo": true,
      "point": "{0.1337107519962899, 0.83610126248163397}"
    }
  ],
  "resizingConstraint": 63,
  "resizingType": 0,
  "rotation": 0,
  "shouldBreakMaskChain": false,
  "style": {
    "_class": "style",
    "do_objectID": "74B777DF-E7BC-467A-ACA5-1218011A002E",
    "endMarkerType": 0,
    "fills": [
      {
        "_class": "fill",
        "color": {
          "_class": "color",
          "alpha": 1,
          "blue": 0.1764705882352941,
          "green": 0.1764705882352941,
          "red": 0.1764705882352941
        },
        "fillType": 0,
        "isEnabled": true,
        "noiseIndex": 0,
        "noiseIntensity": 0,
        "patternFillType": 1,
        "patternTileScale": 1
      }
    ],
    "miterLimit": 10,
    "startMarkerType": 0,
    "windingRule": 1
  }
}