{
  "_class": "shapePath",
  "booleanOperation": -1,
  "clippingMaskMode": 0,
  "do_objectID": "AE46E1DC-5DAE-44EF-A59E-5BC2B8285F3E",
  "edited": true,
  "exportOptions": {
    "_class": "exportOptions",
    "do_objectID": "32989664-3CBF-4A59-A840-E5A942D23732",
    "exportFormats": [
    ],
    "includedLayerIds": [
    ],
    "layerOptions": 0,
    "shouldTrim": false
  },
  "frame": {
    "_class": "rect",
    "constrainProportions": false,
    "do_objectID": "7EBDD088-BDE6-424E-9CF4-2084C48E7147",
    "height": 0.1132679418363871,
    "width": 0.164859686511214,
    "x": 35.58694147738334,
    "y": 29.38377953367149
  },
  "hasClippingMask": false,
  "isClosed": true,
  "isFixedToViewport": false,
  "isFlippedHorizontal": false,
  "isFlippedVertical": false,
  "isLocked": false,
  "isVisible": true,
  "layerListExpandedType": 0,
  "name": "Path",
  "nameIsFixed": false,
  "pointRadiusBehaviour": 0,
  "points": [
    {
      "_class": "curvePoint",
      "cornerRadius": 0,
      "curveFrom": "{0.77275757726364025, 0.86324738989207594}",
      "curveMode": 4,
      "curveTo": "{1.242473928008806, -0.39544940890210795}",
      "hasCurveFrom": true,
      "hasCurveTo": true,
      "point": "{0.96477998480096394, 0.79666104046783748}"
    },
    {
      "_class": "curvePoint",
      "cornerRadius": 0,
      "curveFrom": "{0.38083491982847756, 0.62482530001811121}",
      "curveMode": 4,
      "curveTo": "{0.57975043943124871, 0.93198168607196641}",
      "hasCurveFrom": true,
      "hasCurveTo": true,
      "point": "{0.38723566674637711, 1}"
    },
    {
      "_class": "curvePoint",
      "cornerRadius": 0,
      "curveFrom": "{-0.22083529045514769, -0.092588916359475568}",
      "curveMode": 4,
      "curveTo": "{0.20801475304488068, 0.6441568208186953}",
      "hasCurveFrom": true,
      "hasCurveTo": true,
      "point": "{0.028793839343384222, 0.68067191566425189}"
    }
  ],
  "resizingConstraint": 63,
  "resizingType": 0,
  "rotation": 0,
  "shouldBreakMaskChain": false,
  "style": {
    "_class": "style",
    "do_objectID": "C9AD3AD0-A9CF-4D6E-AC0D-CEE59C7B639C",
    "endMarkerType": 0,
    "fills": [
      {
        "_class": "fill",
        "color": {
          "_class": "color",
          "alpha": 1,
          "blue": 0.1764705882352941,
          "green": 0.1764705882352941,
          "red": 0.1764705882352941
        },
        "fillType": 0,
        "isEnabled": true,
        "noiseIndex": 0,
        "noiseIntensity": 0,
        "patternFillType": 1,
        "patternTileScale": 1
      }
    ],
    "miterLimit": 10,
    "startMarkerType": 0,
    "windingRule": 1
  }
}