{
  "_class": "shapePath",
  "booleanOperation": -1,
  "clippingMaskMode": 0,
  "do_objectID": "AFC47D82-5AC2-4E5E-A6F9-99F20E776CD3",
  "edited": true,
  "exportOptions": {
    "_class": "exportOptions",
    "do_objectID": "E01B8263-C553-4809-8C96-C3F9BDE48968",
    "exportFormats": [
    ],
    "includedLayerIds": [
    ],
    "layerOptions": 0,
    "shouldTrim": false
  },
  "frame": {
    "_class": "rect",
    "constrainProportions": false,
    "do_objectID": "80162F7C-BA37-4DF6-B0C9-2B8F2E475326",
    "height": 0.146033666435013,
    "width": 0.1193366953675437,
    "x": 16.22599346672466,
    "y": 21.98684370770438
  },
  "hasClippingMask": false,
  "isClosed": true,
  "isFixedToViewport": false,
  "isFlippedHorizontal": false,
  "isFlippedVertical": false,
  "isLocked": false,
  "isVisible": true,
  "layerListExpandedType": 0,
  "name": "Path",
  "nameIsFixed": false,
  "pointRadiusBehaviour": 0,
  "points": [
    {
      "_class": "curvePoint",
      "cornerRadius": 0,
      "curveFrom": "{-0.19214893926240101, -0.47663995125762698}",
      "curveMode": 4,
      "curveTo": "{-0.08876064892634182, 0.5946043007077797}",
      "hasCurveFrom": true,
      "hasCurveTo": true,
      "point": "{0.28398134518001045, 0.52518722891116287}"
    },
    {
      "_class": "curvePoint",
      "cornerRadius": 0,
      "curveFrom": "{0.37512628534471204, 0.7312170980035424}",
      "curveMode": 4,
      "curveTo": "{2.1109612651976408, 0.20531336207237236}",
      "hasCurveFrom": true,
      "hasCurveTo": true,
      "point": "{0.28398134518001045, 0.52518722891116287}"
    },
    {
      "_class": "curvePoint",
      "cornerRadius": 0,
      "curveFrom": "{-0.018701478501237111, 0.79452546748201192}",
      "curveMode": 4,
      "curveTo": "{0.44246471128727566, 0.93113826477777462}",
      "hasCurveFrom": true,
      "hasCurveTo": true,
      "point": "{0.072443461663445133, 1}"
    }
  ],
  "resizingConstraint": 63,
  "resizingType": 0,
  "rotation": 0,
  "shouldBreakMaskChain": false,
  "style": {
    "_class": "style",
    "do_objectID": "F6233416-CACF-4FE8-A609-FDA9389E5E1F",
    "endMarkerType": 0,
    "fills": [
      {
        "_class": "fill",
        "color": {
          "_class": "color",
          "alpha": 1,
          "blue": 0.1764705882352941,
          "green": 0.1764705882352941,
          "red": 0.1764705882352941
        },
        "fillType": 0,
        "isEnabled": true,
        "noiseIndex": 0,
        "noiseIntensity": 0,
        "patternFillType": 1,
        "patternTileScale": 1
      }
    ],
    "miterLimit": 10,
    "startMarkerType": 0,
    "windingRule": 1
  }
}