{
  "_class": "shapePath",
  "booleanOperation": -1,
  "clippingMaskMode": 0,
  "do_objectID": "B49B65E3-67DC-48CD-83AC-88519E23FF32",
  "edited": true,
  "exportOptions": {
    "_class": "exportOptions",
    "do_objectID": "265E5738-9202-43E4-9C6D-0487AB7BE39F",
    "exportFormats": [
    ],
    "includedLayerIds": [
    ],
    "layerOptions": 0,
    "shouldTrim": false
  },
  "frame": {
    "_class": "rect",
    "constrainProportions": false,
    "do_objectID": "8B72C267-4BA7-4525-9520-DB2E7A550150",
    "height": 0.1058906030855731,
    "width": 0.1059863482545467,
    "x": 35.97192829819154,
    "y": 17.62873726794691
  },
  "hasClippingMask": false,
  "isClosed": true,
  "isFixedToViewport": false,
  "isFlippedHorizontal": false,
  "isFlippedVertical": false,
  "isLocked": false,
  "isVisible": true,
  "layerListExpandedType": 0,
  "name": "Path",
  "nameIsFixed": false,
  "pointRadiusBehaviour": 0,
  "points": [
    {
      "_class": "curvePoint",
      "cornerRadius": 0,
      "curveFrom": "{-0.26942066550145682, 0.70258434595533004}",
      "curveMode": 3,
      "curveTo": "{0.40857933449854045, 0.94858434595533936}",
      "hasCurveFrom": true,
      "hasCurveTo": true,
      "point": "{0.17357933449858365, 0.86258434595532663}"
    },
    {
      "_class": "curvePoint",
      "cornerRadius": 0,
      "curveFrom": "{0.9285793344985791, 0.16958434595531457}",
      "curveMode": 3,
      "curveTo": "{0.24757933449853908, -0.07941565404468065}",
      "hasCurveFrom": true,
      "hasCurveTo": true,
      "point": "{0.48357933449852908, 0.0065843459553320827}"
    }
  ],
  "resizingConstraint": 63,
  "resizingType": 0,
  "rotation": 0,
  "shouldBreakMaskChain": false,
  "style": {
    "_class": "style",
    "do_objectID": "36FF3A6A-8C1C-4D08-81A2-255C6EEA8220",
    "endMarkerType": 0,
    "fills": [
      {
        "_class": "fill",
        "color": {
          "_class": "color",
          "alpha": 1,
          "blue": 0.1764705882352941,
          "green": 0.1764705882352941,
          "red": 0.1764705882352941
        },
        "fillType": 0,
        "isEnabled": true,
        "noiseIndex": 0,
        "noiseIntensity": 0,
        "patternFillType": 1,
        "patternTileScale": 1
      }
    ],
    "miterLimit": 10,
    "startMarkerType": 0,
    "windingRule": 1
  }
}