{
  "_class": "shapePath",
  "booleanOperation": -1,
  "clippingMaskMode": 0,
  "do_objectID": "BCE42501-2515-4301-8420-532FCEA2CC2A",
  "edited": true,
  "exportOptions": {
    "_class": "exportOptions",
    "do_objectID": "C5E34CFD-66B1-46B0-B368-B3F4E87AD96D",
    "exportFormats": [
    ],
    "includedLayerIds": [
    ],
    "layerOptions": 0,
    "shouldTrim": false
  },
  "frame": {
    "_class": "rect",
    "constrainProportions": false,
    "do_objectID": "70175635-C531-4E73-8C10-A76279EED839",
    "height": 0.2362993799935396,
    "width": 0.2134801609810211,
    "x": 30.80859641844216,
    "y": 33.53146714365592
  },
  "hasClippingMask": false,
  "isClosed": true,
  "isFixedToViewport": false,
  "isFlippedHorizontal": false,
  "isFlippedVertical": false,
  "isLocked": false,
  "isVisible": true,
  "layerListExpandedType": 0,
  "name": "Path",
  "nameIsFixed": false,
  "pointRadiusBehaviour": 0,
  "points": [
    {
      "_class": "curvePoint",
      "cornerRadius": 0,
      "curveFrom": "{0.51977186311787871, 0.99577198485105434}",
      "curveMode": 4,
      "curveTo": "{0.81140684410647079, 0.78401787508107701}",
      "hasCurveFrom": true,
      "hasCurveTo": true,
      "point": "{0.83079847908745474, 0.90997210244831084}"
    },
    {
      "_class": "curvePoint",
      "cornerRadius": 0,
      "curveFrom": "{0.071863117870730686, 0.72052596210304598}",
      "curveMode": 4,
      "curveTo": "{0.20874524714830264, 1.0819150667834005}",
      "hasCurveFrom": true,
      "hasCurveTo": true,
      "point": "{0.10798479087452179, 0.8547169781809435}"
    },
    {
      "_class": "curvePoint",
      "cornerRadius": 0,
      "curveFrom": "{0.15133079847909706, 0.44871193465116388}",
      "curveMode": 4,
      "curveTo": "{0.036121673003812721, 0.58702134508437376}",
      "hasCurveFrom": true,
      "hasCurveTo": true,
      "point": "{0, 0.45214392994727048}"
    },
    {
      "_class": "curvePoint",
      "cornerRadius": 0,
      "curveFrom": "{0.16311787072244532, 0.29804734115193898}",
      "curveMode": 4,
      "curveTo": "{0.18174904942966139, 0.37938562966974776}",
      "hasCurveFrom": true,
      "hasCurveTo": true,
      "point": "{0.17870722433461145, 0.29118335055972577}"
    },
    {
      "_class": "curvePoint",
      "cornerRadius": 0,
      "curveFrom": "{-0.033079847908741154, 0.24141941876614079}",
      "curveMode": 4,
      "curveTo": "{0.14828897338404709, 0.30113613691844276}",
      "hasCurveFrom": true,
      "hasCurveTo": true,
      "point": "{0.13536121673003618, 0.29633134350388568}"
    },
    {
      "_class": "curvePoint",
      "cornerRadius": 0,
      "curveFrom": "{0.33726235741444943, 0.030351708055388713}",
      "curveMode": 4,
      "curveTo": "{0.16311787072244532, -0.026962613389654232}",
      "hasCurveFrom": true,
      "hasCurveTo": true,
      "point": "{0.25437262357415996, 0.002209346627291036}"
    },
    {
      "_class": "curvePoint",
      "cornerRadius": 0,
      "curveFrom": "{0.37566539923954423, 0.18993948932448301}",
      "curveMode": 4,
      "curveTo": "{0.33003802281368688, 0.10963079939552181}",
      "hasCurveFrom": true,
      "hasCurveTo": true,
      "point": "{0.29163498098859209, 0.18032990249538838}"
    },
    {
      "_class": "curvePoint",
      "cornerRadius": 0,
      "curveFrom": "{0.59467680608365936, 0.32207130822470487}",
      "curveMode": 4,
      "curveTo": "{0.4133079847908927, 0.26887538113501325}",
      "hasCurveFrom": true,
      "hasCurveTo": true,
      "point": "{0.44638783269963384, 0.35467526353775675}"
    },
    {
      "_class": "curvePoint",
      "cornerRadius": 0,
      "curveFrom": "{0.92775665399239615, 0.39208401226534617}",
      "curveMode": 4,
      "curveTo": "{0.74372623574145269, 0.28946735291167247}",
      "hasCurveFrom": true,
      "hasCurveTo": true,
      "point": "{0.89163498098860505, 0.25754979665784578}"
    },
    {
      "_class": "curvePoint",
      "cornerRadius": 0,
      "curveFrom": "{0.80076045627376358, 0.66424123924685063}",
      "curveMode": 4,
      "curveTo": "{0.9638783269962089, 0.52593182881362133}",
      "hasCurveFrom": true,
      "hasCurveTo": true,
      "point": "{1, 0.66012284489151885}"
    }
  ],
  "resizingConstraint": 63,
  "resizingType": 0,
  "rotation": 0,
  "shouldBreakMaskChain": false,
  "style": {
    "_class": "style",
    "do_objectID": "AAC10E24-C7C0-407B-905B-1412E80B867B",
    "endMarkerType": 0,
    "fills": [
      {
        "_class": "fill",
        "color": {
          "_class": "color",
          "alpha": 1,
          "blue": 0.1764705882352941,
          "green": 0.1764705882352941,
          "red": 0.1764705882352941
        },
        "fillType": 0,
        "isEnabled": true,
        "noiseIndex": 0,
        "noiseIntensity": 0,
        "patternFillType": 1,
        "patternTileScale": 1
      }
    ],
    "miterLimit": 10,
    "startMarkerType": 0,
    "windingRule": 1
  }
}