{
  "_class": "shapePath",
  "booleanOperation": -1,
  "clippingMaskMode": 0,
  "do_objectID": "C2FB8126-A391-406D-AE81-2CF87992504E",
  "edited": true,
  "exportOptions": {
    "_class": "exportOptions",
    "do_objectID": "827DA102-767E-4AC8-B853-1A7505CC9A3A",
    "exportFormats": [
    ],
    "includedLayerIds": [
    ],
    "layerOptions": 0,
    "shouldTrim": false
  },
  "frame": {
    "_class": "rect",
    "constrainProportions": false,
    "do_objectID": "011A0528-CBB2-47EC-8C6E-83F9A2FC7863",
    "height": 0.1058906030855553,
    "width": 0.105986348254568,
    "x": 36.87484744249929,
    "y": 20.17666916643835
  },
  "hasClippingMask": false,
  "isClosed": true,
  "isFixedToViewport": false,
  "isFlippedHorizontal": false,
  "isFlippedVertical": false,
  "isLocked": false,
  "isVisible": true,
  "layerListExpandedType": 0,
  "name": "Path",
  "nameIsFixed": false,
  "pointRadiusBehaviour": 0,
  "points": [
    {
      "_class": "curvePoint",
      "cornerRadius": 0,
      "curveFrom": "{-0.25606484216348235, 0.51658329633033873}",
      "curveMode": 4,
      "curveTo": "{0.31993515783653947, 0.86658329633033304}",
      "hasCurveFrom": true,
      "hasCurveTo": true,
      "point": "{0.11793515783654129, 0.74658329633032849}"
    },
    {
      "_class": "curvePoint",
      "cornerRadius": 0,
      "curveFrom": "{0.94293515783652992, 0.24658329633032849}",
      "curveMode": 3,
      "curveTo": "{0.36093515783653629, -0.10941670366966605}",
      "hasCurveFrom": true,
      "hasCurveTo": true,
      "point": "{0.56493515783654402, 0.016583296330338726}"
    }
  ],
  "resizingConstraint": 63,
  "resizingType": 0,
  "rotation": 0,
  "shouldBreakMaskChain": false,
  "style": {
    "_class": "style",
    "do_objectID": "28C6DE07-07DE-463C-A3CC-CEB0683876AF",
    "endMarkerType": 0,
    "fills": [
      {
        "_class": "fill",
        "color": {
          "_class": "color",
          "alpha": 1,
          "blue": 0.1764705882352941,
          "green": 0.1764705882352941,
          "red": 0.1764705882352941
        },
        "fillType": 0,
        "isEnabled": true,
        "noiseIndex": 0,
        "noiseIntensity": 0,
        "patternFillType": 1,
        "patternTileScale": 1
      }
    ],
    "miterLimit": 10,
    "startMarkerType": 0,
    "windingRule": 1
  }
}