{
  "_class": "shapePath",
  "booleanOperation": -1,
  "clippingMaskMode": 0,
  "do_objectID": "C6595DFB-37AE-44A7-8327-D776C9717E94",
  "edited": true,
  "exportOptions": {
    "_class": "exportOptions",
    "do_objectID": "638F5CE6-56CB-4C58-B3DA-B72C4E53094B",
    "exportFormats": [
    ],
    "includedLayerIds": [
    ],
    "layerOptions": 0,
    "shouldTrim": false
  },
  "frame": {
    "_class": "rect",
    "constrainProportions": false,
    "do_objectID": "16A4B669-C4B0-4689-B8C4-25ACCB1F24CE",
    "height": 0.1058906030855544,
    "width": 0.1074862847981599,
    "x": 23.28814809456901,
    "y": 4.433436849466354
  },
  "hasClippingMask": false,
  "isClosed": true,
  "isFixedToViewport": false,
  "isFlippedHorizontal": false,
  "isFlippedVertical": false,
  "isLocked": false,
  "isVisible": true,
  "layerListExpandedType": 0,
  "name": "Path",
  "nameIsFixed": false,
  "pointRadiusBehaviour": 0,
  "points": [
    {
      "_class": "curvePoint",
      "cornerRadius": 0,
      "curveFrom": "{0.40421654848023547, 0.43063291003412335}",
      "curveMode": 4,
      "curveTo": "{0.12933214155737593, 0.097983396355775174}",
      "hasCurveFrom": true,
      "hasCurveTo": true,
      "point": "{0.39364407129088813, 0}"
    },
    {
      "_class": "curvePoint",
      "cornerRadius": 0,
      "curveFrom": "{1.1110621662817945, 0.73199360806944935}",
      "curveMode": 4,
      "curveTo": "{0.66928365515582544, 0.41004816290058077}",
      "hasCurveFrom": true,
      "hasCurveTo": true,
      "point": "{0.94341288513656429, 0.36393832932137044}"
    },
    {
      "_class": "curvePoint",
      "cornerRadius": 0,
      "curveFrom": "{0.23203620568240935, 1.0646431217477976}",
      "curveMode": 3,
      "curveTo": "{0.87846766811632437, 0.8942014154819149}",
      "hasCurveFrom": true,
      "hasCurveTo": true,
      "point": "{0.60811432284606071, 0.96501294562137641}"
    },
    {
      "_class": "curvePoint",
      "cornerRadius": 0,
      "curveFrom": "{-0.11459001073951935, 0.20996442076232189}",
      "curveMode": 4,
      "curveTo": "{0.16255992700961663, 0.95430887711194357}",
      "hasCurveFrom": true,
      "hasCurveTo": true,
      "point": "{0.057590332058306763, 0.59778105675862048}"
    }
  ],
  "resizingConstraint": 63,
  "resizingType": 0,
  "rotation": 0,
  "shouldBreakMaskChain": false,
  "style": {
    "_class": "style",
    "do_objectID": "327BD17C-AE94-46C2-8D4E-ECEB538666CA",
    "endMarkerType": 0,
    "fills": [
      {
        "_class": "fill",
        "color": {
          "_class": "color",
          "alpha": 1,
          "blue": 0.1764705882352941,
          "green": 0.1764705882352941,
          "red": 0.1764705882352941
        },
        "fillType": 0,
        "isEnabled": true,
        "noiseIndex": 0,
        "noiseIntensity": 0,
        "patternFillType": 1,
        "patternTileScale": 1
      }
    ],
    "miterLimit": 10,
    "startMarkerType": 0,
    "windingRule": 1
  }
}