{
  "_class": "shapePath",
  "booleanOperation": -1,
  "clippingMaskMode": 0,
  "do_objectID": "C956DE22-15F1-4CAE-8CA0-D2F2B5306646",
  "edited": true,
  "exportOptions": {
    "_class": "exportOptions",
    "do_objectID": "EBE6A55C-A736-4463-BC41-8EBFC851CBD1",
    "exportFormats": [
    ],
    "includedLayerIds": [
    ],
    "layerOptions": 0,
    "shouldTrim": false
  },
  "frame": {
    "_class": "rect",
    "constrainProportions": false,
    "do_objectID": "FA0C7774-C419-4E27-AD0C-C4B7B9C3F500",
    "height": 0.1058906030855713,
    "width": 0.1059863482545644,
    "x": 22.72692925844342,
    "y": 13.41051385008904
  },
  "hasClippingMask": false,
  "isClosed": true,
  "isFixedToViewport": false,
  "isFlippedHorizontal": false,
  "isFlippedVertical": false,
  "isLocked": false,
  "isVisible": true,
  "layerListExpandedType": 0,
  "name": "Path",
  "nameIsFixed": false,
  "pointRadiusBehaviour": 0,
  "points": [
    {
      "_class": "curvePoint",
      "cornerRadius": 0,
      "curveFrom": "{-0.30172192711415846, 0.78959141116723686}",
      "curveMode": 3,
      "curveTo": "{0.46127807288587519, 1.0645914111672141}",
      "hasCurveFrom": true,
      "hasCurveTo": true,
      "point": "{0.19427807288587928, 0.96659141116720093}"
    },
    {
      "_class": "curvePoint",
      "cornerRadius": 0,
      "curveFrom": "{1.0402780728858829, 0.18759141116720457}",
      "curveMode": 3,
      "curveTo": "{0.27727807288584927, -0.090408588832758596}",
      "hasCurveFrom": true,
      "hasCurveTo": true,
      "point": "{0.54327807288586882, 0.007591411167197748}"
    }
  ],
  "resizingConstraint": 63,
  "resizingType": 0,
  "rotation": 0,
  "shouldBreakMaskChain": false,
  "style": {
    "_class": "style",
    "do_objectID": "0048D78A-4D1E-43FC-AA20-EADF8DD1EE2B",
    "endMarkerType": 0,
    "fills": [
      {
        "_class": "fill",
        "color": {
          "_class": "color",
          "alpha": 1,
          "blue": 0.1764705882352941,
          "green": 0.1764705882352941,
          "red": 0.1764705882352941
        },
        "fillType": 0,
        "isEnabled": true,
        "noiseIndex": 0,
        "noiseIntensity": 0,
        "patternFillType": 1,
        "patternTileScale": 1
      }
    ],
    "miterLimit": 10,
    "startMarkerType": 0,
    "windingRule": 1
  }
}