{
  "_class": "shapePath",
  "booleanOperation": -1,
  "clippingMaskMode": 0,
  "do_objectID": "CBFE8557-5A62-43AA-A2C5-4052477D8331",
  "edited": true,
  "exportOptions": {
    "_class": "exportOptions",
    "do_objectID": "07B8ABFF-231C-42DE-AE26-A3E362CC5847",
    "exportFormats": [
    ],
    "includedLayerIds": [
    ],
    "layerOptions": 0,
    "shouldTrim": false
  },
  "frame": {
    "_class": "rect",
    "constrainProportions": false,
    "do_objectID": "FA812E99-12F9-48ED-B9D4-94DB6F1BE5B8",
    "height": 0.1312162987469137,
    "width": 0.1059863482545822,
    "x": 36.33880707574583,
    "y": 28.54293143424851
  },
  "hasClippingMask": false,
  "isClosed": true,
  "isFixedToViewport": false,
  "isFlippedHorizontal": false,
  "isFlippedVertical": false,
  "isLocked": false,
  "isVisible": true,
  "layerListExpandedType": 0,
  "name": "Path",
  "nameIsFixed": false,
  "pointRadiusBehaviour": 0,
  "points": [
    {
      "_class": "curvePoint",
      "cornerRadius": 0,
      "curveFrom": "{0.92663198519635481, 0.91409147095178589}",
      "curveMode": 4,
      "curveTo": "{1.0889206670853013, 0.64153275648950192}",
      "hasCurveFrom": true,
      "hasCurveTo": true,
      "point": "{0.98893237966553704, 0.81149567367119424}"
    },
    {
      "_class": "curvePoint",
      "cornerRadius": 0,
      "curveFrom": "{0.5236022728276204, 0.80469715698391109}",
      "curveMode": 4,
      "curveTo": "{0.56821243183026093, 0.9035846724351011}",
      "hasCurveFrom": true,
      "hasCurveTo": true,
      "point": "{0.48437609853219971, 1}"
    },
    {
      "_class": "curvePoint",
      "cornerRadius": 0,
      "curveFrom": "{0.076731542128686825, 0.085908529048214111}",
      "curveMode": 4,
      "curveTo": "{-0.090171983794994415, 0.35970333745364363}",
      "hasCurveFrom": true,
      "hasCurveTo": true,
      "point": "{0.011354584969652264, 0.18912237330036102}"
    },
    {
      "_class": "curvePoint",
      "cornerRadius": 0,
      "curveFrom": "{0.4774538324800538, 0.19344870210135298}",
      "curveMode": 4,
      "curveTo": "{0.43361281414985453, 0.096415327564863748}",
      "hasCurveFrom": true,
      "hasCurveTo": true,
      "point": "{0.5174491474479157, 0}"
    }
  ],
  "resizingConstraint": 63,
  "resizingType": 0,
  "rotation": 0,
  "shouldBreakMaskChain": false,
  "style": {
    "_class": "style",
    "do_objectID": "9D57A954-BF3E-4A51-B7B7-5A6BA0200D07",
    "endMarkerType": 0,
    "fills": [
      {
        "_class": "fill",
        "color": {
          "_class": "color",
          "alpha": 1,
          "blue": 0.1764705882352941,
          "green": 0.1764705882352941,
          "red": 0.1764705882352941
        },
        "fillType": 0,
        "isEnabled": true,
        "noiseIndex": 0,
        "noiseIntensity": 0,
        "patternFillType": 1,
        "patternTileScale": 1
      }
    ],
    "miterLimit": 10,
    "startMarkerType": 0,
    "windingRule": 1
  }
}