{
  "_class": "shapePath",
  "booleanOperation": -1,
  "clippingMaskMode": 0,
  "do_objectID": "CC2E2862-7027-4AE7-8E5B-74EFD0332849",
  "edited": true,
  "exportOptions": {
    "_class": "exportOptions",
    "do_objectID": "998DB257-DC5F-45D4-881E-60055264DC67",
    "exportFormats": [
    ],
    "includedLayerIds": [
    ],
    "layerOptions": 0,
    "shouldTrim": false
  },
  "frame": {
    "_class": "rect",
    "constrainProportions": false,
    "do_objectID": "B218ABB3-347F-45AF-BDBB-0EAB5946E469",
    "height": 0.1058906030855589,
    "width": 0.1059863482545822,
    "x": 36.58955925155134,
    "y": 15.46273127590934
  },
  "hasClippingMask": false,
  "isClosed": true,
  "isFixedToViewport": false,
  "isFlippedHorizontal": false,
  "isFlippedVertical": false,
  "isLocked": false,
  "isVisible": true,
  "layerListExpandedType": 0,
  "name": "Path",
  "nameIsFixed": false,
  "pointRadiusBehaviour": 0,
  "points": [
    {
      "_class": "curvePoint",
      "cornerRadius": 0,
      "curveFrom": "{0.94258466318245837, 0.24613906502881377}",
      "curveMode": 3,
      "curveTo": "{0.36358466318245064, -0.10786093497117122}",
      "hasCurveFrom": true,
      "hasCurveTo": true,
      "point": "{0.56458466318247247, 0.016139065028795585}"
    },
    {
      "_class": "curvePoint",
      "cornerRadius": 0,
      "curveFrom": "{-0.25641533681755391, 0.51613906502879559}",
      "curveMode": 3,
      "curveTo": "{0.32158466318242063, 0.86913906502880423}",
      "hasCurveFrom": true,
      "hasCurveTo": true,
      "point": "{0.11758466318246974, 0.74513906502878058}"
    }
  ],
  "resizingConstraint": 63,
  "resizingType": 0,
  "rotation": 0,
  "shouldBreakMaskChain": false,
  "style": {
    "_class": "style",
    "do_objectID": "9E23DA08-6036-4E37-8825-766D4E2C9345",
    "endMarkerType": 0,
    "fills": [
      {
        "_class": "fill",
        "color": {
          "_class": "color",
          "alpha": 1,
          "blue": 0.1764705882352941,
          "green": 0.1764705882352941,
          "red": 0.1764705882352941
        },
        "fillType": 0,
        "isEnabled": true,
        "noiseIndex": 0,
        "noiseIntensity": 0,
        "patternFillType": 1,
        "patternTileScale": 1
      }
    ],
    "miterLimit": 10,
    "startMarkerType": 0,
    "windingRule": 1
  }
}