{
  "_class": "shapePath",
  "booleanOperation": -1,
  "clippingMaskMode": 0,
  "do_objectID": "D0C2E5FD-313B-449E-BDC3-57EF49ECB784",
  "edited": true,
  "exportOptions": {
    "_class": "exportOptions",
    "do_objectID": "3DA53C74-A64A-4EC4-8168-D021827338B4",
    "exportFormats": [
    ],
    "includedLayerIds": [
    ],
    "layerOptions": 0,
    "shouldTrim": false
  },
  "frame": {
    "_class": "rect",
    "constrainProportions": false,
    "do_objectID": "A6303079-A5C4-4F84-B70E-6FB4A3947ACC",
    "height": 0.138920593172724,
    "width": 0.1388838613834551,
    "x": 9.637127601760927,
    "y": 17.61215960074689
  },
  "hasClippingMask": false,
  "isClosed": true,
  "isFixedToViewport": false,
  "isFlippedHorizontal": false,
  "isFlippedVertical": false,
  "isLocked": false,
  "isVisible": true,
  "layerListExpandedType": 0,
  "name": "Path",
  "nameIsFixed": false,
  "pointRadiusBehaviour": 0,
  "points": [
    {
      "_class": "curvePoint",
      "cornerRadius": 0,
      "curveFrom": "{0.78842781998831379, 0.22767075306480805}",
      "curveMode": 4,
      "curveTo": "{0.45295149035652038, 0.10624635143024928}",
      "hasCurveFrom": true,
      "hasCurveTo": true,
      "point": "{0.68088836937463892, 0}"
    },
    {
      "_class": "curvePoint",
      "cornerRadius": 0,
      "curveFrom": "{0.77206312098188146, 0.78809106830122544}",
      "curveMode": 4,
      "curveTo": "{0.89479836353010356, 0.45475773496789207}",
      "hasCurveFrom": true,
      "hasCurveTo": true,
      "point": "{1, 0.68184471687099268}"
    },
    {
      "_class": "curvePoint",
      "cornerRadius": 0,
      "curveFrom": "{0.21215663354763287, 0.77349678925862331}",
      "curveMode": 4,
      "curveTo": "{0.54529514903565623, 0.89433741973147474}",
      "hasCurveFrom": true,
      "hasCurveTo": true,
      "point": "{0.31852717708942269, 1}"
    },
    {
      "_class": "curvePoint",
      "cornerRadius": 0,
      "curveFrom": "{0.22618351841028683, 0.21190893169877456}",
      "curveMode": 4,
      "curveTo": "{0.10637054354178978, 0.54524226503210793}",
      "hasCurveFrom": true,
      "hasCurveTo": true,
      "point": "{0, 0.31815528312902386}"
    }
  ],
  "resizingConstraint": 63,
  "resizingType": 0,
  "rotation": 0,
  "shouldBreakMaskChain": false,
  "style": {
    "_class": "style",
    "do_objectID": "69D85FE5-435F-464D-8137-A1CC1B9D0707",
    "endMarkerType": 0,
    "fills": [
      {
        "_class": "fill",
        "color": {
          "_class": "color",
          "alpha": 1,
          "blue": 0.1764705882352941,
          "green": 0.1764705882352941,
          "red": 0.1764705882352941
        },
        "fillType": 0,
        "isEnabled": true,
        "noiseIndex": 0,
        "noiseIntensity": 0,
        "patternFillType": 1,
        "patternTileScale": 1
      }
    ],
    "miterLimit": 10,
    "startMarkerType": 0,
    "windingRule": 1
  }
}