{
  "_class": "shapePath",
  "booleanOperation": -1,
  "clippingMaskMode": 0,
  "do_objectID": "DAA585AC-D3A2-4F51-8F81-5243D82A67CE",
  "edited": true,
  "exportOptions": {
    "_class": "exportOptions",
    "do_objectID": "DC707AB7-371D-4776-9468-714CF9DC12D4",
    "exportFormats": [
    ],
    "includedLayerIds": [
    ],
    "layerOptions": 0,
    "shouldTrim": false
  },
  "frame": {
    "_class": "rect",
    "constrainProportions": false,
    "do_objectID": "E33B939F-F81A-46F0-9E89-19E330FE2FD1",
    "height": 0.1137802639937782,
    "width": 0.2828776866165512,
    "x": 37.91873348041926,
    "y": 25.47070211074408
  },
  "hasClippingMask": false,
  "isClosed": true,
  "isFixedToViewport": false,
  "isFlippedHorizontal": false,
  "isFlippedVertical": false,
  "isLocked": false,
  "isVisible": true,
  "layerListExpandedType": 0,
  "name": "Path",
  "nameIsFixed": false,
  "pointRadiusBehaviour": 0,
  "points": [
    {
      "_class": "curvePoint",
      "cornerRadius": 0,
      "curveFrom": "{0.73993216034701781, 1.074839629365657}",
      "curveMode": 4,
      "curveTo": "{0.96690796529652767, 0.69066286528869358}",
      "hasCurveFrom": true,
      "hasCurveTo": true,
      "point": "{0.86848482863701659, 0.83250178189592994}"
    },
    {
      "_class": "curvePoint",
      "cornerRadius": 0,
      "curveFrom": "{0.5112346678757751, 0.73913043478262275}",
      "curveMode": 4,
      "curveTo": "{0.68053394084695795, 0.85388453314323731}",
      "hasCurveFrom": true,
      "hasCurveTo": true,
      "point": "{0.62257046094834767, 0.61083392729865682}"
    },
    {
      "_class": "curvePoint",
      "cornerRadius": 0,
      "curveFrom": "{0.25183374793347801, 0.61225944404848542}",
      "curveMode": 4,
      "curveTo": "{0.39903803104231972, 0.87027797576620547}",
      "hasCurveFrom": true,
      "hasCurveTo": true,
      "point": "{0.28770223796974709, 1}"
    },
    {
      "_class": "curvePoint",
      "cornerRadius": 0,
      "curveFrom": "{-0.055200526776983498, 0.45972915181751434}",
      "curveMode": 4,
      "curveTo": "{0.14881944454930246, 0.68353528153959109}",
      "hasCurveFrom": true,
      "hasCurveTo": true,
      "point": "{0.042074818201377893, 0.77833214540268636}"
    },
    {
      "_class": "curvePoint",
      "cornerRadius": 0,
      "curveFrom": "{0.25958134178130832, -0.072701354240893787}",
      "curveMode": 4,
      "curveTo": "{0.03375332851296451, 0.31076265146117554}",
      "hasCurveFrom": true,
      "hasCurveTo": true,
      "point": "{0.13131562141160927, 0.16892373485389867}"
    },
    {
      "_class": "curvePoint",
      "cornerRadius": 0,
      "curveFrom": "{0.48913967801343383, 0.25944404846758912}",
      "curveMode": 4,
      "curveTo": "{0.32012735296253425, 0.1468282252316567}",
      "hasCurveFrom": true,
      "hasCurveTo": true,
      "point": "{0.37665609325969512, 0.3891660727013837}"
    },
    {
      "_class": "curvePoint",
      "cornerRadius": 0,
      "curveFrom": "{0.74796670211514782, 0.39059158945117178}",
      "curveMode": 4,
      "curveTo": "{0.6010493669265895, 0.13114754098362316}",
      "hasCurveFrom": true,
      "hasCurveTo": true,
      "point": "{0.7118112641585953, 0}"
    },
    {
      "_class": "curvePoint",
      "cornerRadius": 0,
      "curveFrom": "{1.055287924745909, 0.53955808980759168}",
      "curveMode": 4,
      "curveTo": "{0.850981005499307, 0.31646471846044938}",
      "hasCurveFrom": true,
      "hasCurveTo": true,
      "point": "{0.95743868392696452, 0.22238061297220768}"
    }
  ],
  "resizingConstraint": 63,
  "resizingType": 0,
  "rotation": 0,
  "shouldBreakMaskChain": false,
  "style": {
    "_class": "style",
    "do_objectID": "4AF18DC8-8A16-428F-BED6-752EAF2F9D92",
    "endMarkerType": 0,
    "fills": [
      {
        "_class": "fill",
        "color": {
          "_class": "color",
          "alpha": 1,
          "blue": 0.1764705882352941,
          "green": 0.1764705882352941,
          "red": 0.1764705882352941
        },
        "fillType": 0,
        "isEnabled": true,
        "noiseIndex": 0,
        "noiseIntensity": 0,
        "patternFillType": 1,
        "patternTileScale": 1
      }
    ],
    "miterLimit": 10,
    "startMarkerType": 0,
    "windingRule": 1
  }
}