{
  "_class": "shapePath",
  "booleanOperation": -1,
  "clippingMaskMode": 0,
  "do_objectID": "E209769D-D58F-4154-B95D-3B5C2749E41C",
  "edited": true,
  "exportOptions": {
    "_class": "exportOptions",
    "do_objectID": "AB58F02F-F0B7-4B9A-8D41-DCEA8B46AD29",
    "exportFormats": [
    ],
    "includedLayerIds": [
    ],
    "layerOptions": 0,
    "shouldTrim": false
  },
  "frame": {
    "_class": "rect",
    "constrainProportions": false,
    "do_objectID": "C0B2E6C4-ED0F-4F81-8F73-AE2EDA9D21B0",
    "height": 0.1058906030855624,
    "width": 0.1059863482545484,
    "x": 15.37457932931493,
    "y": 31.21468389781017
  },
  "hasClippingMask": false,
  "isClosed": true,
  "isFixedToViewport": false,
  "isFlippedHorizontal": false,
  "isFlippedVertical": false,
  "isLocked": false,
  "isVisible": true,
  "layerListExpandedType": 0,
  "name": "Path",
  "nameIsFixed": false,
  "pointRadiusBehaviour": 0,
  "points": [
    {
      "_class": "curvePoint",
      "cornerRadius": 0,
      "curveFrom": "{-0.30137392161407206, 0.786194154043244}",
      "curveMode": 3,
      "curveTo": "{0.46162607838593317, 1.0691941540432595}",
      "hasCurveFrom": true,
      "hasCurveTo": true,
      "point": "{0.19362607838593249, 0.97019415404321308}"
    },
    {
      "_class": "curvePoint",
      "cornerRadius": 0,
      "curveFrom": "{1.0406260783859409, 0.18919415404326401}",
      "curveMode": 3,
      "curveTo": "{0.27762607838593567, -0.087805845956779649}",
      "hasCurveFrom": true,
      "hasCurveTo": true,
      "point": "{0.54462607838593158, 0.0071941540432476359}"
    }
  ],
  "resizingConstraint": 63,
  "resizingType": 0,
  "rotation": 0,
  "shouldBreakMaskChain": false,
  "style": {
    "_class": "style",
    "do_objectID": "A90FF284-8072-4C24-8BBF-13DD3C14371E",
    "endMarkerType": 0,
    "fills": [
      {
        "_class": "fill",
        "color": {
          "_class": "color",
          "alpha": 1,
          "blue": 0.1764705882352941,
          "green": 0.1764705882352941,
          "red": 0.1764705882352941
        },
        "fillType": 0,
        "isEnabled": true,
        "noiseIndex": 0,
        "noiseIntensity": 0,
        "patternFillType": 1,
        "patternTileScale": 1
      }
    ],
    "miterLimit": 10,
    "startMarkerType": 0,
    "windingRule": 1
  }
}