{
  "_class": "shapePath",
  "booleanOperation": -1,
  "clippingMaskMode": 0,
  "do_objectID": "E5A9C397-7D77-4A10-8A3D-9B7146AC50DD",
  "edited": true,
  "exportOptions": {
    "_class": "exportOptions",
    "do_objectID": "70DA5D6A-A64D-46BF-9C44-CBD03C29521A",
    "exportFormats": [
    ],
    "includedLayerIds": [
    ],
    "layerOptions": 0,
    "shouldTrim": false
  },
  "frame": {
    "_class": "rect",
    "constrainProportions": false,
    "do_objectID": "F286B960-5BF4-4AB4-98A8-40D4A557B3E1",
    "height": 0.1104656360515044,
    "width": 0.1206495904789229,
    "x": 23.75460098533219,
    "y": 4.368548197281205
  },
  "hasClippingMask": false,
  "isClosed": true,
  "isFixedToViewport": false,
  "isFlippedHorizontal": false,
  "isFlippedVertical": false,
  "isLocked": false,
  "isVisible": true,
  "layerListExpandedType": 0,
  "name": "Path",
  "nameIsFixed": false,
  "pointRadiusBehaviour": 0,
  "points": [
    {
      "_class": "curvePoint",
      "cornerRadius": 0,
      "curveFrom": "{0.76813562310610295, -0.064510797129986974}",
      "curveMode": 3,
      "curveTo": "{0.12293537134077788, 0.10581093041079091}",
      "hasCurveFrom": true,
      "hasCurveTo": true,
      "point": "{0.39137635200226323, 0.035332974187050975}"
    },
    {
      "_class": "curvePoint",
      "cornerRadius": 0,
      "curveFrom": "{1.1132740268137105, 0.72542962887821871}",
      "curveMode": 4,
      "curveTo": "{0.8367596331999998, 0.044142718715023684}",
      "hasCurveFrom": true,
      "hasCurveTo": true,
      "point": "{0.94238678599159964, 0.40093737209789754}"
    },
    {
      "_class": "curvePoint",
      "cornerRadius": 0,
      "curveFrom": "{0.61204963936306556, 1}",
      "curveMode": 4,
      "curveTo": "{0.87510834472308008, 0.98825367396273089}",
      "hasCurveFrom": true,
      "hasCurveTo": true,
      "point": "{0.60599457964888703, 1}"
    },
    {
      "_class": "curvePoint",
      "cornerRadius": 0,
      "curveFrom": "{-0.11119360427375902, 0.26732291342363784}",
      "curveMode": 4,
      "curveTo": "{0.3207339886702813, 0.25851316889566511}",
      "hasCurveFrom": true,
      "hasCurveTo": true,
      "point": "{0.056329714484927809, 0.63512974746646711}"
    }
  ],
  "resizingConstraint": 63,
  "resizingType": 0,
  "rotation": 0,
  "shouldBreakMaskChain": false,
  "style": {
    "_class": "style",
    "do_objectID": "62554F63-941B-4BBF-AD40-5EE04C34918B",
    "endMarkerType": 0,
    "fills": [
      {
        "_class": "fill",
        "color": {
          "_class": "color",
          "alpha": 1,
          "blue": 0.1764705882352941,
          "green": 0.1764705882352941,
          "red": 0.1764705882352941
        },
        "fillType": 0,
        "isEnabled": true,
        "noiseIndex": 0,
        "noiseIntensity": 0,
        "patternFillType": 1,
        "patternTileScale": 1
      }
    ],
    "miterLimit": 10,
    "startMarkerType": 0,
    "windingRule": 1
  }
}