{
  "_class": "shapePath",
  "booleanOperation": -1,
  "clippingMaskMode": 0,
  "do_objectID": "EA7D532D-EF67-4625-A29B-06AE002ACAB2",
  "edited": true,
  "exportOptions": {
    "_class": "exportOptions",
    "do_objectID": "33040D58-B557-4C35-BEA7-926B4A435B7A",
    "exportFormats": [
    ],
    "includedLayerIds": [
    ],
    "layerOptions": 0,
    "shouldTrim": false
  },
  "frame": {
    "_class": "rect",
    "constrainProportions": false,
    "do_objectID": "151F8B04-17E8-4977-B724-7CFE7E964C10",
    "height": 0.1058906030855535,
    "width": 0.1059863482545822,
    "x": 34.19786680141766,
    "y": 12.01438595330335
  },
  "hasClippingMask": false,
  "isClosed": true,
  "isFixedToViewport": false,
  "isFlippedHorizontal": false,
  "isFlippedVertical": false,
  "isLocked": false,
  "isVisible": true,
  "layerListExpandedType": 0,
  "name": "Path",
  "nameIsFixed": false,
  "pointRadiusBehaviour": 0,
  "points": [
    {
      "_class": "curvePoint",
      "cornerRadius": 0,
      "curveFrom": "{1.0533888630027377, 0.27594467574812143}",
      "curveMode": 3,
      "curveTo": "{0.40538886300276999, -0.12005532425183674}",
      "hasCurveFrom": true,
      "hasCurveTo": true,
      "point": "{0.63238886300274544, 0.017944675748140071}"
    },
    {
      "_class": "curvePoint",
      "cornerRadius": 0,
      "curveFrom": "{-0.28861113699724683, 0.57494467574815644}",
      "curveMode": 3,
      "curveTo": "{0.35938886300277773, 0.97294467574812415}",
      "hasCurveFrom": true,
      "hasCurveTo": true,
      "point": "{0.13338886300277863, 0.8359446757481237}"
    }
  ],
  "resizingConstraint": 63,
  "resizingType": 0,
  "rotation": 0,
  "shouldBreakMaskChain": false,
  "style": {
    "_class": "style",
    "do_objectID": "017AB341-A71F-4CB3-8981-F2A3DB178E80",
    "endMarkerType": 0,
    "fills": [
      {
        "_class": "fill",
        "color": {
          "_class": "color",
          "alpha": 1,
          "blue": 0.1764705882352941,
          "green": 0.1764705882352941,
          "red": 0.1764705882352941
        },
        "fillType": 0,
        "isEnabled": true,
        "noiseIndex": 0,
        "noiseIntensity": 0,
        "patternFillType": 1,
        "patternTileScale": 1
      }
    ],
    "miterLimit": 10,
    "startMarkerType": 0,
    "windingRule": 1
  }
}