{
  "_class": "shapePath",
  "booleanOperation": -1,
  "clippingMaskMode": 0,
  "do_objectID": "ECB2B92F-704C-44DD-899E-DA595D396FAB",
  "edited": true,
  "exportOptions": {
    "_class": "exportOptions",
    "do_objectID": "F4381A07-79D4-4AFC-94A4-8A3A36739638",
    "exportFormats": [
    ],
    "includedLayerIds": [
    ],
    "layerOptions": 0,
    "shouldTrim": false
  },
  "frame": {
    "_class": "rect",
    "constrainProportions": false,
    "do_objectID": "8874E6C9-ED0A-4BB6-8A16-1EA6989A8176",
    "height": 0.1058906030855695,
    "width": 0.1181040434324032,
    "x": 40.92844893174456,
    "y": 17.99827350777948
  },
  "hasClippingMask": false,
  "isClosed": true,
  "isFixedToViewport": false,
  "isFlippedHorizontal": false,
  "isFlippedVertical": false,
  "isLocked": false,
  "isVisible": true,
  "layerListExpandedType": 0,
  "name": "Path",
  "nameIsFixed": false,
  "pointRadiusBehaviour": 0,
  "points": [
    {
      "_class": "curvePoint",
      "cornerRadius": 0,
      "curveFrom": "{0.25223367697595073, -0.026087666278698407}",
      "curveMode": 4,
      "curveTo": "{0.0089347079038029457, 0.55391233372128568}",
      "hasCurveFrom": true,
      "hasCurveTo": true,
      "point": "{0, 0.026912333721298864}"
    },
    {
      "_class": "curvePoint",
      "cornerRadius": 0,
      "curveFrom": "{0.75120274914088458, 0.41891233372129477}",
      "curveMode": 4,
      "curveTo": "{0.49072164948452135, -0.053087666278713641}",
      "hasCurveFrom": true,
      "hasCurveTo": true,
      "point": "{0.50034364261167574, 0.47091233372128727}"
    },
    {
      "_class": "curvePoint",
      "cornerRadius": 0,
      "curveFrom": "{0.74914089347079116, 0.96791233372130137}",
      "curveMode": 4,
      "curveTo": "{0.99312714776629041, 0.38991233372129841}",
      "hasCurveFrom": true,
      "hasCurveTo": true,
      "point": "{1, 0.91691233372128522}"
    },
    {
      "_class": "curvePoint",
      "cornerRadius": 0,
      "curveFrom": "{0.24879725085911547, 0.52391233372128454}",
      "curveMode": 4,
      "curveTo": "{0.50996563573883014, 0.99691233372129773}",
      "hasCurveFrom": true,
      "hasCurveTo": true,
      "point": "{0.50034364261167574, 0.47091233372128727}"
    }
  ],
  "resizingConstraint": 63,
  "resizingType": 0,
  "rotation": 0,
  "shouldBreakMaskChain": false,
  "style": {
    "_class": "style",
    "do_objectID": "E1D594C3-DA55-4DE9-902D-37E7F79B1401",
    "endMarkerType": 0,
    "fills": [
      {
        "_class": "fill",
        "color": {
          "_class": "color",
          "alpha": 1,
          "blue": 0.1764705882352941,
          "green": 0.1764705882352941,
          "red": 0.1764705882352941
        },
        "fillType": 0,
        "isEnabled": true,
        "noiseIndex": 0,
        "noiseIntensity": 0,
        "patternFillType": 1,
        "patternTileScale": 1
      }
    ],
    "miterLimit": 10,
    "startMarkerType": 0,
    "windingRule": 1
  }
}