{
  "_class": "shapePath",
  "booleanOperation": -1,
  "clippingMaskMode": 0,
  "do_objectID": "F7522A68-97FE-41C1-9A8F-F3F360D94B90",
  "edited": true,
  "exportOptions": {
    "_class": "exportOptions",
    "do_objectID": "80832BB1-B0DE-43BA-8F2D-B1347E791610",
    "exportFormats": [
    ],
    "includedLayerIds": [
    ],
    "layerOptions": 0,
    "shouldTrim": false
  },
  "frame": {
    "_class": "rect",
    "constrainProportions": false,
    "do_objectID": "C7593CA0-93B4-4E11-9AD8-AB6A5D17ABCD",
    "height": 0.1136180683216494,
    "width": 0.1439932051972281,
    "x": 15.5441550708132,
    "y": 23.77810917431191
  },
  "hasClippingMask": false,
  "isClosed": true,
  "isFixedToViewport": false,
  "isFlippedHorizontal": false,
  "isFlippedVertical": false,
  "isLocked": false,
  "isVisible": true,
  "layerListExpandedType": 0,
  "name": "Path",
  "nameIsFixed": false,
  "pointRadiusBehaviour": 0,
  "points": [
    {
      "_class": "curvePoint",
      "cornerRadius": 0,
      "curveFrom": "{0.47831969715573153, 0.26052819414704237}",
      "curveMode": 4,
      "curveTo": "{0.066807573755577443, 0.53319057815846438}",
      "hasCurveFrom": true,
      "hasCurveTo": true,
      "point": "{0.25847075451729018, 0.38972162740898514}"
    },
    {
      "_class": "curvePoint",
      "cornerRadius": 0,
      "curveFrom": "{1.1085533327192367, 0.31834403997146543}",
      "curveMode": 4,
      "curveTo": "{0.69704120931909863, 0.13062098501070046}",
      "hasCurveFrom": true,
      "hasCurveTo": true,
      "point": "{0.91689015195752388, 0}"
    },
    {
      "_class": "curvePoint",
      "cornerRadius": 0,
      "curveFrom": "{0.52172577044588264, 0.74232690935043244}",
      "curveMode": 4,
      "curveTo": "{0.93436532432109498, 0.46895074946469251}",
      "hasCurveFrom": true,
      "hasCurveTo": true,
      "point": "{0.74101099784678681, 0.61241970021413106}"
    },
    {
      "_class": "curvePoint",
      "cornerRadius": 0,
      "curveFrom": "{-0.10907158035515961, 0.68308351177729232}",
      "curveMode": 4,
      "curveTo": "{0.30413168875758984, 0.87080656673805723}",
      "hasCurveFrom": true,
      "hasCurveTo": true,
      "point": "{0.083155315644090275, 1}"
    }
  ],
  "resizingConstraint": 63,
  "resizingType": 0,
  "rotation": 0,
  "shouldBreakMaskChain": false,
  "style": {
    "_class": "style",
    "do_objectID": "1CC0BAD3-BFD5-48CD-8639-1D3C085B7892",
    "endMarkerType": 0,
    "fills": [
      {
        "_class": "fill",
        "color": {
          "_class": "color",
          "alpha": 1,
          "blue": 0.1764705882352941,
          "green": 0.1764705882352941,
          "red": 0.1764705882352941
        },
        "fillType": 0,
        "isEnabled": true,
        "noiseIndex": 0,
        "noiseIntensity": 0,
        "patternFillType": 1,
        "patternTileScale": 1
      }
    ],
    "miterLimit": 10,
    "startMarkerType": 0,
    "windingRule": 1
  }
}