{
  "_class": "shapePath",
  "booleanOperation": -1,
  "clippingMaskMode": 0,
  "do_objectID": "F918E239-ED82-4C70-A5A8-AEEBC1D2D382",
  "edited": true,
  "exportOptions": {
    "_class": "exportOptions",
    "do_objectID": "8B2D6E04-252D-4BA9-8D40-28A2E25B9744",
    "exportFormats": [
    ],
    "includedLayerIds": [
    ],
    "layerOptions": 0,
    "shouldTrim": false
  },
  "frame": {
    "_class": "rect",
    "constrainProportions": false,
    "do_objectID": "09C9C91B-7150-4303-B001-055E199434FC",
    "height": 0.1058906030855642,
    "width": 0.1059863482545396,
    "x": 37.86947500161806,
    "y": 13.78477911527779
  },
  "hasClippingMask": false,
  "isClosed": true,
  "isFixedToViewport": false,
  "isFlippedHorizontal": false,
  "isFlippedVertical": false,
  "isLocked": false,
  "isVisible": true,
  "layerListExpandedType": 0,
  "name": "Path",
  "nameIsFixed": false,
  "pointRadiusBehaviour": 0,
  "points": [
    {
      "_class": "curvePoint",
      "cornerRadius": 0,
      "curveFrom": "{1.0454757803387906, 0.18960680286582487}",
      "curveMode": 3,
      "curveTo": "{0.27847578033879472, -0.09039319713414784}",
      "hasCurveFrom": true,
      "hasCurveTo": true,
      "point": "{0.54647578033882382, 0.0076068028658085041}"
    },
    {
      "_class": "curvePoint",
      "cornerRadius": 0,
      "curveFrom": "{-0.30252421966122256, 0.78760680286583806}",
      "curveMode": 3,
      "curveTo": "{0.46047578033881109, 1.0646068028658249}",
      "hasCurveFrom": true,
      "hasCurveTo": true,
      "point": "{0.19447578033879154, 0.96860680286582124}"
    }
  ],
  "resizingConstraint": 63,
  "resizingType": 0,
  "rotation": 0,
  "shouldBreakMaskChain": false,
  "style": {
    "_class": "style",
    "do_objectID": "6859D5B6-293E-43C9-9DD9-6F3A4D8B0B25",
    "endMarkerType": 0,
    "fills": [
      {
        "_class": "fill",
        "color": {
          "_class": "color",
          "alpha": 1,
          "blue": 0.1764705882352941,
          "green": 0.1764705882352941,
          "red": 0.1764705882352941
        },
        "fillType": 0,
        "isEnabled": true,
        "noiseIndex": 0,
        "noiseIntensity": 0,
        "patternFillType": 1,
        "patternTileScale": 1
      }
    ],
    "miterLimit": 10,
    "startMarkerType": 0,
    "windingRule": 1
  }
}