{
  "_class": "shapePath",
  "booleanOperation": -1,
  "clippingMaskMode": 0,
  "do_objectID": "FF784C87-E567-4C72-AD7A-0CCBC9688C16",
  "edited": true,
  "exportOptions": {
    "_class": "exportOptions",
    "do_objectID": "CE900D87-B737-41B0-88A8-F36F26B1DF3F",
    "exportFormats": [
    ],
    "includedLayerIds": [
    ],
    "layerOptions": 0,
    "shouldTrim": false
  },
  "frame": {
    "_class": "rect",
    "constrainProportions": false,
    "do_objectID": "82ABAE5A-DD4F-4B1B-8EC0-580FC0B99F2C",
    "height": 0.1058906030855589,
    "width": 0.1059863482545591,
    "x": 15.08126196126355,
    "y": 19.13366981173363
  },
  "hasClippingMask": false,
  "isClosed": true,
  "isFixedToViewport": false,
  "isFlippedHorizontal": false,
  "isFlippedVertical": false,
  "isLocked": false,
  "isVisible": true,
  "layerListExpandedType": 0,
  "name": "Path",
  "nameIsFixed": false,
  "pointRadiusBehaviour": 0,
  "points": [
    {
      "_class": "curvePoint",
      "cornerRadius": 0,
      "curveFrom": "{-0.26980779710777369, 0.70258434595533004}",
      "curveMode": 3,
      "curveTo": "{0.41019220289223313, 0.94958434595534413}",
      "hasCurveFrom": true,
      "hasCurveTo": true,
      "point": "{0.17319220289220993, 0.86258434595532663}"
    },
    {
      "_class": "curvePoint",
      "cornerRadius": 0,
      "curveFrom": "{0.92819220289223381, 0.16758434595533345}",
      "curveMode": 3,
      "curveTo": "{0.24919220289223176, -0.079415654044652229}",
      "hasCurveFrom": true,
      "hasCurveTo": true,
      "point": "{0.48519220289222176, 0.0065843459553320827}"
    }
  ],
  "resizingConstraint": 63,
  "resizingType": 0,
  "rotation": 0,
  "shouldBreakMaskChain": false,
  "style": {
    "_class": "style",
    "do_objectID": "E067A90C-CA29-4415-842E-40A93BC61988",
    "endMarkerType": 0,
    "fills": [
      {
        "_class": "fill",
        "color": {
          "_class": "color",
          "alpha": 1,
          "blue": 0.1764705882352941,
          "green": 0.1764705882352941,
          "red": 0.1764705882352941
        },
        "fillType": 0,
        "isEnabled": true,
        "noiseIndex": 0,
        "noiseIntensity": 0,
        "patternFillType": 1,
        "patternTileScale": 1
      }
    ],
    "miterLimit": 10,
    "startMarkerType": 0,
    "windingRule": 1
  }
}