{
  "_class": "group",
  "booleanOperation": 0,
  "clippingMaskMode": 0,
  "do_objectID": "0EFD4886-7518-4491-942F-8B295C1650C1",
  "exportOptions": {
    "_class": "exportOptions",
    "do_objectID": "B0ED14C1-3B34-44EF-894A-D33FEC42CBDB",
    "exportFormats": [
    ],
    "includedLayerIds": [
    ],
    "layerOptions": 0,
    "shouldTrim": false
  },
  "frame": {
    "_class": "rect",
    "constrainProportions": true,
    "do_objectID": "B7B718DD-3803-4559-8793-0A3E9EE21E31",
    "height": 20,
    "width": 20.00000000000001,
    "x": 2,
    "y": 2
  },
  "groupLayout": {
    "_class": "MSImmutableFreeformGroupLayout",
    "do_objectID": "44DBD115-4A33-4F99-9F21-FA30DE272A3F"
  },
  "hasClickThrough": false,
  "hasClippingMask": false,
  "isFixedToViewport": false,
  "isFlippedHorizontal": false,
  "isFlippedVertical": false,
  "isLocked": false,
  "isVisible": true,
  "layerListExpandedType": 1,
  "layers": [
    {
      "class": "oval",
      "id": "40EF6CF9-5110-49E2-BC53-3332DDA0D7FB"
    },
    {
      "class": "shapePath",
      "id": "F5B066BF-B983-4AA6-A7CC-44279969FEC7"
    }
  ],
  "name": "Group 4",
  "nameIsFixed": false,
  "resizingConstraint": 63,
  "resizingType": 0,
  "rotation": 0,
  "shouldBreakMaskChain": false,
  "style": {
    "_class": "style",
    "do_objectID": "525D690F-E833-475B-998A-EEF3DEF93F7A",
    "endMarkerType": 0,
    "miterLimit": 10,
    "startMarkerType": 0,
    "windingRule": 1
  },
  "userInfo": {
    "com.animaapp.stc-sketch-plugin": {
      "kModelPropertiesKey": {
        "constraints": {
          "aspectRatio": {
            "constant": 20,
            "enabled": 1,
            "modelID": "constraint_9f6b75c8-7753-45b9-bd0e-b9013822a452",
            "model_class": "ADModelConstraint",
            "model_version": 0,
            "multiplier": 20
          },
          "automatic": 1,
          "modelID": "viewConstraints_cc827826-053b-4c6c-9a85-9aaa45c6a1c1",
          "model_class": "ADModelViewConstraints",
          "model_version": 0,
          "scaleFactor": 1
        }
      }
    }
  }
}