{
  "_class": "shapePath",
  "booleanOperation": -1,
  "clippingMaskMode": 0,
  "do_objectID": "A63865BE-DDAD-43C6-BA0E-A9A796C8B4F0",
  "edited": true,
  "exportOptions": {
    "_class": "exportOptions",
    "do_objectID": "982BE59B-B150-43AE-A184-4C3382395489",
    "exportFormats": [
    ],
    "includedLayerIds": [
    ],
    "layerOptions": 0,
    "shouldTrim": false
  },
  "frame": {
    "_class": "rect",
    "constrainProportions": false,
    "do_objectID": "D1796E53-04D1-4F2E-9BF9-574D66BF4EE1",
    "height": 67.21378744357813,
    "width": 49.4501436192038,
    "x": 200.1370537546163,
    "y": 0.0960196963479725
  },
  "hasClippingMask": false,
  "isClosed": true,
  "isFixedToViewport": false,
  "isFlippedHorizontal": false,
  "isFlippedVertical": false,
  "isLocked": false,
  "isVisible": true,
  "layerListExpandedType": 0,
  "name": "Path",
  "nameIsFixed": false,
  "pointRadiusBehaviour": 0,
  "points": [
    {
      "_class": "curvePoint",
      "cornerRadius": 0,
      "curveFrom": "{1, 0}",
      "curveMode": 1,
      "curveTo": "{1, 0}",
      "hasCurveFrom": false,
      "hasCurveTo": false,
      "point": "{1, 0}"
    },
    {
      "_class": "curvePoint",
      "cornerRadius": 0,
      "curveFrom": "{1, 1}",
      "curveMode": 1,
      "curveTo": "{1, 1}",
      "hasCurveFrom": false,
      "hasCurveTo": false,
      "point": "{1, 1}"
    },
    {
      "_class": "curvePoint",
      "cornerRadius": 0,
      "curveFrom": "{0.87572815533980697, 1}",
      "curveMode": 1,
      "curveTo": "{0.87572815533980697, 1}",
      "hasCurveFrom": false,
      "hasCurveTo": false,
      "point": "{0.87572815533980697, 1}"
    },
    {
      "_class": "curvePoint",
      "cornerRadius": 0,
      "curveFrom": "{0.069902912621358948, 0.40571428571428547}",
      "curveMode": 1,
      "curveTo": "{0.069902912621358948, 0.40571428571428547}",
      "hasCurveFrom": false,
      "hasCurveTo": false,
      "point": "{0.069902912621358948, 0.40571428571428547}"
    },
    {
      "_class": "curvePoint",
      "cornerRadius": 0,
      "curveFrom": "{0.069902912621358948, 0.94857142857142884}",
      "curveMode": 1,
      "curveTo": "{0.069902912621358948, 0.94857142857142884}",
      "hasCurveFrom": false,
      "hasCurveTo": false,
      "point": "{0.069902912621358948, 0.94857142857142884}"
    },
    {
      "_class": "curvePoint",
      "cornerRadius": 0,
      "curveFrom": "{0.13203883495145544, 0.94857142857142884}",
      "curveMode": 1,
      "curveTo": "{0.13203883495145544, 0.94857142857142884}",
      "hasCurveFrom": false,
      "hasCurveTo": false,
      "point": "{0.13203883495145544, 0.94857142857142884}"
    },
    {
      "_class": "curvePoint",
      "cornerRadius": 0,
      "curveFrom": "{0.13203883495145544, 0.52428571428571413}",
      "curveMode": 1,
      "curveTo": "{0.13203883495145544, 0.52428571428571413}",
      "hasCurveFrom": false,
      "hasCurveTo": false,
      "point": "{0.13203883495145544, 0.52428571428571413}"
    },
    {
      "_class": "curvePoint",
      "cornerRadius": 0,
      "curveFrom": "{0.20388349514563001, 0.57857142857142818}",
      "curveMode": 1,
      "curveTo": "{0.20388349514563001, 0.57857142857142818}",
      "hasCurveFrom": false,
      "hasCurveTo": false,
      "point": "{0.20388349514563001, 0.57857142857142818}"
    },
    {
      "_class": "curvePoint",
      "cornerRadius": 0,
      "curveFrom": "{0.20388349514563001, 1}",
      "curveMode": 1,
      "curveTo": "{0.20388349514563001, 1}",
      "hasCurveFrom": false,
      "hasCurveTo": false,
      "point": "{0.20388349514563001, 1}"
    },
    {
      "_class": "curvePoint",
      "cornerRadius": 0,
      "curveFrom": "{0, 1}",
      "curveMode": 1,
      "curveTo": "{0, 1}",
      "hasCurveFrom": false,
      "hasCurveTo": false,
      "point": "{0, 1}"
    },
    {
      "_class": "curvePoint",
      "cornerRadius": 0,
      "curveFrom": "{0, 0.27999999999999947}",
      "curveMode": 1,
      "curveTo": "{0, 0.27999999999999947}",
      "hasCurveFrom": false,
      "hasCurveTo": false,
      "point": "{0, 0.27999999999999947}"
    },
    {
      "_class": "curvePoint",
      "cornerRadius": 0,
      "curveFrom": "{0.88932038834951632, 0.94285714285714295}",
      "curveMode": 1,
      "curveTo": "{0.88932038834951632, 0.94285714285714295}",
      "hasCurveFrom": false,
      "hasCurveTo": false,
      "point": "{0.88932038834951632, 0.94285714285714295}"
    },
    {
      "_class": "curvePoint",
      "cornerRadius": 0,
      "curveFrom": "{0.8970873786407787, 0.94857142857142884}",
      "curveMode": 1,
      "curveTo": "{0.8970873786407787, 0.94857142857142884}",
      "hasCurveFrom": false,
      "hasCurveTo": false,
      "point": "{0.8970873786407787, 0.94857142857142884}"
    },
    {
      "_class": "curvePoint",
      "cornerRadius": 0,
      "curveFrom": "{0.93009708737864105, 0.94857142857142884}",
      "curveMode": 1,
      "curveTo": "{0.93009708737864105, 0.94857142857142884}",
      "hasCurveFrom": false,
      "hasCurveTo": false,
      "point": "{0.93009708737864105, 0.94857142857142884}"
    },
    {
      "_class": "curvePoint",
      "cornerRadius": 0,
      "curveFrom": "{0.93009708737864105, 0.049999999999999663}",
      "curveMode": 1,
      "curveTo": "{0.93009708737864105, 0.049999999999999663}",
      "hasCurveFrom": false,
      "hasCurveTo": false,
      "point": "{0.93009708737864105, 0.049999999999999663}"
    },
    {
      "_class": "curvePoint",
      "cornerRadius": 0,
      "curveFrom": "{0.73203883495145483, 0.049999999999999663}",
      "curveMode": 1,
      "curveTo": "{0.73203883495145483, 0.049999999999999663}",
      "hasCurveFrom": false,
      "hasCurveTo": false,
      "point": "{0.73203883495145483, 0.049999999999999663}"
    },
    {
      "_class": "curvePoint",
      "cornerRadius": 0,
      "curveFrom": "{0.73203883495145483, 0.47857142857142887}",
      "curveMode": 1,
      "curveTo": "{0.73203883495145483, 0.47857142857142887}",
      "hasCurveFrom": false,
      "hasCurveTo": false,
      "point": "{0.73203883495145483, 0.47857142857142887}"
    },
    {
      "_class": "curvePoint",
      "cornerRadius": 0,
      "curveFrom": "{0.66213592233009899, 0.42285714285714326}",
      "curveMode": 1,
      "curveTo": "{0.66213592233009899, 0.42285714285714326}",
      "hasCurveFrom": false,
      "hasCurveTo": false,
      "point": "{0.66213592233009899, 0.42285714285714326}"
    },
    {
      "_class": "curvePoint",
      "cornerRadius": 0,
      "curveFrom": "{0.66213592233009899, 0}",
      "curveMode": 1,
      "curveTo": "{0.66213592233009899, 0}",
      "hasCurveFrom": false,
      "hasCurveTo": false,
      "point": "{0.66213592233009899, 0}"
    }
  ],
  "resizingConstraint": 63,
  "resizingType": 0,
  "rotation": 0,
  "shouldBreakMaskChain": false,
  "style": {
    "_class": "style",
    "do_objectID": "CFA2820B-6779-4DF8-9C30-ACEDCC26627F",
    "endMarkerType": 0,
    "fills": [
      {
        "_class": "fill",
        "color": {
          "_class": "color",
          "alpha": 1,
          "blue": 0.419607843137255,
          "green": 0.615686274509804,
          "red": 0.7254901960784313
        },
        "fillType": 1,
        "gradient": {
          "_class": "gradient",
          "elipseLength": 0,
          "from": "{2.7755575615628914e-16, 0.075306725971607924}",
          "gradientType": 0,
          "stops": [
            {
              "_class": "gradientStop",
              "color": {
                "_class": "color",
                "alpha": 1,
                "blue": 0.9265252976190477,
                "green": 0.5401791888111952,
                "red": 0.1870671538792877
              },
              "position": 0
            },
            {
              "_class": "gradientStop",
              "color": {
                "_class": "color",
                "alpha": 1,
                "blue": 0.9598121951227108,
                "green": 0.583983142381141,
                "red": 0.7261670768607007
              },
              "position": 0.3686598617851218
            },
            {
              "_class": "gradientStop",
              "color": {
                "_class": "color",
                "alpha": 1,
                "blue": 0.9678996598639455,
                "green": 0.5946258563794835,
                "red": 0.8571480917971271
              },
              "position": 0.6586645592181204
            },
            {
              "_class": "gradientStop",
              "color": {
                "_class": "color",
                "alpha": 1,
                "blue": 0.9143597368024587,
                "green": 0.6776316662260651,
                "red": 0.5366447696147074
              },
              "position": 0.7729254689422581
            },
            {
              "_class": "gradientStop",
              "color": {
                "_class": "color",
                "alpha": 1,
                "blue": 0.8784313725490196,
                "green": 0.7333333333333334,
                "red": 0.3215686274509803
              },
              "position": 1
            }
          ],
          "to": "{0.96123888685135161, 1}"
        },
        "isEnabled": true,
        "noiseIndex": 0,
        "noiseIntensity": 0,
        "patternFillType": 1,
        "patternTileScale": 1
      }
    ],
    "miterLimit": 10,
    "shadows": [
      {
        "_class": "shadow",
        "blurRadius": 2,
        "color": {
          "_class": "color",
          "alpha": 0.5,
          "blue": 0.7906303146258503,
          "green": 0.7906303146258503,
          "red": 0.7906303146258503
        },
        "contextSettings": {
          "_class": "graphicsContextSettings",
          "blendMode": 0,
          "opacity": 1
        },
        "isEnabled": true,
        "offsetX": 0,
        "offsetY": 10,
        "spread": 0
      }
    ],
    "startMarkerType": 0,
    "textStyle": {
      "_class": "textStyle",
      "do_objectID": "C9ABA23C-51DB-46C4-8870-55DC4871B063",
      "encodedAttributes": {
        "MSAttributedStringColorAttribute": {
          "_class": "color",
          "alpha": 1,
          "blue": 0.1764705882,
          "green": 0.1764705882,
          "red": 0.1764705882
        },
        "MSAttributedStringFontAttribute": {
          "_class": "UIFontDescriptor",
          "attributes": {
            "name": "ArgonPERSONAL-Regular",
            "size": 72
          }
        },
        "kerning": 2,
        "paragraphStyle": {
          "_class": "paragraphStyle",
          "alignment": 2
        }
      },
      "verticalAlignment": 0
    },
    "windingRule": 1
  }
}