{
  "_class": "shapePath",
  "booleanOperation": -1,
  "clippingMaskMode": 0,
  "do_objectID": "C69C5508-7456-4499-9B32-1E8A2C3FF3D1",
  "edited": true,
  "exportOptions": {
    "_class": "exportOptions",
    "do_objectID": "F0CF68B3-6E16-4D59-9BE7-C4FB1AA5D3E1",
    "exportFormats": [
    ],
    "includedLayerIds": [
    ],
    "layerOptions": 0,
    "shouldTrim": false
  },
  "frame": {
    "_class": "rect",
    "constrainProportions": false,
    "do_objectID": "D99D8060-B8D8-4792-B363-7744D1B15DDC",
    "height": 28.51784981534673,
    "width": 36.10340582683647,
    "x": 62.77554370127191,
    "y": 0.0960196963479725
  },
  "hasClippingMask": false,
  "isClosed": true,
  "isFixedToViewport": false,
  "isFlippedHorizontal": false,
  "isFlippedVertical": false,
  "isLocked": false,
  "isVisible": true,
  "layerListExpandedType": 0,
  "name": "Path",
  "nameIsFixed": false,
  "pointRadiusBehaviour": 0,
  "points": [
    {
      "_class": "curvePoint",
      "cornerRadius": 0,
      "curveFrom": "{1, 0}",
      "curveMode": 1,
      "curveTo": "{1, 0}",
      "hasCurveFrom": false,
      "hasCurveTo": false,
      "point": "{1, 0}"
    },
    {
      "_class": "curvePoint",
      "cornerRadius": 0,
      "curveFrom": "{1, 1}",
      "curveMode": 1,
      "curveTo": "{1, 1}",
      "hasCurveFrom": false,
      "hasCurveTo": false,
      "point": "{1, 1}"
    },
    {
      "_class": "curvePoint",
      "cornerRadius": 0,
      "curveFrom": "{0, 1}",
      "curveMode": 1,
      "curveTo": "{0, 1}",
      "hasCurveFrom": false,
      "hasCurveTo": false,
      "point": "{0, 1}"
    },
    {
      "_class": "curvePoint",
      "cornerRadius": 0,
      "curveFrom": "{0, 0.22222222222221985}",
      "curveMode": 1,
      "curveTo": "{0, 0.22222222222221985}",
      "hasCurveFrom": false,
      "hasCurveTo": false,
      "point": "{0, 0.22222222222221985}"
    },
    {
      "_class": "curvePoint",
      "cornerRadius": 0,
      "curveFrom": "{0.095744680851067049, 0.22222222222221985}",
      "curveMode": 1,
      "curveTo": "{0.095744680851067049, 0.22222222222221985}",
      "hasCurveFrom": false,
      "hasCurveTo": false,
      "point": "{0.095744680851067049, 0.22222222222221985}"
    },
    {
      "_class": "curvePoint",
      "cornerRadius": 0,
      "curveFrom": "{0.095744680851067049, 0.88215488215488047}",
      "curveMode": 1,
      "curveTo": "{0.095744680851067049, 0.88215488215488047}",
      "hasCurveFrom": false,
      "hasCurveTo": false,
      "point": "{0.095744680851067049, 0.88215488215488047}"
    },
    {
      "_class": "curvePoint",
      "cornerRadius": 0,
      "curveFrom": "{0.90691489361701816, 0.88215488215488047}",
      "curveMode": 1,
      "curveTo": "{0.90691489361701816, 0.88215488215488047}",
      "hasCurveFrom": false,
      "hasCurveTo": false,
      "point": "{0.90691489361701816, 0.88215488215488047}"
    },
    {
      "_class": "curvePoint",
      "cornerRadius": 0,
      "curveFrom": "{0.90691489361701816, 0}",
      "curveMode": 1,
      "curveTo": "{0.90691489361701816, 0}",
      "hasCurveFrom": false,
      "hasCurveTo": false,
      "point": "{0.90691489361701816, 0}"
    }
  ],
  "resizingConstraint": 63,
  "resizingType": 0,
  "rotation": 0,
  "shouldBreakMaskChain": false,
  "style": {
    "_class": "style",
    "do_objectID": "2A842123-FE50-4E54-840B-46F7EF457128",
    "endMarkerType": 0,
    "fills": [
      {
        "_class": "fill",
        "color": {
          "_class": "color",
          "alpha": 1,
          "blue": 0.419607843137255,
          "green": 0.615686274509804,
          "red": 0.7254901960784313
        },
        "fillType": 1,
        "gradient": {
          "_class": "gradient",
          "elipseLength": 0,
          "from": "{2.7755575615628914e-16, 0.075306725971607924}",
          "gradientType": 0,
          "stops": [
            {
              "_class": "gradientStop",
              "color": {
                "_class": "color",
                "alpha": 1,
                "blue": 0.9265252976190477,
                "green": 0.5401791888111952,
                "red": 0.1870671538792877
              },
              "position": 0
            },
            {
              "_class": "gradientStop",
              "color": {
                "_class": "color",
                "alpha": 1,
                "blue": 0.9598121951227108,
                "green": 0.583983142381141,
                "red": 0.7261670768607007
              },
              "position": 0.3686598617851218
            },
            {
              "_class": "gradientStop",
              "color": {
                "_class": "color",
                "alpha": 1,
                "blue": 0.9678996598639455,
                "green": 0.5946258563794835,
                "red": 0.8571480917971271
              },
              "position": 0.6586645592181204
            },
            {
              "_class": "gradientStop",
              "color": {
                "_class": "color",
                "alpha": 1,
                "blue": 0.9143597368024587,
                "green": 0.6776316662260651,
                "red": 0.5366447696147074
              },
              "position": 0.7729254689422581
            },
            {
              "_class": "gradientStop",
              "color": {
                "_class": "color",
                "alpha": 1,
                "blue": 0.8784313725490196,
                "green": 0.7333333333333334,
                "red": 0.3215686274509803
              },
              "position": 1
            }
          ],
          "to": "{0.96123888685135161, 1}"
        },
        "isEnabled": true,
        "noiseIndex": 0,
        "noiseIntensity": 0,
        "patternFillType": 1,
        "patternTileScale": 1
      }
    ],
    "miterLimit": 10,
    "shadows": [
      {
        "_class": "shadow",
        "blurRadius": 2,
        "color": {
          "_class": "color",
          "alpha": 0.5,
          "blue": 0.7906303146258503,
          "green": 0.7906303146258503,
          "red": 0.7906303146258503
        },
        "contextSettings": {
          "_class": "graphicsContextSettings",
          "blendMode": 0,
          "opacity": 1
        },
        "isEnabled": true,
        "offsetX": 0,
        "offsetY": 10,
        "spread": 0
      }
    ],
    "startMarkerType": 0,
    "textStyle": {
      "_class": "textStyle",
      "do_objectID": "67F52207-0170-42D0-99D0-C03247DF11C4",
      "encodedAttributes": {
        "MSAttributedStringColorAttribute": {
          "_class": "color",
          "alpha": 1,
          "blue": 0.1764705882,
          "green": 0.1764705882,
          "red": 0.1764705882
        },
        "MSAttributedStringFontAttribute": {
          "_class": "UIFontDescriptor",
          "attributes": {
            "name": "ArgonPERSONAL-Regular",
            "size": 72
          }
        },
        "kerning": 2,
        "paragraphStyle": {
          "_class": "paragraphStyle",
          "alignment": 2
        }
      },
      "verticalAlignment": 0
    },
    "windingRule": 1
  }
}