{
  "_class": "shapePath",
  "booleanOperation": -1,
  "clippingMaskMode": 0,
  "do_objectID": "F4612E73-F97B-4312-A2BC-25FBF69EB7D9",
  "edited": true,
  "exportOptions": {
    "_class": "exportOptions",
    "do_objectID": "C3A62A50-D89B-492F-B44C-F5C777A56D41",
    "exportFormats": [
    ],
    "includedLayerIds": [
    ],
    "layerOptions": 0,
    "shouldTrim": false
  },
  "frame": {
    "_class": "rect",
    "constrainProportions": false,
    "do_objectID": "4FC37343-3932-483C-87E6-75A1B5F4EE16",
    "height": 2,
    "width": 997,
    "x": 0,
    "y": 2865
  },
  "hasClippingMask": false,
  "isClosed": false,
  "isFixedToViewport": false,
  "isFlippedHorizontal": false,
  "isFlippedVertical": false,
  "isLocked": false,
  "isVisible": true,
  "layerListExpandedType": 0,
  "name": "Line 2",
  "nameIsFixed": false,
  "pointRadiusBehaviour": 1,
  "points": [
    {
      "_class": "curvePoint",
      "cornerRadius": 0,
      "curveFrom": "{0, 0.25000000000000022}",
      "curveMode": 1,
      "curveTo": "{0, 0.25000000000000022}",
      "hasCurveFrom": false,
      "hasCurveTo": false,
      "point": "{0, 0.25000000000000022}"
    },
    {
      "_class": "curvePoint",
      "cornerRadius": 0,
      "curveFrom": "{0, 0.25000000000000022}",
      "curveMode": 1,
      "curveTo": "{0, 0.25000000000000022}",
      "hasCurveFrom": false,
      "hasCurveTo": false,
      "point": "{0.9997222222222224, 0.25}"
    }
  ],
  "resizingConstraint": 63,
  "resizingType": 0,
  "rotation": 0,
  "shouldBreakMaskChain": false,
  "style": {
    "_class": "style",
    "borderOptions": {
      "_class": "borderOptions",
      "dashPattern": [
      ],
      "do_objectID": "6E8567CA-08AD-4A2D-B11C-16B15BF26348",
      "isEnabled": false,
      "lineCapStyle": 2,
      "lineJoinStyle": 0
    },
    "borders": [
      {
        "_class": "border",
        "color": {
          "_class": "color",
          "alpha": 1,
          "blue": 0.9294117647058824,
          "green": 0.9294117647058824,
          "red": 0.9294117647058824
        },
        "fillType": 0,
        "isEnabled": true,
        "position": 0,
        "thickness": 1
      }
    ],
    "do_objectID": "C1490BF7-8C5B-43D8-A96F-E829437CED15",
    "endMarkerType": 0,
    "fills": [
      {
        "_class": "fill",
        "color": {
          "_class": "color",
          "alpha": 1,
          "blue": 0.847,
          "green": 0.847,
          "red": 0.847
        },
        "fillType": 0,
        "isEnabled": false,
        "noiseIndex": 0,
        "noiseIntensity": 0,
        "patternFillType": 0,
        "patternTileScale": 1
      }
    ],
    "miterLimit": 10,
    "startMarkerType": 0,
    "windingRule": 1
  }
}