{
  "_class": "group",
  "booleanOperation": 0,
  "clippingMaskMode": 0,
  "do_objectID": "29BCD339-7A00-4FA7-817C-3BB5099CCDD3",
  "exportOptions": {
    "_class": "exportOptions",
    "do_objectID": "A98C23A9-C547-49A1-9628-701C15B19BF7",
    "exportFormats": [
    ],
    "includedLayerIds": [
    ],
    "layerOptions": 0,
    "shouldTrim": false
  },
  "frame": {
    "_class": "rect",
    "constrainProportions": true,
    "do_objectID": "6F2C5D50-0040-437C-A613-F605EE7884A0",
    "height": 6,
    "width": 12,
    "x": 44,
    "y": 7
  },
  "groupLayout": {
    "_class": "MSImmutableFreeformGroupLayout",
    "do_objectID": "BE27895C-0557-4254-9D94-9FDA06F7A784"
  },
  "hasClickThrough": false,
  "hasClippingMask": false,
  "isFixedToViewport": false,
  "isFlippedHorizontal": false,
  "isFlippedVertical": false,
  "isLocked": false,
  "isVisible": true,
  "layerListExpandedType": 0,
  "layers": [
    {
      "class": "shapePath",
      "id": "7F603DA1-5D01-47ED-97C9-708EEB6AAD16"
    }
  ],
  "name": "Top",
  "nameIsFixed": true,
  "resizingConstraint": 63,
  "resizingType": 0,
  "rotation": 270,
  "shouldBreakMaskChain": false,
  "style": {
    "_class": "style",
    "do_objectID": "42701C65-43F3-4614-98AB-A2ADFDA49B7D",
    "endMarkerType": 0,
    "miterLimit": 10,
    "startMarkerType": 0,
    "windingRule": 1
  },
  "userInfo": {
    "com.animaapp.stc-sketch-plugin": {
      "kModelPropertiesKey": {
        "constraints": {
          "aspectRatio": {
            "constant": 6,
            "enabled": 1,
            "modelID": "constraint_2e97dea6-552f-48ef-aa81-003b1201c805",
            "model_class": "ADModelConstraint",
            "model_version": 0,
            "multiplier": 12
          },
          "automatic": 1,
          "modelID": "viewConstraints_00b14f40-ae12-4306-9302-437d7d274db8",
          "model_class": "ADModelViewConstraints",
          "model_version": 0,
          "scaleFactor": 1
        }
      }
    }
  }
}