{
  "_class": "shapePath",
  "booleanOperation": -1,
  "clippingMaskMode": 0,
  "do_objectID": "068ABCCF-CBE6-4737-8B5E-97BB15756245",
  "edited": true,
  "exportOptions": {
    "_class": "exportOptions",
    "do_objectID": "E598DF39-7541-4BBA-BD86-FE18D282D2AE",
    "exportFormats": [
    ],
    "includedLayerIds": [
    ],
    "layerOptions": 0,
    "shouldTrim": false
  },
  "frame": {
    "_class": "rect",
    "constrainProportions": false,
    "do_objectID": "E88DDCD8-F9C4-4E70-B83D-E2298B876D95",
    "height": 0.1830378159900192,
    "width": 0.2336917807848948,
    "x": 26.20878890419433,
    "y": 12.13789347094736
  },
  "hasClippingMask": false,
  "isClosed": true,
  "isFixedToViewport": false,
  "isFlippedHorizontal": false,
  "isFlippedVertical": false,
  "isLocked": false,
  "isVisible": true,
  "layerListExpandedType": 0,
  "name": "Path",
  "nameIsFixed": false,
  "pointRadiusBehaviour": 0,
  "points": [
    {
      "_class": "curvePoint",
      "cornerRadius": 0,
      "curveFrom": "{0.27023271969434348, 0.32210899424015538}",
      "curveMode": 4,
      "curveTo": "{0.063216394581457155, 0.65440850686753615}",
      "hasCurveFrom": true,
      "hasCurveTo": true,
      "point": "{0, 0.48338502436863351}"
    },
    {
      "_class": "curvePoint",
      "cornerRadius": 0,
      "curveFrom": "{0.8739145536644678, 0.17190961453257989}",
      "curveMode": 4,
      "curveTo": "{0.54081278221604934, 0.16083296411165207}",
      "hasCurveFrom": true,
      "hasCurveTo": true,
      "point": "{0.81104550191039282, 0}"
    },
    {
      "_class": "curvePoint",
      "cornerRadius": 0,
      "curveFrom": "{0.73011462313303865, 0.6783340717766958}",
      "curveMode": 4,
      "curveTo": "{0.93678360541854289, 0.34470536109881184}",
      "hasCurveFrom": true,
      "hasCurveTo": true,
      "point": "{1, 0.51617190961454051}"
    },
    {
      "_class": "curvePoint",
      "cornerRadius": 0,
      "curveFrom": "{0.12678013199027671, 0.82809038546744529}",
      "curveMode": 4,
      "curveTo": "{0.45918721778395066, 0.83828090385467069}",
      "hasCurveFrom": true,
      "hasCurveTo": true,
      "point": "{0.18930184091698934, 1}"
    }
  ],
  "resizingConstraint": 63,
  "resizingType": 0,
  "rotation": 0,
  "shouldBreakMaskChain": false,
  "style": {
    "_class": "style",
    "do_objectID": "073D6050-4149-4351-AC1D-D251CA6CC635",
    "endMarkerType": 0,
    "fills": [
      {
        "_class": "fill",
        "color": {
          "_class": "color",
          "alpha": 1,
          "blue": 0.1764705882352941,
          "green": 0.1764705882352941,
          "red": 0.1764705882352941
        },
        "fillType": 0,
        "isEnabled": true,
        "noiseIndex": 0,
        "noiseIntensity": 0,
        "patternFillType": 1,
        "patternTileScale": 1
      }
    ],
    "miterLimit": 10,
    "startMarkerType": 0,
    "windingRule": 1
  }
}