{
  "_class": "shapePath",
  "booleanOperation": -1,
  "clippingMaskMode": 0,
  "do_objectID": "0A485BC1-F004-4E31-8C35-725C7AAA6D95",
  "edited": true,
  "exportOptions": {
    "_class": "exportOptions",
    "do_objectID": "1F63C4B7-0E8C-43A8-8015-446939C69717",
    "exportFormats": [
    ],
    "includedLayerIds": [
    ],
    "layerOptions": 0,
    "shouldTrim": false
  },
  "frame": {
    "_class": "rect",
    "constrainProportions": false,
    "do_objectID": "267BD247-B281-40EA-BB39-217BA729F195",
    "height": 0.1058906030855551,
    "width": 0.105986348254568,
    "x": 20.36034736966113,
    "y": 1.100477983025356
  },
  "hasClippingMask": false,
  "isClosed": true,
  "isFixedToViewport": false,
  "isFlippedHorizontal": false,
  "isFlippedVertical": false,
  "isLocked": false,
  "isVisible": true,
  "layerListExpandedType": 0,
  "name": "Path",
  "nameIsFixed": false,
  "pointRadiusBehaviour": 0,
  "points": [
    {
      "_class": "curvePoint",
      "cornerRadius": 0,
      "curveFrom": "{0.13159332083582925, 0.040999999999996817}",
      "curveMode": 3,
      "curveTo": "{-0.084665156539787428, 0.48300000000000409}",
      "hasCurveFrom": true,
      "hasCurveTo": true,
      "point": "{0.013992907956387737, 0.28399999999999181}"
    },
    {
      "_class": "curvePoint",
      "cornerRadius": 0,
      "curveFrom": "{1.1197524948295272, 0.47299999999995634}",
      "curveMode": 4,
      "curveTo": "{0.7780009594147822, 0.20799999999996999}",
      "hasCurveFrom": true,
      "hasCurveTo": true,
      "point": "{0.93980018518849695, 0}"
    },
    {
      "_class": "curvePoint",
      "cornerRadius": 0,
      "curveFrom": "{0.36284782401486887, 1.0709999999999695}",
      "curveMode": 4,
      "curveTo": "{0.86482005617140467, 0.60800000000000409}",
      "hasCurveFrom": true,
      "hasCurveTo": true,
      "point": "{0.58936674009809187, 0.7279999999999518}"
    }
  ],
  "resizingConstraint": 63,
  "resizingType": 0,
  "rotation": 0,
  "shouldBreakMaskChain": false,
  "style": {
    "_class": "style",
    "do_objectID": "5254F75A-1EC7-4E04-B368-70E693A1845A",
    "endMarkerType": 0,
    "fills": [
      {
        "_class": "fill",
        "color": {
          "_class": "color",
          "alpha": 1,
          "blue": 0.1764705882352941,
          "green": 0.1764705882352941,
          "red": 0.1764705882352941
        },
        "fillType": 0,
        "isEnabled": true,
        "noiseIndex": 0,
        "noiseIntensity": 0,
        "patternFillType": 1,
        "patternTileScale": 1
      }
    ],
    "miterLimit": 10,
    "startMarkerType": 0,
    "windingRule": 1
  }
}