{
  "_class": "shapePath",
  "booleanOperation": -1,
  "clippingMaskMode": 0,
  "do_objectID": "10DAAB08-6016-46E3-9C67-D6CD5C50E8C7",
  "edited": true,
  "exportOptions": {
    "_class": "exportOptions",
    "do_objectID": "BDD7759D-945A-4549-A47A-0FCEBFB51ADC",
    "exportFormats": [
    ],
    "includedLayerIds": [
    ],
    "layerOptions": 0,
    "shouldTrim": false
  },
  "frame": {
    "_class": "rect",
    "constrainProportions": false,
    "do_objectID": "DD157AE2-9B30-4F62-9BBB-737ADC0853EE",
    "height": 0.1449218330412627,
    "width": 0.1994618676709052,
    "x": 33.00069809905415,
    "y": 18.74842138179961
  },
  "hasClippingMask": false,
  "isClosed": true,
  "isFixedToViewport": false,
  "isFlippedHorizontal": false,
  "isFlippedVertical": false,
  "isLocked": false,
  "isVisible": true,
  "layerListExpandedType": 0,
  "name": "Path",
  "nameIsFixed": false,
  "pointRadiusBehaviour": 0,
  "points": [
    {
      "_class": "curvePoint",
      "cornerRadius": 0,
      "curveFrom": "{0.56854419415210899, 0.37884722999441445}",
      "curveMode": 4,
      "curveTo": "{0.52540741081198039, 0.39731393396754644}",
      "hasCurveFrom": true,
      "hasCurveTo": true,
      "point": "{0.59051953660839129, 0.26804700615557459}"
    },
    {
      "_class": "curvePoint",
      "cornerRadius": 0,
      "curveFrom": "{0.2905968071586274, 0.79910464465584352}",
      "curveMode": 4,
      "curveTo": "{0.48796793847904291, 0.46054840514829587}",
      "hasCurveFrom": true,
      "hasCurveTo": true,
      "point": "{0.39477620843289418, 0.53609401231113329}"
    },
    {
      "_class": "curvePoint",
      "cornerRadius": 0,
      "curveFrom": "{0.050902794070542413, 0.16172355903750124}",
      "curveMode": 3,
      "curveTo": "{-0.036184674182174019, 0.48964745383323838}",
      "hasCurveFrom": true,
      "hasCurveTo": true,
      "point": "{0.0032895520818998387, 0.34135422495803669}"
    },
    {
      "_class": "curvePoint",
      "cornerRadius": 0,
      "curveFrom": "{0.59662379840182367, 0.10912143256856235}",
      "curveMode": 4,
      "curveTo": "{0.45907443265686909, 0.16284275321768094}",
      "hasCurveFrom": true,
      "hasCurveTo": true,
      "point": "{0.53639508204012154, 0}"
    },
    {
      "_class": "curvePoint",
      "cornerRadius": 0,
      "curveFrom": "{0.6340632707347611, 0.18690542809177507}",
      "curveMode": 4,
      "curveTo": "{0.60394891255391003, 0.19082260772244378}",
      "hasCurveFrom": true,
      "hasCurveTo": true,
      "point": "{0.59133343818085049, 0.26301063234471028}"
    },
    {
      "_class": "curvePoint",
      "cornerRadius": 0,
      "curveFrom": "{0.81393551824738519, 0.32904308897594864}",
      "curveMode": 4,
      "curveTo": "{0.80579650252283952, 0.24342473419138264}",
      "hasCurveFrom": true,
      "hasCurveTo": true,
      "point": "{0.85747925237373179, 0.17459429210968705}"
    },
    {
      "_class": "curvePoint",
      "cornerRadius": 0,
      "curveFrom": "{0.9449736714126894, 0.98824846110800979}",
      "curveMode": 3,
      "curveTo": "{1.0581059899839609, 0.78231673195300488}",
      "hasCurveFrom": true,
      "hasCurveTo": true,
      "point": "{0.98688960239414081, 0.91158365976497679}"
    },
    {
      "_class": "curvePoint",
      "cornerRadius": 0,
      "curveFrom": "{0.76306666996892891, 0.84555120313375431}",
      "curveMode": 4,
      "curveTo": "{0.77201958726593378, 0.93116955791830436}",
      "hasCurveFrom": true,
      "hasCurveTo": true,
      "point": "{0.72033683741501842, 1}"
    }
  ],
  "resizingConstraint": 63,
  "resizingType": 0,
  "rotation": 0,
  "shouldBreakMaskChain": false,
  "style": {
    "_class": "style",
    "do_objectID": "E6913A42-F129-4E8F-9F59-69FB3F67357C",
    "endMarkerType": 0,
    "fills": [
      {
        "_class": "fill",
        "color": {
          "_class": "color",
          "alpha": 1,
          "blue": 0.1764705882352941,
          "green": 0.1764705882352941,
          "red": 0.1764705882352941
        },
        "fillType": 0,
        "isEnabled": true,
        "noiseIndex": 0,
        "noiseIntensity": 0,
        "patternFillType": 1,
        "patternTileScale": 1
      }
    ],
    "miterLimit": 10,
    "startMarkerType": 0,
    "windingRule": 1
  }
}