{
  "_class": "shapePath",
  "booleanOperation": -1,
  "clippingMaskMode": 0,
  "do_objectID": "1AC93648-9863-4EE2-8E41-E0446B33B275",
  "edited": true,
  "exportOptions": {
    "_class": "exportOptions",
    "do_objectID": "0244B9D4-AB35-4092-B23B-87F03425DCB8",
    "exportFormats": [
    ],
    "includedLayerIds": [
    ],
    "layerOptions": 0,
    "shouldTrim": false
  },
  "frame": {
    "_class": "rect",
    "constrainProportions": false,
    "do_objectID": "0F9D7AF0-2E19-419B-84AD-33808F84705F",
    "height": 0.1432314820521867,
    "width": 0.3478184371876862,
    "x": 7.348181951759618,
    "y": 10.40956466813329
  },
  "hasClippingMask": false,
  "isClosed": true,
  "isFixedToViewport": false,
  "isFlippedHorizontal": false,
  "isFlippedVertical": false,
  "isLocked": false,
  "isVisible": true,
  "layerListExpandedType": 0,
  "name": "Path",
  "nameIsFixed": false,
  "pointRadiusBehaviour": 0,
  "points": [
    {
      "_class": "curvePoint",
      "cornerRadius": 0,
      "curveFrom": "{0.63337222870478427, 0.8677889914968745}",
      "curveMode": 4,
      "curveTo": "{0.82940490081680396, 1.0738862258709707}",
      "hasCurveFrom": true,
      "hasCurveTo": true,
      "point": "{0.80000000000000004, 0.76360797192318242}"
    },
    {
      "_class": "curvePoint",
      "cornerRadius": 0,
      "curveFrom": "{0.31365227537922874, 0.48730178957551817}",
      "curveMode": 4,
      "curveTo": "{0.51715285880980066, 0.63791130700270759}",
      "hasCurveFrom": true,
      "hasCurveTo": true,
      "point": "{0.40000000000000002, 0.41143082966856931}"
    },
    {
      "_class": "curvePoint",
      "cornerRadius": 0,
      "curveFrom": "{0.19253208868144772, 0.24270287405462557}",
      "curveMode": 4,
      "curveTo": "{0.22963827304550652, 0.54562051248903487}",
      "hasCurveFrom": true,
      "hasCurveTo": true,
      "point": "{0.20046674445740847, 0.2353422585412788}"
    },
    {
      "_class": "curvePoint",
      "cornerRadius": 0,
      "curveFrom": "{0.1824970828471405, 0.42615206069529504}",
      "curveMode": 4,
      "curveTo": "{0.18483080513418956, 0.24666628240797606}",
      "hasCurveFrom": true,
      "hasCurveTo": true,
      "point": "{0.17689614935822548, 0.25346069672800087}"
    },
    {
      "_class": "curvePoint",
      "cornerRadius": 0,
      "curveFrom": "{-0.023803967327888902, 0.51787665401561367}",
      "curveMode": 3,
      "curveTo": "{0.073045507584598046, 0.66055935473613436}",
      "hasCurveFrom": true,
      "hasCurveTo": true,
      "point": "{0.031505250875147078, 0.59940962585591118}"
    },
    {
      "_class": "curvePoint",
      "cornerRadius": 0,
      "curveFrom": "{0.027304550758460801, 0.21495901558120442}",
      "curveMode": 4,
      "curveTo": "{0.0035005834305718974, 0.35990652107504523}",
      "hasCurveFrom": true,
      "hasCurveTo": true,
      "point": "{0.047141190198366011, 0.2489310871812962}"
    },
    {
      "_class": "curvePoint",
      "cornerRadius": 0,
      "curveFrom": "{0.086814469078179746, -0.015484870106316617}",
      "curveMode": 4,
      "curveTo": "{0.0098016336056013127, 0.16286850579432618}",
      "hasCurveFrom": true,
      "hasCurveTo": true,
      "point": "{0, 0.060386089800632287}"
    },
    {
      "_class": "curvePoint",
      "cornerRadius": 0,
      "curveFrom": "{0.28658109684947386, 0.16003749982765189}",
      "curveMode": 4,
      "curveTo": "{0.17059509918319607, -0.073803593019865457}",
      "hasCurveFrom": true,
      "hasCurveTo": true,
      "point": "{0.20046674445740847, 0.2353422585412788}"
    },
    {
      "_class": "curvePoint",
      "cornerRadius": 0,
      "curveFrom": "{0.47257876312718955, 0.43181407262864369}",
      "curveMode": 4,
      "curveTo": "{0.37106184364060785, 0.10228497810745722}",
      "hasCurveFrom": true,
      "hasCurveTo": true,
      "point": "{0.40000000000000002, 0.41143082966856931}"
    },
    {
      "_class": "curvePoint",
      "cornerRadius": 0,
      "curveFrom": "{0.73955659276546082, 0.16173610340765004}",
      "curveMode": 2,
      "curveTo": "{0.60583430571762098, 0.043966255193908385}",
      "hasCurveFrom": true,
      "hasCurveTo": true,
      "point": "{0.67257876312718956, 0.10228497810745722}"
    },
    {
      "_class": "curvePoint",
      "cornerRadius": 0,
      "curveFrom": "{0.88611435239206537, 0.68886941440290972}",
      "curveMode": 4,
      "curveTo": "{0.73862310385064378, 0.66791997024948113}",
      "hasCurveFrom": true,
      "hasCurveTo": true,
      "point": "{0.80000000000000004, 0.76360797192318242}"
    },
    {
      "_class": "curvePoint",
      "cornerRadius": 0,
      "curveFrom": "{0.91295215869311763, 1.0155675029574218}",
      "curveMode": 4,
      "curveTo": "{0.97059509918319942, 0.63055069148936083}",
      "hasCurveFrom": true,
      "hasCurveTo": true,
      "point": "{1, 0.9396965430504729}"
    }
  ],
  "resizingConstraint": 63,
  "resizingType": 0,
  "rotation": 0,
  "shouldBreakMaskChain": false,
  "style": {
    "_class": "style",
    "do_objectID": "EAE78820-9D21-4B58-9CC8-C31D1DCABD5F",
    "endMarkerType": 0,
    "fills": [
      {
        "_class": "fill",
        "color": {
          "_class": "color",
          "alpha": 1,
          "blue": 0.1764705882352941,
          "green": 0.1764705882352941,
          "red": 0.1764705882352941
        },
        "fillType": 0,
        "isEnabled": true,
        "noiseIndex": 0,
        "noiseIntensity": 0,
        "patternFillType": 1,
        "patternTileScale": 1
      }
    ],
    "miterLimit": 10,
    "startMarkerType": 0,
    "windingRule": 1
  }
}