{
  "_class": "shapePath",
  "booleanOperation": -1,
  "clippingMaskMode": 0,
  "do_objectID": "210C9136-ED72-491F-8519-BA70540E7A6D",
  "edited": true,
  "exportOptions": {
    "_class": "exportOptions",
    "do_objectID": "BE0F9706-700B-4B06-B1B3-4EAF557E54DD",
    "exportFormats": [
    ],
    "includedLayerIds": [
    ],
    "layerOptions": 0,
    "shouldTrim": false
  },
  "frame": {
    "_class": "rect",
    "constrainProportions": false,
    "do_objectID": "8273D954-5231-4B18-85DC-5E05CEC265F8",
    "height": 0.1312162987469403,
    "width": 0.1059863482545538,
    "x": 42.42760236919958,
    "y": 14.82450258398103
  },
  "hasClippingMask": false,
  "isClosed": true,
  "isFixedToViewport": false,
  "isFlippedHorizontal": false,
  "isFlippedVertical": false,
  "isLocked": false,
  "isVisible": true,
  "layerListExpandedType": 0,
  "name": "Path",
  "nameIsFixed": false,
  "pointRadiusBehaviour": 0,
  "points": [
    {
      "_class": "curvePoint",
      "cornerRadius": 0,
      "curveFrom": "{0.070938833422295774, 0.086526576019769333}",
      "curveMode": 4,
      "curveTo": "{-0.091056439675200468, 0.3603213844251989}",
      "hasCurveFrom": true,
      "hasCurveTo": true,
      "point": "{0.01154056661986002, 0.18974042027191623}"
    },
    {
      "_class": "curvePoint",
      "cornerRadius": 0,
      "curveFrom": "{0.47515561010381685, 0.19344870210135298}",
      "curveMode": 4,
      "curveTo": "{0.43272827667354319, 0.095179233621753304}",
      "hasCurveFrom": true,
      "hasCurveTo": true,
      "point": "{0.51604013140938831, 0}"
    },
    {
      "_class": "curvePoint",
      "cornerRadius": 0,
      "curveFrom": "{0.92642815658989341, 0.91409147095178589}",
      "curveMode": 3,
      "curveTo": "{1.0891948357498284, 0.64029666254632123}",
      "hasCurveFrom": true,
      "hasCurveTo": true,
      "point": "{0.98891204764182117, 0.80964153275645823}"
    },
    {
      "_class": "curvePoint",
      "cornerRadius": 0,
      "curveFrom": "{0.52529700415786429, 0.80531520395550138}",
      "curveMode": 4,
      "curveTo": "{0.56695293152578696, 0.90296662546351081}",
      "hasCurveFrom": true,
      "hasCurveTo": true,
      "point": "{0.48364107678994173, 1}"
    }
  ],
  "resizingConstraint": 63,
  "resizingType": 0,
  "rotation": 0,
  "shouldBreakMaskChain": false,
  "style": {
    "_class": "style",
    "do_objectID": "93AB395F-79F7-4809-98C3-942CD700160D",
    "endMarkerType": 0,
    "fills": [
      {
        "_class": "fill",
        "color": {
          "_class": "color",
          "alpha": 1,
          "blue": 0.1764705882352941,
          "green": 0.1764705882352941,
          "red": 0.1764705882352941
        },
        "fillType": 0,
        "isEnabled": true,
        "noiseIndex": 0,
        "noiseIntensity": 0,
        "patternFillType": 1,
        "patternTileScale": 1
      }
    ],
    "miterLimit": 10,
    "startMarkerType": 0,
    "windingRule": 1
  }
}