{
  "_class": "shapePath",
  "booleanOperation": -1,
  "clippingMaskMode": 0,
  "do_objectID": "2C03E260-C6B0-48E2-AE00-B331CBAFA956",
  "edited": true,
  "exportOptions": {
    "_class": "exportOptions",
    "do_objectID": "E9B4DAA2-666B-45B5-8FFC-2D7D7707D244",
    "exportFormats": [
    ],
    "includedLayerIds": [
    ],
    "layerOptions": 0,
    "shouldTrim": false
  },
  "frame": {
    "_class": "rect",
    "constrainProportions": false,
    "do_objectID": "1F672F8D-50F0-433F-AA13-EDB3F0AD8623",
    "height": 0.1058906030855766,
    "width": 0.1074077957133213,
    "x": 21.15223215256328,
    "y": 18.40781047034278
  },
  "hasClippingMask": false,
  "isClosed": true,
  "isFixedToViewport": false,
  "isFlippedHorizontal": false,
  "isFlippedVertical": false,
  "isLocked": false,
  "isVisible": true,
  "layerListExpandedType": 0,
  "name": "Path",
  "nameIsFixed": false,
  "pointRadiusBehaviour": 0,
  "points": [
    {
      "_class": "curvePoint",
      "cornerRadius": 0,
      "curveFrom": "{0.08463322958718672, 0.25397892831288693}",
      "curveMode": 3,
      "curveTo": "{-0.058955241185214467, 0.76880108029850169}",
      "hasCurveFrom": true,
      "hasCurveTo": true,
      "point": "{0.0052817062656248482, 0.53541503806502599}"
    },
    {
      "_class": "curvePoint",
      "cornerRadius": 0,
      "curveFrom": "{1.1456764557158876, 0.43833428940489277}",
      "curveMode": 4,
      "curveTo": "{0.7587433134239383, 0.25594015555855576}",
      "hasCurveFrom": true,
      "hasCurveTo": true,
      "point": "{0.88872866591265909, 0}"
    },
    {
      "_class": "curvePoint",
      "cornerRadius": 0,
      "curveFrom": "{0.48063511740160381, 1.2493017554850792}",
      "curveMode": 4,
      "curveTo": "{0.91140052971880736, 0.64524376382195081}",
      "hasCurveFrom": true,
      "hasCurveTo": true,
      "point": "{0.6529412823284938, 0.84136648838791384}"
    }
  ],
  "resizingConstraint": 63,
  "resizingType": 0,
  "rotation": 0,
  "shouldBreakMaskChain": false,
  "style": {
    "_class": "style",
    "do_objectID": "BE8D0A2F-392D-4085-81E9-45AB593E4A43",
    "endMarkerType": 0,
    "fills": [
      {
        "_class": "fill",
        "color": {
          "_class": "color",
          "alpha": 1,
          "blue": 0.1764705882352941,
          "green": 0.1764705882352941,
          "red": 0.1764705882352941
        },
        "fillType": 0,
        "isEnabled": true,
        "noiseIndex": 0,
        "noiseIntensity": 0,
        "patternFillType": 1,
        "patternTileScale": 1
      }
    ],
    "miterLimit": 10,
    "startMarkerType": 0,
    "windingRule": 1
  }
}