{
  "_class": "shapePath",
  "booleanOperation": -1,
  "clippingMaskMode": 0,
  "do_objectID": "39A68E0E-4E52-4970-B89A-3B7DA509F10E",
  "edited": true,
  "exportOptions": {
    "_class": "exportOptions",
    "do_objectID": "2AB0EB75-E19B-4E72-8754-D812EA40E21B",
    "exportFormats": [
    ],
    "includedLayerIds": [
    ],
    "layerOptions": 0,
    "shouldTrim": false
  },
  "frame": {
    "_class": "rect",
    "constrainProportions": false,
    "do_objectID": "063CC1FA-C36F-482E-88E4-A0C3308CF2C9",
    "height": 0.105890603085566,
    "width": 0.1204857271865247,
    "x": 15.51059581212718,
    "y": 31.64030108693186
  },
  "hasClippingMask": false,
  "isClosed": true,
  "isFixedToViewport": false,
  "isFlippedHorizontal": false,
  "isFlippedVertical": false,
  "isLocked": false,
  "isVisible": true,
  "layerListExpandedType": 0,
  "name": "Path",
  "nameIsFixed": false,
  "pointRadiusBehaviour": 0,
  "points": [
    {
      "_class": "curvePoint",
      "cornerRadius": 0,
      "curveFrom": "{0.47964108454003468, 1.2494702361851284}",
      "curveMode": 4,
      "curveTo": "{0.91148240928745428, 0.6469692360428424}",
      "hasCurveFrom": true,
      "hasCurveTo": true,
      "point": "{0.65278183408775015, 0.84140877733335295}"
    },
    {
      "_class": "curvePoint",
      "cornerRadius": 0,
      "curveFrom": "{0.081484730521768717, 0.25634630107355755}",
      "curveMode": 3,
      "curveTo": "{-0.059318447125983748, 0.76816697702656556}",
      "hasCurveFrom": true,
      "hasCurveTo": true,
      "point": "{0.0053566966739422954, 0.53623460938860379}"
    },
    {
      "_class": "curvePoint",
      "cornerRadius": 0,
      "curveFrom": "{1.1452561061475812, 0.43770694945216299}",
      "curveMode": 4,
      "curveTo": "{0.75720524334804418, 0.25634630107355755}",
      "hasCurveFrom": true,
      "hasCurveTo": true,
      "point": "{0.88925032860622022, 0}"
    }
  ],
  "resizingConstraint": 63,
  "resizingType": 0,
  "rotation": 0,
  "shouldBreakMaskChain": false,
  "style": {
    "_class": "style",
    "do_objectID": "B64BB385-678D-4979-9C1D-521C34959A2A",
    "endMarkerType": 0,
    "fills": [
      {
        "_class": "fill",
        "color": {
          "_class": "color",
          "alpha": 1,
          "blue": 0.1764705882352941,
          "green": 0.1764705882352941,
          "red": 0.1764705882352941
        },
        "fillType": 0,
        "isEnabled": true,
        "noiseIndex": 0,
        "noiseIntensity": 0,
        "patternFillType": 1,
        "patternTileScale": 1
      }
    ],
    "miterLimit": 10,
    "startMarkerType": 0,
    "windingRule": 1
  }
}