{
  "_class": "shapePath",
  "booleanOperation": -1,
  "clippingMaskMode": 0,
  "do_objectID": "483FAF18-D0FE-4AB5-A64B-378E156AB998",
  "edited": true,
  "exportOptions": {
    "_class": "exportOptions",
    "do_objectID": "3B022939-CC1C-4E0B-9031-CF5954D488CC",
    "exportFormats": [
    ],
    "includedLayerIds": [
    ],
    "layerOptions": 0,
    "shouldTrim": false
  },
  "frame": {
    "_class": "rect",
    "constrainProportions": false,
    "do_objectID": "D145A535-A007-4418-9A60-A85AF316F8FA",
    "height": 0.1058906030855837,
    "width": 0.1059863482545662,
    "x": 11.68963533796312,
    "y": 26.2558913594881
  },
  "hasClippingMask": false,
  "isClosed": true,
  "isFixedToViewport": false,
  "isFlippedHorizontal": false,
  "isFlippedVertical": false,
  "isLocked": false,
  "isVisible": true,
  "layerListExpandedType": 0,
  "name": "Path",
  "nameIsFixed": false,
  "pointRadiusBehaviour": 0,
  "points": [
    {
      "_class": "curvePoint",
      "cornerRadius": 0,
      "curveFrom": "{0.36004631311633356, 1.0699999999999932}",
      "curveMode": 4,
      "curveTo": "{0.8639816598085992, 0.60800000000000409}",
      "hasCurveFrom": true,
      "hasCurveTo": true,
      "point": "{0.58989770165467337, 0.73000000000001819}"
    },
    {
      "_class": "curvePoint",
      "cornerRadius": 0,
      "curveFrom": "{0.13019492457801618, 0.040999999999996817}",
      "curveMode": 4,
      "curveTo": "{-0.084648984983568085, 0.48400000000003729}",
      "hasCurveFrom": true,
      "hasCurveTo": true,
      "point": "{0.014084429337016055, 0.28399999999999181}"
    },
    {
      "_class": "curvePoint",
      "cornerRadius": 0,
      "curveFrom": "{1.1191088024129945, 0.47199999999997999}",
      "curveMode": 4,
      "curveTo": "{0.7763063878919283, 0.20900000000000318}",
      "hasCurveFrom": true,
      "hasCurveTo": true,
      "point": "{0.94059878932137908, 0}"
    }
  ],
  "resizingConstraint": 63,
  "resizingType": 0,
  "rotation": 0,
  "shouldBreakMaskChain": false,
  "style": {
    "_class": "style",
    "do_objectID": "0346FEDA-C063-4623-80BF-F826F7847B85",
    "endMarkerType": 0,
    "fills": [
      {
        "_class": "fill",
        "color": {
          "_class": "color",
          "alpha": 1,
          "blue": 0.1764705882352941,
          "green": 0.1764705882352941,
          "red": 0.1764705882352941
        },
        "fillType": 0,
        "isEnabled": true,
        "noiseIndex": 0,
        "noiseIntensity": 0,
        "patternFillType": 1,
        "patternTileScale": 1
      }
    ],
    "miterLimit": 10,
    "startMarkerType": 0,
    "windingRule": 1
  }
}