{
  "_class": "shapePath",
  "booleanOperation": -1,
  "clippingMaskMode": 0,
  "do_objectID": "490583E1-E753-47F5-8078-38EABFFE2198",
  "edited": true,
  "exportOptions": {
    "_class": "exportOptions",
    "do_objectID": "4040AB7B-CE65-4AB2-8BE7-1F4BDEE49A5A",
    "exportFormats": [
    ],
    "includedLayerIds": [
    ],
    "layerOptions": 0,
    "shouldTrim": false
  },
  "frame": {
    "_class": "rect",
    "constrainProportions": false,
    "do_objectID": "B1803594-7B04-4D7E-93EE-5824E8ADB31D",
    "height": 0.2350578026912196,
    "width": 0.2725204109004533,
    "x": 10.97888694055031,
    "y": 21.9367017087075
  },
  "hasClippingMask": false,
  "isClosed": true,
  "isFixedToViewport": false,
  "isFlippedHorizontal": false,
  "isFlippedVertical": false,
  "isLocked": false,
  "isVisible": true,
  "layerListExpandedType": 0,
  "name": "Path",
  "nameIsFixed": false,
  "pointRadiusBehaviour": 0,
  "points": [
    {
      "_class": "curvePoint",
      "cornerRadius": 0,
      "curveFrom": "{0.75029301884479727, 0.35846779261448025}",
      "curveMode": 4,
      "curveTo": "{0.39257094038803081, 0.31361619199861757}",
      "hasCurveFrom": true,
      "hasCurveTo": true,
      "point": "{0.68357383019008255, 0.28946533012855874}"
    },
    {
      "_class": "curvePoint",
      "cornerRadius": 0,
      "curveFrom": "{0.82535210608135767, 0.77041249365559783}",
      "curveMode": 4,
      "curveTo": "{0.70174289495765552, 0.70106501885721551}",
      "hasCurveFrom": true,
      "hasCurveTo": true,
      "point": "{0.77858910331889597, 0.74350153328606838}"
    },
    {
      "_class": "curvePoint",
      "cornerRadius": 0,
      "curveFrom": "{1.0511250748325847, 0.87150110119748991}",
      "curveMode": 4,
      "curveTo": "{0.92334591441796832, 0.67139395998825468}",
      "hasCurveFrom": true,
      "hasCurveTo": true,
      "point": "{0.97398101295057138, 0.68864457560972525}"
    },
    {
      "_class": "curvePoint",
      "cornerRadius": 0,
      "curveFrom": "{0.67106398231732245, 1.0578077499095486}",
      "curveMode": 4,
      "curveTo": "{0.94330210031022976, 0.92359796037438202}",
      "hasCurveFrom": true,
      "hasCurveTo": true,
      "point": "{0.82594781312291199, 0.97086464717725462}"
    },
    {
      "_class": "curvePoint",
      "cornerRadius": 0,
      "curveFrom": "{0.56353886131574049, 0.72349081916512725}",
      "curveMode": 3,
      "curveTo": "{0.61774820209770354, 0.93532837899698995}",
      "hasCurveFrom": true,
      "hasCurveTo": true,
      "point": "{0.58230363312488476, 0.79870350327483308}"
    },
    {
      "_class": "curvePoint",
      "cornerRadius": 0,
      "curveFrom": "{0.27223811799291581, 0.53925424432765667}",
      "curveMode": 4,
      "curveTo": "{0.55370969513000468, 0.64620806118089191}",
      "hasCurveFrom": true,
      "hasCurveTo": true,
      "point": "{0.5349449233208603, 0.5713403893836273}"
    },
    {
      "_class": "curvePoint",
      "cornerRadius": 0,
      "curveFrom": "{0.27462094615915017, 0.0082802954983137236}",
      "curveMode": 4,
      "curveTo": "{0.071782698507981801, 0.39331403616988225}",
      "hasCurveFrom": true,
      "hasCurveTo": true,
      "point": "{0, 0}"
    }
  ],
  "resizingConstraint": 63,
  "resizingType": 0,
  "rotation": 0,
  "shouldBreakMaskChain": false,
  "style": {
    "_class": "style",
    "do_objectID": "11B8CB63-FA1B-4E8B-A615-DC48B33CD560",
    "endMarkerType": 0,
    "fills": [
      {
        "_class": "fill",
        "color": {
          "_class": "color",
          "alpha": 1,
          "blue": 0.1764705882352941,
          "green": 0.1764705882352941,
          "red": 0.1764705882352941
        },
        "fillType": 0,
        "isEnabled": true,
        "noiseIndex": 0,
        "noiseIntensity": 0,
        "patternFillType": 1,
        "patternTileScale": 1
      }
    ],
    "miterLimit": 10,
    "startMarkerType": 0,
    "windingRule": 1
  }
}