{
  "_class": "shapePath",
  "booleanOperation": -1,
  "clippingMaskMode": 0,
  "do_objectID": "4EC98DCA-C2A0-4441-A85E-033170B47C64",
  "edited": true,
  "exportOptions": {
    "_class": "exportOptions",
    "do_objectID": "5B7D9977-12A1-49F9-A478-9A2BE815E963",
    "exportFormats": [
    ],
    "includedLayerIds": [
    ],
    "layerOptions": 0,
    "shouldTrim": false
  },
  "frame": {
    "_class": "rect",
    "constrainProportions": false,
    "do_objectID": "FF4C5A35-E5D3-4A19-9A8D-38008D23845A",
    "height": 0.105890603085558,
    "width": 0.1551519413417068,
    "x": 32.35389210031691,
    "y": 4.204578218112235
  },
  "hasClippingMask": false,
  "isClosed": true,
  "isFixedToViewport": false,
  "isFlippedHorizontal": false,
  "isFlippedVertical": false,
  "isLocked": false,
  "isVisible": true,
  "layerListExpandedType": 0,
  "name": "Path",
  "nameIsFixed": false,
  "pointRadiusBehaviour": 0,
  "points": [
    {
      "_class": "curvePoint",
      "cornerRadius": 0,
      "curveFrom": "{0.62545447959045619, 0.92845014876474541}",
      "curveMode": 3,
      "curveTo": "{0.91267595152224157, 0.78875758206735969}",
      "hasCurveFrom": true,
      "hasCurveTo": true,
      "point": "{0.7264266910346141, 0.87904668005469666}"
    },
    {
      "_class": "curvePoint",
      "cornerRadius": 0,
      "curveFrom": "{0.54122377470700467, 0.45571006024611094}",
      "curveMode": 4,
      "curveTo": "{0.52029689150616643, 0.95144831523320794}",
      "hasCurveFrom": true,
      "hasCurveTo": true,
      "point": "{0.42089419630209518, 1}"
    },
    {
      "_class": "curvePoint",
      "cornerRadius": 0,
      "curveFrom": "{-0.077688795958347392, 0.21550698824206607}",
      "curveMode": 3,
      "curveTo": "{0.063044493567421089, 0.70272740379640275}",
      "hasCurveFrom": true,
      "hasCurveTo": true,
      "point": "{0.039501749966448257, 0.62265971312838786}"
    },
    {
      "_class": "curvePoint",
      "cornerRadius": 0,
      "curveFrom": "{0.5344225376667382, -0.0016979172935162007}",
      "curveMode": 4,
      "curveTo": "{0.085540893008346067, 0.10477507561608485}",
      "hasCurveFrom": true,
      "hasCurveTo": true,
      "point": "{0.27179015349597357, 5.6505929971320538e-06}"
    },
    {
      "_class": "curvePoint",
      "cornerRadius": 0,
      "curveFrom": "{1.0785215008890399, 0.65247215114304902}",
      "curveMode": 4,
      "curveTo": "{0.65108991151152473, 0.38245664112429456}",
      "hasCurveFrom": true,
      "hasCurveTo": true,
      "point": "{0.96028461080419625, 0.25979975329242949}"
    }
  ],
  "resizingConstraint": 63,
  "resizingType": 0,
  "rotation": 0,
  "shouldBreakMaskChain": false,
  "style": {
    "_class": "style",
    "do_objectID": "50C43B23-C0F2-4F1E-8581-A84407D0B0FD",
    "endMarkerType": 0,
    "fills": [
      {
        "_class": "fill",
        "color": {
          "_class": "color",
          "alpha": 1,
          "blue": 0.1764705882352941,
          "green": 0.1764705882352941,
          "red": 0.1764705882352941
        },
        "fillType": 0,
        "isEnabled": true,
        "noiseIndex": 0,
        "noiseIntensity": 0,
        "patternFillType": 1,
        "patternTileScale": 1
      }
    ],
    "miterLimit": 10,
    "startMarkerType": 0,
    "windingRule": 1
  }
}