{
  "_class": "shapePath",
  "booleanOperation": -1,
  "clippingMaskMode": 0,
  "do_objectID": "5EEA47CD-8B2B-4D1A-B869-35412722882E",
  "edited": true,
  "exportOptions": {
    "_class": "exportOptions",
    "do_objectID": "5D380C78-A680-4420-BC51-E1DAA147915D",
    "exportFormats": [
    ],
    "includedLayerIds": [
    ],
    "layerOptions": 0,
    "shouldTrim": false
  },
  "frame": {
    "_class": "rect",
    "constrainProportions": false,
    "do_objectID": "C4E8B1C8-9CF4-415A-986D-B63C4F04C6CF",
    "height": 0.1058906030855766,
    "width": 0.1059863482545502,
    "x": 15.32443688982891,
    "y": 18.78933971216227
  },
  "hasClippingMask": false,
  "isClosed": true,
  "isFixedToViewport": false,
  "isFlippedHorizontal": false,
  "isFlippedVertical": false,
  "isLocked": false,
  "isVisible": true,
  "layerListExpandedType": 0,
  "name": "Path",
  "nameIsFixed": false,
  "pointRadiusBehaviour": 0,
  "points": [
    {
      "_class": "curvePoint",
      "cornerRadius": 0,
      "curveFrom": "{-0.2696368202264523, 0.7024448558670997}",
      "curveMode": 3,
      "curveTo": "{0.4113631797735593, 0.95144485586709493}",
      "hasCurveFrom": true,
      "hasCurveTo": true,
      "point": "{0.17336317977355975, 0.86444485586707742}"
    },
    {
      "_class": "curvePoint",
      "cornerRadius": 0,
      "curveFrom": "{0.92736317977355043, 0.16844485586707947}",
      "curveMode": 3,
      "curveTo": "{0.24836317977354838, -0.078555144132906207}",
      "hasCurveFrom": true,
      "hasCurveTo": true,
      "point": "{0.48536317977357157, 0.0064448558671017508}"
    }
  ],
  "resizingConstraint": 63,
  "resizingType": 0,
  "rotation": 0,
  "shouldBreakMaskChain": false,
  "style": {
    "_class": "style",
    "do_objectID": "97DCCC57-1335-428F-85BF-FEC434F0340E",
    "endMarkerType": 0,
    "fills": [
      {
        "_class": "fill",
        "color": {
          "_class": "color",
          "alpha": 1,
          "blue": 0.1764705882352941,
          "green": 0.1764705882352941,
          "red": 0.1764705882352941
        },
        "fillType": 0,
        "isEnabled": true,
        "noiseIndex": 0,
        "noiseIntensity": 0,
        "patternFillType": 1,
        "patternTileScale": 1
      }
    ],
    "miterLimit": 10,
    "startMarkerType": 0,
    "windingRule": 1
  }
}