{
  "_class": "shapePath",
  "booleanOperation": -1,
  "clippingMaskMode": 0,
  "do_objectID": "5FE55657-7F5C-41EA-929E-CAE7017E7D77",
  "edited": true,
  "exportOptions": {
    "_class": "exportOptions",
    "do_objectID": "355C2EFB-A05D-4437-8877-CC877AFED34C",
    "exportFormats": [
    ],
    "includedLayerIds": [
    ],
    "layerOptions": 0,
    "shouldTrim": false
  },
  "frame": {
    "_class": "rect",
    "constrainProportions": false,
    "do_objectID": "594B0FBA-8087-407D-B484-7FBA7378A68D",
    "height": 0.1844164792030369,
    "width": 0.105986348254568,
    "x": 21.88378830127827,
    "y": 36.39879771565567
  },
  "hasClippingMask": false,
  "isClosed": true,
  "isFixedToViewport": false,
  "isFlippedHorizontal": false,
  "isFlippedVertical": false,
  "isLocked": false,
  "isVisible": true,
  "layerListExpandedType": 0,
  "name": "Path",
  "nameIsFixed": false,
  "pointRadiusBehaviour": 0,
  "points": [
    {
      "_class": "curvePoint",
      "cornerRadius": 0,
      "curveFrom": "{0.44330221378387369, 0.80694810905894265}",
      "curveMode": 4,
      "curveTo": "{0.896302388025629, 0.90105540897099135}",
      "hasCurveFrom": true,
      "hasCurveTo": true,
      "point": "{0.60127150531434348, 1}"
    },
    {
      "_class": "curvePoint",
      "cornerRadius": 0,
      "curveFrom": "{-0.16689289271616153, 0.20316622691292388}",
      "curveMode": 4,
      "curveTo": "{0.28455856298121407, 0.61609498680739216}",
      "hasCurveFrom": true,
      "hasCurveTo": true,
      "point": "{0.12736363072293413, 0.42348284960423127}"
    },
    {
      "_class": "curvePoint",
      "cornerRadius": 0,
      "curveFrom": "{0.55480994898185232, 0.1934916446789787}",
      "curveMode": 4,
      "curveTo": "{0.10180977474009704, 0.099384344766930074}",
      "hasCurveFrom": true,
      "hasCurveTo": true,
      "point": "{0.39684065745138258, 0}"
    },
    {
      "_class": "curvePoint",
      "cornerRadius": 0,
      "curveFrom": "{1.1681024925706909, 0.79727352682497254}",
      "curveMode": 4,
      "curveTo": "{0.71277924051232211, 0.3847845206684255}",
      "hasCurveFrom": true,
      "hasCurveTo": true,
      "point": "{0.87229725058721563, 0.57695690413369005}"
    }
  ],
  "resizingConstraint": 63,
  "resizingType": 0,
  "rotation": 0,
  "shouldBreakMaskChain": false,
  "style": {
    "_class": "style",
    "do_objectID": "D88F5B94-B378-4BE4-BE52-79D52D698A95",
    "endMarkerType": 0,
    "fills": [
      {
        "_class": "fill",
        "color": {
          "_class": "color",
          "alpha": 1,
          "blue": 0.1764705882352941,
          "green": 0.1764705882352941,
          "red": 0.1764705882352941
        },
        "fillType": 0,
        "isEnabled": true,
        "noiseIndex": 0,
        "noiseIntensity": 0,
        "patternFillType": 1,
        "patternTileScale": 1
      }
    ],
    "miterLimit": 10,
    "startMarkerType": 0,
    "windingRule": 1
  }
}