{
  "_class": "shapePath",
  "booleanOperation": -1,
  "clippingMaskMode": 0,
  "do_objectID": "67A17D06-3991-4EFD-8100-7FB679621863",
  "edited": true,
  "exportOptions": {
    "_class": "exportOptions",
    "do_objectID": "8952BC43-E700-49C6-AFDE-8BFCB3480BAD",
    "exportFormats": [
    ],
    "includedLayerIds": [
    ],
    "layerOptions": 0,
    "shouldTrim": false
  },
  "frame": {
    "_class": "rect",
    "constrainProportions": false,
    "do_objectID": "349E34EF-35A5-4BC1-A879-232289FD2B59",
    "height": 0.1075632962401105,
    "width": 0.2207368119478517,
    "x": 15.72865715787614,
    "y": 7.176895545578865
  },
  "hasClippingMask": false,
  "isClosed": true,
  "isFixedToViewport": false,
  "isFlippedHorizontal": false,
  "isFlippedVertical": false,
  "isLocked": false,
  "isVisible": true,
  "layerListExpandedType": 0,
  "name": "Path",
  "nameIsFixed": false,
  "pointRadiusBehaviour": 0,
  "points": [
    {
      "_class": "curvePoint",
      "cornerRadius": 0,
      "curveFrom": "{0.048360896982821956, 0.96053809016109903}",
      "curveMode": 4,
      "curveTo": "{0.14249933165366063, 1.1060513173205424}",
      "hasCurveFrom": true,
      "hasCurveTo": true,
      "point": "{0.059392744795811268, 0.97637113560332622}"
    },
    {
      "_class": "curvePoint",
      "cornerRadius": 0,
      "curveFrom": "{0.079617799119626756, 0.26991572706254091}",
      "curveMode": 3,
      "curveTo": "{-0.0060628855612551921, 0.49760999961251878}",
      "hasCurveFrom": true,
      "hasCurveTo": true,
      "point": "{0.00055622312653839793, 0.48026904508054952}"
    },
    {
      "_class": "curvePoint",
      "cornerRadius": 0,
      "curveFrom": "{0.64555159192596301, 0.16059231805677815}",
      "curveMode": 4,
      "curveTo": "{0.38593544006028457, 0.41919872694631799}",
      "hasCurveFrom": true,
      "hasCurveTo": true,
      "point": "{0.48448661385631903, 0.24051149981272099}"
    },
    {
      "_class": "curvePoint",
      "cornerRadius": 0,
      "curveFrom": "{1.0614522544756446, 0.39054845424134765}",
      "curveMode": 4,
      "curveTo": "{0.80698429825603135, 0.079919181755942842}",
      "hasCurveFrom": true,
      "hasCurveTo": true,
      "point": "{0.96915246110696907, 0}"
    },
    {
      "_class": "curvePoint",
      "cornerRadius": 0,
      "curveFrom": "{0.70585902663696432, 0.66347999948332981}",
      "curveMode": 4,
      "curveTo": "{0.93090872202193597, 0.52701422686233867}",
      "hasCurveFrom": true,
      "hasCurveTo": true,
      "point": "{0.7849206026300527, 0.61673481770158345}"
    },
    {
      "_class": "curvePoint",
      "cornerRadius": 0,
      "curveFrom": "{0.4410946791252312, 0.65594045403466239}",
      "curveMode": 4,
      "curveTo": "{0.62238471151868024, 0.68836049946396649}",
      "hasCurveFrom": true,
      "hasCurveTo": true,
      "point": "{0.54295540726515712, 0.73661359033549767}"
    }
  ],
  "resizingConstraint": 63,
  "resizingType": 0,
  "rotation": 0,
  "shouldBreakMaskChain": false,
  "style": {
    "_class": "style",
    "do_objectID": "A451C41A-A126-4278-BFD3-2FD2E3B29B93",
    "endMarkerType": 0,
    "fills": [
      {
        "_class": "fill",
        "color": {
          "_class": "color",
          "alpha": 1,
          "blue": 0.1764705882352941,
          "green": 0.1764705882352941,
          "red": 0.1764705882352941
        },
        "fillType": 0,
        "isEnabled": true,
        "noiseIndex": 0,
        "noiseIntensity": 0,
        "patternFillType": 1,
        "patternTileScale": 1
      }
    ],
    "miterLimit": 10,
    "startMarkerType": 0,
    "windingRule": 1
  }
}