{
  "_class": "shapePath",
  "booleanOperation": -1,
  "clippingMaskMode": 0,
  "do_objectID": "766DE0A1-E3CA-422C-BB78-B684C6CC0A43",
  "edited": true,
  "exportOptions": {
    "_class": "exportOptions",
    "do_objectID": "E73B8C38-3653-4E6E-AA5C-465C134F7DF7",
    "exportFormats": [
    ],
    "includedLayerIds": [
    ],
    "layerOptions": 0,
    "shouldTrim": false
  },
  "frame": {
    "_class": "rect",
    "constrainProportions": false,
    "do_objectID": "12974E7A-CC15-47CA-9801-01399540E08C",
    "height": 0.1312162987469492,
    "width": 0.1059863482545573,
    "x": 20.68346958173569,
    "y": 17.79130472060594
  },
  "hasClippingMask": false,
  "isClosed": true,
  "isFixedToViewport": false,
  "isFlippedHorizontal": false,
  "isFlippedVertical": false,
  "isLocked": false,
  "isVisible": true,
  "layerListExpandedType": 0,
  "name": "Path",
  "nameIsFixed": false,
  "pointRadiusBehaviour": 0,
  "points": [
    {
      "_class": "curvePoint",
      "cornerRadius": 0,
      "curveFrom": "{0.075512899820849341, 0.085908529048214111}",
      "curveMode": 4,
      "curveTo": "{-0.090961412414657092, 0.36155747836836205}",
      "hasCurveFrom": true,
      "hasCurveTo": true,
      "point": "{0.011543603915542646, 0.18912237330037859}"
    },
    {
      "_class": "curvePoint",
      "cornerRadius": 0,
      "curveFrom": "{0.47320153460564834, 0.19468479604449856}",
      "curveMode": 4,
      "curveTo": "{0.43235367095527311, 0.095179233621753304}",
      "hasCurveFrom": true,
      "hasCurveTo": true,
      "point": "{0.51559082707302639, 0}"
    },
    {
      "_class": "curvePoint",
      "cornerRadius": 0,
      "curveFrom": "{0.92484017798532392, 0.91347342398023068}",
      "curveMode": 4,
      "curveTo": "{1.0897730614038277, 0.64091470951792917}",
      "hasCurveFrom": true,
      "hasCurveTo": true,
      "point": "{0.98880947389060869, 0.80964153275649342}"
    },
    {
      "_class": "curvePoint",
      "cornerRadius": 0,
      "curveFrom": "{0.52406868556649755, 0.80531520395550138}",
      "curveMode": 4,
      "curveTo": "{0.56799940685087824, 0.9035846724351011}",
      "hasCurveFrom": true,
      "hasCurveTo": true,
      "point": "{0.48167939309914148, 1}"
    }
  ],
  "resizingConstraint": 63,
  "resizingType": 0,
  "rotation": 0,
  "shouldBreakMaskChain": false,
  "style": {
    "_class": "style",
    "do_objectID": "24275B44-B4D3-4B86-8973-0ECCAAB5A2BD",
    "endMarkerType": 0,
    "fills": [
      {
        "_class": "fill",
        "color": {
          "_class": "color",
          "alpha": 1,
          "blue": 0.1764705882352941,
          "green": 0.1764705882352941,
          "red": 0.1764705882352941
        },
        "fillType": 0,
        "isEnabled": true,
        "noiseIndex": 0,
        "noiseIntensity": 0,
        "patternFillType": 1,
        "patternTileScale": 1
      }
    ],
    "miterLimit": 10,
    "startMarkerType": 0,
    "windingRule": 1
  }
}