{
  "_class": "shapePath",
  "booleanOperation": -1,
  "clippingMaskMode": 0,
  "do_objectID": "77D0A25A-0D95-4281-BA4A-7794A25A9A47",
  "edited": true,
  "exportOptions": {
    "_class": "exportOptions",
    "do_objectID": "BCAB8A57-308F-4154-AF7C-24788D5673CB",
    "exportFormats": [
    ],
    "includedLayerIds": [
    ],
    "layerOptions": 0,
    "shouldTrim": false
  },
  "frame": {
    "_class": "rect",
    "constrainProportions": false,
    "do_objectID": "F19B65AF-2DE7-4B8D-A919-8792A0703054",
    "height": 0.1058906030855695,
    "width": 0.1558486346325481,
    "x": 22.85073785484666,
    "y": 16.34211802206744
  },
  "hasClippingMask": false,
  "isClosed": true,
  "isFixedToViewport": false,
  "isFlippedHorizontal": false,
  "isFlippedVertical": false,
  "isLocked": false,
  "isVisible": true,
  "layerListExpandedType": 0,
  "name": "Path",
  "nameIsFixed": false,
  "pointRadiusBehaviour": 0,
  "points": [
    {
      "_class": "curvePoint",
      "cornerRadius": 0,
      "curveFrom": "{0.71770833333334128, 0.31860995415277671}",
      "curveMode": 4,
      "curveTo": "{0.4276041666666599, -0.14539004584722193}",
      "hasCurveFrom": true,
      "hasCurveTo": true,
      "point": "{0.50052083333332098, 0.46660995415277284}"
    },
    {
      "_class": "curvePoint",
      "cornerRadius": 0,
      "curveFrom": "{0.78385416666668106, 0.96660995415277284}",
      "curveMode": 4,
      "curveTo": "{0.9276041666666599, 0.20360995415276761}",
      "hasCurveFrom": true,
      "hasCurveTo": true,
      "point": "{1, 0.81660995415276716}"
    },
    {
      "_class": "curvePoint",
      "cornerRadius": 0,
      "curveFrom": "{0.28229166666665872, 0.61460995415276898}",
      "curveMode": 4,
      "curveTo": "{0.5723958333333401, 1.0796099541527724}",
      "hasCurveFrom": true,
      "hasCurveTo": true,
      "point": "{0.50052083333332098, 0.46660995415277284}"
    },
    {
      "_class": "curvePoint",
      "cornerRadius": 0,
      "curveFrom": "{0.21666666666666962, -0.030390045847241254}",
      "curveMode": 4,
      "curveTo": "{0.071874999999989447, 0.73260995415276398}",
      "hasCurveFrom": true,
      "hasCurveTo": true,
      "point": "{0, 0.11760995415275488}"
    }
  ],
  "resizingConstraint": 63,
  "resizingType": 0,
  "rotation": 0,
  "shouldBreakMaskChain": false,
  "style": {
    "_class": "style",
    "do_objectID": "CDC93EFB-4057-41EF-95F4-D894A10E3F84",
    "endMarkerType": 0,
    "fills": [
      {
        "_class": "fill",
        "color": {
          "_class": "color",
          "alpha": 1,
          "blue": 0.1764705882352941,
          "green": 0.1764705882352941,
          "red": 0.1764705882352941
        },
        "fillType": 0,
        "isEnabled": true,
        "noiseIndex": 0,
        "noiseIntensity": 0,
        "patternFillType": 1,
        "patternTileScale": 1
      }
    ],
    "miterLimit": 10,
    "startMarkerType": 0,
    "windingRule": 1
  }
}