{
  "_class": "shapePath",
  "booleanOperation": -1,
  "clippingMaskMode": 0,
  "do_objectID": "7C9C7306-9CD8-4BD6-9968-0BADB4064B08",
  "edited": true,
  "exportOptions": {
    "_class": "exportOptions",
    "do_objectID": "50F54749-02AA-4F2F-B03B-50C06F0FD561",
    "exportFormats": [
    ],
    "includedLayerIds": [
    ],
    "layerOptions": 0,
    "shouldTrim": false
  },
  "frame": {
    "_class": "rect",
    "constrainProportions": false,
    "do_objectID": "4D2E89EE-0EFE-402C-B112-A3BEBF26E62B",
    "height": 0.1058906030855606,
    "width": 0.1059863482545396,
    "x": 27.32710424378708,
    "y": 8.281875248931778
  },
  "hasClippingMask": false,
  "isClosed": true,
  "isFixedToViewport": false,
  "isFlippedHorizontal": false,
  "isFlippedVertical": false,
  "isLocked": false,
  "isVisible": true,
  "layerListExpandedType": 0,
  "name": "Path",
  "nameIsFixed": false,
  "pointRadiusBehaviour": 0,
  "points": [
    {
      "_class": "curvePoint",
      "cornerRadius": 0,
      "curveFrom": "{0.92775095908984895, 0.16473258201641272}",
      "curveMode": 3,
      "curveTo": "{0.24675095908980893, -0.080267417983591827}",
      "hasCurveFrom": true,
      "hasCurveTo": true,
      "point": "{0.48375095908983212, 0.0067325820163972594}"
    },
    {
      "_class": "curvePoint",
      "cornerRadius": 0,
      "curveFrom": "{-0.26924904091015378, 0.70173258201639044}",
      "curveMode": 3,
      "curveTo": "{0.40775095908981029, 0.94873258201640454}",
      "hasCurveFrom": true,
      "hasCurveTo": true,
      "point": "{0.17375095908982985, 0.8627325820163918}"
    }
  ],
  "resizingConstraint": 63,
  "resizingType": 0,
  "rotation": 0,
  "shouldBreakMaskChain": false,
  "style": {
    "_class": "style",
    "do_objectID": "65ED89AA-4CBF-459C-A898-AD9B60D93301",
    "endMarkerType": 0,
    "fills": [
      {
        "_class": "fill",
        "color": {
          "_class": "color",
          "alpha": 1,
          "blue": 0.1764705882352941,
          "green": 0.1764705882352941,
          "red": 0.1764705882352941
        },
        "fillType": 0,
        "isEnabled": true,
        "noiseIndex": 0,
        "noiseIntensity": 0,
        "patternFillType": 1,
        "patternTileScale": 1
      }
    ],
    "miterLimit": 10,
    "startMarkerType": 0,
    "windingRule": 1
  }
}