{
  "_class": "shapePath",
  "booleanOperation": -1,
  "clippingMaskMode": 0,
  "do_objectID": "7E102F86-7B59-4F0D-95BE-6CA4371C6C2F",
  "edited": true,
  "exportOptions": {
    "_class": "exportOptions",
    "do_objectID": "3550E599-3059-45F3-A700-105B734FEDDE",
    "exportFormats": [
    ],
    "includedLayerIds": [
    ],
    "layerOptions": 0,
    "shouldTrim": false
  },
  "frame": {
    "_class": "rect",
    "constrainProportions": false,
    "do_objectID": "95B3BE4B-1722-47D2-802F-8114CCB01EDA",
    "height": 0.1162131990756023,
    "width": 0.2865820736801048,
    "x": 21.0622023839568,
    "y": 36.58215992298997
  },
  "hasClippingMask": false,
  "isClosed": true,
  "isFixedToViewport": false,
  "isFlippedHorizontal": false,
  "isFlippedVertical": false,
  "isLocked": false,
  "isVisible": true,
  "layerListExpandedType": 0,
  "name": "Path",
  "nameIsFixed": false,
  "pointRadiusBehaviour": 0,
  "points": [
    {
      "_class": "curvePoint",
      "cornerRadius": 0,
      "curveFrom": "{0.74155424461650987, 0.57013258897418806}",
      "curveMode": 4,
      "curveTo": "{0.9508677209636367, 0.42288904396371085}",
      "hasCurveFrom": true,
      "hasCurveTo": true,
      "point": "{0.8523006170816344, 0.50453593859038159}"
    },
    {
      "_class": "curvePoint",
      "cornerRadius": 0,
      "curveFrom": "{0.35380032158647201, 0.80111653872991873}",
      "curveMode": 3,
      "curveTo": "{0.63052463334713338, 0.63642707606418869}",
      "hasCurveFrom": true,
      "hasCurveTo": true,
      "point": "{0.5200614996862768, 0.70272156315422896}"
    },
    {
      "_class": "curvePoint",
      "cornerRadius": 0,
      "curveFrom": "{-0.043017243179852595, 0.66922540125611174}",
      "curveMode": 4,
      "curveTo": "{0.18782238229091916, 0.90090718771807632}",
      "hasCurveFrom": true,
      "hasCurveTo": true,
      "point": "{0.021561204191114403, 1}"
    },
    {
      "_class": "curvePoint",
      "cornerRadius": 0,
      "curveFrom": "{0.25834884455132134, 0.42916957431961772}",
      "curveMode": 4,
      "curveTo": "{0.048752129399942612, 0.57501744591766679}",
      "hasCurveFrom": true,
      "hasCurveTo": true,
      "point": "{0.14788571089046482, 0.49546406140961841}"
    },
    {
      "_class": "curvePoint",
      "cornerRadius": 0,
      "curveFrom": "{0.64638600638562715, 0.19818562456384736}",
      "curveMode": 3,
      "curveTo": "{0.36937845582069784, 0.3628750872295774}",
      "hasCurveFrom": true,
      "hasCurveTo": true,
      "point": "{0.48012482828580633, 0.29727843684577104}"
    },
    {
      "_class": "curvePoint",
      "cornerRadius": 0,
      "curveFrom": "{1.0429203323476839, 0.32937892533146013}",
      "curveMode": 4,
      "curveTo": "{0.81236394568116399, 0.099092812281923681}",
      "hasCurveFrom": true,
      "hasCurveTo": true,
      "point": "{0.97862512378098476, 0}"
    }
  ],
  "resizingConstraint": 63,
  "resizingType": 0,
  "rotation": 0,
  "shouldBreakMaskChain": false,
  "style": {
    "_class": "style",
    "do_objectID": "9A1D430B-12AC-4CC7-A631-261EB34F7BDE",
    "endMarkerType": 0,
    "fills": [
      {
        "_class": "fill",
        "color": {
          "_class": "color",
          "alpha": 1,
          "blue": 0.1764705882352941,
          "green": 0.1764705882352941,
          "red": 0.1764705882352941
        },
        "fillType": 0,
        "isEnabled": true,
        "noiseIndex": 0,
        "noiseIntensity": 0,
        "patternFillType": 1,
        "patternTileScale": 1
      }
    ],
    "miterLimit": 10,
    "startMarkerType": 0,
    "windingRule": 1
  }
}