{
  "_class": "shapePath",
  "booleanOperation": -1,
  "clippingMaskMode": 0,
  "do_objectID": "80C98703-7D9A-42C0-B89E-55E9BD602699",
  "edited": true,
  "exportOptions": {
    "_class": "exportOptions",
    "do_objectID": "A409849A-149A-44A6-BC03-02473E7E6E52",
    "exportFormats": [
    ],
    "includedLayerIds": [
    ],
    "layerOptions": 0,
    "shouldTrim": false
  },
  "frame": {
    "_class": "rect",
    "constrainProportions": false,
    "do_objectID": "26CC1B0D-E4F6-45E6-BD47-4478A22AADEC",
    "height": 0.1058906030855553,
    "width": 0.105986348254568,
    "x": 31.95190134699019,
    "y": 34.21599003557645
  },
  "hasClippingMask": false,
  "isClosed": true,
  "isFixedToViewport": false,
  "isFlippedHorizontal": false,
  "isFlippedVertical": false,
  "isLocked": false,
  "isVisible": true,
  "layerListExpandedType": 0,
  "name": "Path",
  "nameIsFixed": false,
  "pointRadiusBehaviour": 0,
  "points": [
    {
      "_class": "curvePoint",
      "cornerRadius": 0,
      "curveFrom": "{-0.27111192920091298, 0.70173272600544578}",
      "curveMode": 3,
      "curveTo": "{0.40888807079909384, 0.94773272600542668}",
      "hasCurveFrom": true,
      "hasCurveTo": true,
      "point": "{0.17488807079911339, 0.86173272600547079}"
    },
    {
      "_class": "curvePoint",
      "cornerRadius": 0,
      "curveFrom": "{0.9268880707990661, 0.16673272600547762}",
      "curveMode": 3,
      "curveTo": "{0.24888807079906883, -0.080267273994536481}",
      "hasCurveFrom": true,
      "hasCurveTo": true,
      "point": "{0.48488807079905882, 0.006732726005452605}"
    }
  ],
  "resizingConstraint": 63,
  "resizingType": 0,
  "rotation": 0,
  "shouldBreakMaskChain": false,
  "style": {
    "_class": "style",
    "do_objectID": "93638246-117A-488F-96FA-DDEA3069A45C",
    "endMarkerType": 0,
    "fills": [
      {
        "_class": "fill",
        "color": {
          "_class": "color",
          "alpha": 1,
          "blue": 0.1764705882352941,
          "green": 0.1764705882352941,
          "red": 0.1764705882352941
        },
        "fillType": 0,
        "isEnabled": true,
        "noiseIndex": 0,
        "noiseIntensity": 0,
        "patternFillType": 1,
        "patternTileScale": 1
      }
    ],
    "miterLimit": 10,
    "startMarkerType": 0,
    "windingRule": 1
  }
}