{
  "_class": "shapePath",
  "booleanOperation": -1,
  "clippingMaskMode": 0,
  "do_objectID": "87821190-8FAA-405D-8341-AE2E023E0B93",
  "edited": true,
  "exportOptions": {
    "_class": "exportOptions",
    "do_objectID": "5B94D1C9-A33B-4991-B366-9A2ECF51403D",
    "exportFormats": [
    ],
    "includedLayerIds": [
    ],
    "layerOptions": 0,
    "shouldTrim": false
  },
  "frame": {
    "_class": "rect",
    "constrainProportions": false,
    "do_objectID": "750FBC8B-EDA5-4A09-A00A-4DC29525CC99",
    "height": 0.1324327662878559,
    "width": 0.1327148529292508,
    "x": 20.17144007778921,
    "y": 26.24194253168558
  },
  "hasClippingMask": false,
  "isClosed": true,
  "isFixedToViewport": false,
  "isFlippedHorizontal": false,
  "isFlippedVertical": false,
  "isLocked": false,
  "isVisible": true,
  "layerListExpandedType": 0,
  "name": "Path",
  "nameIsFixed": false,
  "pointRadiusBehaviour": 0,
  "points": [
    {
      "_class": "curvePoint",
      "cornerRadius": 0,
      "curveFrom": "{0.73027522935779987, 0.87017758726271643}",
      "curveMode": 4,
      "curveTo": "{0.93516819571864118, 0.53582363747702355}",
      "hasCurveFrom": true,
      "hasCurveTo": true,
      "point": "{1, 0.80465401102265199}"
    },
    {
      "_class": "curvePoint",
      "cornerRadius": 0,
      "curveFrom": "{0.12966360856270032, 0.73055725658298376}",
      "curveMode": 4,
      "curveTo": "{0.46299694189602203, 0.93447642375997042}",
      "hasCurveFrom": true,
      "hasCurveTo": true,
      "point": "{0.19510703363915172, 1}"
    },
    {
      "_class": "curvePoint",
      "cornerRadius": 0,
      "curveFrom": "{0.26850152905199764, 0.13043478260870625}",
      "curveMode": 4,
      "curveTo": "{0.065443425076451414, 0.46417636252297639}",
      "hasCurveFrom": true,
      "hasCurveTo": true,
      "point": "{0, 0.19534598897734806}"
    },
    {
      "_class": "curvePoint",
      "cornerRadius": 0,
      "curveFrom": "{0.87033639143729968, 0.26821800367420573}",
      "curveMode": 4,
      "curveTo": "{0.53577981651375806, 0.065523576240064441}",
      "hasCurveFrom": true,
      "hasCurveTo": true,
      "point": "{0.80550458715595818, 0}"
    }
  ],
  "resizingConstraint": 63,
  "resizingType": 0,
  "rotation": 0,
  "shouldBreakMaskChain": false,
  "style": {
    "_class": "style",
    "do_objectID": "A5F4371C-B8B9-45F3-BD50-8A2F93B9BFCB",
    "endMarkerType": 0,
    "fills": [
      {
        "_class": "fill",
        "color": {
          "_class": "color",
          "alpha": 1,
          "blue": 0.1764705882352941,
          "green": 0.1764705882352941,
          "red": 0.1764705882352941
        },
        "fillType": 0,
        "isEnabled": true,
        "noiseIndex": 0,
        "noiseIntensity": 0,
        "patternFillType": 1,
        "patternTileScale": 1
      }
    ],
    "miterLimit": 10,
    "startMarkerType": 0,
    "windingRule": 1
  }
}