{
  "_class": "shapePath",
  "booleanOperation": -1,
  "clippingMaskMode": 0,
  "do_objectID": "8876E851-2CCE-41E4-82C0-80797975EB8D",
  "edited": true,
  "exportOptions": {
    "_class": "exportOptions",
    "do_objectID": "33DA9AB2-BCDD-4AB4-B443-87D88061F12C",
    "exportFormats": [
    ],
    "includedLayerIds": [
    ],
    "layerOptions": 0,
    "shouldTrim": false
  },
  "frame": {
    "_class": "rect",
    "constrainProportions": false,
    "do_objectID": "0EB4A70E-B034-4B35-8B2E-CE2B2724F7D7",
    "height": 7.486967235786764,
    "width": 17.48061599546205,
    "x": 15.16374746508906,
    "y": 21.38629069536053
  },
  "hasClippingMask": false,
  "isClosed": true,
  "isFixedToViewport": false,
  "isFlippedHorizontal": false,
  "isFlippedVertical": false,
  "isLocked": false,
  "isVisible": true,
  "layerListExpandedType": 0,
  "name": "Path",
  "nameIsFixed": false,
  "pointRadiusBehaviour": 0,
  "points": [
    {
      "_class": "curvePoint",
      "cornerRadius": 0,
      "curveFrom": "{0.11787513640268389, 0.49630533077859523}",
      "curveMode": 4,
      "curveTo": "{0.11907315827354832, 0.49736685378032552}",
      "hasCurveFrom": true,
      "hasCurveTo": false,
      "point": "{0.11907315827354832, 0.49736685378032552}"
    },
    {
      "_class": "curvePoint",
      "cornerRadius": 0,
      "curveFrom": "{0.11758259617840311, 0.48863636868445831}",
      "curveMode": 2,
      "curveTo": "{0.1167885584267836, 0.49373817821318483}",
      "hasCurveFrom": true,
      "hasCurveTo": true,
      "point": "{0.11704859418169994, 0.49209173437376585}"
    },
    {
      "_class": "curvePoint",
      "cornerRadius": 0,
      "curveFrom": "{0.12490538877667107, 0.49091106083102404}",
      "curveMode": 4,
      "curveTo": "{0.12224466578440246, 0.48864720055182331}",
      "hasCurveFrom": true,
      "hasCurveTo": true,
      "point": "{0.123131573448492, 0.48544096781190121}"
    },
    {
      "_class": "curvePoint",
      "cornerRadius": 0,
      "curveFrom": "{0.12150634998026515, 0.4959587110229276}",
      "curveMode": 4,
      "curveTo": "{0.12328480880406761, 0.49351070899852811}",
      "hasCurveFrom": true,
      "hasCurveTo": true,
      "point": "{0.12151563697151206, 0.49590455168610464}"
    },
    {
      "_class": "curvePoint",
      "cornerRadius": 0,
      "curveFrom": "{0.12147848900652411, 0.49600203849238622}",
      "curveMode": 4,
      "curveTo": "{0.12148777599777102, 0.4959695428902926}",
      "hasCurveFrom": false,
      "hasCurveTo": true,
      "point": "{0.12147848900652411, 0.49600203849238622}"
    },
    {
      "_class": "curvePoint",
      "cornerRadius": 0,
      "curveFrom": "{0.24349562350537476, 0.42498831605006998}",
      "curveMode": 4,
      "curveTo": "{0.24303591743864777, 0.42737132687028218}",
      "hasCurveFrom": true,
      "hasCurveTo": false,
      "point": "{0.24303591743864777, 0.42737132687028218}"
    },
    {
      "_class": "curvePoint",
      "cornerRadius": 0,
      "curveFrom": "{0.24554340507534064, 0.42382930624205811}",
      "curveMode": 4,
      "curveTo": "{0.24441967913445239, 0.42286527004660873}",
      "hasCurveFrom": true,
      "hasCurveTo": true,
      "point": "{0.2450094030786375, 0.42336353594538023}"
    },
    {
      "_class": "curvePoint",
      "cornerRadius": 0,
      "curveFrom": "{0.24580344083025701, 0.42581153796977977}",
      "curveMode": 4,
      "curveTo": "{0.24576629286526891, 0.42472835123331953}",
      "hasCurveFrom": false,
      "hasCurveTo": true,
      "point": "{0.24580344083025701, 0.42581153796977977}"
    },
    {
      "_class": "curvePoint",
      "cornerRadius": 0,
      "curveFrom": "{0.24793016182582245, 0.42073139217578254}",
      "curveMode": 4,
      "curveTo": "{0.24980613405771862, 0.42355850955794333}",
      "hasCurveFrom": true,
      "hasCurveTo": false,
      "point": "{0.24980613405771862, 0.42355850955794333}"
    },
    {
      "_class": "curvePoint",
      "cornerRadius": 0,
      "curveFrom": "{0.25350235657402886, 0.4167344331182456}",
      "curveMode": 2,
      "curveTo": "{0.25111095632792363, 0.41331156303103173}",
      "hasCurveFrom": true,
      "hasCurveTo": true,
      "point": "{0.25215574284321235, 0.41480636072734683}"
    },
    {
      "_class": "curvePoint",
      "cornerRadius": 0,
      "curveFrom": "{0.25123168721413469, 0.42274611950559787}",
      "curveMode": 4,
      "curveTo": "{0.25239720461563458, 0.42082887898206411}",
      "hasCurveFrom": false,
      "hasCurveTo": true,
      "point": "{0.25123168721413469, 0.42274611950559787}"
    },
    {
      "_class": "curvePoint",
      "cornerRadius": 0,
      "curveFrom": "{0.25404100206635555, 0.41726519461911071}",
      "curveMode": 4,
      "curveTo": "{0.25592161779387523, 0.4200923120012709}",
      "hasCurveFrom": true,
      "hasCurveTo": false,
      "point": "{0.25592161779387523, 0.4200923120012709}"
    },
    {
      "_class": "curvePoint",
      "cornerRadius": 0,
      "curveFrom": "{0.25961784031018548, 0.41327906742893805}",
      "curveMode": 2,
      "curveTo": "{0.25723108355970364, 0.40985619734172485}",
      "hasCurveFrom": true,
      "hasCurveTo": true,
      "point": "{0.25826658308374539, 0.41135099503803935}"
    },
    {
      "_class": "curvePoint",
      "cornerRadius": 0,
      "curveFrom": "{0.25734252745466779, 0.41930158568365533}",
      "curveMode": 4,
      "curveTo": "{0.25850804485616768, 0.41737351329275663}",
      "hasCurveFrom": false,
      "hasCurveTo": true,
      "point": "{0.25734252745466779, 0.41930158568365533}"
    },
    {
      "_class": "curvePoint",
      "cornerRadius": 0,
      "curveFrom": "{0.41409765271296228, 0.32842221849466374}",
      "curveMode": 4,
      "curveTo": "{0.4141440876691973, 0.33076190184541737}",
      "hasCurveFrom": true,
      "hasCurveTo": false,
      "point": "{0.4141440876691973, 0.33076190184541737}"
    },
    {
      "_class": "curvePoint",
      "cornerRadius": 0,
      "curveFrom": "{0.41592254649299976, 0.32740402296239146}",
      "curveMode": 4,
      "curveTo": "{0.41415337466044433, 0.32623418128701465}",
      "hasCurveFrom": true,
      "hasCurveTo": true,
      "point": "{0.4160293468923405, 0.32662412851214023}"
    },
    {
      "_class": "curvePoint",
      "cornerRadius": 0,
      "curveFrom": "{0.41617793875229259, 0.32962455577213423}",
      "curveMode": 4,
      "curveTo": "{0.41601077290984639, 0.32844388222939308}",
      "hasCurveFrom": false,
      "hasCurveTo": true,
      "point": "{0.41617793875229259, 0.32962455577213423}"
    },
    {
      "_class": "curvePoint",
      "cornerRadius": 0,
      "curveFrom": "{0.51759652666527345, 0.26605232620929808}",
      "curveMode": 4,
      "curveTo": "{0.5187481135799028, 0.27170656097361967}",
      "hasCurveFrom": true,
      "hasCurveTo": false,
      "point": "{0.5187481135799028, 0.27170656097361967}"
    },
    {
      "_class": "curvePoint",
      "cornerRadius": 0,
      "curveFrom": "{0.5211395138260082, 0.26902025786719841}",
      "curveMode": 4,
      "curveTo": "{0.51925889809848846, 0.26441671423724405}",
      "hasCurveFrom": true,
      "hasCurveTo": true,
      "point": "{0.52107914838290248, 0.26296524401038751}"
    },
    {
      "_class": "curvePoint",
      "cornerRadius": 0,
      "curveFrom": "{0.52459891806551984, 0.26840284142741666}",
      "curveMode": 4,
      "curveTo": "{0.52279724176359954, 0.26899859413246974}",
      "hasCurveFrom": false,
      "hasCurveTo": true,
      "point": "{0.52459891806551984, 0.26840284142741666}"
    },
    {
      "_class": "curvePoint",
      "cornerRadius": 0,
      "curveFrom": "{0.91524691787977985, 0.047465242791676077}",
      "curveMode": 4,
      "curveTo": "{0.91482435977804089, 0.048082659231458436}",
      "hasCurveFrom": true,
      "hasCurveTo": false,
      "point": "{0.91482435977804089, 0.048082659231458436}"
    },
    {
      "_class": "curvePoint",
      "cornerRadius": 0,
      "curveFrom": "{0.91593879872768214, 0.047454410924311727}",
      "curveMode": 4,
      "curveTo": "{0.91565090199902477, 0.047205277974925672}",
      "hasCurveFrom": false,
      "hasCurveTo": true,
      "point": "{0.91593879872768214, 0.047454410924311727}"
    },
    {
      "_class": "curvePoint",
      "cornerRadius": 0,
      "curveFrom": "{0.92588980984885405, 0.039406333472413568}",
      "curveMode": 4,
      "curveTo": "{0.92549975621647962, 0.042060140976740552}",
      "hasCurveFrom": true,
      "hasCurveTo": false,
      "point": "{0.92549975621647962, 0.042060140976740552}"
    },
    {
      "_class": "curvePoint",
      "cornerRadius": 0,
      "curveFrom": "{0.92849016739801704, 0.038258155531766057}",
      "curveMode": 4,
      "curveTo": "{0.92736644145712899, 0.036665871029169989}",
      "hasCurveFrom": true,
      "hasCurveTo": true,
      "point": "{0.92800260035754922, 0.037575747887796399}"
    },
    {
      "_class": "curvePoint",
      "cornerRadius": 0,
      "curveFrom": "{0.92850409788488752, 0.040370369667863545}",
      "curveMode": 4,
      "curveTo": "{0.92858768080611076, 0.039276351064038983}",
      "hasCurveFrom": false,
      "hasCurveTo": true,
      "point": "{0.92850409788488752, 0.040370369667863545}"
    },
    {
      "_class": "curvePoint",
      "cornerRadius": 0,
      "curveFrom": "{0.99232430173434549, 0.061589997835113833}",
      "curveMode": 4,
      "curveTo": "{1, 0}",
      "hasCurveFrom": true,
      "hasCurveTo": false,
      "point": "{1, 0}"
    },
    {
      "_class": "curvePoint",
      "cornerRadius": 0,
      "curveFrom": "{0.97162824174038209, 0.18027476854903302}",
      "curveMode": 4,
      "curveTo": "{0.98278191822804195, 0.12164187050445456}",
      "hasCurveFrom": true,
      "hasCurveTo": true,
      "point": "{0.9716003807666409, 0.17985232572181375}"
    },
    {
      "_class": "curvePoint",
      "cornerRadius": 0,
      "curveFrom": "{0.97339741357293752, 0.18041558282477319}",
      "curveMode": 4,
      "curveTo": "{0.9717025376703583, 0.18048057402896048}",
      "hasCurveFrom": true,
      "hasCurveTo": true,
      "point": "{0.97170718116598165, 0.18097883992773259}"
    },
    {
      "_class": "curvePoint",
      "cornerRadius": 0,
      "curveFrom": "{0.97338812658169072, 0.18637310987530253}",
      "curveMode": 4,
      "curveTo": "{0.97503656752803491, 0.18013395427329346}",
      "hasCurveFrom": true,
      "hasCurveTo": true,
      "point": "{0.97509228947551707, 0.18579902090497877}"
    },
    {
      "_class": "curvePoint",
      "cornerRadius": 0,
      "curveFrom": "{0.9715910937753941, 0.18103299926455554}",
      "curveMode": 4,
      "curveTo": "{0.97177219010471083, 0.18666557029414721}",
      "hasCurveFrom": true,
      "hasCurveTo": true,
      "point": "{0.97170718116598165, 0.18097883992773259}"
    },
    {
      "_class": "curvePoint",
      "cornerRadius": 0,
      "curveFrom": "{0.95969910148359672, 0.24166979277158435}",
      "curveMode": 4,
      "curveTo": "{0.97147964988043001, 0.18102216739719057}",
      "hasCurveFrom": true,
      "hasCurveTo": true,
      "point": "{0.97136356248984224, 0.18107632673401353}"
    },
    {
      "_class": "curvePoint",
      "cornerRadius": 0,
      "curveFrom": "{0.93425738896241084, 0.35416956722031739}",
      "curveMode": 4,
      "curveTo": "{0.94611687678484346, 0.30007522160150668}",
      "hasCurveFrom": true,
      "hasCurveTo": true,
      "point": "{0.93089085463536936, 0.35607597587648682}"
    },
    {
      "_class": "curvePoint",
      "cornerRadius": 0,
      "curveFrom": "{0.94217919249611104, 0.35609763961121615}",
      "curveMode": 4,
      "curveTo": "{0.9376239232894521, 0.35226315856414797}",
      "hasCurveFrom": true,
      "hasCurveTo": true,
      "point": "{0.94098581412087023, 0.35037841364270789}"
    },
    {
      "_class": "curvePoint",
      "cornerRadius": 0,
      "curveFrom": "{0.93684381602470346, 0.36149190955878668}",
      "curveMode": 4,
      "curveTo": "{0.94049824708040208, 0.35777657905272942}",
      "hasCurveFrom": true,
      "hasCurveTo": true,
      "point": "{0.9386826402916113, 0.35921721741222035}"
    },
    {
      "_class": "curvePoint",
      "cornerRadius": 0,
      "curveFrom": "{0.90593670915465163, 0.44628376728887309}",
      "curveMode": 4,
      "curveTo": "{0.9317731188038354, 0.36397240718528051}",
      "hasCurveFrom": true,
      "hasCurveTo": true,
      "point": "{0.92860625478860481, 0.36419987639993662}"
    },
    {
      "_class": "curvePoint",
      "cornerRadius": 0,
      "curveFrom": "{0.85000580436952933, 0.59256813604779246}",
      "curveMode": 4,
      "curveTo": "{0.87967774140372856, 0.52300588383233326}",
      "hasCurveFrom": true,
      "hasCurveTo": true,
      "point": "{0.84997329990016479, 0.59254647231306379}"
    },
    {
      "_class": "curvePoint",
      "cornerRadius": 0,
      "curveFrom": "{0.85184927213206085, 0.59507029740901496}",
      "curveMode": 4,
      "curveTo": "{0.85006152631701137, 0.5925356404456994}",
      "hasCurveFrom": true,
      "hasCurveTo": true,
      "point": "{0.85009403078637591, 0.59257896791515741}"
    },
    {
      "_class": "curvePoint",
      "cornerRadius": 0,
      "curveFrom": "{0.84764690859278868, 0.59994463772308526}",
      "curveMode": 4,
      "curveTo": "{0.84897030484548752, 0.60179688704243173}",
      "hasCurveFrom": true,
      "hasCurveTo": true,
      "point": "{0.84802767523391609, 0.60048623109131483}"
    },
    {
      "_class": "curvePoint",
      "cornerRadius": 0,
      "curveFrom": "{0.83757516658540532, 0.62130508016607577}",
      "curveMode": 4,
      "curveTo": "{0.84751224721970697, 0.59916474327283409}",
      "hasCurveFrom": true,
      "hasCurveTo": true,
      "point": "{0.8475076037240834, 0.59833068948575996}"
    },
    {
      "_class": "curvePoint",
      "cornerRadius": 0,
      "curveFrom": "{0.81687446309581846, 0.6647733639002148}",
      "curveMode": 4,
      "curveTo": "{0.82729911077058804, 0.64356456760032821}",
      "hasCurveFrom": true,
      "hasCurveTo": true,
      "point": "{0.8166469318102666, 0.66493584191068367}"
    },
    {
      "_class": "curvePoint",
      "cornerRadius": 0,
      "curveFrom": "{0.81899189710013698, 0.66742717140454177}",
      "curveMode": 4,
      "curveTo": "{0.81709270739012307, 0.66471920456339184}",
      "hasCurveFrom": true,
      "hasCurveTo": true,
      "point": "{0.81725058624132252, 0.66493584191068367}"
    },
    {
      "_class": "curvePoint",
      "cornerRadius": 0,
      "curveFrom": "{0.81444591488472506, 0.67178158208511074}",
      "curveMode": 4,
      "curveTo": "{0.81611757330918711, 0.67414292917059371}",
      "hasCurveFrom": true,
      "hasCurveTo": true,
      "point": "{0.81517494369761556, 0.6728322732194767}"
    },
    {
      "_class": "curvePoint",
      "cornerRadius": 0,
      "curveFrom": "{0.80962132293190303, 0.67897394201520478}",
      "curveMode": 4,
      "curveTo": "{0.81454807178844213, 0.66998349210258723}",
      "hasCurveFrom": true,
      "hasCurveTo": true,
      "point": "{0.81496134289893407, 0.66834788013053259}"
    },
    {
      "_class": "curvePoint",
      "cornerRadius": 0,
      "curveFrom": "{0.80018573982494023, 0.69841714393466148}",
      "curveMode": 4,
      "curveTo": "{0.80416521557428422, 0.68931837534839735}",
      "hasCurveFrom": true,
      "hasCurveTo": true,
      "point": "{0.79865338626918325, 0.69952199440585039}"
    },
    {
      "_class": "curvePoint",
      "cornerRadius": 0,
      "curveFrom": "{0.80481530496157483, 0.69347781241640383}",
      "curveMode": 4,
      "curveTo": "{0.80211279050869477, 0.6977780637601505}",
      "hasCurveFrom": true,
      "hasCurveTo": true,
      "point": "{0.80278145387847955, 0.69568751335878232}"
    },
    {
      "_class": "curvePoint",
      "cornerRadius": 0,
      "curveFrom": "{0.81060574400408614, 0.69435519367293663}",
      "curveMode": 4,
      "curveTo": "{0.80683986905342342, 0.6912789433413904}",
      "hasCurveFrom": true,
      "hasCurveTo": true,
      "point": "{0.80887836363214205, 0.68903674679691829}"
    },
    {
      "_class": "curvePoint",
      "cornerRadius": 0,
      "curveFrom": "{0.80625943210048523, 0.70068100421386292}",
      "curveMode": 2,
      "curveTo": "{0.80906410345708235, 0.69719314292246171}",
      "hasCurveFrom": true,
      "hasCurveTo": true,
      "point": "{0.80724385317266834, 0.69945700320166315}"
    },
    {
      "_class": "curvePoint",
      "cornerRadius": 0,
      "curveFrom": "{0.80275359290473869, 0.7021974656449067}",
      "curveMode": 4,
      "curveTo": "{0.8052146455851964, 0.70156921733776001}",
      "hasCurveFrom": true,
      "hasCurveTo": true,
      "point": "{0.80420700703489578, 0.7027607227478655}"
    },
    {
      "_class": "curvePoint",
      "cornerRadius": 0,
      "curveFrom": "{0.79799865338626919, 0.7092598431666256}",
      "curveMode": 4,
      "curveTo": "{0.79941027605581472, 0.71085212766922168}",
      "hasCurveFrom": true,
      "hasCurveTo": true,
      "point": "{0.7981193842724803, 0.7094006574423658}"
    },
    {
      "_class": "curvePoint",
      "cornerRadius": 0,
      "curveFrom": "{0.73201922407188125, 0.82178128135008799}",
      "curveMode": 4,
      "curveTo": "{0.79704673678345039, 0.70459130833248329}",
      "hasCurveFrom": true,
      "hasCurveTo": true,
      "point": "{0.79677741403728708, 0.70292320075833492}"
    },
    {
      "_class": "curvePoint",
      "cornerRadius": 0,
      "curveFrom": "{0.531401639153955, 0.98105305907916185}",
      "curveMode": 3,
      "curveTo": "{0.65557799911773584, 0.91094921349547264}",
      "hasCurveFrom": true,
      "hasCurveTo": true,
      "point": "{0.57021661907083643, 0.95914019140057694}"
    },
    {
      "_class": "curvePoint",
      "cornerRadius": 0,
      "curveFrom": "{0.45357665250400503, 0.99892564023075181}",
      "curveMode": 4,
      "curveTo": "{0.49256344175895622, 0.99336889227271241}",
      "hasCurveFrom": true,
      "hasCurveTo": true,
      "point": "{0.45413387197882565, 0.99697590410512371}"
    },
    {
      "_class": "curvePoint",
      "cornerRadius": 0,
      "curveFrom": "{0.45172389775022637, 0.99944556986425259}",
      "curveMode": 4,
      "curveTo": "{0.45281976271737356, 1.000355446722879}",
      "hasCurveFrom": true,
      "hasCurveTo": true,
      "point": "{0.45230433470316456, 0.99992217202829481}"
    },
    {
      "_class": "curvePoint",
      "cornerRadius": 0,
      "curveFrom": "{0.33046365303800684, 1.00735283304041}",
      "curveMode": 4,
      "curveTo": "{0.45146386199530986, 0.99847070180143893}",
      "hasCurveFrom": true,
      "hasCurveTo": true,
      "point": "{0.45140814004782809, 0.99729002825869706}"
    },
    {
      "_class": "curvePoint",
      "cornerRadius": 0,
      "curveFrom": "{0.11447609760627796, 0.78697849150762877}",
      "curveMode": 4,
      "curveTo": "{0.2137865385061874, 0.92990498138352218}",
      "hasCurveFrom": true,
      "hasCurveTo": true,
      "point": "{0.11517262194980379, 0.78498542791254211}"
    },
    {
      "_class": "curvePoint",
      "cornerRadius": 0,
      "curveFrom": "{0.11194074899584405, 0.78628525199629418}",
      "curveMode": 4,
      "curveTo": "{0.11344059808223619, 0.78842996173448532}",
      "hasCurveFrom": true,
      "hasCurveTo": true,
      "point": "{0.11292052657240362, 0.78770422662105699}"
    },
    {
      "_class": "curvePoint",
      "cornerRadius": 0,
      "curveFrom": "{0.10287200204313805, 0.76670123580109795}",
      "curveMode": 4,
      "curveTo": "{0.11225650669824234, 0.78370726756352005}",
      "hasCurveFrom": true,
      "hasCurveTo": true,
      "point": "{0.11294838754614465, 0.78166004463161043}"
    },
    {
      "_class": "curvePoint",
      "cornerRadius": 0,
      "curveFrom": "{0.082886396879570903, 0.73630701597603132}",
      "curveMode": 4,
      "curveTo": "{0.0929767128694481, 0.75107085119398065}",
      "hasCurveFrom": true,
      "hasCurveTo": true,
      "point": "{0.083299667990062873, 0.73472556334079953}"
    },
    {
      "_class": "curvePoint",
      "cornerRadius": 0,
      "curveFrom": "{0.080002786097374032, 0.74378100445760509}",
      "curveMode": 4,
      "curveTo": "{0.082059854658586964, 0.73753101698823098}",
      "hasCurveFrom": true,
      "hasCurveTo": true,
      "point": "{0.081191520976991408, 0.73871169053097219}"
    },
    {
      "_class": "curvePoint",
      "cornerRadius": 0,
      "curveFrom": "{0.076970583455225061, 0.73334991618549594}",
      "curveMode": 2,
      "curveTo": "{0.076297276589816734, 0.73781264553971071}",
      "hasCurveFrom": true,
      "hasCurveTo": true,
      "point": "{0.076724478187179285, 0.73493136882072696}"
    },
    {
      "_class": "curvePoint",
      "cornerRadius": 0,
      "curveFrom": "{0.079793828794316346, 0.73073943615062686}",
      "curveMode": 4,
      "curveTo": "{0.078103596387360363, 0.73253752613315037}",
      "hasCurveFrom": true,
      "hasCurveTo": true,
      "point": "{0.079310905249471722, 0.7317576316828992}"
    },
    {
      "_class": "curvePoint",
      "cornerRadius": 0,
      "curveFrom": "{0.051821411158319966, 0.68092367814083288}",
      "curveMode": 4,
      "curveTo": "{0.080290682826031412, 0.73027366585394904}",
      "hasCurveFrom": true,
      "hasCurveTo": true,
      "point": "{0.080694666945276328, 0.7302520021192197}"
    },
    {
      "_class": "curvePoint",
      "cornerRadius": 0,
      "curveFrom": "{0, 0.56458942264503165}",
      "curveMode": 4,
      "curveTo": "{0.024759118664530629, 0.62561616337718673}",
      "hasCurveFrom": false,
      "hasCurveTo": true,
      "point": "{0, 0.56458942264503165}"
    }
  ],
  "resizingConstraint": 63,
  "resizingType": 0,
  "rotation": 0,
  "shouldBreakMaskChain": false,
  "style": {
    "_class": "style",
    "do_objectID": "840331B6-0313-4BB5-87D6-2B0109CF2A79",
    "endMarkerType": 0,
    "fills": [
      {
        "_class": "fill",
        "color": {
          "_class": "color",
          "alpha": 1,
          "blue": 0.1764705882352941,
          "green": 0.1764705882352941,
          "red": 0.1764705882352941
        },
        "fillType": 0,
        "isEnabled": true,
        "noiseIndex": 0,
        "noiseIntensity": 0,
        "patternFillType": 1,
        "patternTileScale": 1
      }
    ],
    "miterLimit": 10,
    "startMarkerType": 0,
    "windingRule": 1
  }
}