{
  "_class": "shapePath",
  "booleanOperation": -1,
  "clippingMaskMode": 0,
  "do_objectID": "93DDBFBD-D084-4224-9717-1780E3B446CC",
  "edited": true,
  "exportOptions": {
    "_class": "exportOptions",
    "do_objectID": "29E0189C-4D6B-4E21-9966-81297BFA8253",
    "exportFormats": [
    ],
    "includedLayerIds": [
    ],
    "layerOptions": 0,
    "shouldTrim": false
  },
  "frame": {
    "_class": "rect",
    "constrainProportions": false,
    "do_objectID": "B922C268-C798-4B3E-A415-1D3B623CEA33",
    "height": 0.1058906030855589,
    "width": 0.1153696548272549,
    "x": 22.46934937746288,
    "y": 14.72507663697007
  },
  "hasClippingMask": false,
  "isClosed": true,
  "isFixedToViewport": false,
  "isFlippedHorizontal": false,
  "isFlippedVertical": false,
  "isLocked": false,
  "isVisible": true,
  "layerListExpandedType": 0,
  "name": "Path",
  "nameIsFixed": false,
  "pointRadiusBehaviour": 0,
  "points": [
    {
      "_class": "curvePoint",
      "cornerRadius": 0,
      "curveFrom": "{0.13056305712296898, 0.046000000000049113}",
      "curveMode": 3,
      "curveTo": "{-0.084027209422975729, 0.54600000000004911}",
      "hasCurveFrom": true,
      "hasCurveTo": true,
      "point": "{0.013769666150426879, 0.31900000000001683}"
    },
    {
      "_class": "curvePoint",
      "cornerRadius": 0,
      "curveFrom": "{1.1204925818119318, 0.53100000000000591}",
      "curveMode": 4,
      "curveTo": "{0.77785172998286456, 0.23300000000000409}",
      "hasCurveFrom": true,
      "hasCurveTo": true,
      "point": "{0.93967389819784841, 0}"
    },
    {
      "_class": "curvePoint",
      "cornerRadius": 0,
      "curveFrom": "{0.36344626442365691, 1.2030000000000314}",
      "curveMode": 4,
      "curveTo": "{0.8629842619568141, 0.68400000000002592}",
      "hasCurveFrom": true,
      "hasCurveTo": true,
      "point": "{0.58788657599138949, 0.81900000000001683}"
    }
  ],
  "resizingConstraint": 63,
  "resizingType": 0,
  "rotation": 0,
  "shouldBreakMaskChain": false,
  "style": {
    "_class": "style",
    "do_objectID": "BDEFA913-B80C-472B-A758-601631F2A581",
    "endMarkerType": 0,
    "fills": [
      {
        "_class": "fill",
        "color": {
          "_class": "color",
          "alpha": 1,
          "blue": 0.1764705882352941,
          "green": 0.1764705882352941,
          "red": 0.1764705882352941
        },
        "fillType": 0,
        "isEnabled": true,
        "noiseIndex": 0,
        "noiseIntensity": 0,
        "patternFillType": 1,
        "patternTileScale": 1
      }
    ],
    "miterLimit": 10,
    "startMarkerType": 0,
    "windingRule": 1
  }
}