{
  "_class": "shapePath",
  "booleanOperation": -1,
  "clippingMaskMode": 0,
  "do_objectID": "95B560D1-008A-42A9-A24C-52A6EABC1CFC",
  "edited": true,
  "exportOptions": {
    "_class": "exportOptions",
    "do_objectID": "3E9B3A2F-3008-493D-8124-9611A76B13EB",
    "exportFormats": [
    ],
    "includedLayerIds": [
    ],
    "layerOptions": 0,
    "shouldTrim": false
  },
  "frame": {
    "_class": "rect",
    "constrainProportions": false,
    "do_objectID": "F24E9968-20E2-4FEE-8CBE-002EE04B9A0E",
    "height": 0.1058906030855535,
    "width": 0.1074293322413133,
    "x": 27.84505015362904,
    "y": 12.22547913389342
  },
  "hasClippingMask": false,
  "isClosed": true,
  "isFixedToViewport": false,
  "isFlippedHorizontal": false,
  "isFlippedVertical": false,
  "isLocked": false,
  "isVisible": true,
  "layerListExpandedType": 0,
  "name": "Path",
  "nameIsFixed": false,
  "pointRadiusBehaviour": 0,
  "points": [
    {
      "_class": "curvePoint",
      "cornerRadius": 0,
      "curveFrom": "{0.48042681662693637, 1.2513836794871243}",
      "curveMode": 4,
      "curveTo": "{0.91110587272124344, 0.64286769416787992}",
      "hasCurveFrom": true,
      "hasCurveTo": true,
      "point": "{0.65194286177324912, 0.83916317330310741}"
    },
    {
      "_class": "curvePoint",
      "cornerRadius": 0,
      "curveFrom": "{0.085259893228101499, 0.25223969068873081}",
      "curveMode": 4,
      "curveTo": "{-0.058299792136667514, 0.76849680081441885}",
      "hasCurveFrom": true,
      "hasCurveTo": true,
      "point": "{0.005168700340391426, 0.53392370324783223}"
    },
    {
      "_class": "curvePoint",
      "cornerRadius": 0,
      "curveFrom": "{1.1460904103446152, 0.43773891847155239}",
      "curveMode": 4,
      "curveTo": "{0.759990414442546, 0.25518412287580139}",
      "hasCurveFrom": true,
      "hasCurveTo": true,
      "point": "{0.88843855397941518, 0}"
    }
  ],
  "resizingConstraint": 63,
  "resizingType": 0,
  "rotation": 0,
  "shouldBreakMaskChain": false,
  "style": {
    "_class": "style",
    "do_objectID": "CA2AD691-427B-4422-BA72-6116D82F2369",
    "endMarkerType": 0,
    "fills": [
      {
        "_class": "fill",
        "color": {
          "_class": "color",
          "alpha": 1,
          "blue": 0.1764705882352941,
          "green": 0.1764705882352941,
          "red": 0.1764705882352941
        },
        "fillType": 0,
        "isEnabled": true,
        "noiseIndex": 0,
        "noiseIntensity": 0,
        "patternFillType": 1,
        "patternTileScale": 1
      }
    ],
    "miterLimit": 10,
    "startMarkerType": 0,
    "windingRule": 1
  }
}