{
  "_class": "shapePath",
  "booleanOperation": -1,
  "clippingMaskMode": 0,
  "do_objectID": "9672A2CD-4C30-42F7-A5F6-C246F785C8EB",
  "edited": true,
  "exportOptions": {
    "_class": "exportOptions",
    "do_objectID": "1FA263D9-E9AA-482D-ADE0-635018324CD4",
    "exportFormats": [
    ],
    "includedLayerIds": [
    ],
    "layerOptions": 0,
    "shouldTrim": false
  },
  "frame": {
    "_class": "rect",
    "constrainProportions": false,
    "do_objectID": "9DE93A08-0644-4CD2-9573-BF6C5A72FDA9",
    "height": 0.1058906030855589,
    "width": 0.1059863482545609,
    "x": 19.52697660983669,
    "y": 24.16188382451903
  },
  "hasClippingMask": false,
  "isClosed": true,
  "isFixedToViewport": false,
  "isFlippedHorizontal": false,
  "isFlippedVertical": false,
  "isLocked": false,
  "isVisible": true,
  "layerListExpandedType": 0,
  "name": "Path",
  "nameIsFixed": false,
  "pointRadiusBehaviour": 0,
  "points": [
    {
      "_class": "curvePoint",
      "cornerRadius": 0,
      "curveFrom": "{1.0405617509669014, 0.18875720726072132}",
      "curveMode": 3,
      "curveTo": "{0.27656175096691982, -0.091242792739308243}",
      "hasCurveFrom": true,
      "hasCurveTo": true,
      "point": "{0.54156175096690617, 0.0077572072607381415}"
    },
    {
      "_class": "curvePoint",
      "cornerRadius": 0,
      "curveFrom": "{-0.30243824903308791, 0.7867572072607345}",
      "curveMode": 4,
      "curveTo": "{0.46056175096691732, 1.0667572072607072}",
      "hasCurveFrom": true,
      "hasCurveTo": true,
      "point": "{0.19556175096690254, 0.96675720726074132}"
    }
  ],
  "resizingConstraint": 63,
  "resizingType": 0,
  "rotation": 0,
  "shouldBreakMaskChain": false,
  "style": {
    "_class": "style",
    "do_objectID": "8557788E-A533-481A-BB41-60C3D7F3AD14",
    "endMarkerType": 0,
    "fills": [
      {
        "_class": "fill",
        "color": {
          "_class": "color",
          "alpha": 1,
          "blue": 0.1764705882352941,
          "green": 0.1764705882352941,
          "red": 0.1764705882352941
        },
        "fillType": 0,
        "isEnabled": true,
        "noiseIndex": 0,
        "noiseIntensity": 0,
        "patternFillType": 1,
        "patternTileScale": 1
      }
    ],
    "miterLimit": 10,
    "startMarkerType": 0,
    "windingRule": 1
  }
}