{
  "_class": "shapePath",
  "booleanOperation": -1,
  "clippingMaskMode": 0,
  "do_objectID": "98288F66-2AD0-43EA-B92B-72FD21FADFCD",
  "edited": true,
  "exportOptions": {
    "_class": "exportOptions",
    "do_objectID": "F15B9549-217D-4B8D-9FDA-E635AF2D99D6",
    "exportFormats": [
    ],
    "includedLayerIds": [
    ],
    "layerOptions": 0,
    "shouldTrim": false
  },
  "frame": {
    "_class": "rect",
    "constrainProportions": false,
    "do_objectID": "4A56E99E-CC95-4A1D-AB20-5615C6BE9608",
    "height": 0.1058906030855695,
    "width": 0.1059863482546035,
    "x": 32.42588960659271,
    "y": 32.89907652720316
  },
  "hasClippingMask": false,
  "isClosed": true,
  "isFixedToViewport": false,
  "isFlippedHorizontal": false,
  "isFlippedVertical": false,
  "isLocked": false,
  "isVisible": true,
  "layerListExpandedType": 0,
  "name": "Path",
  "nameIsFixed": false,
  "pointRadiusBehaviour": 0,
  "points": [
    {
      "_class": "curvePoint",
      "cornerRadius": 0,
      "curveFrom": "{1.0415205294490875, 0.18731037905598669}",
      "curveMode": 3,
      "curveTo": "{0.27852052944911065, -0.088689620944023773}",
      "hasCurveFrom": true,
      "hasCurveTo": true,
      "point": "{0.54452052944907336, 0.0073103790559798654}"
    },
    {
      "_class": "curvePoint",
      "cornerRadius": 0,
      "curveFrom": "{-0.30247947055090663, 0.78931037905596213}",
      "curveMode": 3,
      "curveTo": "{0.46252052944907973, 1.0653103790559726}",
      "hasCurveFrom": true,
      "hasCurveTo": true,
      "point": "{0.19452052944910747, 0.97031037905600215}"
    }
  ],
  "resizingConstraint": 63,
  "resizingType": 0,
  "rotation": 0,
  "shouldBreakMaskChain": false,
  "style": {
    "_class": "style",
    "do_objectID": "46AE37C1-B287-47A6-8F57-371C76ABE91D",
    "endMarkerType": 0,
    "fills": [
      {
        "_class": "fill",
        "color": {
          "_class": "color",
          "alpha": 1,
          "blue": 0.1764705882352941,
          "green": 0.1764705882352941,
          "red": 0.1764705882352941
        },
        "fillType": 0,
        "isEnabled": true,
        "noiseIndex": 0,
        "noiseIntensity": 0,
        "patternFillType": 1,
        "patternTileScale": 1
      }
    ],
    "miterLimit": 10,
    "startMarkerType": 0,
    "windingRule": 1
  }
}