{
  "_class": "shapePath",
  "booleanOperation": -1,
  "clippingMaskMode": 0,
  "do_objectID": "98FE46C7-385F-40F4-931D-473FE82417E6",
  "edited": true,
  "exportOptions": {
    "_class": "exportOptions",
    "do_objectID": "DA77A104-84AA-49F3-AED0-D5113484EF52",
    "exportFormats": [
    ],
    "includedLayerIds": [
    ],
    "layerOptions": 0,
    "shouldTrim": false
  },
  "frame": {
    "_class": "rect",
    "constrainProportions": false,
    "do_objectID": "7E94546B-2B31-4F37-A3B9-64455FFB2A83",
    "height": 0.1058906030855695,
    "width": 0.1059863482545609,
    "x": 18.2636744663939,
    "y": 19.27912562098374
  },
  "hasClippingMask": false,
  "isClosed": true,
  "isFixedToViewport": false,
  "isFlippedHorizontal": false,
  "isFlippedVertical": false,
  "isLocked": false,
  "isVisible": true,
  "layerListExpandedType": 0,
  "name": "Path",
  "nameIsFixed": false,
  "pointRadiusBehaviour": 0,
  "points": [
    {
      "_class": "curvePoint",
      "cornerRadius": 0,
      "curveFrom": "{0.13103024501730767, 0.040999999999996817}",
      "curveMode": 3,
      "curveTo": "{-0.082884594271192574, 0.48599999999999}",
      "hasCurveFrom": true,
      "hasCurveTo": true,
      "point": "{0.013416551091163883, 0.28399999999999181}"
    },
    {
      "_class": "curvePoint",
      "cornerRadius": 0,
      "curveFrom": "{1.1193010154571215, 0.47100000000000364}",
      "curveMode": 4,
      "curveTo": "{0.77751088478582986, 0.20699999999999363}",
      "hasCurveFrom": true,
      "hasCurveTo": true,
      "point": "{0.94011773679111521, 0}"
    },
    {
      "_class": "curvePoint",
      "cornerRadius": 0,
      "curveFrom": "{0.36310021826755851, 1.0689999999999884}",
      "curveMode": 4,
      "curveTo": "{0.86512913999256846, 0.60699999999999932}",
      "hasCurveFrom": true,
      "hasCurveTo": true,
      "point": "{0.58964471596420576, 0.72599999999999909}"
    }
  ],
  "resizingConstraint": 63,
  "resizingType": 0,
  "rotation": 0,
  "shouldBreakMaskChain": false,
  "style": {
    "_class": "style",
    "do_objectID": "C8FEABFD-5B8D-43A8-94C9-3FD1C95EB112",
    "endMarkerType": 0,
    "fills": [
      {
        "_class": "fill",
        "color": {
          "_class": "color",
          "alpha": 1,
          "blue": 0.1764705882352941,
          "green": 0.1764705882352941,
          "red": 0.1764705882352941
        },
        "fillType": 0,
        "isEnabled": true,
        "noiseIndex": 0,
        "noiseIntensity": 0,
        "patternFillType": 1,
        "patternTileScale": 1
      }
    ],
    "miterLimit": 10,
    "startMarkerType": 0,
    "windingRule": 1
  }
}