{
  "_class": "shapePath",
  "booleanOperation": -1,
  "clippingMaskMode": 0,
  "do_objectID": "9CA6C0F7-B203-43CF-91CE-A4EFE63A1818",
  "edited": true,
  "exportOptions": {
    "_class": "exportOptions",
    "do_objectID": "236C8961-674F-431F-B984-0A7859576B25",
    "exportFormats": [
    ],
    "includedLayerIds": [
    ],
    "layerOptions": 0,
    "shouldTrim": false
  },
  "frame": {
    "_class": "rect",
    "constrainProportions": false,
    "do_objectID": "167E3830-C667-4F19-BEC1-47BDE6FBA15E",
    "height": 0.105890603085558,
    "width": 0.1072243586583355,
    "x": 26.37541053969235,
    "y": 5.873815515748365
  },
  "hasClippingMask": false,
  "isClosed": true,
  "isFixedToViewport": false,
  "isFlippedHorizontal": false,
  "isFlippedVertical": false,
  "isLocked": false,
  "isVisible": true,
  "layerListExpandedType": 0,
  "name": "Path",
  "nameIsFixed": false,
  "pointRadiusBehaviour": 0,
  "points": [
    {
      "_class": "curvePoint",
      "cornerRadius": 0,
      "curveFrom": "{0.48243511047766785, 1.2513565565216176}",
      "curveMode": 4,
      "curveTo": "{0.91242342335439552, 0.6438352165319241}",
      "hasCurveFrom": true,
      "hasCurveTo": true,
      "point": "{0.65352200961526918, 0.83914498496158818}"
    },
    {
      "_class": "curvePoint",
      "cornerRadius": 0,
      "curveFrom": "{0.084241708060198373, 0.25517859191812942}",
      "curveMode": 3,
      "curveTo": "{-0.060349432361390405, 0.76848014412271648}",
      "hasCurveFrom": true,
      "hasCurveTo": true,
      "point": "{0.0055114535897855558, 0.53489358690534405}"
    },
    {
      "_class": "curvePoint",
      "cornerRadius": 0,
      "curveFrom": "{1.1455861000551342, 0.43871088687464821}",
      "curveMode": 4,
      "curveTo": "{0.7595050444792335, 0.25616004804092407}",
      "hasCurveFrom": true,
      "hasCurveTo": true,
      "point": "{0.88819872967117164, 0}"
    }
  ],
  "resizingConstraint": 63,
  "resizingType": 0,
  "rotation": 0,
  "shouldBreakMaskChain": false,
  "style": {
    "_class": "style",
    "do_objectID": "CF73DF09-4ECF-4A47-BBE5-09E01A03F0AB",
    "endMarkerType": 0,
    "fills": [
      {
        "_class": "fill",
        "color": {
          "_class": "color",
          "alpha": 1,
          "blue": 0.1764705882352941,
          "green": 0.1764705882352941,
          "red": 0.1764705882352941
        },
        "fillType": 0,
        "isEnabled": true,
        "noiseIndex": 0,
        "noiseIntensity": 0,
        "patternFillType": 1,
        "patternTileScale": 1
      }
    ],
    "miterLimit": 10,
    "startMarkerType": 0,
    "windingRule": 1
  }
}