{
  "_class": "shapePath",
  "booleanOperation": -1,
  "clippingMaskMode": 0,
  "do_objectID": "A49420D2-742A-4F0D-A9C0-CD842C25083F",
  "edited": true,
  "exportOptions": {
    "_class": "exportOptions",
    "do_objectID": "A6273140-EDF5-4538-8E89-311E18A1B8BE",
    "exportFormats": [
    ],
    "includedLayerIds": [
    ],
    "layerOptions": 0,
    "shouldTrim": false
  },
  "frame": {
    "_class": "rect",
    "constrainProportions": false,
    "do_objectID": "18D3BC92-225A-43F6-B132-3196A41A0C20",
    "height": 0.1196622075278513,
    "width": 0.1330598188557808,
    "x": 30.10721892108003,
    "y": 3.557255828661726
  },
  "hasClippingMask": false,
  "isClosed": true,
  "isFixedToViewport": false,
  "isFlippedHorizontal": false,
  "isFlippedVertical": false,
  "isLocked": false,
  "isVisible": true,
  "layerListExpandedType": 0,
  "name": "Path",
  "nameIsFixed": false,
  "pointRadiusBehaviour": 0,
  "points": [
    {
      "_class": "curvePoint",
      "cornerRadius": 0,
      "curveFrom": "{0.39818362008410163, 0.41747739779943632}",
      "curveMode": 4,
      "curveTo": "{0.080355317441629312, 0.15248768588455339}",
      "hasCurveFrom": true,
      "hasCurveTo": true,
      "point": "{0.31216866677780536, 0}"
    },
    {
      "_class": "curvePoint",
      "cornerRadius": 0,
      "curveFrom": "{1.1320558812720765, 0.57606459111938113}",
      "curveMode": 4,
      "curveTo": "{0.64585788279591738, 0.33818380113946395}",
      "hasCurveFrom": true,
      "hasCurveTo": true,
      "point": "{0.8984124265463781, 0.23788078997987863}"
    },
    {
      "_class": "curvePoint",
      "cornerRadius": 0,
      "curveFrom": "{0.3817126715786443, 1.1467073978517306}",
      "curveMode": 4,
      "curveTo": "{0.92098372635018499, 0.736684953584405}",
      "hasCurveFrom": true,
      "hasCurveTo": true,
      "point": "{0.68490013110518155, 0.88849491642056011}"
    },
    {
      "_class": "curvePoint",
      "cornerRadius": 0,
      "curveFrom": "{-0.13254694286978427, 0.31175260225281931}",
      "curveMode": 4,
      "curveTo": "{0.23713434580846909, 0.90950433092021155}",
      "hasCurveFrom": true,
      "hasCurveTo": true,
      "point": "{0.10170654698573163, 0.65264729558583767}"
    }
  ],
  "resizingConstraint": 63,
  "resizingType": 0,
  "rotation": 0,
  "shouldBreakMaskChain": false,
  "style": {
    "_class": "style",
    "do_objectID": "52D54D52-2F54-4FFE-8B83-1D77DD9FA283",
    "endMarkerType": 0,
    "fills": [
      {
        "_class": "fill",
        "color": {
          "_class": "color",
          "alpha": 1,
          "blue": 0.1764705882352941,
          "green": 0.1764705882352941,
          "red": 0.1764705882352941
        },
        "fillType": 0,
        "isEnabled": true,
        "noiseIndex": 0,
        "noiseIntensity": 0,
        "patternFillType": 1,
        "patternTileScale": 1
      }
    ],
    "miterLimit": 10,
    "startMarkerType": 0,
    "windingRule": 1
  }
}