{
  "_class": "shapePath",
  "booleanOperation": -1,
  "clippingMaskMode": 0,
  "do_objectID": "ADF9210E-48B0-4E53-BECA-38AA2E889BF1",
  "edited": true,
  "exportOptions": {
    "_class": "exportOptions",
    "do_objectID": "DD3F3E17-FD31-4A8D-BEC3-C235B7F23CA6",
    "exportFormats": [
    ],
    "includedLayerIds": [
    ],
    "layerOptions": 0,
    "shouldTrim": false
  },
  "frame": {
    "_class": "rect",
    "constrainProportions": false,
    "do_objectID": "45EC136C-5C04-4840-A1A0-94F18DE2CDB6",
    "height": 0.116861981764103,
    "width": 0.1059863482545609,
    "x": 18.75631572344775,
    "y": 35.52780695635894
  },
  "hasClippingMask": false,
  "isClosed": true,
  "isFixedToViewport": false,
  "isFlippedHorizontal": false,
  "isFlippedVertical": false,
  "isLocked": false,
  "isVisible": true,
  "layerListExpandedType": 0,
  "name": "Path",
  "nameIsFixed": false,
  "pointRadiusBehaviour": 0,
  "points": [
    {
      "_class": "curvePoint",
      "cornerRadius": 0,
      "curveFrom": "{0.92483939375875734, 0.91394864677305965}",
      "curveMode": 3,
      "curveTo": "{1.0897994308572374, 0.64052741151976544}",
      "hasCurveFrom": true,
      "hasCurveTo": true,
      "point": "{0.98875061232048189, 0.80916030534349193}"
    },
    {
      "_class": "curvePoint",
      "cornerRadius": 0,
      "curveFrom": "{0.52409878007449806, 0.80499653018736994}",
      "curveMode": 4,
      "curveTo": "{0.56641837074374679, 0.90284524635670826}",
      "hasCurveFrom": true,
      "hasCurveTo": true,
      "point": "{0.48177918940524939, 1}"
    },
    {
      "_class": "curvePoint",
      "cornerRadius": 0,
      "curveFrom": "{0.074129254795415517, 0.084663428174886521}",
      "curveMode": 4,
      "curveTo": "{-0.089103452071658623, 0.35947258848023456}",
      "hasCurveFrom": true,
      "hasCurveTo": true,
      "point": "{0.011081701349393921, 0.18875780707844717}"
    },
    {
      "_class": "curvePoint",
      "cornerRadius": 0,
      "curveFrom": "{0.47573353359537773, 0.19222761970856192}",
      "curveMode": 4,
      "curveTo": "{0.43168661269472314, 0.096460791117284533}",
      "hasCurveFrom": true,
      "hasCurveTo": true,
      "point": "{0.51718945914892356, 0}"
    }
  ],
  "resizingConstraint": 63,
  "resizingType": 0,
  "rotation": 0,
  "shouldBreakMaskChain": false,
  "style": {
    "_class": "style",
    "do_objectID": "03334DA4-FCB1-4B94-A47B-C1FFE7AA62B7",
    "endMarkerType": 0,
    "fills": [
      {
        "_class": "fill",
        "color": {
          "_class": "color",
          "alpha": 1,
          "blue": 0.1764705882352941,
          "green": 0.1764705882352941,
          "red": 0.1764705882352941
        },
        "fillType": 0,
        "isEnabled": true,
        "noiseIndex": 0,
        "noiseIntensity": 0,
        "patternFillType": 1,
        "patternTileScale": 1
      }
    ],
    "miterLimit": 10,
    "startMarkerType": 0,
    "windingRule": 1
  }
}