{
  "_class": "shapePath",
  "booleanOperation": -1,
  "clippingMaskMode": 0,
  "do_objectID": "B128E469-432F-4D2F-94A3-53A300927E1A",
  "edited": true,
  "exportOptions": {
    "_class": "exportOptions",
    "do_objectID": "3564DD27-C7D6-4324-87AF-92F5968338C6",
    "exportFormats": [
    ],
    "includedLayerIds": [
    ],
    "layerOptions": 0,
    "shouldTrim": false
  },
  "frame": {
    "_class": "rect",
    "constrainProportions": false,
    "do_objectID": "FF021B0A-E9E0-4254-9C74-71E23B1D17C8",
    "height": 0.1355955818942149,
    "width": 0.6351212298521105,
    "x": 41.00097790852076,
    "y": 17.19077524457316
  },
  "hasClippingMask": false,
  "isClosed": true,
  "isFixedToViewport": false,
  "isFlippedHorizontal": false,
  "isFlippedVertical": false,
  "isLocked": false,
  "isVisible": true,
  "layerListExpandedType": 0,
  "name": "Path",
  "nameIsFixed": false,
  "pointRadiusBehaviour": 0,
  "points": [
    {
      "_class": "curvePoint",
      "cornerRadius": 0,
      "curveFrom": "{0.30934607608436954, 0.71291866028708695}",
      "curveMode": 4,
      "curveTo": "{0.34372540723413053, 0.65550239234450092}",
      "hasCurveFrom": true,
      "hasCurveTo": true,
      "point": "{0.33145620355243122, 0.65251196172249404}"
    },
    {
      "_class": "curvePoint",
      "cornerRadius": 0,
      "curveFrom": "{0.21464316016625842, 0.83672248803827953}",
      "curveMode": 4,
      "curveTo": "{0.28710814441129318, 0.77033492822967298}",
      "hasCurveFrom": true,
      "hasCurveTo": true,
      "point": "{0.2635921706880337, 0.79126794258373789}"
    },
    {
      "_class": "curvePoint",
      "cornerRadius": 0,
      "curveFrom": "{-0.12263213687544347, 1.6184210526315921}",
      "curveMode": 4,
      "curveTo": "{0.17106192625522293, 0.96052631578947212}",
      "hasCurveFrom": true,
      "hasCurveTo": true,
      "point": "{0.1540639669878717, 0.60466507177033346}"
    },
    {
      "_class": "curvePoint",
      "cornerRadius": 0,
      "curveFrom": "{0.20582467002003521, 0.54545454545455008}",
      "curveMode": 4,
      "curveTo": "{0.034439231091303396, -0.407296650717694}",
      "hasCurveFrom": true,
      "hasCurveTo": true,
      "point": "{0.1540639669878717, 0.60466507177033346}"
    },
    {
      "_class": "curvePoint",
      "cornerRadius": 0,
      "curveFrom": "{0.32161527976606885, 0.2613636363636439}",
      "curveMode": 4,
      "curveTo": "{0.25093955439128313, 0.32655502392344093}",
      "hasCurveFrom": true,
      "hasCurveTo": true,
      "point": "{0.30295586583348327, 0.27811004784689247}"
    },
    {
      "_class": "curvePoint",
      "cornerRadius": 0,
      "curveFrom": "{0.36481310106205306, 0.2039473684210579}",
      "curveMode": 4,
      "curveTo": "{0.33848543482840537, 0.24102870813396668}",
      "hasCurveFrom": true,
      "hasCurveTo": true,
      "point": "{0.35433315625059547, 0.23145933014354136}"
    },
    {
      "_class": "curvePoint",
      "cornerRadius": 0,
      "curveFrom": "{0.38781785796523199, 0.22966507177034404}",
      "curveMode": 2,
      "curveTo": "{0.37490963325844479, 0.19258373205741824}",
      "hasCurveFrom": true,
      "hasCurveTo": true,
      "point": "{0.38155545191936768, 0.21172248803828592}"
    },
    {
      "_class": "curvePoint",
      "cornerRadius": 0,
      "curveFrom": "{0.40187632051718031, 0.31578947368420607}",
      "curveMode": 4,
      "curveTo": "{0.39177978832078131, 0.2529904306220111}",
      "hasCurveFrom": true,
      "hasCurveTo": true,
      "point": "{0.39395245980608889, 0.27811004784689247}"
    },
    {
      "_class": "curvePoint",
      "cornerRadius": 0,
      "curveFrom": "{0.57824612344160065, -0.069976076555018196}",
      "curveMode": 4,
      "curveTo": "{0.40839433497308125, 0.37260765550238728}",
      "hasCurveFrom": true,
      "hasCurveTo": true,
      "point": "{0.41273967794368915, 0.46471291866029701}"
    },
    {
      "_class": "curvePoint",
      "cornerRadius": 0,
      "curveFrom": "{0.84395106567339229, 0.23205741626794613}",
      "curveMode": 4,
      "curveTo": "{0.63869751241497275, 0.74940191387560795}",
      "hasCurveFrom": true,
      "hasCurveTo": true,
      "point": "{0.82069070036016945, 0}"
    },
    {
      "_class": "curvePoint",
      "cornerRadius": 0,
      "curveFrom": "{0.93801496056641553, 0.61722488038278256}",
      "curveMode": 4,
      "curveTo": "{0.86708362678159323, 0.46411483253589225}",
      "hasCurveFrom": true,
      "hasCurveTo": true,
      "point": "{0.89047179629983797, 0.69677033492822615}"
    },
    {
      "_class": "curvePoint",
      "cornerRadius": 0,
      "curveFrom": "{0.95220122732337853, 0.96172248803828164}",
      "curveMode": 4,
      "curveTo": "{0.98389667016777327, 0.55681818181818976}",
      "hasCurveFrom": true,
      "hasCurveTo": true,
      "point": "{1, 0.8833732057416307}"
    },
    {
      "_class": "curvePoint",
      "cornerRadius": 0,
      "curveFrom": "{0.86567778052640276, 0.75179425837321001}",
      "curveMode": 4,
      "curveTo": "{0.90631951772203534, 1.0245215311004765}",
      "hasCurveFrom": true,
      "hasCurveTo": true,
      "point": "{0.89047179629983797, 0.69677033492822615}"
    },
    {
      "_class": "curvePoint",
      "cornerRadius": 0,
      "curveFrom": "{0.76841878050793277, 0.94078947368421673}",
      "curveMode": 4,
      "curveTo": "{0.84062815634293087, 0.80681818181819398}",
      "hasCurveFrom": true,
      "hasCurveTo": true,
      "point": "{0.81596194477451756, 0.86124401913875615}"
    },
    {
      "_class": "curvePoint",
      "cornerRadius": 0,
      "curveFrom": "{0.65659010111744842, 0.78169856459331266}",
      "curveMode": 4,
      "curveTo": "{0.72228146249654568, 1.0011961722488096}",
      "hasCurveFrom": true,
      "hasCurveTo": true,
      "point": "{0.70643374107435553, 0.67344497607655907}"
    },
    {
      "_class": "curvePoint",
      "cornerRadius": 0,
      "curveFrom": "{0.53146978440512571, 0.79784688995215647}",
      "curveMode": 4,
      "curveTo": "{0.60661865695553396, 0.89294258373205604}",
      "hasCurveFrom": true,
      "hasCurveTo": true,
      "point": "{0.55728623381870013, 1}"
    },
    {
      "_class": "curvePoint",
      "cornerRadius": 0,
      "curveFrom": "{0.43612784746192668, 0.6991626794258452}",
      "curveMode": 4,
      "curveTo": "{0.50450309714639008, 0.61184210526315663}",
      "hasCurveFrom": true,
      "hasCurveTo": true,
      "point": "{0.44750242170850146, 0.81459330143540498}"
    },
    {
      "_class": "curvePoint",
      "cornerRadius": 0,
      "curveFrom": "{0.39970364903187999, 0.48026315789473606}",
      "curveMode": 4,
      "curveTo": "{0.42449766480531526, 0.58313397129186362}",
      "hasCurveFrom": true,
      "hasCurveTo": true,
      "point": "{0.41273967794368915, 0.46471291866029701}"
    },
    {
      "_class": "curvePoint",
      "cornerRadius": 0,
      "curveFrom": "{0.36110677911653305, 0.60705741626795251}",
      "curveMode": 4,
      "curveTo": "{0.38730664114516605, 0.50538277511961749}",
      "hasCurveFrom": true,
      "hasCurveTo": true,
      "point": "{0.37516524166848136, 0.53468899521531521}"
    }
  ],
  "resizingConstraint": 63,
  "resizingType": 0,
  "rotation": 0,
  "shouldBreakMaskChain": false,
  "style": {
    "_class": "style",
    "do_objectID": "46C54696-255E-4560-B48F-3BFF3D26BDC5",
    "endMarkerType": 0,
    "fills": [
      {
        "_class": "fill",
        "color": {
          "_class": "color",
          "alpha": 1,
          "blue": 0.1764705882352941,
          "green": 0.1764705882352941,
          "red": 0.1764705882352941
        },
        "fillType": 0,
        "isEnabled": true,
        "noiseIndex": 0,
        "noiseIntensity": 0,
        "patternFillType": 1,
        "patternTileScale": 1
      }
    ],
    "miterLimit": 10,
    "startMarkerType": 0,
    "windingRule": 1
  }
}