{
  "_class": "shapePath",
  "booleanOperation": -1,
  "clippingMaskMode": 0,
  "do_objectID": "BB633E76-9716-4DDD-AFDA-584CCF3A6758",
  "edited": true,
  "exportOptions": {
    "_class": "exportOptions",
    "do_objectID": "BE0F0B02-041A-47BC-ABEE-667F2254B27D",
    "exportFormats": [
    ],
    "includedLayerIds": [
    ],
    "layerOptions": 0,
    "shouldTrim": false
  },
  "frame": {
    "_class": "rect",
    "constrainProportions": false,
    "do_objectID": "AB8A89DD-6322-4C5B-A5D9-7AD6CCC5B3EA",
    "height": 0.1168619817641137,
    "width": 0.1059863482545644,
    "x": 26.93298146068913,
    "y": 21.03781329380578
  },
  "hasClippingMask": false,
  "isClosed": true,
  "isFixedToViewport": false,
  "isFlippedHorizontal": false,
  "isFlippedVertical": false,
  "isLocked": false,
  "isVisible": true,
  "layerListExpandedType": 0,
  "name": "Path",
  "nameIsFixed": false,
  "pointRadiusBehaviour": 0,
  "points": [
    {
      "_class": "curvePoint",
      "cornerRadius": 0,
      "curveFrom": "{0.076259058940273503, 0.085357390700857613}",
      "curveMode": 4,
      "curveTo": "{-0.090603901950374321, 0.36086051353226312}",
      "hasCurveFrom": true,
      "hasCurveTo": true,
      "point": "{0.01141593942313756, 0.18875780707837572}"
    },
    {
      "_class": "curvePoint",
      "cornerRadius": 0,
      "curveFrom": "{0.47569267516557928, 0.19292158223453723}",
      "curveMode": 4,
      "curveTo": "{0.43332850374771253, 0.095766828591241707}",
      "hasCurveFrom": true,
      "hasCurveTo": true,
      "point": "{0.51546312180272513, 0}"
    },
    {
      "_class": "curvePoint",
      "cornerRadius": 0,
      "curveFrom": "{0.92527163715076677, 0.91325468424704914}",
      "curveMode": 3,
      "curveTo": "{1.0912700231145405, 0.63983344899374406}",
      "hasCurveFrom": true,
      "hasCurveTo": true,
      "point": "{0.98838560681405607, 0.81054823039557766}"
    },
    {
      "_class": "curvePoint",
      "cornerRadius": 0,
      "curveFrom": "{0.52583802092546106, 0.80569049271336945}",
      "curveMode": 4,
      "curveTo": "{0.56820219234327862, 0.90492713393476554}",
      "hasCurveFrom": true,
      "hasCurveTo": true,
      "point": "{0.48433842443451763, 1}"
    }
  ],
  "resizingConstraint": 63,
  "resizingType": 0,
  "rotation": 0,
  "shouldBreakMaskChain": false,
  "style": {
    "_class": "style",
    "do_objectID": "C446B65E-2127-4A72-9AA2-B098CFFF14ED",
    "endMarkerType": 0,
    "fills": [
      {
        "_class": "fill",
        "color": {
          "_class": "color",
          "alpha": 1,
          "blue": 0.1764705882352941,
          "green": 0.1764705882352941,
          "red": 0.1764705882352941
        },
        "fillType": 0,
        "isEnabled": true,
        "noiseIndex": 0,
        "noiseIntensity": 0,
        "patternFillType": 1,
        "patternTileScale": 1
      }
    ],
    "miterLimit": 10,
    "startMarkerType": 0,
    "windingRule": 1
  }
}