{
  "_class": "shapePath",
  "booleanOperation": -1,
  "clippingMaskMode": 0,
  "do_objectID": "BD8038A3-F1F4-474F-9041-C6FA2D76DA88",
  "edited": true,
  "exportOptions": {
    "_class": "exportOptions",
    "do_objectID": "A1532A07-AA40-403D-B992-613E8DA5755A",
    "exportFormats": [
    ],
    "includedLayerIds": [
    ],
    "layerOptions": 0,
    "shouldTrim": false
  },
  "frame": {
    "_class": "rect",
    "constrainProportions": false,
    "do_objectID": "BDCD9FDD-0B5A-42A6-90C2-85023180028E",
    "height": 0.1388394953366507,
    "width": 0.1388026902195882,
    "x": 24.01286540798928,
    "y": 29.70595550120141
  },
  "hasClippingMask": false,
  "isClosed": true,
  "isFixedToViewport": false,
  "isFlippedHorizontal": false,
  "isFlippedVertical": false,
  "isLocked": false,
  "isVisible": true,
  "layerListExpandedType": 0,
  "name": "Path",
  "nameIsFixed": false,
  "pointRadiusBehaviour": 0,
  "points": [
    {
      "_class": "curvePoint",
      "cornerRadius": 0,
      "curveFrom": "{0.77134502923975956, 0.78796728971962504}",
      "curveMode": 4,
      "curveTo": "{0.89356725146198102, 0.45443925233642996}",
      "hasCurveFrom": true,
      "hasCurveTo": true,
      "point": "{1, 0.68165887850466156}"
    },
    {
      "_class": "curvePoint",
      "cornerRadius": 0,
      "curveFrom": "{0.21111111111113401, 0.77336448598128726}",
      "curveMode": 4,
      "curveTo": "{0.54619883040936024, 0.89427570093455544}",
      "hasCurveFrom": true,
      "hasCurveTo": true,
      "point": "{0.31812865497077658, 1}"
    },
    {
      "_class": "curvePoint",
      "cornerRadius": 0,
      "curveFrom": "{0.22631578947367967, 0.21203271028034171}",
      "curveMode": 4,
      "curveTo": "{0.10584795321639542, 0.54731308411212676}",
      "hasCurveFrom": true,
      "hasCurveTo": true,
      "point": "{0, 0.31892523364485731}"
    },
    {
      "_class": "curvePoint",
      "cornerRadius": 0,
      "curveFrom": "{0.78888888888889919, 0.2278037383177505}",
      "curveMode": 4,
      "curveTo": "{0.45321637426901618, 0.10806074766352021}",
      "hasCurveFrom": true,
      "hasCurveTo": true,
      "point": "{0.68128654970759983, 0}"
    }
  ],
  "resizingConstraint": 63,
  "resizingType": 0,
  "rotation": 0,
  "shouldBreakMaskChain": false,
  "style": {
    "_class": "style",
    "do_objectID": "9D90588A-2ECE-4ECE-8D9B-29A1E0A7FBFD",
    "endMarkerType": 0,
    "fills": [
      {
        "_class": "fill",
        "color": {
          "_class": "color",
          "alpha": 1,
          "blue": 0.1764705882352941,
          "green": 0.1764705882352941,
          "red": 0.1764705882352941
        },
        "fillType": 0,
        "isEnabled": true,
        "noiseIndex": 0,
        "noiseIntensity": 0,
        "patternFillType": 1,
        "patternTileScale": 1
      }
    ],
    "miterLimit": 10,
    "startMarkerType": 0,
    "windingRule": 1
  }
}