{
  "_class": "shapePath",
  "booleanOperation": -1,
  "clippingMaskMode": 0,
  "do_objectID": "C99BFA94-D899-46DC-AC45-5A99868AEBC4",
  "edited": true,
  "exportOptions": {
    "_class": "exportOptions",
    "do_objectID": "2B3CC769-3DF1-47D5-AD4F-2D434B439034",
    "exportFormats": [
    ],
    "includedLayerIds": [
    ],
    "layerOptions": 0,
    "shouldTrim": false
  },
  "frame": {
    "_class": "rect",
    "constrainProportions": false,
    "do_objectID": "9A12BD5D-4006-4F8B-8E22-06C434E2CDB1",
    "height": 0.1058906030855624,
    "width": 0.1201972218771559,
    "x": 24.97568397014077,
    "y": 25.27890572845946
  },
  "hasClippingMask": false,
  "isClosed": true,
  "isFixedToViewport": false,
  "isFlippedHorizontal": false,
  "isFlippedVertical": false,
  "isLocked": false,
  "isVisible": true,
  "layerListExpandedType": 0,
  "name": "Path",
  "nameIsFixed": false,
  "pointRadiusBehaviour": 0,
  "points": [
    {
      "_class": "curvePoint",
      "cornerRadius": 0,
      "curveFrom": "{0.4804310806696519, 1.251085938716727}",
      "curveMode": 4,
      "curveTo": "{0.91195830653733889, 0.64518667739826019}",
      "hasCurveFrom": true,
      "hasCurveTo": true,
      "point": "{0.65196146466084826, 0.8398776504155504}"
    },
    {
      "_class": "curvePoint",
      "cornerRadius": 0,
      "curveFrom": "{0.083344994894682209, 0.25580473136358045}",
      "curveMode": 4,
      "curveTo": "{-0.061172730200283347, 0.76741419409074141}",
      "hasCurveFrom": true,
      "hasCurveTo": true,
      "point": "{0.0056836005679801295, 0.53605496606567704}"
    },
    {
      "_class": "curvePoint",
      "cornerRadius": 0,
      "curveFrom": "{1.1442671730451315, 0.43739989902102228}",
      "curveMode": 4,
      "curveTo": "{0.75866146730106765, 0.25755083874495976}",
      "hasCurveFrom": true,
      "hasCurveTo": true,
      "point": "{0.89034817942030819, 0}"
    }
  ],
  "resizingConstraint": 63,
  "resizingType": 0,
  "rotation": 0,
  "shouldBreakMaskChain": false,
  "style": {
    "_class": "style",
    "do_objectID": "0C2CED75-6EC5-45A9-9067-A851B8C2BD6D",
    "endMarkerType": 0,
    "fills": [
      {
        "_class": "fill",
        "color": {
          "_class": "color",
          "alpha": 1,
          "blue": 0.1764705882352941,
          "green": 0.1764705882352941,
          "red": 0.1764705882352941
        },
        "fillType": 0,
        "isEnabled": true,
        "noiseIndex": 0,
        "noiseIntensity": 0,
        "patternFillType": 1,
        "patternTileScale": 1
      }
    ],
    "miterLimit": 10,
    "startMarkerType": 0,
    "windingRule": 1
  }
}