{
  "_class": "shapePath",
  "booleanOperation": -1,
  "clippingMaskMode": 0,
  "do_objectID": "D3CB44CA-D374-40D9-892C-6D267D077C0A",
  "edited": true,
  "exportOptions": {
    "_class": "exportOptions",
    "do_objectID": "95466986-2C1B-47D0-B661-0DE854F354BB",
    "exportFormats": [
    ],
    "includedLayerIds": [
    ],
    "layerOptions": 0,
    "shouldTrim": false
  },
  "frame": {
    "_class": "rect",
    "constrainProportions": false,
    "do_objectID": "6CDA33A0-C2E4-4A1B-8814-3754F8FB3523",
    "height": 0.1058906030855518,
    "width": 0.1059863482545733,
    "x": 11.38409509205791,
    "y": 23.23810861859083
  },
  "hasClippingMask": false,
  "isClosed": true,
  "isFixedToViewport": false,
  "isFlippedHorizontal": false,
  "isFlippedVertical": false,
  "isLocked": false,
  "isVisible": true,
  "layerListExpandedType": 0,
  "name": "Path",
  "nameIsFixed": false,
  "pointRadiusBehaviour": 0,
  "points": [
    {
      "_class": "curvePoint",
      "cornerRadius": 0,
      "curveFrom": "{1.0439790385777314, 0.1876308827515345}",
      "curveMode": 3,
      "curveTo": "{0.27897903857774509, -0.090369117248485509}",
      "hasCurveFrom": true,
      "hasCurveTo": true,
      "point": "{0.54397903857773144, 0.0076308827515276789}"
    },
    {
      "_class": "curvePoint",
      "cornerRadius": 0,
      "curveFrom": "{-0.30302096142227697, 0.78463088275151449}",
      "curveMode": 3,
      "curveTo": "{0.46097903857773304, 1.0626308827515345}",
      "hasCurveFrom": true,
      "hasCurveTo": true,
      "point": "{0.1949790385777419, 0.96563088275155451}"
    }
  ],
  "resizingConstraint": 63,
  "resizingType": 0,
  "rotation": 0,
  "shouldBreakMaskChain": false,
  "style": {
    "_class": "style",
    "do_objectID": "A62B07B3-EF07-400F-8966-A380B67565F9",
    "endMarkerType": 0,
    "fills": [
      {
        "_class": "fill",
        "color": {
          "_class": "color",
          "alpha": 1,
          "blue": 0.1764705882352941,
          "green": 0.1764705882352941,
          "red": 0.1764705882352941
        },
        "fillType": 0,
        "isEnabled": true,
        "noiseIndex": 0,
        "noiseIntensity": 0,
        "patternFillType": 1,
        "patternTileScale": 1
      }
    ],
    "miterLimit": 10,
    "startMarkerType": 0,
    "windingRule": 1
  }
}