{
  "_class": "shapePath",
  "booleanOperation": -1,
  "clippingMaskMode": 0,
  "do_objectID": "D7C19E7C-02B4-4BC7-88B1-668E696A5509",
  "edited": true,
  "exportOptions": {
    "_class": "exportOptions",
    "do_objectID": "76508615-4ACC-441C-AA20-8DC0EEC23A15",
    "exportFormats": [
    ],
    "includedLayerIds": [
    ],
    "layerOptions": 0,
    "shouldTrim": false
  },
  "frame": {
    "_class": "rect",
    "constrainProportions": false,
    "do_objectID": "D6F988A0-2C6D-4DB8-BAE6-C1DBF6E2EFD4",
    "height": 0.1276479939602506,
    "width": 0.1615081227095985,
    "x": 37.40456770504683,
    "y": 8.580861283469435
  },
  "hasClippingMask": false,
  "isClosed": true,
  "isFixedToViewport": false,
  "isFlippedHorizontal": false,
  "isFlippedVertical": false,
  "isLocked": false,
  "isVisible": true,
  "layerListExpandedType": 0,
  "name": "Path",
  "nameIsFixed": false,
  "pointRadiusBehaviour": 0,
  "points": [
    {
      "_class": "curvePoint",
      "cornerRadius": 0,
      "curveFrom": "{0.47693529453976208, 0.25984752223633328}",
      "curveMode": 4,
      "curveTo": "{0.066325352636454879, 0.5298602287166434}",
      "hasCurveFrom": true,
      "hasCurveTo": true,
      "point": "{0.25881446860827978, 0.38881829733165085}"
    },
    {
      "_class": "curvePoint",
      "cornerRadius": 0,
      "curveFrom": "{1.1081789751157241, 0.31893265565438733}",
      "curveMode": 4,
      "curveTo": "{0.69756903321241692, 0.12960609911055027}",
      "hasCurveFrom": true,
      "hasCurveTo": true,
      "point": "{0.91770018933682584, 0}"
    },
    {
      "_class": "curvePoint",
      "cornerRadius": 0,
      "curveFrom": "{0.52216772388041122, 0.74078780177889947}",
      "curveMode": 4,
      "curveTo": "{0.93378283088015324, 0.46759847522235343}",
      "hasCurveFrom": true,
      "hasCurveTo": true,
      "point": "{0.74129371490835694, 0.61054637865311645}"
    },
    {
      "_class": "curvePoint",
      "cornerRadius": 0,
      "curveFrom": "{-0.1090759566955508, 0.68233799237611426}",
      "curveMode": 4,
      "curveTo": "{0.30253915030421974, 0.87039390088944968}",
      "hasCurveFrom": true,
      "hasCurveTo": true,
      "point": "{0.083413159276274101, 1}"
    }
  ],
  "resizingConstraint": 63,
  "resizingType": 0,
  "rotation": 0,
  "shouldBreakMaskChain": false,
  "style": {
    "_class": "style",
    "do_objectID": "A54F78AB-6BA9-4B14-A587-F2E13ECF26FA",
    "endMarkerType": 0,
    "fills": [
      {
        "_class": "fill",
        "color": {
          "_class": "color",
          "alpha": 1,
          "blue": 0.1764705882352941,
          "green": 0.1764705882352941,
          "red": 0.1764705882352941
        },
        "fillType": 0,
        "isEnabled": true,
        "noiseIndex": 0,
        "noiseIntensity": 0,
        "patternFillType": 1,
        "patternTileScale": 1
      }
    ],
    "miterLimit": 10,
    "startMarkerType": 0,
    "windingRule": 1
  }
}