{
  "_class": "shapePath",
  "booleanOperation": -1,
  "clippingMaskMode": 0,
  "do_objectID": "E05AB1EE-8B29-4E9A-847E-DF0B26333D6D",
  "edited": true,
  "exportOptions": {
    "_class": "exportOptions",
    "do_objectID": "062D1989-DB74-461B-96F5-0457614C20E4",
    "exportFormats": [
    ],
    "includedLayerIds": [
    ],
    "layerOptions": 0,
    "shouldTrim": false
  },
  "frame": {
    "_class": "rect",
    "constrainProportions": false,
    "do_objectID": "35EBD3F8-CF3B-4952-884E-849E5C8E9EC7",
    "height": 0.124520244295848,
    "width": 0.108222000843476,
    "x": 26.15001374925286,
    "y": 16.4348623146472
  },
  "hasClippingMask": false,
  "isClosed": true,
  "isFixedToViewport": false,
  "isFlippedHorizontal": false,
  "isFlippedVertical": false,
  "isLocked": false,
  "isVisible": true,
  "layerListExpandedType": 0,
  "name": "Path",
  "nameIsFixed": false,
  "pointRadiusBehaviour": 0,
  "points": [
    {
      "_class": "curvePoint",
      "cornerRadius": 0,
      "curveFrom": "{2.0566849799357536, 0.94891836913180239}",
      "curveMode": 4,
      "curveTo": "{0.33758621866192473, 0.13090775030575624}",
      "hasCurveFrom": true,
      "hasCurveTo": true,
      "point": "{0.59335091220223102, 0}"
    },
    {
      "_class": "curvePoint",
      "cornerRadius": 0,
      "curveFrom": "{0.10732299016672879, 0.2670257593301561}",
      "curveMode": 4,
      "curveTo": "{-1.0049909116522338, 1.39569805425495}",
      "hasCurveFrom": true,
      "hasCurveTo": true,
      "point": "{0.36008751134877681, 0.55814896523401347}"
    }
  ],
  "resizingConstraint": 63,
  "resizingType": 0,
  "rotation": 0,
  "shouldBreakMaskChain": false,
  "style": {
    "_class": "style",
    "do_objectID": "FDA89757-D36F-4E90-B3BE-E09CB32EC747",
    "endMarkerType": 0,
    "fills": [
      {
        "_class": "fill",
        "color": {
          "_class": "color",
          "alpha": 1,
          "blue": 0.1764705882352941,
          "green": 0.1764705882352941,
          "red": 0.1764705882352941
        },
        "fillType": 0,
        "isEnabled": true,
        "noiseIndex": 0,
        "noiseIntensity": 0,
        "patternFillType": 1,
        "patternTileScale": 1
      }
    ],
    "miterLimit": 10,
    "startMarkerType": 0,
    "windingRule": 1
  }
}