{
  "_class": "shapePath",
  "booleanOperation": -1,
  "clippingMaskMode": 0,
  "do_objectID": "E457CF54-1DA3-473F-BFE8-BA172F7F830B",
  "edited": true,
  "exportOptions": {
    "_class": "exportOptions",
    "do_objectID": "C4E13182-4347-4871-9D91-9B61476A7347",
    "exportFormats": [
    ],
    "includedLayerIds": [
    ],
    "layerOptions": 0,
    "shouldTrim": false
  },
  "frame": {
    "_class": "rect",
    "constrainProportions": false,
    "do_objectID": "DD583F6B-A38F-457E-B607-5AB6322F8D3D",
    "height": 0.1058906030855606,
    "width": 0.1875639138068124,
    "x": 38.78098462037055,
    "y": 10.77489837913318
  },
  "hasClippingMask": false,
  "isClosed": true,
  "isFixedToViewport": false,
  "isFlippedHorizontal": false,
  "isFlippedVertical": false,
  "isLocked": false,
  "isVisible": true,
  "layerListExpandedType": 0,
  "name": "Path",
  "nameIsFixed": false,
  "pointRadiusBehaviour": 0,
  "points": [
    {
      "_class": "curvePoint",
      "cornerRadius": 0,
      "curveFrom": "{1.4657762596842157, -1.2318226660197829}",
      "curveMode": 4,
      "curveTo": "{0.35659865307934102, -0.060396192598642817}",
      "hasCurveFrom": true,
      "hasCurveTo": true,
      "point": "{0.4145892107403113, 0.49977191852328579}"
    },
    {
      "_class": "curvePoint",
      "cornerRadius": 0,
      "curveFrom": "{0.23542435348927895, 0.63479615377745913}",
      "curveMode": 4,
      "curveTo": "{0.86942559955876197, 2.2322788289802644}",
      "hasCurveFrom": true,
      "hasCurveTo": true,
      "point": "{0.4145892107403113, 0.49977191852328579}"
    },
    {
      "_class": "curvePoint",
      "cornerRadius": 0,
      "curveFrom": "{0.17916485725103232, 0.042696635669728783}",
      "curveMode": 4,
      "curveTo": "{0.060154384439337842, 0.74245061161522363}",
      "hasCurveFrom": true,
      "hasCurveTo": true,
      "point": "{0, 0.182282500493295}"
    }
  ],
  "resizingConstraint": 63,
  "resizingType": 0,
  "rotation": 0,
  "shouldBreakMaskChain": false,
  "style": {
    "_class": "style",
    "do_objectID": "0355D83D-41CE-4D79-BCA8-1AFA2C4A2280",
    "endMarkerType": 0,
    "fills": [
      {
        "_class": "fill",
        "color": {
          "_class": "color",
          "alpha": 1,
          "blue": 0.1764705882352941,
          "green": 0.1764705882352941,
          "red": 0.1764705882352941
        },
        "fillType": 0,
        "isEnabled": true,
        "noiseIndex": 0,
        "noiseIntensity": 0,
        "patternFillType": 1,
        "patternTileScale": 1
      }
    ],
    "miterLimit": 10,
    "startMarkerType": 0,
    "windingRule": 1
  }
}