{
  "_class": "shapePath",
  "booleanOperation": -1,
  "clippingMaskMode": 0,
  "do_objectID": "E6F0B1EE-649E-4C30-A7EA-8566D0099F21",
  "edited": true,
  "exportOptions": {
    "_class": "exportOptions",
    "do_objectID": "5347A106-5C16-4729-B951-DAFAA1D856DD",
    "exportFormats": [
    ],
    "includedLayerIds": [
    ],
    "layerOptions": 0,
    "shouldTrim": false
  },
  "frame": {
    "_class": "rect",
    "constrainProportions": false,
    "do_objectID": "03E5580E-A699-42F1-BC95-81F00B401F4C",
    "height": 0.1058906030855908,
    "width": 0.1059863482545538,
    "x": 25.08018343759453,
    "y": 35.35271672830294
  },
  "hasClippingMask": false,
  "isClosed": true,
  "isFixedToViewport": false,
  "isFlippedHorizontal": false,
  "isFlippedVertical": false,
  "isLocked": false,
  "isVisible": true,
  "layerListExpandedType": 0,
  "name": "Path",
  "nameIsFixed": false,
  "pointRadiusBehaviour": 0,
  "points": [
    {
      "_class": "curvePoint",
      "cornerRadius": 0,
      "curveFrom": "{1.1200178078673675, 0.47200000000003683}",
      "curveMode": 4,
      "curveTo": "{0.77928473793773734, 0.20800000000002683}",
      "hasCurveFrom": true,
      "hasCurveTo": true,
      "point": "{0.93939773144635541, 0}"
    },
    {
      "_class": "curvePoint",
      "cornerRadius": 0,
      "curveFrom": "{0.3620444740655932, 1.0710000000000264}",
      "curveMode": 4,
      "curveTo": "{0.86525673937834147, 0.60700000000002774}",
      "hasCurveFrom": true,
      "hasCurveTo": true,
      "point": "{0.5907773219350283, 0.72700000000003229}"
    },
    {
      "_class": "curvePoint",
      "cornerRadius": 0,
      "curveFrom": "{0.13173415827985452, 0.042000000000030013}",
      "curveMode": 3,
      "curveTo": "{-0.082801478342490256, 0.48200000000002774}",
      "hasCurveFrom": true,
      "hasCurveTo": true,
      "point": "{0.013424064554266084, 0.28399999999999181}"
    }
  ],
  "resizingConstraint": 63,
  "resizingType": 0,
  "rotation": 0,
  "shouldBreakMaskChain": false,
  "style": {
    "_class": "style",
    "do_objectID": "FDB5E04B-ABC6-49D1-99CA-400D9D9BFE55",
    "endMarkerType": 0,
    "fills": [
      {
        "_class": "fill",
        "color": {
          "_class": "color",
          "alpha": 1,
          "blue": 0.1764705882352941,
          "green": 0.1764705882352941,
          "red": 0.1764705882352941
        },
        "fillType": 0,
        "isEnabled": true,
        "noiseIndex": 0,
        "noiseIntensity": 0,
        "patternFillType": 1,
        "patternTileScale": 1
      }
    ],
    "miterLimit": 10,
    "startMarkerType": 0,
    "windingRule": 1
  }
}