{
  "_class": "shapePath",
  "booleanOperation": -1,
  "clippingMaskMode": 0,
  "do_objectID": "E71C7BAE-093A-4363-B940-D86AAAFF34EE",
  "edited": true,
  "exportOptions": {
    "_class": "exportOptions",
    "do_objectID": "3CBD17AF-0DF1-43CE-82C7-8176025AB4B6",
    "exportFormats": [
    ],
    "includedLayerIds": [
    ],
    "layerOptions": 0,
    "shouldTrim": false
  },
  "frame": {
    "_class": "rect",
    "constrainProportions": false,
    "do_objectID": "60F826CD-0EC3-4FE0-BFB2-E06DBCE86F33",
    "height": 0.1058906030855553,
    "width": 0.105986348254568,
    "x": 23.16295416504679,
    "y": 22.25341471819038
  },
  "hasClippingMask": false,
  "isClosed": true,
  "isFixedToViewport": false,
  "isFlippedHorizontal": false,
  "isFlippedVertical": false,
  "isLocked": false,
  "isVisible": true,
  "layerListExpandedType": 0,
  "name": "Path",
  "nameIsFixed": false,
  "pointRadiusBehaviour": 0,
  "points": [
    {
      "_class": "curvePoint",
      "cornerRadius": 0,
      "curveFrom": "{-0.29039440055203158, 0.5766798969571596}",
      "curveMode": 3,
      "curveTo": "{0.36060559944797888, 0.97367989695715096}",
      "hasCurveFrom": true,
      "hasCurveTo": true,
      "point": "{0.13460559944797978, 0.8376798969571837}"
    },
    {
      "_class": "curvePoint",
      "cornerRadius": 0,
      "curveFrom": "{1.0556055994479721, 0.27467989695713868}",
      "curveMode": 3,
      "curveTo": "{0.40660559944797114, -0.11932010304280993}",
      "hasCurveFrom": true,
      "hasCurveTo": true,
      "point": "{0.63360559944794659, 0.017679896957133678}"
    }
  ],
  "resizingConstraint": 63,
  "resizingType": 0,
  "rotation": 0,
  "shouldBreakMaskChain": false,
  "style": {
    "_class": "style",
    "do_objectID": "F33B279F-60A9-4A96-88EB-22C794D68358",
    "endMarkerType": 0,
    "fills": [
      {
        "_class": "fill",
        "color": {
          "_class": "color",
          "alpha": 1,
          "blue": 0.1764705882352941,
          "green": 0.1764705882352941,
          "red": 0.1764705882352941
        },
        "fillType": 0,
        "isEnabled": true,
        "noiseIndex": 0,
        "noiseIntensity": 0,
        "patternFillType": 1,
        "patternTileScale": 1
      }
    ],
    "miterLimit": 10,
    "startMarkerType": 0,
    "windingRule": 1
  }
}