{
  "_class": "shapePath",
  "booleanOperation": -1,
  "clippingMaskMode": 0,
  "do_objectID": "EFA46494-5ABB-4879-B32D-170CB5C3DD12",
  "edited": true,
  "exportOptions": {
    "_class": "exportOptions",
    "do_objectID": "AA51013C-D6F1-444A-A24A-42303E976ED1",
    "exportFormats": [
    ],
    "includedLayerIds": [
    ],
    "layerOptions": 0,
    "shouldTrim": false
  },
  "frame": {
    "_class": "rect",
    "constrainProportions": false,
    "do_objectID": "9D60578C-3D0E-4DC1-AB0A-82F2DA8EAF43",
    "height": 0.1058906030855526,
    "width": 0.1059863482545538,
    "x": 26.69404163658944,
    "y": 6.484066763183557
  },
  "hasClippingMask": false,
  "isClosed": true,
  "isFixedToViewport": false,
  "isFlippedHorizontal": false,
  "isFlippedVertical": false,
  "isLocked": false,
  "isVisible": true,
  "layerListExpandedType": 0,
  "name": "Path",
  "nameIsFixed": false,
  "pointRadiusBehaviour": 0,
  "points": [
    {
      "_class": "curvePoint",
      "cornerRadius": 0,
      "curveFrom": "{-0.29014185793460001, 0.5771229246725369}",
      "curveMode": 4,
      "curveTo": "{0.3618581420653868, 0.97212292467257555}",
      "hasCurveFrom": true,
      "hasCurveTo": true,
      "point": "{0.13385814206537816, 0.83612292467255145}"
    },
    {
      "_class": "curvePoint",
      "cornerRadius": 0,
      "curveFrom": "{1.0598581420653659, 0.27412292467253963}",
      "curveMode": 4,
      "curveTo": "{0.40885814206535542, -0.12087707532744218}",
      "hasCurveFrom": true,
      "hasCurveTo": true,
      "point": "{0.63185814206536861, 0.018122924672567819}"
    }
  ],
  "resizingConstraint": 63,
  "resizingType": 0,
  "rotation": 0,
  "shouldBreakMaskChain": false,
  "style": {
    "_class": "style",
    "do_objectID": "31502502-97DA-46D7-8FA3-E492BAECAF39",
    "endMarkerType": 0,
    "fills": [
      {
        "_class": "fill",
        "color": {
          "_class": "color",
          "alpha": 1,
          "blue": 0.1764705882352941,
          "green": 0.1764705882352941,
          "red": 0.1764705882352941
        },
        "fillType": 0,
        "isEnabled": true,
        "noiseIndex": 0,
        "noiseIntensity": 0,
        "patternFillType": 1,
        "patternTileScale": 1
      }
    ],
    "miterLimit": 10,
    "startMarkerType": 0,
    "windingRule": 1
  }
}