{
  "_class": "shapePath",
  "booleanOperation": -1,
  "clippingMaskMode": 0,
  "do_objectID": "EFAB1C6D-0A26-4871-A04C-05DF109476E7",
  "edited": true,
  "exportOptions": {
    "_class": "exportOptions",
    "do_objectID": "B6187FCF-1FF4-4BB4-8F0E-68DC982F0405",
    "exportFormats": [
    ],
    "includedLayerIds": [
    ],
    "layerOptions": 0,
    "shouldTrim": false
  },
  "frame": {
    "_class": "rect",
    "constrainProportions": false,
    "do_objectID": "FA742F04-8554-43B0-B735-5997664B86D9",
    "height": 0.4326357214596275,
    "width": 0.3355557236620097,
    "x": 15.74404598338476,
    "y": 15.81343083083725
  },
  "hasClippingMask": false,
  "isClosed": true,
  "isFixedToViewport": false,
  "isFlippedHorizontal": false,
  "isFlippedVertical": false,
  "isLocked": false,
  "isVisible": true,
  "layerListExpandedType": 0,
  "name": "Path",
  "nameIsFixed": false,
  "pointRadiusBehaviour": 0,
  "points": [
    {
      "_class": "curvePoint",
      "cornerRadius": 0,
      "curveFrom": "{0.43371046528870377, 0.21570658813130564}",
      "curveMode": 4,
      "curveTo": "{0.51160249014006576, 0.59866821347732324}",
      "hasCurveFrom": true,
      "hasCurveTo": true,
      "point": "{0.43733897576314967, 0.31393071523914357}"
    },
    {
      "_class": "curvePoint",
      "cornerRadius": 0,
      "curveFrom": "{0.22398255986594148, 0.22207990935585845}",
      "curveMode": 4,
      "curveTo": "{0.34904522088505158, 0.22076775498609633}",
      "hasCurveFrom": true,
      "hasCurveTo": true,
      "point": "{0.26075146600696042, 0.23051518744718338}"
    },
    {
      "_class": "curvePoint",
      "cornerRadius": 0,
      "curveFrom": "{0.029978199832428568, 0.22489166871962987}",
      "curveMode": 3,
      "curveTo": "{0.15334755596346442, 0.26950491729151033}",
      "hasCurveFrom": true,
      "hasCurveTo": true,
      "point": "{0.11875575610711436, 0.25713317609090963}"
    },
    {
      "_class": "curvePoint",
      "cornerRadius": 0,
      "curveFrom": "{0.42500204015004883, 0.073244113700092234}",
      "curveMode": 4,
      "curveTo": "{0.16834539925782877, 0.10023700359232349}",
      "hasCurveFrom": true,
      "hasCurveTo": true,
      "point": "{0.22615966615061037, 0.12066912163574409}"
    },
    {
      "_class": "curvePoint",
      "cornerRadius": 0,
      "curveFrom": "{0.81325266091537196, 0.14803691277648032}",
      "curveMode": 4,
      "curveTo": "{0.62239300995970337, 0.027131260134202494}",
      "hasCurveFrom": true,
      "hasCurveTo": true,
      "point": "{0.68625479430989023, 0.15066122151600458}"
    },
    {
      "_class": "curvePoint",
      "cornerRadius": 0,
      "curveFrom": "{0.90831963534576021, -0.028354124644279964}",
      "curveMode": 4,
      "curveTo": "{0.80672134206137214, 0.082241743664169309}",
      "hasCurveFrom": true,
      "hasCurveTo": true,
      "point": "{0.7939006050516767, 0.014197167060839021}"
    },
    {
      "_class": "curvePoint",
      "cornerRadius": 0,
      "curveFrom": "{1.0253995733211005, 0.18627684012380794}",
      "curveMode": 4,
      "curveTo": "{0.94097622961573868, 0.032192426988993189}",
      "hasCurveFrom": true,
      "hasCurveTo": true,
      "point": "{0.97024621410957546, 0.09742524422855206}"
    },
    {
      "_class": "curvePoint",
      "cornerRadius": 0,
      "curveFrom": "{0.75422889053111064, 0.27644059038882596}",
      "curveMode": 4,
      "curveTo": "{0.94678184637484664, 0.21195757564627707}",
      "hasCurveFrom": true,
      "hasCurveTo": true,
      "point": "{0.86260040336778909, 0.23407674930796479}"
    },
    {
      "_class": "curvePoint",
      "cornerRadius": 0,
      "curveFrom": "{0.61634549250230508, 0.4953829195146946}",
      "curveMode": 4,
      "curveTo": "{0.7556802947208876, 0.37110315563588253}",
      "hasCurveFrom": true,
      "hasCurveTo": true,
      "point": "{0.61320078342445383, 0.39715879240685664}"
    },
    {
      "_class": "curvePoint",
      "cornerRadius": 0,
      "curveFrom": "{0.90106261439687541, 0.43821047911795569}",
      "curveMode": 4,
      "curveTo": "{0.7012526376042546, 0.49013430203564606}",
      "hasCurveFrom": true,
      "hasCurveTo": true,
      "point": "{0.78930449178405537, 0.48057432019881685}"
    },
    {
      "_class": "curvePoint",
      "cornerRadius": 0,
      "curveFrom": "{0.97968034134312243, 0.60016781847133249}",
      "curveMode": 3,
      "curveTo": "{0.9402505275208537, 0.49744487638145601}",
      "hasCurveFrom": true,
      "hasCurveTo": true,
      "point": "{0.96565010084194725, 0.56380239736652982}"
    },
    {
      "_class": "curvePoint",
      "cornerRadius": 0,
      "curveFrom": "{0.89162848716332166, 0.71619975488307752}",
      "curveMode": 4,
      "curveTo": "{0.98621166019712214, 0.63765794332165016}",
      "hasCurveFrom": true,
      "hasCurveTo": true,
      "point": "{1, 0.67364846317795846}"
    },
    {
      "_class": "curvePoint",
      "cornerRadius": 0,
      "curveFrom": "{0.70754205575995022, 0.87384572987867359}",
      "curveMode": 4,
      "curveTo": "{0.89283799065480818, 0.81067486950587619}",
      "hasCurveFrom": true,
      "hasCurveTo": true,
      "point": "{0.75035847935837441, 0.83710540752535534}"
    },
    {
      "_class": "curvePoint",
      "cornerRadius": 0,
      "curveFrom": "{0.45112731556602748, 0.91658447220802919}",
      "curveMode": 4,
      "curveTo": "{0.49345993776785702, 0.84704029061068953}",
      "hasCurveFrom": true,
      "hasCurveTo": true,
      "point": "{0.46685086095527684, 0.89034138481280789}"
    },
    {
      "_class": "curvePoint",
      "cornerRadius": 0,
      "curveFrom": "{0.30284218751048575, 0.99606353689071359}",
      "curveMode": 4,
      "curveTo": "{0.5120862915366603, 0.97188240636225376}",
      "hasCurveFrom": true,
      "hasCurveTo": true,
      "point": "{0.50095885941503915, 1}"
    },
    {
      "_class": "curvePoint",
      "cornerRadius": 0,
      "curveFrom": "{-0.067265880882628637, 0.57486198419736845}",
      "curveMode": 4,
      "curveTo": "{0.21769314171023896, 0.84853989560469889}",
      "hasCurveFrom": true,
      "hasCurveTo": true,
      "point": "{0.0065138320976996875, 0.85997438368405299}"
    }
  ],
  "resizingConstraint": 63,
  "resizingType": 0,
  "rotation": 0,
  "shouldBreakMaskChain": false,
  "style": {
    "_class": "style",
    "do_objectID": "9DF690D4-08BB-4F00-A7FE-B45B2A24C766",
    "endMarkerType": 0,
    "fills": [
      {
        "_class": "fill",
        "color": {
          "_class": "color",
          "alpha": 1,
          "blue": 0.1764705882352941,
          "green": 0.1764705882352941,
          "red": 0.1764705882352941
        },
        "fillType": 0,
        "isEnabled": true,
        "noiseIndex": 0,
        "noiseIntensity": 0,
        "patternFillType": 1,
        "patternTileScale": 1
      }
    ],
    "miterLimit": 10,
    "startMarkerType": 0,
    "windingRule": 1
  }
}