{
  "_class": "shapePath",
  "booleanOperation": -1,
  "clippingMaskMode": 0,
  "do_objectID": "F2236F8D-38FF-4C0A-8A14-032E7ED9F297",
  "edited": true,
  "exportOptions": {
    "_class": "exportOptions",
    "do_objectID": "61875C23-8138-4CDE-BFC9-49036E89A66B",
    "exportFormats": [
    ],
    "includedLayerIds": [
    ],
    "layerOptions": 0,
    "shouldTrim": false
  },
  "frame": {
    "_class": "rect",
    "constrainProportions": false,
    "do_objectID": "8A30B42A-A807-4B38-A05F-34BE0B2B3C8A",
    "height": 0.1169430796001727,
    "width": 0.1059863482545644,
    "x": 18.48213431542963,
    "y": 19.38804001481384
  },
  "hasClippingMask": false,
  "isClosed": true,
  "isFixedToViewport": false,
  "isFlippedHorizontal": false,
  "isFlippedVertical": false,
  "isLocked": false,
  "isVisible": true,
  "layerListExpandedType": 0,
  "name": "Path",
  "nameIsFixed": false,
  "pointRadiusBehaviour": 0,
  "points": [
    {
      "_class": "curvePoint",
      "cornerRadius": 0,
      "curveFrom": "{0.07337023062439707, 0.085298196948695046}",
      "curveMode": 4,
      "curveTo": "{-0.092180839106301898, 0.35922330097087246}",
      "hasCurveFrom": true,
      "hasCurveTo": true,
      "point": "{0.011830304179994538, 0.19001386962551978}"
    },
    {
      "_class": "curvePoint",
      "cornerRadius": 0,
      "curveFrom": "{0.47641341085887889, 0.19486823855756205}",
      "curveMode": 4,
      "curveTo": "{0.43394219401698497, 0.097087378640786454}",
      "hasCurveFrom": true,
      "hasCurveTo": true,
      "point": "{0.5154175895912616, 0}"
    },
    {
      "_class": "curvePoint",
      "cornerRadius": 0,
      "curveFrom": "{0.92539484604481514, 0.913314840499307}",
      "curveMode": 4,
      "curveTo": "{1.0900791562481487, 0.64008321775311872}",
      "hasCurveFrom": true,
      "hasCurveTo": true,
      "point": "{0.98866829154399782, 0.81137309292649795}"
    },
    {
      "_class": "curvePoint",
      "cornerRadius": 0,
      "curveFrom": "{0.52495194439250359, 0.80651872399445568}",
      "curveMode": 4,
      "curveTo": "{0.56742316123442216, 0.90291262135923323}",
      "hasCurveFrom": true,
      "hasCurveTo": true,
      "point": "{0.4850810061327554, 1}"
    }
  ],
  "resizingConstraint": 63,
  "resizingType": 0,
  "rotation": 0,
  "shouldBreakMaskChain": false,
  "style": {
    "_class": "style",
    "do_objectID": "5CAB70B8-C19A-401E-B7C5-E02EDD3B6C25",
    "endMarkerType": 0,
    "fills": [
      {
        "_class": "fill",
        "color": {
          "_class": "color",
          "alpha": 1,
          "blue": 0.1764705882352941,
          "green": 0.1764705882352941,
          "red": 0.1764705882352941
        },
        "fillType": 0,
        "isEnabled": true,
        "noiseIndex": 0,
        "noiseIntensity": 0,
        "patternFillType": 1,
        "patternTileScale": 1
      }
    ],
    "miterLimit": 10,
    "startMarkerType": 0,
    "windingRule": 1
  }
}