{
  "_class": "shapePath",
  "booleanOperation": -1,
  "clippingMaskMode": 0,
  "do_objectID": "FDE52FA3-F885-40E7-8672-9A3C8C991C59",
  "edited": true,
  "exportOptions": {
    "_class": "exportOptions",
    "do_objectID": "B4002672-2DB6-4C7C-9CD5-B3168FC8F241",
    "exportFormats": [
    ],
    "includedLayerIds": [
    ],
    "layerOptions": 0,
    "shouldTrim": false
  },
  "frame": {
    "_class": "rect",
    "constrainProportions": false,
    "do_objectID": "19E1C30F-1977-484E-95A2-1B2013A559EE",
    "height": 0.1139424596659016,
    "width": 0.1437951419332499,
    "x": 25.30415036789937,
    "y": 14.89457111433786
  },
  "hasClippingMask": false,
  "isClosed": true,
  "isFixedToViewport": false,
  "isFlippedHorizontal": false,
  "isFlippedVertical": false,
  "isLocked": false,
  "isVisible": true,
  "layerListExpandedType": 0,
  "name": "Path",
  "nameIsFixed": false,
  "pointRadiusBehaviour": 0,
  "points": [
    {
      "_class": "curvePoint",
      "cornerRadius": 0,
      "curveFrom": "{0.47802651623799397, 0.2583629893238481}",
      "curveMode": 4,
      "curveTo": "{0.067076559906443844, 0.53096085409252336}",
      "hasCurveFrom": true,
      "hasCurveTo": true,
      "point": "{0.2573102622192695, 0.38861209964413018}"
    },
    {
      "_class": "curvePoint",
      "cornerRadius": 0,
      "curveFrom": "{1.1096927265883327, 0.31814946619217893}",
      "curveMode": 4,
      "curveTo": "{0.69761378686022979, 0.13024911032028205}",
      "hasCurveFrom": true,
      "hasCurveTo": true,
      "point": "{0.91607207408594493, 0}"
    },
    {
      "_class": "curvePoint",
      "cornerRadius": 0,
      "curveFrom": "{0.52149237700386497, 0.74092526690392668}",
      "curveMode": 4,
      "curveTo": "{0.93300682503369148, 0.46832740213525142}",
      "hasCurveFrom": true,
      "hasCurveTo": true,
      "point": "{0.74220863102258938, 0.61138790035586987}"
    },
    {
      "_class": "curvePoint",
      "cornerRadius": 0,
      "curveFrom": "{-0.10848035825170881, 0.68042704626337069}",
      "curveMode": 4,
      "curveTo": "{0.3019051063816291, 0.86975088967971792}",
      "hasCurveFrom": true,
      "hasCurveTo": true,
      "point": "{0.082317835759393249, 1}"
    }
  ],
  "resizingConstraint": 63,
  "resizingType": 0,
  "rotation": 0,
  "shouldBreakMaskChain": false,
  "style": {
    "_class": "style",
    "do_objectID": "6FFD3FA7-8280-4FD1-8195-A975BDD435EB",
    "endMarkerType": 0,
    "fills": [
      {
        "_class": "fill",
        "color": {
          "_class": "color",
          "alpha": 1,
          "blue": 0.1764705882352941,
          "green": 0.1764705882352941,
          "red": 0.1764705882352941
        },
        "fillType": 0,
        "isEnabled": true,
        "noiseIndex": 0,
        "noiseIntensity": 0,
        "patternFillType": 1,
        "patternTileScale": 1
      }
    ],
    "miterLimit": 10,
    "startMarkerType": 0,
    "windingRule": 1
  }
}