{
  "_class": "bitmap",
  "booleanOperation": 0,
  "clippingMask": "{{0, 0}, {1, 1}}",
  "clippingMaskMode": 0,
  "do_objectID": "0C03F305-0A61-43EA-B724-E37CF470C258",
  "exportOptions": {
    "_class": "exportOptions",
    "do_objectID": "69FBB25D-D503-47F9-8C2F-14367169D05E",
    "exportFormats": [
    ],
    "includedLayerIds": [
    ],
    "layerOptions": 0,
    "shouldTrim": false
  },
  "fillReplacesImage": false,
  "frame": {
    "_class": "rect",
    "constrainProportions": true,
    "do_objectID": "FFE374BA-F7C3-4BFF-BCB1-987506B27DB8",
    "height": 28.59046283309965,
    "width": 137.658914728683,
    "x": 498.7488372093022,
    "y": 272.1388499298739
  },
  "hasClippingMask": false,
  "image": {
    "_class": "MSJSONFileReference",
    "_ref": "images/b2c4a011ab0c1a1b9be6512008afe1966fb53ffb.png",
    "_ref_class": "MSImageData"
  },
  "intendedDPI": 0,
  "isFixedToViewport": false,
  "isFlippedHorizontal": false,
  "isFlippedVertical": false,
  "isLocked": false,
  "isVisible": true,
  "layerListExpandedType": 0,
  "name": "Screen Shot 2017-04-05 at 5.14.17 PM",
  "nameIsFixed": false,
  "resizingConstraint": 63,
  "resizingType": 0,
  "rotation": 0,
  "shouldBreakMaskChain": false,
  "style": {
    "_class": "style",
    "do_objectID": "86E87732-A047-4EC9-959B-38E26755A20B",
    "endMarkerType": 0,
    "miterLimit": 10,
    "startMarkerType": 0,
    "windingRule": 1
  }
}