{
  "_class": "symbolMaster",
  "allowsOverrides": true,
  "backgroundColor": {
    "_class": "color",
    "alpha": 1,
    "blue": 1,
    "green": 1,
    "red": 1
  },
  "booleanOperation": -1,
  "changeIdentifier": 2573,
  "clippingMaskMode": 0,
  "do_objectID": "9CE99899-C2CF-4B6B-B9C5-4B876736584C",
  "exportOptions": {
    "_class": "exportOptions",
    "exportFormats": [
    ],
    "includedLayerIds": [
    ],
    "layerOptions": 0,
    "shouldTrim": false
  },
  "frame": {
    "_class": "rect",
    "constrainProportions": false,
    "height": 32,
    "width": 1200,
    "x": 31594,
    "y": 0
  },
  "groupLayout": {
    "_class": "MSImmutableFreeformGroupLayout"
  },
  "hasBackgroundColor": false,
  "hasClickThrough": true,
  "hasClippingMask": false,
  "horizontalRulerData": {
    "_class": "rulerData",
    "base": 0,
    "guides": [
    ]
  },
  "includeBackgroundColorInExport": true,
  "includeBackgroundColorInInstance": false,
  "includeInCloudUpload": true,
  "isFixedToViewport": false,
  "isFlippedHorizontal": false,
  "isFlippedVertical": false,
  "isFlowHome": false,
  "isLocked": false,
  "isVisible": true,
  "layerListExpandedType": 2,
  "layers": [
    {
      "class": "rectangle",
      "id": "82527D7E-7FBE-4833-A187-FCF70466A9CA"
    },
    {
      "class": "rectangle",
      "id": "7D30C398-BAE2-4FBF-947E-2F28054C6AC8"
    },
    {
      "class": "symbolInstance",
      "id": "7F2C2EBC-4239-4194-AB3F-22572CD4DA86"
    },
    {
      "class": "symbolInstance",
      "id": "B926E580-3F27-468A-B9F3-734F5CDAFC2C"
    },
    {
      "class": "symbolInstance",
      "id": "DF0178F6-1A1D-47D7-BD02-933C82CD3D01"
    },
    {
      "class": "symbolInstance",
      "id": "C55F974B-B57B-4E02-8068-89F9997B498B"
    },
    {
      "class": "symbolInstance",
      "id": "E11273E2-453D-4473-BDC6-0364495CB1BC"
    },
    {
      "class": "symbolInstance",
      "id": "79DA13C8-D773-48E3-819B-842B0E005FA6"
    }
  ],
  "name": "data table / row / 32 short / default / 01 enabled",
  "nameIsFixed": true,
  "overrideProperties": [
    {
      "_class": "MSImmutableOverrideProperty",
      "canOverride": true,
      "overrideName": "DF0178F6-1A1D-47D7-BD02-933C82CD3D01_symbolID"
    },
    {
      "_class": "MSImmutableOverrideProperty",
      "canOverride": true,
      "overrideName": "79DA13C8-D773-48E3-819B-842B0E005FA6_symbolID"
    },
    {
      "_class": "MSImmutableOverrideProperty",
      "canOverride": true,
      "overrideName": "E11273E2-453D-4473-BDC6-0364495CB1BC_symbolID"
    },
    {
      "_class": "MSImmutableOverrideProperty",
      "canOverride": false,
      "overrideName": "7D30C398-BAE2-4FBF-947E-2F28054C6AC8_layerStyle"
    },
    {
      "_class": "MSImmutableOverrideProperty",
      "canOverride": false,
      "overrideName": "82527D7E-7FBE-4833-A187-FCF70466A9CA_layerStyle"
    },
    {
      "_class": "MSImmutableOverrideProperty",
      "canOverride": true,
      "overrideName": "C55F974B-B57B-4E02-8068-89F9997B498B_symbolID"
    },
    {
      "_class": "MSImmutableOverrideProperty",
      "canOverride": true,
      "overrideName": "7F2C2EBC-4239-4194-AB3F-22572CD4DA86_symbolID"
    },
    {
      "_class": "MSImmutableOverrideProperty",
      "canOverride": true,
      "overrideName": "B926E580-3F27-468A-B9F3-734F5CDAFC2C_symbolID"
    }
  ],
  "resizesContent": true,
  "resizingConstraint": 63,
  "resizingType": 0,
  "rotation": 0,
  "shouldBreakMaskChain": true,
  "style": {
    "_class": "style",
    "endMarkerType": 0,
    "miterLimit": 10,
    "startMarkerType": 0,
    "windingRule": 1
  },
  "symbolID": "CD744C4E-DF89-45AC-853A-7A49465E6895",
  "verticalRulerData": {
    "_class": "rulerData",
    "base": 0,
    "guides": [
    ]
  }
}