{
  "_class": "group",
  "booleanOperation": 0,
  "clippingMaskMode": 0,
  "do_objectID": "1863E916-C1E7-4456-8AD7-1396532E23E5",
  "exportOptions": {
    "_class": "exportOptions",
    "do_objectID": "F529AA0E-A64B-4889-AB42-EDD28B1349BF",
    "exportFormats": [
    ],
    "includedLayerIds": [
    ],
    "layerOptions": 0,
    "shouldTrim": false
  },
  "frame": {
    "_class": "rect",
    "constrainProportions": false,
    "do_objectID": "D2186033-49D1-4942-B5DD-D77B539996A7",
    "height": 76,
    "width": 60,
    "x": 0,
    "y": 113
  },
  "groupLayout": {
    "_class": "MSImmutableFreeformGroupLayout",
    "do_objectID": "55BD5E43-4DBB-470E-A1AA-02DC79D7F266"
  },
  "hasClickThrough": false,
  "hasClippingMask": false,
  "isFixedToViewport": false,
  "isFlippedHorizontal": false,
  "isFlippedVertical": false,
  "isLocked": false,
  "isVisible": true,
  "layerListExpandedType": 2,
  "layers": [
    {
      "class": "rectangle",
      "id": "1ED52412-FA91-40AE-9CE0-A9D701D0CDE1"
    },
    {
      "class": "bitmap",
      "id": "76DBA3B1-7DF9-4230-A3BE-84D39B1EA22E"
    }
  ],
  "name": "211199857_blk_cu",
  "nameIsFixed": false,
  "resizingConstraint": 63,
  "resizingType": 0,
  "rotation": 0,
  "shouldBreakMaskChain": false,
  "style": {
    "_class": "style",
    "do_objectID": "863DBD92-C9F5-4985-9755-BB1D33E1217F",
    "endMarkerType": 0,
    "miterLimit": 10,
    "shadows": [
      {
        "_class": "shadow",
        "blurRadius": 5,
        "color": {
          "_class": "color",
          "alpha": 0.5,
          "blue": 0,
          "green": 0,
          "red": 0
        },
        "contextSettings": {
          "_class": "graphicsContextSettings",
          "blendMode": 0,
          "opacity": 1
        },
        "isEnabled": false,
        "offsetX": 0,
        "offsetY": 0,
        "spread": 0
      }
    ],
    "startMarkerType": 0,
    "windingRule": 1
  }
}