{
  "_class": "shapePath",
  "booleanOperation": 0,
  "clippingMaskMode": 0,
  "do_objectID": "632820A7-2E8A-4FEA-8491-95E2A96025D7",
  "edited": true,
  "exportOptions": {
    "_class": "exportOptions",
    "exportFormats": [
    ],
    "includedLayerIds": [
    ],
    "layerOptions": 0,
    "shouldTrim": false
  },
  "frame": {
    "_class": "rect",
    "constrainProportions": false,
    "height": 3.391331397760277,
    "width": 12,
    "x": 0,
    "y": 0
  },
  "hasClippingMask": false,
  "isClosed": true,
  "isFixedToViewport": false,
  "isFlippedHorizontal": false,
  "isFlippedVertical": false,
  "isLocked": false,
  "isVisible": true,
  "layerListExpandedType": 0,
  "maintainScrollPosition": false,
  "name": "Shape",
  "nameIsFixed": false,
  "pointRadiusBehaviour": 0,
  "points": [
    {
      "_class": "curvePoint",
      "cornerRadius": 0,
      "curveFrom": "{0.66132464852315276, 0.44634012107870635}",
      "curveMode": 4,
      "curveTo": "{0.49967754417644905, 0.44634012107870635}",
      "hasCurveFrom": true,
      "hasCurveTo": false,
      "point": "{0.49967754417644905, 0.44634012107870635}"
    },
    {
      "_class": "curvePoint",
      "cornerRadius": 0,
      "curveFrom": "{0.92161098929446716, 1}",
      "curveMode": 4,
      "curveTo": "{0.80868695988649764, 0.65602641717116261}",
      "hasCurveFrom": false,
      "hasCurveTo": true,
      "point": "{0.92161098929446716, 1}"
    },
    {
      "_class": "curvePoint",
      "cornerRadius": 0,
      "curveFrom": "{0.8662130788082032, 0.28596587782057742}",
      "curveMode": 4,
      "curveTo": "{1, 0.69488167308750282}",
      "hasCurveFrom": true,
      "hasCurveTo": false,
      "point": "{1, 0.69488167308750282}"
    },
    {
      "_class": "curvePoint",
      "cornerRadius": 0,
      "curveFrom": "{0.3081387849864563, 0}",
      "curveMode": 2,
      "curveTo": "{0.69147426802528111, 0}",
      "hasCurveFrom": true,
      "hasCurveTo": true,
      "point": "{0.49964529859409273, 0}"
    },
    {
      "_class": "curvePoint",
      "cornerRadius": 0,
      "curveFrom": "{0, 0.69301045679692064}",
      "curveMode": 4,
      "curveTo": "{0.1336256932800208, 0.28519537699504655}",
      "hasCurveFrom": false,
      "hasCurveTo": true,
      "point": "{0, 0.69301045679692064}"
    },
    {
      "_class": "curvePoint",
      "cornerRadius": 0,
      "curveFrom": "{0.19115181220172828, 0.65525591634561919}",
      "curveMode": 4,
      "curveTo": "{0.07826002837611315, 0.99834892680242304}",
      "hasCurveFrom": true,
      "hasCurveTo": false,
      "point": "{0.07826002837611315, 0.99834892680242304}"
    },
    {
      "_class": "curvePoint",
      "cornerRadius": 0,
      "curveFrom": "{0.49967754417644905, 0.44634012107870635}",
      "curveMode": 4,
      "curveTo": "{0.33825615890623012, 0.44634012107870635}",
      "hasCurveFrom": false,
      "hasCurveTo": true,
      "point": "{0.49967754417644905, 0.44634012107870635}"
    }
  ],
  "resizingConstraint": 63,
  "resizingType": 0,
  "rotation": 0,
  "shouldBreakMaskChain": false,
  "style": {
    "_class": "style",
    "blur": {
      "_class": "blur",
      "center": "{0.5, 0.5}",
      "isEnabled": false,
      "motionAngle": 0,
      "radius": 5,
      "saturation": 1,
      "type": 0
    },
    "borderOptions": {
      "_class": "borderOptions",
      "dashPattern": [
      ],
      "isEnabled": true,
      "lineCapStyle": 0,
      "lineJoinStyle": 0
    },
    "borders": [
    ],
    "colorControls": {
      "_class": "colorControls",
      "brightness": 0,
      "contrast": 1,
      "hue": 0,
      "isEnabled": false,
      "saturation": 1
    },
    "contextSettings": {
      "_class": "graphicsContextSettings",
      "blendMode": 0,
      "opacity": 1
    },
    "do_objectID": "51E6A7A2-D5FB-4449-8282-4A9E3968B1B9",
    "endMarkerType": 0,
    "fills": [
      {
        "_class": "fill",
        "color": {
          "_class": "color",
          "alpha": 1,
          "blue": 0,
          "green": 0,
          "red": 0
        },
        "contextSettings": {
          "_class": "graphicsContextSettings",
          "blendMode": 0,
          "opacity": 1
        },
        "fillType": 0,
        "gradient": {
          "_class": "gradient",
          "elipseLength": 0,
          "from": "{0.5, 0}",
          "gradientType": 0,
          "stops": [
            {
              "_class": "gradientStop",
              "color": {
                "_class": "color",
                "alpha": 1,
                "blue": 1,
                "green": 1,
                "red": 1
              },
              "position": 0
            },
            {
              "_class": "gradientStop",
              "color": {
                "_class": "color",
                "alpha": 1,
                "blue": 0,
                "green": 0,
                "red": 0
              },
              "position": 1
            }
          ],
          "to": "{0.5, 1}"
        },
        "isEnabled": true,
        "noiseIndex": 0,
        "noiseIntensity": 0,
        "patternFillType": 0,
        "patternTileScale": 1
      }
    ],
    "innerShadows": [
    ],
    "miterLimit": 10,
    "shadows": [
    ],
    "startMarkerType": 0,
    "windingRule": 1
  }
}