{
  "_class": "group",
  "booleanOperation": 0,
  "clippingMaskMode": 0,
  "do_objectID": "6759E01F-6320-4DD8-B055-7B610243485F",
  "exportOptions": {
    "_class": "exportOptions",
    "do_objectID": "CC34ED2B-A682-437E-9EC9-7267E97342D7",
    "exportFormats": [
    ],
    "includedLayerIds": [
    ],
    "layerOptions": 0,
    "shouldTrim": false
  },
  "frame": {
    "_class": "rect",
    "constrainProportions": true,
    "do_objectID": "C3BBF622-DA46-4E3E-9022-A62C311499A5",
    "height": 62,
    "width": 478,
    "x": 0,
    "y": 0
  },
  "groupLayout": {
    "_class": "MSImmutableFreeformGroupLayout",
    "do_objectID": "5F787A94-BC8B-45DF-AFDF-A5E9B0E77BF6"
  },
  "hasClickThrough": false,
  "hasClippingMask": false,
  "isFixedToViewport": false,
  "isFlippedHorizontal": false,
  "isFlippedVertical": false,
  "isLocked": false,
  "isVisible": true,
  "layerListExpandedType": 0,
  "layers": [
    {
      "class": "shapeGroup",
      "id": "4C688A03-E5C1-4DEF-85B7-3914CC8A4B8C"
    },
    {
      "class": "text",
      "id": "1BDD5084-30F8-4B54-B64B-667596B27F5F"
    },
    {
      "class": "text",
      "id": "01157512-82C8-40B5-8857-A3E362C321EE"
    },
    {
      "class": "shapeGroup",
      "id": "EB51FA0E-B912-4C76-9D94-ED9B5FD88D76"
    },
    {
      "class": "shapePath",
      "id": "A1EE952C-F1BD-4160-BCAB-C19823225483"
    }
  ],
  "name": "package",
  "nameIsFixed": false,
  "resizingConstraint": 63,
  "resizingType": 0,
  "rotation": 0,
  "shouldBreakMaskChain": false,
  "style": {
    "_class": "style",
    "do_objectID": "86C90AB0-54A9-40D8-948D-F6AF75FFCD03",
    "endMarkerType": 0,
    "miterLimit": 10,
    "startMarkerType": 0,
    "windingRule": 1
  }
}