{
  "_class": "group",
  "booleanOperation": 0,
  "clippingMaskMode": 0,
  "do_objectID": "38E881F2-3B3E-491B-9DD6-0F7D85D421F1",
  "exportOptions": {
    "_class": "exportOptions",
    "do_objectID": "95F2D4D4-4CC7-4FE8-B11C-B4A16336BE3C",
    "exportFormats": [
    ],
    "includedLayerIds": [
    ],
    "layerOptions": 0,
    "shouldTrim": false
  },
  "frame": {
    "_class": "rect",
    "constrainProportions": true,
    "do_objectID": "BE68C797-01D9-49A7-9CF9-88195A61EA4A",
    "height": 70,
    "width": 947,
    "x": 1,
    "y": 428
  },
  "groupLayout": {
    "_class": "MSImmutableFreeformGroupLayout",
    "do_objectID": "2B632E6C-CD78-4F20-9739-A854B6995E89"
  },
  "hasClickThrough": false,
  "hasClippingMask": false,
  "isFixedToViewport": false,
  "isFlippedHorizontal": false,
  "isFlippedVertical": false,
  "isLocked": false,
  "isVisible": true,
  "layerListExpandedType": 0,
  "layers": [
    {
      "class": "rectangle",
      "id": "F1591A82-387B-41C3-997F-0813E1D6FB0D"
    },
    {
      "class": "group",
      "id": "C3866A1A-8D24-4584-936F-8DA191651FD7"
    },
    {
      "class": "shapePath",
      "id": "E2D4C0F7-CBE2-43D8-A299-6C993FA01917"
    },
    {
      "class": "group",
      "id": "1A5D01F2-1F73-485C-AA59-4A095EC404A5"
    }
  ],
  "name": "q&a",
  "nameIsFixed": true,
  "resizingConstraint": 63,
  "resizingType": 0,
  "rotation": 0,
  "shouldBreakMaskChain": false,
  "style": {
    "_class": "style",
    "do_objectID": "211E2E76-EEB7-42FB-B50E-251F7FD7B234",
    "endMarkerType": 0,
    "miterLimit": 10,
    "startMarkerType": 0,
    "windingRule": 1
  }
}