{
  "_class": "symbolMaster",
  "allowsOverrides": true,
  "backgroundColor": {
    "_class": "color",
    "alpha": 1,
    "blue": 1,
    "do_objectID": "97E9F3C9-75A3-4681-AFEF-76DAD248162E",
    "green": 1,
    "red": 1
  },
  "booleanOperation": -1,
  "changeIdentifier": 1568,
  "clippingMaskMode": 0,
  "do_objectID": "A3974737-764F-4D1B-AA84-C32C849958F4",
  "exportOptions": {
    "_class": "exportOptions",
    "do_objectID": "EFF205BC-857E-4843-A2B3-B45C4E7EDD12",
    "exportFormats": [
    ],
    "includedLayerIds": [
    ],
    "layerOptions": 0,
    "shouldTrim": false
  },
  "frame": {
    "_class": "rect",
    "constrainProportions": false,
    "do_objectID": "13BB44A9-CCAC-4B2D-8EDC-5D42B894BD38",
    "height": 24,
    "width": 108,
    "x": 88583,
    "y": 148
  },
  "groupLayout": {
    "_class": "MSImmutableFreeformGroupLayout",
    "do_objectID": "37B7A8E7-4484-43C2-9231-A419E66C1C92"
  },
  "hasBackgroundColor": false,
  "hasClickThrough": true,
  "hasClippingMask": false,
  "horizontalRulerData": {
    "_class": "rulerData",
    "base": 0,
    "do_objectID": "199B6C8D-13F8-46BD-A137-16B678912E98",
    "guides": [
    ]
  },
  "includeBackgroundColorInExport": true,
  "includeBackgroundColorInInstance": false,
  "includeInCloudUpload": true,
  "isFixedToViewport": false,
  "isFlippedHorizontal": false,
  "isFlippedVertical": false,
  "isFlowHome": false,
  "isLocked": false,
  "isVisible": true,
  "layerListExpandedType": 2,
  "layers": [
    {
      "class": "group",
      "id": "646BDE40-F248-4069-A481-2EC4E86BB8B9"
    },
    {
      "class": "symbolInstance",
      "id": "93E0837D-9D52-4C3F-A8AC-8B53575C6812"
    }
  ],
  "name": "tag / 02 filterable / cool gray / 03 focus",
  "nameIsFixed": true,
  "overrideProperties": [
    {
      "_class": "MSImmutableOverrideProperty",
      "canOverride": true,
      "overrideName": "27BD19EF-DD15-4975-9FE9-9426B8CE999B_symbolID"
    },
    {
      "_class": "MSImmutableOverrideProperty",
      "canOverride": false,
      "overrideName": "74885B1A-0B91-4F23-87CE-C49A102EADCD_layerStyle"
    },
    {
      "_class": "MSImmutableOverrideProperty",
      "canOverride": true,
      "overrideName": "93E0837D-9D52-4C3F-A8AC-8B53575C6812_symbolID"
    },
    {
      "_class": "MSImmutableOverrideProperty",
      "canOverride": false,
      "overrideName": "93E0837D-9D52-4C3F-A8AC-8B53575C6812/0102D184-77A7-423A-9B10-676DDC10DDDA_layerStyle"
    },
    {
      "_class": "MSImmutableOverrideProperty",
      "canOverride": false,
      "overrideName": "BD8DF4E3-5CDB-4668-98F3-CC2F4B4FE26A_layerStyle"
    },
    {
      "_class": "MSImmutableOverrideProperty",
      "canOverride": false,
      "overrideName": "CA64DB71-E8C4-4596-BCA4-9E0E063CB222_textStyle"
    },
    {
      "_class": "MSImmutableOverrideProperty",
      "canOverride": true,
      "overrideName": "CA64DB71-E8C4-4596-BCA4-9E0E063CB222_stringValue"
    }
  ],
  "resizesContent": true,
  "resizingConstraint": 63,
  "resizingType": 0,
  "rotation": 0,
  "shouldBreakMaskChain": true,
  "style": {
    "_class": "style",
    "do_objectID": "0CDFCB42-B138-4476-B01F-A9A46D11D56F",
    "endMarkerType": 0,
    "miterLimit": 10,
    "startMarkerType": 0,
    "windingRule": 1
  },
  "symbolID": "0F6DEE85-C786-4A68-B988-9EC866307E88",
  "verticalRulerData": {
    "_class": "rulerData",
    "base": 0,
    "do_objectID": "9331A122-14C8-4C3F-B0F7-510E002DE2CB",
    "guides": [
    ]
  }
}