{
  "_class": "group",
  "booleanOperation": 0,
  "clippingMaskMode": 0,
  "do_objectID": "944B0C41-06EA-43EA-B4FD-9E2CF8D49A2C",
  "exportOptions": {
    "_class": "exportOptions",
    "do_objectID": "17B7A687-B394-43B4-8DFE-200BEBE2A891",
    "exportFormats": [
    ],
    "includedLayerIds": [
    ],
    "layerOptions": 0,
    "shouldTrim": false
  },
  "frame": {
    "_class": "rect",
    "constrainProportions": false,
    "do_objectID": "87695DF8-660E-40F1-8903-26905E28B54B",
    "height": 24,
    "width": 203,
    "x": 25,
    "y": 17.83333333333326
  },
  "groupLayout": {
    "_class": "MSImmutableFreeformGroupLayout",
    "do_objectID": "BC4D9C2D-05E8-4870-A1D1-DC5643440E98"
  },
  "hasClickThrough": false,
  "hasClippingMask": false,
  "isFixedToViewport": false,
  "isFlippedHorizontal": false,
  "isFlippedVertical": false,
  "isLocked": false,
  "isVisible": true,
  "layerListExpandedType": 0,
  "layers": [
    {
      "class": "text",
      "id": "242441F5-2419-4D4A-BAFB-071290505637"
    }
  ],
  "name": "Group 4",
  "nameIsFixed": false,
  "resizingConstraint": 63,
  "resizingType": 0,
  "rotation": 0,
  "shouldBreakMaskChain": false,
  "style": {
    "_class": "style",
    "do_objectID": "5961282D-EB65-45AC-9B56-8CFE497A2ACD",
    "endMarkerType": 0,
    "miterLimit": 10,
    "startMarkerType": 0,
    "windingRule": 1
  }
}