{
  "_class": "shapePath",
  "booleanOperation": -1,
  "clippingMaskMode": 0,
  "do_objectID": "05D7FA37-0AA7-4D41-B6EB-492C118D5230",
  "edited": true,
  "exportOptions": {
    "_class": "exportOptions",
    "do_objectID": "22DD2C87-873B-466D-AEDA-1A05F38FC3CD",
    "exportFormats": [
    ],
    "includedLayerIds": [
    ],
    "layerOptions": 0,
    "shouldTrim": false
  },
  "frame": {
    "_class": "rect",
    "constrainProportions": false,
    "do_objectID": "4E3BB49D-3E00-4A5C-B427-4E091F846CCB",
    "height": 0.1058906030855535,
    "width": 0.1134099184431605,
    "x": 23.8774390681255,
    "y": 14.22764316873946
  },
  "hasClippingMask": false,
  "isClosed": true,
  "isFixedToViewport": false,
  "isFlippedHorizontal": false,
  "isFlippedVertical": false,
  "isLocked": false,
  "isVisible": true,
  "layerListExpandedType": 0,
  "name": "Path",
  "nameIsFixed": false,
  "pointRadiusBehaviour": 0,
  "points": [
    {
      "_class": "curvePoint",
      "cornerRadius": 0,
      "curveFrom": "{0.57931714439447279, 0.10505502345422596}",
      "curveMode": 4,
      "curveTo": "{0.28944548396926395, -0.088959995337667533}",
      "hasCurveFrom": true,
      "hasCurveTo": true,
      "point": "{0.44475943535758516, 0.013938658353575283}"
    },
    {
      "_class": "curvePoint",
      "cornerRadius": 0,
      "curveFrom": "{0.64945892889243872, 0.35012662613877471}",
      "curveMode": 4,
      "curveTo": "{0.55140357709427479, 0.26372317647438764}",
      "hasCurveFrom": true,
      "hasCurveTo": true,
      "point": "{0.46909434018340096, 0.40196869593745155}"
    },
    {
      "_class": "curvePoint",
      "cornerRadius": 0,
      "curveFrom": "{1.1383042228934976, 0.55042553217901968}",
      "curveMode": 4,
      "curveTo": "{0.8341179125707191, 0.29907004224616407}",
      "hasCurveFrom": true,
      "hasCurveTo": true,
      "point": "{0.8942394421403983, 0.19931333217905239}"
    },
    {
      "_class": "curvePoint",
      "cornerRadius": 0,
      "curveFrom": "{0.50917535989650686, 1.2015933482863437}",
      "curveMode": 4,
      "curveTo": "{0.91571141698673275, 0.71459208654142203}",
      "hasCurveFrom": true,
      "hasCurveTo": true,
      "point": "{0.6730781012233944, 0.87090378184342965}"
    },
    {
      "_class": "curvePoint",
      "cornerRadius": 0,
      "curveFrom": "{0.0596953531136937, 0.62661766506494709}",
      "curveMode": 4,
      "curveTo": "{-0.0025733739406068067, 0.81434879660853376}",
      "hasCurveFrom": true,
      "hasCurveTo": true,
      "point": "{0.058979620618833523, 0.62818863687703497}"
    },
    {
      "_class": "curvePoint",
      "cornerRadius": 0,
      "curveFrom": "{-0.16289745279307133, 0.40432515365556104}",
      "curveMode": 4,
      "curveTo": "{0.061126818103454751, 0.6258321791588809}",
      "hasCurveFrom": true,
      "hasCurveTo": true,
      "point": "{0.061126818103454751, 0.62504669325285922}"
    }
  ],
  "resizingConstraint": 63,
  "resizingType": 0,
  "rotation": 0,
  "shouldBreakMaskChain": false,
  "style": {
    "_class": "style",
    "do_objectID": "5356E7D0-5EB6-4F9E-9AF0-FBEF880CC97C",
    "endMarkerType": 0,
    "fills": [
      {
        "_class": "fill",
        "color": {
          "_class": "color",
          "alpha": 1,
          "blue": 0.1764705882352941,
          "green": 0.1764705882352941,
          "red": 0.1764705882352941
        },
        "fillType": 0,
        "isEnabled": true,
        "noiseIndex": 0,
        "noiseIntensity": 0,
        "patternFillType": 1,
        "patternTileScale": 1
      }
    ],
    "miterLimit": 10,
    "startMarkerType": 0,
    "windingRule": 1
  }
}