{
  "_class": "shapePath",
  "booleanOperation": -1,
  "clippingMaskMode": 0,
  "do_objectID": "09FAAEC6-4F2F-4E5E-957B-56FDD8562808",
  "edited": true,
  "exportOptions": {
    "_class": "exportOptions",
    "do_objectID": "DF247943-FBF0-4CB9-8505-3DCBF9D5A992",
    "exportFormats": [
    ],
    "includedLayerIds": [
    ],
    "layerOptions": 0,
    "shouldTrim": false
  },
  "frame": {
    "_class": "rect",
    "constrainProportions": false,
    "do_objectID": "0519E8C2-77C2-42EB-9344-1C793919A676",
    "height": 0.1058906030855544,
    "width": 0.1059863482545751,
    "x": 32.98453681185243,
    "y": 5.157643575402239
  },
  "hasClippingMask": false,
  "isClosed": true,
  "isFixedToViewport": false,
  "isFlippedHorizontal": false,
  "isFlippedVertical": false,
  "isLocked": false,
  "isVisible": true,
  "layerListExpandedType": 0,
  "name": "Path",
  "nameIsFixed": false,
  "pointRadiusBehaviour": 0,
  "points": [
    {
      "_class": "curvePoint",
      "cornerRadius": 0,
      "curveFrom": "{0.9411847513543421, 0.24596239221666139}",
      "curveMode": 3,
      "curveTo": "{0.36218475135433437, -0.10703760778334726}",
      "hasCurveFrom": true,
      "hasCurveTo": true,
      "point": "{0.56318475135429935, 0.015962392216643195}"
    },
    {
      "_class": "curvePoint",
      "cornerRadius": 0,
      "curveFrom": "{-0.25781524864567018, 0.51396239221663365}",
      "curveMode": 3,
      "curveTo": "{0.32118475135433755, 0.86696239221664229}",
      "hasCurveFrom": true,
      "hasCurveTo": true,
      "point": "{0.11918475135433937, 0.74296239221661864}"
    }
  ],
  "resizingConstraint": 63,
  "resizingType": 0,
  "rotation": 0,
  "shouldBreakMaskChain": false,
  "style": {
    "_class": "style",
    "do_objectID": "FB24F8FA-4092-40CD-99F3-E8D59D4BEE4A",
    "endMarkerType": 0,
    "fills": [
      {
        "_class": "fill",
        "color": {
          "_class": "color",
          "alpha": 1,
          "blue": 0.1764705882352941,
          "green": 0.1764705882352941,
          "red": 0.1764705882352941
        },
        "fillType": 0,
        "isEnabled": true,
        "noiseIndex": 0,
        "noiseIntensity": 0,
        "patternFillType": 1,
        "patternTileScale": 1
      }
    ],
    "miterLimit": 10,
    "startMarkerType": 0,
    "windingRule": 1
  }
}