{
  "_class": "shapePath",
  "booleanOperation": -1,
  "clippingMaskMode": 0,
  "do_objectID": "0BFB4D5A-5BFB-4E45-8A3F-767DDE8F5AF4",
  "edited": true,
  "exportOptions": {
    "_class": "exportOptions",
    "do_objectID": "0E232AE6-36E8-471B-828F-A205ECA03132",
    "exportFormats": [
    ],
    "includedLayerIds": [
    ],
    "layerOptions": 0,
    "shouldTrim": false
  },
  "frame": {
    "_class": "rect",
    "constrainProportions": false,
    "do_objectID": "42577018-A568-4CB0-8297-AE2C9AA2CCB3",
    "height": 0.1058906030855908,
    "width": 0.1059863482545609,
    "x": 22.8105410965487,
    "y": 35.65751675802072
  },
  "hasClippingMask": false,
  "isClosed": true,
  "isFixedToViewport": false,
  "isFlippedHorizontal": false,
  "isFlippedVertical": false,
  "isLocked": false,
  "isVisible": true,
  "layerListExpandedType": 0,
  "name": "Path",
  "nameIsFixed": false,
  "pointRadiusBehaviour": 0,
  "points": [
    {
      "_class": "curvePoint",
      "cornerRadius": 0,
      "curveFrom": "{-0.26979016955129964, 0.70357629202339922}",
      "curveMode": 3,
      "curveTo": "{0.41020983044870718, 0.95157629202344651}",
      "hasCurveFrom": true,
      "hasCurveTo": true,
      "point": "{0.17420983044871718, 0.86557629202343378}"
    },
    {
      "_class": "curvePoint",
      "cornerRadius": 0,
      "curveFrom": "{0.92820983044873628, 0.16857629202343105}",
      "curveMode": 3,
      "curveTo": "{0.24720983044869627, -0.079423707976559399}",
      "hasCurveFrom": true,
      "hasCurveTo": true,
      "point": "{0.48320983044874311, 0.006576292023453334}"
    }
  ],
  "resizingConstraint": 63,
  "resizingType": 0,
  "rotation": 0,
  "shouldBreakMaskChain": false,
  "style": {
    "_class": "style",
    "do_objectID": "EE310A90-A94F-4958-9B9F-6B09BE69FC38",
    "endMarkerType": 0,
    "fills": [
      {
        "_class": "fill",
        "color": {
          "_class": "color",
          "alpha": 1,
          "blue": 0.1764705882352941,
          "green": 0.1764705882352941,
          "red": 0.1764705882352941
        },
        "fillType": 0,
        "isEnabled": true,
        "noiseIndex": 0,
        "noiseIntensity": 0,
        "patternFillType": 1,
        "patternTileScale": 1
      }
    ],
    "miterLimit": 10,
    "startMarkerType": 0,
    "windingRule": 1
  }
}