{
  "_class": "shapePath",
  "booleanOperation": -1,
  "clippingMaskMode": 0,
  "do_objectID": "0C606E28-B2DE-4BD7-A424-30FEB7766A14",
  "edited": true,
  "exportOptions": {
    "_class": "exportOptions",
    "do_objectID": "7A6419DA-46A8-4581-966F-18608BAB4CA8",
    "exportFormats": [
    ],
    "includedLayerIds": [
    ],
    "layerOptions": 0,
    "shouldTrim": false
  },
  "frame": {
    "_class": "rect",
    "constrainProportions": false,
    "do_objectID": "DAFC10E1-0C0F-4E3B-8150-DD2D54BFED04",
    "height": 0.1058906030855549,
    "width": 0.1073043314228812,
    "x": 18.79495381844712,
    "y": 1.394700932255197
  },
  "hasClippingMask": false,
  "isClosed": true,
  "isFixedToViewport": false,
  "isFlippedHorizontal": false,
  "isFlippedVertical": false,
  "isLocked": false,
  "isVisible": true,
  "layerListExpandedType": 0,
  "name": "Path",
  "nameIsFixed": false,
  "pointRadiusBehaviour": 0,
  "points": [
    {
      "_class": "curvePoint",
      "cornerRadius": 0,
      "curveFrom": "{0.48248625455384198, 1.2504252317924618}",
      "curveMode": 4,
      "curveTo": "{0.912154101764037, 0.6448425253435045}",
      "hasCurveFrom": true,
      "hasCurveTo": true,
      "point": "{0.65344564446493636, 0.84016012434406573}"
    },
    {
      "_class": "curvePoint",
      "cornerRadius": 0,
      "curveFrom": "{0.08232024896548501, 0.255188822814779}",
      "curveMode": 3,
      "curveTo": "{-0.058380841846306548, 0.76851095486147269}",
      "hasCurveFrom": true,
      "hasCurveTo": true,
      "point": "{0.0051615862622444771, 0.53589652791104714}"
    },
    {
      "_class": "curvePoint",
      "cornerRadius": 0,
      "curveFrom": "{1.145899462306196, 0.43872847614696503}",
      "curveMode": 4,
      "curveTo": "{0.7608626062674797, 0.25617031828712039}",
      "hasCurveFrom": true,
      "hasCurveTo": true,
      "point": "{0.88794746248458178, 0}"
    }
  ],
  "resizingConstraint": 63,
  "resizingType": 0,
  "rotation": 0,
  "shouldBreakMaskChain": false,
  "style": {
    "_class": "style",
    "do_objectID": "755BCB3E-EC24-41EC-88E2-AD670139DB0E",
    "endMarkerType": 0,
    "fills": [
      {
        "_class": "fill",
        "color": {
          "_class": "color",
          "alpha": 1,
          "blue": 0.1764705882352941,
          "green": 0.1764705882352941,
          "red": 0.1764705882352941
        },
        "fillType": 0,
        "isEnabled": true,
        "noiseIndex": 0,
        "noiseIntensity": 0,
        "patternFillType": 1,
        "patternTileScale": 1
      }
    ],
    "miterLimit": 10,
    "startMarkerType": 0,
    "windingRule": 1
  }
}