{
  "_class": "shapePath",
  "booleanOperation": -1,
  "clippingMaskMode": 0,
  "do_objectID": "0FA944B0-864B-4092-9737-49926750D996",
  "edited": true,
  "exportOptions": {
    "_class": "exportOptions",
    "do_objectID": "0280DEBB-3167-42D9-ACD8-281A7D37385E",
    "exportFormats": [
    ],
    "includedLayerIds": [
    ],
    "layerOptions": 0,
    "shouldTrim": false
  },
  "frame": {
    "_class": "rect",
    "constrainProportions": false,
    "do_objectID": "DBBE0CD5-E5ED-4E4D-9007-885E95203A6D",
    "height": 0.1058906030855544,
    "width": 0.1059863482545698,
    "x": 12.94980099568821,
    "y": 2.971409433904939
  },
  "hasClippingMask": false,
  "isClosed": true,
  "isFixedToViewport": false,
  "isFlippedHorizontal": false,
  "isFlippedVertical": false,
  "isLocked": false,
  "isVisible": true,
  "layerListExpandedType": 0,
  "name": "Path",
  "nameIsFixed": false,
  "pointRadiusBehaviour": 0,
  "points": [
    {
      "_class": "curvePoint",
      "cornerRadius": 0,
      "curveFrom": "{1.0550366486850749, 0.27594607810580385}",
      "curveMode": 3,
      "curveTo": "{0.40803664868505507, -0.12005392189421116}",
      "hasCurveFrom": true,
      "hasCurveTo": true,
      "point": "{0.63203664868507303, 0.01794607810576565}"
    },
    {
      "_class": "curvePoint",
      "cornerRadius": 0,
      "curveFrom": "{-0.28896335131494766, 0.57494607810578202}",
      "curveMode": 3,
      "curveTo": "{0.3620366486850628, 0.97294607810574973}",
      "hasCurveFrom": true,
      "hasCurveTo": true,
      "point": "{0.13303664868507781, 0.83394607810579657}"
    }
  ],
  "resizingConstraint": 63,
  "resizingType": 0,
  "rotation": 0,
  "shouldBreakMaskChain": false,
  "style": {
    "_class": "style",
    "do_objectID": "982F3A18-A6EA-40C0-9764-DEB1D8483F6F",
    "endMarkerType": 0,
    "fills": [
      {
        "_class": "fill",
        "color": {
          "_class": "color",
          "alpha": 1,
          "blue": 0.1764705882352941,
          "green": 0.1764705882352941,
          "red": 0.1764705882352941
        },
        "fillType": 0,
        "isEnabled": true,
        "noiseIndex": 0,
        "noiseIntensity": 0,
        "patternFillType": 1,
        "patternTileScale": 1
      }
    ],
    "miterLimit": 10,
    "startMarkerType": 0,
    "windingRule": 1
  }
}