{
  "_class": "shapePath",
  "booleanOperation": -1,
  "clippingMaskMode": 0,
  "do_objectID": "1B1385AE-2BF7-422F-9DF8-9E81F5282A69",
  "edited": true,
  "exportOptions": {
    "_class": "exportOptions",
    "do_objectID": "AD1DCFC0-A08B-4967-96AF-FD4DD30F0A1D",
    "exportFormats": [
    ],
    "includedLayerIds": [
    ],
    "layerOptions": 0,
    "shouldTrim": false
  },
  "frame": {
    "_class": "rect",
    "constrainProportions": false,
    "do_objectID": "FFE8393F-D709-4D5F-9A4D-5CFDD7AEB4D3",
    "height": 0.1058906030855979,
    "width": 0.1059863482545502,
    "x": 31.22098727511459,
    "y": 33.86765315435124
  },
  "hasClippingMask": false,
  "isClosed": true,
  "isFixedToViewport": false,
  "isFlippedHorizontal": false,
  "isFlippedVertical": false,
  "isLocked": false,
  "isVisible": true,
  "layerListExpandedType": 0,
  "name": "Path",
  "nameIsFixed": false,
  "pointRadiusBehaviour": 0,
  "points": [
    {
      "_class": "curvePoint",
      "cornerRadius": 0,
      "curveFrom": "{0.36228496024141371, 1.0729999999999791}",
      "curveMode": 4,
      "curveTo": "{0.86531544109951275, 0.60899999999998045}",
      "hasCurveFrom": true,
      "hasCurveTo": true,
      "point": "{0.59014672978371696, 0.72899999999998499}"
    },
    {
      "_class": "curvePoint",
      "cornerRadius": 0,
      "curveFrom": "{0.13205784361044703, 0.042999999999949523}",
      "curveMode": 3,
      "curveTo": "{-0.083977190488494349, 0.48399999999998045}",
      "hasCurveFrom": true,
      "hasCurveTo": true,
      "point": "{0.0137904891766935, 0.28399999999999181}"
    },
    {
      "_class": "curvePoint",
      "cornerRadius": 0,
      "curveFrom": "{1.1199844776468324, 0.47399999999998954}",
      "curveMode": 4,
      "curveTo": "{0.77622070075943905, 0.20899999999994634}",
      "hasCurveFrom": true,
      "hasCurveTo": true,
      "point": "{0.93942964987802158, 0}"
    }
  ],
  "resizingConstraint": 63,
  "resizingType": 0,
  "rotation": 0,
  "shouldBreakMaskChain": false,
  "style": {
    "_class": "style",
    "do_objectID": "CC6F0F10-EE28-47AB-8E07-CD6D74AE31AA",
    "endMarkerType": 0,
    "fills": [
      {
        "_class": "fill",
        "color": {
          "_class": "color",
          "alpha": 1,
          "blue": 0.1764705882352941,
          "green": 0.1764705882352941,
          "red": 0.1764705882352941
        },
        "fillType": 0,
        "isEnabled": true,
        "noiseIndex": 0,
        "noiseIntensity": 0,
        "patternFillType": 1,
        "patternTileScale": 1
      }
    ],
    "miterLimit": 10,
    "startMarkerType": 0,
    "windingRule": 1
  }
}