{
  "_class": "shapePath",
  "booleanOperation": -1,
  "clippingMaskMode": 0,
  "do_objectID": "262274EF-4205-4450-A3EC-F00DC6D29E9B",
  "edited": true,
  "exportOptions": {
    "_class": "exportOptions",
    "do_objectID": "60428085-9138-4B73-BB2F-51CD953D1FD8",
    "exportFormats": [
    ],
    "includedLayerIds": [
    ],
    "layerOptions": 0,
    "shouldTrim": false
  },
  "frame": {
    "_class": "rect",
    "constrainProportions": false,
    "do_objectID": "CFE5436A-446E-4F0D-8F37-B5A14AEF6CF3",
    "height": 0.1058906030855695,
    "width": 0.1059863482545431,
    "x": 18.47513030358051,
    "y": 20.25088382073043
  },
  "hasClippingMask": false,
  "isClosed": true,
  "isFixedToViewport": false,
  "isFlippedHorizontal": false,
  "isFlippedVertical": false,
  "isLocked": false,
  "isVisible": true,
  "layerListExpandedType": 0,
  "name": "Path",
  "nameIsFixed": false,
  "pointRadiusBehaviour": 0,
  "points": [
    {
      "_class": "curvePoint",
      "cornerRadius": 0,
      "curveFrom": "{1.0409358347295097, 0.18845833250074406}",
      "curveMode": 3,
      "curveTo": "{0.27893583472950922, -0.089541667499247524}",
      "hasCurveFrom": true,
      "hasCurveTo": true,
      "point": "{0.54293583472951923, 0.0074583325007608892}"
    },
    {
      "_class": "curvePoint",
      "cornerRadius": 0,
      "curveFrom": "{-0.30206416527047963, 0.78845833250073838}",
      "curveMode": 3,
      "curveTo": "{0.4609358347295256, 1.0644583325007488}",
      "hasCurveFrom": true,
      "hasCurveTo": true,
      "point": "{0.19393583472952969, 0.96645833250076407}"
    }
  ],
  "resizingConstraint": 63,
  "resizingType": 0,
  "rotation": 0,
  "shouldBreakMaskChain": false,
  "style": {
    "_class": "style",
    "do_objectID": "2312B065-D672-4C35-A22B-95C82F217000",
    "endMarkerType": 0,
    "fills": [
      {
        "_class": "fill",
        "color": {
          "_class": "color",
          "alpha": 1,
          "blue": 0.1764705882352941,
          "green": 0.1764705882352941,
          "red": 0.1764705882352941
        },
        "fillType": 0,
        "isEnabled": true,
        "noiseIndex": 0,
        "noiseIntensity": 0,
        "patternFillType": 1,
        "patternTileScale": 1
      }
    ],
    "miterLimit": 10,
    "startMarkerType": 0,
    "windingRule": 1
  }
}