{
  "_class": "shapePath",
  "booleanOperation": -1,
  "clippingMaskMode": 0,
  "do_objectID": "26E11B26-8F4E-4E26-AD97-13A0204CB42E",
  "edited": true,
  "exportOptions": {
    "_class": "exportOptions",
    "do_objectID": "5C3394E6-9A56-4CFF-AEED-029D9FCCD3C9",
    "exportFormats": [
    ],
    "includedLayerIds": [
    ],
    "layerOptions": 0,
    "shouldTrim": false
  },
  "frame": {
    "_class": "rect",
    "constrainProportions": false,
    "do_objectID": "3BE5865A-9476-4EE5-91DD-7D7856A57EF1",
    "height": 0.1058906030855624,
    "width": 0.105986348254568,
    "x": 32.10214096544348,
    "y": 11.91593185658254
  },
  "hasClippingMask": false,
  "isClosed": true,
  "isFixedToViewport": false,
  "isFlippedHorizontal": false,
  "isFlippedVertical": false,
  "isLocked": false,
  "isVisible": true,
  "layerListExpandedType": 0,
  "name": "Path",
  "nameIsFixed": false,
  "pointRadiusBehaviour": 0,
  "points": [
    {
      "_class": "curvePoint",
      "cornerRadius": 0,
      "curveFrom": "{0.94198916423800938, 0.24696099853355236}",
      "curveMode": 3,
      "curveTo": "{0.363989164237978, -0.10703900146643264}",
      "hasCurveFrom": true,
      "hasCurveTo": true,
      "point": "{0.56498916423799983, 0.015960998533557813}"
    },
    {
      "_class": "curvePoint",
      "cornerRadius": 0,
      "curveFrom": "{-0.2570108357620029, 0.51396099853354826}",
      "curveMode": 4,
      "curveTo": "{0.32098916423797164, 0.8669609985335569}",
      "hasCurveFrom": true,
      "hasCurveTo": true,
      "point": "{0.1179891642379971, 0.74496099853359965}"
    }
  ],
  "resizingConstraint": 63,
  "resizingType": 0,
  "rotation": 0,
  "shouldBreakMaskChain": false,
  "style": {
    "_class": "style",
    "do_objectID": "8C172D3D-2CDA-40C7-B4DD-565CD997BD61",
    "endMarkerType": 0,
    "fills": [
      {
        "_class": "fill",
        "color": {
          "_class": "color",
          "alpha": 1,
          "blue": 0.1764705882352941,
          "green": 0.1764705882352941,
          "red": 0.1764705882352941
        },
        "fillType": 0,
        "isEnabled": true,
        "noiseIndex": 0,
        "noiseIntensity": 0,
        "patternFillType": 1,
        "patternTileScale": 1
      }
    ],
    "miterLimit": 10,
    "startMarkerType": 0,
    "windingRule": 1
  }
}