{
  "_class": "shapePath",
  "booleanOperation": -1,
  "clippingMaskMode": 0,
  "do_objectID": "2C0FD046-E918-4420-8B11-F42BB490D2D9",
  "edited": true,
  "exportOptions": {
    "_class": "exportOptions",
    "do_objectID": "B727797A-F334-49CB-8CEB-7609A44F7D78",
    "exportFormats": [
    ],
    "includedLayerIds": [
    ],
    "layerOptions": 0,
    "shouldTrim": false
  },
  "frame": {
    "_class": "rect",
    "constrainProportions": false,
    "do_objectID": "83F064AC-1C00-465F-9612-35B114709A30",
    "height": 0.117997351468965,
    "width": 0.118185214596366,
    "x": 18.78998803986683,
    "y": 31.63811144535818
  },
  "hasClippingMask": false,
  "isClosed": true,
  "isFixedToViewport": false,
  "isFlippedHorizontal": false,
  "isFlippedVertical": false,
  "isLocked": false,
  "isVisible": true,
  "layerListExpandedType": 0,
  "name": "Path",
  "nameIsFixed": false,
  "pointRadiusBehaviour": 0,
  "points": [
    {
      "_class": "curvePoint",
      "cornerRadius": 0,
      "curveFrom": "{0.26854395604395198, 0.13058419243986241}",
      "curveMode": 4,
      "curveTo": "{0.06524725274725246, 0.46391752577320877}",
      "hasCurveFrom": true,
      "hasCurveTo": true,
      "point": "{0, 0.19518900343642262}"
    },
    {
      "_class": "curvePoint",
      "cornerRadius": 0,
      "curveFrom": "{0.87087912087910846, 0.26872852233678612}",
      "curveMode": 4,
      "curveTo": "{0.53571428571427104, 0.065292096219911666}",
      "hasCurveFrom": true,
      "hasCurveTo": true,
      "point": "{0.80563186813185605, 0}"
    },
    {
      "_class": "curvePoint",
      "cornerRadius": 0,
      "curveFrom": "{0.7307692307692315, 0.87079037800687953}",
      "curveMode": 4,
      "curveTo": "{0.935439560439564, 0.53470790378004929}",
      "hasCurveFrom": true,
      "hasCurveTo": true,
      "point": "{1, 0.80481099656357735}"
    },
    {
      "_class": "curvePoint",
      "cornerRadius": 0,
      "curveFrom": "{0.129120879120872, 0.73058419243986239}",
      "curveMode": 4,
      "curveTo": "{0.46359890109889296, 0.93470790378004931}",
      "hasCurveFrom": true,
      "hasCurveTo": true,
      "point": "{0.19505494505494092, 1}"
    }
  ],
  "resizingConstraint": 63,
  "resizingType": 0,
  "rotation": 0,
  "shouldBreakMaskChain": false,
  "style": {
    "_class": "style",
    "do_objectID": "5DA0C6D1-B5FE-43C2-92FB-4D7865617030",
    "endMarkerType": 0,
    "fills": [
      {
        "_class": "fill",
        "color": {
          "_class": "color",
          "alpha": 1,
          "blue": 0.1764705882352941,
          "green": 0.1764705882352941,
          "red": 0.1764705882352941
        },
        "fillType": 0,
        "isEnabled": true,
        "noiseIndex": 0,
        "noiseIntensity": 0,
        "patternFillType": 1,
        "patternTileScale": 1
      }
    ],
    "miterLimit": 10,
    "startMarkerType": 0,
    "windingRule": 1
  }
}