{
  "_class": "shapePath",
  "booleanOperation": -1,
  "clippingMaskMode": 0,
  "do_objectID": "30482C13-D418-4557-866F-916B4E4899B7",
  "edited": true,
  "exportOptions": {
    "_class": "exportOptions",
    "do_objectID": "4E1EF238-B440-4C58-8556-46AF2E697E5B",
    "exportFormats": [
    ],
    "includedLayerIds": [
    ],
    "layerOptions": 0,
    "shouldTrim": false
  },
  "frame": {
    "_class": "rect",
    "constrainProportions": false,
    "do_objectID": "72F3F959-F66E-455C-A6D7-D7E3813DE712",
    "height": 0.2272443456056372,
    "width": 0.5070757557619245,
    "x": 17.81033326310649,
    "y": 24.65217344241661
  },
  "hasClippingMask": false,
  "isClosed": true,
  "isFixedToViewport": false,
  "isFlippedHorizontal": false,
  "isFlippedVertical": false,
  "isLocked": false,
  "isVisible": true,
  "layerListExpandedType": 0,
  "name": "Path",
  "nameIsFixed": false,
  "pointRadiusBehaviour": 0,
  "points": [
    {
      "_class": "curvePoint",
      "cornerRadius": 0,
      "curveFrom": "{0.27149058569864454, 0.27661428381055142}",
      "curveMode": 4,
      "curveTo": "{0.12822167402394982, 0.14100176671534606}",
      "hasCurveFrom": true,
      "hasCurveTo": true,
      "point": "{0.13094298296078699, 0.35227179334787351}"
    },
    {
      "_class": "curvePoint",
      "cornerRadius": 0,
      "curveFrom": "{0.6223793615544414, 0.087470509967246146}",
      "curveMode": 3,
      "curveTo": "{0.41203818843650658, 0.20059989922825036}",
      "hasCurveFrom": true,
      "hasCurveTo": true,
      "point": "{0.5521055601855126, 0.12529926473590719}"
    },
    {
      "_class": "curvePoint",
      "cornerRadius": 0,
      "curveFrom": "{0.8688979358326907, -0.046357631903023902}",
      "curveMode": 3,
      "curveTo": "{0.69313339391222617, 0.048928005108586622}",
      "hasCurveFrom": true,
      "hasCurveTo": true,
      "point": "{0.76276688729601805, 0.011456125384924807}"
    },
    {
      "_class": "curvePoint",
      "cornerRadius": 0,
      "curveFrom": "{1.0110463085333972, 0.41543867631064846}",
      "curveMode": 4,
      "curveTo": "{0.90923733889640601, 0.13350739077062584}",
      "hasCurveFrom": true,
      "hasCurveTo": true,
      "point": "{0.99936068780462173, 0.13243676563564843}"
    },
    {
      "_class": "curvePoint",
      "cornerRadius": 0,
      "curveFrom": "{0.64607075700455829, 0.58602494781462244}",
      "curveMode": 4,
      "curveTo": "{0.86057393202589383, 0.477178059093467}",
      "hasCurveFrom": true,
      "hasCurveTo": true,
      "point": "{0.70882093954811243, 0.53784681674130819}"
    },
    {
      "_class": "curvePoint",
      "cornerRadius": 0,
      "curveFrom": "{0.52329170085428744, 0.88651373569399661}",
      "curveMode": 4,
      "curveTo": "{0.58780273035697117, 0.63955620456272233}",
      "hasCurveFrom": true,
      "hasCurveTo": true,
      "point": "{0.62846228741325705, 0.82977060354100496}"
    },
    {
      "_class": "curvePoint",
      "cornerRadius": 0,
      "curveFrom": "{0.30286567697042155, 0.85261060642020536}",
      "curveMode": 4,
      "curveTo": "{0.41828119129160307, 0.94325686784698815}",
      "hasCurveFrom": true,
      "hasCurveTo": true,
      "point": "{0.3124702967474966, 1}"
    },
    {
      "_class": "curvePoint",
      "cornerRadius": 0,
      "curveFrom": "{0.37281932434678416, 0.39616742388133896}",
      "curveMode": 4,
      "curveTo": "{0.29870367506702539, 0.71307246383013012}",
      "hasCurveFrom": true,
      "hasCurveTo": true,
      "point": "{0.39282894888235648, 0.70843308824530238}"
    },
    {
      "_class": "curvePoint",
      "cornerRadius": 0,
      "curveFrom": "{0.13750613980845419, 0.57246369610509784}",
      "curveMode": 4,
      "curveTo": "{0.24603834328939786, 0.65989808212700918}",
      "hasCurveFrom": true,
      "hasCurveTo": true,
      "point": "{0.15655530236631898, 0.58709557294957948}"
    },
    {
      "_class": "curvePoint",
      "cornerRadius": 0,
      "curveFrom": "{0.065151337487825089, 0.37297054595713935}",
      "curveMode": 4,
      "curveTo": "{0.14759099057438074, 0.37939429676692271}",
      "hasCurveFrom": true,
      "hasCurveTo": true,
      "point": "{0.13094298296078699, 0.35227179334787351}"
    },
    {
      "_class": "curvePoint",
      "cornerRadius": 0,
      "curveFrom": "{0.065631568476676574, 0.15242176815495639}",
      "curveMode": 4,
      "curveTo": "{0.0022410779479856979, 0.38403367235177072}",
      "hasCurveFrom": true,
      "hasCurveTo": true,
      "point": "{0, 0.17419114589915907}"
    }
  ],
  "resizingConstraint": 63,
  "resizingType": 0,
  "rotation": 0,
  "shouldBreakMaskChain": false,
  "style": {
    "_class": "style",
    "do_objectID": "81C04132-E681-41E0-813A-8A45C352D87A",
    "endMarkerType": 0,
    "fills": [
      {
        "_class": "fill",
        "color": {
          "_class": "color",
          "alpha": 1,
          "blue": 0.1764705882352941,
          "green": 0.1764705882352941,
          "red": 0.1764705882352941
        },
        "fillType": 0,
        "isEnabled": true,
        "noiseIndex": 0,
        "noiseIntensity": 0,
        "patternFillType": 1,
        "patternTileScale": 1
      }
    ],
    "miterLimit": 10,
    "startMarkerType": 0,
    "windingRule": 1
  }
}