{
  "_class": "shapePath",
  "booleanOperation": -1,
  "clippingMaskMode": 0,
  "do_objectID": "33841E38-EDF5-47D8-AFE2-73EEAA154F8C",
  "edited": true,
  "exportOptions": {
    "_class": "exportOptions",
    "do_objectID": "7809BD65-0C28-48DC-8120-10E213092A92",
    "exportFormats": [
    ],
    "includedLayerIds": [
    ],
    "layerOptions": 0,
    "shouldTrim": false
  },
  "frame": {
    "_class": "rect",
    "constrainProportions": false,
    "do_objectID": "81D422BC-B04F-40DF-A68E-3A81BF244329",
    "height": 0.1058906030855695,
    "width": 0.1059863482545609,
    "x": 30.61324244502406,
    "y": 19.05036638668971
  },
  "hasClippingMask": false,
  "isClosed": true,
  "isFixedToViewport": false,
  "isFlippedHorizontal": false,
  "isFlippedVertical": false,
  "isLocked": false,
  "isVisible": true,
  "layerListExpandedType": 0,
  "name": "Path",
  "nameIsFixed": false,
  "pointRadiusBehaviour": 0,
  "points": [
    {
      "_class": "curvePoint",
      "cornerRadius": 0,
      "curveFrom": "{-0.30230821314466993, 0.78378099003197121}",
      "curveMode": 4,
      "curveTo": "{0.45969178685533052, 1.0627809900319676}",
      "hasCurveFrom": true,
      "hasCurveTo": true,
      "point": "{0.19469178685534416, 0.96878099003197349}"
    },
    {
      "_class": "curvePoint",
      "cornerRadius": 0,
      "curveFrom": "{1.0436917868553337, 0.1867809900319628}",
      "curveMode": 4,
      "curveTo": "{0.27769178685537099, -0.091219009968028786}",
      "hasCurveFrom": true,
      "hasCurveTo": true,
      "point": "{0.5446917868553669, 0.0077809900319891767}"
    }
  ],
  "resizingConstraint": 63,
  "resizingType": 0,
  "rotation": 0,
  "shouldBreakMaskChain": false,
  "style": {
    "_class": "style",
    "do_objectID": "C5E2C554-BB11-48AC-B11C-C0067679EE57",
    "endMarkerType": 0,
    "fills": [
      {
        "_class": "fill",
        "color": {
          "_class": "color",
          "alpha": 1,
          "blue": 0.1764705882352941,
          "green": 0.1764705882352941,
          "red": 0.1764705882352941
        },
        "fillType": 0,
        "isEnabled": true,
        "noiseIndex": 0,
        "noiseIntensity": 0,
        "patternFillType": 1,
        "patternTileScale": 1
      }
    ],
    "miterLimit": 10,
    "startMarkerType": 0,
    "windingRule": 1
  }
}