{
  "_class": "shapePath",
  "booleanOperation": -1,
  "clippingMaskMode": 0,
  "do_objectID": "3DB8D636-24CB-4C0C-A259-0C14C792C391",
  "edited": true,
  "exportOptions": {
    "_class": "exportOptions",
    "do_objectID": "6C311750-3EAA-4204-A866-BEA211A5BB2E",
    "exportFormats": [
    ],
    "includedLayerIds": [
    ],
    "layerOptions": 0,
    "shouldTrim": false
  },
  "frame": {
    "_class": "rect",
    "constrainProportions": false,
    "do_objectID": "2CE6B34B-F219-4075-9752-C0315727DB0B",
    "height": 0.2306422457579043,
    "width": 0.2116943953758526,
    "x": 13.6494182319097,
    "y": 10.05140834476619
  },
  "hasClippingMask": false,
  "isClosed": true,
  "isFixedToViewport": false,
  "isFlippedHorizontal": false,
  "isFlippedVertical": false,
  "isLocked": false,
  "isVisible": true,
  "layerListExpandedType": 0,
  "name": "Path",
  "nameIsFixed": false,
  "pointRadiusBehaviour": 0,
  "points": [
    {
      "_class": "curvePoint",
      "cornerRadius": 0,
      "curveFrom": "{0.79064417177914437, 0.45499296765121033}",
      "curveMode": 4,
      "curveTo": "{0.93059815950919811, 0.27390998593530169}",
      "hasCurveFrom": true,
      "hasCurveTo": true,
      "point": "{1, 0.41104078762308088}"
    },
    {
      "_class": "curvePoint",
      "cornerRadius": 0,
      "curveFrom": "{0.65682515337422975, 0.80836849507736985}",
      "curveMode": 4,
      "curveTo": "{0.82975460122698763, 0.58157524613220812}",
      "hasCurveFrom": true,
      "hasCurveTo": true,
      "point": "{0.88113496932515267, 0.71237693389592638}"
    },
    {
      "_class": "curvePoint",
      "cornerRadius": 0,
      "curveFrom": "{0.13957055214724071, 0.86286919831224085}",
      "curveMode": 4,
      "curveTo": "{0.43328220858895461, 0.90365682137835979}",
      "hasCurveFrom": true,
      "hasCurveTo": true,
      "point": "{0.20897239263803169, 1}"
    },
    {
      "_class": "curvePoint",
      "cornerRadius": 0,
      "curveFrom": "{0.072852760736195329, 0.55379746835444754}",
      "curveMode": 4,
      "curveTo": "{0.069401840490801878, 0.72573839662448159}",
      "hasCurveFrom": true,
      "hasCurveTo": true,
      "point": "{0, 0.59001406469760931}"
    },
    {
      "_class": "curvePoint",
      "cornerRadius": 0,
      "curveFrom": "{0.40682515337423519, 0.40365682137834985}",
      "curveMode": 4,
      "curveTo": "{0.15184049079754064, 0.52883263009846071}",
      "hasCurveFrom": true,
      "hasCurveTo": true,
      "point": "{0.22392638036809903, 0.49437412095640254}"
    },
    {
      "_class": "curvePoint",
      "cornerRadius": 0,
      "curveFrom": "{0.49194785276073044, 0.12798874824192458}",
      "curveMode": 4,
      "curveTo": "{0.41411042944784598, 0.35794655414909676}",
      "hasCurveFrom": true,
      "hasCurveTo": true,
      "point": "{0.34279141104294636, 0.19233473980310359}"
    },
    {
      "_class": "curvePoint",
      "cornerRadius": 0,
      "curveFrom": "{0.86042944785275932, 0.13677918424754248}",
      "curveMode": 4,
      "curveTo": "{0.64187116564417335, 0.064345991561198995}",
      "hasCurveFrom": true,
      "hasCurveTo": true,
      "point": "{0.79141104294478137, 0}"
    }
  ],
  "resizingConstraint": 63,
  "resizingType": 0,
  "rotation": 0,
  "shouldBreakMaskChain": false,
  "style": {
    "_class": "style",
    "do_objectID": "0C142048-1604-4962-ABDE-336EE63F1D4D",
    "endMarkerType": 0,
    "fills": [
      {
        "_class": "fill",
        "color": {
          "_class": "color",
          "alpha": 1,
          "blue": 0.1764705882352941,
          "green": 0.1764705882352941,
          "red": 0.1764705882352941
        },
        "fillType": 0,
        "isEnabled": true,
        "noiseIndex": 0,
        "noiseIntensity": 0,
        "patternFillType": 1,
        "patternTileScale": 1
      }
    ],
    "miterLimit": 10,
    "startMarkerType": 0,
    "windingRule": 1
  }
}