{
  "_class": "shapePath",
  "booleanOperation": -1,
  "clippingMaskMode": 0,
  "do_objectID": "45EA5D0B-2500-49D4-9255-8D841B3D06F4",
  "edited": true,
  "exportOptions": {
    "_class": "exportOptions",
    "do_objectID": "DE642DF6-DC52-418C-89F7-D9D71A9D38A0",
    "exportFormats": [
    ],
    "includedLayerIds": [
    ],
    "layerOptions": 0,
    "shouldTrim": false
  },
  "frame": {
    "_class": "rect",
    "constrainProportions": false,
    "do_objectID": "3C45BA96-ACE6-4D7B-AE37-3F0DA8AC069D",
    "height": 0.1058906030855553,
    "width": 0.1059863482545538,
    "x": 39.05241232021321,
    "y": 10.77258436131762
  },
  "hasClippingMask": false,
  "isClosed": true,
  "isFixedToViewport": false,
  "isFlippedHorizontal": false,
  "isFlippedVertical": false,
  "isLocked": false,
  "isVisible": true,
  "layerListExpandedType": 0,
  "name": "Path",
  "nameIsFixed": false,
  "pointRadiusBehaviour": 0,
  "points": [
    {
      "_class": "curvePoint",
      "cornerRadius": 0,
      "curveFrom": "{1.0411068377232482, 0.18733341876514942}",
      "curveMode": 3,
      "curveTo": "{0.27810683772321454, -0.088666581234861042}",
      "hasCurveFrom": true,
      "hasCurveTo": true,
      "point": "{0.54310683772325774, 0.0073334187651425964}"
    },
    {
      "_class": "curvePoint",
      "cornerRadius": 0,
      "curveFrom": "{-0.30189316227676954, 0.78633341876513896}",
      "curveMode": 4,
      "curveTo": "{0.46010683772323091, 1.0623334187651494}",
      "hasCurveFrom": true,
      "hasCurveTo": true,
      "point": "{0.19410683772321136, 0.96833341876515533}"
    }
  ],
  "resizingConstraint": 63,
  "resizingType": 0,
  "rotation": 0,
  "shouldBreakMaskChain": false,
  "style": {
    "_class": "style",
    "do_objectID": "525769FE-E4CC-4813-89C6-2A454885BB11",
    "endMarkerType": 0,
    "fills": [
      {
        "_class": "fill",
        "color": {
          "_class": "color",
          "alpha": 1,
          "blue": 0.1764705882352941,
          "green": 0.1764705882352941,
          "red": 0.1764705882352941
        },
        "fillType": 0,
        "isEnabled": true,
        "noiseIndex": 0,
        "noiseIntensity": 0,
        "patternFillType": 1,
        "patternTileScale": 1
      }
    ],
    "miterLimit": 10,
    "startMarkerType": 0,
    "windingRule": 1
  }
}