{
  "_class": "shapePath",
  "booleanOperation": -1,
  "clippingMaskMode": 0,
  "do_objectID": "479CBEDD-F3E6-4DA2-8ADA-7D8DBD3DC394",
  "edited": true,
  "exportOptions": {
    "_class": "exportOptions",
    "do_objectID": "E17BDE16-0DC8-4564-AAA4-39C50E8CBA1E",
    "exportFormats": [
    ],
    "includedLayerIds": [
    ],
    "layerOptions": 0,
    "shouldTrim": false
  },
  "frame": {
    "_class": "rect",
    "constrainProportions": false,
    "do_objectID": "BE1E0BF9-6FFE-462B-909F-CAF4B9689DA9",
    "height": 0.1058906030855553,
    "width": 0.1059863482545573,
    "x": 24.01564590131303,
    "y": 20.97036087277447
  },
  "hasClippingMask": false,
  "isClosed": true,
  "isFixedToViewport": false,
  "isFlippedHorizontal": false,
  "isFlippedVertical": false,
  "isLocked": false,
  "isVisible": true,
  "layerListExpandedType": 0,
  "name": "Path",
  "nameIsFixed": false,
  "pointRadiusBehaviour": 0,
  "points": [
    {
      "_class": "curvePoint",
      "cornerRadius": 0,
      "curveFrom": "{-0.25725469330632222, 0.51374131773940235}",
      "curveMode": 3,
      "curveTo": "{0.32274530669366186, 0.86774131773938734}",
      "hasCurveFrom": true,
      "hasCurveTo": true,
      "point": "{0.11874530669365413, 0.74374131773942054}"
    },
    {
      "_class": "curvePoint",
      "cornerRadius": 0,
      "curveFrom": "{0.94074530669365686, 0.24374131773942054}",
      "curveMode": 3,
      "curveTo": "{0.36174530669364913, -0.1062586822606022}",
      "hasCurveFrom": true,
      "hasCurveTo": true,
      "point": "{0.56574530669365686, 0.015741317739411897}"
    }
  ],
  "resizingConstraint": 63,
  "resizingType": 0,
  "rotation": 0,
  "shouldBreakMaskChain": false,
  "style": {
    "_class": "style",
    "do_objectID": "6EBEA599-649C-41D0-999B-89D2D5CED4D5",
    "endMarkerType": 0,
    "fills": [
      {
        "_class": "fill",
        "color": {
          "_class": "color",
          "alpha": 1,
          "blue": 0.1764705882352941,
          "green": 0.1764705882352941,
          "red": 0.1764705882352941
        },
        "fillType": 0,
        "isEnabled": true,
        "noiseIndex": 0,
        "noiseIntensity": 0,
        "patternFillType": 1,
        "patternTileScale": 1
      }
    ],
    "miterLimit": 10,
    "startMarkerType": 0,
    "windingRule": 1
  }
}