{
  "_class": "shapePath",
  "booleanOperation": -1,
  "clippingMaskMode": 0,
  "do_objectID": "54729E97-62C1-461E-8778-244CD6EDFC6E",
  "edited": true,
  "exportOptions": {
    "_class": "exportOptions",
    "do_objectID": "5832909C-C31F-459C-9BF3-AE517C0B864B",
    "exportFormats": [
    ],
    "includedLayerIds": [
    ],
    "layerOptions": 0,
    "shouldTrim": false
  },
  "frame": {
    "_class": "rect",
    "constrainProportions": false,
    "do_objectID": "F2921C59-F974-4CCE-A4C6-1E8655B50469",
    "height": 0.105890603085566,
    "width": 0.1059863482545644,
    "x": 24.05445340603959,
    "y": 25.29068927595925
  },
  "hasClippingMask": false,
  "isClosed": true,
  "isFixedToViewport": false,
  "isFlippedHorizontal": false,
  "isFlippedVertical": false,
  "isLocked": false,
  "isVisible": true,
  "layerListExpandedType": 0,
  "name": "Path",
  "nameIsFixed": false,
  "pointRadiusBehaviour": 0,
  "points": [
    {
      "_class": "curvePoint",
      "cornerRadius": 0,
      "curveFrom": "{0.9416505883747277, 0.24569960640025101}",
      "curveMode": 3,
      "curveTo": "{0.36265058837471997, -0.10630039359972443}",
      "hasCurveFrom": true,
      "hasCurveTo": true,
      "point": "{0.5636505883747418, 0.015699606400289667}"
    },
    {
      "_class": "curvePoint",
      "cornerRadius": 0,
      "curveFrom": "{-0.25734941162528457, 0.51569960640028967}",
      "curveMode": 4,
      "curveTo": "{0.31965058837477045, 0.86869960640024146}",
      "hasCurveFrom": true,
      "hasCurveTo": true,
      "point": "{0.11865058837474862, 0.74269960640026511}"
    }
  ],
  "resizingConstraint": 63,
  "resizingType": 0,
  "rotation": 0,
  "shouldBreakMaskChain": false,
  "style": {
    "_class": "style",
    "do_objectID": "C1A8417F-CAF7-47F6-93EF-733EE39881E3",
    "endMarkerType": 0,
    "fills": [
      {
        "_class": "fill",
        "color": {
          "_class": "color",
          "alpha": 1,
          "blue": 0.1764705882352941,
          "green": 0.1764705882352941,
          "red": 0.1764705882352941
        },
        "fillType": 0,
        "isEnabled": true,
        "noiseIndex": 0,
        "noiseIntensity": 0,
        "patternFillType": 1,
        "patternTileScale": 1
      }
    ],
    "miterLimit": 10,
    "startMarkerType": 0,
    "windingRule": 1
  }
}