{
  "_class": "shapePath",
  "booleanOperation": -1,
  "clippingMaskMode": 0,
  "do_objectID": "5A82AD6E-52A3-41C2-95EF-185E16968C74",
  "edited": true,
  "exportOptions": {
    "_class": "exportOptions",
    "do_objectID": "73ABDACA-2A2B-414A-8750-AF7EF501834B",
    "exportFormats": [
    ],
    "includedLayerIds": [
    ],
    "layerOptions": 0,
    "shouldTrim": false
  },
  "frame": {
    "_class": "rect",
    "constrainProportions": false,
    "do_objectID": "DE526ADB-A0AC-45E5-A76C-1D98C62D003A",
    "height": 0.1058906030855606,
    "width": 0.1059863482545484,
    "x": 13.09251864574899,
    "y": 15.93137290004948
  },
  "hasClippingMask": false,
  "isClosed": true,
  "isFixedToViewport": false,
  "isFlippedHorizontal": false,
  "isFlippedVertical": false,
  "isLocked": false,
  "isVisible": true,
  "layerListExpandedType": 0,
  "name": "Path",
  "nameIsFixed": false,
  "pointRadiusBehaviour": 0,
  "points": [
    {
      "_class": "curvePoint",
      "cornerRadius": 0,
      "curveFrom": "{-0.28919427045508428, 0.5784198426466105}",
      "curveMode": 3,
      "curveTo": "{0.35980572954491663, 0.97241984264661596}",
      "hasCurveFrom": true,
      "hasCurveTo": true,
      "point": "{0.13380572954491754, 0.83541984264661551}"
    },
    {
      "_class": "curvePoint",
      "cornerRadius": 0,
      "curveFrom": "{1.0528057295449287, 0.27641984264658959}",
      "curveMode": 3,
      "curveTo": "{0.4058057295449089, -0.11858015735339222}",
      "hasCurveFrom": true,
      "hasCurveTo": true,
      "point": "{0.63180572954490799, 0.017419842646631878}"
    }
  ],
  "resizingConstraint": 63,
  "resizingType": 0,
  "rotation": 0,
  "shouldBreakMaskChain": false,
  "style": {
    "_class": "style",
    "do_objectID": "49143755-135B-4838-B31C-3330FBF88C6A",
    "endMarkerType": 0,
    "fills": [
      {
        "_class": "fill",
        "color": {
          "_class": "color",
          "alpha": 1,
          "blue": 0.1764705882352941,
          "green": 0.1764705882352941,
          "red": 0.1764705882352941
        },
        "fillType": 0,
        "isEnabled": true,
        "noiseIndex": 0,
        "noiseIntensity": 0,
        "patternFillType": 1,
        "patternTileScale": 1
      }
    ],
    "miterLimit": 10,
    "startMarkerType": 0,
    "windingRule": 1
  }
}