{
  "_class": "shapePath",
  "booleanOperation": -1,
  "clippingMaskMode": 0,
  "do_objectID": "5D563D63-8AEC-4F93-920D-4BE4B89FE3AB",
  "edited": true,
  "exportOptions": {
    "_class": "exportOptions",
    "do_objectID": "E1B7C80D-5CD8-496D-BD9C-6FA290E6270B",
    "exportFormats": [
    ],
    "includedLayerIds": [
    ],
    "layerOptions": 0,
    "shouldTrim": false
  },
  "frame": {
    "_class": "rect",
    "constrainProportions": false,
    "do_objectID": "AB613BDE-5D75-437A-9B9F-03D5FEADBBC5",
    "height": 0.105890603085566,
    "width": 0.1059863482545786,
    "x": 27.13137543591214,
    "y": 31.56344390732841
  },
  "hasClippingMask": false,
  "isClosed": true,
  "isFixedToViewport": false,
  "isFlippedHorizontal": false,
  "isFlippedVertical": false,
  "isLocked": false,
  "isVisible": true,
  "layerListExpandedType": 0,
  "name": "Path",
  "nameIsFixed": false,
  "pointRadiusBehaviour": 0,
  "points": [
    {
      "_class": "curvePoint",
      "cornerRadius": 0,
      "curveFrom": "{0.92606057374223383, 0.16570937593809276}",
      "curveMode": 4,
      "curveTo": "{0.24806057374223656, -0.080290624061944982}",
      "hasCurveFrom": true,
      "hasCurveTo": true,
      "point": "{0.482060573742217, 0.0067093759380441043}"
    },
    {
      "_class": "curvePoint",
      "cornerRadius": 0,
      "curveFrom": "{-0.26993942625779255, 0.70470937593808003}",
      "curveMode": 4,
      "curveTo": "{0.40906057374223792, 0.94770937593807503}",
      "hasCurveFrom": true,
      "hasCurveTo": true,
      "point": "{0.17406057374222428, 0.86170937593806229}"
    }
  ],
  "resizingConstraint": 63,
  "resizingType": 0,
  "rotation": 0,
  "shouldBreakMaskChain": false,
  "style": {
    "_class": "style",
    "do_objectID": "54DF4469-40EB-4EE9-A47F-E83E44ADF4B7",
    "endMarkerType": 0,
    "fills": [
      {
        "_class": "fill",
        "color": {
          "_class": "color",
          "alpha": 1,
          "blue": 0.1764705882352941,
          "green": 0.1764705882352941,
          "red": 0.1764705882352941
        },
        "fillType": 0,
        "isEnabled": true,
        "noiseIndex": 0,
        "noiseIntensity": 0,
        "patternFillType": 1,
        "patternTileScale": 1
      }
    ],
    "miterLimit": 10,
    "startMarkerType": 0,
    "windingRule": 1
  }
}