{
  "_class": "shapePath",
  "booleanOperation": -1,
  "clippingMaskMode": 0,
  "do_objectID": "614B2BEC-975E-485D-802A-5BAEC50D78AC",
  "edited": true,
  "exportOptions": {
    "_class": "exportOptions",
    "do_objectID": "DD3184AE-1D6D-4038-B66D-8D88541CA147",
    "exportFormats": [
    ],
    "includedLayerIds": [
    ],
    "layerOptions": 0,
    "shouldTrim": false
  },
  "frame": {
    "_class": "rect",
    "constrainProportions": false,
    "do_objectID": "0F7ADFD7-DD9D-4F8A-96E3-E5E766DF38B5",
    "height": 0.1058906030855553,
    "width": 0.1059863482545538,
    "x": 26.38713790225871,
    "y": 20.95864845584741
  },
  "hasClippingMask": false,
  "isClosed": true,
  "isFixedToViewport": false,
  "isFlippedHorizontal": false,
  "isFlippedVertical": false,
  "isLocked": false,
  "isVisible": true,
  "layerListExpandedType": 0,
  "name": "Path",
  "nameIsFixed": false,
  "pointRadiusBehaviour": 0,
  "points": [
    {
      "_class": "curvePoint",
      "cornerRadius": 0,
      "curveFrom": "{-0.30319651116019486, 0.79016461552254214}",
      "curveMode": 3,
      "curveTo": "{0.46280348883982469, 1.0651646155225194}",
      "hasCurveFrom": true,
      "hasCurveTo": true,
      "point": "{0.19580348883982879, 0.96816461552253941}"
    },
    {
      "_class": "curvePoint",
      "cornerRadius": 0,
      "curveFrom": "{1.0398034888398229, 0.1871646155225335}",
      "curveMode": 3,
      "curveTo": "{0.27780348883982242, -0.087835384477443768}",
      "hasCurveFrom": true,
      "hasCurveTo": true,
      "point": "{0.54280348883980878, 0.0071646155225266739}"
    }
  ],
  "resizingConstraint": 63,
  "resizingType": 0,
  "rotation": 0,
  "shouldBreakMaskChain": false,
  "style": {
    "_class": "style",
    "do_objectID": "AA52984E-1466-42C0-8782-522131887124",
    "endMarkerType": 0,
    "fills": [
      {
        "_class": "fill",
        "color": {
          "_class": "color",
          "alpha": 1,
          "blue": 0.1764705882352941,
          "green": 0.1764705882352941,
          "red": 0.1764705882352941
        },
        "fillType": 0,
        "isEnabled": true,
        "noiseIndex": 0,
        "noiseIntensity": 0,
        "patternFillType": 1,
        "patternTileScale": 1
      }
    ],
    "miterLimit": 10,
    "startMarkerType": 0,
    "windingRule": 1
  }
}