{
  "_class": "shapePath",
  "booleanOperation": -1,
  "clippingMaskMode": 0,
  "do_objectID": "643BA603-B716-438B-B3B1-CB12C44EADA9",
  "edited": true,
  "exportOptions": {
    "_class": "exportOptions",
    "do_objectID": "DDB1411C-8CB9-4131-8448-27E89237F755",
    "exportFormats": [
    ],
    "includedLayerIds": [
    ],
    "layerOptions": 0,
    "shouldTrim": false
  },
  "frame": {
    "_class": "rect",
    "constrainProportions": false,
    "do_objectID": "F6988CAA-F2B9-4F49-B6B3-E30E199A2974",
    "height": 0.1058906030855553,
    "width": 0.1059863482545467,
    "x": 21.59249593311361,
    "y": 21.57389166551252
  },
  "hasClippingMask": false,
  "isClosed": true,
  "isFixedToViewport": false,
  "isFlippedHorizontal": false,
  "isFlippedVertical": false,
  "isLocked": false,
  "isVisible": true,
  "layerListExpandedType": 0,
  "name": "Path",
  "nameIsFixed": false,
  "pointRadiusBehaviour": 0,
  "points": [
    {
      "_class": "curvePoint",
      "cornerRadius": 0,
      "curveFrom": "{0.92509499145614882, 0.16473272600546807}",
      "curveMode": 3,
      "curveTo": "{0.245094991456142, -0.080267273994536481}",
      "hasCurveFrom": true,
      "hasCurveTo": true,
      "point": "{0.4840949914561179, 0.006732726005452605}"
    },
    {
      "_class": "curvePoint",
      "cornerRadius": 0,
      "curveFrom": "{-0.26890500854386801, 0.70173272600544578}",
      "curveMode": 3,
      "curveTo": "{0.40809499145615291, 0.94773272600548353}",
      "hasCurveFrom": true,
      "hasCurveTo": true,
      "point": "{0.17409499145611562, 0.86173272600547079}"
    }
  ],
  "resizingConstraint": 63,
  "resizingType": 0,
  "rotation": 0,
  "shouldBreakMaskChain": false,
  "style": {
    "_class": "style",
    "do_objectID": "3D318B3F-F417-4B4C-B655-0AE210E49B03",
    "endMarkerType": 0,
    "fills": [
      {
        "_class": "fill",
        "color": {
          "_class": "color",
          "alpha": 1,
          "blue": 0.1764705882352941,
          "green": 0.1764705882352941,
          "red": 0.1764705882352941
        },
        "fillType": 0,
        "isEnabled": true,
        "noiseIndex": 0,
        "noiseIntensity": 0,
        "patternFillType": 1,
        "patternTileScale": 1
      }
    ],
    "miterLimit": 10,
    "startMarkerType": 0,
    "windingRule": 1
  }
}