{
  "_class": "shapePath",
  "booleanOperation": -1,
  "clippingMaskMode": 0,
  "do_objectID": "71A81572-EA30-4A9E-9A23-0C15EFA90AB0",
  "edited": true,
  "exportOptions": {
    "_class": "exportOptions",
    "do_objectID": "80FDA3EB-47F9-427A-8292-9D7B87D837EF",
    "exportFormats": [
    ],
    "includedLayerIds": [
    ],
    "layerOptions": 0,
    "shouldTrim": false
  },
  "frame": {
    "_class": "rect",
    "constrainProportions": false,
    "do_objectID": "0F333A23-549B-4AAF-81C3-B3B982B02616",
    "height": 0.1067442211830727,
    "width": 0.1183647488491602,
    "x": 40.23280032488466,
    "y": 15.00632393243012
  },
  "hasClippingMask": false,
  "isClosed": true,
  "isFixedToViewport": false,
  "isFlippedHorizontal": false,
  "isFlippedVertical": false,
  "isLocked": false,
  "isVisible": true,
  "layerListExpandedType": 0,
  "name": "Path",
  "nameIsFixed": false,
  "pointRadiusBehaviour": 0,
  "points": [
    {
      "_class": "curvePoint",
      "cornerRadius": 0,
      "curveFrom": "{0.30595318220268253, 0.0015194796526256547}",
      "curveMode": 4,
      "curveTo": "{0.058389693559502791, 0.070655803846769047}",
      "hasCurveFrom": true,
      "hasCurveTo": true,
      "point": "{0.31075358225947902, 0}"
    },
    {
      "_class": "curvePoint",
      "cornerRadius": 0,
      "curveFrom": "{1.1329935348444367, 0.57664252816869366}",
      "curveMode": 4,
      "curveTo": "{0.71261564415669898, 0.65717494975746471}",
      "hasCurveFrom": true,
      "hasCurveTo": true,
      "point": "{0.89914547493497787, 0.23779856563477053}"
    },
    {
      "_class": "curvePoint",
      "cornerRadius": 0,
      "curveFrom": "{0.37933072592792838, 1.1464473979005934}",
      "curveMode": 4,
      "curveTo": "{0.91766130372545651, 0.73618789169360999}",
      "hasCurveFrom": true,
      "hasCurveTo": true,
      "point": "{0.68449901525262735, 0.88889559678177577}"
    },
    {
      "_class": "curvePoint",
      "cornerRadius": 0,
      "curveFrom": "{-0.11991087997855907, 0.37683095384939175}",
      "curveMode": 4,
      "curveTo": "{0.23394718135077366, 0.90940857209211412}",
      "hasCurveFrom": true,
      "hasCurveTo": true,
      "point": "{0.098164436887211992, 0.6526165107996309}"
    }
  ],
  "resizingConstraint": 63,
  "resizingType": 0,
  "rotation": 0,
  "shouldBreakMaskChain": false,
  "style": {
    "_class": "style",
    "do_objectID": "60155B6E-2ABB-49EE-8FDB-1FDF62D5A6A2",
    "endMarkerType": 0,
    "fills": [
      {
        "_class": "fill",
        "color": {
          "_class": "color",
          "alpha": 1,
          "blue": 0.1764705882352941,
          "green": 0.1764705882352941,
          "red": 0.1764705882352941
        },
        "fillType": 0,
        "isEnabled": true,
        "noiseIndex": 0,
        "noiseIntensity": 0,
        "patternFillType": 1,
        "patternTileScale": 1
      }
    ],
    "miterLimit": 10,
    "startMarkerType": 0,
    "windingRule": 1
  }
}