{
  "_class": "shapePath",
  "booleanOperation": -1,
  "clippingMaskMode": 0,
  "do_objectID": "75517353-51EA-4036-9D49-A0423E90A0AE",
  "edited": true,
  "exportOptions": {
    "_class": "exportOptions",
    "do_objectID": "051B5FA0-1931-4342-8F91-3DE10D0B831A",
    "exportFormats": [
    ],
    "includedLayerIds": [
    ],
    "layerOptions": 0,
    "shouldTrim": false
  },
  "frame": {
    "_class": "rect",
    "constrainProportions": false,
    "do_objectID": "E9EED854-A67F-487F-940D-5F82D5C0567B",
    "height": 0.1058906030855553,
    "width": 0.10598634825456,
    "x": 3.796635543247878,
    "y": 20.04372752785276
  },
  "hasClippingMask": false,
  "isClosed": true,
  "isFixedToViewport": false,
  "isFlippedHorizontal": false,
  "isFlippedVertical": false,
  "isLocked": false,
  "isVisible": true,
  "layerListExpandedType": 0,
  "name": "Path",
  "nameIsFixed": false,
  "pointRadiusBehaviour": 0,
  "points": [
    {
      "_class": "curvePoint",
      "cornerRadius": 0,
      "curveFrom": "{1.0547943172939043, 0.27885809134920692}",
      "curveMode": 3,
      "curveTo": "{0.40579431729390336, -0.12014190865079399}",
      "hasCurveFrom": true,
      "hasCurveTo": true,
      "point": "{0.63279431729390012, 0.017858091349211236}"
    },
    {
      "_class": "curvePoint",
      "cornerRadius": 0,
      "curveFrom": "{-0.28920568270609692, 0.57885809134921828}",
      "curveMode": 3,
      "curveTo": "{0.35979431729390399, 0.97185809134921897}",
      "hasCurveFrom": true,
      "hasCurveTo": true,
      "point": "{0.1337943172939049, 0.83685809134919964}"
    }
  ],
  "resizingConstraint": 63,
  "resizingType": 0,
  "rotation": 0,
  "shouldBreakMaskChain": false,
  "style": {
    "_class": "style",
    "do_objectID": "3B262ADD-C4A2-4D00-98D9-DF19735B330A",
    "endMarkerType": 0,
    "fills": [
      {
        "_class": "fill",
        "color": {
          "_class": "color",
          "alpha": 1,
          "blue": 0.1764705882352941,
          "green": 0.1764705882352941,
          "red": 0.1764705882352941
        },
        "fillType": 0,
        "isEnabled": true,
        "noiseIndex": 0,
        "noiseIntensity": 0,
        "patternFillType": 1,
        "patternTileScale": 1
      }
    ],
    "miterLimit": 10,
    "startMarkerType": 0,
    "windingRule": 1
  }
}