{
  "_class": "shapePath",
  "booleanOperation": -1,
  "clippingMaskMode": 0,
  "do_objectID": "7B70E2EB-2144-4023-9416-CDA903FDEBEA",
  "edited": true,
  "exportOptions": {
    "_class": "exportOptions",
    "do_objectID": "782870B2-FD52-4D6A-A979-50E758C2F7A2",
    "exportFormats": [
    ],
    "includedLayerIds": [
    ],
    "layerOptions": 0,
    "shouldTrim": false
  },
  "frame": {
    "_class": "rect",
    "constrainProportions": false,
    "do_objectID": "5A0D7325-CB06-468B-B56C-8D8E04896023",
    "height": 0.1058906030855553,
    "width": 0.1153826988904747,
    "x": 20.01820265825538,
    "y": 7.408105476189198
  },
  "hasClippingMask": false,
  "isClosed": true,
  "isFixedToViewport": false,
  "isFlippedHorizontal": false,
  "isFlippedVertical": false,
  "isLocked": false,
  "isVisible": true,
  "layerListExpandedType": 0,
  "name": "Path",
  "nameIsFixed": false,
  "pointRadiusBehaviour": 0,
  "points": [
    {
      "_class": "curvePoint",
      "cornerRadius": 0,
      "curveFrom": "{0.13002753103856529, 0.047000000000025466}",
      "curveMode": 3,
      "curveTo": "{-0.084538475986367087, 0.54200000000003001}",
      "hasCurveFrom": true,
      "hasCurveTo": true,
      "point": "{0.013950838713599254, 0.31800000000004047}"
    },
    {
      "_class": "curvePoint",
      "cornerRadius": 0,
      "curveFrom": "{1.1205486388783343, 0.52899999999999636}",
      "curveMode": 4,
      "curveTo": "{0.77653953253341523, 0.23300000000000409}",
      "hasCurveFrom": true,
      "hasCurveTo": true,
      "point": "{0.93975039689337492, 0}"
    },
    {
      "_class": "curvePoint",
      "cornerRadius": 0,
      "curveFrom": "{0.36288441079352057, 1.1999999999999886}",
      "curveMode": 4,
      "curveTo": "{0.86236593534340422, 0.68299999999999272}",
      "hasCurveFrom": true,
      "hasCurveTo": true,
      "point": "{0.58940983460346719, 0.81700000000000728}"
    }
  ],
  "resizingConstraint": 63,
  "resizingType": 0,
  "rotation": 0,
  "shouldBreakMaskChain": false,
  "style": {
    "_class": "style",
    "do_objectID": "BCE8DD78-2E2F-49AD-873E-2962A0BC107E",
    "endMarkerType": 0,
    "fills": [
      {
        "_class": "fill",
        "color": {
          "_class": "color",
          "alpha": 1,
          "blue": 0.1764705882352941,
          "green": 0.1764705882352941,
          "red": 0.1764705882352941
        },
        "fillType": 0,
        "isEnabled": true,
        "noiseIndex": 0,
        "noiseIntensity": 0,
        "patternFillType": 1,
        "patternTileScale": 1
      }
    ],
    "miterLimit": 10,
    "startMarkerType": 0,
    "windingRule": 1
  }
}