{
  "_class": "shapePath",
  "booleanOperation": -1,
  "clippingMaskMode": 0,
  "do_objectID": "7CCCF9A9-47A7-4E98-B309-0FE23F901282",
  "edited": true,
  "exportOptions": {
    "_class": "exportOptions",
    "do_objectID": "2D6934E2-A2EF-4749-8F68-38BEDE7E1F17",
    "exportFormats": [
    ],
    "includedLayerIds": [
    ],
    "layerOptions": 0,
    "shouldTrim": false
  },
  "frame": {
    "_class": "rect",
    "constrainProportions": false,
    "do_objectID": "DB260C5C-2F55-4E68-B9D9-3AAB63B3C908",
    "height": 0.1058906030855571,
    "width": 0.1059863482545396,
    "x": 26.62512601092712,
    "y": 8.860307869490402
  },
  "hasClippingMask": false,
  "isClosed": true,
  "isFixedToViewport": false,
  "isFlippedHorizontal": false,
  "isFlippedVertical": false,
  "isLocked": false,
  "isVisible": true,
  "layerListExpandedType": 0,
  "name": "Path",
  "nameIsFixed": false,
  "pointRadiusBehaviour": 0,
  "points": [
    {
      "_class": "curvePoint",
      "cornerRadius": 0,
      "curveFrom": "{0.93887425044300699, 0.24520416137529821}",
      "curveMode": 3,
      "curveTo": "{0.36087425044297561, -0.10779583862471043}",
      "hasCurveFrom": true,
      "hasCurveTo": true,
      "point": "{0.56487425044298334, 0.016204161375256376}"
    },
    {
      "_class": "curvePoint",
      "cornerRadius": 0,
      "curveFrom": "{-0.25712574955701939, 0.51320416137527047}",
      "curveMode": 4,
      "curveTo": "{0.32087425044301199, 0.86620416137527911}",
      "hasCurveFrom": true,
      "hasCurveTo": true,
      "point": "{0.11887425044301381, 0.74520416137529821}"
    }
  ],
  "resizingConstraint": 63,
  "resizingType": 0,
  "rotation": 0,
  "shouldBreakMaskChain": false,
  "style": {
    "_class": "style",
    "do_objectID": "D0C4C27A-8013-4FB7-9026-FF8F8A227479",
    "endMarkerType": 0,
    "fills": [
      {
        "_class": "fill",
        "color": {
          "_class": "color",
          "alpha": 1,
          "blue": 0.1764705882352941,
          "green": 0.1764705882352941,
          "red": 0.1764705882352941
        },
        "fillType": 0,
        "isEnabled": true,
        "noiseIndex": 0,
        "noiseIntensity": 0,
        "patternFillType": 1,
        "patternTileScale": 1
      }
    ],
    "miterLimit": 10,
    "startMarkerType": 0,
    "windingRule": 1
  }
}