{
  "_class": "shapePath",
  "booleanOperation": -1,
  "clippingMaskMode": 0,
  "do_objectID": "829B3C0C-9174-4491-917B-B734E551D12E",
  "edited": true,
  "exportOptions": {
    "_class": "exportOptions",
    "do_objectID": "61911A01-802D-47A6-8E9D-7FBC00019B08",
    "exportFormats": [
    ],
    "includedLayerIds": [
    ],
    "layerOptions": 0,
    "shouldTrim": false
  },
  "frame": {
    "_class": "rect",
    "constrainProportions": false,
    "do_objectID": "8D4A8799-A407-4479-8BBB-58696F10B9F1",
    "height": 0.1058906030856122,
    "width": 0.1059863482545573,
    "x": 19.66858132697862,
    "y": 34.90675332531478
  },
  "hasClippingMask": false,
  "isClosed": true,
  "isFixedToViewport": false,
  "isFlippedHorizontal": false,
  "isFlippedVertical": false,
  "isLocked": false,
  "isVisible": true,
  "layerListExpandedType": 0,
  "name": "Path",
  "nameIsFixed": false,
  "pointRadiusBehaviour": 0,
  "points": [
    {
      "_class": "curvePoint",
      "cornerRadius": 0,
      "curveFrom": "{-0.28895822865004561, 0.57907894770295343}",
      "curveMode": 3,
      "curveTo": "{0.35904177134995052, 0.97507894770291159}",
      "hasCurveFrom": true,
      "hasCurveTo": true,
      "point": "{0.13404177134995621, 0.83707894770293478}"
    },
    {
      "_class": "curvePoint",
      "cornerRadius": 0,
      "curveFrom": "{1.0550417713499485, 0.27507894770292296}",
      "curveMode": 3,
      "curveTo": "{0.40404177134993802, -0.12092105229709205}",
      "hasCurveFrom": true,
      "hasCurveTo": true,
      "point": "{0.63204177134994666, 0.018078947702917958}"
    }
  ],
  "resizingConstraint": 63,
  "resizingType": 0,
  "rotation": 0,
  "shouldBreakMaskChain": false,
  "style": {
    "_class": "style",
    "do_objectID": "03E7F71D-BD46-4809-8069-0EAA2E0B41A6",
    "endMarkerType": 0,
    "fills": [
      {
        "_class": "fill",
        "color": {
          "_class": "color",
          "alpha": 1,
          "blue": 0.1764705882352941,
          "green": 0.1764705882352941,
          "red": 0.1764705882352941
        },
        "fillType": 0,
        "isEnabled": true,
        "noiseIndex": 0,
        "noiseIntensity": 0,
        "patternFillType": 1,
        "patternTileScale": 1
      }
    ],
    "miterLimit": 10,
    "startMarkerType": 0,
    "windingRule": 1
  }
}