{
  "_class": "shapePath",
  "booleanOperation": -1,
  "clippingMaskMode": 0,
  "do_objectID": "8E542411-7BAD-40B7-8717-3F648C0015F5",
  "edited": true,
  "exportOptions": {
    "_class": "exportOptions",
    "do_objectID": "4A3A643C-A0C9-4361-9A46-E8D52F8C0BFC",
    "exportFormats": [
    ],
    "includedLayerIds": [
    ],
    "layerOptions": 0,
    "shouldTrim": false
  },
  "frame": {
    "_class": "rect",
    "constrainProportions": false,
    "do_objectID": "03CBA919-DF91-43D3-8549-73D8E4E8FF83",
    "height": 0.1058906030855571,
    "width": 0.1059863482545644,
    "x": 21.47900620252684,
    "y": 10.40041949140815
  },
  "hasClippingMask": false,
  "isClosed": true,
  "isFixedToViewport": false,
  "isFlippedHorizontal": false,
  "isFlippedVertical": false,
  "isLocked": false,
  "isVisible": true,
  "layerListExpandedType": 0,
  "name": "Path",
  "nameIsFixed": false,
  "pointRadiusBehaviour": 0,
  "points": [
    {
      "_class": "curvePoint",
      "cornerRadius": 0,
      "curveFrom": "{1.0542482909083333, 0.27741850395619849}",
      "curveMode": 4,
      "curveTo": "{0.40524829090833236, -0.11858149604381651}",
      "hasCurveFrom": true,
      "hasCurveTo": true,
      "point": "{0.63424829090831736, 0.017418503956207587}"
    },
    {
      "_class": "curvePoint",
      "cornerRadius": 0,
      "curveFrom": "{-0.29075170909169401, 0.57841850395618621}",
      "curveMode": 3,
      "curveTo": "{0.36024829090831645, 0.97641850395621077}",
      "hasCurveFrom": true,
      "hasCurveTo": true,
      "point": "{0.13524829090835055, 0.83741850395620077}"
    }
  ],
  "resizingConstraint": 63,
  "resizingType": 0,
  "rotation": 0,
  "shouldBreakMaskChain": false,
  "style": {
    "_class": "style",
    "do_objectID": "5B1ECCFF-D671-4151-86B3-615EE46E7267",
    "endMarkerType": 0,
    "fills": [
      {
        "_class": "fill",
        "color": {
          "_class": "color",
          "alpha": 1,
          "blue": 0.1764705882352941,
          "green": 0.1764705882352941,
          "red": 0.1764705882352941
        },
        "fillType": 0,
        "isEnabled": true,
        "noiseIndex": 0,
        "noiseIntensity": 0,
        "patternFillType": 1,
        "patternTileScale": 1
      }
    ],
    "miterLimit": 10,
    "startMarkerType": 0,
    "windingRule": 1
  }
}