{
  "_class": "shapePath",
  "booleanOperation": -1,
  "clippingMaskMode": 0,
  "do_objectID": "8FAC6AEC-FBAF-4C1A-93EF-E1452E790A14",
  "edited": true,
  "exportOptions": {
    "_class": "exportOptions",
    "do_objectID": "5D2CA9D2-CAB8-4E34-AF64-CEE72B3E5D2A",
    "exportFormats": [
    ],
    "includedLayerIds": [
    ],
    "layerOptions": 0,
    "shouldTrim": false
  },
  "frame": {
    "_class": "rect",
    "constrainProportions": false,
    "do_objectID": "A0D69060-5832-456A-959B-81A8E74CEAA7",
    "height": 0.1058906030855553,
    "width": 0.1059863482545715,
    "x": 24.8887989095571,
    "y": 22.91303855704768
  },
  "hasClippingMask": false,
  "isClosed": true,
  "isFixedToViewport": false,
  "isFlippedHorizontal": false,
  "isFlippedVertical": false,
  "isLocked": false,
  "isVisible": true,
  "layerListExpandedType": 0,
  "name": "Path",
  "nameIsFixed": false,
  "pointRadiusBehaviour": 0,
  "points": [
    {
      "_class": "curvePoint",
      "cornerRadius": 0,
      "curveFrom": "{0.13018935220382591, 0.03900000000004411}",
      "curveMode": 4,
      "curveTo": "{-0.08467403832672217, 0.48500000000001364}",
      "hasCurveFrom": true,
      "hasCurveTo": true,
      "point": "{0.014068328645040196, 0.28399999999999181}"
    },
    {
      "_class": "curvePoint",
      "cornerRadius": 0,
      "curveFrom": "{1.1199828387287607, 0.47400000000004638}",
      "curveMode": 4,
      "curveTo": "{0.77635940166702588, 0.20699999999999363}",
      "hasCurveFrom": true,
      "hasCurveTo": true,
      "point": "{0.93987676137225939, 0}"
    },
    {
      "_class": "curvePoint",
      "cornerRadius": 0,
      "curveFrom": "{0.36085152144988653, 1.0680000000000405}",
      "curveMode": 4,
      "curveTo": "{0.86404262353798789, 0.60400000000004184}",
      "hasCurveFrom": true,
      "hasCurveTo": true,
      "point": "{0.58677405708127983, 0.72700000000003229}"
    }
  ],
  "resizingConstraint": 63,
  "resizingType": 0,
  "rotation": 0,
  "shouldBreakMaskChain": false,
  "style": {
    "_class": "style",
    "do_objectID": "E9ED090F-ED2A-4BC4-8EAF-7EA06F337377",
    "endMarkerType": 0,
    "fills": [
      {
        "_class": "fill",
        "color": {
          "_class": "color",
          "alpha": 1,
          "blue": 0.1764705882352941,
          "green": 0.1764705882352941,
          "red": 0.1764705882352941
        },
        "fillType": 0,
        "isEnabled": true,
        "noiseIndex": 0,
        "noiseIntensity": 0,
        "patternFillType": 1,
        "patternTileScale": 1
      }
    ],
    "miterLimit": 10,
    "startMarkerType": 0,
    "windingRule": 1
  }
}