{
  "_class": "shapePath",
  "booleanOperation": -1,
  "clippingMaskMode": 0,
  "do_objectID": "90FD2367-C8E0-4C0F-9904-9740C05FA1F8",
  "edited": true,
  "exportOptions": {
    "_class": "exportOptions",
    "do_objectID": "17FC67F5-9CEB-4A7B-A898-22DACF438EEB",
    "exportFormats": [
    ],
    "includedLayerIds": [
    ],
    "layerOptions": 0,
    "shouldTrim": false
  },
  "frame": {
    "_class": "rect",
    "constrainProportions": false,
    "do_objectID": "D0282044-DBDB-4044-B717-5485C175726F",
    "height": 0.1058906030855553,
    "width": 0.1059863482545627,
    "x": 15.07701998928237,
    "y": 34.3073980871468
  },
  "hasClippingMask": false,
  "isClosed": true,
  "isFixedToViewport": false,
  "isFlippedHorizontal": false,
  "isFlippedVertical": false,
  "isLocked": false,
  "isVisible": true,
  "layerListExpandedType": 0,
  "name": "Path",
  "nameIsFixed": false,
  "pointRadiusBehaviour": 0,
  "points": [
    {
      "_class": "curvePoint",
      "cornerRadius": 0,
      "curveFrom": "{-0.27054820418246095, 0.70059967277057922}",
      "curveMode": 3,
      "curveTo": "{0.40945179581751745, 0.94559967277052692}",
      "hasCurveFrom": true,
      "hasCurveTo": true,
      "point": "{0.17445179581753223, 0.86259967277055694}"
    },
    {
      "_class": "curvePoint",
      "cornerRadius": 0,
      "curveFrom": "{0.92845179581752291, 0.16759967277056376}",
      "curveMode": 3,
      "curveTo": "{0.24845179581751609, -0.07940032722945034}",
      "hasCurveFrom": true,
      "hasCurveTo": true,
      "point": "{0.4844517958175345, 0.0065996727705623925}"
    }
  ],
  "resizingConstraint": 63,
  "resizingType": 0,
  "rotation": 0,
  "shouldBreakMaskChain": false,
  "style": {
    "_class": "style",
    "do_objectID": "2EACA2F6-0F45-4F79-8B8F-E97FA6FC3EF2",
    "endMarkerType": 0,
    "fills": [
      {
        "_class": "fill",
        "color": {
          "_class": "color",
          "alpha": 1,
          "blue": 0.1764705882352941,
          "green": 0.1764705882352941,
          "red": 0.1764705882352941
        },
        "fillType": 0,
        "isEnabled": true,
        "noiseIndex": 0,
        "noiseIntensity": 0,
        "patternFillType": 1,
        "patternTileScale": 1
      }
    ],
    "miterLimit": 10,
    "startMarkerType": 0,
    "windingRule": 1
  }
}