{
  "_class": "shapePath",
  "booleanOperation": -1,
  "clippingMaskMode": 0,
  "do_objectID": "96D20CFF-346B-4837-8D3F-F4E93D356264",
  "edited": true,
  "exportOptions": {
    "_class": "exportOptions",
    "do_objectID": "2A489B62-952A-4685-843B-B17045023754",
    "exportFormats": [
    ],
    "includedLayerIds": [
    ],
    "layerOptions": 0,
    "shouldTrim": false
  },
  "frame": {
    "_class": "rect",
    "constrainProportions": false,
    "do_objectID": "01E5236C-9A14-49D9-BEC6-C91276EB02AC",
    "height": 0.1058906030855624,
    "width": 0.2781435080478758,
    "x": 43.4973539259373,
    "y": 14.21457751356479
  },
  "hasClippingMask": false,
  "isClosed": true,
  "isFixedToViewport": false,
  "isFlippedHorizontal": false,
  "isFlippedVertical": false,
  "isLocked": false,
  "isVisible": true,
  "layerListExpandedType": 0,
  "name": "Path",
  "nameIsFixed": false,
  "pointRadiusBehaviour": 0,
  "points": [
    {
      "_class": "curvePoint",
      "cornerRadius": 0,
      "curveFrom": "{0.12811422847696349, 0.20834831600846099}",
      "curveMode": 4,
      "curveTo": "{0.0040856473773996605, 0.84663499329017444}",
      "hasCurveFrom": true,
      "hasCurveTo": true,
      "point": "{0, 0.29842909707646381}"
    },
    {
      "_class": "curvePoint",
      "cornerRadius": 0,
      "curveFrom": "{0.50341012328639079, -0.025003802567650862}",
      "curveMode": 4,
      "curveTo": "{0.25564479304285093, 0.11740962273983097}",
      "hasCurveFrom": true,
      "hasCurveTo": true,
      "point": "{0.38405085347530266, 0.025613017270524951}"
    },
    {
      "_class": "curvePoint",
      "cornerRadius": 0,
      "curveFrom": "{1.3751121744495616, -0.65471135784294587}",
      "curveMode": 4,
      "curveTo": "{0.61810008180903642, -0.050741168587101142}",
      "hasCurveFrom": true,
      "hasCurveTo": true,
      "point": "{0.622185729186436, 0.4537112053936464}"
    },
    {
      "_class": "curvePoint",
      "cornerRadius": 0,
      "curveFrom": "{0.49436333266502713, 0.47430109820918714}",
      "curveMode": 4,
      "curveTo": "{0.80020322205872663, 2.1172029624491131}",
      "hasCurveFrom": true,
      "hasCurveTo": true,
      "point": "{0.622185729186436, 0.4537112053936464}"
    },
    {
      "_class": "curvePoint",
      "cornerRadius": 0,
      "curveFrom": "{0.11819194198900236, 0.72566937299890932}",
      "curveMode": 4,
      "curveTo": "{0.36624910418809686, 0.7308168462027701}",
      "hasCurveFrom": true,
      "hasCurveTo": true,
      "point": "{0.2384267076666548, 0.72652728519953647}"
    }
  ],
  "resizingConstraint": 63,
  "resizingType": 0,
  "rotation": 0,
  "shouldBreakMaskChain": false,
  "style": {
    "_class": "style",
    "do_objectID": "E7446402-B832-4B85-9016-3097C9E5319C",
    "endMarkerType": 0,
    "fills": [
      {
        "_class": "fill",
        "color": {
          "_class": "color",
          "alpha": 1,
          "blue": 0.1764705882352941,
          "green": 0.1764705882352941,
          "red": 0.1764705882352941
        },
        "fillType": 0,
        "isEnabled": true,
        "noiseIndex": 0,
        "noiseIntensity": 0,
        "patternFillType": 1,
        "patternTileScale": 1
      }
    ],
    "miterLimit": 10,
    "startMarkerType": 0,
    "windingRule": 1
  }
}