{
  "_class": "shapePath",
  "booleanOperation": -1,
  "clippingMaskMode": 0,
  "do_objectID": "9A5AE52E-501B-4B22-A9D6-274D047A528A",
  "edited": true,
  "exportOptions": {
    "_class": "exportOptions",
    "do_objectID": "2DCF4DC4-E97D-4933-B12B-000D09A0EB5E",
    "exportFormats": [
    ],
    "includedLayerIds": [
    ],
    "layerOptions": 0,
    "shouldTrim": false
  },
  "frame": {
    "_class": "rect",
    "constrainProportions": false,
    "do_objectID": "FD0FA83F-D96E-4016-B2A7-8573C2ED8223",
    "height": 0.1325949619599829,
    "width": 0.1326336817653697,
    "x": 43.15521747022064,
    "y": 15.37304834709862
  },
  "hasClippingMask": false,
  "isClosed": true,
  "isFixedToViewport": false,
  "isFlippedHorizontal": false,
  "isFlippedVertical": false,
  "isLocked": false,
  "isVisible": true,
  "layerListExpandedType": 0,
  "name": "Path",
  "nameIsFixed": false,
  "pointRadiusBehaviour": 0,
  "points": [
    {
      "_class": "curvePoint",
      "cornerRadius": 0,
      "curveFrom": "{0.26927784577719521, 0.12966360856271994}",
      "curveMode": 4,
      "curveTo": "{0.065483476132172549, 0.46483180428134258}",
      "hasCurveFrom": true,
      "hasCurveTo": true,
      "point": "{0, 0.19449541284406252}"
    },
    {
      "_class": "curvePoint",
      "cornerRadius": 0,
      "curveFrom": "{0.870869033047729, 0.26972477064222222}",
      "curveMode": 4,
      "curveTo": "{0.5361077111382917, 0.064831804281342595}",
      "hasCurveFrom": true,
      "hasCurveTo": true,
      "point": "{0.80538555691548686, 0}"
    },
    {
      "_class": "curvePoint",
      "cornerRadius": 0,
      "curveFrom": "{0.73133414932675989, 0.87033639143731478}",
      "curveMode": 4,
      "curveTo": "{0.93635250917990154, 0.53944954128440969}",
      "hasCurveFrom": true,
      "hasCurveTo": true,
      "point": "{1, 0.8048929663608797}"
    },
    {
      "_class": "curvePoint",
      "cornerRadius": 0,
      "curveFrom": "{0.1309669522643451, 0.73394495412847227}",
      "curveMode": 4,
      "curveTo": "{0.4638922888616388, 0.93455657492356481}",
      "hasCurveFrom": true,
      "hasCurveTo": true,
      "point": "{0.19522643818846827, 1}"
    }
  ],
  "resizingConstraint": 63,
  "resizingType": 0,
  "rotation": 0,
  "shouldBreakMaskChain": false,
  "style": {
    "_class": "style",
    "do_objectID": "43E792BF-29C9-4290-880B-2134CC2A906A",
    "endMarkerType": 0,
    "fills": [
      {
        "_class": "fill",
        "color": {
          "_class": "color",
          "alpha": 1,
          "blue": 0.1764705882352941,
          "green": 0.1764705882352941,
          "red": 0.1764705882352941
        },
        "fillType": 0,
        "isEnabled": true,
        "noiseIndex": 0,
        "noiseIntensity": 0,
        "patternFillType": 1,
        "patternTileScale": 1
      }
    ],
    "miterLimit": 10,
    "startMarkerType": 0,
    "windingRule": 1
  }
}