{
  "_class": "shapePath",
  "booleanOperation": -1,
  "clippingMaskMode": 0,
  "do_objectID": "ACD2EA11-642A-4544-9CD2-8FD0F7382579",
  "edited": true,
  "exportOptions": {
    "_class": "exportOptions",
    "do_objectID": "3CA5D099-7749-495D-9501-7DE3B1847F72",
    "exportFormats": [
    ],
    "includedLayerIds": [
    ],
    "layerOptions": 0,
    "shouldTrim": false
  },
  "frame": {
    "_class": "rect",
    "constrainProportions": false,
    "do_objectID": "4848B29C-F7CA-4892-9F39-F5400FE5F827",
    "height": 0.1058906030855553,
    "width": 0.1059863482545573,
    "x": 19.6313741841785,
    "y": 35.32174756355386
  },
  "hasClippingMask": false,
  "isClosed": true,
  "isFixedToViewport": false,
  "isFlippedHorizontal": false,
  "isFlippedVertical": false,
  "isLocked": false,
  "isVisible": true,
  "layerListExpandedType": 0,
  "name": "Path",
  "nameIsFixed": false,
  "pointRadiusBehaviour": 0,
  "points": [
    {
      "_class": "curvePoint",
      "cornerRadius": 0,
      "curveFrom": "{-0.25757940265225443, 0.51787411962192209}",
      "curveMode": 3,
      "curveTo": "{0.31942059734774375, 0.86987411962189753}",
      "hasCurveFrom": true,
      "hasCurveTo": true,
      "point": "{0.11942059734775512, 0.74687411962190708}"
    },
    {
      "_class": "curvePoint",
      "cornerRadius": 0,
      "curveFrom": "{0.9394205973477483, 0.24587411962193073}",
      "curveMode": 3,
      "curveTo": "{0.36042059734776899, -0.10712588037807791}",
      "hasCurveFrom": true,
      "hasCurveTo": true,
      "point": "{0.56342059734774352, 0.015874119621912541}"
    }
  ],
  "resizingConstraint": 63,
  "resizingType": 0,
  "rotation": 0,
  "shouldBreakMaskChain": false,
  "style": {
    "_class": "style",
    "do_objectID": "3DBA5EE9-5F56-4061-A4FB-46312508458B",
    "endMarkerType": 0,
    "fills": [
      {
        "_class": "fill",
        "color": {
          "_class": "color",
          "alpha": 1,
          "blue": 0.1764705882352941,
          "green": 0.1764705882352941,
          "red": 0.1764705882352941
        },
        "fillType": 0,
        "isEnabled": true,
        "noiseIndex": 0,
        "noiseIntensity": 0,
        "patternFillType": 1,
        "patternTileScale": 1
      }
    ],
    "miterLimit": 10,
    "startMarkerType": 0,
    "windingRule": 1
  }
}