{
  "_class": "shapePath",
  "booleanOperation": -1,
  "clippingMaskMode": 0,
  "do_objectID": "B7746D5C-F1E5-4869-B979-12B364482A45",
  "edited": true,
  "exportOptions": {
    "_class": "exportOptions",
    "do_objectID": "01DC9784-E51B-466A-8D90-44B0080738DC",
    "exportFormats": [
    ],
    "includedLayerIds": [
    ],
    "layerOptions": 0,
    "shouldTrim": false
  },
  "frame": {
    "_class": "rect",
    "constrainProportions": false,
    "do_objectID": "8F984AC9-C1CF-4448-A086-CE2FF9C19B24",
    "height": 0.1058906030855624,
    "width": 0.1059863482545431,
    "x": 20.25926966439868,
    "y": 22.42692490608144
  },
  "hasClippingMask": false,
  "isClosed": true,
  "isFixedToViewport": false,
  "isFlippedHorizontal": false,
  "isFlippedVertical": false,
  "isLocked": false,
  "isVisible": true,
  "layerListExpandedType": 0,
  "name": "Path",
  "nameIsFixed": false,
  "pointRadiusBehaviour": 0,
  "points": [
    {
      "_class": "curvePoint",
      "cornerRadius": 0,
      "curveFrom": "{0.92697058929769582, 0.16916303290372525}",
      "curveMode": 4,
      "curveTo": "{0.24797058929769378, -0.076836967096312492}",
      "hasCurveFrom": true,
      "hasCurveTo": true,
      "point": "{0.48597058929769332, 0.0061630329037143383}"
    },
    {
      "_class": "curvePoint",
      "cornerRadius": 0,
      "curveFrom": "{-0.2700294107023069, 0.70316303290371707}",
      "curveMode": 3,
      "curveTo": "{0.41097058929770469, 0.95016303290367432}",
      "hasCurveFrom": true,
      "hasCurveTo": true,
      "point": "{0.1739705892976815, 0.86316303290368523}"
    }
  ],
  "resizingConstraint": 63,
  "resizingType": 0,
  "rotation": 0,
  "shouldBreakMaskChain": false,
  "style": {
    "_class": "style",
    "do_objectID": "E30DD2FA-ACAE-451B-B0A6-74AA3AA07659",
    "endMarkerType": 0,
    "fills": [
      {
        "_class": "fill",
        "color": {
          "_class": "color",
          "alpha": 1,
          "blue": 0.1764705882352941,
          "green": 0.1764705882352941,
          "red": 0.1764705882352941
        },
        "fillType": 0,
        "isEnabled": true,
        "noiseIndex": 0,
        "noiseIntensity": 0,
        "patternFillType": 1,
        "patternTileScale": 1
      }
    ],
    "miterLimit": 10,
    "startMarkerType": 0,
    "windingRule": 1
  }
}