{
  "_class": "shapePath",
  "booleanOperation": -1,
  "clippingMaskMode": 0,
  "do_objectID": "B7F510D1-AA42-479E-BC3A-A19D0C41115F",
  "edited": true,
  "exportOptions": {
    "_class": "exportOptions",
    "do_objectID": "A9BBA288-C702-48CC-BF5B-9B31492AF191",
    "exportFormats": [
    ],
    "includedLayerIds": [
    ],
    "layerOptions": 0,
    "shouldTrim": false
  },
  "frame": {
    "_class": "rect",
    "constrainProportions": false,
    "do_objectID": "F57C46E5-EA9B-4084-8529-D084B259FE48",
    "height": 0.3095336243647395,
    "width": 0.3604213612003235,
    "x": 40.83248322243631,
    "y": 20.70581889568136
  },
  "hasClippingMask": false,
  "isClosed": true,
  "isFixedToViewport": false,
  "isFlippedHorizontal": false,
  "isFlippedVertical": false,
  "isLocked": false,
  "isVisible": true,
  "layerListExpandedType": 0,
  "name": "Path",
  "nameIsFixed": false,
  "pointRadiusBehaviour": 0,
  "points": [
    {
      "_class": "curvePoint",
      "cornerRadius": 0,
      "curveFrom": "{0.46669832385448562, 0.83073719686413294}",
      "curveMode": 4,
      "curveTo": "{0.90338411356991455, 0.70419115554818201}",
      "hasCurveFrom": true,
      "hasCurveTo": true,
      "point": "{0.56691759998824864, 0.77204917770310744}"
    },
    {
      "_class": "curvePoint",
      "cornerRadius": 0,
      "curveFrom": "{0.22234345957327625, 1.0012992525508155}",
      "curveMode": 4,
      "curveTo": "{0.46759917128039857, 0.96252323989085398}",
      "hasCurveFrom": true,
      "hasCurveTo": true,
      "point": "{0.33517459966994895, 0.99998925212311562}"
    },
    {
      "_class": "curvePoint",
      "cornerRadius": 0,
      "curveFrom": "{-0.16907474698960623, 0.42332706384904634}",
      "curveMode": 4,
      "curveTo": "{0.17144558000871291, 0.88235121371556047}",
      "hasCurveFrom": true,
      "hasCurveTo": true,
      "point": "{0.039021008398263286, 0.92060322620442425}"
    },
    {
      "_class": "curvePoint",
      "cornerRadius": 0,
      "curveFrom": "{0.30634748204045203, 0.053382943066236276}",
      "curveMode": 4,
      "curveTo": "{0.53538794008098711, 0.573453112863612}",
      "hasCurveFrom": true,
      "hasCurveTo": true,
      "point": "{0.2757186695591291, 0.040806938960304386}"
    },
    {
      "_class": "curvePoint",
      "cornerRadius": 0,
      "curveFrom": "{0.42503413040561672, 0.01539293066290655}",
      "curveMode": 4,
      "curveTo": "{0.38044218282249542, -0.016309079687464676}",
      "hasCurveFrom": true,
      "hasCurveTo": true,
      "point": "{0.40724239374366572, 0.0036029268135916756}"
    },
    {
      "_class": "curvePoint",
      "cornerRadius": 0,
      "curveFrom": "{0.56218815100215747, 0.18097698472433821}",
      "curveMode": 4,
      "curveTo": "{0.42143074070192638, 0.15320497565706698}",
      "hasCurveFrom": true,
      "hasCurveTo": true,
      "point": "{0.43899726550738949, 0.1573969770257159}"
    },
    {
      "_class": "curvePoint",
      "cornerRadius": 0,
      "curveFrom": "{0.83852309890356558, 0.1828109853231063}",
      "curveMode": 4,
      "curveTo": "{0.71105318813568219, 0.033732936650721412}",
      "hasCurveFrom": true,
      "hasCurveTo": true,
      "point": "{0.83604576848228884, 0.045522940500028843}"
    },
    {
      "_class": "curvePoint",
      "cornerRadius": 0,
      "curveFrom": "{0.93176080748644863, 0.41939706256594633}",
      "curveMode": 4,
      "curveTo": "{0.91734724867170014, 0.17573698301353077}",
      "hasCurveFrom": true,
      "hasCurveTo": true,
      "point": "{1, 0.16211297856544035}"
    }
  ],
  "resizingConstraint": 63,
  "resizingType": 0,
  "rotation": 0,
  "shouldBreakMaskChain": false,
  "style": {
    "_class": "style",
    "do_objectID": "E4841B73-C4C5-4100-B288-1BA417A3C619",
    "endMarkerType": 0,
    "fills": [
      {
        "_class": "fill",
        "color": {
          "_class": "color",
          "alpha": 1,
          "blue": 0.1764705882352941,
          "green": 0.1764705882352941,
          "red": 0.1764705882352941
        },
        "fillType": 0,
        "isEnabled": true,
        "noiseIndex": 0,
        "noiseIntensity": 0,
        "patternFillType": 1,
        "patternTileScale": 1
      }
    ],
    "miterLimit": 10,
    "startMarkerType": 0,
    "windingRule": 1
  }
}