{
  "_class": "shapePath",
  "booleanOperation": -1,
  "clippingMaskMode": 0,
  "do_objectID": "B9C40B93-9524-4674-80C2-F43F52A4759F",
  "edited": true,
  "exportOptions": {
    "_class": "exportOptions",
    "do_objectID": "8050B60B-6916-4E3B-9972-069A70095727",
    "exportFormats": [
    ],
    "includedLayerIds": [
    ],
    "layerOptions": 0,
    "shouldTrim": false
  },
  "frame": {
    "_class": "rect",
    "constrainProportions": false,
    "do_objectID": "9AB03C7A-DCD6-4C39-A628-CB5F27C35F85",
    "height": 0.1058906030855624,
    "width": 0.1059863482545609,
    "x": 31.0835155667925,
    "y": 16.6658582406633
  },
  "hasClippingMask": false,
  "isClosed": true,
  "isFixedToViewport": false,
  "isFlippedHorizontal": false,
  "isFlippedVertical": false,
  "isLocked": false,
  "isVisible": true,
  "layerListExpandedType": 0,
  "name": "Path",
  "nameIsFixed": false,
  "pointRadiusBehaviour": 0,
  "points": [
    {
      "_class": "curvePoint",
      "cornerRadius": 0,
      "curveFrom": "{1.0550934282664457, 0.2746388446921344}",
      "curveMode": 3,
      "curveTo": "{0.40709342826647799, -0.11936115530784264}",
      "hasCurveFrom": true,
      "hasCurveTo": true,
      "point": "{0.63209342826644388, 0.017638844692157818}"
    },
    {
      "_class": "curvePoint",
      "cornerRadius": 0,
      "curveFrom": "{-0.28990657173352474, 0.57863884469213644}",
      "curveMode": 3,
      "curveTo": "{0.36009342826645252, 0.97463884469215145}",
      "hasCurveFrom": true,
      "hasCurveTo": true,
      "point": "{0.13409342826645343, 0.83563884469214145}"
    }
  ],
  "resizingConstraint": 63,
  "resizingType": 0,
  "rotation": 0,
  "shouldBreakMaskChain": false,
  "style": {
    "_class": "style",
    "do_objectID": "B0965A09-0BDB-40D2-B10D-23695DDC92EE",
    "endMarkerType": 0,
    "fills": [
      {
        "_class": "fill",
        "color": {
          "_class": "color",
          "alpha": 1,
          "blue": 0.1764705882352941,
          "green": 0.1764705882352941,
          "red": 0.1764705882352941
        },
        "fillType": 0,
        "isEnabled": true,
        "noiseIndex": 0,
        "noiseIntensity": 0,
        "patternFillType": 1,
        "patternTileScale": 1
      }
    ],
    "miterLimit": 10,
    "startMarkerType": 0,
    "windingRule": 1
  }
}