{
  "_class": "shapePath",
  "booleanOperation": -1,
  "clippingMaskMode": 0,
  "do_objectID": "C30AB8A6-DB82-4E8F-BA0C-279EF05CF00A",
  "edited": true,
  "exportOptions": {
    "_class": "exportOptions",
    "do_objectID": "6B61EC76-1171-4CDC-9EDA-E2318DD7B882",
    "exportFormats": [
    ],
    "includedLayerIds": [
    ],
    "layerOptions": 0,
    "shouldTrim": false
  },
  "frame": {
    "_class": "rect",
    "constrainProportions": false,
    "do_objectID": "0BE913FD-0E6D-4917-90A5-0357F9063C5A",
    "height": 0.1058906030855624,
    "width": 0.1059863482545396,
    "x": 17.44118492150659,
    "y": 23.68520349709229
  },
  "hasClippingMask": false,
  "isClosed": true,
  "isFixedToViewport": false,
  "isFlippedHorizontal": false,
  "isFlippedVertical": false,
  "isLocked": false,
  "isVisible": true,
  "layerListExpandedType": 0,
  "name": "Path",
  "nameIsFixed": false,
  "pointRadiusBehaviour": 0,
  "points": [
    {
      "_class": "curvePoint",
      "cornerRadius": 0,
      "curveFrom": "{-0.27022312955773486, 0.70059995348748316}",
      "curveMode": 3,
      "curveTo": "{0.41277687044225786, 0.94559995348748771}",
      "hasCurveFrom": true,
      "hasCurveTo": true,
      "point": "{0.17377687044225354, 0.86059995348750817}"
    },
    {
      "_class": "curvePoint",
      "cornerRadius": 0,
      "curveFrom": "{0.92877687044224899, 0.16559995348745815}",
      "curveMode": 3,
      "curveTo": "{0.24877687044224217, -0.079400046512546396}",
      "hasCurveFrom": true,
      "hasCurveTo": true,
      "point": "{0.48677687044224172, 0.0065999534874663368}"
    }
  ],
  "resizingConstraint": 63,
  "resizingType": 0,
  "rotation": 0,
  "shouldBreakMaskChain": false,
  "style": {
    "_class": "style",
    "do_objectID": "D67291D6-2B55-446D-885A-F5033EE92E83",
    "endMarkerType": 0,
    "fills": [
      {
        "_class": "fill",
        "color": {
          "_class": "color",
          "alpha": 1,
          "blue": 0.1764705882352941,
          "green": 0.1764705882352941,
          "red": 0.1764705882352941
        },
        "fillType": 0,
        "isEnabled": true,
        "noiseIndex": 0,
        "noiseIntensity": 0,
        "patternFillType": 1,
        "patternTileScale": 1
      }
    ],
    "miterLimit": 10,
    "startMarkerType": 0,
    "windingRule": 1
  }
}