{
  "_class": "shapePath",
  "booleanOperation": -1,
  "clippingMaskMode": 0,
  "do_objectID": "C3386A53-1B59-4978-BC99-738448FBD3C0",
  "edited": true,
  "exportOptions": {
    "_class": "exportOptions",
    "do_objectID": "ADAF3E2A-B785-45D5-A8B6-59F707ECFD27",
    "exportFormats": [
    ],
    "includedLayerIds": [
    ],
    "layerOptions": 0,
    "shouldTrim": false
  },
  "frame": {
    "_class": "rect",
    "constrainProportions": false,
    "do_objectID": "71B78581-39BC-409A-958F-715564876F6E",
    "height": 0.1058906030855589,
    "width": 0.1059863482545538,
    "x": 39.27040084971101,
    "y": 20.3813575605724
  },
  "hasClippingMask": false,
  "isClosed": true,
  "isFixedToViewport": false,
  "isFlippedHorizontal": false,
  "isFlippedVertical": false,
  "isLocked": false,
  "isVisible": true,
  "layerListExpandedType": 0,
  "name": "Path",
  "nameIsFixed": false,
  "pointRadiusBehaviour": 0,
  "points": [
    {
      "_class": "curvePoint",
      "cornerRadius": 0,
      "curveFrom": "{1.0415653337979052, 0.18261466688701944}",
      "curveMode": 4,
      "curveTo": "{0.27856533379792836, -0.090385333112976696}",
      "hasCurveFrom": true,
      "hasCurveTo": true,
      "point": "{0.54256533379793837, 0.0076146668870080703}"
    },
    {
      "_class": "curvePoint",
      "cornerRadius": 0,
      "curveFrom": "{-0.30243466620208892, 0.78661466688700443}",
      "curveMode": 3,
      "curveTo": "{0.45956533379791153, 1.0636146668870197}",
      "hasCurveFrom": true,
      "hasCurveTo": true,
      "point": "{0.19456533379792518, 0.9686146668870208}"
    }
  ],
  "resizingConstraint": 63,
  "resizingType": 0,
  "rotation": 0,
  "shouldBreakMaskChain": false,
  "style": {
    "_class": "style",
    "do_objectID": "4E636054-4D4E-4894-B4F6-609DDE551338",
    "endMarkerType": 0,
    "fills": [
      {
        "_class": "fill",
        "color": {
          "_class": "color",
          "alpha": 1,
          "blue": 0.1764705882352941,
          "green": 0.1764705882352941,
          "red": 0.1764705882352941
        },
        "fillType": 0,
        "isEnabled": true,
        "noiseIndex": 0,
        "noiseIntensity": 0,
        "patternFillType": 1,
        "patternTileScale": 1
      }
    ],
    "miterLimit": 10,
    "startMarkerType": 0,
    "windingRule": 1
  }
}