{
  "_class": "shapePath",
  "booleanOperation": -1,
  "clippingMaskMode": 0,
  "do_objectID": "CACFEC93-1B1A-4878-8CFE-6EADFF6EDD68",
  "edited": true,
  "exportOptions": {
    "_class": "exportOptions",
    "do_objectID": "C21A5B0B-CA61-4B38-AF00-2515F0AA2A1A",
    "exportFormats": [
    ],
    "includedLayerIds": [
    ],
    "layerOptions": 0,
    "shouldTrim": false
  },
  "frame": {
    "_class": "rect",
    "constrainProportions": false,
    "do_objectID": "EEAF4A8F-E4E8-4342-9E78-FD286C1A46F9",
    "height": 0.1058906030855766,
    "width": 0.1059863482545538,
    "x": 20.89124428626963,
    "y": 17.84892994479419
  },
  "hasClippingMask": false,
  "isClosed": true,
  "isFixedToViewport": false,
  "isFlippedHorizontal": false,
  "isFlippedVertical": false,
  "isLocked": false,
  "isVisible": true,
  "layerListExpandedType": 0,
  "name": "Path",
  "nameIsFixed": false,
  "pointRadiusBehaviour": 0,
  "points": [
    {
      "_class": "curvePoint",
      "cornerRadius": 0,
      "curveFrom": "{-0.258732999657866, 0.51743573605591564}",
      "curveMode": 3,
      "curveTo": "{0.32126700034211808, 0.87143573605590063}",
      "hasCurveFrom": true,
      "hasCurveTo": true,
      "point": "{0.12026700034209625, 0.74743573605590541}"
    },
    {
      "_class": "curvePoint",
      "cornerRadius": 0,
      "curveFrom": "{0.93926700034211308, 0.24943573605591496}",
      "curveMode": 4,
      "curveTo": "{0.3612670003420817, -0.10556426394410323}",
      "hasCurveFrom": true,
      "hasCurveTo": true,
      "point": "{0.56126700034212718, 0.015435736055906091}"
    }
  ],
  "resizingConstraint": 63,
  "resizingType": 0,
  "rotation": 0,
  "shouldBreakMaskChain": false,
  "style": {
    "_class": "style",
    "do_objectID": "554C0B18-AD8A-40CB-9BF0-0EBB479AA845",
    "endMarkerType": 0,
    "fills": [
      {
        "_class": "fill",
        "color": {
          "_class": "color",
          "alpha": 1,
          "blue": 0.1764705882352941,
          "green": 0.1764705882352941,
          "red": 0.1764705882352941
        },
        "fillType": 0,
        "isEnabled": true,
        "noiseIndex": 0,
        "noiseIntensity": 0,
        "patternFillType": 1,
        "patternTileScale": 1
      }
    ],
    "miterLimit": 10,
    "startMarkerType": 0,
    "windingRule": 1
  }
}