{
  "_class": "shapePath",
  "booleanOperation": -1,
  "clippingMaskMode": 0,
  "do_objectID": "CED4B934-1B1A-42F6-A9D6-4FCD4BA4AD94",
  "edited": true,
  "exportOptions": {
    "_class": "exportOptions",
    "do_objectID": "30C83620-935D-48DA-B461-6F4F3A09EA06",
    "exportFormats": [
    ],
    "includedLayerIds": [
    ],
    "layerOptions": 0,
    "shouldTrim": false
  },
  "frame": {
    "_class": "rect",
    "constrainProportions": false,
    "do_objectID": "179A6B99-E869-4BD6-A98A-4B4C10469ED0",
    "height": 0.1058906030855549,
    "width": 0.1059863482545644,
    "x": 13.64077070932569,
    "y": 2.846130602937366
  },
  "hasClippingMask": false,
  "isClosed": true,
  "isFixedToViewport": false,
  "isFlippedHorizontal": false,
  "isFlippedVertical": false,
  "isLocked": false,
  "isVisible": true,
  "layerListExpandedType": 0,
  "name": "Path",
  "nameIsFixed": false,
  "pointRadiusBehaviour": 0,
  "points": [
    {
      "_class": "curvePoint",
      "cornerRadius": 0,
      "curveFrom": "{-0.2694655834460491, 0.70173243804163832}",
      "curveMode": 3,
      "curveTo": "{0.41053441655395773, 0.94873243804165241}",
      "hasCurveFrom": true,
      "hasCurveTo": true,
      "point": "{0.17353441655396296, 0.86373243804161604}"
    },
    {
      "_class": "curvePoint",
      "cornerRadius": 0,
      "curveFrom": "{0.92753441655395363, 0.16873243804162286}",
      "curveMode": 3,
      "curveTo": "{0.24753441655394681, -0.080267561958343947}",
      "hasCurveFrom": true,
      "hasCurveTo": true,
      "point": "{0.48553441655394636, 0.006732438041645139}"
    }
  ],
  "resizingConstraint": 63,
  "resizingType": 0,
  "rotation": 0,
  "shouldBreakMaskChain": false,
  "style": {
    "_class": "style",
    "do_objectID": "F88F33E4-CF90-4A67-982C-53DD78AD849A",
    "endMarkerType": 0,
    "fills": [
      {
        "_class": "fill",
        "color": {
          "_class": "color",
          "alpha": 1,
          "blue": 0.1764705882352941,
          "green": 0.1764705882352941,
          "red": 0.1764705882352941
        },
        "fillType": 0,
        "isEnabled": true,
        "noiseIndex": 0,
        "noiseIntensity": 0,
        "patternFillType": 1,
        "patternTileScale": 1
      }
    ],
    "miterLimit": 10,
    "startMarkerType": 0,
    "windingRule": 1
  }
}