{
  "_class": "shapePath",
  "booleanOperation": -1,
  "clippingMaskMode": 0,
  "do_objectID": "CF8DD2FE-8F2B-45E8-B6D9-CC1679162449",
  "edited": true,
  "exportOptions": {
    "_class": "exportOptions",
    "do_objectID": "372E507A-EC37-475E-AE7F-36A778D1BCD7",
    "exportFormats": [
    ],
    "includedLayerIds": [
    ],
    "layerOptions": 0,
    "shouldTrim": false
  },
  "frame": {
    "_class": "rect",
    "constrainProportions": false,
    "do_objectID": "A16CEDA8-2249-4F2F-9341-8614C1576431",
    "height": 0.1065625565843575,
    "width": 0.1059863482545538,
    "x": 25.38477302790217,
    "y": 16.86354547606643
  },
  "hasClippingMask": false,
  "isClosed": true,
  "isFixedToViewport": false,
  "isFlippedHorizontal": false,
  "isFlippedVertical": false,
  "isLocked": false,
  "isVisible": true,
  "layerListExpandedType": 0,
  "name": "Path",
  "nameIsFixed": false,
  "pointRadiusBehaviour": 0,
  "points": [
    {
      "_class": "curvePoint",
      "cornerRadius": 0,
      "curveFrom": "{0.12158385064719823, 0.014459665144600882}",
      "curveMode": 3,
      "curveTo": "{-0.12741614935282541, 0.26255707762557134}",
      "hasCurveFrom": true,
      "hasCurveTo": true,
      "point": "{0.028583850647180498, 0.10806697108066718}"
    },
    {
      "_class": "curvePoint",
      "cornerRadius": 0,
      "curveFrom": "{0.51958385064722279, 0.1879756468797682}",
      "curveMode": 4,
      "curveTo": "{0.50158385064719369, 0.08219178082192137}",
      "hasCurveFrom": true,
      "hasCurveTo": true,
      "point": "{0.61458385064719323, 0}"
    },
    {
      "_class": "curvePoint",
      "cornerRadius": 0,
      "curveFrom": "{0.80458385064719096, 0.98706240487062713}",
      "curveMode": 3,
      "curveTo": "{1.0515838506472051, 0.7382039573820427}",
      "hasCurveFrom": true,
      "hasCurveTo": true,
      "point": "{0.89858385064718505, 0.89193302891933279}"
    },
    {
      "_class": "curvePoint",
      "cornerRadius": 0,
      "curveFrom": "{0.4105838506471855, 0.81202435312025345}",
      "curveMode": 4,
      "curveTo": "{0.42558385064717186, 0.91704718417048625}",
      "hasCurveFrom": true,
      "hasCurveTo": true,
      "point": "{0.31158385064719596, 1}"
    }
  ],
  "resizingConstraint": 63,
  "resizingType": 0,
  "rotation": 0,
  "shouldBreakMaskChain": false,
  "style": {
    "_class": "style",
    "do_objectID": "6CD04948-51BA-4365-86F0-1404A8B452DA",
    "endMarkerType": 0,
    "fills": [
      {
        "_class": "fill",
        "color": {
          "_class": "color",
          "alpha": 1,
          "blue": 0.1764705882352941,
          "green": 0.1764705882352941,
          "red": 0.1764705882352941
        },
        "fillType": 0,
        "isEnabled": true,
        "noiseIndex": 0,
        "noiseIntensity": 0,
        "patternFillType": 1,
        "patternTileScale": 1
      }
    ],
    "miterLimit": 10,
    "startMarkerType": 0,
    "windingRule": 1
  }
}