{
  "_class": "shapePath",
  "booleanOperation": -1,
  "clippingMaskMode": 0,
  "do_objectID": "D1F8B2B1-B987-4DE4-BF66-8485C409359F",
  "edited": true,
  "exportOptions": {
    "_class": "exportOptions",
    "do_objectID": "25159293-E47F-40CF-8476-76547E1E01C8",
    "exportFormats": [
    ],
    "includedLayerIds": [
    ],
    "layerOptions": 0,
    "shouldTrim": false
  },
  "frame": {
    "_class": "rect",
    "constrainProportions": false,
    "do_objectID": "9DCAAE98-193E-442C-A2EE-38B81B483769",
    "height": 0.1058906030855562,
    "width": 0.115286832108076,
    "x": 26.81622148594668,
    "y": 3.956338279918624
  },
  "hasClippingMask": false,
  "isClosed": true,
  "isFixedToViewport": false,
  "isFlippedHorizontal": false,
  "isFlippedVertical": false,
  "isLocked": false,
  "isVisible": true,
  "layerListExpandedType": 0,
  "name": "Path",
  "nameIsFixed": false,
  "pointRadiusBehaviour": 0,
  "points": [
    {
      "_class": "curvePoint",
      "cornerRadius": 0,
      "curveFrom": "{0.13000533137411485, 0.045999999999992269}",
      "curveMode": 3,
      "curveTo": "{-0.08403501794943645, 0.54300000000000637}",
      "hasCurveFrom": true,
      "hasCurveTo": true,
      "point": "{0.013832115458387088, 0.31799999999998363}"
    },
    {
      "_class": "curvePoint",
      "cornerRadius": 0,
      "curveFrom": "{1.1192378668991871, 0.52899999999999636}",
      "curveMode": 4,
      "curveTo": "{0.77846310021295106, 0.23200000000002774}",
      "hasCurveFrom": true,
      "hasCurveTo": true,
      "point": "{0.94040152239855945, 0}"
    },
    {
      "_class": "curvePoint",
      "cornerRadius": 0,
      "curveFrom": "{0.36164768310916795, 1.1999999999999886}",
      "curveMode": 4,
      "curveTo": "{0.86436087198097256, 0.68099999999998317}",
      "hasCurveFrom": true,
      "hasCurveTo": true,
      "point": "{0.58906555426548624, 0.81600000000003092}"
    }
  ],
  "resizingConstraint": 63,
  "resizingType": 0,
  "rotation": 0,
  "shouldBreakMaskChain": false,
  "style": {
    "_class": "style",
    "do_objectID": "59ED9210-F143-4A6F-838B-8F25261C77E7",
    "endMarkerType": 0,
    "fills": [
      {
        "_class": "fill",
        "color": {
          "_class": "color",
          "alpha": 1,
          "blue": 0.1764705882352941,
          "green": 0.1764705882352941,
          "red": 0.1764705882352941
        },
        "fillType": 0,
        "isEnabled": true,
        "noiseIndex": 0,
        "noiseIntensity": 0,
        "patternFillType": 1,
        "patternTileScale": 1
      }
    ],
    "miterLimit": 10,
    "startMarkerType": 0,
    "windingRule": 1
  }
}