{
  "_class": "shapePath",
  "booleanOperation": -1,
  "clippingMaskMode": 0,
  "do_objectID": "D74CC1C6-30D9-4A26-B1A8-264E824AE606",
  "edited": true,
  "exportOptions": {
    "_class": "exportOptions",
    "do_objectID": "BAC63B0C-FEFF-4A54-A827-C5EF54EED498",
    "exportFormats": [
    ],
    "includedLayerIds": [
    ],
    "layerOptions": 0,
    "shouldTrim": false
  },
  "frame": {
    "_class": "rect",
    "constrainProportions": false,
    "do_objectID": "89B70E84-0B42-4F45-85B9-7F43CABD8241",
    "height": 0.1058906030855589,
    "width": 0.1059863482545609,
    "x": 31.2890568948946,
    "y": 18.9597833211465
  },
  "hasClippingMask": false,
  "isClosed": true,
  "isFixedToViewport": false,
  "isFlippedHorizontal": false,
  "isFlippedVertical": false,
  "isLocked": false,
  "isVisible": true,
  "layerListExpandedType": 0,
  "name": "Path",
  "nameIsFixed": false,
  "pointRadiusBehaviour": 0,
  "points": [
    {
      "_class": "curvePoint",
      "cornerRadius": 0,
      "curveFrom": "{0.93789703856640472, 0.24574131773940167}",
      "curveMode": 3,
      "curveTo": "{0.36089703856640654, -0.1062586822606022}",
      "hasCurveFrom": true,
      "hasCurveTo": true,
      "point": "{0.56289703856640472, 0.015741317739411897}"
    },
    {
      "_class": "curvePoint",
      "cornerRadius": 0,
      "curveFrom": "{-0.25710296143358846, 0.51374131773940235}",
      "curveMode": 3,
      "curveTo": "{0.31989703856640972, 0.86774131773941576}",
      "hasCurveFrom": true,
      "hasCurveTo": true,
      "point": "{0.11889703856638789, 0.74374131773942054}"
    }
  ],
  "resizingConstraint": 63,
  "resizingType": 0,
  "rotation": 0,
  "shouldBreakMaskChain": false,
  "style": {
    "_class": "style",
    "do_objectID": "D0C0F35E-90B7-44B1-ADA4-C8AB15F9B02E",
    "endMarkerType": 0,
    "fills": [
      {
        "_class": "fill",
        "color": {
          "_class": "color",
          "alpha": 1,
          "blue": 0.1764705882352941,
          "green": 0.1764705882352941,
          "red": 0.1764705882352941
        },
        "fillType": 0,
        "isEnabled": true,
        "noiseIndex": 0,
        "noiseIntensity": 0,
        "patternFillType": 1,
        "patternTileScale": 1
      }
    ],
    "miterLimit": 10,
    "startMarkerType": 0,
    "windingRule": 1
  }
}