{
  "_class": "shapePath",
  "booleanOperation": -1,
  "clippingMaskMode": 0,
  "do_objectID": "E1CF2AEE-00F0-41D1-BE3B-080C731FF7B2",
  "edited": true,
  "exportOptions": {
    "_class": "exportOptions",
    "do_objectID": "A0F4903F-CB8A-48E9-AF12-34E0B6D5ADFE",
    "exportFormats": [
    ],
    "includedLayerIds": [
    ],
    "layerOptions": 0,
    "shouldTrim": false
  },
  "frame": {
    "_class": "rect",
    "constrainProportions": false,
    "do_objectID": "E968937F-114F-476F-A4A2-CB727DB1505E",
    "height": 0.2367245834625464,
    "width": 0.3950600545606662,
    "x": 15.61895535207822,
    "y": 34.69906816965009
  },
  "hasClippingMask": false,
  "isClosed": true,
  "isFixedToViewport": false,
  "isFlippedHorizontal": false,
  "isFlippedVertical": false,
  "isLocked": false,
  "isVisible": true,
  "layerListExpandedType": 0,
  "name": "Path",
  "nameIsFixed": false,
  "pointRadiusBehaviour": 0,
  "points": [
    {
      "_class": "curvePoint",
      "cornerRadius": 0,
      "curveFrom": "{0.57222108074789446, 0.85508735868448238}",
      "curveMode": 4,
      "curveTo": "{0.76001643723032486, 0.90715998629667305}",
      "hasCurveFrom": true,
      "hasCurveTo": true,
      "point": "{0.6400246558454874, 1}"
    },
    {
      "_class": "curvePoint",
      "cornerRadius": 0,
      "curveFrom": "{0.23607972056708509, 0.72113737581363124}",
      "curveMode": 4,
      "curveTo": "{0.46414629134990565, 0.89482699554641587}",
      "hasCurveFrom": true,
      "hasCurveTo": true,
      "point": "{0.40784877748099224, 0.69304556354915969}"
    },
    {
      "_class": "curvePoint",
      "cornerRadius": 0,
      "curveFrom": "{0.12019724676391631, 0.18670777663583712}",
      "curveMode": 4,
      "curveTo": "{0.089993836038625249, 0.62932511133948754}",
      "hasCurveFrom": true,
      "hasCurveTo": true,
      "point": "{0, 0.28023295649195934}"
    },
    {
      "_class": "curvePoint",
      "cornerRadius": 0,
      "curveFrom": "{0.3854530511608753, 0.18705035971222503}",
      "curveMode": 4,
      "curveTo": "{0.2397780973905905, 0.093182596779714855}",
      "hasCurveFrom": true,
      "hasCurveTo": true,
      "point": "{0.35976987877542221, 0}"
    },
    {
      "_class": "curvePoint",
      "cornerRadius": 0,
      "curveFrom": "{0.54201767002259749, 0.12881123672491543}",
      "curveMode": 4,
      "curveTo": "{0.45983151838915226, 0.15176430284345135}",
      "hasCurveFrom": true,
      "hasCurveTo": true,
      "point": "{0.53564824327100979, 0.10688591983556273}"
    },
    {
      "_class": "curvePoint",
      "cornerRadius": 0,
      "curveFrom": "{0.5726320115060578, 0.15553271668379637}",
      "curveMode": 4,
      "curveTo": "{0.54818163139510645, 0.15107913669065604}",
      "hasCurveFrom": true,
      "hasCurveTo": true,
      "point": "{0.55475652352578464, 0.17403220280919196}"
    },
    {
      "_class": "curvePoint",
      "cornerRadius": 0,
      "curveFrom": "{0.6400246558454874, 0.19938335046248226}",
      "curveMode": 4,
      "curveTo": "{0.5898911033490829, 0.14833847207947476}",
      "hasCurveFrom": true,
      "hasCurveTo": true,
      "point": "{0.60098623381959915, 0.15930113052416087}"
    },
    {
      "_class": "curvePoint",
      "cornerRadius": 0,
      "curveFrom": "{0.61495787959728809, 0.38917437478588857}",
      "curveMode": 4,
      "curveTo": "{0.62687487158413679, 0.27338129496402569}",
      "hasCurveFrom": true,
      "hasCurveTo": true,
      "point": "{0.59872611464968006, 0.33093525179855948}"
    },
    {
      "_class": "curvePoint",
      "cornerRadius": 0,
      "curveFrom": "{0.72816930347236286, 0.44398766700924108}",
      "curveMode": 4,
      "curveTo": "{0.63118964454489013, 0.44809866392599351}",
      "hasCurveFrom": true,
      "hasCurveTo": true,
      "point": "{0.64762687487158277, 0.50633778691332254}"
    },
    {
      "_class": "curvePoint",
      "cornerRadius": 0,
      "curveFrom": "{0.92541606739264426, 0.45255224391915327}",
      "curveMode": 4,
      "curveTo": "{0.80809533593589489, 0.38095238095238371}",
      "hasCurveFrom": true,
      "hasCurveTo": true,
      "point": "{0.88740497226217319, 0.31928742720109754}"
    },
    {
      "_class": "curvePoint",
      "cornerRadius": 0,
      "curveFrom": "{0.88021368399424704, 0.81294964028777494}",
      "curveMode": 4,
      "curveTo": "{0.96260530100678277, 0.58615964371359697}",
      "hasCurveFrom": true,
      "hasCurveTo": true,
      "point": "{1, 0.72010962658444799}"
    }
  ],
  "resizingConstraint": 63,
  "resizingType": 0,
  "rotation": 0,
  "shouldBreakMaskChain": false,
  "style": {
    "_class": "style",
    "do_objectID": "7BC91DD0-FA5A-4D44-A4C0-101B7CE97DEA",
    "endMarkerType": 0,
    "fills": [
      {
        "_class": "fill",
        "color": {
          "_class": "color",
          "alpha": 1,
          "blue": 0.1764705882352941,
          "green": 0.1764705882352941,
          "red": 0.1764705882352941
        },
        "fillType": 0,
        "isEnabled": true,
        "noiseIndex": 0,
        "noiseIntensity": 0,
        "patternFillType": 1,
        "patternTileScale": 1
      }
    ],
    "miterLimit": 10,
    "startMarkerType": 0,
    "windingRule": 1
  }
}