{
  "_class": "shapePath",
  "booleanOperation": -1,
  "clippingMaskMode": 0,
  "do_objectID": "E60D0A94-3E51-42B6-A91B-EE27AEF610F9",
  "edited": true,
  "exportOptions": {
    "_class": "exportOptions",
    "do_objectID": "C39B130B-A7B8-4DEC-9763-941377E70A7B",
    "exportFormats": [
    ],
    "includedLayerIds": [
    ],
    "layerOptions": 0,
    "shouldTrim": false
  },
  "frame": {
    "_class": "rect",
    "constrainProportions": false,
    "do_objectID": "BA2474D9-3820-4496-89D7-75AFC30D0A4B",
    "height": 0.1058906030855518,
    "width": 0.1152847753527624,
    "x": 27.05090836093981,
    "y": 8.193375822769267
  },
  "hasClippingMask": false,
  "isClosed": true,
  "isFixedToViewport": false,
  "isFlippedHorizontal": false,
  "isFlippedVertical": false,
  "isLocked": false,
  "isVisible": true,
  "layerListExpandedType": 0,
  "name": "Path",
  "nameIsFixed": false,
  "pointRadiusBehaviour": 0,
  "points": [
    {
      "_class": "curvePoint",
      "cornerRadius": 0,
      "curveFrom": "{0.13123332938762675, 0.045000000000015916}",
      "curveMode": 3,
      "curveTo": "{-0.083514931212517823, 0.54600000000004911}",
      "hasCurveFrom": true,
      "hasCurveTo": true,
      "point": "{0.01364985555080778, 0.31700000000000728}"
    },
    {
      "_class": "curvePoint",
      "cornerRadius": 0,
      "curveFrom": "{1.1211876061213899, 0.53200000000003911}",
      "curveMode": 4,
      "curveTo": "{0.77899857447658416, 0.23200000000002774}",
      "hasCurveFrom": true,
      "hasCurveTo": true,
      "point": "{0.93812351511799852, 0}"
    },
    {
      "_class": "curvePoint",
      "cornerRadius": 0,
      "curveFrom": "{0.36217572111497226, 1.2019999999999982}",
      "curveMode": 4,
      "curveTo": "{0.86630606403202748, 0.68100000000004002}",
      "hasCurveFrom": true,
      "hasCurveTo": true,
      "point": "{0.58748537158068792, 0.81800000000004047}"
    }
  ],
  "resizingConstraint": 63,
  "resizingType": 0,
  "rotation": 0,
  "shouldBreakMaskChain": false,
  "style": {
    "_class": "style",
    "do_objectID": "EB5A5FB3-6105-4CB0-AF4A-06382E1193C5",
    "endMarkerType": 0,
    "fills": [
      {
        "_class": "fill",
        "color": {
          "_class": "color",
          "alpha": 1,
          "blue": 0.1764705882352941,
          "green": 0.1764705882352941,
          "red": 0.1764705882352941
        },
        "fillType": 0,
        "isEnabled": true,
        "noiseIndex": 0,
        "noiseIntensity": 0,
        "patternFillType": 1,
        "patternTileScale": 1
      }
    ],
    "miterLimit": 10,
    "startMarkerType": 0,
    "windingRule": 1
  }
}