{
  "_class": "shapePath",
  "booleanOperation": -1,
  "clippingMaskMode": 0,
  "do_objectID": "ED0327E7-C378-45D5-8A12-1C0D044B94FF",
  "edited": true,
  "exportOptions": {
    "_class": "exportOptions",
    "do_objectID": "B6263545-CB56-4353-AF1C-E1ABCF9EC6E5",
    "exportFormats": [
    ],
    "includedLayerIds": [
    ],
    "layerOptions": 0,
    "shouldTrim": false
  },
  "frame": {
    "_class": "rect",
    "constrainProportions": false,
    "do_objectID": "2DFD02CD-9925-4E36-A512-8159D21F95E0",
    "height": 0.1324327662878417,
    "width": 0.105986348254568,
    "x": 16.65498539305229,
    "y": 34.27314233465694
  },
  "hasClippingMask": false,
  "isClosed": true,
  "isFixedToViewport": false,
  "isFlippedHorizontal": false,
  "isFlippedVertical": false,
  "isLocked": false,
  "isVisible": true,
  "layerListExpandedType": 0,
  "name": "Path",
  "nameIsFixed": false,
  "pointRadiusBehaviour": 0,
  "points": [
    {
      "_class": "curvePoint",
      "cornerRadius": 0,
      "curveFrom": "{-0.026941692674922611, 0.75076546233926089}",
      "curveMode": 4,
      "curveTo": "{0.58701612899502209, 0.9932639314145596}",
      "hasCurveFrom": true,
      "hasCurveTo": true,
      "point": "{0.02689768553307215, 1}"
    },
    {
      "_class": "curvePoint",
      "cornerRadius": 0,
      "curveFrom": "{0.44249990327887506, 0.24862216778931642}",
      "curveMode": 4,
      "curveTo": "{-0.054333657026347237, 0.50765462339250478}",
      "hasCurveFrom": true,
      "hasCurveTo": true,
      "point": "{0.50011748346634155, 0.50030618493567647}"
    },
    {
      "_class": "curvePoint",
      "cornerRadius": 0,
      "curveFrom": "{1.028121210102487, 0.25168401714632532}",
      "curveMode": 4,
      "curveTo": "{0.41605248942230494, 0.010410287813802363}",
      "hasCurveFrom": true,
      "hasCurveTo": true,
      "point": "{0.97050362991502059, 0}"
    },
    {
      "_class": "curvePoint",
      "cornerRadius": 0,
      "curveFrom": "{0.55679051315895345, 0.75260257195345925}",
      "curveMode": 4,
      "curveTo": "{1.0574022754436743, 0.490508266993262}",
      "hasCurveFrom": true,
      "hasCurveTo": true,
      "point": "{0.50011748346634155, 0.50030618493567647}"
    }
  ],
  "resizingConstraint": 63,
  "resizingType": 0,
  "rotation": 0,
  "shouldBreakMaskChain": false,
  "style": {
    "_class": "style",
    "do_objectID": "B00458E5-FF65-4822-81DC-FDCE9BDD2409",
    "endMarkerType": 0,
    "fills": [
      {
        "_class": "fill",
        "color": {
          "_class": "color",
          "alpha": 1,
          "blue": 0.1764705882352941,
          "green": 0.1764705882352941,
          "red": 0.1764705882352941
        },
        "fillType": 0,
        "isEnabled": true,
        "noiseIndex": 0,
        "noiseIntensity": 0,
        "patternFillType": 1,
        "patternTileScale": 1
      }
    ],
    "miterLimit": 10,
    "startMarkerType": 0,
    "windingRule": 1
  }
}