{
  "_class": "shapePath",
  "booleanOperation": -1,
  "clippingMaskMode": 0,
  "do_objectID": "EDF39B65-1E4A-4E0A-A5A3-62166A2D1215",
  "edited": true,
  "exportOptions": {
    "_class": "exportOptions",
    "do_objectID": "C30D10DB-0268-4D34-9F39-7B53E8EAD1EA",
    "exportFormats": [
    ],
    "includedLayerIds": [
    ],
    "layerOptions": 0,
    "shouldTrim": false
  },
  "frame": {
    "_class": "rect",
    "constrainProportions": false,
    "do_objectID": "B7D1EFAC-CAEC-4EEF-827F-0FDCF011E211",
    "height": 0.114649492164169,
    "width": 0.1463531483583722,
    "x": 7.618425456750877,
    "y": 27.82375582405825
  },
  "hasClippingMask": false,
  "isClosed": true,
  "isFixedToViewport": false,
  "isFlippedHorizontal": false,
  "isFlippedVertical": false,
  "isLocked": false,
  "isVisible": true,
  "layerListExpandedType": 0,
  "name": "Path",
  "nameIsFixed": false,
  "pointRadiusBehaviour": 0,
  "points": [
    {
      "_class": "curvePoint",
      "cornerRadius": 0,
      "curveFrom": "{0.57386844823174288, 0.57932334875915759}",
      "curveMode": 4,
      "curveTo": "{0.93492954102558978, 0.46402456262031244}",
      "hasCurveFrom": true,
      "hasCurveTo": true,
      "point": "{0.74691155261220377, 0.60549546585819103}"
    },
    {
      "_class": "curvePoint",
      "cornerRadius": 0,
      "curveFrom": "{-0.14769911202140329, 0.87782695459111626}",
      "curveMode": 3,
      "curveTo": "{0.25662275686756075, 1.0659832558975193}",
      "hasCurveFrom": true,
      "hasCurveTo": true,
      "point": "{0.099109161854572622, 0.99241838621378864}"
    },
    {
      "_class": "curvePoint",
      "cornerRadius": 0,
      "curveFrom": "{0.48568302003785019, 0.25747704389297676}",
      "curveMode": 4,
      "curveTo": "{0.12684042858221709, 0.37348318454803481}",
      "hasCurveFrom": true,
      "hasCurveTo": true,
      "point": "{0.26993376489682758, 0.38480085680707954}"
    },
    {
      "_class": "curvePoint",
      "cornerRadius": 0,
      "curveFrom": "{1.1068633947369477, 0.31689482325289142}",
      "curveMode": 4,
      "curveTo": "{0.7030961511825311, 0.12873852194648838}",
      "hasCurveFrom": true,
      "hasCurveTo": true,
      "point": "{0.91829078098900618, 0}"
    }
  ],
  "resizingConstraint": 63,
  "resizingType": 0,
  "rotation": 0,
  "shouldBreakMaskChain": false,
  "style": {
    "_class": "style",
    "do_objectID": "49AB31B7-7D1E-4275-B2A3-3B2D527CC3FD",
    "endMarkerType": 0,
    "fills": [
      {
        "_class": "fill",
        "color": {
          "_class": "color",
          "alpha": 1,
          "blue": 0.1764705882352941,
          "green": 0.1764705882352941,
          "red": 0.1764705882352941
        },
        "fillType": 0,
        "isEnabled": true,
        "noiseIndex": 0,
        "noiseIntensity": 0,
        "patternFillType": 1,
        "patternTileScale": 1
      }
    ],
    "miterLimit": 10,
    "startMarkerType": 0,
    "windingRule": 1
  }
}