{
  "_class": "shapePath",
  "booleanOperation": -1,
  "clippingMaskMode": 0,
  "do_objectID": "EE9D74BE-F300-426F-B2DF-9001AD4B61DA",
  "edited": true,
  "exportOptions": {
    "_class": "exportOptions",
    "do_objectID": "88A5D60E-3590-44A5-96FB-0CA3851A8B06",
    "exportFormats": [
    ],
    "includedLayerIds": [
    ],
    "layerOptions": 0,
    "shouldTrim": false
  },
  "frame": {
    "_class": "rect",
    "constrainProportions": false,
    "do_objectID": "ADFAF4FD-637F-4A55-A9C4-659C422D8FEB",
    "height": 0.1738229880865809,
    "width": 0.1199709802014999,
    "x": 4.746159122707438,
    "y": 15.74339257653908
  },
  "hasClippingMask": false,
  "isClosed": true,
  "isFixedToViewport": false,
  "isFlippedHorizontal": false,
  "isFlippedVertical": false,
  "isLocked": false,
  "isVisible": true,
  "layerListExpandedType": 0,
  "name": "Path",
  "nameIsFixed": false,
  "pointRadiusBehaviour": 0,
  "points": [
    {
      "_class": "curvePoint",
      "cornerRadius": 0,
      "curveFrom": "{0.60148849797022941, 0.58616222782258931}",
      "curveMode": 4,
      "curveTo": "{0.95737483085250641, 0.47838821969891021}",
      "hasCurveFrom": true,
      "hasCurveTo": true,
      "point": "{1, 0.57963046975448274}"
    },
    {
      "_class": "curvePoint",
      "cornerRadius": 0,
      "curveFrom": "{0.31190798376184048, 1.0783768536688441}",
      "curveMode": 4,
      "curveTo": "{0.6197564276048716, 0.76951800787715152}",
      "hasCurveFrom": true,
      "hasCurveTo": true,
      "point": "{0.66238159675237007, 0.96033865429526799}"
    },
    {
      "_class": "curvePoint",
      "cornerRadius": 0,
      "curveFrom": "{0.064952638700945128, 0.62768554696980794}",
      "curveMode": 3,
      "curveTo": "{0.18944519621109757, 0.91275013122767978}",
      "hasCurveFrom": true,
      "hasCurveTo": true,
      "point": "{0.10825439783491014, 0.72846124287766989}"
    },
    {
      "_class": "curvePoint",
      "cornerRadius": 0,
      "curveFrom": "{0.39918809201623717, 0.41400374731331846}",
      "curveMode": 4,
      "curveTo": "{0.043301759133965022, 0.52177775543699756}",
      "hasCurveFrom": true,
      "hasCurveTo": true,
      "point": "{0, 0.42100205952913555}"
    },
    {
      "_class": "curvePoint",
      "cornerRadius": 0,
      "curveFrom": "{0.68876860622463099, -0.077744324385199237}",
      "curveMode": 4,
      "curveTo": "{0.3788903924221903, 0.23111452140646671}",
      "hasCurveFrom": true,
      "hasCurveTo": true,
      "point": "{0.33897158322056803, 0.038894212545192132}"
    },
    {
      "_class": "curvePoint",
      "cornerRadius": 0,
      "curveFrom": "{0.93572395128552155, 0.37294698231383683}",
      "curveMode": 4,
      "curveTo": "{0.81055480378890721, 0.087882398055938477}",
      "hasCurveFrom": true,
      "hasCurveTo": true,
      "point": "{0.89242219215155649, 0.27217128640597488}"
    }
  ],
  "resizingConstraint": 63,
  "resizingType": 0,
  "rotation": 0,
  "shouldBreakMaskChain": false,
  "style": {
    "_class": "style",
    "do_objectID": "002446E2-4534-484D-8A49-8C3622CEAD72",
    "endMarkerType": 0,
    "fills": [
      {
        "_class": "fill",
        "color": {
          "_class": "color",
          "alpha": 1,
          "blue": 0.1764705882352941,
          "green": 0.1764705882352941,
          "red": 0.1764705882352941
        },
        "fillType": 0,
        "isEnabled": true,
        "noiseIndex": 0,
        "noiseIntensity": 0,
        "patternFillType": 1,
        "patternTileScale": 1
      }
    ],
    "miterLimit": 10,
    "startMarkerType": 0,
    "windingRule": 1
  }
}