{
  "_class": "shapePath",
  "booleanOperation": -1,
  "clippingMaskMode": 0,
  "do_objectID": "EFEABEEC-7ADF-4D33-BF63-240F8239FA1B",
  "edited": true,
  "exportOptions": {
    "_class": "exportOptions",
    "do_objectID": "9C69754C-6250-450E-8BDE-7907092992EA",
    "exportFormats": [
    ],
    "includedLayerIds": [
    ],
    "layerOptions": 0,
    "shouldTrim": false
  },
  "frame": {
    "_class": "rect",
    "constrainProportions": false,
    "do_objectID": "9714A6F9-8970-47C0-B544-F1D0294A90E8",
    "height": 0.1058906030855624,
    "width": 0.1059863482545591,
    "x": 5.453080101430504,
    "y": 23.1461378045821
  },
  "hasClippingMask": false,
  "isClosed": true,
  "isFixedToViewport": false,
  "isFlippedHorizontal": false,
  "isFlippedVertical": false,
  "isLocked": false,
  "isVisible": true,
  "layerListExpandedType": 0,
  "name": "Path",
  "nameIsFixed": false,
  "pointRadiusBehaviour": 0,
  "points": [
    {
      "_class": "curvePoint",
      "cornerRadius": 0,
      "curveFrom": "{1.054983829607238, 0.27770323875597569}",
      "curveMode": 4,
      "curveTo": "{0.40398382960724177, -0.11929676124407251}",
      "hasCurveFrom": true,
      "hasCurveTo": true,
      "point": "{0.6319838296072362, 0.017703238755984785}"
    },
    {
      "_class": "curvePoint",
      "cornerRadius": 0,
      "curveFrom": "{-0.29001617039276084, 0.57570323875597751}",
      "curveMode": 3,
      "curveTo": "{0.35898382960724007, 0.97170323875593567}",
      "hasCurveFrom": true,
      "hasCurveTo": true,
      "point": "{0.13498382960723632, 0.83470323875599206}"
    }
  ],
  "resizingConstraint": 63,
  "resizingType": 0,
  "rotation": 0,
  "shouldBreakMaskChain": false,
  "style": {
    "_class": "style",
    "do_objectID": "08CB7D1C-15D7-4994-8128-1A75CBE761EE",
    "endMarkerType": 0,
    "fills": [
      {
        "_class": "fill",
        "color": {
          "_class": "color",
          "alpha": 1,
          "blue": 0.1764705882352941,
          "green": 0.1764705882352941,
          "red": 0.1764705882352941
        },
        "fillType": 0,
        "isEnabled": true,
        "noiseIndex": 0,
        "noiseIntensity": 0,
        "patternFillType": 1,
        "patternTileScale": 1
      }
    ],
    "miterLimit": 10,
    "startMarkerType": 0,
    "windingRule": 1
  }
}