{
  "_class": "shapePath",
  "booleanOperation": -1,
  "clippingMaskMode": 0,
  "do_objectID": "F1AC2A34-CB12-465F-ADDC-D14C7D75C241",
  "edited": true,
  "exportOptions": {
    "_class": "exportOptions",
    "do_objectID": "1CBC724A-B8E1-47AA-89D7-C6D6841EFD74",
    "exportFormats": [
    ],
    "includedLayerIds": [
    ],
    "layerOptions": 0,
    "shouldTrim": false
  },
  "frame": {
    "_class": "rect",
    "constrainProportions": false,
    "do_objectID": "CF161909-25F3-4731-BC95-271CACE9B4FF",
    "height": 0.2324221421780344,
    "width": 0.2001365117635849,
    "x": 22.78762878693634,
    "y": 17.62140791297422
  },
  "hasClippingMask": false,
  "isClosed": true,
  "isFixedToViewport": false,
  "isFlippedHorizontal": false,
  "isFlippedVertical": false,
  "isLocked": false,
  "isVisible": true,
  "layerListExpandedType": 0,
  "name": "Path",
  "nameIsFixed": false,
  "pointRadiusBehaviour": 0,
  "points": [
    {
      "_class": "curvePoint",
      "cornerRadius": 0,
      "curveFrom": "{-0.0050772921887016365, 0.95429557886530603}",
      "curveMode": 3,
      "curveTo": "{0.10442903452835697, 1.0115192366002963}",
      "hasCurveFrom": true,
      "hasCurveTo": true,
      "point": "{0.071577136513230166, 0.99442192422825282}"
    },
    {
      "_class": "curvePoint",
      "cornerRadius": 0,
      "curveFrom": "{-0.30682805914240602, 0.39113104481480815}",
      "curveMode": 4,
      "curveTo": "{0.020068605057444237, 0.8799746087582625}",
      "hasCurveFrom": true,
      "hasCurveTo": true,
      "point": "{0.0740106104402877, 0.82100632731184109}"
    },
    {
      "_class": "curvePoint",
      "cornerRadius": 0,
      "curveFrom": "{0.77322878547814178, -0.067356066549729837}",
      "curveMode": 4,
      "curveTo": "{0.92248185300362229, 0.46440524069497713}",
      "hasCurveFrom": true,
      "hasCurveTo": true,
      "point": "{0.59315171487673757, 0.05162727056998756}"
    },
    {
      "_class": "curvePoint",
      "cornerRadius": 0,
      "curveFrom": "{1.0778186053467351, 0.31576330048090984}",
      "curveMode": 4,
      "curveTo": "{0.85961710988828066, 0.040810603559102362}",
      "hasCurveFrom": true,
      "hasCurveTo": true,
      "point": "{0.94073290745647309, 0.15944501593653154}"
    },
    {
      "_class": "curvePoint",
      "cornerRadius": 0,
      "curveFrom": "{0.59193497791322036, 0.50278696234650266}",
      "curveMode": 4,
      "curveTo": "{0.95249469810386023, 0.38938642110337696}",
      "hasCurveFrom": true,
      "hasCurveTo": true,
      "point": "{0.81378668426224954, 0.45847352007610714}"
    },
    {
      "_class": "curvePoint",
      "cornerRadius": 0,
      "curveFrom": "{0.53069255074922739, 0.82170417679640761}",
      "curveMode": 4,
      "curveTo": "{0.63370961366084533, 0.62770202008509002}",
      "hasCurveFrom": true,
      "hasCurveTo": true,
      "point": "{0.68765161904368877, 0.75819987370025921}"
    },
    {
      "_class": "curvePoint",
      "cornerRadius": 0,
      "curveFrom": "{0.21393536124543863, 0.94801493350414778}",
      "curveMode": 4,
      "curveTo": "{0.37251674549124869, 0.8845106304079895}",
      "hasCurveFrom": true,
      "hasCurveTo": true,
      "point": "{0.21434094023327002, 0.94871278298871431}"
    },
    {
      "_class": "curvePoint",
      "cornerRadius": 0,
      "curveFrom": "{0.16283240877746105, 0.98744342938252816}",
      "curveMode": 4,
      "curveTo": "{0.21352978225758418, 0.94731708401957138}",
      "hasCurveFrom": true,
      "hasCurveTo": true,
      "point": "{0.21271862428189833, 0.94766600876185958}"
    }
  ],
  "resizingConstraint": 63,
  "resizingType": 0,
  "rotation": 0,
  "shouldBreakMaskChain": false,
  "style": {
    "_class": "style",
    "do_objectID": "E08F6DFC-5A87-46D6-939D-2B1168F181A6",
    "endMarkerType": 0,
    "fills": [
      {
        "_class": "fill",
        "color": {
          "_class": "color",
          "alpha": 1,
          "blue": 0.1764705882352941,
          "green": 0.1764705882352941,
          "red": 0.1764705882352941
        },
        "fillType": 0,
        "isEnabled": true,
        "noiseIndex": 0,
        "noiseIntensity": 0,
        "patternFillType": 1,
        "patternTileScale": 1
      }
    ],
    "miterLimit": 10,
    "startMarkerType": 0,
    "windingRule": 1
  }
}