{
  "_class": "shapePath",
  "booleanOperation": -1,
  "clippingMaskMode": 0,
  "do_objectID": "F933B250-D50F-4E9E-940A-A21C8D4FBC12",
  "edited": true,
  "exportOptions": {
    "_class": "exportOptions",
    "do_objectID": "0B474691-33FA-4F6F-92C9-27A18535E550",
    "exportFormats": [
    ],
    "includedLayerIds": [
    ],
    "layerOptions": 0,
    "shouldTrim": false
  },
  "frame": {
    "_class": "rect",
    "constrainProportions": false,
    "do_objectID": "921C2252-FFE0-4CDA-872E-D4F0065742BB",
    "height": 0.1058906030856193,
    "width": 0.1059863482545644,
    "x": 17.02770551219168,
    "y": 35.59901575964628
  },
  "hasClippingMask": false,
  "isClosed": true,
  "isFixedToViewport": false,
  "isFlippedHorizontal": false,
  "isFlippedVertical": false,
  "isLocked": false,
  "isVisible": true,
  "layerListExpandedType": 0,
  "name": "Path",
  "nameIsFixed": false,
  "pointRadiusBehaviour": 0,
  "points": [
    {
      "_class": "curvePoint",
      "cornerRadius": 0,
      "curveFrom": "{-0.25830320041302457, 0.51493953937750803}",
      "curveMode": 3,
      "curveTo": "{0.32069679958698316, 0.86693953937748347}",
      "hasCurveFrom": true,
      "hasCurveTo": true,
      "point": "{0.11969679958698975, 0.74493953937752622}"
    },
    {
      "_class": "curvePoint",
      "cornerRadius": 0,
      "curveFrom": "{0.94069679958698771, 0.24293953937751667}",
      "curveMode": 3,
      "curveTo": "{0.36169679958697998, -0.10706046062250607}",
      "hasCurveFrom": true,
      "hasCurveTo": true,
      "point": "{0.56469679958698293, 0.01593953937748438}"
    }
  ],
  "resizingConstraint": 63,
  "resizingType": 0,
  "rotation": 0,
  "shouldBreakMaskChain": false,
  "style": {
    "_class": "style",
    "do_objectID": "D9509846-B65A-4046-9961-E986A9EC7259",
    "endMarkerType": 0,
    "fills": [
      {
        "_class": "fill",
        "color": {
          "_class": "color",
          "alpha": 1,
          "blue": 0.1764705882352941,
          "green": 0.1764705882352941,
          "red": 0.1764705882352941
        },
        "fillType": 0,
        "isEnabled": true,
        "noiseIndex": 0,
        "noiseIntensity": 0,
        "patternFillType": 1,
        "patternTileScale": 1
      }
    ],
    "miterLimit": 10,
    "startMarkerType": 0,
    "windingRule": 1
  }
}