{
  "_class": "page",
  "booleanOperation": -1,
  "clippingMaskMode": 0,
  "do_objectID": "9B70B841-E09E-45DA-B651-DF7FDEEE14EA",
  "exportOptions": {
    "_class": "exportOptions",
    "do_objectID": "D704CDC6-2D5F-4FF7-9DE8-4C4C214CB27E",
    "exportFormats": [
    ],
    "includedLayerIds": [
    ],
    "layerOptions": 0,
    "shouldTrim": false
  },
  "frame": {
    "_class": "rect",
    "constrainProportions": false,
    "do_objectID": "EDE41B66-ECEE-4D2F-8FD1-2E68DFFFA603",
    "height": 0,
    "width": 0,
    "x": 0,
    "y": 0
  },
  "grid": {
    "_class": "simpleGrid",
    "do_objectID": "667B5A20-3A98-48B7-9D3C-FD8FF2F659FD",
    "gridSize": 20,
    "isEnabled": false,
    "thickGridTimes": 10
  },
  "groupLayout": {
    "_class": "MSImmutableFreeformGroupLayout",
    "do_objectID": "BC88E434-0A21-49D9-BC5D-182432147024"
  },
  "hasClickThrough": true,
  "hasClippingMask": false,
  "horizontalRulerData": {
    "_class": "rulerData",
    "base": 0,
    "do_objectID": "761B114B-0650-429D-8993-A74191A93073",
    "guides": [
    ]
  },
  "includeInCloudUpload": true,
  "isFixedToViewport": false,
  "isFlippedHorizontal": false,
  "isFlippedVertical": false,
  "isLocked": false,
  "isVisible": true,
  "layerListExpandedType": 0,
  "layers": [
    {
      "class": "artboard",
      "id": "D0E8517E-E34E-4C48-BD3F-9DABB08663F2"
    },
    {
      "class": "artboard",
      "id": "0630876E-1981-4A01-A104-C30E1C116959"
    },
    {
      "class": "artboard",
      "id": "708399DF-20DB-4879-B273-9B3E3FF937E7"
    }
  ],
  "name": "UI Shell",
  "nameIsFixed": true,
  "resizingConstraint": 63,
  "resizingType": 0,
  "rotation": 0,
  "shouldBreakMaskChain": false,
  "style": {
    "_class": "style",
    "do_objectID": "7666DFA1-C799-44E6-AFC2-A29C202255C7",
    "endMarkerType": 0,
    "miterLimit": 10,
    "startMarkerType": 0,
    "windingRule": 1
  },
  "verticalRulerData": {
    "_class": "rulerData",
    "base": 0,
    "do_objectID": "BFEC000C-596E-4948-BF94-3D987F6F771A",
    "guides": [
    ]
  }
}