{
  "_class": "shapePath",
  "booleanOperation": -1,
  "clippingMaskMode": 0,
  "do_objectID": "DC94E1C4-8AB1-4B19-8E8F-18A503A863D4",
  "edited": true,
  "exportOptions": {
    "_class": "exportOptions",
    "exportFormats": [
    ],
    "includedLayerIds": [
    ],
    "layerOptions": 0,
    "shouldTrim": false
  },
  "frame": {
    "_class": "rect",
    "constrainProportions": false,
    "height": 8.5,
    "width": 4,
    "x": 9,
    "y": 8.5
  },
  "hasClippingMask": false,
  "isClosed": true,
  "isFixedToViewport": false,
  "isFlippedHorizontal": false,
  "isFlippedVertical": false,
  "isLocked": false,
  "isVisible": true,
  "layerListExpandedType": 0,
  "maintainScrollPosition": false,
  "name": "Shape",
  "nameIsFixed": false,
  "pointRadiusBehaviour": 0,
  "points": [
    {
      "_class": "curvePoint",
      "cornerRadius": 0,
      "curveFrom": "{0.75, 0.058823529411764705}",
      "curveMode": 1,
      "curveTo": "{0.75, 0.058823529411764705}",
      "hasCurveFrom": false,
      "hasCurveTo": false,
      "point": "{0.75, 0.058823529411764705}"
    },
    {
      "_class": "curvePoint",
      "cornerRadius": 0,
      "curveFrom": "{0.75, 0.94117647058823528}",
      "curveMode": 1,
      "curveTo": "{0.75, 0.94117647058823528}",
      "hasCurveFrom": false,
      "hasCurveTo": false,
      "point": "{0.75, 0.94117647058823528}"
    },
    {
      "_class": "curvePoint",
      "cornerRadius": 0,
      "curveFrom": "{1, 0.94117647058823528}",
      "curveMode": 1,
      "curveTo": "{1, 0.94117647058823528}",
      "hasCurveFrom": false,
      "hasCurveTo": false,
      "point": "{1, 0.94117647058823528}"
    },
    {
      "_class": "curvePoint",
      "cornerRadius": 0,
      "curveFrom": "{1, 1}",
      "curveMode": 1,
      "curveTo": "{1, 1}",
      "hasCurveFrom": false,
      "hasCurveTo": false,
      "point": "{1, 1}"
    },
    {
      "_class": "curvePoint",
      "cornerRadius": 0,
      "curveFrom": "{0.75, 1}",
      "curveMode": 1,
      "curveTo": "{0.75, 1}",
      "hasCurveFrom": false,
      "hasCurveTo": false,
      "point": "{0.75, 1}"
    },
    {
      "_class": "curvePoint",
      "cornerRadius": 0,
      "curveFrom": "{0.25, 1}",
      "curveMode": 1,
      "curveTo": "{0.25, 1}",
      "hasCurveFrom": false,
      "hasCurveTo": false,
      "point": "{0.25, 1}"
    },
    {
      "_class": "curvePoint",
      "cornerRadius": 0,
      "curveFrom": "{0, 1}",
      "curveMode": 1,
      "curveTo": "{0, 1}",
      "hasCurveFrom": false,
      "hasCurveTo": false,
      "point": "{0, 1}"
    },
    {
      "_class": "curvePoint",
      "cornerRadius": 0,
      "curveFrom": "{0, 0.94117647058823528}",
      "curveMode": 1,
      "curveTo": "{0, 0.94117647058823528}",
      "hasCurveFrom": false,
      "hasCurveTo": false,
      "point": "{0, 0.94117647058823528}"
    },
    {
      "_class": "curvePoint",
      "cornerRadius": 0,
      "curveFrom": "{0.25, 0.94117647058823528}",
      "curveMode": 1,
      "curveTo": "{0.25, 0.94117647058823528}",
      "hasCurveFrom": false,
      "hasCurveTo": false,
      "point": "{0.25, 0.94117647058823528}"
    },
    {
      "_class": "curvePoint",
      "cornerRadius": 0,
      "curveFrom": "{0.25, 0.058823529411764705}",
      "curveMode": 1,
      "curveTo": "{0.25, 0.058823529411764705}",
      "hasCurveFrom": false,
      "hasCurveTo": false,
      "point": "{0.25, 0.058823529411764705}"
    },
    {
      "_class": "curvePoint",
      "cornerRadius": 0,
      "curveFrom": "{0, 0.058823529411764705}",
      "curveMode": 1,
      "curveTo": "{0, 0.058823529411764705}",
      "hasCurveFrom": false,
      "hasCurveTo": false,
      "point": "{0, 0.058823529411764705}"
    },
    {
      "_class": "curvePoint",
      "cornerRadius": 0,
      "curveFrom": "{0, 0}",
      "curveMode": 1,
      "curveTo": "{0, 0}",
      "hasCurveFrom": false,
      "hasCurveTo": false,
      "point": "{0, 0}"
    },
    {
      "_class": "curvePoint",
      "cornerRadius": 0,
      "curveFrom": "{0.75, 0}",
      "curveMode": 1,
      "curveTo": "{0.75, 0}",
      "hasCurveFrom": false,
      "hasCurveTo": false,
      "point": "{0.75, 0}"
    },
    {
      "_class": "curvePoint",
      "cornerRadius": 0,
      "curveFrom": "{0.75, 0.058823529411764705}",
      "curveMode": 1,
      "curveTo": "{0.75, 0.058823529411764705}",
      "hasCurveFrom": false,
      "hasCurveTo": false,
      "point": "{0.75, 0.058823529411764705}"
    }
  ],
  "resizingConstraint": 63,
  "resizingType": 0,
  "rotation": 0,
  "shouldBreakMaskChain": false,
  "style": {
    "_class": "style",
    "blur": {
      "_class": "blur",
      "center": "{0.5, 0.5}",
      "isEnabled": false,
      "motionAngle": 0,
      "radius": 10,
      "saturation": 1,
      "type": 0
    },
    "borderOptions": {
      "_class": "borderOptions",
      "dashPattern": [
      ],
      "isEnabled": true,
      "lineCapStyle": 0,
      "lineJoinStyle": 0
    },
    "borders": [
    ],
    "colorControls": {
      "_class": "colorControls",
      "brightness": 0,
      "contrast": 1,
      "hue": 0,
      "isEnabled": false,
      "saturation": 1
    },
    "contextSettings": {
      "_class": "graphicsContextSettings",
      "blendMode": 0,
      "opacity": 1
    },
    "do_objectID": "37D1565F-F739-461A-9BD1-FC3EBA7A3365",
    "endMarkerType": 0,
    "fills": [
      {
        "_class": "fill",
        "color": {
          "_class": "color",
          "alpha": 1,
          "blue": 0.419607843137255,
          "green": 0.615686274509804,
          "red": 0.7254901960784313
        },
        "contextSettings": {
          "_class": "graphicsContextSettings",
          "blendMode": 0,
          "opacity": 1
        },
        "fillType": 0,
        "gradient": {
          "_class": "gradient",
          "elipseLength": 0,
          "from": "{0.5, 0}",
          "gradientType": 0,
          "stops": [
            {
              "_class": "gradientStop",
              "color": {
                "_class": "color",
                "alpha": 1,
                "blue": 1,
                "green": 1,
                "red": 1
              },
              "position": 0
            },
            {
              "_class": "gradientStop",
              "color": {
                "_class": "color",
                "alpha": 1,
                "blue": 0,
                "green": 0,
                "red": 0
              },
              "position": 1
            }
          ],
          "to": "{0.5, 1}"
        },
        "isEnabled": true,
        "noiseIndex": 0,
        "noiseIntensity": 0,
        "patternFillType": 1,
        "patternTileScale": 1
      }
    ],
    "innerShadows": [
    ],
    "miterLimit": 10,
    "shadows": [
    ],
    "startMarkerType": 0,
    "windingRule": 1
  }
}