{
  "_class": "symbolInstance",
  "booleanOperation": -1,
  "clippingMaskMode": 0,
  "do_objectID": "71F133D7-42C6-414C-B96D-976428872F96",
  "exportOptions": {
    "_class": "exportOptions",
    "do_objectID": "6983E7A0-1D15-4FFC-AA29-ACF00C7DD028",
    "exportFormats": [
    ],
    "includedLayerIds": [
    ],
    "layerOptions": 0,
    "shouldTrim": false
  },
  "frame": {
    "_class": "rect",
    "constrainProportions": false,
    "do_objectID": "8445631F-A33D-4721-B896-E33021D957A6",
    "height": 16,
    "width": 16,
    "x": 194,
    "y": 12
  },
  "hasClippingMask": false,
  "horizontalSpacing": 0,
  "isFixedToViewport": false,
  "isFlippedHorizontal": false,
  "isFlippedVertical": false,
  "isLocked": true,
  "isVisible": true,
  "layerListExpandedType": 0,
  "name": "icon / navigation / chevron / down / 16",
  "nameIsFixed": false,
  "overrideValues": [
    {
      "_class": "overrideValue",
      "do_objectID": "ABEDDB73-5306-4E94-AC53-D642897568ED",
      "overrideName": "91727CC7-E827-4EEC-9582-21DE23B309B4_layerStyle",
      "value": "4924B3FB-A922-4416-8B87-FEC904FA9809"
    }
  ],
  "resizingConstraint": 12,
  "resizingType": 0,
  "rotation": 0,
  "scale": 1,
  "shouldBreakMaskChain": false,
  "style": {
    "_class": "style",
    "do_objectID": "3B2A3619-EB9B-400E-9A42-F75BCF3C8E84",
    "endMarkerType": 0,
    "miterLimit": 10,
    "startMarkerType": 0,
    "windingRule": 1
  },
  "symbolID": "43BEA404-4DB9-4A94-88B3-706D77E3CD32",
  "verticalSpacing": 0
}