{
  "_class": "symbolMaster",
  "allowsOverrides": true,
  "backgroundColor": {
    "_class": "color",
    "alpha": 1,
    "blue": 1,
    "do_objectID": "A87B9C24-462E-4346-B07D-7C119DE6B90F",
    "green": 1,
    "red": 1
  },
  "booleanOperation": -1,
  "changeIdentifier": 1364,
  "clippingMaskMode": 0,
  "do_objectID": "62837507-070D-4234-80F4-458D94887762",
  "exportOptions": {
    "_class": "exportOptions",
    "do_objectID": "0331EC3C-5F5C-4BDD-BE71-65F7E1B4A75F",
    "exportFormats": [
    ],
    "includedLayerIds": [
    ],
    "layerOptions": 0,
    "shouldTrim": false
  },
  "frame": {
    "_class": "rect",
    "constrainProportions": false,
    "do_objectID": "E75E72B2-886C-4AD6-9F6B-AB8E9B06FC71",
    "height": 64,
    "width": 200,
    "x": 23829,
    "y": 0
  },
  "groupLayout": {
    "_class": "MSImmutableFreeformGroupLayout"
  },
  "hasBackgroundColor": false,
  "hasClickThrough": true,
  "hasClippingMask": false,
  "horizontalRulerData": {
    "_class": "rulerData",
    "base": 0,
    "do_objectID": "FC68F6BF-5864-4A1E-878B-D3D234FACE45",
    "guides": [
    ]
  },
  "includeBackgroundColorInExport": true,
  "includeBackgroundColorInInstance": false,
  "includeInCloudUpload": true,
  "isFixedToViewport": false,
  "isFlippedHorizontal": false,
  "isFlippedVertical": false,
  "isFlowHome": false,
  "isLocked": false,
  "isVisible": true,
  "layerListExpandedType": 2,
  "layers": [
    {
      "class": "rectangle",
      "id": "E5C8F7CA-3B80-4C0D-BCCE-0CB6F6050A47"
    },
    {
      "class": "rectangle",
      "id": "7932F9BC-2939-40B3-86A1-7E680E15F90D"
    },
    {
      "class": "symbolInstance",
      "id": "D0E5361B-D4CE-492D-B50A-5B1BE176C754"
    },
    {
      "class": "symbolInstance",
      "id": "3115237C-87F3-42FD-8594-64F7844F7782"
    },
    {
      "class": "symbolInstance",
      "id": "F30DFAFC-8279-4F19-8AD8-D36F52614DB3"
    }
  ],
  "name": "data table / cell / 64 tall / 1 line / icon",
  "nameIsFixed": true,
  "overrideProperties": [
    {
      "_class": "MSImmutableOverrideProperty",
      "canOverride": false,
      "overrideName": "7932F9BC-2939-40B3-86A1-7E680E15F90D_layerStyle"
    },
    {
      "_class": "MSImmutableOverrideProperty",
      "canOverride": false,
      "overrideName": "3115237C-87F3-42FD-8594-64F7844F7782/9F9BACD0-2D1A-419E-8F23-39B00148FEC4/7D8A198D-96CF-4EE7-8B35-81F3F7C86863_layerStyle"
    },
    {
      "_class": "MSImmutableOverrideProperty",
      "canOverride": true,
      "overrideName": "F30DFAFC-8279-4F19-8AD8-D36F52614DB3_symbolID"
    },
    {
      "_class": "MSImmutableOverrideProperty",
      "canOverride": false,
      "overrideName": "E5C8F7CA-3B80-4C0D-BCCE-0CB6F6050A47_layerStyle"
    },
    {
      "_class": "MSImmutableOverrideProperty",
      "canOverride": true,
      "overrideName": "3115237C-87F3-42FD-8594-64F7844F7782_symbolID"
    },
    {
      "_class": "MSImmutableOverrideProperty",
      "canOverride": true,
      "overrideName": "D0E5361B-D4CE-492D-B50A-5B1BE176C754_symbolID"
    },
    {
      "_class": "MSImmutableOverrideProperty",
      "canOverride": false,
      "overrideName": "F30DFAFC-8279-4F19-8AD8-D36F52614DB3/9F9BACD0-2D1A-419E-8F23-39B00148FEC4/CE23B263-A898-436D-BBDC-ABB51F9238C7_layerStyle"
    },
    {
      "_class": "MSImmutableOverrideProperty",
      "canOverride": false,
      "overrideName": "D0E5361B-D4CE-492D-B50A-5B1BE176C754/9F9BACD0-2D1A-419E-8F23-39B00148FEC4/A6233D18-CE1D-4062-9240-B3365A5454B6_layerStyle"
    }
  ],
  "resizesContent": true,
  "resizingConstraint": 63,
  "resizingType": 0,
  "rotation": 0,
  "shouldBreakMaskChain": true,
  "style": {
    "_class": "style",
    "do_objectID": "BF97C1E1-06E1-493E-AEAC-6FC9157807F6",
    "endMarkerType": 0,
    "miterLimit": 10,
    "startMarkerType": 0,
    "windingRule": 1
  },
  "symbolID": "90EC6ADA-25AE-4F8E-B68B-39879AF44708",
  "verticalRulerData": {
    "_class": "rulerData",
    "base": 0,
    "do_objectID": "FC9E773E-BB4E-449B-A5AF-8DF2C476A65B",
    "guides": [
    ]
  }
}