{
  "_class": "group",
  "booleanOperation": 0,
  "clippingMaskMode": 0,
  "do_objectID": "AD71FA8A-1342-4F4B-8F20-B96B8A82FB3F",
  "exportOptions": {
    "_class": "exportOptions",
    "do_objectID": "6EED7469-C7FD-40F6-A694-428E164EAD72",
    "exportFormats": [
    ],
    "includedLayerIds": [
    ],
    "layerOptions": 0,
    "shouldTrim": false
  },
  "frame": {
    "_class": "rect",
    "constrainProportions": false,
    "do_objectID": "A6250604-2049-4AE6-B333-4383ECA68DDD",
    "height": 40,
    "width": 40,
    "x": 0,
    "y": 213
  },
  "groupLayout": {
    "_class": "MSImmutableFreeformGroupLayout",
    "do_objectID": "CABF5C50-2E3D-4AD0-AC76-431320EE596C"
  },
  "hasClickThrough": false,
  "hasClippingMask": false,
  "isFixedToViewport": false,
  "isFlippedHorizontal": true,
  "isFlippedVertical": false,
  "isLocked": false,
  "isVisible": true,
  "layerListExpandedType": 0,
  "layers": [
    {
      "class": "oval",
      "id": "7E154A37-91C2-40FD-A9A5-832EC6998CA6"
    },
    {
      "class": "group",
      "id": "F26839D3-6C70-4AE4-8FF7-C22B606E1CEF"
    }
  ],
  "name": "arrow small button",
  "nameIsFixed": true,
  "resizingConstraint": 63,
  "resizingType": 0,
  "rotation": 0,
  "shouldBreakMaskChain": false,
  "style": {
    "_class": "style",
    "do_objectID": "BBBD4274-1E4D-4025-9454-430C5B29D721",
    "endMarkerType": 0,
    "miterLimit": 10,
    "startMarkerType": 0,
    "windingRule": 1
  }
}