{
  "_class": "shapePath",
  "booleanOperation": -1,
  "clippingMaskMode": 0,
  "do_objectID": "023F208C-4346-4B9E-99FF-52A53C0D44A6",
  "edited": true,
  "exportOptions": {
    "_class": "exportOptions",
    "do_objectID": "CBAFF383-E1A5-4DFC-9B11-69C1774F2671",
    "exportFormats": [
    ],
    "includedLayerIds": [
    ],
    "layerOptions": 0,
    "shouldTrim": false
  },
  "frame": {
    "_class": "rect",
    "constrainProportions": false,
    "do_objectID": "322DB8B5-8189-4882-9D4F-152B910C14D9",
    "height": 0.1058906030855624,
    "width": 0.1059863482545609,
    "x": 29.11616542790343,
    "y": 20.39136764973922
  },
  "hasClippingMask": false,
  "isClosed": true,
  "isFixedToViewport": false,
  "isFlippedHorizontal": false,
  "isFlippedVertical": false,
  "isLocked": false,
  "isVisible": true,
  "layerListExpandedType": 0,
  "name": "Path",
  "nameIsFixed": false,
  "pointRadiusBehaviour": 0,
  "points": [
    {
      "_class": "curvePoint",
      "cornerRadius": 0,
      "curveFrom": "{0.94315059321053241, 0.24618240712533179}",
      "curveMode": 3,
      "curveTo": "{0.36215059321051513, -0.10781759287468162}",
      "hasCurveFrom": true,
      "hasCurveTo": true,
      "point": "{0.56615059321052286, 0.016182407125313603}"
    },
    {
      "_class": "curvePoint",
      "cornerRadius": 0,
      "curveFrom": "{-0.25784940678948942, 0.51418240712533247}",
      "curveMode": 3,
      "curveTo": "{0.32015059321054196, 0.86718240712531269}",
      "hasCurveFrom": true,
      "hasCurveTo": true,
      "point": "{0.11915059321052013, 0.74518240712532702}"
    }
  ],
  "resizingConstraint": 63,
  "resizingType": 0,
  "rotation": 0,
  "shouldBreakMaskChain": false,
  "style": {
    "_class": "style",
    "do_objectID": "35C4A09A-4482-4BB2-BFCD-0D7B514C62FC",
    "endMarkerType": 0,
    "fills": [
      {
        "_class": "fill",
        "color": {
          "_class": "color",
          "alpha": 1,
          "blue": 0.1764705882352941,
          "green": 0.1764705882352941,
          "red": 0.1764705882352941
        },
        "fillType": 0,
        "isEnabled": true,
        "noiseIndex": 0,
        "noiseIntensity": 0,
        "patternFillType": 1,
        "patternTileScale": 1
      }
    ],
    "miterLimit": 10,
    "startMarkerType": 0,
    "windingRule": 1
  }
}