{
  "_class": "shapePath",
  "booleanOperation": -1,
  "clippingMaskMode": 0,
  "do_objectID": "03D08AE6-C35A-46BC-8B84-D0D099F05C2C",
  "edited": true,
  "exportOptions": {
    "_class": "exportOptions",
    "do_objectID": "0986BADD-1DC0-43E2-B245-99A17072CF46",
    "exportFormats": [
    ],
    "includedLayerIds": [
    ],
    "layerOptions": 0,
    "shouldTrim": false
  },
  "frame": {
    "_class": "rect",
    "constrainProportions": false,
    "do_objectID": "AD1CDE30-F6FD-4C67-9558-19B671F82403",
    "height": 0.2687463882963126,
    "width": 0.7619936983145834,
    "x": 41.37247611667044,
    "y": 15.59112042826705
  },
  "hasClippingMask": false,
  "isClosed": true,
  "isFixedToViewport": false,
  "isFlippedHorizontal": false,
  "isFlippedVertical": false,
  "isLocked": false,
  "isVisible": true,
  "layerListExpandedType": 0,
  "name": "Path",
  "nameIsFixed": false,
  "pointRadiusBehaviour": 0,
  "points": [
    {
      "_class": "curvePoint",
      "cornerRadius": 0,
      "curveFrom": "{0.44045225675548239, 0.45656809283414934}",
      "curveMode": 4,
      "curveTo": "{0.5608251881553501, 0.51571372812529714}",
      "hasCurveFrom": true,
      "hasCurveTo": true,
      "point": "{0.51704352903556883, 0.53412129829243116}"
    },
    {
      "_class": "curvePoint",
      "cornerRadius": 0,
      "curveFrom": "{0.4067904458507372, 0.85610289449471022}",
      "curveMode": 3,
      "curveTo": "{0.47528583955880688, 0.76678091466727683}",
      "hasCurveFrom": true,
      "hasCurveTo": true,
      "point": "{0.46367464529102803, 0.78217085038078404}"
    },
    {
      "_class": "curvePoint",
      "cornerRadius": 0,
      "curveFrom": "{0.32987959941648726, 0.66267252601704785}",
      "curveMode": 4,
      "curveTo": "{0.39123783701499437, 0.75048568861768505}",
      "hasCurveFrom": true,
      "hasCurveTo": true,
      "point": "{0.376643950641742, 0.63038383736322012}"
    },
    {
      "_class": "curvePoint",
      "cornerRadius": 0,
      "curveFrom": "{0.26372774950557615, 0.88688276592174176}",
      "curveMode": 4,
      "curveTo": "{0.28322177290928297, 0.69465945122553696}",
      "hasCurveFrom": true,
      "hasCurveTo": true,
      "point": "{0.23645742168401609, 0.72664637643400898}"
    },
    {
      "_class": "curvePoint",
      "cornerRadius": 0,
      "curveFrom": "{0.12695001152555585, 1.0516456070899147}",
      "curveMode": 4,
      "curveTo": "{0.22495275213429375, 0.93244904617153446}",
      "hasCurveFrom": true,
      "hasCurveTo": true,
      "point": "{0.18340811209363272, 0.97409240163163291}"
    },
    {
      "_class": "curvePoint",
      "cornerRadius": 0,
      "curveFrom": "{0.094992596109660446, 0.64547200963137141}",
      "curveMode": 4,
      "curveTo": "{0.1104386802273407, 0.94150194953243216}",
      "hasCurveFrom": true,
      "hasCurveTo": true,
      "point": "{0.096377417444346719, 0.82290891550478062}"
    },
    {
      "_class": "curvePoint",
      "cornerRadius": 0,
      "curveFrom": "{-0.018243179180656786, 0.51179080333556859}",
      "curveMode": 4,
      "curveTo": "{0.053234906632892438, 0.65422314954689609}",
      "hasCurveFrom": true,
      "hasCurveTo": true,
      "point": "{0.0091336733589597874, 0.67323424660475895}"
    },
    {
      "_class": "curvePoint",
      "cornerRadius": 0,
      "curveFrom": "{0.11896065767158352, 0.34853677939420896}",
      "curveMode": 4,
      "curveTo": "{0.0207448676267326, 0.46622452308577583}",
      "hasCurveFrom": true,
      "hasCurveTo": true,
      "point": "{0.062396032385450141, 0.4263917482978638}"
    },
    {
      "_class": "curvePoint",
      "cornerRadius": 0,
      "curveFrom": "{0.4297997849501819, 0.38474839283776535}",
      "curveMode": 4,
      "curveTo": "{0.13525893953368565, 0.4574733831702511}",
      "hasCurveFrom": true,
      "hasCurveTo": true,
      "point": "{0.14953325175278662, 0.57697170753397009}"
    },
    {
      "_class": "curvePoint",
      "cornerRadius": 0,
      "curveFrom": "{1.0178162286026333, 0.15570993780729253}",
      "curveMode": 4,
      "curveTo": "{0.71027936758367205, 0.19252507814156058}",
      "hasCurveFrom": true,
      "hasCurveTo": true,
      "point": "{0.99107852437133781, 0}"
    },
    {
      "_class": "curvePoint",
      "cornerRadius": 0,
      "curveFrom": "{0.91448725209123927, 0.26555183191940218}",
      "curveMode": 3,
      "curveTo": "{0.97989342897577292, 0.21063088486333878}",
      "hasCurveFrom": true,
      "hasCurveTo": true,
      "point": "{0.93760311590873435, 0.24593720797081056}"
    },
    {
      "_class": "curvePoint",
      "cornerRadius": 0,
      "curveFrom": "{0.78516624437492688, 0.24804955208835278}",
      "curveMode": 4,
      "curveTo": "{0.89094528940153017, 0.27551002561638449}",
      "hasCurveFrom": true,
      "hasCurveTo": true,
      "point": "{0.86750985142987147, 0.2939175957835185}"
    },
    {
      "_class": "curvePoint",
      "cornerRadius": 0,
      "curveFrom": "{0.77366157482519848, 0.66569016047069185}",
      "curveMode": 3,
      "curveTo": "{0.83331541693487399, 0.48372680291682524}",
      "hasCurveFrom": true,
      "hasCurveTo": true,
      "point": "{0.81414096768533062, 0.54166538442651546}"
    },
    {
      "_class": "curvePoint",
      "cornerRadius": 0,
      "curveFrom": "{0.60247635291406154, 0.50756611510050131}",
      "curveMode": 4,
      "curveTo": "{0.65041247603790775, 0.57546289030715669}",
      "hasCurveFrom": true,
      "hasCurveTo": true,
      "point": "{0.60396769896680436, 0.68590831131001229}"
    }
  ],
  "resizingConstraint": 63,
  "resizingType": 0,
  "rotation": 0,
  "shouldBreakMaskChain": false,
  "style": {
    "_class": "style",
    "do_objectID": "9C8F97FB-3B92-4203-9108-A5FD9B0FEB8C",
    "endMarkerType": 0,
    "fills": [
      {
        "_class": "fill",
        "color": {
          "_class": "color",
          "alpha": 1,
          "blue": 0.1764705882352941,
          "green": 0.1764705882352941,
          "red": 0.1764705882352941
        },
        "fillType": 0,
        "isEnabled": true,
        "noiseIndex": 0,
        "noiseIntensity": 0,
        "patternFillType": 1,
        "patternTileScale": 1
      }
    ],
    "miterLimit": 10,
    "startMarkerType": 0,
    "windingRule": 1
  }
}