{
  "_class": "shapePath",
  "booleanOperation": -1,
  "clippingMaskMode": 0,
  "do_objectID": "04FFA791-5D24-47AF-91AB-0B6823E0A82F",
  "edited": true,
  "exportOptions": {
    "_class": "exportOptions",
    "do_objectID": "ECBE9F96-05DE-4EDE-BB05-EC79280634FC",
    "exportFormats": [
    ],
    "includedLayerIds": [
    ],
    "layerOptions": 0,
    "shouldTrim": false
  },
  "frame": {
    "_class": "rect",
    "constrainProportions": false,
    "do_objectID": "010DACE5-9278-4F80-AC07-9E55CB9584ED",
    "height": 0.1058906030855589,
    "width": 0.1059863482545431,
    "x": 17.78171884850308,
    "y": 20.20128911483504
  },
  "hasClippingMask": false,
  "isClosed": true,
  "isFixedToViewport": false,
  "isFlippedHorizontal": false,
  "isFlippedVertical": false,
  "isLocked": false,
  "isVisible": true,
  "layerListExpandedType": 0,
  "name": "Path",
  "nameIsFixed": false,
  "pointRadiusBehaviour": 0,
  "points": [
    {
      "_class": "curvePoint",
      "cornerRadius": 0,
      "curveFrom": "{0.13088392730136772, 0.039999999999992042}",
      "curveMode": 3,
      "curveTo": "{-0.084199114256304261, 0.48399999999998045}",
      "hasCurveFrom": true,
      "hasCurveTo": true,
      "point": "{0.01385344880674118, 0.28299999999998704}"
    },
    {
      "_class": "curvePoint",
      "cornerRadius": 0,
      "curveFrom": "{1.1208985156476239, 0.47199999999997999}",
      "curveMode": 4,
      "curveTo": "{0.77771454492695369, 0.20799999999999841}",
      "hasCurveFrom": true,
      "hasCurveTo": true,
      "point": "{0.93902682609520205, 0}"
    },
    {
      "_class": "curvePoint",
      "cornerRadius": 0,
      "curveFrom": "{0.36257264486161983, 1.0679999999999836}",
      "curveMode": 4,
      "curveTo": "{0.86390591084528623, 0.60699999999999932}",
      "hasCurveFrom": true,
      "hasCurveTo": true,
      "point": "{0.58872613708768606, 0.72799999999998022}"
    }
  ],
  "resizingConstraint": 63,
  "resizingType": 0,
  "rotation": 0,
  "shouldBreakMaskChain": false,
  "style": {
    "_class": "style",
    "do_objectID": "F247235C-5CE8-4AC7-95DC-F9B849F12E73",
    "endMarkerType": 0,
    "fills": [
      {
        "_class": "fill",
        "color": {
          "_class": "color",
          "alpha": 1,
          "blue": 0.1764705882352941,
          "green": 0.1764705882352941,
          "red": 0.1764705882352941
        },
        "fillType": 0,
        "isEnabled": true,
        "noiseIndex": 0,
        "noiseIntensity": 0,
        "patternFillType": 1,
        "patternTileScale": 1
      }
    ],
    "miterLimit": 10,
    "startMarkerType": 0,
    "windingRule": 1
  }
}