{
  "_class": "shapePath",
  "booleanOperation": -1,
  "clippingMaskMode": 0,
  "do_objectID": "05D78B1D-D259-45D3-BA89-B334BCE30B83",
  "edited": true,
  "exportOptions": {
    "_class": "exportOptions",
    "do_objectID": "1DFE9E48-9C82-4CBD-AAC4-3F4D49A67B79",
    "exportFormats": [
    ],
    "includedLayerIds": [
    ],
    "layerOptions": 0,
    "shouldTrim": false
  },
  "frame": {
    "_class": "rect",
    "constrainProportions": false,
    "do_objectID": "E1DFB3C6-0201-41D1-BD8B-860441C8FBE3",
    "height": 0.1595877921618101,
    "width": 0.1290108433295387,
    "x": 43.62836418442527,
    "y": 14.53846872870433
  },
  "hasClippingMask": false,
  "isClosed": true,
  "isFixedToViewport": false,
  "isFlippedHorizontal": false,
  "isFlippedVertical": false,
  "isLocked": false,
  "isVisible": true,
  "layerListExpandedType": 0,
  "name": "Path",
  "nameIsFixed": false,
  "pointRadiusBehaviour": 0,
  "points": [
    {
      "_class": "curvePoint",
      "cornerRadius": 0,
      "curveFrom": "{0.60590124667432588, 0.67892722243362336}",
      "curveMode": 4,
      "curveTo": "{0.69021149283670535, 0.49039590201669991}",
      "hasCurveFrom": true,
      "hasCurveTo": true,
      "point": "{0.61470977985547537, 0.66164941948436684}"
    },
    {
      "_class": "curvePoint",
      "cornerRadius": 0,
      "curveFrom": "{0.30452357569097288, 1.0087299904945124}",
      "curveMode": 4,
      "curveTo": "{0.71412036861410078, 0.99450121159511096}",
      "hasCurveFrom": true,
      "hasCurveTo": true,
      "point": "{0.71412036861410078, 0.99450121159511096}"
    },
    {
      "_class": "curvePoint",
      "cornerRadius": 0,
      "curveFrom": "{0.071097446390691016, 0.54426199356439231}",
      "curveMode": 3,
      "curveTo": "{0.37939610773070748, 1.0158443799442129}",
      "hasCurveFrom": true,
      "hasCurveTo": true,
      "point": "{0.20070872034180845, 0.74244855680590549}"
    },
    {
      "_class": "curvePoint",
      "cornerRadius": 0,
      "curveFrom": "{0.38820464091185697, -0.17479951152985107}",
      "curveMode": 4,
      "curveTo": "{0.11199420758881852, 0.27594787717586272}",
      "hasCurveFrom": true,
      "hasCurveTo": true,
      "point": "{0, 0.073695948534533012}"
    },
    {
      "_class": "curvePoint",
      "cornerRadius": 0,
      "curveFrom": "{0.55619595229504892, 0.3394692115481448}",
      "curveMode": 3,
      "curveTo": "{0.35863313666086033, 0.28102958392564065}",
      "hasCurveFrom": true,
      "hasCurveTo": true,
      "point": "{0.5140408292138593, 0.32676494467369993}"
    },
    {
      "_class": "curvePoint",
      "cornerRadius": 0,
      "curveFrom": "{1.1822309890977267, 0.60930783996160198}",
      "curveMode": 4,
      "curveTo": "{0.91105400330679409, 0.22004910292824756}",
      "hasCurveFrom": true,
      "hasCurveTo": true,
      "point": "{0.92741270778610241, 0.24596580735216128}"
    }
  ],
  "resizingConstraint": 63,
  "resizingType": 0,
  "rotation": 0,
  "shouldBreakMaskChain": false,
  "style": {
    "_class": "style",
    "do_objectID": "D8293C3C-D134-4C23-B401-00472F4C2B15",
    "endMarkerType": 0,
    "fills": [
      {
        "_class": "fill",
        "color": {
          "_class": "color",
          "alpha": 1,
          "blue": 0.1764705882352941,
          "green": 0.1764705882352941,
          "red": 0.1764705882352941
        },
        "fillType": 0,
        "isEnabled": true,
        "noiseIndex": 0,
        "noiseIntensity": 0,
        "patternFillType": 1,
        "patternTileScale": 1
      }
    ],
    "miterLimit": 10,
    "startMarkerType": 0,
    "windingRule": 1
  }
}