{
  "_class": "shapePath",
  "booleanOperation": -1,
  "clippingMaskMode": 0,
  "do_objectID": "2420775B-1ACA-4170-8DEB-0F0782402AD5",
  "edited": true,
  "exportOptions": {
    "_class": "exportOptions",
    "do_objectID": "54AD5BC0-065B-473F-8177-524C78893E58",
    "exportFormats": [
    ],
    "includedLayerIds": [
    ],
    "layerOptions": 0,
    "shouldTrim": false
  },
  "frame": {
    "_class": "rect",
    "constrainProportions": false,
    "do_objectID": "CFB6403B-7BFC-42DE-8B2F-41E204EFDAD7",
    "height": 0.1058906030855589,
    "width": 0.1059863482545644,
    "x": 16.5253624482789,
    "y": 24.99669374105569
  },
  "hasClippingMask": false,
  "isClosed": true,
  "isFixedToViewport": false,
  "isFlippedHorizontal": false,
  "isFlippedVertical": false,
  "isLocked": false,
  "isVisible": true,
  "layerListExpandedType": 0,
  "name": "Path",
  "nameIsFixed": false,
  "pointRadiusBehaviour": 0,
  "points": [
    {
      "_class": "curvePoint",
      "cornerRadius": 0,
      "curveFrom": "{0.93838549093612755, 0.24489540918216335}",
      "curveMode": 3,
      "curveTo": "{0.36138549093612937, -0.10710459081786894}",
      "hasCurveFrom": true,
      "hasCurveTo": true,
      "point": "{0.561385490936118, 0.015895409182178355}"
    },
    {
      "_class": "curvePoint",
      "cornerRadius": 0,
      "curveFrom": "{-0.25661450906386563, 0.51689540918215471}",
      "curveMode": 3,
      "curveTo": "{0.31938549093612778, 0.8708954091821397}",
      "hasCurveFrom": true,
      "hasCurveTo": true,
      "point": "{0.11838549093613437, 0.7468954091821729}"
    }
  ],
  "resizingConstraint": 63,
  "resizingType": 0,
  "rotation": 0,
  "shouldBreakMaskChain": false,
  "style": {
    "_class": "style",
    "do_objectID": "7EB0A730-17B3-4037-ACFE-21D78C71FA63",
    "endMarkerType": 0,
    "fills": [
      {
        "_class": "fill",
        "color": {
          "_class": "color",
          "alpha": 1,
          "blue": 0.1764705882352941,
          "green": 0.1764705882352941,
          "red": 0.1764705882352941
        },
        "fillType": 0,
        "isEnabled": true,
        "noiseIndex": 0,
        "noiseIntensity": 0,
        "patternFillType": 1,
        "patternTileScale": 1
      }
    ],
    "miterLimit": 10,
    "startMarkerType": 0,
    "windingRule": 1
  }
}