{
  "_class": "shapePath",
  "booleanOperation": -1,
  "clippingMaskMode": 0,
  "do_objectID": "2A1F126D-942C-427D-8E23-2B180B15C046",
  "edited": true,
  "exportOptions": {
    "_class": "exportOptions",
    "do_objectID": "E9B1C37D-8362-4F19-9358-6082344ECD2F",
    "exportFormats": [
    ],
    "includedLayerIds": [
    ],
    "layerOptions": 0,
    "shouldTrim": false
  },
  "frame": {
    "_class": "rect",
    "constrainProportions": false,
    "do_objectID": "41B00EF5-3CEA-4CC8-A610-DCA51E127559",
    "height": 0.1058906030855589,
    "width": 0.1059863482545538,
    "x": 38.23232970885292,
    "y": 27.65201356952389
  },
  "hasClippingMask": false,
  "isClosed": true,
  "isFixedToViewport": false,
  "isFlippedHorizontal": false,
  "isFlippedVertical": false,
  "isLocked": false,
  "isVisible": true,
  "layerListExpandedType": 0,
  "name": "Path",
  "nameIsFixed": false,
  "pointRadiusBehaviour": 0,
  "points": [
    {
      "_class": "curvePoint",
      "cornerRadius": 0,
      "curveFrom": "{-0.25676574300598531, 0.51071685751099949}",
      "curveMode": 4,
      "curveTo": "{0.32123425699398922, 0.86971685751103678}",
      "hasCurveFrom": true,
      "hasCurveTo": true,
      "point": "{0.11823425699401469, 0.74671685751098948}"
    },
    {
      "_class": "curvePoint",
      "cornerRadius": 0,
      "curveFrom": "{0.93823425699400786, 0.24471685751103678}",
      "curveMode": 4,
      "curveTo": "{0.36223425699404288, -0.10928314248900506}",
      "hasCurveFrom": true,
      "hasCurveTo": true,
      "point": "{0.56423425699404106, 0.016716857510971295}"
    }
  ],
  "resizingConstraint": 63,
  "resizingType": 0,
  "rotation": 0,
  "shouldBreakMaskChain": false,
  "style": {
    "_class": "style",
    "do_objectID": "41501DBB-7B63-49EE-9E5A-1BF984B22987",
    "endMarkerType": 0,
    "fills": [
      {
        "_class": "fill",
        "color": {
          "_class": "color",
          "alpha": 1,
          "blue": 0.1764705882352941,
          "green": 0.1764705882352941,
          "red": 0.1764705882352941
        },
        "fillType": 0,
        "isEnabled": true,
        "noiseIndex": 0,
        "noiseIntensity": 0,
        "patternFillType": 1,
        "patternTileScale": 1
      }
    ],
    "miterLimit": 10,
    "startMarkerType": 0,
    "windingRule": 1
  }
}