{
  "_class": "shapePath",
  "booleanOperation": -1,
  "clippingMaskMode": 0,
  "do_objectID": "2C3A748E-5DAF-43F1-887F-CFE9AEB7BDDA",
  "edited": true,
  "exportOptions": {
    "_class": "exportOptions",
    "do_objectID": "9F0AC21D-A2E5-4F8A-AF27-AF8737C2648D",
    "exportFormats": [
    ],
    "includedLayerIds": [
    ],
    "layerOptions": 0,
    "shouldTrim": false
  },
  "frame": {
    "_class": "rect",
    "constrainProportions": false,
    "do_objectID": "118BFEFE-51BF-4020-89C0-58B5C2AACAB4",
    "height": 0.1058906030855624,
    "width": 0.1059863482545609,
    "x": 25.59936663908328,
    "y": 21.37586154018065
  },
  "hasClippingMask": false,
  "isClosed": true,
  "isFixedToViewport": false,
  "isFlippedHorizontal": false,
  "isFlippedVertical": false,
  "isLocked": false,
  "isVisible": true,
  "layerListExpandedType": 0,
  "name": "Path",
  "nameIsFixed": false,
  "pointRadiusBehaviour": 0,
  "points": [
    {
      "_class": "curvePoint",
      "cornerRadius": 0,
      "curveFrom": "{-0.27013346159753837, 0.70059967277057922}",
      "curveMode": 3,
      "curveTo": "{0.411866538402478, 0.94759967277059332}",
      "hasCurveFrom": true,
      "hasCurveTo": true,
      "point": "{0.17386653840242161, 0.86259967277055694}"
    },
    {
      "_class": "curvePoint",
      "cornerRadius": 0,
      "curveFrom": "{0.92686653840246436, 0.16459967277057785}",
      "curveMode": 4,
      "curveTo": "{0.24886653840246709, -0.07940032722945034}",
      "hasCurveFrom": true,
      "hasCurveTo": true,
      "point": "{0.48286653840244753, 0.0065996727705623925}"
    }
  ],
  "resizingConstraint": 63,
  "resizingType": 0,
  "rotation": 0,
  "shouldBreakMaskChain": false,
  "style": {
    "_class": "style",
    "do_objectID": "AD22E021-D2EC-4A01-87DC-32C89DA1538F",
    "endMarkerType": 0,
    "fills": [
      {
        "_class": "fill",
        "color": {
          "_class": "color",
          "alpha": 1,
          "blue": 0.1764705882352941,
          "green": 0.1764705882352941,
          "red": 0.1764705882352941
        },
        "fillType": 0,
        "isEnabled": true,
        "noiseIndex": 0,
        "noiseIntensity": 0,
        "patternFillType": 1,
        "patternTileScale": 1
      }
    ],
    "miterLimit": 10,
    "startMarkerType": 0,
    "windingRule": 1
  }
}