{
  "_class": "shapePath",
  "booleanOperation": -1,
  "clippingMaskMode": 0,
  "do_objectID": "4053A33B-21B2-4C14-BA75-602E6EC5C3A5",
  "edited": true,
  "exportOptions": {
    "_class": "exportOptions",
    "do_objectID": "B4CE263A-7967-48BE-AD25-907A95877217",
    "exportFormats": [
    ],
    "includedLayerIds": [
    ],
    "layerOptions": 0,
    "shouldTrim": false
  },
  "frame": {
    "_class": "rect",
    "constrainProportions": false,
    "do_objectID": "E54EC8DF-9004-4561-9E5D-DCFAC2B0B14C",
    "height": 0.1058906030855908,
    "width": 0.1964744841645931,
    "x": 19.98724841501202,
    "y": 35.10123233867731
  },
  "hasClippingMask": false,
  "isClosed": true,
  "isFixedToViewport": false,
  "isFlippedHorizontal": false,
  "isFlippedVertical": false,
  "isLocked": false,
  "isVisible": true,
  "layerListExpandedType": 0,
  "name": "Path",
  "nameIsFixed": false,
  "pointRadiusBehaviour": 0,
  "points": [
    {
      "_class": "curvePoint",
      "cornerRadius": 0,
      "curveFrom": "{0.70571321479748417, 0.66389944073999296}",
      "curveMode": 4,
      "curveTo": "{0.93211308544992166, 0.52808265553143507}",
      "hasCurveFrom": true,
      "hasCurveTo": true,
      "point": "{0.7858620741160427, 0.61750240231470388}"
    },
    {
      "_class": "curvePoint",
      "cornerRadius": 0,
      "curveFrom": "{0.44171774518633555, 0.65630719808857063}",
      "curveMode": 4,
      "curveTo": "{0.62391180167853488, 0.6892069162446699}",
      "hasCurveFrom": true,
      "hasCurveTo": true,
      "point": "{0.54334980390987864, 0.73729111970361383}"
    },
    {
      "_class": "curvePoint",
      "cornerRadius": 0,
      "curveFrom": "{0.049236217595436976, 0.96084048666178579}",
      "curveMode": 4,
      "curveTo": "{0.14219236886696435, 1.106780262072224}",
      "hasCurveFrom": true,
      "hasCurveTo": true,
      "point": "{0.059151540397733862, 0.97602497196463034}"
    },
    {
      "_class": "curvePoint",
      "cornerRadius": 0,
      "curveFrom": "{0.07939532445241354, 0.27247715293396718}",
      "curveMode": 4,
      "curveTo": "{-0.0057111962672935198, 0.49855726744259726}",
      "hasCurveFrom": true,
      "hasCurveTo": true,
      "point": "{0.00048588048413615928, 0.47915486955568781}"
    },
    {
      "_class": "curvePoint",
      "cornerRadius": 0,
      "curveFrom": "{0.64498186263340984, 0.16028067819643152}",
      "curveMode": 4,
      "curveTo": "{0.38635719287350739, 0.42179125841166698}",
      "hasCurveFrom": true,
      "hasCurveTo": true,
      "point": "{0.48427100554619495, 0.23873385226101654}"
    },
    {
      "_class": "curvePoint",
      "cornerRadius": 0,
      "curveFrom": "{1.0622516972300624, 0.39310945283968052}",
      "curveMode": 4,
      "curveTo": "{0.80734527352101537, 0.079296756581388406}",
      "hasCurveFrom": true,
      "hasCurveTo": true,
      "point": "{0.96805613060824203, 0}"
    }
  ],
  "resizingConstraint": 63,
  "resizingType": 0,
  "rotation": 0,
  "shouldBreakMaskChain": false,
  "style": {
    "_class": "style",
    "do_objectID": "FE0AC95D-350F-4088-9FE1-C5BB7AF7299F",
    "endMarkerType": 0,
    "fills": [
      {
        "_class": "fill",
        "color": {
          "_class": "color",
          "alpha": 1,
          "blue": 0.1764705882352941,
          "green": 0.1764705882352941,
          "red": 0.1764705882352941
        },
        "fillType": 0,
        "isEnabled": true,
        "noiseIndex": 0,
        "noiseIntensity": 0,
        "patternFillType": 1,
        "patternTileScale": 1
      }
    ],
    "miterLimit": 10,
    "startMarkerType": 0,
    "windingRule": 1
  }
}