{
  "_class": "shapePath",
  "booleanOperation": -1,
  "clippingMaskMode": 0,
  "do_objectID": "40671F82-18CC-4E7C-9FC2-FE1190D7D958",
  "edited": true,
  "exportOptions": {
    "_class": "exportOptions",
    "do_objectID": "78F855AA-9E70-4EB5-9609-A4D9EB1A386C",
    "exportFormats": [
    ],
    "includedLayerIds": [
    ],
    "layerOptions": 0,
    "shouldTrim": false
  },
  "frame": {
    "_class": "rect",
    "constrainProportions": false,
    "do_objectID": "21A8075A-F5E7-4FC7-92EF-1AFA792947E7",
    "height": 0.105890603085566,
    "width": 0.1072801156196341,
    "x": 22.42168144722106,
    "y": 22.603163725458
  },
  "hasClippingMask": false,
  "isClosed": true,
  "isFixedToViewport": false,
  "isFlippedHorizontal": false,
  "isFlippedVertical": false,
  "isLocked": false,
  "isVisible": true,
  "layerListExpandedType": 0,
  "name": "Path",
  "nameIsFixed": false,
  "pointRadiusBehaviour": 0,
  "points": [
    {
      "_class": "curvePoint",
      "cornerRadius": 0,
      "curveFrom": "{0.48259491196163123, 1.2518408459487116}",
      "curveMode": 4,
      "curveTo": "{0.91311637417188574, 0.64408438819007074}",
      "hasCurveFrom": true,
      "hasCurveTo": true,
      "point": "{0.65510614813727064, 0.83848790779619786}"
    },
    {
      "_class": "curvePoint",
      "cornerRadius": 0,
      "curveFrom": "{0.085365091820388511, 0.25527734897776072}",
      "curveMode": 4,
      "curveTo": "{-0.058394271659303845, 0.76877755480608878}",
      "hasCurveFrom": true,
      "hasCurveTo": true,
      "point": "{0.0051624995632571424, 0.53411876093814148}"
    },
    {
      "_class": "curvePoint",
      "cornerRadius": 0,
      "curveFrom": "{1.1446446121970644, 0.43888067305024514}",
      "curveMode": 4,
      "curveTo": "{0.76103410017492967, 0.25331367706253771}",
      "hasCurveFrom": true,
      "hasCurveTo": true,
      "point": "{0.88890427084896029, 0}"
    }
  ],
  "resizingConstraint": 63,
  "resizingType": 0,
  "rotation": 0,
  "shouldBreakMaskChain": false,
  "style": {
    "_class": "style",
    "do_objectID": "42D9BF68-F9D6-4824-97CC-8CCB551948C9",
    "endMarkerType": 0,
    "fills": [
      {
        "_class": "fill",
        "color": {
          "_class": "color",
          "alpha": 1,
          "blue": 0.1764705882352941,
          "green": 0.1764705882352941,
          "red": 0.1764705882352941
        },
        "fillType": 0,
        "isEnabled": true,
        "noiseIndex": 0,
        "noiseIntensity": 0,
        "patternFillType": 1,
        "patternTileScale": 1
      }
    ],
    "miterLimit": 10,
    "startMarkerType": 0,
    "windingRule": 1
  }
}