{
  "_class": "shapePath",
  "booleanOperation": -1,
  "clippingMaskMode": 0,
  "do_objectID": "4A8D2C79-A3DC-4EB2-B080-5F73C88722B3",
  "edited": true,
  "exportOptions": {
    "_class": "exportOptions",
    "do_objectID": "6D80FD2E-5366-40D0-82D3-6F87CE71F461",
    "exportFormats": [
    ],
    "includedLayerIds": [
    ],
    "layerOptions": 0,
    "shouldTrim": false
  },
  "frame": {
    "_class": "rect",
    "constrainProportions": false,
    "do_objectID": "FB5617A0-E4DC-422E-A820-6E19700B90C5",
    "height": 0.105890603085566,
    "width": 0.1059863482545609,
    "x": 44.53980148295526,
    "y": 19.73343231565074
  },
  "hasClippingMask": false,
  "isClosed": true,
  "isFixedToViewport": false,
  "isFlippedHorizontal": false,
  "isFlippedVertical": false,
  "isLocked": false,
  "isVisible": true,
  "layerListExpandedType": 0,
  "name": "Path",
  "nameIsFixed": false,
  "pointRadiusBehaviour": 0,
  "points": [
    {
      "_class": "curvePoint",
      "cornerRadius": 0,
      "curveFrom": "{1.0424151791974055, 0.1900417143993991}",
      "curveMode": 4,
      "curveTo": "{0.2794151791973718, -0.086958285600616136}",
      "hasCurveFrom": true,
      "hasCurveTo": true,
      "point": "{0.54441517919735816, 0.0070417143994063736}"
    },
    {
      "_class": "curvePoint",
      "cornerRadius": 0,
      "curveFrom": "{-0.30358482080259819, 0.78804171439938386}",
      "curveMode": 3,
      "curveTo": "{0.46141517919738817, 1.0670417143994086}",
      "hasCurveFrom": true,
      "hasCurveTo": true,
      "point": "{0.19541517919731177, 0.96904171439939546}"
    }
  ],
  "resizingConstraint": 63,
  "resizingType": 0,
  "rotation": 0,
  "shouldBreakMaskChain": false,
  "style": {
    "_class": "style",
    "do_objectID": "FDAF9B6B-C962-4A84-937D-9B5ACB89A57A",
    "endMarkerType": 0,
    "fills": [
      {
        "_class": "fill",
        "color": {
          "_class": "color",
          "alpha": 1,
          "blue": 0.1764705882352941,
          "green": 0.1764705882352941,
          "red": 0.1764705882352941
        },
        "fillType": 0,
        "isEnabled": true,
        "noiseIndex": 0,
        "noiseIntensity": 0,
        "patternFillType": 1,
        "patternTileScale": 1
      }
    ],
    "miterLimit": 10,
    "startMarkerType": 0,
    "windingRule": 1
  }
}