{
  "_class": "shapePath",
  "booleanOperation": -1,
  "clippingMaskMode": 0,
  "do_objectID": "4DBBFB24-39D6-4B0F-A45F-B1F4BE622D1E",
  "edited": true,
  "exportOptions": {
    "_class": "exportOptions",
    "do_objectID": "F835FCC2-4C0A-417C-8FA1-1971713DC880",
    "exportFormats": [
    ],
    "includedLayerIds": [
    ],
    "layerOptions": 0,
    "shouldTrim": false
  },
  "frame": {
    "_class": "rect",
    "constrainProportions": false,
    "do_objectID": "9B00E6A7-318B-441E-8EBA-85B7D0662272",
    "height": 0.1058906030855535,
    "width": 0.1204232213326506,
    "x": 11.68244564335881,
    "y": 15.56062764190806
  },
  "hasClippingMask": false,
  "isClosed": true,
  "isFixedToViewport": false,
  "isFlippedHorizontal": false,
  "isFlippedVertical": false,
  "isLocked": false,
  "isVisible": true,
  "layerListExpandedType": 0,
  "name": "Path",
  "nameIsFixed": false,
  "pointRadiusBehaviour": 0,
  "points": [
    {
      "_class": "curvePoint",
      "cornerRadius": 0,
      "curveFrom": "{0.081833523016562673, 0.25327777691764108}",
      "curveMode": 4,
      "curveTo": "{-0.061064886029824107, 0.76769367555387891}",
      "hasCurveFrom": true,
      "hasCurveTo": true,
      "point": "{0.0056659747984480098, 0.53450344646071468}"
    },
    {
      "_class": "curvePoint",
      "cornerRadius": 0,
      "curveFrom": "{1.1461570507723322, 0.43581245062727708}",
      "curveMode": 4,
      "curveTo": "{0.75992691688756864, 0.25677126349583257}",
      "hasCurveFrom": true,
      "hasCurveTo": true,
      "point": "{0.88867029484914373, 0}"
    },
    {
      "_class": "curvePoint",
      "cornerRadius": 0,
      "curveFrom": "{0.48019654068828305, 1.2515415666311149}",
      "curveMode": 4,
      "curveTo": "{0.91023986602596219, 0.64454827367324985}",
      "hasCurveFrom": true,
      "hasCurveTo": true,
      "point": "{0.65410120830133089, 0.83931015040645673}"
    }
  ],
  "resizingConstraint": 63,
  "resizingType": 0,
  "rotation": 0,
  "shouldBreakMaskChain": false,
  "style": {
    "_class": "style",
    "do_objectID": "E89689D2-3216-45C5-B680-D57DF256B2E8",
    "endMarkerType": 0,
    "fills": [
      {
        "_class": "fill",
        "color": {
          "_class": "color",
          "alpha": 1,
          "blue": 0.1764705882352941,
          "green": 0.1764705882352941,
          "red": 0.1764705882352941
        },
        "fillType": 0,
        "isEnabled": true,
        "noiseIndex": 0,
        "noiseIntensity": 0,
        "patternFillType": 1,
        "patternTileScale": 1
      }
    ],
    "miterLimit": 10,
    "startMarkerType": 0,
    "windingRule": 1
  }
}