{
  "_class": "shapePath",
  "booleanOperation": -1,
  "clippingMaskMode": 0,
  "do_objectID": "4F2B13A1-7776-4256-8817-659D136D497C",
  "edited": true,
  "exportOptions": {
    "_class": "exportOptions",
    "do_objectID": "3DA50ADD-8040-4474-AB6D-F170D591CF83",
    "exportFormats": [
    ],
    "includedLayerIds": [
    ],
    "layerOptions": 0,
    "shouldTrim": false
  },
  "frame": {
    "_class": "rect",
    "constrainProportions": false,
    "do_objectID": "F274B662-67C5-4D5D-9E23-D2B0B1F3CE76",
    "height": 0.1058906030855518,
    "width": 0.1059863482545538,
    "x": 42.47389569565271,
    "y": 12.32941256568106
  },
  "hasClippingMask": false,
  "isClosed": true,
  "isFixedToViewport": false,
  "isFlippedHorizontal": false,
  "isFlippedVertical": false,
  "isLocked": false,
  "isVisible": true,
  "layerListExpandedType": 0,
  "name": "Path",
  "nameIsFixed": false,
  "pointRadiusBehaviour": 0,
  "points": [
    {
      "_class": "curvePoint",
      "cornerRadius": 0,
      "curveFrom": "{-0.28835696132478006, 0.57841917324054748}",
      "curveMode": 3,
      "curveTo": "{0.35864303867515446, 0.97541917324053884}",
      "hasCurveFrom": true,
      "hasCurveTo": true,
      "point": "{0.13264303867515537, 0.83641917324058568}"
    },
    {
      "_class": "curvePoint",
      "cornerRadius": 0,
      "curveFrom": "{1.0536430386752045, 0.27741917324055976}",
      "curveMode": 3,
      "curveTo": "{0.40764303867524632, -0.11858082675945525}",
      "hasCurveFrom": true,
      "hasCurveTo": true,
      "point": "{0.63064303867520266, 0.017419173240568853}"
    }
  ],
  "resizingConstraint": 63,
  "resizingType": 0,
  "rotation": 0,
  "shouldBreakMaskChain": false,
  "style": {
    "_class": "style",
    "do_objectID": "C6C0D05D-5240-4856-9663-B7CEA78E1914",
    "endMarkerType": 0,
    "fills": [
      {
        "_class": "fill",
        "color": {
          "_class": "color",
          "alpha": 1,
          "blue": 0.1764705882352941,
          "green": 0.1764705882352941,
          "red": 0.1764705882352941
        },
        "fillType": 0,
        "isEnabled": true,
        "noiseIndex": 0,
        "noiseIntensity": 0,
        "patternFillType": 1,
        "patternTileScale": 1
      }
    ],
    "miterLimit": 10,
    "startMarkerType": 0,
    "windingRule": 1
  }
}