{
  "_class": "shapePath",
  "booleanOperation": -1,
  "clippingMaskMode": 0,
  "do_objectID": "50DE4E6A-C746-419A-B1C6-DF42C0DDB170",
  "edited": true,
  "exportOptions": {
    "_class": "exportOptions",
    "do_objectID": "8FE1FC18-2BF8-4FA5-87DF-7DAA8C3845E3",
    "exportFormats": [
    ],
    "includedLayerIds": [
    ],
    "layerOptions": 0,
    "shouldTrim": false
  },
  "frame": {
    "_class": "rect",
    "constrainProportions": false,
    "do_objectID": "0F8CC051-ED23-4456-A25D-FE8B59290F08",
    "height": 3.385915753388971,
    "width": 1.817909386057298,
    "x": 25.99271126596944,
    "y": 29.73880012480615
  },
  "hasClippingMask": false,
  "isClosed": true,
  "isFixedToViewport": false,
  "isFlippedHorizontal": false,
  "isFlippedVertical": false,
  "isLocked": false,
  "isVisible": true,
  "layerListExpandedType": 0,
  "name": "Path",
  "nameIsFixed": false,
  "pointRadiusBehaviour": 0,
  "points": [
    {
      "_class": "curvePoint",
      "cornerRadius": 0,
      "curveFrom": "{0.20981425254509775, 0.37625446097099502}",
      "curveMode": 4,
      "curveTo": "{0.19248973030898267, 0.38056573495245666}",
      "hasCurveFrom": true,
      "hasCurveTo": false,
      "point": "{0.19248973030898267, 0.38056573495245666}"
    },
    {
      "_class": "curvePoint",
      "cornerRadius": 0,
      "curveFrom": "{0.25348276477942566, 0.37577543052861084}",
      "curveMode": 4,
      "curveTo": "{0.22713877478121028, 0.37191923546741462}",
      "hasCurveFrom": true,
      "hasCurveTo": true,
      "point": "{0.24441864618681844, 0.36758400996383295}"
    },
    {
      "_class": "curvePoint",
      "cornerRadius": 0,
      "curveFrom": "{0.29040900160743055, 0.38590692438504542}",
      "curveMode": 4,
      "curveTo": "{0.26277013752455736, 0.38317645086345237}",
      "hasCurveFrom": true,
      "hasCurveTo": true,
      "point": "{0.28272905876049248, 0.37500898182079451}"
    },
    {
      "_class": "curvePoint",
      "cornerRadius": 0,
      "curveFrom": "{0.24115913555992172, 0.40250532921367194}",
      "curveMode": 2,
      "curveTo": "{0.29094481157349594, 0.39000263466743373}",
      "hasCurveFrom": true,
      "hasCurveTo": true,
      "point": "{0.26879799964279238, 0.39555938779909455}"
    },
    {
      "_class": "curvePoint",
      "cornerRadius": 0,
      "curveFrom": "{0.22378996249330224, 0.38844578572968375}",
      "curveMode": 2,
      "curveTo": "{0.24272191462761095, 0.38753562788915275}",
      "hasCurveFrom": true,
      "hasCurveTo": true,
      "point": "{0.23057688873012966, 0.38808651289789425}"
    },
    {
      "_class": "curvePoint",
      "cornerRadius": 0,
      "curveFrom": "{0.20235756385068671, 0.39620607889631482}",
      "curveMode": 4,
      "curveTo": "{0.21289515984997437, 0.39261335057842939}",
      "hasCurveFrom": false,
      "hasCurveTo": true,
      "point": "{0.20235756385068671, 0.39620607889631482}"
    },
    {
      "_class": "curvePoint",
      "cornerRadius": 0,
      "curveFrom": "{0.58363100553670377, 1}",
      "curveMode": 1,
      "curveTo": "{0.58363100553670377, 1}",
      "hasCurveFrom": false,
      "hasCurveTo": false,
      "point": "{0.58363100553670377, 1}"
    },
    {
      "_class": "curvePoint",
      "cornerRadius": 0,
      "curveFrom": "{0.83322914806215342, 0.95032454312471659}",
      "curveMode": 4,
      "curveTo": "{0.84582068226468887, 0.95236042250485076}",
      "hasCurveFrom": true,
      "hasCurveTo": false,
      "point": "{0.84582068226468887, 0.95236042250485076}"
    },
    {
      "_class": "curvePoint",
      "cornerRadius": 0,
      "curveFrom": "{0.83287194141811072, 0.93164235587171595}",
      "curveMode": 2,
      "curveTo": "{0.8211287729951765, 0.94189360733874661}",
      "hasCurveFrom": true,
      "hasCurveTo": true,
      "point": "{0.82537060189319522, 0.93822902445450518}"
    },
    {
      "_class": "curvePoint",
      "cornerRadius": 0,
      "curveFrom": "{0.89225754599035501, 0.93954635817106169}",
      "curveMode": 4,
      "curveTo": "{0.87390605465261606, 0.93616919355225103}",
      "hasCurveFrom": true,
      "hasCurveTo": true,
      "point": "{0.88413109483836283, 0.93061244042058888}"
    },
    {
      "_class": "curvePoint",
      "cornerRadius": 0,
      "curveFrom": "{0.87627254866940463, 0.94682762089530859}",
      "curveMode": 4,
      "curveTo": "{0.88640828719414011, 0.94385763215252338}",
      "hasCurveFrom": false,
      "hasCurveTo": true,
      "point": "{0.87627254866940463, 0.94682762089530859}"
    },
    {
      "_class": "curvePoint",
      "cornerRadius": 0,
      "curveFrom": "{1, 0.92433714162535041}",
      "curveMode": 1,
      "curveTo": "{1, 0.92433714162535041}",
      "hasCurveFrom": false,
      "hasCurveTo": false,
      "point": "{1, 0.92433714162535041}"
    },
    {
      "_class": "curvePoint",
      "cornerRadius": 0,
      "curveFrom": "{0.98740846579746211, 0.91719958803381962}",
      "curveMode": 4,
      "curveTo": "{0.99486515449187318, 0.91621757562693129}",
      "hasCurveFrom": true,
      "hasCurveTo": false,
      "point": "{0.99486515449187318, 0.91621757562693129}"
    },
    {
      "_class": "curvePoint",
      "cornerRadius": 0,
      "curveFrom": "{0.96771744954456096, 0.90862494311513631}",
      "curveMode": 4,
      "curveTo": "{0.97990712627254917, 0.91815764891858942}",
      "hasCurveFrom": true,
      "hasCurveTo": true,
      "point": "{0.97245043757813809, 0.91913966132547775}"
    },
    {
      "_class": "curvePoint",
      "cornerRadius": 0,
      "curveFrom": "{0.96642257545990318, 0.88747574908385474}",
      "curveMode": 4,
      "curveTo": "{0.9629398106804794, 0.89811022490479353}",
      "hasCurveFrom": true,
      "hasCurveTo": true,
      "point": "{0.95820682264689971, 0.88757155517233211}"
    },
    {
      "_class": "curvePoint",
      "cornerRadius": 0,
      "curveFrom": "{0.97490623325593806, 0.884625517951667}",
      "curveMode": 4,
      "curveTo": "{0.971334166815503, 0.88623026993365417}",
      "hasCurveFrom": false,
      "hasCurveTo": true,
      "point": "{0.97490623325593806, 0.884625517951667}"
    },
    {
      "_class": "curvePoint",
      "cornerRadius": 0,
      "curveFrom": "{0.84305233077335306, 0.70225862853584364}",
      "curveMode": 4,
      "curveTo": "{0.85845686729773107, 0.70022274915570959}",
      "hasCurveFrom": true,
      "hasCurveTo": false,
      "point": "{0.85845686729773107, 0.70022274915570959}"
    },
    {
      "_class": "curvePoint",
      "cornerRadius": 0,
      "curveFrom": "{0.82470083943561412, 0.68005556753131768}",
      "curveMode": 4,
      "curveTo": "{0.83729237363814957, 0.69617494191756002}",
      "hasCurveFrom": true,
      "hasCurveTo": true,
      "point": "{0.83247008394356103, 0.68867811549423974}"
    },
    {
      "_class": "curvePoint",
      "cornerRadius": 0,
      "curveFrom": "{0.8415788533666726, 0.67349285047064844}",
      "curveMode": 4,
      "curveTo": "{0.83121986068940756, 0.6761275179037628}",
      "hasCurveFrom": false,
      "hasCurveTo": true,
      "point": "{0.8415788533666726, 0.67349285047064844}"
    },
    {
      "_class": "curvePoint",
      "cornerRadius": 0,
      "curveFrom": "{0.60126808358635464, 0.29956168714521836}",
      "curveMode": 4,
      "curveTo": "{0.60135738524736604, 0.2930708246509065}",
      "hasCurveFrom": true,
      "hasCurveTo": false,
      "point": "{0.60135738524736604, 0.2930708246509065}"
    },
    {
      "_class": "curvePoint",
      "cornerRadius": 0,
      "curveFrom": "{0.55965350955527704, 0.30011257215395992}",
      "curveMode": 4,
      "curveTo": "{0.58340775138417678, 0.30787286532059094}",
      "hasCurveFrom": true,
      "hasCurveTo": true,
      "point": "{0.5764868726558311, 0.30554956767502606}"
    },
    {
      "_class": "curvePoint",
      "cornerRadius": 0,
      "curveFrom": "{0.597740667976424, 0.28861584153673009}",
      "curveMode": 4,
      "curveTo": "{0.58733702446865454, 0.28526262844003675}",
      "hasCurveFrom": true,
      "hasCurveTo": true,
      "point": "{0.59626719056974353, 0.28808890805010723}"
    },
    {
      "_class": "curvePoint",
      "cornerRadius": 0,
      "curveFrom": "{0.59934809787462018, 0.28986132068692921}",
      "curveMode": 4,
      "curveTo": "{0.59854438292552337, 0.28921462958971034}",
      "hasCurveFrom": false,
      "hasCurveTo": true,
      "point": "{0.59934809787462018, 0.28986132068692921}"
    },
    {
      "_class": "curvePoint",
      "cornerRadius": 0,
      "curveFrom": "{0.50147347740667914, 0.13578117889391836}",
      "curveMode": 4,
      "curveTo": "{0.50156277906769053, 0.13496682714186473}",
      "hasCurveFrom": true,
      "hasCurveTo": false,
      "point": "{0.50156277906769053, 0.13496682714186473}"
    },
    {
      "_class": "curvePoint",
      "cornerRadius": 0,
      "curveFrom": "{0.49624933023754103, 0.13999664678690404}",
      "curveMode": 4,
      "curveTo": "{0.50120557242364772, 0.13649972455749601}",
      "hasCurveFrom": true,
      "hasCurveTo": true,
      "point": "{0.50044650830505533, 0.13705060956623752}"
    },
    {
      "_class": "curvePoint",
      "cornerRadius": 0,
      "curveFrom": "{0.47852295052687877, 0.13453569974371923}",
      "curveMode": 4,
      "curveTo": "{0.47937131630648255, 0.1378410097961725}",
      "hasCurveFrom": true,
      "hasCurveTo": true,
      "point": "{0.4742811216288626, 0.14042777418504954}"
    },
    {
      "_class": "curvePoint",
      "cornerRadius": 0,
      "curveFrom": "{0.46535095552777367, 0.10962611673971882}",
      "curveMode": 4,
      "curveTo": "{0.45476870869798158, 0.11721874925151513}",
      "hasCurveFrom": true,
      "hasCurveTo": true,
      "point": "{0.46160028576531592, 0.11235659026131191}"
    },
    {
      "_class": "curvePoint",
      "cornerRadius": 0,
      "curveFrom": "{0.48548848008572887, 0.1094105530406454}",
      "curveMode": 4,
      "curveTo": "{0.47888015717092408, 0.11094345045627668}",
      "hasCurveFrom": false,
      "hasCurveTo": true,
      "point": "{0.48548848008572887, 0.1094105530406454}"
    },
    {
      "_class": "curvePoint",
      "cornerRadius": 0,
      "curveFrom": "{0.41636899446329623, 0}",
      "curveMode": 1,
      "curveTo": "{0.41636899446329623, 0}",
      "hasCurveFrom": false,
      "hasCurveTo": false,
      "point": "{0.41636899446329623, 0}"
    },
    {
      "_class": "curvePoint",
      "cornerRadius": 0,
      "curveFrom": "{0, 0.075662858374649561}",
      "curveMode": 1,
      "curveTo": "{0, 0.075662858374649561}",
      "hasCurveFrom": false,
      "hasCurveTo": false,
      "point": "{0, 0.075662858374649561}"
    }
  ],
  "resizingConstraint": 63,
  "resizingType": 0,
  "rotation": 0,
  "shouldBreakMaskChain": false,
  "style": {
    "_class": "style",
    "do_objectID": "BEC53FDB-EFF1-4D76-B7E1-2379F30FC59A",
    "endMarkerType": 0,
    "fills": [
      {
        "_class": "fill",
        "color": {
          "_class": "color",
          "alpha": 1,
          "blue": 0.1764705882352941,
          "green": 0.1764705882352941,
          "red": 0.1764705882352941
        },
        "fillType": 0,
        "isEnabled": true,
        "noiseIndex": 0,
        "noiseIntensity": 0,
        "patternFillType": 1,
        "patternTileScale": 1
      }
    ],
    "miterLimit": 10,
    "startMarkerType": 0,
    "windingRule": 1
  }
}