{
  "_class": "shapePath",
  "booleanOperation": -1,
  "clippingMaskMode": 0,
  "do_objectID": "6421256D-3180-4F8D-9421-EA194506B565",
  "edited": true,
  "exportOptions": {
    "_class": "exportOptions",
    "do_objectID": "3834C17F-3931-46E6-8376-78D824704B9B",
    "exportFormats": [
    ],
    "includedLayerIds": [
    ],
    "layerOptions": 0,
    "shouldTrim": false
  },
  "frame": {
    "_class": "rect",
    "constrainProportions": false,
    "do_objectID": "2FD424B6-60AA-41C9-BDBD-FC457F30EEB4",
    "height": 0.1058906030855535,
    "width": 0.1059863482545573,
    "x": 23.64652464759525,
    "y": 5.808523545551012
  },
  "hasClippingMask": false,
  "isClosed": true,
  "isFixedToViewport": false,
  "isFlippedHorizontal": false,
  "isFlippedVertical": false,
  "isLocked": false,
  "isVisible": true,
  "layerListExpandedType": 0,
  "name": "Path",
  "nameIsFixed": false,
  "pointRadiusBehaviour": 0,
  "points": [
    {
      "_class": "curvePoint",
      "cornerRadius": 0,
      "curveFrom": "{-0.28981153598192577, 0.5781012624816384}",
      "curveMode": 3,
      "curveTo": "{0.36218846401811788, 0.97410126248159656}",
      "hasCurveFrom": true,
      "hasCurveTo": true,
      "point": "{0.13418846401810924, 0.83610126248161976}"
    },
    {
      "_class": "curvePoint",
      "cornerRadius": 0,
      "curveFrom": "{1.053188464018092, 0.27910126248160338}",
      "curveMode": 3,
      "curveTo": "{0.4061884640181006, -0.12089873751837388}",
      "hasCurveFrom": true,
      "hasCurveTo": true,
      "point": "{0.63418846401810924, 0.018101262481636127}"
    }
  ],
  "resizingConstraint": 63,
  "resizingType": 0,
  "rotation": 0,
  "shouldBreakMaskChain": false,
  "style": {
    "_class": "style",
    "do_objectID": "1886716C-D563-480B-8374-6937226D5737",
    "endMarkerType": 0,
    "fills": [
      {
        "_class": "fill",
        "color": {
          "_class": "color",
          "alpha": 1,
          "blue": 0.1764705882352941,
          "green": 0.1764705882352941,
          "red": 0.1764705882352941
        },
        "fillType": 0,
        "isEnabled": true,
        "noiseIndex": 0,
        "noiseIntensity": 0,
        "patternFillType": 1,
        "patternTileScale": 1
      }
    ],
    "miterLimit": 10,
    "startMarkerType": 0,
    "windingRule": 1
  }
}