{
  "_class": "shapePath",
  "booleanOperation": -1,
  "clippingMaskMode": 0,
  "do_objectID": "65980E8D-CCE5-42A4-A9A7-C8C26C22D252",
  "edited": true,
  "exportOptions": {
    "_class": "exportOptions",
    "do_objectID": "16A61C9A-C7D2-4753-93C4-D321832D5BC0",
    "exportFormats": [
    ],
    "includedLayerIds": [
    ],
    "layerOptions": 0,
    "shouldTrim": false
  },
  "frame": {
    "_class": "rect",
    "constrainProportions": false,
    "do_objectID": "71270EA1-F6CC-46F3-AF61-A03BDF3333D4",
    "height": 0.1058906030855624,
    "width": 0.1059863482545547,
    "x": 5.906566881075786,
    "y": 28.89788154667003
  },
  "hasClippingMask": false,
  "isClosed": true,
  "isFixedToViewport": false,
  "isFlippedHorizontal": false,
  "isFlippedVertical": false,
  "isLocked": false,
  "isVisible": true,
  "layerListExpandedType": 0,
  "name": "Path",
  "nameIsFixed": false,
  "pointRadiusBehaviour": 0,
  "points": [
    {
      "_class": "curvePoint",
      "cornerRadius": 0,
      "curveFrom": "{-0.2698127372793806, 0.69918639237266689}",
      "curveMode": 4,
      "curveTo": "{0.41118726272061679, 0.94618639237268098}",
      "hasCurveFrom": true,
      "hasCurveTo": true,
      "point": "{0.17418726272062202, 0.863186392372711}"
    },
    {
      "_class": "curvePoint",
      "cornerRadius": 0,
      "curveFrom": "{0.92718726272062213, 0.16418639237269872}",
      "curveMode": 4,
      "curveTo": "{0.24718726272061531, -0.082813607627315378}",
      "hasCurveFrom": true,
      "hasCurveTo": true,
      "point": "{0.48418726272062429, 0.0071863923727164547}"
    }
  ],
  "resizingConstraint": 63,
  "resizingType": 0,
  "rotation": 0,
  "shouldBreakMaskChain": false,
  "style": {
    "_class": "style",
    "do_objectID": "9CD95A59-4E56-493B-8A9F-A8E167C190C9",
    "endMarkerType": 0,
    "fills": [
      {
        "_class": "fill",
        "color": {
          "_class": "color",
          "alpha": 1,
          "blue": 0.1764705882352941,
          "green": 0.1764705882352941,
          "red": 0.1764705882352941
        },
        "fillType": 0,
        "isEnabled": true,
        "noiseIndex": 0,
        "noiseIntensity": 0,
        "patternFillType": 1,
        "patternTileScale": 1
      }
    ],
    "miterLimit": 10,
    "startMarkerType": 0,
    "windingRule": 1
  }
}