{
  "_class": "shapePath",
  "booleanOperation": -1,
  "clippingMaskMode": 0,
  "do_objectID": "6FB736DF-463A-49C9-8E49-9364EF42FCBF",
  "edited": true,
  "exportOptions": {
    "_class": "exportOptions",
    "do_objectID": "5052BFD7-8ABC-4FAE-8356-537DB343E3F6",
    "exportFormats": [
    ],
    "includedLayerIds": [
    ],
    "layerOptions": 0,
    "shouldTrim": false
  },
  "frame": {
    "_class": "rect",
    "constrainProportions": false,
    "do_objectID": "769CD4A4-9026-4B1E-B127-EF892D223FBF",
    "height": 0.1058906030855553,
    "width": 0.1059863482545556,
    "x": 10.44939336681496,
    "y": 22.58945780313169
  },
  "hasClippingMask": false,
  "isClosed": true,
  "isFixedToViewport": false,
  "isFlippedHorizontal": false,
  "isFlippedVertical": false,
  "isLocked": false,
  "isVisible": true,
  "layerListExpandedType": 0,
  "name": "Path",
  "nameIsFixed": false,
  "pointRadiusBehaviour": 0,
  "points": [
    {
      "_class": "curvePoint",
      "cornerRadius": 0,
      "curveFrom": "{-0.25782664035517655, 0.51200478473936073}",
      "curveMode": 3,
      "curveTo": "{0.32017335964482641, 0.86800478473935527}",
      "hasCurveFrom": true,
      "hasCurveTo": true,
      "point": "{0.119173359644833, 0.74400478473933163}"
    },
    {
      "_class": "curvePoint",
      "cornerRadius": 0,
      "curveFrom": "{0.94117335964483573, 0.24500478473930798}",
      "curveMode": 3,
      "curveTo": "{0.362173359644828, -0.10699521526066746}",
      "hasCurveFrom": true,
      "hasCurveTo": true,
      "point": "{0.56417335964482618, 0.016004784739379829}"
    }
  ],
  "resizingConstraint": 63,
  "resizingType": 0,
  "rotation": 0,
  "shouldBreakMaskChain": false,
  "style": {
    "_class": "style",
    "do_objectID": "0BDA9A67-F585-4A1B-ADFB-2C2F1AFE95B8",
    "endMarkerType": 0,
    "fills": [
      {
        "_class": "fill",
        "color": {
          "_class": "color",
          "alpha": 1,
          "blue": 0.1764705882352941,
          "green": 0.1764705882352941,
          "red": 0.1764705882352941
        },
        "fillType": 0,
        "isEnabled": true,
        "noiseIndex": 0,
        "noiseIntensity": 0,
        "patternFillType": 1,
        "patternTileScale": 1
      }
    ],
    "miterLimit": 10,
    "startMarkerType": 0,
    "windingRule": 1
  }
}