{
  "_class": "shapePath",
  "booleanOperation": -1,
  "clippingMaskMode": 0,
  "do_objectID": "72442BEF-15C8-448C-A060-B483B996D3AD",
  "edited": true,
  "exportOptions": {
    "_class": "exportOptions",
    "do_objectID": "19E122F4-5CB9-4969-AE66-AF078065DCB1",
    "exportFormats": [
    ],
    "includedLayerIds": [
    ],
    "layerOptions": 0,
    "shouldTrim": false
  },
  "frame": {
    "_class": "rect",
    "constrainProportions": false,
    "do_objectID": "1014C1C4-95C5-4309-8921-9A91EAD85BE1",
    "height": 0.1058906030855553,
    "width": 0.1059863482545538,
    "x": 42.06735258267339,
    "y": 13.21887950662403
  },
  "hasClippingMask": false,
  "isClosed": true,
  "isFixedToViewport": false,
  "isFlippedHorizontal": false,
  "isFlippedVertical": false,
  "isLocked": false,
  "isVisible": true,
  "layerListExpandedType": 0,
  "name": "Path",
  "nameIsFixed": false,
  "pointRadiusBehaviour": 0,
  "points": [
    {
      "_class": "curvePoint",
      "cornerRadius": 0,
      "curveFrom": "{1.0541102527816975, 0.27559334528226032}",
      "curveMode": 4,
      "curveTo": "{0.40811025278173929, -0.12240665471776424}",
      "hasCurveFrom": true,
      "hasCurveTo": true,
      "point": "{0.63111025278169564, 0.018593345282255314}"
    },
    {
      "_class": "curvePoint",
      "cornerRadius": 0,
      "curveFrom": "{-0.28788974721828708, 0.57659334528224804}",
      "curveMode": 4,
      "curveTo": "{0.35611025278171837, 0.97259334528226304}",
      "hasCurveFrom": true,
      "hasCurveTo": true,
      "point": "{0.13211025278178568, 0.83259334528227669}"
    }
  ],
  "resizingConstraint": 63,
  "resizingType": 0,
  "rotation": 0,
  "shouldBreakMaskChain": false,
  "style": {
    "_class": "style",
    "do_objectID": "C37CFE6D-F99F-4B52-8ACC-1AD62E5B3F86",
    "endMarkerType": 0,
    "fills": [
      {
        "_class": "fill",
        "color": {
          "_class": "color",
          "alpha": 1,
          "blue": 0.1764705882352941,
          "green": 0.1764705882352941,
          "red": 0.1764705882352941
        },
        "fillType": 0,
        "isEnabled": true,
        "noiseIndex": 0,
        "noiseIntensity": 0,
        "patternFillType": 1,
        "patternTileScale": 1
      }
    ],
    "miterLimit": 10,
    "startMarkerType": 0,
    "windingRule": 1
  }
}