{
  "_class": "shapePath",
  "booleanOperation": -1,
  "clippingMaskMode": 0,
  "do_objectID": "769A30FB-EE93-4CAA-BF61-1F63812E9B87",
  "edited": true,
  "exportOptions": {
    "_class": "exportOptions",
    "do_objectID": "D47472FE-12A0-4B3C-9C4F-E96E144E813E",
    "exportFormats": [
    ],
    "includedLayerIds": [
    ],
    "layerOptions": 0,
    "shouldTrim": false
  },
  "frame": {
    "_class": "rect",
    "constrainProportions": false,
    "do_objectID": "0C05A500-3998-4B8B-B7D7-29BBF917A1B8",
    "height": 0.1058906030855624,
    "width": 0.1073023919515315,
    "x": 10.42252928153048,
    "y": 16.20681519964327
  },
  "hasClippingMask": false,
  "isClosed": true,
  "isFixedToViewport": false,
  "isFlippedHorizontal": false,
  "isFlippedVertical": false,
  "isLocked": false,
  "isVisible": true,
  "layerListExpandedType": 0,
  "name": "Path",
  "nameIsFixed": false,
  "pointRadiusBehaviour": 0,
  "points": [
    {
      "_class": "curvePoint",
      "cornerRadius": 0,
      "curveFrom": "{0.085579111496937421, 0.25614044589472018}",
      "curveMode": 3,
      "curveTo": "{-0.059663349363503468, 0.76645857564658815}",
      "hasCurveFrom": true,
      "hasCurveTo": true,
      "point": "{0.0053931695635546775, 0.53681541725825876}"
    },
    {
      "_class": "curvePoint",
      "cornerRadius": 0,
      "curveFrom": "{1.1453951930879134, 0.43769593436414334}",
      "curveMode": 4,
      "curveTo": "{0.75883843527707029, 0.25712182691345059}",
      "hasCurveFrom": true,
      "hasCurveTo": true,
      "point": "{0.88970794428152644, 0}"
    },
    {
      "_class": "curvePoint",
      "cornerRadius": 0,
      "curveFrom": "{0.48196999426187637, 1.2512607989108795}",
      "curveMode": 4,
      "curveTo": "{0.91013266534001525, 0.64476732932114311}",
      "hasCurveFrom": true,
      "hasCurveTo": true,
      "point": "{0.65444541653362842, 0.84006215205312684}"
    }
  ],
  "resizingConstraint": 63,
  "resizingType": 0,
  "rotation": 0,
  "shouldBreakMaskChain": false,
  "style": {
    "_class": "style",
    "do_objectID": "D51D7D1E-BC2E-4C21-ABB7-D49E566CCC68",
    "endMarkerType": 0,
    "fills": [
      {
        "_class": "fill",
        "color": {
          "_class": "color",
          "alpha": 1,
          "blue": 0.1764705882352941,
          "green": 0.1764705882352941,
          "red": 0.1764705882352941
        },
        "fillType": 0,
        "isEnabled": true,
        "noiseIndex": 0,
        "noiseIntensity": 0,
        "patternFillType": 1,
        "patternTileScale": 1
      }
    ],
    "miterLimit": 10,
    "startMarkerType": 0,
    "windingRule": 1
  }
}