{
  "_class": "shapePath",
  "booleanOperation": -1,
  "clippingMaskMode": 0,
  "do_objectID": "7A039D03-1778-4144-AAB7-8BC599E7A5FC",
  "edited": true,
  "exportOptions": {
    "_class": "exportOptions",
    "do_objectID": "01F256B4-FB0D-423B-A3BB-9497BE41DB07",
    "exportFormats": [
    ],
    "includedLayerIds": [
    ],
    "layerOptions": 0,
    "shouldTrim": false
  },
  "frame": {
    "_class": "rect",
    "constrainProportions": false,
    "do_objectID": "7671E757-732B-4936-8838-0BDF9510EFCB",
    "height": 0.1058906030855589,
    "width": 0.1059863482545396,
    "x": 24.43503210477517,
    "y": 14.17282129643769
  },
  "hasClippingMask": false,
  "isClosed": true,
  "isFixedToViewport": false,
  "isFlippedHorizontal": false,
  "isFlippedVertical": false,
  "isLocked": false,
  "isVisible": true,
  "layerListExpandedType": 0,
  "name": "Path",
  "nameIsFixed": false,
  "pointRadiusBehaviour": 0,
  "points": [
    {
      "_class": "curvePoint",
      "cornerRadius": 0,
      "curveFrom": "{0.94205576497290622, 0.24574200243728228}",
      "curveMode": 3,
      "curveTo": "{0.36305576497289849, -0.10625799756275001}",
      "hasCurveFrom": true,
      "hasCurveTo": true,
      "point": "{0.56405576497292031, 0.015742002437264091}"
    },
    {
      "_class": "curvePoint",
      "cornerRadius": 0,
      "curveFrom": "{-0.25794423502708241, 0.51374200243725454}",
      "curveMode": 3,
      "curveTo": "{0.32005576497289212, 0.86674200243726318}",
      "hasCurveFrom": true,
      "hasCurveTo": true,
      "point": "{0.11905576497292714, 0.74274200243729638}"
    }
  ],
  "resizingConstraint": 63,
  "resizingType": 0,
  "rotation": 0,
  "shouldBreakMaskChain": false,
  "style": {
    "_class": "style",
    "do_objectID": "BD889423-887E-4972-B963-31493FB0C3D5",
    "endMarkerType": 0,
    "fills": [
      {
        "_class": "fill",
        "color": {
          "_class": "color",
          "alpha": 1,
          "blue": 0.1764705882352941,
          "green": 0.1764705882352941,
          "red": 0.1764705882352941
        },
        "fillType": 0,
        "isEnabled": true,
        "noiseIndex": 0,
        "noiseIntensity": 0,
        "patternFillType": 1,
        "patternTileScale": 1
      }
    ],
    "miterLimit": 10,
    "startMarkerType": 0,
    "windingRule": 1
  }
}