{
  "_class": "shapePath",
  "booleanOperation": -1,
  "clippingMaskMode": 0,
  "do_objectID": "7A8D1120-C47E-4DBE-9315-00DFD9E72275",
  "edited": true,
  "exportOptions": {
    "_class": "exportOptions",
    "do_objectID": "128EF253-3F05-45C8-90E2-1966CF66C324",
    "exportFormats": [
    ],
    "includedLayerIds": [
    ],
    "layerOptions": 0,
    "shouldTrim": false
  },
  "frame": {
    "_class": "rect",
    "constrainProportions": false,
    "do_objectID": "3BE2F7C7-70A2-4D99-965F-E27BDDD3AA4C",
    "height": 0.1058906030855624,
    "width": 0.1436397930044269,
    "x": 2.275151980630204,
    "y": 24.79702238658414
  },
  "hasClippingMask": false,
  "isClosed": true,
  "isFixedToViewport": false,
  "isFlippedHorizontal": false,
  "isFlippedVertical": false,
  "isLocked": false,
  "isVisible": true,
  "layerListExpandedType": 0,
  "name": "Path",
  "nameIsFixed": false,
  "pointRadiusBehaviour": 0,
  "points": [
    {
      "_class": "curvePoint",
      "cornerRadius": 0,
      "curveFrom": "{0.48595010464840971, 0.81305637982194179}",
      "curveMode": 4,
      "curveTo": "{0.90299553254755538, 0.60039564787340582}",
      "hasCurveFrom": true,
      "hasCurveTo": true,
      "point": "{0.70633996492031648, 0.71909000989121163}"
    },
    {
      "_class": "curvePoint",
      "cornerRadius": 0,
      "curveFrom": "{-0.08536822544107027, 0.53214638971315342}",
      "curveMode": 4,
      "curveTo": "{0.26443003996485281, 0.90702274975272812}",
      "hasCurveFrom": true,
      "hasCurveTo": true,
      "point": "{0.042344873075469844, 1}"
    },
    {
      "_class": "curvePoint",
      "cornerRadius": 0,
      "curveFrom": "{0.51533541935133031, 0.18595450049459994}",
      "curveMode": 4,
      "curveTo": "{0.098289991452184658, 0.39663699307621936}",
      "hasCurveFrom": true,
      "hasCurveTo": true,
      "point": "{0.29438045687359954, 0.27992087042533009}"
    },
    {
      "_class": "curvePoint",
      "cornerRadius": 0,
      "curveFrom": "{1.0866537494408124, 0.46488625123641553}",
      "curveMode": 4,
      "curveTo": "{0.73629038182906315, 0.091988130563869799}",
      "hasCurveFrom": true,
      "hasCurveTo": true,
      "point": "{0.95611513989514385, 0}"
    }
  ],
  "resizingConstraint": 63,
  "resizingType": 0,
  "rotation": 0,
  "shouldBreakMaskChain": false,
  "style": {
    "_class": "style",
    "do_objectID": "B9A8BFC4-9D71-419F-B691-FD9AB6BDBF3D",
    "endMarkerType": 0,
    "fills": [
      {
        "_class": "fill",
        "color": {
          "_class": "color",
          "alpha": 1,
          "blue": 0.1764705882352941,
          "green": 0.1764705882352941,
          "red": 0.1764705882352941
        },
        "fillType": 0,
        "isEnabled": true,
        "noiseIndex": 0,
        "noiseIntensity": 0,
        "patternFillType": 1,
        "patternTileScale": 1
      }
    ],
    "miterLimit": 10,
    "startMarkerType": 0,
    "windingRule": 1
  }
}