{
  "_class": "shapePath",
  "booleanOperation": -1,
  "clippingMaskMode": 0,
  "do_objectID": "7B0150AC-8C46-41D0-8624-BEA69CDF64A4",
  "edited": true,
  "exportOptions": {
    "_class": "exportOptions",
    "do_objectID": "ADE869D1-F35F-44B9-B297-3CDDB595AA11",
    "exportFormats": [
    ],
    "includedLayerIds": [
    ],
    "layerOptions": 0,
    "shouldTrim": false
  },
  "frame": {
    "_class": "rect",
    "constrainProportions": false,
    "do_objectID": "99D733F9-E663-4A2C-8A89-B49C9AB8100F",
    "height": 0.1058906030855553,
    "width": 0.1059863482545467,
    "x": 25.41549154825728,
    "y": 6.341251655571064
  },
  "hasClippingMask": false,
  "isClosed": true,
  "isFixedToViewport": false,
  "isFlippedHorizontal": false,
  "isFlippedVertical": false,
  "isLocked": false,
  "isVisible": true,
  "layerListExpandedType": 0,
  "name": "Path",
  "nameIsFixed": false,
  "pointRadiusBehaviour": 0,
  "points": [
    {
      "_class": "curvePoint",
      "cornerRadius": 0,
      "curveFrom": "{1.0561425558558426, 0.27614534584799344}",
      "curveMode": 3,
      "curveTo": "{0.40714255585584169, -0.12085465415205476}",
      "hasCurveFrom": true,
      "hasCurveTo": true,
      "point": "{0.63314255585584078, 0.018145345847955241}"
    },
    {
      "_class": "curvePoint",
      "cornerRadius": 0,
      "curveFrom": "{-0.28885744414412784, 0.57614534584794797}",
      "curveMode": 3,
      "curveTo": "{0.36114255585584942, 0.97314534584799617}",
      "hasCurveFrom": true,
      "hasCurveTo": true,
      "point": "{0.13314255585584078, 0.83514534584796252}"
    }
  ],
  "resizingConstraint": 63,
  "resizingType": 0,
  "rotation": 0,
  "shouldBreakMaskChain": false,
  "style": {
    "_class": "style",
    "do_objectID": "2AC93292-4026-4790-B012-172D32C03503",
    "endMarkerType": 0,
    "fills": [
      {
        "_class": "fill",
        "color": {
          "_class": "color",
          "alpha": 1,
          "blue": 0.1764705882352941,
          "green": 0.1764705882352941,
          "red": 0.1764705882352941
        },
        "fillType": 0,
        "isEnabled": true,
        "noiseIndex": 0,
        "noiseIntensity": 0,
        "patternFillType": 1,
        "patternTileScale": 1
      }
    ],
    "miterLimit": 10,
    "startMarkerType": 0,
    "windingRule": 1
  }
}