{
  "_class": "shapePath",
  "booleanOperation": -1,
  "clippingMaskMode": 0,
  "do_objectID": "7F2005EE-E9CF-420F-90E9-CAC1BF2115A6",
  "edited": true,
  "exportOptions": {
    "_class": "exportOptions",
    "do_objectID": "655A3222-4103-4FD1-AE2B-1FA66ECF330B",
    "exportFormats": [
    ],
    "includedLayerIds": [
    ],
    "layerOptions": 0,
    "shouldTrim": false
  },
  "frame": {
    "_class": "rect",
    "constrainProportions": false,
    "do_objectID": "9BC06E64-EC19-4479-87E9-BCDA8530041C",
    "height": 0.1197004060262516,
    "width": 0.1059863482545431,
    "x": 19.01101670151088,
    "y": 1.166897110759433
  },
  "hasClippingMask": false,
  "isClosed": true,
  "isFixedToViewport": false,
  "isFlippedHorizontal": false,
  "isFlippedVertical": false,
  "isLocked": false,
  "isVisible": true,
  "layerListExpandedType": 0,
  "name": "Path",
  "nameIsFixed": false,
  "pointRadiusBehaviour": 0,
  "points": [
    {
      "_class": "curvePoint",
      "cornerRadius": 0,
      "curveFrom": "{0.86890941678194122, 0.98644986449865735}",
      "curveMode": 4,
      "curveTo": "{1.1332332329626966, 0.7384823848238703}",
      "hasCurveFrom": true,
      "hasCurveTo": true,
      "point": "{0.9707942332006978, 0.89227642276423313}"
    },
    {
      "_class": "curvePoint",
      "cornerRadius": 0,
      "curveFrom": "{0.43926306829904715, 0.81233062330624184}",
      "curveMode": 4,
      "curveTo": "{0.46233132862027709, 0.91734417344176333}",
      "hasCurveFrom": true,
      "hasCurveTo": true,
      "point": "{0.33641707436690149, 1}"
    },
    {
      "_class": "curvePoint",
      "cornerRadius": 0,
      "curveFrom": "{0.13072508650261025, 0.01490514905148467}",
      "curveMode": 3,
      "curveTo": "{-0.13455990719150684, 0.26355013550136197}",
      "hasCurveFrom": true,
      "hasCurveTo": true,
      "point": "{0.029801447597242882, 0.10840108401085712}"
    },
    {
      "_class": "curvePoint",
      "cornerRadius": 0,
      "curveFrom": "{0.56037143498550435, 0.18902439024390008}",
      "curveMode": 4,
      "curveTo": "{0.53922552969105264, 0.083333333333326917}",
      "hasCurveFrom": true,
      "hasCurveTo": true,
      "point": "{0.6641786064310391, 0}"
    }
  ],
  "resizingConstraint": 63,
  "resizingType": 0,
  "rotation": 0,
  "shouldBreakMaskChain": false,
  "style": {
    "_class": "style",
    "do_objectID": "6C929761-D17A-4738-8E44-F22E0967F445",
    "endMarkerType": 0,
    "fills": [
      {
        "_class": "fill",
        "color": {
          "_class": "color",
          "alpha": 1,
          "blue": 0.1764705882352941,
          "green": 0.1764705882352941,
          "red": 0.1764705882352941
        },
        "fillType": 0,
        "isEnabled": true,
        "noiseIndex": 0,
        "noiseIntensity": 0,
        "patternFillType": 1,
        "patternTileScale": 1
      }
    ],
    "miterLimit": 10,
    "startMarkerType": 0,
    "windingRule": 1
  }
}