{
  "_class": "shapePath",
  "booleanOperation": -1,
  "clippingMaskMode": 0,
  "do_objectID": "80B8313F-E6C4-44D8-A6A4-16AEFB4FD3C9",
  "edited": true,
  "exportOptions": {
    "_class": "exportOptions",
    "do_objectID": "62C84801-23A4-4C29-B87F-91D21912D218",
    "exportFormats": [
    ],
    "includedLayerIds": [
    ],
    "layerOptions": 0,
    "shouldTrim": false
  },
  "frame": {
    "_class": "rect",
    "constrainProportions": false,
    "do_objectID": "FFE55790-DE65-454F-9DEB-4C0A1B39EC0A",
    "height": 0.1058906030855624,
    "width": 0.1059863482545822,
    "x": 42.65339623627612,
    "y": 16.80575554204439
  },
  "hasClippingMask": false,
  "isClosed": true,
  "isFixedToViewport": false,
  "isFlippedHorizontal": false,
  "isFlippedVertical": false,
  "isLocked": false,
  "isVisible": true,
  "layerListExpandedType": 0,
  "name": "Path",
  "nameIsFixed": false,
  "pointRadiusBehaviour": 0,
  "points": [
    {
      "_class": "curvePoint",
      "cornerRadius": 0,
      "curveFrom": "{1.0542599308952276, 0.27559526553164915}",
      "curveMode": 3,
      "curveTo": "{0.40625993089520307, -0.11940473446833266}",
      "hasCurveFrom": true,
      "hasCurveTo": true,
      "point": "{0.6332599308952922, 0.017595265531667792}"
    },
    {
      "_class": "curvePoint",
      "cornerRadius": 0,
      "curveFrom": "{-0.28874006910473327, 0.58059526553165597}",
      "curveMode": 3,
      "curveTo": "{0.35925993089529129, 0.97459526553166143}",
      "hasCurveFrom": true,
      "hasCurveTo": true,
      "point": "{0.1332599308952922, 0.83759526553166097}"
    }
  ],
  "resizingConstraint": 63,
  "resizingType": 0,
  "rotation": 0,
  "shouldBreakMaskChain": false,
  "style": {
    "_class": "style",
    "do_objectID": "73DBA127-A6C3-4E70-A6B8-B78FFB1F0A3B",
    "endMarkerType": 0,
    "fills": [
      {
        "_class": "fill",
        "color": {
          "_class": "color",
          "alpha": 1,
          "blue": 0.1764705882352941,
          "green": 0.1764705882352941,
          "red": 0.1764705882352941
        },
        "fillType": 0,
        "isEnabled": true,
        "noiseIndex": 0,
        "noiseIntensity": 0,
        "patternFillType": 1,
        "patternTileScale": 1
      }
    ],
    "miterLimit": 10,
    "startMarkerType": 0,
    "windingRule": 1
  }
}