{
  "_class": "shapePath",
  "booleanOperation": -1,
  "clippingMaskMode": 0,
  "do_objectID": "83D900A8-9F2D-4D85-91F7-4CB59F43E7BD",
  "edited": true,
  "exportOptions": {
    "_class": "exportOptions",
    "do_objectID": "CE1EA2BA-5064-4328-AD73-957B21F7CF17",
    "exportFormats": [
    ],
    "includedLayerIds": [
    ],
    "layerOptions": 0,
    "shouldTrim": false
  },
  "frame": {
    "_class": "rect",
    "constrainProportions": false,
    "do_objectID": "8198B699-26B8-43BD-AAE8-D01430A868B6",
    "height": 0.1184641728073217,
    "width": 0.1067280950591911,
    "x": 10.60047896001452,
    "y": 21.38848115277175
  },
  "hasClippingMask": false,
  "isClosed": true,
  "isFixedToViewport": false,
  "isFlippedHorizontal": false,
  "isFlippedVertical": false,
  "isLocked": false,
  "isVisible": true,
  "layerListExpandedType": 0,
  "name": "Path",
  "nameIsFixed": false,
  "pointRadiusBehaviour": 0,
  "points": [
    {
      "_class": "curvePoint",
      "cornerRadius": 0,
      "curveFrom": "{0.58322316371616023, 0.39773229152219297}",
      "curveMode": 4,
      "curveTo": "{0.84789166558984863, 0.08008861039360067}",
      "hasCurveFrom": true,
      "hasCurveTo": true,
      "point": "{1, 0.31216017914918831}"
    },
    {
      "_class": "curvePoint",
      "cornerRadius": 0,
      "curveFrom": "{0.42426995425756214, 1.1315987272330827}",
      "curveMode": 4,
      "curveTo": "{0.66155895593739911, 0.64554912895439143}",
      "hasCurveFrom": true,
      "hasCurveTo": true,
      "point": "{0.76195045664810857, 0.89952715847749498}"
    },
    {
      "_class": "curvePoint",
      "cornerRadius": 0,
      "curveFrom": "{-0.14613629978053788, 0.38061786904760764}",
      "curveMode": 4,
      "curveTo": "{0.26303511978277921, 0.92006446544703635}",
      "hasCurveFrom": true,
      "hasCurveTo": true,
      "point": "{0.1116873270446823, 0.68525458909546055}"
    },
    {
      "_class": "curvePoint",
      "cornerRadius": 0,
      "curveFrom": "{0.68741737278712012, -0.13213022829145241}",
      "curveMode": 4,
      "curveTo": "{0.088871076883157429, 0.23754129715990274}",
      "hasCurveFrom": true,
      "hasCurveTo": true,
      "point": "{0.34745524538043204, 0.10131049426210986}"
    }
  ],
  "resizingConstraint": 63,
  "resizingType": 0,
  "rotation": 0,
  "shouldBreakMaskChain": false,
  "style": {
    "_class": "style",
    "do_objectID": "CEA5D8FE-3399-47FF-9C42-F883554EDE44",
    "endMarkerType": 0,
    "fills": [
      {
        "_class": "fill",
        "color": {
          "_class": "color",
          "alpha": 1,
          "blue": 0.1764705882352941,
          "green": 0.1764705882352941,
          "red": 0.1764705882352941
        },
        "fillType": 0,
        "isEnabled": true,
        "noiseIndex": 0,
        "noiseIntensity": 0,
        "patternFillType": 1,
        "patternTileScale": 1
      }
    ],
    "miterLimit": 10,
    "startMarkerType": 0,
    "windingRule": 1
  }
}