{
  "_class": "shapePath",
  "booleanOperation": -1,
  "clippingMaskMode": 0,
  "do_objectID": "85E74A89-BA93-455C-8D5A-7C3567093C63",
  "edited": true,
  "exportOptions": {
    "_class": "exportOptions",
    "do_objectID": "3440696E-1B6F-413E-90F1-F14E044E6344",
    "exportFormats": [
    ],
    "includedLayerIds": [
    ],
    "layerOptions": 0,
    "shouldTrim": false
  },
  "frame": {
    "_class": "rect",
    "constrainProportions": false,
    "do_objectID": "35FC3876-11C0-47D4-9AB6-1394F7D59043",
    "height": 0.1388394953366472,
    "width": 0.1389650325473184,
    "x": 17.79336848985741,
    "y": 34.80222461711992
  },
  "hasClippingMask": false,
  "isClosed": true,
  "isFixedToViewport": false,
  "isFlippedHorizontal": false,
  "isFlippedVertical": false,
  "isLocked": false,
  "isVisible": true,
  "layerListExpandedType": 0,
  "name": "Path",
  "nameIsFixed": false,
  "pointRadiusBehaviour": 0,
  "points": [
    {
      "_class": "curvePoint",
      "cornerRadius": 0,
      "curveFrom": "{0.22605140186915684, 0.21203271028036788}",
      "curveMode": 4,
      "curveTo": "{0.10514018691589076, 0.54439252336448096}",
      "hasCurveFrom": true,
      "hasCurveTo": true,
      "point": "{0, 0.31892523364487996}"
    },
    {
      "_class": "curvePoint",
      "cornerRadius": 0,
      "curveFrom": "{0.78679906542055766, 0.2254672897196342}",
      "curveMode": 4,
      "curveTo": "{0.45268691588784915, 0.10455607476637013}",
      "hasCurveFrom": true,
      "hasCurveTo": true,
      "point": "{0.68165887850466689, 0}"
    },
    {
      "_class": "curvePoint",
      "cornerRadius": 0,
      "curveFrom": "{0.77219626168223665, 0.78679906542056111}",
      "curveMode": 4,
      "curveTo": "{0.89369158878503829, 0.45327102803737712}",
      "hasCurveFrom": true,
      "hasCurveTo": true,
      "point": "{1, 0.6810747663551201}"
    },
    {
      "_class": "curvePoint",
      "cornerRadius": 0,
      "curveFrom": "{0.21144859813083591, 0.77336448598129481}",
      "curveMode": 4,
      "curveTo": "{0.54556074766354434, 0.89427570093455888}",
      "hasCurveFrom": true,
      "hasCurveTo": true,
      "point": "{0.31775700934579765, 1}"
    }
  ],
  "resizingConstraint": 63,
  "resizingType": 0,
  "rotation": 0,
  "shouldBreakMaskChain": false,
  "style": {
    "_class": "style",
    "do_objectID": "00CC2FF9-687D-4C6F-B754-4AFA46A79CD5",
    "endMarkerType": 0,
    "fills": [
      {
        "_class": "fill",
        "color": {
          "_class": "color",
          "alpha": 1,
          "blue": 0.1764705882352941,
          "green": 0.1764705882352941,
          "red": 0.1764705882352941
        },
        "fillType": 0,
        "isEnabled": true,
        "noiseIndex": 0,
        "noiseIntensity": 0,
        "patternFillType": 1,
        "patternTileScale": 1
      }
    ],
    "miterLimit": 10,
    "startMarkerType": 0,
    "windingRule": 1
  }
}