{
  "_class": "shapePath",
  "booleanOperation": -1,
  "clippingMaskMode": 0,
  "do_objectID": "87224EFA-D754-4750-8584-10E0F7034C9A",
  "edited": true,
  "exportOptions": {
    "_class": "exportOptions",
    "do_objectID": "9640CB66-86D1-402C-864C-EFBF106B452E",
    "exportFormats": [
    ],
    "includedLayerIds": [
    ],
    "layerOptions": 0,
    "shouldTrim": false
  },
  "frame": {
    "_class": "rect",
    "constrainProportions": false,
    "do_objectID": "D038BD97-4007-4AEF-B951-9D884D4B3B4A",
    "height": 0.1058906030855624,
    "width": 0.1059863482545556,
    "x": 11.20985987218294,
    "y": 17.82400812711015
  },
  "hasClippingMask": false,
  "isClosed": true,
  "isFixedToViewport": false,
  "isFlippedHorizontal": false,
  "isFlippedVertical": false,
  "isLocked": false,
  "isVisible": true,
  "layerListExpandedType": 0,
  "name": "Path",
  "nameIsFixed": false,
  "pointRadiusBehaviour": 0,
  "points": [
    {
      "_class": "curvePoint",
      "cornerRadius": 0,
      "curveFrom": "{0.94049525893950658, 0.24574131773940167}",
      "curveMode": 3,
      "curveTo": "{0.3634952589395084, -0.1062586822606022}",
      "hasCurveFrom": true,
      "hasCurveTo": true,
      "point": "{0.56149525893951591, 0.015741317739411897}"
    },
    {
      "_class": "curvePoint",
      "cornerRadius": 0,
      "curveFrom": "{-0.25850474106050569, 0.51374131773940235}",
      "curveMode": 3,
      "curveTo": "{0.32149525893950681, 0.86774131773941576}",
      "hasCurveFrom": true,
      "hasCurveTo": true,
      "point": "{0.11949525893950863, 0.74374131773939212}"
    }
  ],
  "resizingConstraint": 63,
  "resizingType": 0,
  "rotation": 0,
  "shouldBreakMaskChain": false,
  "style": {
    "_class": "style",
    "do_objectID": "4DC305C7-B435-47D6-81BB-E9292C8392F8",
    "endMarkerType": 0,
    "fills": [
      {
        "_class": "fill",
        "color": {
          "_class": "color",
          "alpha": 1,
          "blue": 0.1764705882352941,
          "green": 0.1764705882352941,
          "red": 0.1764705882352941
        },
        "fillType": 0,
        "isEnabled": true,
        "noiseIndex": 0,
        "noiseIntensity": 0,
        "patternFillType": 1,
        "patternTileScale": 1
      }
    ],
    "miterLimit": 10,
    "startMarkerType": 0,
    "windingRule": 1
  }
}