{
  "_class": "shapePath",
  "booleanOperation": -1,
  "clippingMaskMode": 0,
  "do_objectID": "881A434F-7379-4743-90FC-639040E5E352",
  "edited": true,
  "exportOptions": {
    "_class": "exportOptions",
    "do_objectID": "93D7A861-E702-42A0-BE5F-ECE5044EB5D2",
    "exportFormats": [
    ],
    "includedLayerIds": [
    ],
    "layerOptions": 0,
    "shouldTrim": false
  },
  "frame": {
    "_class": "rect",
    "constrainProportions": false,
    "do_objectID": "259D4124-99BC-451C-8AFB-6AE015808234",
    "height": 0.1058906030855571,
    "width": 0.1059863482545857,
    "x": 23.6832274967132,
    "y": 14.19250714755653
  },
  "hasClippingMask": false,
  "isClosed": true,
  "isFixedToViewport": false,
  "isFlippedHorizontal": false,
  "isFlippedVertical": false,
  "isLocked": false,
  "isVisible": true,
  "layerListExpandedType": 0,
  "name": "Path",
  "nameIsFixed": false,
  "pointRadiusBehaviour": 0,
  "points": [
    {
      "_class": "curvePoint",
      "cornerRadius": 0,
      "curveFrom": "{0.13033179037957646, 0.03999999999996362}",
      "curveMode": 3,
      "curveTo": "{-0.082909517683792788, 0.48599999999999}",
      "hasCurveFrom": true,
      "hasCurveTo": true,
      "point": "{0.013443962255949174, 0.28399999999999181}"
    },
    {
      "_class": "curvePoint",
      "cornerRadius": 0,
      "curveFrom": "{1.1199294163179483, 0.47399999999998954}",
      "curveMode": 4,
      "curveTo": "{0.77795354079415535, 0.20900000000000318}",
      "hasCurveFrom": true,
      "hasCurveTo": true,
      "point": "{0.93985897839778876, 0}"
    },
    {
      "_class": "curvePoint",
      "cornerRadius": 0,
      "curveFrom": "{0.36252788138186498, 1.0709999999999695}",
      "curveMode": 4,
      "curveTo": "{0.86403984664193212, 0.60800000000000409}",
      "hasCurveFrom": true,
      "hasCurveTo": true,
      "point": "{0.58919549402695182, 0.7279999999999518}"
    }
  ],
  "resizingConstraint": 63,
  "resizingType": 0,
  "rotation": 0,
  "shouldBreakMaskChain": false,
  "style": {
    "_class": "style",
    "do_objectID": "76F49A19-A255-4FBD-ABCC-7C2BD710FB44",
    "endMarkerType": 0,
    "fills": [
      {
        "_class": "fill",
        "color": {
          "_class": "color",
          "alpha": 1,
          "blue": 0.1764705882352941,
          "green": 0.1764705882352941,
          "red": 0.1764705882352941
        },
        "fillType": 0,
        "isEnabled": true,
        "noiseIndex": 0,
        "noiseIntensity": 0,
        "patternFillType": 1,
        "patternTileScale": 1
      }
    ],
    "miterLimit": 10,
    "startMarkerType": 0,
    "windingRule": 1
  }
}