{
  "_class": "shapePath",
  "booleanOperation": -1,
  "clippingMaskMode": 0,
  "do_objectID": "8C2278AF-5456-4CAC-A523-46EA6CC1D81F",
  "edited": true,
  "exportOptions": {
    "_class": "exportOptions",
    "do_objectID": "608FBAB0-5A33-46CF-A2C0-09FBE869BFB4",
    "exportFormats": [
    ],
    "includedLayerIds": [
    ],
    "layerOptions": 0,
    "shouldTrim": false
  },
  "frame": {
    "_class": "rect",
    "constrainProportions": false,
    "do_objectID": "206FA4C1-796A-4B4D-918E-362A9157E867",
    "height": 0.4176697383873815,
    "width": 0.7713111907393753,
    "x": 39.01409461647145,
    "y": 14.01822789786111
  },
  "hasClippingMask": false,
  "isClosed": true,
  "isFixedToViewport": false,
  "isFlippedHorizontal": false,
  "isFlippedVertical": false,
  "isLocked": false,
  "isVisible": true,
  "layerListExpandedType": 0,
  "name": "Path",
  "nameIsFixed": false,
  "pointRadiusBehaviour": 0,
  "points": [
    {
      "_class": "curvePoint",
      "cornerRadius": 0,
      "curveFrom": "{0.92348011808710195, 0.20872992643022928}",
      "curveMode": 3,
      "curveTo": "{0.98714904281117088, 0.14620803218787104}",
      "hasCurveFrom": true,
      "hasCurveTo": true,
      "point": "{0.94600102699776567, 0.18659484585994721}"
    },
    {
      "_class": "curvePoint",
      "cornerRadius": 0,
      "curveFrom": "{0.7885651404073325, 0.24639839687438594}",
      "curveMode": 4,
      "curveTo": "{0.89948587868695451, 0.22445748367753379}",
      "hasCurveFrom": true,
      "hasCurveTo": true,
      "point": "{0.87707020766839416, 0.24639839687438594}"
    },
    {
      "_class": "curvePoint",
      "cornerRadius": 0,
      "curveFrom": "{0.80750796098639033, 0.53279527267399929}",
      "curveMode": 3,
      "curveTo": "{0.85560167767878859, 0.38658724048612825}",
      "hasCurveFrom": true,
      "hasCurveTo": true,
      "point": "{0.8404474212155435, 0.43338157748118195}"
    },
    {
      "_class": "curvePoint",
      "cornerRadius": 0,
      "curveFrom": "{0.61881642044050045, 0.49240845900192309}",
      "curveMode": 4,
      "curveTo": "{0.67354012433557553, 0.51881522178750883}",
      "hasCurveFrom": true,
      "hasCurveTo": true,
      "point": "{0.63344448744322235, 0.61104472416366207}"
    },
    {
      "_class": "curvePoint",
      "cornerRadius": 0,
      "curveFrom": "{0.44738389419998376, 0.51998022602805516}",
      "curveMode": 4,
      "curveTo": "{0.57598459835339855, 0.51396103745192645}",
      "hasCurveFrom": true,
      "hasCurveTo": true,
      "point": "{0.53241611102155495, 0.54347447821229145}"
    },
    {
      "_class": "curvePoint",
      "cornerRadius": 0,
      "curveFrom": "{0.44243771327100351, 0.80210541961235382}",
      "curveMode": 3,
      "curveTo": "{0.50621187588718186, 0.71570093843891047}",
      "hasCurveFrom": true,
      "hasCurveTo": true,
      "point": "{0.49568808667659486, 0.72987515669881986}"
    },
    {
      "_class": "curvePoint",
      "cornerRadius": 0,
      "curveFrom": "{0.3485655135125359, 0.70172088755242001}",
      "curveMode": 4,
      "curveTo": "{0.41833823597875264, 0.73744768426234375}",
      "hasCurveFrom": true,
      "hasCurveTo": true,
      "point": "{0.39465971025492141, 0.66230491074746034}"
    },
    {
      "_class": "curvePoint",
      "cornerRadius": 0,
      "curveFrom": "{0.29668323270432484, 0.87821902999435375}",
      "curveMode": 4,
      "curveTo": "{0.30268179255436317, 0.74152519910422854}",
      "hasCurveFrom": true,
      "hasCurveTo": true,
      "point": "{0.25648235791986829, 0.78152367802946698}"
    },
    {
      "_class": "curvePoint",
      "cornerRadius": 0,
      "curveFrom": "{0.16703014962985188, 1.0419021257903434}",
      "curveMode": 4,
      "curveTo": "{0.25984997046726138, 0.9242366974957209}",
      "hasCurveFrom": true,
      "hasCurveTo": true,
      "point": "{0.21985957146701166, 0.96811852388942521}"
    },
    {
      "_class": "curvePoint",
      "cornerRadius": 0,
      "curveFrom": "{0.10399265225840941, 0.78113534328261813}",
      "curveMode": 4,
      "curveTo": "{0.14219400709285318, 0.97433187983897285}",
      "hasCurveFrom": true,
      "hasCurveTo": true,
      "point": "{0.11862071926113137, 0.89996577581778703}"
    },
    {
      "_class": "curvePoint",
      "cornerRadius": 0,
      "curveFrom": "{-0.022713769837096075, 0.73453517366098331}",
      "curveMode": 4,
      "curveTo": "{0.061371305955520407, 0.80268792173262149}",
      "hasCurveFrom": true,
      "hasCurveTo": true,
      "point": "{0.017276629163147671, 0.83200719511956767}"
    },
    {
      "_class": "curvePoint",
      "cornerRadius": 0,
      "curveFrom": "{0.10704455112948029, 0.57182291473212121}",
      "curveMode": 4,
      "curveTo": "{0.013909016615754567, 0.68910000827989482}",
      "hasCurveFrom": true,
      "hasCurveTo": true,
      "point": "{0.054320367184423943, 0.6459948513798881}"
    },
    {
      "_class": "curvePoint",
      "cornerRadius": 0,
      "curveFrom": "{0.43107202092356522, 0.47571006488750212}",
      "curveMode": 4,
      "curveTo": "{0.131880693666479, 0.63900482593664287}",
      "hasCurveFrom": true,
      "hasCurveTo": true,
      "point": "{0.15524350571398798, 0.71356509733124762}"
    },
    {
      "_class": "curvePoint",
      "cornerRadius": 0,
      "curveFrom": "{1.0222984987745438, 0.094753678230653823}",
      "curveMode": 4,
      "curveTo": "{0.7069005361331484, 0.23785503244374553}",
      "hasCurveFrom": true,
      "hasCurveTo": true,
      "point": "{0.98262381345062222, 0}"
    }
  ],
  "resizingConstraint": 63,
  "resizingType": 0,
  "rotation": 0,
  "shouldBreakMaskChain": false,
  "style": {
    "_class": "style",
    "do_objectID": "3F86EF0E-9C19-49C7-88DF-B996B52F4918",
    "endMarkerType": 0,
    "fills": [
      {
        "_class": "fill",
        "color": {
          "_class": "color",
          "alpha": 1,
          "blue": 0.1764705882352941,
          "green": 0.1764705882352941,
          "red": 0.1764705882352941
        },
        "fillType": 0,
        "isEnabled": true,
        "noiseIndex": 0,
        "noiseIntensity": 0,
        "patternFillType": 1,
        "patternTileScale": 1
      }
    ],
    "miterLimit": 10,
    "startMarkerType": 0,
    "windingRule": 1
  }
}