{
  "_class": "shapePath",
  "booleanOperation": -1,
  "clippingMaskMode": 0,
  "do_objectID": "90D11361-8714-49C7-ABCA-CAF78043E4BB",
  "edited": true,
  "exportOptions": {
    "_class": "exportOptions",
    "do_objectID": "7DD24FE1-118D-454E-9CA1-4B99081B686A",
    "exportFormats": [
    ],
    "includedLayerIds": [
    ],
    "layerOptions": 0,
    "shouldTrim": false
  },
  "frame": {
    "_class": "rect",
    "constrainProportions": false,
    "do_objectID": "85259E3A-301B-4C28-A468-5C68185105AA",
    "height": 0.1058906030855624,
    "width": 0.1059863482545609,
    "x": 8.076798929797068,
    "y": 22.15621060195539
  },
  "hasClippingMask": false,
  "isClosed": true,
  "isFixedToViewport": false,
  "isFlippedHorizontal": false,
  "isFlippedVertical": false,
  "isLocked": false,
  "isVisible": true,
  "layerListExpandedType": 0,
  "name": "Path",
  "nameIsFixed": false,
  "pointRadiusBehaviour": 0,
  "points": [
    {
      "_class": "curvePoint",
      "cornerRadius": 0,
      "curveFrom": "{0.93969679958698293, 0.2452829788161921}",
      "curveMode": 4,
      "curveTo": "{0.36169679958699419, -0.1047170211837738}",
      "hasCurveFrom": true,
      "hasCurveTo": true,
      "point": "{0.56469679958698293, 0.015282978816173909}"
    },
    {
      "_class": "curvePoint",
      "cornerRadius": 0,
      "curveFrom": "{-0.25830320041301036, 0.51428297881619756}",
      "curveMode": 3,
      "curveTo": "{0.32169679958698794, 0.8672829788162062}",
      "hasCurveFrom": true,
      "hasCurveTo": true,
      "point": "{0.11969679958698975, 0.74328297881623939}"
    }
  ],
  "resizingConstraint": 63,
  "resizingType": 0,
  "rotation": 0,
  "shouldBreakMaskChain": false,
  "style": {
    "_class": "style",
    "do_objectID": "4B5A7017-EA5B-42A0-AF1C-6037E09320A4",
    "endMarkerType": 0,
    "fills": [
      {
        "_class": "fill",
        "color": {
          "_class": "color",
          "alpha": 1,
          "blue": 0.1764705882352941,
          "green": 0.1764705882352941,
          "red": 0.1764705882352941
        },
        "fillType": 0,
        "isEnabled": true,
        "noiseIndex": 0,
        "noiseIntensity": 0,
        "patternFillType": 1,
        "patternTileScale": 1
      }
    ],
    "miterLimit": 10,
    "startMarkerType": 0,
    "windingRule": 1
  }
}