{
  "_class": "shapePath",
  "booleanOperation": -1,
  "clippingMaskMode": 0,
  "do_objectID": "945CD1B1-0C84-4337-9F97-08E8FFA939FF",
  "edited": true,
  "exportOptions": {
    "_class": "exportOptions",
    "do_objectID": "44C730E2-27F6-4DF9-84E2-F50934DE4C74",
    "exportFormats": [
    ],
    "includedLayerIds": [
    ],
    "layerOptions": 0,
    "shouldTrim": false
  },
  "frame": {
    "_class": "rect",
    "constrainProportions": false,
    "do_objectID": "1D27D736-0BB0-47D5-AB65-DFCDDD1F47C6",
    "height": 0.1058906030855589,
    "width": 0.1059863482545591,
    "x": 15.89046619305825,
    "y": 19.50580489336785
  },
  "hasClippingMask": false,
  "isClosed": true,
  "isFixedToViewport": false,
  "isFlippedHorizontal": false,
  "isFlippedVertical": false,
  "isLocked": false,
  "isVisible": true,
  "layerListExpandedType": 0,
  "name": "Path",
  "nameIsFixed": false,
  "pointRadiusBehaviour": 0,
  "points": [
    {
      "_class": "curvePoint",
      "cornerRadius": 0,
      "curveFrom": "{0.92708256834680469, 0.16886657358909929}",
      "curveMode": 3,
      "curveTo": "{0.24808256834680265, -0.081133426410900711}",
      "hasCurveFrom": true,
      "hasCurveTo": true,
      "point": "{0.48408256834679264, 0.0068665735890931501}"
    },
    {
      "_class": "curvePoint",
      "cornerRadius": 0,
      "curveFrom": "{-0.27091743165320281, 0.7028665735890911}",
      "curveMode": 4,
      "curveTo": "{0.41008256834680878, 0.95186657358908633}",
      "hasCurveFrom": true,
      "hasCurveTo": true,
      "point": "{0.17508256834679514, 0.86186657358911134}"
    }
  ],
  "resizingConstraint": 63,
  "resizingType": 0,
  "rotation": 0,
  "shouldBreakMaskChain": false,
  "style": {
    "_class": "style",
    "do_objectID": "B865B871-BEB1-4BE9-B52F-3B6F5151DC98",
    "endMarkerType": 0,
    "fills": [
      {
        "_class": "fill",
        "color": {
          "_class": "color",
          "alpha": 1,
          "blue": 0.1764705882352941,
          "green": 0.1764705882352941,
          "red": 0.1764705882352941
        },
        "fillType": 0,
        "isEnabled": true,
        "noiseIndex": 0,
        "noiseIntensity": 0,
        "patternFillType": 1,
        "patternTileScale": 1
      }
    ],
    "miterLimit": 10,
    "startMarkerType": 0,
    "windingRule": 1
  }
}