{
  "_class": "shapePath",
  "booleanOperation": -1,
  "clippingMaskMode": 0,
  "do_objectID": "981B11B4-887D-4977-A55B-3FB5DC93FC2D",
  "edited": true,
  "exportOptions": {
    "_class": "exportOptions",
    "do_objectID": "4C27E017-DBB8-48FF-B2C0-EEF5B6A7D4D3",
    "exportFormats": [
    ],
    "includedLayerIds": [
    ],
    "layerOptions": 0,
    "shouldTrim": false
  },
  "frame": {
    "_class": "rect",
    "constrainProportions": false,
    "do_objectID": "B51BF6BA-0A5B-4894-AC37-BDB8CD48B7F4",
    "height": 0.1058906030855766,
    "width": 0.1059863482545644,
    "x": 12.02054062442498,
    "y": 25.98338990316844
  },
  "hasClippingMask": false,
  "isClosed": true,
  "isFixedToViewport": false,
  "isFlippedHorizontal": false,
  "isFlippedVertical": false,
  "isLocked": false,
  "isVisible": true,
  "layerListExpandedType": 0,
  "name": "Path",
  "nameIsFixed": false,
  "pointRadiusBehaviour": 0,
  "points": [
    {
      "_class": "curvePoint",
      "cornerRadius": 0,
      "curveFrom": "{-0.30280458475053251, 0.79115693580519064}",
      "curveMode": 4,
      "curveTo": "{0.46019541524947272, 1.0691569358051538}",
      "hasCurveFrom": true,
      "hasCurveTo": true,
      "point": "{0.19519541524945794, 0.97015693580516427}"
    },
    {
      "_class": "curvePoint",
      "cornerRadius": 0,
      "curveFrom": "{1.0391954152494804, 0.18815693580512516}",
      "curveMode": 3,
      "curveTo": "{0.27819541524945635, -0.087843064194828457}",
      "hasCurveFrom": true,
      "hasCurveTo": true,
      "point": "{0.54219541524946635, 0.007156935805141984}"
    }
  ],
  "resizingConstraint": 63,
  "resizingType": 0,
  "rotation": 0,
  "shouldBreakMaskChain": false,
  "style": {
    "_class": "style",
    "do_objectID": "C9AD8AB0-15C1-4ECF-B630-4C25EBBDB747",
    "endMarkerType": 0,
    "fills": [
      {
        "_class": "fill",
        "color": {
          "_class": "color",
          "alpha": 1,
          "blue": 0.1764705882352941,
          "green": 0.1764705882352941,
          "red": 0.1764705882352941
        },
        "fillType": 0,
        "isEnabled": true,
        "noiseIndex": 0,
        "noiseIntensity": 0,
        "patternFillType": 1,
        "patternTileScale": 1
      }
    ],
    "miterLimit": 10,
    "startMarkerType": 0,
    "windingRule": 1
  }
}