{
  "_class": "shapePath",
  "booleanOperation": -1,
  "clippingMaskMode": 0,
  "do_objectID": "9E9CC3C9-44FD-45B6-8045-7FD209D82554",
  "edited": true,
  "exportOptions": {
    "_class": "exportOptions",
    "do_objectID": "A7B6A2FF-3069-44DC-9AB8-C070E6791067",
    "exportFormats": [
    ],
    "includedLayerIds": [
    ],
    "layerOptions": 0,
    "shouldTrim": false
  },
  "frame": {
    "_class": "rect",
    "constrainProportions": false,
    "do_objectID": "42C8DF7B-2FD6-46A7-ADF9-15A6BA1AEB6A",
    "height": 0.1843353813669779,
    "width": 0.2225850681132719,
    "x": 29.71277196940351,
    "y": 21.38961570663902
  },
  "hasClippingMask": false,
  "isClosed": true,
  "isFixedToViewport": false,
  "isFlippedHorizontal": false,
  "isFlippedVertical": false,
  "isLocked": false,
  "isVisible": true,
  "layerListExpandedType": 0,
  "name": "Path",
  "nameIsFixed": false,
  "pointRadiusBehaviour": 0,
  "points": [
    {
      "_class": "curvePoint",
      "cornerRadius": 0,
      "curveFrom": "{0.26372159082859159, 0.085349758029017994}",
      "curveMode": 4,
      "curveTo": "{0.044187364815135119, 0.22613286405631519}",
      "hasCurveFrom": true,
      "hasCurveTo": true,
      "point": "{0.18750455887374942, 0.13594368675757401}"
    },
    {
      "_class": "curvePoint",
      "cornerRadius": 0,
      "curveFrom": "{0.47705634534333041, 0.27012758468984871}",
      "curveMode": 4,
      "curveTo": "{0.3475967934583275, 0.048834139903206689}",
      "hasCurveFrom": true,
      "hasCurveTo": true,
      "point": "{0.42563719938337952, 0}"
    },
    {
      "_class": "curvePoint",
      "cornerRadius": 0,
      "curveFrom": "{0.8515773588247898, 0.34579850417949531}",
      "curveMode": 4,
      "curveTo": "{0.62511431172450693, 0.21997360316761752}",
      "hasCurveFrom": true,
      "hasCurveTo": true,
      "point": "{0.77645435125206941, 0.1531016278046676}"
    },
    {
      "_class": "curvePoint",
      "cornerRadius": 0,
      "curveFrom": "{0.83990776541542189, 0.82050153981521734}",
      "curveMode": 4,
      "curveTo": "{0.92487699242727961, 0.53805543334799821}",
      "hasCurveFrom": true,
      "hasCurveTo": true,
      "point": "{1, 0.73075230972282601}"
    },
    {
      "_class": "curvePoint",
      "cornerRadius": 0,
      "curveFrom": "{0.42126110185487176, 0.9291684997800016}",
      "curveMode": 4,
      "curveTo": "{0.68163890480107436, 0.90937087549493401}",
      "hasCurveFrom": true,
      "hasCurveTo": true,
      "point": "{0.52227601980458438, 1}"
    },
    {
      "_class": "curvePoint",
      "cornerRadius": 0,
      "curveFrom": "{0.23272423333500342, 0.40343158820942371}",
      "curveMode": 3,
      "curveTo": "{0.40667411009317223, 0.45622525296965394}",
      "hasCurveFrom": true,
      "hasCurveTo": true,
      "point": "{0.29873037105665384, 0.42366915970081614}"
    },
    {
      "_class": "curvePoint",
      "cornerRadius": 0,
      "curveFrom": "{-0.076884666806906615, 0.34359876814782114}",
      "curveMode": 4,
      "curveTo": "{0.12806256744485034, 0.56533216014076304}",
      "hasCurveFrom": true,
      "hasCurveTo": true,
      "point": "{0.059868380958956399, 0.55785305763309079}"
    }
  ],
  "resizingConstraint": 63,
  "resizingType": 0,
  "rotation": 0,
  "shouldBreakMaskChain": false,
  "style": {
    "_class": "style",
    "do_objectID": "C373527F-212F-40A4-BBA2-6C76D9C315DD",
    "endMarkerType": 0,
    "fills": [
      {
        "_class": "fill",
        "color": {
          "_class": "color",
          "alpha": 1,
          "blue": 0.1764705882352941,
          "green": 0.1764705882352941,
          "red": 0.1764705882352941
        },
        "fillType": 0,
        "isEnabled": true,
        "noiseIndex": 0,
        "noiseIntensity": 0,
        "patternFillType": 1,
        "patternTileScale": 1
      }
    ],
    "miterLimit": 10,
    "startMarkerType": 0,
    "windingRule": 1
  }
}