{
  "_class": "shapePath",
  "booleanOperation": -1,
  "clippingMaskMode": 0,
  "do_objectID": "A078110B-C3ED-4945-9F4F-4023D8583EA5",
  "edited": true,
  "exportOptions": {
    "_class": "exportOptions",
    "do_objectID": "2A7363F0-4D58-4E5C-B86B-19B5CD2D31D1",
    "exportFormats": [
    ],
    "includedLayerIds": [
    ],
    "layerOptions": 0,
    "shouldTrim": false
  },
  "frame": {
    "_class": "rect",
    "constrainProportions": false,
    "do_objectID": "65541D1C-E98A-4618-9E04-48700CED9B33",
    "height": 0.105890603085566,
    "width": 0.1059863482545538,
    "x": 20.73610774722358,
    "y": 19.08392312958457
  },
  "hasClippingMask": false,
  "isClosed": true,
  "isFixedToViewport": false,
  "isFlippedHorizontal": false,
  "isFlippedVertical": false,
  "isLocked": false,
  "isVisible": true,
  "layerListExpandedType": 0,
  "name": "Path",
  "nameIsFixed": false,
  "pointRadiusBehaviour": 0,
  "points": [
    {
      "_class": "curvePoint",
      "cornerRadius": 0,
      "curveFrom": "{1.1207898364275557, 0.47100000000000364}",
      "curveMode": 4,
      "curveTo": "{0.77684235017750969, 0.20900000000000318}",
      "hasCurveFrom": true,
      "hasCurveTo": true,
      "point": "{0.93893254484705813, 0}"
    },
    {
      "_class": "curvePoint",
      "cornerRadius": 0,
      "curveFrom": "{0.36331468280100043, 1.070999999999998}",
      "curveMode": 4,
      "curveTo": "{0.86460826046199579, 0.61100000000001842}",
      "hasCurveFrom": true,
      "hasCurveTo": true,
      "point": "{0.58865958758553194, 0.72900000000001342}"
    },
    {
      "_class": "curvePoint",
      "cornerRadius": 0,
      "curveFrom": "{0.12927225537568918, 0.039000000000015689}",
      "curveMode": 4,
      "curveTo": "{-0.084212391262254882, 0.48500000000001364}",
      "hasCurveFrom": true,
      "hasCurveTo": true,
      "point": "{0.013832409415914848, 0.28400000000002024}"
    }
  ],
  "resizingConstraint": 63,
  "resizingType": 0,
  "rotation": 0,
  "shouldBreakMaskChain": false,
  "style": {
    "_class": "style",
    "do_objectID": "CC42010D-23C7-44E2-B1EC-AE1621E34FC9",
    "endMarkerType": 0,
    "fills": [
      {
        "_class": "fill",
        "color": {
          "_class": "color",
          "alpha": 1,
          "blue": 0.1764705882352941,
          "green": 0.1764705882352941,
          "red": 0.1764705882352941
        },
        "fillType": 0,
        "isEnabled": true,
        "noiseIndex": 0,
        "noiseIntensity": 0,
        "patternFillType": 1,
        "patternTileScale": 1
      }
    ],
    "miterLimit": 10,
    "startMarkerType": 0,
    "windingRule": 1
  }
}