{
  "_class": "shapePath",
  "booleanOperation": -1,
  "clippingMaskMode": 0,
  "do_objectID": "A534135E-AF25-44CF-A20C-CB2F03E252F4",
  "edited": true,
  "exportOptions": {
    "_class": "exportOptions",
    "do_objectID": "14132C72-D3B4-497C-88C3-38D8E2FCBDB4",
    "exportFormats": [
    ],
    "includedLayerIds": [
    ],
    "layerOptions": 0,
    "shouldTrim": false
  },
  "frame": {
    "_class": "rect",
    "constrainProportions": false,
    "do_objectID": "D395B657-18BA-4805-85A0-CCD5D00D598A",
    "height": 0.1058906030855535,
    "width": 0.1059863482545502,
    "x": 20.06501314150568,
    "y": 13.86459189955914
  },
  "hasClippingMask": false,
  "isClosed": true,
  "isFixedToViewport": false,
  "isFlippedHorizontal": false,
  "isFlippedVertical": false,
  "isLocked": false,
  "isVisible": true,
  "layerListExpandedType": 0,
  "name": "Path",
  "nameIsFixed": false,
  "pointRadiusBehaviour": 0,
  "points": [
    {
      "_class": "curvePoint",
      "cornerRadius": 0,
      "curveFrom": "{-0.26985782576039696, 0.70145250038635254}",
      "curveMode": 3,
      "curveTo": "{0.41114217423961463, 0.94845250038636664}",
      "hasCurveFrom": true,
      "hasCurveTo": true,
      "point": "{0.17414217423959144, 0.8634525003863871}"
    },
    {
      "_class": "curvePoint",
      "cornerRadius": 0,
      "curveFrom": "{0.92814217423961054, 0.16845250038639392}",
      "curveMode": 3,
      "curveTo": "{0.24714217423959894, -0.078547499613620175}",
      "hasCurveFrom": true,
      "hasCurveTo": true,
      "point": "{0.48614217423960326, 0.0064525003863593611}"
    }
  ],
  "resizingConstraint": 63,
  "resizingType": 0,
  "rotation": 0,
  "shouldBreakMaskChain": false,
  "style": {
    "_class": "style",
    "do_objectID": "7F373972-C156-4259-8FA1-7B46345C92BA",
    "endMarkerType": 0,
    "fills": [
      {
        "_class": "fill",
        "color": {
          "_class": "color",
          "alpha": 1,
          "blue": 0.1764705882352941,
          "green": 0.1764705882352941,
          "red": 0.1764705882352941
        },
        "fillType": 0,
        "isEnabled": true,
        "noiseIndex": 0,
        "noiseIntensity": 0,
        "patternFillType": 1,
        "patternTileScale": 1
      }
    ],
    "miterLimit": 10,
    "startMarkerType": 0,
    "windingRule": 1
  }
}