{
  "_class": "shapePath",
  "booleanOperation": -1,
  "clippingMaskMode": 0,
  "do_objectID": "A77AAC43-12A1-42A5-BABE-4EF831682ED7",
  "edited": true,
  "exportOptions": {
    "_class": "exportOptions",
    "do_objectID": "17695002-3DA3-420D-89CC-5C982DE2B473",
    "exportFormats": [
    ],
    "includedLayerIds": [
    ],
    "layerOptions": 0,
    "shouldTrim": false
  },
  "frame": {
    "_class": "rect",
    "constrainProportions": false,
    "do_objectID": "534C28AF-17E3-4A28-A741-D8A9BF25A80C",
    "height": 0.1058906030855766,
    "width": 0.1059863482545467,
    "x": 22.08983299380458,
    "y": 18.01239500074126
  },
  "hasClippingMask": false,
  "isClosed": true,
  "isFixedToViewport": false,
  "isFlippedHorizontal": false,
  "isFlippedVertical": false,
  "isLocked": false,
  "isVisible": true,
  "layerListExpandedType": 0,
  "name": "Path",
  "nameIsFixed": false,
  "pointRadiusBehaviour": 0,
  "points": [
    {
      "_class": "curvePoint",
      "cornerRadius": 0,
      "curveFrom": "{-0.25792151259065577, 0.51178323672388615}",
      "curveMode": 3,
      "curveTo": "{0.32107848740929512, 0.86878323672388547}",
      "hasCurveFrom": true,
      "hasCurveTo": true,
      "point": "{0.11907848740929694, 0.74478323672389024}"
    },
    {
      "_class": "curvePoint",
      "cornerRadius": 0,
      "curveFrom": "{0.93907848740934696, 0.24678323672389979}",
      "curveMode": 3,
      "curveTo": "{0.36307848740932513, -0.10621676327610885}",
      "hasCurveFrom": true,
      "hasCurveTo": true,
      "point": "{0.56207848740933741, 0.015783236723876826}"
    }
  ],
  "resizingConstraint": 63,
  "resizingType": 0,
  "rotation": 0,
  "shouldBreakMaskChain": false,
  "style": {
    "_class": "style",
    "do_objectID": "425A4550-7549-4904-8483-1AA43BA414B3",
    "endMarkerType": 0,
    "fills": [
      {
        "_class": "fill",
        "color": {
          "_class": "color",
          "alpha": 1,
          "blue": 0.1764705882352941,
          "green": 0.1764705882352941,
          "red": 0.1764705882352941
        },
        "fillType": 0,
        "isEnabled": true,
        "noiseIndex": 0,
        "noiseIntensity": 0,
        "patternFillType": 1,
        "patternTileScale": 1
      }
    ],
    "miterLimit": 10,
    "startMarkerType": 0,
    "windingRule": 1
  }
}