{
  "_class": "shapePath",
  "booleanOperation": -1,
  "clippingMaskMode": 0,
  "do_objectID": "AE443D20-7FE1-4932-8147-56A2CDAD029A",
  "edited": true,
  "exportOptions": {
    "_class": "exportOptions",
    "do_objectID": "8E29B955-FDD8-4AD4-923F-012D2837EB4F",
    "exportFormats": [
    ],
    "includedLayerIds": [
    ],
    "layerOptions": 0,
    "shouldTrim": false
  },
  "frame": {
    "_class": "rect",
    "constrainProportions": false,
    "do_objectID": "F5AFF9EC-C07A-4DC8-BEE1-E35A066222F9",
    "height": 0.1166997860919423,
    "width": 0.1059863482545396,
    "x": 34.27073963109746,
    "y": 26.72642100431488
  },
  "hasClippingMask": false,
  "isClosed": true,
  "isFixedToViewport": false,
  "isFlippedHorizontal": false,
  "isFlippedVertical": false,
  "isLocked": false,
  "isVisible": true,
  "layerListExpandedType": 0,
  "name": "Path",
  "nameIsFixed": false,
  "pointRadiusBehaviour": 0,
  "points": [
    {
      "_class": "curvePoint",
      "cornerRadius": 0,
      "curveFrom": "{0.075742972065237293, 0.085476025017368645}",
      "curveMode": 4,
      "curveTo": "{-0.088499602610527778, 0.35858234885335333}",
      "hasCurveFrom": true,
      "hasCurveTo": true,
      "point": "{0.010910376798496975, 0.18693537178597086}"
    },
    {
      "_class": "curvePoint",
      "cornerRadius": 0,
      "curveFrom": "{0.47424732430487249, 0.19318971507989577}",
      "curveMode": 4,
      "curveTo": "{0.43102559412702923, 0.093815149409308018}",
      "hasCurveFrom": true,
      "hasCurveTo": true,
      "point": "{0.51574018527559418, 0}"
    },
    {
      "_class": "curvePoint",
      "cornerRadius": 0,
      "curveFrom": "{0.92634662196503137, 0.91382904794998621}",
      "curveMode": 3,
      "curveTo": "{1.0905891966407963, 0.63933287004863226}",
      "hasCurveFrom": true,
      "hasCurveTo": true,
      "point": "{0.9885859134211139, 0.81028492008340902}"
    },
    {
      "_class": "curvePoint",
      "cornerRadius": 0,
      "curveFrom": "{0.52524896591473835, 0.80611535788741961}",
      "curveMode": 4,
      "curveTo": "{0.56674182688541086, 0.90410006949271704}",
      "hasCurveFrom": true,
      "hasCurveTo": true,
      "point": "{0.48289167034043134, 1}"
    }
  ],
  "resizingConstraint": 63,
  "resizingType": 0,
  "rotation": 0,
  "shouldBreakMaskChain": false,
  "style": {
    "_class": "style",
    "do_objectID": "276B475C-4AB8-4D22-B9D9-DABC87B15807",
    "endMarkerType": 0,
    "fills": [
      {
        "_class": "fill",
        "color": {
          "_class": "color",
          "alpha": 1,
          "blue": 0.1764705882352941,
          "green": 0.1764705882352941,
          "red": 0.1764705882352941
        },
        "fillType": 0,
        "isEnabled": true,
        "noiseIndex": 0,
        "noiseIntensity": 0,
        "patternFillType": 1,
        "patternTileScale": 1
      }
    ],
    "miterLimit": 10,
    "startMarkerType": 0,
    "windingRule": 1
  }
}