{
  "_class": "shapePath",
  "booleanOperation": -1,
  "clippingMaskMode": 0,
  "do_objectID": "AF88A9DB-223D-4897-9C7B-4C73D3ECDCC4",
  "edited": true,
  "exportOptions": {
    "_class": "exportOptions",
    "do_objectID": "7A961FD7-8342-4CE2-923E-F68EA57B1DA7",
    "exportFormats": [
    ],
    "includedLayerIds": [
    ],
    "layerOptions": 0,
    "shouldTrim": false
  },
  "frame": {
    "_class": "rect",
    "constrainProportions": false,
    "do_objectID": "3B5356AA-3B66-4CD5-AB03-91B4B819DB1B",
    "height": 0.1058906030855562,
    "width": 0.105986348254568,
    "x": 36.00997694465467,
    "y": 6.477390012749324
  },
  "hasClippingMask": false,
  "isClosed": true,
  "isFixedToViewport": false,
  "isFlippedHorizontal": false,
  "isFlippedVertical": false,
  "isLocked": false,
  "isVisible": true,
  "layerListExpandedType": 0,
  "name": "Path",
  "nameIsFixed": false,
  "pointRadiusBehaviour": 0,
  "points": [
    {
      "_class": "curvePoint",
      "cornerRadius": 0,
      "curveFrom": "{0.92883348130948207, 0.16845250038635129}",
      "curveMode": 3,
      "curveTo": "{0.24583348130948934, -0.078547499613662808}",
      "hasCurveFrom": true,
      "hasCurveTo": true,
      "point": "{0.48483348130946524, 0.0064525003863735719}"
    },
    {
      "_class": "curvePoint",
      "cornerRadius": 0,
      "curveFrom": "{-0.26816651869052066, 0.70145250038636675}",
      "curveMode": 3,
      "curveTo": "{0.41083348130945296, 0.94845250038638085}",
      "hasCurveFrom": true,
      "hasCurveTo": true,
      "point": "{0.17283348130945342, 0.86345250038634447}"
    }
  ],
  "resizingConstraint": 63,
  "resizingType": 0,
  "rotation": 0,
  "shouldBreakMaskChain": false,
  "style": {
    "_class": "style",
    "do_objectID": "9EEC51D3-6565-428C-9555-D8C161CC315E",
    "endMarkerType": 0,
    "fills": [
      {
        "_class": "fill",
        "color": {
          "_class": "color",
          "alpha": 1,
          "blue": 0.1764705882352941,
          "green": 0.1764705882352941,
          "red": 0.1764705882352941
        },
        "fillType": 0,
        "isEnabled": true,
        "noiseIndex": 0,
        "noiseIntensity": 0,
        "patternFillType": 1,
        "patternTileScale": 1
      }
    ],
    "miterLimit": 10,
    "startMarkerType": 0,
    "windingRule": 1
  }
}