{
  "_class": "shapePath",
  "booleanOperation": -1,
  "clippingMaskMode": 0,
  "do_objectID": "B696F05A-765F-46EE-AC56-202AA2CEE727",
  "edited": true,
  "exportOptions": {
    "_class": "exportOptions",
    "do_objectID": "19CAC592-1C95-4498-B4BB-5A97A8BC2155",
    "exportFormats": [
    ],
    "includedLayerIds": [
    ],
    "layerOptions": 0,
    "shouldTrim": false
  },
  "frame": {
    "_class": "rect",
    "constrainProportions": false,
    "do_objectID": "46EF3F18-7427-4C2B-98D2-5801890005DC",
    "height": 0.105890603085554,
    "width": 0.1059863482545431,
    "x": 30.00181728987335,
    "y": 3.475309241449976
  },
  "hasClippingMask": false,
  "isClosed": true,
  "isFixedToViewport": false,
  "isFlippedHorizontal": false,
  "isFlippedVertical": false,
  "isLocked": false,
  "isVisible": true,
  "layerListExpandedType": 0,
  "name": "Path",
  "nameIsFixed": false,
  "pointRadiusBehaviour": 0,
  "points": [
    {
      "_class": "curvePoint",
      "cornerRadius": 0,
      "curveFrom": "{1.0442332214175281, 0.18746576816132432}",
      "curveMode": 3,
      "curveTo": "{0.27723322141753215, -0.089534231838719336}",
      "hasCurveFrom": true,
      "hasCurveTo": true,
      "point": "{0.54523322141750441, 0.0074657681613174987}"
    },
    {
      "_class": "curvePoint",
      "cornerRadius": 0,
      "curveFrom": "{-0.30176677858247558, 0.78746576816129021}",
      "curveMode": 3,
      "curveTo": "{0.46223322141753442, 1.064465768161277}",
      "hasCurveFrom": true,
      "hasCurveTo": true,
      "point": "{0.19423322141750532, 0.96846576816127339}"
    }
  ],
  "resizingConstraint": 63,
  "resizingType": 0,
  "rotation": 0,
  "shouldBreakMaskChain": false,
  "style": {
    "_class": "style",
    "do_objectID": "A4FC0B6F-C101-410C-BD81-867905D32D09",
    "endMarkerType": 0,
    "fills": [
      {
        "_class": "fill",
        "color": {
          "_class": "color",
          "alpha": 1,
          "blue": 0.1764705882352941,
          "green": 0.1764705882352941,
          "red": 0.1764705882352941
        },
        "fillType": 0,
        "isEnabled": true,
        "noiseIndex": 0,
        "noiseIntensity": 0,
        "patternFillType": 1,
        "patternTileScale": 1
      }
    ],
    "miterLimit": 10,
    "startMarkerType": 0,
    "windingRule": 1
  }
}