{
  "_class": "shapePath",
  "booleanOperation": -1,
  "clippingMaskMode": 0,
  "do_objectID": "B9488A91-B12D-46F6-83F8-77C0E646A911",
  "edited": true,
  "exportOptions": {
    "_class": "exportOptions",
    "do_objectID": "944F73C7-8E1A-4741-B72F-18C7C4DA2E1B",
    "exportFormats": [
    ],
    "includedLayerIds": [
    ],
    "layerOptions": 0,
    "shouldTrim": false
  },
  "frame": {
    "_class": "rect",
    "constrainProportions": false,
    "do_objectID": "8EFBCB29-FCFA-45F3-ADD3-58074C0C6DCD",
    "height": 0.1058906030855908,
    "width": 0.1059863482545644,
    "x": 25.66184539134562,
    "y": 17.60748780190681
  },
  "hasClippingMask": false,
  "isClosed": true,
  "isFixedToViewport": false,
  "isFlippedHorizontal": false,
  "isFlippedVertical": false,
  "isLocked": false,
  "isVisible": true,
  "layerListExpandedType": 0,
  "name": "Path",
  "nameIsFixed": false,
  "pointRadiusBehaviour": 0,
  "points": [
    {
      "_class": "curvePoint",
      "cornerRadius": 0,
      "curveFrom": "{-0.30284956868194968, 0.78760694818706156}",
      "curveMode": 3,
      "curveTo": "{0.45915043131805078, 1.0646069481870484}",
      "hasCurveFrom": true,
      "hasCurveTo": true,
      "point": "{0.19515043131809762, 0.96760694818703996}"
    },
    {
      "_class": "curvePoint",
      "cornerRadius": 0,
      "curveFrom": "{1.0411504313180444, 0.18660694818706247}",
      "curveMode": 3,
      "curveTo": "{0.2781504313180676, -0.090393051812952763}",
      "hasCurveFrom": true,
      "hasCurveTo": true,
      "point": "{0.54415043131808716, 0.007606948187060425}"
    }
  ],
  "resizingConstraint": 63,
  "resizingType": 0,
  "rotation": 0,
  "shouldBreakMaskChain": false,
  "style": {
    "_class": "style",
    "do_objectID": "A5B14081-EFB6-48EF-8F86-37CCF94D1774",
    "endMarkerType": 0,
    "fills": [
      {
        "_class": "fill",
        "color": {
          "_class": "color",
          "alpha": 1,
          "blue": 0.1764705882352941,
          "green": 0.1764705882352941,
          "red": 0.1764705882352941
        },
        "fillType": 0,
        "isEnabled": true,
        "noiseIndex": 0,
        "noiseIntensity": 0,
        "patternFillType": 1,
        "patternTileScale": 1
      }
    ],
    "miterLimit": 10,
    "startMarkerType": 0,
    "windingRule": 1
  }
}