{
  "_class": "shapePath",
  "booleanOperation": -1,
  "clippingMaskMode": 0,
  "do_objectID": "BA0DE723-DD0A-4812-9989-C3D85691A0D7",
  "edited": true,
  "exportOptions": {
    "_class": "exportOptions",
    "do_objectID": "D995B7CE-A827-4184-BDEF-574A6266949E",
    "exportFormats": [
    ],
    "includedLayerIds": [
    ],
    "layerOptions": 0,
    "shouldTrim": false
  },
  "frame": {
    "_class": "rect",
    "constrainProportions": false,
    "do_objectID": "98521008-FDA7-47B7-99BB-5A46D5D1643A",
    "height": 0.1058906030855571,
    "width": 0.1059863482545715,
    "x": 21.06267341511296,
    "y": 13.98131523479139
  },
  "hasClippingMask": false,
  "isClosed": true,
  "isFixedToViewport": false,
  "isFlippedHorizontal": false,
  "isFlippedVertical": false,
  "isLocked": false,
  "isVisible": true,
  "layerListExpandedType": 0,
  "name": "Path",
  "nameIsFixed": false,
  "pointRadiusBehaviour": 0,
  "points": [
    {
      "_class": "curvePoint",
      "cornerRadius": 0,
      "curveFrom": "{-0.25867917201446744, 0.5151621209955124}",
      "curveMode": 3,
      "curveTo": "{0.32332082798552619, 0.86616212099551149}",
      "hasCurveFrom": true,
      "hasCurveTo": true,
      "point": "{0.11932082798551846, 0.74316212099546419}"
    },
    {
      "_class": "curvePoint",
      "cornerRadius": 0,
      "curveFrom": "{0.94332082798553074, 0.24516212099547374}",
      "curveMode": 3,
      "curveTo": "{0.36432082798552301, -0.1078378790045349}",
      "hasCurveFrom": true,
      "hasCurveTo": true,
      "point": "{0.56632082798552119, 0.016162120995488749}"
    }
  ],
  "resizingConstraint": 63,
  "resizingType": 0,
  "rotation": 0,
  "shouldBreakMaskChain": false,
  "style": {
    "_class": "style",
    "do_objectID": "E9613A23-2C3E-4798-9E26-FBF1F5A5EFBA",
    "endMarkerType": 0,
    "fills": [
      {
        "_class": "fill",
        "color": {
          "_class": "color",
          "alpha": 1,
          "blue": 0.1764705882352941,
          "green": 0.1764705882352941,
          "red": 0.1764705882352941
        },
        "fillType": 0,
        "isEnabled": true,
        "noiseIndex": 0,
        "noiseIntensity": 0,
        "patternFillType": 1,
        "patternTileScale": 1
      }
    ],
    "miterLimit": 10,
    "startMarkerType": 0,
    "windingRule": 1
  }
}