{
  "_class": "shapePath",
  "booleanOperation": -1,
  "clippingMaskMode": 0,
  "do_objectID": "BCC60E80-1204-4B7D-A084-1C378C64BB4D",
  "edited": true,
  "exportOptions": {
    "_class": "exportOptions",
    "do_objectID": "DC4E10F6-9672-4241-844A-74F2307B837A",
    "exportFormats": [
    ],
    "includedLayerIds": [
    ],
    "layerOptions": 0,
    "shouldTrim": false
  },
  "frame": {
    "_class": "rect",
    "constrainProportions": false,
    "do_objectID": "BA5C3AC0-CD94-4FF8-96F6-4C285AB434F6",
    "height": 0.1058906030855553,
    "width": 0.105986348254552,
    "x": 9.556241215416357,
    "y": 19.7341883893638
  },
  "hasClippingMask": false,
  "isClosed": true,
  "isFixedToViewport": false,
  "isFlippedHorizontal": false,
  "isFlippedVertical": false,
  "isLocked": false,
  "isVisible": true,
  "layerListExpandedType": 0,
  "name": "Path",
  "nameIsFixed": false,
  "pointRadiusBehaviour": 0,
  "points": [
    {
      "_class": "curvePoint",
      "cornerRadius": 0,
      "curveFrom": "{0.9384916416994713, 0.24771873181731507}",
      "curveMode": 3,
      "curveTo": "{0.36049164169946835, -0.10628126818269834}",
      "hasCurveFrom": true,
      "hasCurveTo": true,
      "point": "{0.56249164169946653, 0.015718731817315756}"
    },
    {
      "_class": "curvePoint",
      "cornerRadius": 0,
      "curveFrom": "{-0.25650835830053609, 0.51471873181731098}",
      "curveMode": 3,
      "curveTo": "{0.31949164169947153, 0.86971873181730075}",
      "hasCurveFrom": true,
      "hasCurveTo": true,
      "point": "{0.11849164169946391, 0.74571873181730552}"
    }
  ],
  "resizingConstraint": 63,
  "resizingType": 0,
  "rotation": 0,
  "shouldBreakMaskChain": false,
  "style": {
    "_class": "style",
    "do_objectID": "01E6A913-2775-426E-88C6-56ACD9751BC4",
    "endMarkerType": 0,
    "fills": [
      {
        "_class": "fill",
        "color": {
          "_class": "color",
          "alpha": 1,
          "blue": 0.1764705882352941,
          "green": 0.1764705882352941,
          "red": 0.1764705882352941
        },
        "fillType": 0,
        "isEnabled": true,
        "noiseIndex": 0,
        "noiseIntensity": 0,
        "patternFillType": 1,
        "patternTileScale": 1
      }
    ],
    "miterLimit": 10,
    "startMarkerType": 0,
    "windingRule": 1
  }
}