{
  "_class": "shapePath",
  "booleanOperation": -1,
  "clippingMaskMode": 0,
  "do_objectID": "C3D6D080-ECF3-4AE8-9552-E02CAA6730C2",
  "edited": true,
  "exportOptions": {
    "_class": "exportOptions",
    "do_objectID": "58A4A462-D730-4FD2-80E0-43E390AB916A",
    "exportFormats": [
    ],
    "includedLayerIds": [
    ],
    "layerOptions": 0,
    "shouldTrim": false
  },
  "frame": {
    "_class": "rect",
    "constrainProportions": false,
    "do_objectID": "64A9088B-EB63-43EF-BAFE-BD61A33DE55B",
    "height": 0.1058906030855624,
    "width": 0.1059863482545538,
    "x": 27.20570052274623,
    "y": 32.6823584085181
  },
  "hasClippingMask": false,
  "isClosed": true,
  "isFixedToViewport": false,
  "isFlippedHorizontal": false,
  "isFlippedVertical": false,
  "isLocked": false,
  "isVisible": true,
  "layerListExpandedType": 0,
  "name": "Path",
  "nameIsFixed": false,
  "pointRadiusBehaviour": 0,
  "points": [
    {
      "_class": "curvePoint",
      "cornerRadius": 0,
      "curveFrom": "{1.0414018189644594, 0.18761495844876208}",
      "curveMode": 3,
      "curveTo": "{0.27440181896446347, -0.090385041551201084}",
      "hasCurveFrom": true,
      "hasCurveTo": true,
      "point": "{0.54440181896444528, 0.0076149584487552602}"
    },
    {
      "_class": "curvePoint",
      "cornerRadius": 0,
      "curveFrom": "{-0.30159818103555835, 0.78661495844880847}",
      "curveMode": 3,
      "curveTo": "{0.4604018189644421, 1.0646149584487716}",
      "hasCurveFrom": true,
      "hasCurveTo": true,
      "point": "{0.19540181896445574, 0.96661495844881529}"
    }
  ],
  "resizingConstraint": 63,
  "resizingType": 0,
  "rotation": 0,
  "shouldBreakMaskChain": false,
  "style": {
    "_class": "style",
    "do_objectID": "1F553C40-E38C-4D07-A824-1B8FACB8DD82",
    "endMarkerType": 0,
    "fills": [
      {
        "_class": "fill",
        "color": {
          "_class": "color",
          "alpha": 1,
          "blue": 0.1764705882352941,
          "green": 0.1764705882352941,
          "red": 0.1764705882352941
        },
        "fillType": 0,
        "isEnabled": true,
        "noiseIndex": 0,
        "noiseIntensity": 0,
        "patternFillType": 1,
        "patternTileScale": 1
      }
    ],
    "miterLimit": 10,
    "startMarkerType": 0,
    "windingRule": 1
  }
}