{
  "_class": "shapePath",
  "booleanOperation": -1,
  "clippingMaskMode": 0,
  "do_objectID": "C6F3ED17-633F-46AD-81CA-2CCA1568E114",
  "edited": true,
  "exportOptions": {
    "_class": "exportOptions",
    "do_objectID": "16D9AC71-0B1D-4DE8-893D-B27123DEE98F",
    "exportFormats": [
    ],
    "includedLayerIds": [
    ],
    "layerOptions": 0,
    "shouldTrim": false
  },
  "frame": {
    "_class": "rect",
    "constrainProportions": false,
    "do_objectID": "991AF077-E833-4EEA-9B93-4250B508BE8B",
    "height": 0.1522368453935172,
    "width": 0.214548366929332,
    "x": 31.84922250820867,
    "y": 18.13945773081648
  },
  "hasClippingMask": false,
  "isClosed": true,
  "isFixedToViewport": false,
  "isFlippedHorizontal": false,
  "isFlippedVertical": false,
  "isLocked": false,
  "isVisible": true,
  "layerListExpandedType": 0,
  "name": "Path",
  "nameIsFixed": false,
  "pointRadiusBehaviour": 0,
  "points": [
    {
      "_class": "curvePoint",
      "cornerRadius": 0,
      "curveFrom": "{0.69759494971439739, 0.46825062430492437}",
      "curveMode": 4,
      "curveTo": "{0.93027099612386943, 0.37023229111709066}",
      "hasCurveFrom": true,
      "hasCurveTo": true,
      "point": "{0.77931531723380965, 0.43309187435711266}"
    },
    {
      "_class": "curvePoint",
      "cornerRadius": 0,
      "curveFrom": "{0.30828819889266657, 0.52791395754969073}",
      "curveMode": 4,
      "curveTo": "{0.61171289681202057, 0.4858299992788378}",
      "hasCurveFrom": true,
      "hasCurveTo": true,
      "point": "{0.53037086432741154, 0.51779249923139392}"
    },
    {
      "_class": "curvePoint",
      "cornerRadius": 0,
      "curveFrom": "{0.14106411350568068, 1.0899212483821181}",
      "curveMode": 4,
      "curveTo": "{0.31888157986739363, 0.73673562390639569}",
      "hasCurveFrom": true,
      "hasCurveTo": true,
      "point": "{0.34120334692132204, 0.95514604024885241}"
    },
    {
      "_class": "curvePoint",
      "cornerRadius": 0,
      "curveFrom": "{-0.064371810397334958, 0.40645645772999262}",
      "curveMode": 4,
      "curveTo": "{0.082800518144606469, 0.89761354033425145}",
      "hasCurveFrom": true,
      "hasCurveTo": true,
      "point": "{0.03248195851457221, 0.68772645731247128}"
    },
    {
      "_class": "curvePoint",
      "cornerRadius": 0,
      "curveFrom": "{0.47021559379227817, 0.16940124974853227}",
      "curveMode": 4,
      "curveTo": "{0.072207137169857896, 0.324419374518437}",
      "hasCurveFrom": true,
      "hasCurveTo": true,
      "point": "{0.22089280585103377, 0.25410187462281353}"
    },
    {
      "_class": "curvePoint",
      "cornerRadius": 0,
      "curveFrom": "{1.0642015984473967, 0.27381208292689235}",
      "curveMode": 4,
      "curveTo": "{0.71916004669867628, 0.084167916541721011}",
      "hasCurveFrom": true,
      "hasCurveTo": true,
      "point": "{0.96696949450066483, 0}"
    }
  ],
  "resizingConstraint": 63,
  "resizingType": 0,
  "rotation": 0,
  "shouldBreakMaskChain": false,
  "style": {
    "_class": "style",
    "do_objectID": "780CA2E7-344E-4EEE-AD81-7A6FAEB5B0A2",
    "endMarkerType": 0,
    "fills": [
      {
        "_class": "fill",
        "color": {
          "_class": "color",
          "alpha": 1,
          "blue": 0.1764705882352941,
          "green": 0.1764705882352941,
          "red": 0.1764705882352941
        },
        "fillType": 0,
        "isEnabled": true,
        "noiseIndex": 0,
        "noiseIntensity": 0,
        "patternFillType": 1,
        "patternTileScale": 1
      }
    ],
    "miterLimit": 10,
    "startMarkerType": 0,
    "windingRule": 1
  }
}