{
  "_class": "shapePath",
  "booleanOperation": -1,
  "clippingMaskMode": 0,
  "do_objectID": "C9522AB3-6C0A-4C6F-9B12-9544C803CC59",
  "edited": true,
  "exportOptions": {
    "_class": "exportOptions",
    "do_objectID": "3502CCC3-5703-44E6-BF3A-090436C788EA",
    "exportFormats": [
    ],
    "includedLayerIds": [
    ],
    "layerOptions": 0,
    "shouldTrim": false
  },
  "frame": {
    "_class": "rect",
    "constrainProportions": false,
    "do_objectID": "EF54A534-BB5E-455C-B860-07C31B2A3208",
    "height": 0.1058906030855535,
    "width": 0.1059863482545467,
    "x": 35.0141092906065,
    "y": 15.15036508567856
  },
  "hasClippingMask": false,
  "isClosed": true,
  "isFixedToViewport": false,
  "isFlippedHorizontal": false,
  "isFlippedVertical": false,
  "isLocked": false,
  "isVisible": true,
  "layerListExpandedType": 0,
  "name": "Path",
  "nameIsFixed": false,
  "pointRadiusBehaviour": 0,
  "points": [
    {
      "_class": "curvePoint",
      "cornerRadius": 0,
      "curveFrom": "{1.055570389277932, 0.27685947339168138}",
      "curveMode": 3,
      "curveTo": "{0.40757038927790745, -0.12014052660830998}",
      "hasCurveFrom": true,
      "hasCurveTo": true,
      "point": "{0.63157038927789699, 0.017859473391666825}"
    },
    {
      "_class": "curvePoint",
      "cornerRadius": 0,
      "curveFrom": "{-0.28942961072209528, 0.57885947339170229}",
      "curveMode": 4,
      "curveTo": "{0.36057038927793883, 0.97585947339169365}",
      "hasCurveFrom": true,
      "hasCurveTo": true,
      "point": "{0.13357038927790654, 0.8348594733916741}"
    }
  ],
  "resizingConstraint": 63,
  "resizingType": 0,
  "rotation": 0,
  "shouldBreakMaskChain": false,
  "style": {
    "_class": "style",
    "do_objectID": "B49C3BF1-A99F-4F22-8F9F-AC0FB3143D99",
    "endMarkerType": 0,
    "fills": [
      {
        "_class": "fill",
        "color": {
          "_class": "color",
          "alpha": 1,
          "blue": 0.1764705882352941,
          "green": 0.1764705882352941,
          "red": 0.1764705882352941
        },
        "fillType": 0,
        "isEnabled": true,
        "noiseIndex": 0,
        "noiseIntensity": 0,
        "patternFillType": 1,
        "patternTileScale": 1
      }
    ],
    "miterLimit": 10,
    "startMarkerType": 0,
    "windingRule": 1
  }
}