{
  "_class": "shapePath",
  "booleanOperation": -1,
  "clippingMaskMode": 0,
  "do_objectID": "C98A8AA7-1B18-4574-9593-406F9A14270F",
  "edited": true,
  "exportOptions": {
    "_class": "exportOptions",
    "do_objectID": "114C5491-7BF6-4479-8F2A-63C95642FAB3",
    "exportFormats": [
    ],
    "includedLayerIds": [
    ],
    "layerOptions": 0,
    "shouldTrim": false
  },
  "frame": {
    "_class": "rect",
    "constrainProportions": false,
    "do_objectID": "9DB20257-76BB-4A0C-892B-E6B261F0CEF1",
    "height": 0.1058906030855624,
    "width": 0.105986348254536,
    "x": 19.59501391581964,
    "y": 8.546462653317596
  },
  "hasClippingMask": false,
  "isClosed": true,
  "isFixedToViewport": false,
  "isFlippedHorizontal": false,
  "isFlippedVertical": false,
  "isLocked": false,
  "isVisible": true,
  "layerListExpandedType": 0,
  "name": "Path",
  "nameIsFixed": false,
  "pointRadiusBehaviour": 0,
  "points": [
    {
      "_class": "curvePoint",
      "cornerRadius": 0,
      "curveFrom": "{0.93936623006754871, 0.24516212099551637}",
      "curveMode": 4,
      "curveTo": "{0.36436623006753166, -0.10783787900449227}",
      "hasCurveFrom": true,
      "hasCurveTo": true,
      "point": "{0.56236623006753916, 0.016162120995474538}"
    },
    {
      "_class": "curvePoint",
      "cornerRadius": 0,
      "curveFrom": "{-0.25863376993245879, 0.51516212099549819}",
      "curveMode": 4,
      "curveTo": "{0.32036623006754894, 0.86716212099547363}",
      "hasCurveFrom": true,
      "hasCurveTo": true,
      "point": "{0.11936623006752711, 0.74316212099550683}"
    }
  ],
  "resizingConstraint": 63,
  "resizingType": 0,
  "rotation": 0,
  "shouldBreakMaskChain": false,
  "style": {
    "_class": "style",
    "do_objectID": "83FBD683-790E-4FA5-B589-EE7013D45E81",
    "endMarkerType": 0,
    "fills": [
      {
        "_class": "fill",
        "color": {
          "_class": "color",
          "alpha": 1,
          "blue": 0.1764705882352941,
          "green": 0.1764705882352941,
          "red": 0.1764705882352941
        },
        "fillType": 0,
        "isEnabled": true,
        "noiseIndex": 0,
        "noiseIntensity": 0,
        "patternFillType": 1,
        "patternTileScale": 1
      }
    ],
    "miterLimit": 10,
    "startMarkerType": 0,
    "windingRule": 1
  }
}