{
  "_class": "shapePath",
  "booleanOperation": -1,
  "clippingMaskMode": 0,
  "do_objectID": "CBE75710-A23F-49FD-8F0B-9525D3EB9969",
  "edited": true,
  "exportOptions": {
    "_class": "exportOptions",
    "do_objectID": "5A01F567-DAA9-482D-BAD1-3ABCCC7B927C",
    "exportFormats": [
    ],
    "includedLayerIds": [
    ],
    "layerOptions": 0,
    "shouldTrim": false
  },
  "frame": {
    "_class": "rect",
    "constrainProportions": false,
    "do_objectID": "FDBA21B6-ACC1-46A8-9AB4-38956DC8EB59",
    "height": 0.1058906030855589,
    "width": 0.1059863482545751,
    "x": 37.55039142523493,
    "y": 26.70933200527203
  },
  "hasClippingMask": false,
  "isClosed": true,
  "isFixedToViewport": false,
  "isFlippedHorizontal": false,
  "isFlippedVertical": false,
  "isLocked": false,
  "isVisible": true,
  "layerListExpandedType": 0,
  "name": "Path",
  "nameIsFixed": false,
  "pointRadiusBehaviour": 0,
  "points": [
    {
      "_class": "curvePoint",
      "cornerRadius": 0,
      "curveFrom": "{-0.25852753111041693, 0.51472077718540277}",
      "curveMode": 4,
      "curveTo": "{0.32247246888960035, 0.8687207771854446}",
      "hasCurveFrom": true,
      "hasCurveTo": true,
      "point": "{0.11947246888962582, 0.74272077718541141}"
    },
    {
      "_class": "curvePoint",
      "cornerRadius": 0,
      "curveFrom": "{0.94147246888962854, 0.24472077718542096}",
      "curveMode": 3,
      "curveTo": "{0.36347246888959717, -0.10627922281457813}",
      "hasCurveFrom": true,
      "hasCurveTo": true,
      "point": "{0.5634724688895858, 0.01572077718537912}"
    }
  ],
  "resizingConstraint": 63,
  "resizingType": 0,
  "rotation": 0,
  "shouldBreakMaskChain": false,
  "style": {
    "_class": "style",
    "do_objectID": "3C71E5A8-C146-483C-869E-6540B6283CAC",
    "endMarkerType": 0,
    "fills": [
      {
        "_class": "fill",
        "color": {
          "_class": "color",
          "alpha": 1,
          "blue": 0.1764705882352941,
          "green": 0.1764705882352941,
          "red": 0.1764705882352941
        },
        "fillType": 0,
        "isEnabled": true,
        "noiseIndex": 0,
        "noiseIntensity": 0,
        "patternFillType": 1,
        "patternTileScale": 1
      }
    ],
    "miterLimit": 10,
    "startMarkerType": 0,
    "windingRule": 1
  }
}