{
  "_class": "shapePath",
  "booleanOperation": -1,
  "clippingMaskMode": 0,
  "do_objectID": "CE4CF9D4-A9DD-4A92-9512-FB7244EDB5E9",
  "edited": true,
  "exportOptions": {
    "_class": "exportOptions",
    "do_objectID": "5FC37EB2-1519-45A2-AC3A-FA74104ECC06",
    "exportFormats": [
    ],
    "includedLayerIds": [
    ],
    "layerOptions": 0,
    "shouldTrim": false
  },
  "frame": {
    "_class": "rect",
    "constrainProportions": false,
    "do_objectID": "65D422CE-DAD2-43CE-B15F-4E8F829454ED",
    "height": 0.1058906030855589,
    "width": 0.1475105587732131,
    "x": 10.74016217824156,
    "y": 23.35315651335148
  },
  "hasClippingMask": false,
  "isClosed": true,
  "isFixedToViewport": false,
  "isFlippedHorizontal": false,
  "isFlippedVertical": false,
  "isLocked": false,
  "isVisible": true,
  "layerListExpandedType": 0,
  "name": "Path",
  "nameIsFixed": false,
  "pointRadiusBehaviour": 0,
  "points": [
    {
      "_class": "curvePoint",
      "cornerRadius": 0,
      "curveFrom": "{0.56018101261249664, 0.61184869875644676}",
      "curveMode": 4,
      "curveTo": "{0.90575282343739227, 0.58491196359105035}",
      "hasCurveFrom": true,
      "hasCurveTo": true,
      "point": "{0.71370734258087631, 0.7003551142998139}"
    },
    {
      "_class": "curvePoint",
      "cornerRadius": 0,
      "curveFrom": "{-0.13921671279901263, 0.75230453211878479}",
      "curveMode": 3,
      "curveTo": "{0.20085236218471184, 1.1169124831072461}",
      "hasCurveFrom": true,
      "hasCurveTo": true,
      "point": "{0.067686154828629858, 0.97453259723314101}"
    },
    {
      "_class": "curvePoint",
      "cornerRadius": 0,
      "curveFrom": "{0.52716459756553158, 0.18182296236631623}",
      "curveMode": 4,
      "curveTo": "{0.18214306032477018, 0.20875969753165793}",
      "hasCurveFrom": true,
      "hasCurveTo": true,
      "point": "{0.31255789976027432, 0.27321545667738883}"
    },
    {
      "_class": "curvePoint",
      "cornerRadius": 0,
      "curveFrom": "{1.0834911911068692, 0.45407639278776679}",
      "curveMode": 4,
      "curveTo": "{0.74232156895492307, 0.092354520567010823}",
      "hasCurveFrom": true,
      "hasCurveTo": true,
      "point": "{0.95802881392841777, 0}"
    }
  ],
  "resizingConstraint": 63,
  "resizingType": 0,
  "rotation": 0,
  "shouldBreakMaskChain": false,
  "style": {
    "_class": "style",
    "do_objectID": "3C20C0C6-42CF-4E2A-8BB0-59DE94687BEE",
    "endMarkerType": 0,
    "fills": [
      {
        "_class": "fill",
        "color": {
          "_class": "color",
          "alpha": 1,
          "blue": 0.1764705882352941,
          "green": 0.1764705882352941,
          "red": 0.1764705882352941
        },
        "fillType": 0,
        "isEnabled": true,
        "noiseIndex": 0,
        "noiseIntensity": 0,
        "patternFillType": 1,
        "patternTileScale": 1
      }
    ],
    "miterLimit": 10,
    "startMarkerType": 0,
    "windingRule": 1
  }
}