{
  "_class": "shapePath",
  "booleanOperation": -1,
  "clippingMaskMode": 0,
  "do_objectID": "D0B44DEA-29D1-4114-AB87-388DBBCF6E54",
  "edited": true,
  "exportOptions": {
    "_class": "exportOptions",
    "do_objectID": "F25FC1EC-6574-48C5-BF88-4A96D47A3424",
    "exportFormats": [
    ],
    "includedLayerIds": [
    ],
    "layerOptions": 0,
    "shouldTrim": false
  },
  "frame": {
    "_class": "rect",
    "constrainProportions": false,
    "do_objectID": "CEF00A67-93CA-41FA-9920-F8F4239944B5",
    "height": 0.1058906030855553,
    "width": 0.1059863482545609,
    "x": 10.8081087270645,
    "y": 6.418513603722914
  },
  "hasClippingMask": false,
  "isClosed": true,
  "isFixedToViewport": false,
  "isFlippedHorizontal": false,
  "isFlippedVertical": false,
  "isLocked": false,
  "isVisible": true,
  "layerListExpandedType": 0,
  "name": "Path",
  "nameIsFixed": false,
  "pointRadiusBehaviour": 0,
  "points": [
    {
      "_class": "curvePoint",
      "cornerRadius": 0,
      "curveFrom": "{-0.26907287438919525, 0.70244485586707128}",
      "curveMode": 3,
      "curveTo": "{0.41192712561078793, 0.95144485586709493}",
      "hasCurveFrom": true,
      "hasCurveTo": true,
      "point": "{0.17292712561078361, 0.86444485586710584}"
    },
    {
      "_class": "curvePoint",
      "cornerRadius": 0,
      "curveFrom": "{0.92792712561080748, 0.16844485586707947}",
      "curveMode": 3,
      "curveTo": "{0.24792712561080066, -0.078555144132934629}",
      "hasCurveFrom": true,
      "hasCurveTo": true,
      "point": "{0.48492712561079543, 0.0064448558671017508}"
    }
  ],
  "resizingConstraint": 63,
  "resizingType": 0,
  "rotation": 0,
  "shouldBreakMaskChain": false,
  "style": {
    "_class": "style",
    "do_objectID": "8B90E198-9385-412C-98BC-EA7B0585DCBE",
    "endMarkerType": 0,
    "fills": [
      {
        "_class": "fill",
        "color": {
          "_class": "color",
          "alpha": 1,
          "blue": 0.1764705882352941,
          "green": 0.1764705882352941,
          "red": 0.1764705882352941
        },
        "fillType": 0,
        "isEnabled": true,
        "noiseIndex": 0,
        "noiseIntensity": 0,
        "patternFillType": 1,
        "patternTileScale": 1
      }
    ],
    "miterLimit": 10,
    "startMarkerType": 0,
    "windingRule": 1
  }
}