{
  "_class": "shapePath",
  "booleanOperation": -1,
  "clippingMaskMode": 0,
  "do_objectID": "D1D0B888-A2F8-4A6C-9E15-BB8EB33F52B3",
  "edited": true,
  "exportOptions": {
    "_class": "exportOptions",
    "do_objectID": "9D9CB000-7734-4E27-8616-90890D991AFE",
    "exportFormats": [
    ],
    "includedLayerIds": [
    ],
    "layerOptions": 0,
    "shouldTrim": false
  },
  "frame": {
    "_class": "rect",
    "constrainProportions": false,
    "do_objectID": "8FE3756E-353E-4C4B-BFDD-86BEB080D083",
    "height": 0.1058906030855553,
    "width": 0.1059863482545467,
    "x": 30.87311229338671,
    "y": 14.87531420836468
  },
  "hasClippingMask": false,
  "isClosed": true,
  "isFixedToViewport": false,
  "isFlippedHorizontal": false,
  "isFlippedVertical": false,
  "isLocked": false,
  "isVisible": true,
  "layerListExpandedType": 0,
  "name": "Path",
  "nameIsFixed": false,
  "pointRadiusBehaviour": 0,
  "points": [
    {
      "_class": "curvePoint",
      "cornerRadius": 0,
      "curveFrom": "{0.92618726272058893, 0.16445277196649499}",
      "curveMode": 3,
      "curveTo": "{0.24718726272061531, -0.078547228033556848}",
      "hasCurveFrom": true,
      "hasCurveTo": true,
      "point": "{0.48418726272058166, 0.0064527719664795313}"
    },
    {
      "_class": "curvePoint",
      "cornerRadius": 0,
      "curveFrom": "{-0.2698127372793806, 0.70145277196647271}",
      "curveMode": 4,
      "curveTo": "{0.41218726272057893, 0.95045277196649636}",
      "hasCurveFrom": true,
      "hasCurveTo": true,
      "point": "{0.17418726272057938, 0.86145277196649772}"
    }
  ],
  "resizingConstraint": 63,
  "resizingType": 0,
  "rotation": 0,
  "shouldBreakMaskChain": false,
  "style": {
    "_class": "style",
    "do_objectID": "FD520347-EDA6-4DA5-A64A-3E32FD404C3A",
    "endMarkerType": 0,
    "fills": [
      {
        "_class": "fill",
        "color": {
          "_class": "color",
          "alpha": 1,
          "blue": 0.1764705882352941,
          "green": 0.1764705882352941,
          "red": 0.1764705882352941
        },
        "fillType": 0,
        "isEnabled": true,
        "noiseIndex": 0,
        "noiseIntensity": 0,
        "patternFillType": 1,
        "patternTileScale": 1
      }
    ],
    "miterLimit": 10,
    "startMarkerType": 0,
    "windingRule": 1
  }
}