{
  "_class": "shapePath",
  "booleanOperation": -1,
  "clippingMaskMode": 0,
  "do_objectID": "D645B8C9-61EA-4BD4-A91B-85C1E800EC07",
  "edited": true,
  "exportOptions": {
    "_class": "exportOptions",
    "do_objectID": "55E90856-F8EC-40AF-A3F3-F1CE2D5B1D44",
    "exportFormats": [
    ],
    "includedLayerIds": [
    ],
    "layerOptions": 0,
    "shouldTrim": false
  },
  "frame": {
    "_class": "rect",
    "constrainProportions": false,
    "do_objectID": "34851154-FD98-485B-BEA9-7D5B62229656",
    "height": 6.490358694325952,
    "width": 5.536766429773742,
    "x": 10.17322527696826,
    "y": 17.96984431772271
  },
  "hasClippingMask": false,
  "isClosed": true,
  "isFixedToViewport": false,
  "isFlippedHorizontal": false,
  "isFlippedVertical": false,
  "isLocked": false,
  "isVisible": true,
  "layerListExpandedType": 0,
  "name": "Path",
  "nameIsFixed": false,
  "pointRadiusBehaviour": 0,
  "points": [
    {
      "_class": "curvePoint",
      "cornerRadius": 0,
      "curveFrom": "{0.082544842834254839, 0.052810223475621094}",
      "curveMode": 2,
      "curveTo": "{0.074950760002960276, 0.048849269198339228}",
      "hasCurveFrom": true,
      "hasCurveTo": true,
      "point": "{0.078234687713790205, 0.050561101173063533}"
    },
    {
      "_class": "curvePoint",
      "cornerRadius": 0,
      "curveFrom": "{0.075214647051151981, 0.059807492861355491}",
      "curveMode": 4,
      "curveTo": "{0.078923726117401824, 0.057608351054410555}",
      "hasCurveFrom": false,
      "hasCurveTo": true,
      "point": "{0.075214647051151981, 0.059807492861355491}"
    },
    {
      "_class": "curvePoint",
      "cornerRadius": 0,
      "curveFrom": "{0.24948272159863918, 0.020997638018336019}",
      "curveMode": 4,
      "curveTo": "{0.25089011918899501, 0.02357163354237388}",
      "hasCurveFrom": true,
      "hasCurveTo": false,
      "point": "{0.25089011918899501, 0.02357163354237388}"
    },
    {
      "_class": "curvePoint",
      "cornerRadius": 0,
      "curveFrom": "{0.25253208304440994, 0.015524773748779646}",
      "curveMode": 4,
      "curveTo": "{0.24807532400828339, 0.018436137618200964}",
      "hasCurveFrom": true,
      "hasCurveTo": true,
      "point": "{0.24666792641792759, 0.015862142094163104}"
    },
    {
      "_class": "curvePoint",
      "cornerRadius": 0,
      "curveFrom": "{0.2607419023214852, 0.0019300789422097432}",
      "curveMode": 4,
      "curveTo": "{0.25798574870703828, 0.016112044572225172}",
      "hasCurveFrom": true,
      "hasCurveTo": true,
      "point": "{0.26326348967087254, 0.017136644732279053}"
    },
    {
      "_class": "curvePoint",
      "cornerRadius": 0,
      "curveFrom": "{0.27183981873710256, 0.019410757282642573}",
      "curveMode": 4,
      "curveTo": "{0.29484197310447957, 0.012363507401295906}",
      "hasCurveFrom": true,
      "hasCurveTo": true,
      "point": "{0.27176651677927161, 0.019373271910933458}"
    },
    {
      "_class": "curvePoint",
      "cornerRadius": 0,
      "curveFrom": "{0.40107117039320622, -0.0058543832494196198}",
      "curveMode": 4,
      "curveTo": "{0.27191312069493395, 0.019448242654352042}",
      "hasCurveFrom": true,
      "hasCurveTo": true,
      "point": "{0.27200108304433118, 0.019485728026061157}"
    },
    {
      "_class": "curvePoint",
      "cornerRadius": 0,
      "curveFrom": "{0.66651222009092659, 0.043014046335593081}",
      "curveMode": 2,
      "curveTo": "{0.50545315834459048, -0.006554110187993201}",
      "hasCurveFrom": true,
      "hasCurveTo": true,
      "point": "{0.5846925747599323, 0.017823876546949478}"
    },
    {
      "_class": "curvePoint",
      "cornerRadius": 0,
      "curveFrom": "{0.74079642415689062, 0.17306329591902736}",
      "curveMode": 3,
      "curveTo": "{0.71810213801240452, 0.09316947368262489}",
      "hasCurveFrom": true,
      "hasCurveTo": true,
      "point": "{0.73944766813279994, 0.16830265371194736}"
    },
    {
      "_class": "curvePoint",
      "cornerRadius": 0,
      "curveFrom": "{0.74698310939782975, 0.18209727050096672}",
      "curveMode": 4,
      "curveTo": "{0.74173468921712804, 0.17771148201097964}",
      "hasCurveFrom": true,
      "hasCurveTo": true,
      "point": "{0.74277557701832864, 0.18239715347464105}"
    },
    {
      "_class": "curvePoint",
      "cornerRadius": 0,
      "curveFrom": "{0.75699615683754817, 0.18653303948656605}",
      "curveMode": 4,
      "curveTo": "{0.75186501978937625, 0.18215974612048214}",
      "hasCurveFrom": true,
      "hasCurveTo": true,
      "point": "{0.75363892716888692, 0.18059785563259501}"
    },
    {
      "_class": "curvePoint",
      "cornerRadius": 0,
      "curveFrom": "{0.7464699956930122, 0.19043151814433248}",
      "curveMode": 4,
      "curveTo": "{0.75230483153636241, 0.1882198812134844}",
      "hasCurveFrom": true,
      "hasCurveTo": true,
      "point": "{0.74717369448819015, 0.18971929608185575}"
    },
    {
      "_class": "curvePoint",
      "cornerRadius": 0,
      "curveFrom": "{0.74592756120506298, 0.19727884604322971}",
      "curveMode": 4,
      "curveTo": "{0.74561969298217234, 0.19074389624190999}",
      "hasCurveFrom": true,
      "hasCurveTo": true,
      "point": "{0.74474006948820004, 0.19088134260484399}"
    },
    {
      "_class": "curvePoint",
      "cornerRadius": 0,
      "curveFrom": "{0.74912352656649561, 0.20982395044193905}",
      "curveMode": 4,
      "curveTo": "{0.74674854313277017, 0.2035763884903905}",
      "hasCurveFrom": true,
      "hasCurveTo": true,
      "point": "{0.74734961918698462, 0.20982395044193905}"
    },
    {
      "_class": "curvePoint",
      "cornerRadius": 0,
      "curveFrom": "{0.75805170503031505, 0.21408478769289527}",
      "curveMode": 4,
      "curveTo": "{0.75102937747010234, 0.20951157234436155}",
      "hasCurveFrom": true,
      "hasCurveTo": true,
      "point": "{0.75316979463876854, 0.20863691367114484}"
    },
    {
      "_class": "curvePoint",
      "cornerRadius": 0,
      "curveFrom": "{0.74839050698818521, 0.21945769097122708}",
      "curveMode": 4,
      "curveTo": "{0.75369756873515192, 0.21704613205792922}",
      "hasCurveFrom": true,
      "hasCurveTo": true,
      "point": "{0.74862507325324479, 0.21934523485609905}"
    },
    {
      "_class": "curvePoint",
      "cornerRadius": 0,
      "curveFrom": "{0.74972460262071006, 0.25814259457521532}",
      "curveMode": 4,
      "curveTo": "{0.74814128033155969, 0.21953266171464567}",
      "hasCurveFrom": true,
      "hasCurveTo": true,
      "point": "{0.74789205367493428, 0.21963262270587022}"
    },
    {
      "_class": "curvePoint",
      "cornerRadius": 0,
      "curveFrom": "{0.72610671180755282, 0.323604548703541}",
      "curveMode": 4,
      "curveTo": "{0.74001942340388172, 0.29370371720342969}",
      "hasCurveFrom": true,
      "hasCurveTo": true,
      "point": "{0.71911370503047256, 0.32639096133393181}"
    },
    {
      "_class": "curvePoint",
      "cornerRadius": 0,
      "curveFrom": "{0.74211585939784919, 0.32571622464316458}",
      "curveMode": 4,
      "curveTo": "{0.73308505819306669, 0.32083063119705374}",
      "hasCurveFrom": true,
      "hasCurveTo": true,
      "point": "{0.74003408379544799, 0.31804421856666287}"
    },
    {
      "_class": "curvePoint",
      "cornerRadius": 0,
      "curveFrom": "{0.7586381206929631, 0.33058932296537225}",
      "curveMode": 4,
      "curveTo": "{0.74802399719903034, 0.32426679027040511}",
      "hasCurveFrom": true,
      "hasCurveTo": true,
      "point": "{0.75415204087370402, 0.32239252168494087}"
    },
    {
      "_class": "curvePoint",
      "cornerRadius": 0,
      "curveFrom": "{0.75862346030139682, 0.34874473799657235}",
      "curveMode": 4,
      "curveTo": "{0.76310954012065602, 0.33876113399799807}",
      "hasCurveFrom": true,
      "hasCurveTo": true,
      "point": "{0.76762494072304721, 0.34695793527842944}"
    },
    {
      "_class": "curvePoint",
      "cornerRadius": 0,
      "curveFrom": "{0.74623542942795307, 0.36588804799162172}",
      "curveMode": 4,
      "curveTo": "{0.76028008454837814, 0.35375528268171441}",
      "hasCurveFrom": true,
      "hasCurveTo": true,
      "point": "{0.76246448289174273, 0.35899073959711225}"
    },
    {
      "_class": "curvePoint",
      "cornerRadius": 0,
      "curveFrom": "{0.72109285789191024, 0.34753271097797217}",
      "curveMode": 4,
      "curveTo": "{0.73425788951836291, 0.36280175238755658}",
      "hasCurveFrom": true,
      "hasCurveTo": true,
      "point": "{0.72471397460876319, 0.35406766077929192}"
    },
    {
      "_class": "curvePoint",
      "cornerRadius": 0,
      "curveFrom": "{0.68194961241014118, 0.37962018916112528}",
      "curveMode": 4,
      "curveTo": "{0.71750106195818975, 0.34098526605274931}",
      "hasCurveFrom": true,
      "hasCurveTo": true,
      "point": "{0.71390926602446969, 0.3344628113753324}"
    },
    {
      "_class": "curvePoint",
      "cornerRadius": 0,
      "curveFrom": "{0.55598752807330154, 0.45325395432207638}",
      "curveMode": 4,
      "curveTo": "{0.62763286165734888, 0.41906729532320292}",
      "hasCurveFrom": true,
      "hasCurveTo": true,
      "point": "{0.55076842867573239, 0.45271666399424315}"
    },
    {
      "_class": "curvePoint",
      "cornerRadius": 0,
      "curveFrom": "{0.56737865232024365, 0.45162958821467386}",
      "curveMode": 4,
      "curveTo": "{0.56101604238051039, 0.45389120564113489}",
      "hasCurveFrom": true,
      "hasCurveTo": true,
      "point": "{0.56601523590458624, 0.45450346671238639}"
    },
    {
      "_class": "curvePoint",
      "cornerRadius": 0,
      "curveFrom": "{0.5754418676816565, 0.45048003681558907}",
      "curveMode": 2,
      "curveTo": "{0.57047199494071277, 0.44893064145160477}",
      "hasCurveFrom": true,
      "hasCurveTo": true,
      "point": "{0.57239250623588578, 0.44953040739895345}"
    },
    {
      "_class": "curvePoint",
      "cornerRadius": 0,
      "curveFrom": "{0.581437967832235, 0.45655266703249414}",
      "curveMode": 4,
      "curveTo": "{0.57533924494069344, 0.45311650795914271}",
      "hasCurveFrom": true,
      "hasCurveTo": true,
      "point": "{0.57407845126599955, 0.45555305712024585}"
    },
    {
      "_class": "curvePoint",
      "cornerRadius": 0,
      "curveFrom": "{0.59699264328397894, 0.45757726719254804}",
      "curveMode": 4,
      "curveTo": "{0.58848961617557982, 0.45770221843157888}",
      "hasCurveFrom": true,
      "hasCurveTo": true,
      "point": "{0.59538000021169646, 0.45888925520237345}"
    },
    {
      "_class": "curvePoint",
      "cornerRadius": 0,
      "curveFrom": "{0.61018699569356416, 0.45442849596896745}",
      "curveMode": 2,
      "curveTo": "{0.59932364554300588, 0.4566651231476222}",
      "hasCurveFrom": true,
      "hasCurveTo": true,
      "point": "{0.60193319524179045, 0.45612783281978897}"
    },
    {
      "_class": "curvePoint",
      "cornerRadius": 0,
      "curveFrom": "{0.61392539554294645, 0.4624003850191431}",
      "curveMode": 4,
      "curveTo": "{0.61166769524175091, 0.45629026943052892}",
      "hasCurveFrom": true,
      "hasCurveTo": true,
      "point": "{0.61391073515138062, 0.46236289964743471}"
    },
    {
      "_class": "curvePoint",
      "cornerRadius": 0,
      "curveFrom": "{0.63958108078380649, 0.4678982395365065}",
      "curveMode": 4,
      "curveTo": "{0.61392539554294645, 0.4624253752669501}",
      "hasCurveFrom": true,
      "hasCurveTo": true,
      "point": "{0.61394005593451273, 0.46246286063865855}"
    },
    {
      "_class": "curvePoint",
      "cornerRadius": 0,
      "curveFrom": "{0.71122641436785372, 0.49799899301906725}",
      "curveMode": 3,
      "curveTo": "{0.66157166813311508, 0.47479554793101636}",
      "hasCurveFrom": true,
      "hasCurveTo": true,
      "point": "{0.67967725171737925, 0.48325474681341263}"
    },
    {
      "_class": "curvePoint",
      "cornerRadius": 0,
      "curveFrom": "{0.76457557927727648, 0.55945001237449876}",
      "curveMode": 4,
      "curveTo": "{0.73952097009063089, 0.52340157991406377}",
      "hasCurveFrom": false,
      "hasCurveTo": true,
      "point": "{0.76457557927727648, 0.55945001237449876}"
    },
    {
      "_class": "curvePoint",
      "cornerRadius": 0,
      "curveFrom": "{0.81184068168672352, 0.62026378041087182}",
      "curveMode": 4,
      "curveTo": "{0.80731062069276593, 0.62173820503143795}",
      "hasCurveFrom": true,
      "hasCurveTo": false,
      "point": "{0.80731062069276593, 0.62173820503143795}"
    },
    {
      "_class": "curvePoint",
      "cornerRadius": 0,
      "curveFrom": "{0.82573873289148658, 0.62281278568710374}",
      "curveMode": 4,
      "curveTo": "{0.81898029237946601, 0.61957654859620215}",
      "hasCurveFrom": true,
      "hasCurveTo": true,
      "point": "{0.82076886015054296, 0.61722746530242001}"
    },
    {
      "_class": "curvePoint",
      "cornerRadius": 0,
      "curveFrom": "{0.81541781722887774, 0.62914781350597404}",
      "curveMode": 4,
      "curveTo": "{0.82120867189752911, 0.62543676170675389}",
      "hasCurveFrom": true,
      "hasCurveTo": true,
      "point": "{0.81619481798188653, 0.62792329136347103}"
    },
    {
      "_class": "curvePoint",
      "cornerRadius": 0,
      "curveFrom": "{0.8128962298794904, 0.62986003556845072}",
      "curveMode": 4,
      "curveTo": "{0.81421566512044896, 0.6297100940816136}",
      "hasCurveFrom": false,
      "hasCurveTo": true,
      "point": "{0.8128962298794904, 0.62986003556845072}"
    },
    {
      "_class": "curvePoint",
      "cornerRadius": 0,
      "curveFrom": "{0.8847761297285972, 0.73440673726566352}",
      "curveMode": 4,
      "curveTo": "{0.88480545051172932, 0.73465663974372597}",
      "hasCurveFrom": true,
      "hasCurveTo": false,
      "point": "{0.88480545051172932, 0.73465663974372597}"
    },
    {
      "_class": "curvePoint",
      "cornerRadius": 0,
      "curveFrom": "{0.88628615005991607, 0.73039580249276981}",
      "curveMode": 2,
      "curveTo": "{0.88468816737919997, 0.73415683478760185}",
      "hasCurveFrom": true,
      "hasCurveTo": true,
      "point": "{0.8847761297285972, 0.73394441768124918}"
    },
    {
      "_class": "curvePoint",
      "cornerRadius": 0,
      "curveFrom": "{0.90686933981886886, 0.73273239066264906}",
      "curveMode": 4,
      "curveTo": "{0.89939254012010406, 0.73037081224496347}",
      "hasCurveFrom": true,
      "hasCurveTo": true,
      "point": "{0.9019141274694914, 0.72710958490625555}"
    },
    {
      "_class": "curvePoint",
      "cornerRadius": 0,
      "curveFrom": "{0.89508238499963944, 0.74137901640359161}",
      "curveMode": 4,
      "curveTo": "{0.90233927882491138, 0.73534387155839642}",
      "hasCurveFrom": true,
      "hasCurveTo": true,
      "point": "{0.89732542490926925, 0.73784289633901567}"
    },
    {
      "_class": "curvePoint",
      "cornerRadius": 0,
      "curveFrom": "{0.90126907024057867, 0.75830990929228836}",
      "curveMode": 4,
      "curveTo": "{0.88962871933701115, 0.73969217467667359}",
      "hasCurveFrom": true,
      "hasCurveTo": true,
      "point": "{0.88666732024063766, 0.73731810113508589}"
    },
    {
      "_class": "curvePoint",
      "cornerRadius": 0,
      "curveFrom": "{0.93311144072237739, 0.78467462072782346}",
      "curveMode": 2,
      "curveTo": "{0.91370108228872082, 0.77215450657691997}",
      "hasCurveFrom": true,
      "hasCurveTo": true,
      "point": "{0.92390471481879999, 0.77872694174994916}"
    },
    {
      "_class": "curvePoint",
      "cornerRadius": 0,
      "curveFrom": "{0.96442603710779273, 0.78968516541296552}",
      "curveMode": 4,
      "curveTo": "{0.9464670574391908, 0.78934779706758196}",
      "hasCurveFrom": true,
      "hasCurveTo": true,
      "point": "{0.96345845126442309, 0.79287142200825522}"
    },
    {
      "_class": "curvePoint",
      "cornerRadius": 0,
      "curveFrom": "{0.97461500924630551, 0.7889479531026824}",
      "curveMode": 2,
      "curveTo": "{0.96941057024030264, 0.78619902584400148}",
      "hasCurveFrom": true,
      "hasCurveTo": true,
      "point": "{0.97147768545113755, 0.78729859674747427}"
    },
    {
      "_class": "curvePoint",
      "cornerRadius": 0,
      "curveFrom": "{0.97077398665595971, 0.79437083687662691}",
      "curveMode": 4,
      "curveTo": "{0.97297304539089058, 0.7921342096979721}",
      "hasCurveFrom": true,
      "hasCurveTo": true,
      "point": "{0.97045145804150323, 0.79432085638101424}"
    },
    {
      "_class": "curvePoint",
      "cornerRadius": 0,
      "curveFrom": "{0.97594910487883035, 0.7954454175322927}",
      "curveMode": 2,
      "curveTo": "{0.9710378737041514, 0.79443331249614235}",
      "hasCurveFrom": true,
      "hasCurveTo": true,
      "point": "{0.97134574192704193, 0.79449578811565769}"
    },
    {
      "_class": "curvePoint",
      "cornerRadius": 0,
      "curveFrom": "{0.98121218545109801, 0.80054342808475643}",
      "curveMode": 4,
      "curveTo": "{0.97921837219809404, 0.79746962760459483}",
      "hasCurveFrom": true,
      "hasCurveTo": true,
      "point": "{0.98119752505953206, 0.80058091345646631}"
    },
    {
      "_class": "curvePoint",
      "cornerRadius": 0,
      "curveFrom": "{0.98237035638482828, 0.79840676189732773}",
      "curveMode": 4,
      "curveTo": "{0.98119752505953206, 0.80051843783695087}",
      "hasCurveFrom": true,
      "hasCurveTo": true,
      "point": "{0.98121218545109801, 0.80048095246524109}"
    },
    {
      "_class": "curvePoint",
      "cornerRadius": 0,
      "curveFrom": "{0.98999375999925543, 0.80061839882817543}",
      "curveMode": 4,
      "curveTo": "{0.98920209885468025, 0.79861917900367962}",
      "hasCurveFrom": true,
      "hasCurveTo": true,
      "point": "{0.99078542114383061, 0.79668243479869982}"
    },
    {
      "_class": "curvePoint",
      "cornerRadius": 0,
      "curveFrom": "{0.99857008906548594, 0.81516272305138027}",
      "curveMode": 4,
      "curveTo": "{1.0017074128606538, 0.80961488803840498}",
      "hasCurveFrom": true,
      "hasCurveTo": true,
      "point": "{0.99978690156548089, 0.81308853248346613}"
    },
    {
      "_class": "curvePoint",
      "cornerRadius": 0,
      "curveFrom": "{0.9906827984028671, 0.81441301561719437}",
      "curveMode": 4,
      "curveTo": "{0.99172368620406759, 0.81496280106893049}",
      "hasCurveFrom": true,
      "hasCurveTo": true,
      "point": "{0.990199005481182, 0.8168870501500074}"
    },
    {
      "_class": "curvePoint",
      "cornerRadius": 0,
      "curveFrom": "{0.98332328183663165, 0.80605377772602271}",
      "curveMode": 4,
      "curveTo": "{0.98621137897517419, 0.80991477101207932}",
      "hasCurveFrom": false,
      "hasCurveTo": true,
      "point": "{0.98332328183663165, 0.80605377772602271}"
    },
    {
      "_class": "curvePoint",
      "cornerRadius": 0,
      "curveFrom": "{0.99439187746911695, 0.84503856430368562}",
      "curveMode": 4,
      "curveTo": "{0.99242738499924554, 0.83811626566137021}",
      "hasCurveFrom": true,
      "hasCurveTo": false,
      "point": "{0.99242738499924554, 0.83811626566137021}"
    },
    {
      "_class": "curvePoint",
      "cornerRadius": 0,
      "curveFrom": "{0.9843934904209648, 0.85344778269046995}",
      "curveMode": 4,
      "curveTo": "{0.99122523289081677, 0.84999912849321502}",
      "hasCurveFrom": true,
      "hasCurveTo": true,
      "point": "{0.98332328183663165, 0.8531603948406985}"
    },
    {
      "_class": "curvePoint",
      "cornerRadius": 0,
      "curveFrom": "{0.98826383379444327, 0.85214828980454738}",
      "curveMode": 4,
      "curveTo": "{0.98556632174626146, 0.85358522905340362}",
      "hasCurveFrom": true,
      "hasCurveTo": true,
      "point": "{0.98687109659565375, 0.85352275343388817}"
    },
    {
      "_class": "curvePoint",
      "cornerRadius": 0,
      "curveFrom": "{0.99751454087271907, 0.85363520954901628}",
      "curveMode": 2,
      "curveTo": "{0.98987647686672564, 0.85127363113133137}",
      "hasCurveFrom": true,
      "hasCurveTo": true,
      "point": "{0.99099066662575719, 0.85161099947671415}"
    },
    {
      "_class": "curvePoint",
      "cornerRadius": 0,
      "curveFrom": "{0.98600613349324762, 0.86218187429873427}",
      "curveMode": 4,
      "curveTo": "{0.98993511843299076, 0.86344388181294707}",
      "hasCurveFrom": true,
      "hasCurveTo": true,
      "point": "{0.98644594524023343, 0.86234431090947494}"
    },
    {
      "_class": "curvePoint",
      "cornerRadius": 0,
      "curveFrom": "{0.98486262295108351, 0.86194446694457538}",
      "curveMode": 4,
      "curveTo": "{0.9858008880113206, 0.86194446694457538}",
      "hasCurveFrom": true,
      "hasCurveTo": true,
      "point": "{0.98547835939686423, 0.86174454496212627}"
    },
    {
      "_class": "curvePoint",
      "cornerRadius": 0,
      "curveFrom": "{0.97675542641497182, 0.86516820891157487}",
      "curveMode": 4,
      "curveTo": "{0.98432018846313385, 0.86215688405092872}",
      "hasCurveFrom": true,
      "hasCurveTo": true,
      "point": "{0.98364581045108845, 0.86234431090947494}"
    },
    {
      "_class": "curvePoint",
      "cornerRadius": 0,
      "curveFrom": "{0.97282644147522868, 0.85649659292282532}",
      "curveMode": 4,
      "curveTo": "{0.97476161316196752, 0.86116976926258393}",
      "hasCurveFrom": true,
      "hasCurveTo": true,
      "point": "{0.97298770578245686, 0.85678398077259688}"
    },
    {
      "_class": "curvePoint",
      "cornerRadius": 0,
      "curveFrom": "{0.97278246030052984, 0.85607175871012009}",
      "curveMode": 4,
      "curveTo": "{0.97289974343305963, 0.85632166118818254}",
      "hasCurveFrom": false,
      "hasCurveTo": true,
      "point": "{0.97278246030052984, 0.85607175871012009}"
    },
    {
      "_class": "curvePoint",
      "cornerRadius": 0,
      "curveFrom": "{0.77671438349409483, 0.89650597966054291}",
      "curveMode": 4,
      "curveTo": "{0.79429219298197529, 0.89288239372864375}",
      "hasCurveFrom": true,
      "hasCurveTo": false,
      "point": "{0.79429219298197529, 0.89288239372864375}"
    },
    {
      "_class": "curvePoint",
      "cornerRadius": 0,
      "curveFrom": "{0.7552075890664709, 0.88062467717970561}",
      "curveMode": 4,
      "curveTo": "{0.76368129539173779, 0.89242007414422941}",
      "hasCurveFrom": false,
      "hasCurveTo": true,
      "point": "{0.7552075890664709, 0.88062467717970561}"
    },
    {
      "_class": "curvePoint",
      "cornerRadius": 0,
      "curveFrom": "{0.66975216662705817, 0.76529468355412}",
      "curveMode": 4,
      "curveTo": "{0.67025061994030899, 0.76289561976472531}",
      "hasCurveFrom": true,
      "hasCurveTo": false,
      "point": "{0.67025061994030899, 0.76289561976472531}"
    },
    {
      "_class": "curvePoint",
      "cornerRadius": 0,
      "curveFrom": "{0.65537032250061, 0.77200456509008286}",
      "curveMode": 4,
      "curveTo": "{0.6670693149704422, 0.76701901065274714}",
      "hasCurveFrom": true,
      "hasCurveTo": true,
      "point": "{0.66390267039214201, 0.76859339626453704}"
    },
    {
      "_class": "curvePoint",
      "cornerRadius": 0,
      "curveFrom": "{0.64321685789222582, 0.78439972800195534}",
      "curveMode": 4,
      "curveTo": "{0.64679399343437993, 0.7754032387917259}",
      "hasCurveFrom": true,
      "hasCurveTo": true,
      "point": "{0.63823232475971581, 0.77880191249336739}"
    },
    {
      "_class": "curvePoint",
      "cornerRadius": 0,
      "curveFrom": "{0.63182573364528372, 0.78271288627503743}",
      "curveMode": 4,
      "curveTo": "{0.63865747611513568, 0.78704869426941182}",
      "hasCurveFrom": true,
      "hasCurveTo": true,
      "point": "{0.63368760337419194, 0.78953522392612829}"
    },
    {
      "_class": "curvePoint",
      "cornerRadius": 0,
      "curveFrom": "{0.61845545653690404, 0.78076364694615419}",
      "curveMode": 4,
      "curveTo": "{0.62656265307301617, 0.78397489378925023}",
      "hasCurveFrom": true,
      "hasCurveTo": true,
      "point": "{0.62110898741038745, 0.78564924039226469}"
    },
    {
      "_class": "curvePoint",
      "cornerRadius": 0,
      "curveFrom": "{0.61965760864533326, 0.76678160329858813}",
      "curveMode": 4,
      "curveTo": "{0.61580192566342107, 0.77595302424346191}",
      "hasCurveFrom": true,
      "hasCurveTo": true,
      "point": "{0.61310441361523926, 0.77105493567344718}"
    },
    {
      "_class": "curvePoint",
      "cornerRadius": 0,
      "curveFrom": "{0.63137126150673128, 0.7726543115330442}",
      "curveMode": 4,
      "curveTo": "{0.6227362908742361, 0.77068008195635462}",
      "hasCurveFrom": true,
      "hasCurveTo": true,
      "point": "{0.62569768997060959, 0.77496590945511712}"
    },
    {
      "_class": "curvePoint",
      "cornerRadius": 0,
      "curveFrom": "{0.64298229162716625, 0.76601940074049957}",
      "curveMode": 4,
      "curveTo": "{0.63711813500068426, 0.77039269410658306}",
      "hasCurveFrom": true,
      "hasCurveTo": true,
      "point": "{0.64280636692837168, 0.76811858155621993}"
    },
    {
      "_class": "curvePoint",
      "cornerRadius": 0,
      "curveFrom": "{0.64031410036211689, 0.75552349666189833}",
      "curveMode": 2,
      "curveTo": "{0.63823232475971581, 0.76288312464082175}",
      "hasCurveFrom": true,
      "hasCurveTo": true,
      "point": "{0.63881874042236386, 0.76083392432071395}"
    },
    {
      "_class": "curvePoint",
      "cornerRadius": 0,
      "curveFrom": "{0.65657247460903922, 0.76259573679105097}",
      "curveMode": 4,
      "curveTo": "{0.65229164027170705, 0.76125875853341918}",
      "hasCurveFrom": true,
      "hasCurveTo": true,
      "point": "{0.65135337521146963, 0.76469491760677133}"
    },
    {
      "_class": "curvePoint",
      "cornerRadius": 0,
      "curveFrom": "{0.66703999418731008, 0.75844735565522281}",
      "curveMode": 4,
      "curveTo": "{0.66182089478974049, 0.76052154622313684}",
      "hasCurveFrom": false,
      "hasCurveTo": true,
      "point": "{0.66703999418731008, 0.75844735565522281}"
    },
    {
      "_class": "curvePoint",
      "cornerRadius": 0,
      "curveFrom": "{0.65664577656687018, 0.75126265941094206}",
      "curveMode": 4,
      "curveTo": "{0.66028155367528907, 0.74905102248009359}",
      "hasCurveFrom": true,
      "hasCurveTo": false,
      "point": "{0.66028155367528907, 0.74905102248009359}"
    },
    {
      "_class": "curvePoint",
      "cornerRadius": 0,
      "curveFrom": "{0.64408182099463185, 0.75060041784407794}",
      "curveMode": 2,
      "curveTo": "{0.6530393202415834, 0.75337433535056531}",
      "hasCurveFrom": true,
      "hasCurveTo": true,
      "point": "{0.65064967641629212, 0.75263712304028296}"
    },
    {
      "_class": "curvePoint",
      "cornerRadius": 0,
      "curveFrom": "{0.65437341587410824, 0.74089170657137104}",
      "curveMode": 4,
      "curveTo": "{0.65000461918737895, 0.74230365557242162}",
      "hasCurveFrom": false,
      "hasCurveTo": true,
      "point": "{0.65437341587410824, 0.74089170657137104}"
    },
    {
      "_class": "curvePoint",
      "cornerRadius": 0,
      "curveFrom": "{0.63214826225974052, 0.7102161773892679}",
      "curveMode": 4,
      "curveTo": "{0.63225088500070359, 0.71022867251317134}",
      "hasCurveFrom": true,
      "hasCurveTo": false,
      "point": "{0.63225088500070359, 0.71022867251317134}"
    },
    {
      "_class": "curvePoint",
      "cornerRadius": 0,
      "curveFrom": "{0.62980259960914731, 0.70959142119411289}",
      "curveMode": 4,
      "curveTo": "{0.63200165834407818, 0.71029114813268679}",
      "hasCurveFrom": true,
      "hasCurveTo": true,
      "point": "{0.63189903560311467, 0.71025366276097701}"
    },
    {
      "_class": "curvePoint",
      "cornerRadius": 0,
      "curveFrom": "{0.62950939177782339, 0.70644264997053297}",
      "curveMode": 4,
      "curveTo": "{0.62927482551276381, 0.70809200632574121}",
      "hasCurveFrom": false,
      "hasCurveTo": true,
      "point": "{0.62950939177782339, 0.70644264997053297}"
    },
    {
      "_class": "curvePoint",
      "cornerRadius": 0,
      "curveFrom": "{0.51358967566383473, 0.54519307600106481}",
      "curveMode": 4,
      "curveTo": "{0.53725154765169081, 0.57859254219404332}",
      "hasCurveFrom": true,
      "hasCurveTo": false,
      "point": "{0.53725154765169081, 0.57859254219404332}"
    },
    {
      "_class": "curvePoint",
      "cornerRadius": 0,
      "curveFrom": "{0.45386324042311293, 0.50995682659433106}",
      "curveMode": 2,
      "curveTo": "{0.49218550397717431, 0.52476354841950112}",
      "hasCurveFrom": true,
      "hasCurveTo": true,
      "point": "{0.47302437220014365, 0.51735393994496437}"
    },
    {
      "_class": "curvePoint",
      "cornerRadius": 0,
      "curveFrom": "{0.4067154211461953, 0.51336799541987688}",
      "curveMode": 4,
      "curveTo": "{0.43175536994127461, 0.50861984833670004}",
      "hasCurveFrom": false,
      "hasCurveTo": true,
      "point": "{0.4067154211461953, 0.51336799541987688}"
    },
    {
      "_class": "curvePoint",
      "cornerRadius": 0,
      "curveFrom": "{0.43374918319427852, 0.58410289183530884}",
      "curveMode": 4,
      "curveTo": "{0.42880863123646734, 0.59116263684055936}",
      "hasCurveFrom": true,
      "hasCurveTo": false,
      "point": "{0.42880863123646734, 0.59116263684055936}"
    },
    {
      "_class": "curvePoint",
      "cornerRadius": 0,
      "curveFrom": "{0.46276209810379981, 0.57528133435972206}",
      "curveMode": 4,
      "curveTo": "{0.45120970954962952, 0.5835656015074755}",
      "hasCurveFrom": true,
      "hasCurveTo": true,
      "point": "{0.46365638198933806, 0.58039184003608935}"
    },
    {
      "_class": "curvePoint",
      "cornerRadius": 0,
      "curveFrom": "{0.47182222009171487, 0.57533131485533462}",
      "curveMode": 4,
      "curveTo": "{0.46230762596524733, 0.57037075066580589}",
      "hasCurveFrom": true,
      "hasCurveTo": true,
      "point": "{0.4709132758146099, 0.57019581893116245}"
    },
    {
      "_class": "curvePoint",
      "cornerRadius": 0,
      "curveFrom": "{0.46598738424836506, 0.58865111693603656}",
      "curveMode": 4,
      "curveTo": "{0.47226203183870102, 0.58024189854925212}",
      "hasCurveFrom": true,
      "hasCurveTo": true,
      "point": "{0.46365638198933806, 0.58039184003608935}"
    },
    {
      "_class": "curvePoint",
      "cornerRadius": 0,
      "curveFrom": "{0.45219195578456545, 0.60017162117469236}",
      "curveMode": 4,
      "curveTo": "{0.45856922611586493, 0.59181238328351993}",
      "hasCurveFrom": true,
      "hasCurveTo": true,
      "point": "{0.45867184885682805, 0.59883464291706068}"
    },
    {
      "_class": "curvePoint",
      "cornerRadius": 0,
      "curveFrom": "{0.43766350774245538, 0.59860973068680523}",
      "curveMode": 4,
      "curveTo": "{0.44577070427856708, 0.6014961043084206}",
      "hasCurveFrom": true,
      "hasCurveTo": true,
      "point": "{0.43936411316413543, 0.60282058744214884}"
    },
    {
      "_class": "curvePoint",
      "cornerRadius": 0,
      "curveFrom": "{0.4301720476521243, 0.59597325954325153}",
      "curveMode": 4,
      "curveTo": "{0.43558173214005425, 0.59499863987880963}",
      "hasCurveFrom": false,
      "hasCurveTo": true,
      "point": "{0.4301720476521243, 0.59597325954325153}"
    },
    {
      "_class": "curvePoint",
      "cornerRadius": 0,
      "curveFrom": "{0.50435362897712521, 0.85719631986139855}",
      "curveMode": 4,
      "curveTo": "{0.49848947235064284, 0.83651688980177319}",
      "hasCurveFrom": true,
      "hasCurveTo": false,
      "point": "{0.49848947235064284, 0.83651688980177319}"
    },
    {
      "_class": "curvePoint",
      "cornerRadius": 0,
      "curveFrom": "{0.56409472460941334, 0.87936266966549281}",
      "curveMode": 4,
      "curveTo": "{0.52030413500115691, 0.87030370483574782}",
      "hasCurveFrom": true,
      "hasCurveTo": true,
      "point": "{0.54635565081430471, 0.87587653009652877}"
    },
    {
      "_class": "curvePoint",
      "cornerRadius": 0,
      "curveFrom": "{0.5768492652720123, 0.89481913793362411}",
      "curveMode": 4,
      "curveTo": "{0.57425437596479401, 0.88568520236046022}",
      "hasCurveFrom": false,
      "hasCurveTo": true,
      "point": "{0.5768492652720123, 0.89481913793362411}"
    },
    {
      "_class": "curvePoint",
      "cornerRadius": 0,
      "curveFrom": "{0.57875511617561903, 0.89991714848608795}",
      "curveMode": 4,
      "curveTo": "{0.57832996482019905, 0.9000171094773125}",
      "hasCurveFrom": true,
      "hasCurveTo": false,
      "point": "{0.57832996482019905, 0.9000171094773125}"
    },
    {
      "_class": "curvePoint",
      "cornerRadius": 0,
      "curveFrom": "{0.58315323364548088, 0.90107919500907618}",
      "curveMode": 4,
      "curveTo": "{0.57916560713947307, 0.8998546728665725}",
      "hasCurveFrom": true,
      "hasCurveTo": true,
      "point": "{0.57951745653706199, 0.89995463385779706}"
    },
    {
      "_class": "curvePoint",
      "cornerRadius": 0,
      "curveFrom": "{0.58039708003103441, 0.9073017667128177}",
      "curveMode": 4,
      "curveTo": "{0.58237623289247198, 0.90459032482584589}",
      "hasCurveFrom": false,
      "hasCurveTo": true,
      "point": "{0.58039708003103441, 0.9073017667128177}"
    },
    {
      "_class": "curvePoint",
      "cornerRadius": 0,
      "curveFrom": "{0.58706755819365775, 0.93079259965064087}",
      "curveMode": 4,
      "curveTo": "{0.58447266888643945, 0.92165866407747632}",
      "hasCurveFrom": true,
      "hasCurveTo": false,
      "point": "{0.58447266888643945, 0.92165866407747632}"
    },
    {
      "_class": "curvePoint",
      "cornerRadius": 0,
      "curveFrom": "{0.56463715909736301, 0.94025140844528543}",
      "curveMode": 4,
      "curveTo": "{0.58045572159729908, 0.93699018110657684}",
      "hasCurveFrom": false,
      "hasCurveTo": true,
      "point": "{0.56463715909736301, 0.94025140844528543}"
    },
    {
      "_class": "curvePoint",
      "cornerRadius": 0,
      "curveFrom": "{0.26662071933953341, 1.0017399131724261}",
      "curveMode": 4,
      "curveTo": "{0.28000565683947937, 0.99896599566593813}",
      "hasCurveFrom": true,
      "hasCurveTo": false,
      "point": "{0.28000565683947937, 0.99896599566593813}"
    },
    {
      "_class": "curvePoint",
      "cornerRadius": 0,
      "curveFrom": "{0.25637310563475585, 0.9905817675269607}",
      "curveMode": 4,
      "curveTo": "{0.25874808906848085, 0.99892851029422891}",
      "hasCurveFrom": false,
      "hasCurveTo": true,
      "point": "{0.25637310563475585, 0.9905817675269607}"
    },
    {
      "_class": "curvePoint",
      "cornerRadius": 0,
      "curveFrom": "{0.2462720958456398, 0.95499565465093939}",
      "curveMode": 4,
      "curveTo": "{0.24842717340587234, 0.9625801948601197}",
      "hasCurveFrom": true,
      "hasCurveTo": false,
      "point": "{0.24842717340587234, 0.9625801948601197}"
    },
    {
      "_class": "curvePoint",
      "cornerRadius": 0,
      "curveFrom": "{0.26069792114678636, 0.93790232515150329}",
      "curveMode": 4,
      "curveTo": "{0.25059691135767076, 0.94673637775099295}",
      "hasCurveFrom": false,
      "hasCurveTo": true,
      "point": "{0.26069792114678636, 0.93790232515150329}"
    },
    {
      "_class": "curvePoint",
      "cornerRadius": 0,
      "curveFrom": "{0.26069792114678636, 0.93787733490369629}",
      "curveMode": 4,
      "curveTo": "{0.26069792114678636, 0.93788983002759985}",
      "hasCurveFrom": true,
      "hasCurveTo": false,
      "point": "{0.26069792114678636, 0.93788983002759985}"
    },
    {
      "_class": "curvePoint",
      "cornerRadius": 0,
      "curveFrom": "{0.26226658304437034, 0.93651536639825972}",
      "curveMode": 4,
      "curveTo": "{0.26072724192991892, 0.93787733490369629}",
      "hasCurveFrom": true,
      "hasCurveTo": true,
      "point": "{0.26072724192991892, 0.93786483977979351}"
    },
    {
      "_class": "curvePoint",
      "cornerRadius": 0,
      "curveFrom": "{0.28543000171897553, 0.91833496111925295}",
      "curveMode": 4,
      "curveTo": "{0.26355669750219635, 0.93520337838843426}",
      "hasCurveFrom": true,
      "hasCurveTo": true,
      "point": "{0.26537458605640624, 0.93382891475909346}"
    },
    {
      "_class": "curvePoint",
      "cornerRadius": 0,
      "curveFrom": "{0.28683739930933133, 0.88017485271919482}",
      "curveMode": 4,
      "curveTo": "{0.29258427280328392, 0.90044194369001773}",
      "hasCurveFrom": false,
      "hasCurveTo": true,
      "point": "{0.28683739930933133, 0.88017485271919482}"
    },
    {
      "_class": "curvePoint",
      "cornerRadius": 0,
      "curveFrom": "{0.18075480593626661, 0.51599197143952702}",
      "curveMode": 4,
      "curveTo": "{0.18326173289408768, 0.51547967135950012}",
      "hasCurveFrom": true,
      "hasCurveTo": false,
      "point": "{0.18326173289408768, 0.51547967135950012}"
    },
    {
      "_class": "curvePoint",
      "cornerRadius": 0,
      "curveFrom": "{0.16997941813510564, 0.51822859861818182}",
      "curveMode": 2,
      "curveTo": "{0.17823321858687927, 0.5165167666434568}",
      "hasCurveFrom": true,
      "hasCurveTo": true,
      "point": "{0.17571163123749195, 0.51704156184738725}"
    },
    {
      "_class": "curvePoint",
      "cornerRadius": 0,
      "curveFrom": "{0.15713691512310937, 0.51571707871365902}",
      "curveMode": 4,
      "curveTo": "{0.16424720503271892, 0.51939064514116928}",
      "hasCurveFrom": true,
      "hasCurveTo": true,
      "point": "{0.15852965232189889, 0.52057768191196385}"
    },
    {
      "_class": "curvePoint",
      "cornerRadius": 0,
      "curveFrom": "{0.15637457476166677, 0.50655815289268813}",
      "curveMode": 4,
      "curveTo": "{0.15574417792431985, 0.51080649501974151}",
      "hasCurveFrom": true,
      "hasCurveTo": true,
      "point": "{0.15436610111709659, 0.50592090157363101}"
    },
    {
      "_class": "curvePoint",
      "cornerRadius": 0,
      "curveFrom": "{0.1639833179845272, 0.50469637943112733}",
      "curveMode": 4,
      "curveTo": "{0.16119784358694816, 0.50322195481056198}",
      "hasCurveFrom": true,
      "hasCurveTo": true,
      "point": "{0.16294243018332663, 0.5041590891032941}"
    },
    {
      "_class": "curvePoint",
      "cornerRadius": 0,
      "curveFrom": "{0.16958358756281786, 0.51193105617102064}",
      "curveMode": 4,
      "curveTo": "{0.16399797837609348, 0.51136877559538108}",
      "hasCurveFrom": true,
      "hasCurveTo": true,
      "point": "{0.1650242057857278, 0.51148123171050841}"
    },
    {
      "_class": "curvePoint",
      "cornerRadius": 0,
      "curveFrom": "{0.18145850473144451, 0.50909466304501716}",
      "curveMode": 4,
      "curveTo": "{0.1753011402736383, 0.5107690096480324}",
      "hasCurveFrom": false,
      "hasCurveTo": true,
      "point": "{0.18145850473144451, 0.50909466304501716}"
    },
    {
      "_class": "curvePoint",
      "cornerRadius": 0,
      "curveFrom": "{0.1713428345507626, 0.47643240916232171}",
      "curveMode": 4,
      "curveTo": "{0.17207585412907306, 0.47608254569303476}",
      "hasCurveFrom": true,
      "hasCurveTo": false,
      "point": "{0.17207585412907306, 0.47608254569303476}"
    },
    {
      "_class": "curvePoint",
      "cornerRadius": 0,
      "curveFrom": "{0.16600645202066366, 0.47520788701981803}",
      "curveMode": 2,
      "curveTo": "{0.17062447536401842, 0.47664482626867433}",
      "hasCurveFrom": true,
      "hasCurveTo": true,
      "point": "{0.17002339930980404, 0.47645739941012732}"
    },
    {
      "_class": "curvePoint",
      "cornerRadius": 0,
      "curveFrom": "{0.16984747461100957, 0.46823560788188995}",
      "curveMode": 4,
      "curveTo": "{0.16739918921945321, 0.47099703026447443}",
      "hasCurveFrom": false,
      "hasCurveTo": true,
      "point": "{0.16984747461100957, 0.46823560788188995}"
    },
    {
      "_class": "curvePoint",
      "cornerRadius": 0,
      "curveFrom": "{0.15380900623758062, 0.42175374696236884}",
      "curveMode": 4,
      "curveTo": "{0.15678506572552042, 0.42224105679458945}",
      "hasCurveFrom": true,
      "hasCurveTo": false,
      "point": "{0.15678506572552042, 0.42224105679458945}"
    },
    {
      "_class": "curvePoint",
      "cornerRadius": 0,
      "curveFrom": "{0.14543792265327718, 0.41806768541095496}",
      "curveMode": 2,
      "curveTo": "{0.14955749268338109, 0.42279084224632585}",
      "hasCurveFrom": true,
      "hasCurveTo": true,
      "point": "{0.14866320879784242, 0.42177873721017478}"
    },
    {
      "_class": "curvePoint",
      "cornerRadius": 0,
      "curveFrom": "{0.12255305141842998, 0.41729298772896317}",
      "curveMode": 4,
      "curveTo": "{0.14731445277375133, 0.41109540627302688}",
      "hasCurveFrom": true,
      "hasCurveTo": true,
      "point": "{0.14449965759304012, 0.40712195687184188}"
    },
    {
      "_class": "curvePoint",
      "cornerRadius": 0,
      "curveFrom": "{0.10264423967152259, 0.3939520962779775}",
      "curveMode": 4,
      "curveTo": "{0.12305150473168086, 0.39612624783711653}",
      "hasCurveFrom": true,
      "hasCurveTo": true,
      "point": "{0.1059428277739192, 0.39956240691046829}"
    },
    {
      "_class": "curvePoint",
      "cornerRadius": 0,
      "curveFrom": "{0.093027022804091974, 0.38011999411724906}",
      "curveMode": 4,
      "curveTo": "{0.095270062713721321, 0.39405205726920245}",
      "hasCurveFrom": true,
      "hasCurveTo": true,
      "point": "{0.093202947502886449, 0.38666743904247197}"
    },
    {
      "_class": "curvePoint",
      "cornerRadius": 0,
      "curveFrom": "{0.079158292382460985, 0.37519691529942911}",
      "curveMode": 4,
      "curveTo": "{0.087851904581221232, 0.38048235271043918}",
      "hasCurveFrom": true,
      "hasCurveTo": true,
      "point": "{0.082500861659556016, 0.38114459427730329}"
    },
    {
      "_class": "curvePoint",
      "cornerRadius": 0,
      "curveFrom": "{0.096398912864319133, 0.37197317333242996}",
      "curveMode": 4,
      "curveTo": "{0.083908259249911812, 0.37352256869641393}",
      "hasCurveFrom": true,
      "hasCurveTo": true,
      "point": "{0.089039396298083731, 0.37202315382804219}"
    },
    {
      "_class": "curvePoint",
      "cornerRadius": 0,
      "curveFrom": "{0.1139913827437658, 0.38154443824220219}",
      "curveMode": 4,
      "curveTo": "{0.099682840575149048, 0.37759597908882347}",
      "hasCurveFrom": true,
      "hasCurveTo": true,
      "point": "{0.10830315081607791, 0.37582167149458373}"
    },
    {
      "_class": "curvePoint",
      "cornerRadius": 0,
      "curveFrom": "{0.13439864780392408, 0.39310242785256716}",
      "curveMode": 4,
      "curveTo": "{0.11959165232205646, 0.38736716598104554}",
      "hasCurveFrom": true,
      "hasCurveTo": true,
      "point": "{0.12964868093647366, 0.38690484639663086}"
    },
    {
      "_class": "curvePoint",
      "cornerRadius": 0,
      "curveFrom": "{0.14973341738217555, 0.39738825535132932}",
      "curveMode": 4,
      "curveTo": "{0.14065863500269424, 0.39720082849278299}",
      "hasCurveFrom": false,
      "hasCurveTo": true,
      "point": "{0.14973341738217555, 0.39738825535132932}"
    },
    {
      "_class": "curvePoint",
      "cornerRadius": 0,
      "curveFrom": "{0.080609671147515619, 0.15399573684290144}",
      "curveMode": 4,
      "curveTo": "{0.08637120503303447, 0.17426282781372471}",
      "hasCurveFrom": true,
      "hasCurveTo": false,
      "point": "{0.08637120503303447, 0.17426282781372471}"
    },
    {
      "_class": "curvePoint",
      "cornerRadius": 0,
      "curveFrom": "{0.020927217081492016, 0.13200431877345031}",
      "curveMode": 4,
      "curveTo": "{0.064703146298182301, 0.14107577872709878}",
      "hasCurveFrom": true,
      "hasCurveTo": true,
      "point": "{0.038666290876601034, 0.13551544859022069}"
    },
    {
      "_class": "curvePoint",
      "cornerRadius": 0,
      "curveFrom": "{0.0079967517200987184, 0.11594808455797062}",
      "curveMode": 4,
      "curveTo": "{0.010708924159846808, 0.1254943592199369}",
      "hasCurveFrom": false,
      "hasCurveTo": true,
      "point": "{0.0079967517200987184, 0.11594808455797062}"
    },
    {
      "_class": "curvePoint",
      "cornerRadius": 0,
      "curveFrom": "{-0.0020456165027522215, 0.080586883912206073}",
      "curveMode": 4,
      "curveTo": "{0.00054927280446628629, 0.089720819485369974}",
      "hasCurveFrom": true,
      "hasCurveTo": false,
      "point": "{0.00054927280446628629, 0.089720819485369974}"
    },
    {
      "_class": "curvePoint",
      "cornerRadius": 0,
      "curveFrom": "{0.020384782593542521, 0.071115579993658362}",
      "curveMode": 4,
      "curveTo": "{0.0045515597020403869, 0.074376807332366651}",
      "hasCurveFrom": false,
      "hasCurveTo": true,
      "point": "{0.020384782593542521, 0.071115579993658362}"
    },
    {
      "_class": "curvePoint",
      "cornerRadius": 0,
      "curveFrom": "{0.064849750213844232, 0.057445914443670226}",
      "curveMode": 4,
      "curveTo": "{0.070889831539121068, 0.060694646658475356}",
      "hasCurveFrom": true,
      "hasCurveTo": false,
      "point": "{0.070889831539121068, 0.060694646658475356}"
    }
  ],
  "resizingConstraint": 63,
  "resizingType": 0,
  "rotation": 0,
  "shouldBreakMaskChain": false,
  "style": {
    "_class": "style",
    "do_objectID": "FB3A4B63-F560-4450-89E5-1E474265D60C",
    "endMarkerType": 0,
    "fills": [
      {
        "_class": "fill",
        "color": {
          "_class": "color",
          "alpha": 1,
          "blue": 0.1764705882352941,
          "green": 0.1764705882352941,
          "red": 0.1764705882352941
        },
        "fillType": 0,
        "isEnabled": true,
        "noiseIndex": 0,
        "noiseIntensity": 0,
        "patternFillType": 1,
        "patternTileScale": 1
      }
    ],
    "miterLimit": 10,
    "startMarkerType": 0,
    "windingRule": 1
  }
}