{
  "_class": "shapePath",
  "booleanOperation": -1,
  "clippingMaskMode": 0,
  "do_objectID": "D7188AE3-A2CB-4FAF-BCF8-8584C069BF27",
  "edited": true,
  "exportOptions": {
    "_class": "exportOptions",
    "do_objectID": "0AAE04C1-2DD4-45B9-ADBA-37EE709506F1",
    "exportFormats": [
    ],
    "includedLayerIds": [
    ],
    "layerOptions": 0,
    "shouldTrim": false
  },
  "frame": {
    "_class": "rect",
    "constrainProportions": false,
    "do_objectID": "475885ED-71BC-4C37-BE13-A7216C767219",
    "height": 0.1058906030855518,
    "width": 0.1059863482545396,
    "x": 39.64185493142364,
    "y": 10.79753279779966
  },
  "hasClippingMask": false,
  "isClosed": true,
  "isFixedToViewport": false,
  "isFlippedHorizontal": false,
  "isFlippedVertical": false,
  "isLocked": false,
  "isVisible": true,
  "layerListExpandedType": 0,
  "name": "Path",
  "nameIsFixed": false,
  "pointRadiusBehaviour": 0,
  "points": [
    {
      "_class": "curvePoint",
      "cornerRadius": 0,
      "curveFrom": "{0.94238256152101485, 0.24669960640028421}",
      "curveMode": 3,
      "curveTo": "{0.36438256152098347, -0.10630039359972443}",
      "hasCurveFrom": true,
      "hasCurveTo": true,
      "point": "{0.56638256152098165, 0.015699606400289667}"
    },
    {
      "_class": "curvePoint",
      "cornerRadius": 0,
      "curveFrom": "{-0.25761743847903062, 0.51569960640028967}",
      "curveMode": 4,
      "curveTo": "{0.32138256152097711, 0.86869960640029831}",
      "hasCurveFrom": true,
      "hasCurveTo": true,
      "point": "{0.11838256152100257, 0.74269960640032195}"
    }
  ],
  "resizingConstraint": 63,
  "resizingType": 0,
  "rotation": 0,
  "shouldBreakMaskChain": false,
  "style": {
    "_class": "style",
    "do_objectID": "F12F3BA2-FA7D-43DA-B31E-EE7C044DD4E3",
    "endMarkerType": 0,
    "fills": [
      {
        "_class": "fill",
        "color": {
          "_class": "color",
          "alpha": 1,
          "blue": 0.1764705882352941,
          "green": 0.1764705882352941,
          "red": 0.1764705882352941
        },
        "fillType": 0,
        "isEnabled": true,
        "noiseIndex": 0,
        "noiseIntensity": 0,
        "patternFillType": 1,
        "patternTileScale": 1
      }
    ],
    "miterLimit": 10,
    "startMarkerType": 0,
    "windingRule": 1
  }
}