{
  "_class": "shapePath",
  "booleanOperation": -1,
  "clippingMaskMode": 0,
  "do_objectID": "DCC87EB7-2AC5-4375-9C67-CB2BE069A8D8",
  "edited": true,
  "exportOptions": {
    "_class": "exportOptions",
    "do_objectID": "83359227-F0EC-43E1-A107-A07E70C2173A",
    "exportFormats": [
    ],
    "includedLayerIds": [
    ],
    "layerOptions": 0,
    "shouldTrim": false
  },
  "frame": {
    "_class": "rect",
    "constrainProportions": false,
    "do_objectID": "FF413DAC-7848-4139-87A0-690BC2E85EE3",
    "height": 0.1136991661577618,
    "width": 0.1438495995451223,
    "x": 9.976856735122135,
    "y": 19.28220733875405
  },
  "hasClippingMask": false,
  "isClosed": true,
  "isFixedToViewport": false,
  "isFlippedHorizontal": false,
  "isFlippedVertical": false,
  "isLocked": false,
  "isVisible": true,
  "layerListExpandedType": 0,
  "name": "Path",
  "nameIsFixed": false,
  "pointRadiusBehaviour": 0,
  "points": [
    {
      "_class": "curvePoint",
      "cornerRadius": 0,
      "curveFrom": "{-0.1085347201052405, 0.68116975748929609}",
      "curveMode": 4,
      "curveTo": "{0.30225966156165207, 0.87089871611981928}",
      "hasCurveFrom": true,
      "hasCurveTo": true,
      "point": "{0.082755520808326932, 1}"
    },
    {
      "_class": "curvePoint",
      "cornerRadius": 0,
      "curveFrom": "{0.47718584056816116, 0.25748930099856876}",
      "curveMode": 4,
      "curveTo": "{0.066391458901260553, 0.53209700427959195}",
      "hasCurveFrom": true,
      "hasCurveTo": true,
      "point": "{0.25768169981483602, 0.38944365192581842}"
    },
    {
      "_class": "curvePoint",
      "cornerRadius": 0,
      "curveFrom": "{1.1086129189819747, 0.31740370898715931}",
      "curveMode": 4,
      "curveTo": "{0.6966899813214863, 0.12838801711838807}",
      "hasCurveFrom": true,
      "hasCurveTo": true,
      "point": "{0.91675840007160936, 0}"
    },
    {
      "_class": "curvePoint",
      "cornerRadius": 0,
      "curveFrom": "{0.52176380231497721, 0.74037089871611428}",
      "curveMode": 4,
      "curveTo": "{0.93425101797226351, 0.4686162624821601}",
      "hasCurveFrom": true,
      "hasCurveTo": true,
      "point": "{0.7423964990618982, 0.61055634807418158}"
    }
  ],
  "resizingConstraint": 63,
  "resizingType": 0,
  "rotation": 0,
  "shouldBreakMaskChain": false,
  "style": {
    "_class": "style",
    "do_objectID": "186E4709-34DF-4A84-9E20-7920ECDE30B9",
    "endMarkerType": 0,
    "fills": [
      {
        "_class": "fill",
        "color": {
          "_class": "color",
          "alpha": 1,
          "blue": 0.1764705882352941,
          "green": 0.1764705882352941,
          "red": 0.1764705882352941
        },
        "fillType": 0,
        "isEnabled": true,
        "noiseIndex": 0,
        "noiseIntensity": 0,
        "patternFillType": 1,
        "patternTileScale": 1
      }
    ],
    "miterLimit": 10,
    "startMarkerType": 0,
    "windingRule": 1
  }
}