{
  "_class": "shapePath",
  "booleanOperation": -1,
  "clippingMaskMode": 0,
  "do_objectID": "DF0098D1-B8C3-4984-8B34-386BA106D67B",
  "edited": true,
  "exportOptions": {
    "_class": "exportOptions",
    "do_objectID": "C2E2FCE2-409F-4B81-9207-680E5015D53C",
    "exportFormats": [
    ],
    "includedLayerIds": [
    ],
    "layerOptions": 0,
    "shouldTrim": false
  },
  "frame": {
    "_class": "rect",
    "constrainProportions": false,
    "do_objectID": "FC792947-3208-42E3-88B3-8A4760DA2FAD",
    "height": 0.1058906030855766,
    "width": 0.1153147121580531,
    "x": 32.20505496125041,
    "y": 33.67090980406687
  },
  "hasClippingMask": false,
  "isClosed": true,
  "isFixedToViewport": false,
  "isFlippedHorizontal": false,
  "isFlippedVertical": false,
  "isLocked": false,
  "isVisible": true,
  "layerListExpandedType": 0,
  "name": "Path",
  "nameIsFixed": false,
  "pointRadiusBehaviour": 0,
  "points": [
    {
      "_class": "curvePoint",
      "cornerRadius": 0,
      "curveFrom": "{0.3626016927184727, 1.2030000000000314}",
      "curveMode": 4,
      "curveTo": "{0.86378551908943191, 0.68200000000001637}",
      "hasCurveFrom": true,
      "hasCurveTo": true,
      "point": "{0.58855676050650751, 0.81499999999999773}"
    },
    {
      "_class": "curvePoint",
      "cornerRadius": 0,
      "curveFrom": "{0.12890361637697756, 0.043000000000006366}",
      "curveMode": 4,
      "curveTo": "{-0.082973254041060138, 0.54200000000003001}",
      "hasCurveFrom": true,
      "hasCurveTo": true,
      "point": "{0.013462397943233706, 0.31900000000001683}"
    },
    {
      "_class": "curvePoint",
      "cornerRadius": 0,
      "curveFrom": "{1.1193048013543845, 0.53000000000002956}",
      "curveMode": 4,
      "curveTo": "{0.77650069539560218, 0.23200000000002774}",
      "hasCurveFrom": true,
      "hasCurveTo": true,
      "point": "{0.94051169475575391, 0}"
    }
  ],
  "resizingConstraint": 63,
  "resizingType": 0,
  "rotation": 0,
  "shouldBreakMaskChain": false,
  "style": {
    "_class": "style",
    "do_objectID": "B77485D9-952D-43F1-A337-F6C4A000196B",
    "endMarkerType": 0,
    "fills": [
      {
        "_class": "fill",
        "color": {
          "_class": "color",
          "alpha": 1,
          "blue": 0.1764705882352941,
          "green": 0.1764705882352941,
          "red": 0.1764705882352941
        },
        "fillType": 0,
        "isEnabled": true,
        "noiseIndex": 0,
        "noiseIntensity": 0,
        "patternFillType": 1,
        "patternTileScale": 1
      }
    ],
    "miterLimit": 10,
    "startMarkerType": 0,
    "windingRule": 1
  }
}