{
  "_class": "shapePath",
  "booleanOperation": -1,
  "clippingMaskMode": 0,
  "do_objectID": "E11AC15B-CE22-41DD-83E2-D77F1D270D0C",
  "edited": true,
  "exportOptions": {
    "_class": "exportOptions",
    "do_objectID": "D39E2693-7795-4B66-824A-B9F7A1536D71",
    "exportFormats": [
    ],
    "includedLayerIds": [
    ],
    "layerOptions": 0,
    "shouldTrim": false
  },
  "frame": {
    "_class": "rect",
    "constrainProportions": false,
    "do_objectID": "AA7A9C80-700D-41A3-84D2-1F00F250142A",
    "height": 0.2143272787035428,
    "width": 0.4131039600656781,
    "x": 5.202154814209691,
    "y": 13.91176074111891
  },
  "hasClippingMask": false,
  "isClosed": true,
  "isFixedToViewport": false,
  "isFlippedHorizontal": false,
  "isFlippedVertical": false,
  "isLocked": false,
  "isVisible": true,
  "layerListExpandedType": 0,
  "name": "Path",
  "nameIsFixed": false,
  "pointRadiusBehaviour": 0,
  "points": [
    {
      "_class": "curvePoint",
      "cornerRadius": 0,
      "curveFrom": "{0.33900465340737473, 1.0385950837815496}",
      "curveMode": 4,
      "curveTo": "{0.61762873232186344, 0.73891560971298498}",
      "hasCurveFrom": true,
      "hasCurveTo": true,
      "point": "{0.42644309848279521, 0.91070157085835779}"
    },
    {
      "_class": "curvePoint",
      "cornerRadius": 0,
      "curveFrom": "{0.18240141582285294, 0.86189014136990838}",
      "curveMode": 4,
      "curveTo": "{0.29754507607947556, 0.92167468291389765}",
      "hasCurveFrom": true,
      "hasCurveTo": true,
      "point": "{0.25863988029310941, 0.79340278681636422}"
    },
    {
      "_class": "curvePoint",
      "cornerRadius": 0,
      "curveFrom": "{-0.037864869412085209, 0.82897080520328881}",
      "curveMode": 4,
      "curveTo": "{0.10518049691354765, 0.93075587909779423}",
      "hasCurveFrom": true,
      "hasCurveTo": true,
      "point": "{0.028942032443293953, 1}"
    },
    {
      "_class": "curvePoint",
      "cornerRadius": 0,
      "curveFrom": "{0.16648565391025025, 0.60610311552350327}",
      "curveMode": 4,
      "curveTo": "{0.023047305808995628, 0.74951033859420468}",
      "hasCurveFrom": true,
      "hasCurveTo": true,
      "point": "{0.089854207664374797, 0.67459047007704742}"
    },
    {
      "_class": "curvePoint",
      "cornerRadius": 0,
      "curveFrom": "{0.25392409898567075, 0.30339657606029208}",
      "curveMode": 4,
      "curveTo": "{0.24311710015612567, 0.53761576096995911}",
      "hasCurveFrom": true,
      "hasCurveTo": true,
      "point": "{0.31915907373857128, 0.46875002324207332}"
    },
    {
      "_class": "curvePoint",
      "cornerRadius": 0,
      "curveFrom": "{0.41760100853134774, 0.10588055906055285}",
      "curveMode": 4,
      "curveTo": "{0.31228189266522138, 0.21447653009296988}",
      "hasCurveFrom": true,
      "hasCurveTo": true,
      "point": "{0.38066072162307918, 0.14447564284210243}"
    },
    {
      "_class": "curvePoint",
      "cornerRadius": 0,
      "curveFrom": "{0.59817613442867901, -0.0012018792745624347}",
      "curveMode": 4,
      "curveTo": "{0.45807813142019532, 0.078636970508863202}",
      "hasCurveFrom": true,
      "hasCurveTo": true,
      "point": "{0.49521490921627198, 0.041177036250295306}"
    },
    {
      "_class": "curvePoint",
      "cornerRadius": 0,
      "curveFrom": "{0.86599321451362277, -0.072716299222731637}",
      "curveMode": 4,
      "curveTo": "{0.66301812740596056, 0.16036773616393216}",
      "hasCurveFrom": true,
      "hasCurveTo": true,
      "point": "{0.77855476943820223, 0.055555596874801758}"
    },
    {
      "_class": "curvePoint",
      "cornerRadius": 0,
      "curveFrom": "{0.96463164019421288, 0.24701748308526944}",
      "curveMode": 4,
      "curveTo": "{0.90745279184152183, 0.044204101644920321}",
      "hasCurveFrom": true,
      "hasCurveTo": true,
      "point": "{0.94694746029131782, 0.17323276409111535}"
    },
    {
      "_class": "curvePoint",
      "cornerRadius": 0,
      "curveFrom": "{0.80920734793655347, 0.56637288221895044}",
      "curveMode": 4,
      "curveTo": "{0.98251231098491587, 0.32004543573076188}",
      "hasCurveFrom": true,
      "hasCurveTo": true,
      "point": "{1, 0.393830154724916}"
    }
  ],
  "resizingConstraint": 63,
  "resizingType": 0,
  "rotation": 0,
  "shouldBreakMaskChain": false,
  "style": {
    "_class": "style",
    "do_objectID": "30FA939D-E223-49FF-8AD5-7F1A846D8BAF",
    "endMarkerType": 0,
    "fills": [
      {
        "_class": "fill",
        "color": {
          "_class": "color",
          "alpha": 1,
          "blue": 0.1764705882352941,
          "green": 0.1764705882352941,
          "red": 0.1764705882352941
        },
        "fillType": 0,
        "isEnabled": true,
        "noiseIndex": 0,
        "noiseIntensity": 0,
        "patternFillType": 1,
        "patternTileScale": 1
      }
    ],
    "miterLimit": 10,
    "startMarkerType": 0,
    "windingRule": 1
  }
}