{
  "_class": "shapePath",
  "booleanOperation": -1,
  "clippingMaskMode": 0,
  "do_objectID": "E519CC70-9A4C-4E59-86A8-1E65F0B51498",
  "edited": true,
  "exportOptions": {
    "_class": "exportOptions",
    "do_objectID": "138EAC14-4BB9-4A7D-9433-14F266E2D4D1",
    "exportFormats": [
    ],
    "includedLayerIds": [
    ],
    "layerOptions": 0,
    "shouldTrim": false
  },
  "frame": {
    "_class": "rect",
    "constrainProportions": false,
    "do_objectID": "3EE611F7-01AF-405D-B04D-689E6DB9B9C4",
    "height": 0.144984115572079,
    "width": 0.1297115198660315,
    "x": 7.073904589039139,
    "y": 22.5872074812564
  },
  "hasClippingMask": false,
  "isClosed": true,
  "isFixedToViewport": false,
  "isFlippedHorizontal": false,
  "isFlippedVertical": false,
  "isLocked": false,
  "isVisible": true,
  "layerListExpandedType": 0,
  "name": "Path",
  "nameIsFixed": false,
  "pointRadiusBehaviour": 0,
  "points": [
    {
      "_class": "curvePoint",
      "cornerRadius": 0,
      "curveFrom": "{0.15394242803504973, 0.22863873960096692}",
      "curveMode": 4,
      "curveTo": "{0.059449311639548766, 0.39197089524029799}",
      "hasCurveFrom": true,
      "hasCurveTo": true,
      "point": "{0, 0.1738217832562475}"
    },
    {
      "_class": "curvePoint",
      "cornerRadius": 0,
      "curveFrom": "{0.81163954943680361, 0.067544010751226624}",
      "curveMode": 3,
      "curveTo": "{0.6057571964956221, -0.070057736807969603}",
      "hasCurveFrom": true,
      "hasCurveTo": true,
      "point": "{0.73341677096371216, 0.015523837893447977}"
    },
    {
      "_class": "curvePoint",
      "cornerRadius": 0,
      "curveFrom": "{0.88172715894869014, 0.56201533124840142}",
      "curveMode": 4,
      "curveTo": "{0.75344180225282131, 0.280099555761332}",
      "hasCurveFrom": true,
      "hasCurveTo": true,
      "point": "{0.82227784730914144, 0.3438662192643509}"
    },
    {
      "_class": "curvePoint",
      "cornerRadius": 0,
      "curveFrom": "{0.68523153942428006, 1.0016696954008886}",
      "curveMode": 4,
      "curveTo": "{0.94055068836045119, 0.78128315662724723}",
      "hasCurveFrom": true,
      "hasCurveTo": true,
      "point": "{1, 0.99999162530871133}"
    },
    {
      "_class": "curvePoint",
      "cornerRadius": 0,
      "curveFrom": "{0.11889862327910641, 0.61123872061917561}",
      "curveMode": 4,
      "curveTo": "{0.54505632040050678, 0.75051853827054904}",
      "hasCurveFrom": true,
      "hasCurveTo": true,
      "point": "{0.17834793491865519, 0.83050654599802154}"
    }
  ],
  "resizingConstraint": 63,
  "resizingType": 0,
  "rotation": 0,
  "shouldBreakMaskChain": false,
  "style": {
    "_class": "style",
    "do_objectID": "687F73D2-068B-4AB7-A19C-1DD8DD63EC4B",
    "endMarkerType": 0,
    "fills": [
      {
        "_class": "fill",
        "color": {
          "_class": "color",
          "alpha": 1,
          "blue": 0.1764705882352941,
          "green": 0.1764705882352941,
          "red": 0.1764705882352941
        },
        "fillType": 0,
        "isEnabled": true,
        "noiseIndex": 0,
        "noiseIntensity": 0,
        "patternFillType": 1,
        "patternTileScale": 1
      }
    ],
    "miterLimit": 10,
    "startMarkerType": 0,
    "windingRule": 1
  }
}