{
  "_class": "shapePath",
  "booleanOperation": -1,
  "clippingMaskMode": 0,
  "do_objectID": "E96069E5-9C4F-4E9D-A438-42592DAB42CE",
  "edited": true,
  "exportOptions": {
    "_class": "exportOptions",
    "do_objectID": "E0A890BB-4322-49FD-9E66-B2620E4E3951",
    "exportFormats": [
    ],
    "includedLayerIds": [
    ],
    "layerOptions": 0,
    "shouldTrim": false
  },
  "frame": {
    "_class": "rect",
    "constrainProportions": false,
    "do_objectID": "142C8561-BB50-4918-8F39-B3782E960047",
    "height": 2.960527425695398,
    "width": 3.378427627195213,
    "x": 9.553712750890007,
    "y": 9.695309959574226
  },
  "hasClippingMask": false,
  "isClosed": true,
  "isFixedToViewport": false,
  "isFlippedHorizontal": false,
  "isFlippedVertical": false,
  "isLocked": false,
  "isVisible": true,
  "layerListExpandedType": 0,
  "name": "Path",
  "nameIsFixed": false,
  "pointRadiusBehaviour": 0,
  "points": [
    {
      "_class": "curvePoint",
      "cornerRadius": 0,
      "curveFrom": "{0.56886242757348782, 0.17389024870888378}",
      "curveMode": 4,
      "curveTo": "{0.56828579603128015, 0.1723288456239585}",
      "hasCurveFrom": true,
      "hasCurveTo": false,
      "point": "{0.56828579603128015, 0.1723288456239585}"
    },
    {
      "_class": "curvePoint",
      "cornerRadius": 0,
      "curveFrom": "{0.57102479585676669, 0.18232730397479313}",
      "curveMode": 4,
      "curveTo": "{0.569391006487178, 0.17539686572065197}",
      "hasCurveFrom": true,
      "hasCurveTo": true,
      "point": "{0.56989555908661005, 0.17704044791530973}"
    },
    {
      "_class": "curvePoint",
      "cornerRadius": 0,
      "curveFrom": "{0.54983358668063498, 0.19953013094554345}",
      "curveMode": 4,
      "curveTo": "{0.57215403262692321, 0.18766894610743051}",
      "hasCurveFrom": true,
      "hasCurveTo": true,
      "point": "{0.57330729571133865, 0.1930653743132234}"
    },
    {
      "_class": "curvePoint",
      "cornerRadius": 0,
      "curveFrom": "{0.49152172197488558, 0.21876004262303858}",
      "curveMode": 4,
      "curveTo": "{0.5263118250214146, 0.20602228061444047}",
      "hasCurveFrom": true,
      "hasCurveTo": true,
      "point": "{0.50283811599071104, 0.21251443028333905}"
    },
    {
      "_class": "curvePoint",
      "cornerRadius": 0,
      "curveFrom": "{0.47597669664953762, 0.20295426051774701}",
      "curveMode": 4,
      "curveTo": "{0.48825414323570898, 0.20993948484504213}",
      "hasCurveFrom": true,
      "hasCurveTo": true,
      "point": "{0.48534695921041177, 0.20037931507945009}"
    },
    {
      "_class": "curvePoint",
      "cornerRadius": 0,
      "curveFrom": "{0.45173414556255692, 0.19509245901996669}",
      "curveMode": 4,
      "curveTo": "{0.46660643408866281, 0.20555659899262088}",
      "hasCurveFrom": true,
      "hasCurveTo": true,
      "point": "{0.45716409258501234, 0.20815893746749634}"
    },
    {
      "_class": "curvePoint",
      "cornerRadius": 0,
      "curveFrom": "{0.47722606499098741, 0.18555968229095315}",
      "curveMode": 4,
      "curveTo": "{0.4594706187538431, 0.19139439908198708}",
      "hasCurveFrom": true,
      "hasCurveTo": true,
      "point": "{0.46787982874437134, 0.18813462772925008}"
    },
    {
      "_class": "curvePoint",
      "cornerRadius": 0,
      "curveFrom": "{0.4906327483473153, 0.16772681547891674}",
      "curveMode": 4,
      "curveTo": "{0.48664438018037909, 0.18295734381607773}",
      "hasCurveFrom": true,
      "hasCurveTo": true,
      "point": "{0.49601464274125323, 0.18038239837778081}"
    },
    {
      "_class": "curvePoint",
      "cornerRadius": 0,
      "curveFrom": "{0.51134343123827364, 0.15879668555460927}",
      "curveMode": 4,
      "curveTo": "{0.49820103733879079, 0.16331653658991852}",
      "hasCurveFrom": true,
      "hasCurveTo": true,
      "point": "{0.50675440521487092, 0.16041287471269006}"
    },
    {
      "_class": "curvePoint",
      "cornerRadius": 0,
      "curveFrom": "{0.5328710088140266, 0.15641349137235588}",
      "curveMode": 4,
      "curveTo": "{0.51619674671852145, 0.15805707356701365}",
      "hasCurveFrom": true,
      "hasCurveTo": true,
      "point": "{0.52083382537044165, 0.15655045655524391}"
    },
    {
      "_class": "curvePoint",
      "cornerRadius": 0,
      "curveFrom": "{0.55399013904738192, 0.16391918339462611}",
      "curveMode": 4,
      "curveTo": "{0.53830095583648208, 0.16882253694202246}",
      "hasCurveFrom": true,
      "hasCurveTo": true,
      "point": "{0.55240440230631083, 0.16479576056510975}"
    },
    {
      "_class": "curvePoint",
      "cornerRadius": 0,
      "curveFrom": "{0.55639277047324709, 0.16364525302885008}",
      "curveMode": 4,
      "curveTo": "{0.55509534950327977, 0.16397396946778164}",
      "hasCurveFrom": false,
      "hasCurveTo": true,
      "point": "{0.55639277047324709, 0.16364525302885008}"
    },
    {
      "_class": "curvePoint",
      "cornerRadius": 0,
      "curveFrom": "{0.39911651733610798, 0.058538171680489928}",
      "curveMode": 4,
      "curveTo": "{0.40800625361180953, 0.055004469961975333}",
      "hasCurveFrom": true,
      "hasCurveTo": false,
      "point": "{0.40800625361180953, 0.055004469961975333}"
    },
    {
      "_class": "curvePoint",
      "cornerRadius": 0,
      "curveFrom": "{0.38746375492066121, 0.078452909272425153}",
      "curveMode": 4,
      "curveTo": "{0.39147614940185621, 0.063003236642643665}",
      "hasCurveFrom": true,
      "hasCurveTo": true,
      "point": "{0.39726649113819179, 0.076781934041190408}"
    },
    {
      "_class": "curvePoint",
      "cornerRadius": 0,
      "curveFrom": "{0.37617138721909454, 0.057168519851608195}",
      "curveMode": 4,
      "curveTo": "{0.37804543973126953, 0.079247307333176281}",
      "hasCurveFrom": true,
      "hasCurveTo": true,
      "point": "{0.37766101870313129, 0.063140201825531692}"
    },
    {
      "_class": "curvePoint",
      "cornerRadius": 0,
      "curveFrom": "{0.37102975596774296, 0.034185762162977945}",
      "curveMode": 2,
      "curveTo": "{0.37540254516281812, 0.051005086621641167}",
      "hasCurveFrom": true,
      "hasCurveTo": true,
      "point": "{0.37384083473600577, 0.045142976794028712}"
    },
    {
      "_class": "curvePoint",
      "cornerRadius": 0,
      "curveFrom": "{0.3502710204482678, 0.024488627214497877}",
      "curveMode": 4,
      "curveTo": "{0.36668099308692725, 0.024461234177919341}",
      "hasCurveFrom": true,
      "hasCurveTo": true,
      "point": "{0.35421133598668647, 0.031419065468637493}"
    },
    {
      "_class": "curvePoint",
      "cornerRadius": 0,
      "curveFrom": "{0.24782281644937329, -0.027667714429306631}",
      "curveMode": 4,
      "curveTo": "{0.34587420493893389, 0.018407373094263348}",
      "hasCurveFrom": true,
      "hasCurveTo": true,
      "point": "{0.34133323154404871, 0.012627442376384948}"
    },
    {
      "_class": "curvePoint",
      "cornerRadius": 0,
      "curveFrom": "{-0.028407718582354479, 0.35939589241258357}",
      "curveMode": 3,
      "curveTo": "{0.15798842743627151, 0.028460617518253507}",
      "hasCurveFrom": true,
      "hasCurveTo": true,
      "point": "{0.071950196076036824, 0.18123158251168744}"
    },
    {
      "_class": "curvePoint",
      "cornerRadius": 0,
      "curveFrom": "{0.085885458346055238, 0.56895262223144072}",
      "curveMode": 4,
      "curveTo": "{-0.023794666244693365, 0.48863623898583358}",
      "hasCurveFrom": false,
      "hasCurveTo": true,
      "point": "{0.085885458346055238, 0.56895262223144072}"
    },
    {
      "_class": "curvePoint",
      "cornerRadius": 0,
      "curveFrom": "{0.33619160029269712, 0.7485687630709511}",
      "curveMode": 4,
      "curveTo": "{0.33419741620922899, 0.75076020599716087}",
      "hasCurveFrom": true,
      "hasCurveTo": false,
      "point": "{0.33419741620922899, 0.75076020599716087}"
    },
    {
      "_class": "curvePoint",
      "cornerRadius": 0,
      "curveFrom": "{0.34383196822694889, 0.74955491238774574}",
      "curveMode": 2,
      "curveTo": "{0.3383059159474584, 0.7472812903518018}",
      "hasCurveFrom": true,
      "hasCurveTo": true,
      "point": "{0.3398916526885295, 0.74793872322966493}"
    },
    {
      "_class": "curvePoint",
      "cornerRadius": 0,
      "curveFrom": "{0.34371183665565508, 0.75771803728787901}",
      "curveMode": 4,
      "curveTo": "{0.34457678396896657, 0.75352690269150135}",
      "hasCurveFrom": false,
      "hasCurveTo": true,
      "point": "{0.34371183665565508, 0.75771803728787901}"
    },
    {
      "_class": "curvePoint",
      "cornerRadius": 0,
      "curveFrom": "{0.50295824756200413, 0.85956534728350065}",
      "curveMode": 4,
      "curveTo": "{0.49817701102453205, 0.87079649228032896}",
      "hasCurveFrom": true,
      "hasCurveTo": false,
      "point": "{0.49817701102453205, 0.87079649228032896}"
    },
    {
      "_class": "curvePoint",
      "cornerRadius": 0,
      "curveFrom": "{0.53234242990033576, 0.83734959461904457}",
      "curveMode": 4,
      "curveTo": "{0.51785456240236882, 0.85252533688304999}",
      "hasCurveFrom": true,
      "hasCurveTo": true,
      "point": "{0.53380803507011376, 0.84592361506784197}"
    },
    {
      "_class": "curvePoint",
      "cornerRadius": 0,
      "curveFrom": "{0.52926706167522863, 0.81464076729619028}",
      "curveMode": 4,
      "curveTo": "{0.52386114096703196, 0.82272171308659114}",
      "hasCurveFrom": true,
      "hasCurveTo": true,
      "point": "{0.52703261444917415, 0.8180648968683939}"
    },
    {
      "_class": "curvePoint",
      "cornerRadius": 0,
      "curveFrom": "{0.53935811366386233, 0.81924279744123207}",
      "curveMode": 4,
      "curveTo": "{0.53832498215074087, 0.81713353362475472}",
      "hasCurveFrom": true,
      "hasCurveTo": true,
      "point": "{0.54111203460474422, 0.8141750856743708}"
    },
    {
      "_class": "curvePoint",
      "cornerRadius": 0,
      "curveFrom": "{0.55737784935785173, 0.83597994279016286}",
      "curveMode": 4,
      "curveTo": "{0.54620561322757888, 0.83173402212063119}",
      "hasCurveFrom": true,
      "hasCurveTo": true,
      "point": "{0.54810369205401199, 0.83997932613049697}"
    },
    {
      "_class": "curvePoint",
      "cornerRadius": 0,
      "curveFrom": "{0.58332626875719673, 0.81611999127138313}",
      "curveMode": 2,
      "curveTo": "{0.56600329617670819, 0.83176141515720814}",
      "hasCurveFrom": true,
      "hasCurveTo": true,
      "point": "{0.57196182211285385, 0.82639237998799375}"
    },
    {
      "_class": "curvePoint",
      "cornerRadius": 0,
      "curveFrom": "{0.60658374095957213, 0.78604243710914667}",
      "curveMode": 2,
      "curveTo": "{0.58029895316060642, 0.79998549272716002}",
      "hasCurveFrom": true,
      "hasCurveTo": true,
      "point": "{0.59613229425705816, 0.7916032235344046}"
    },
    {
      "_class": "curvePoint",
      "cornerRadius": 0,
      "curveFrom": "{0.62630934496592572, 0.78341270559769427}",
      "curveMode": 4,
      "curveTo": "{0.61708324029060357, 0.78039947157415479}",
      "hasCurveFrom": true,
      "hasCurveTo": true,
      "point": "{0.62758273962163491, 0.77481129211231836}"
    },
    {
      "_class": "curvePoint",
      "cornerRadius": 0,
      "curveFrom": "{0.63861081786635587, 0.81946194173385256}",
      "curveMode": 2,
      "curveTo": "{0.64545831743007243, 0.80324526407989694}",
      "hasCurveFrom": true,
      "hasCurveTo": true,
      "point": "{0.64231087026218892, 0.81075095610216719}"
    },
    {
      "_class": "curvePoint",
      "cornerRadius": 0,
      "curveFrom": "{0.60800129350083254, 0.83633605226567287}",
      "curveMode": 4,
      "curveTo": "{0.6135994247230987, 0.81855797152679199}",
      "hasCurveFrom": true,
      "hasCurveTo": true,
      "point": "{0.61083639858335415, 0.82748810145109797}"
    },
    {
      "_class": "curvePoint",
      "cornerRadius": 0,
      "curveFrom": "{0.57789632173474126, 0.86690668108630586}",
      "curveMode": 4,
      "curveTo": "{0.62075926637217715, 0.85153918756625691}",
      "hasCurveFrom": true,
      "hasCurveTo": true,
      "point": "{0.60245121490708398, 0.85381280960219919}"
    },
    {
      "_class": "curvePoint",
      "cornerRadius": 0,
      "curveFrom": "{0.52866640381876218, 0.89312181709109617}",
      "curveMode": 4,
      "curveTo": "{0.55326934961962237, 0.88000055257041254}",
      "hasCurveFrom": false,
      "hasCurveTo": true,
      "point": "{0.52866640381876218, 0.89312181709109617}"
    },
    {
      "_class": "curvePoint",
      "cornerRadius": 0,
      "curveFrom": "{0.62640545022296079, 0.95965950293815494}",
      "curveMode": 4,
      "curveTo": "{0.62352229251192237, 0.96259055785196201}",
      "hasCurveFrom": true,
      "hasCurveTo": false,
      "point": "{0.62352229251192237, 0.96259055785196201}"
    },
    {
      "_class": "curvePoint",
      "cornerRadius": 0,
      "curveFrom": "{0.63505492335607538, 0.96168658764489978}",
      "curveMode": 2,
      "curveTo": "{0.62972108159065499, 0.95796113467034327}",
      "hasCurveFrom": true,
      "hasCurveTo": true,
      "point": "{0.63157110778857117, 0.95924860738949091}"
    },
    {
      "_class": "curvePoint",
      "cornerRadius": 0,
      "curveFrom": "{0.73058354884847765, 1.0381679457696393}",
      "curveMode": 4,
      "curveTo": "{0.63495881809904098, 0.96565857794865706}",
      "hasCurveFrom": true,
      "hasCurveTo": true,
      "point": "{0.63327697610093547, 0.96949360306952459}"
    },
    {
      "_class": "curvePoint",
      "cornerRadius": 0,
      "curveFrom": "{0.92185703666161056, 0.82861121595078058}",
      "curveMode": 4,
      "curveTo": "{0.82714530585400214, 0.99086017160007411}",
      "hasCurveFrom": true,
      "hasCurveTo": true,
      "point": "{0.92301029974602589, 0.8279263900363405}"
    },
    {
      "_class": "curvePoint",
      "cornerRadius": 0,
      "curveFrom": "{0.90917114273304223, 0.82422833009836094}",
      "curveMode": 3,
      "curveTo": "{0.92075182620571272, 0.82899471846286765}",
      "hasCurveFrom": true,
      "hasCurveTo": true,
      "point": "{0.91983882626388369, 0.82861121595078058}"
    },
    {
      "_class": "curvePoint",
      "cornerRadius": 0,
      "curveFrom": "{0.93096300976563962, 0.80666939365210055}",
      "curveMode": 2,
      "curveTo": "{0.92166482614754108, 0.80280697549465441}",
      "hasCurveFrom": true,
      "hasCurveTo": true,
      "point": "{0.92735906262684153, 0.80519016967690937}"
    },
    {
      "_class": "curvePoint",
      "cornerRadius": 0,
      "curveFrom": "{0.93144353605081287, 0.81359983190624019}",
      "curveMode": 4,
      "curveTo": "{0.93177990445043357, 0.81014830929745962}",
      "hasCurveFrom": true,
      "hasCurveTo": true,
      "point": "{0.93125132553674339, 0.8139559413817502}"
    },
    {
      "_class": "curvePoint",
      "cornerRadius": 0,
      "curveFrom": "{0.97620455951468244, 0.73418741886769523}",
      "curveMode": 4,
      "curveTo": "{0.93165977287914048, 0.81329850850388719}",
      "hasCurveFrom": true,
      "hasCurveTo": true,
      "point": "{0.93185198339320985, 0.81294239902837706}"
    },
    {
      "_class": "curvePoint",
      "cornerRadius": 0,
      "curveFrom": "{1.0010237421438701, 0.52378150491493136}",
      "curveMode": 2,
      "curveTo": "{0.99890942648910896, 0.66058232958360874}",
      "hasCurveFrom": true,
      "hasCurveTo": true,
      "point": "{0.99996658431648988, 0.59215452421269155}"
    },
    {
      "_class": "curvePoint",
      "cornerRadius": 0,
      "curveFrom": "{0.9278636152262737, 0.43563071320812247}",
      "curveMode": 4,
      "curveTo": "{0.97699742788521771, 0.47162516327112686}",
      "hasCurveFrom": false,
      "hasCurveTo": true,
      "point": "{0.9278636152262737, 0.43563071320812247}"
    }
  ],
  "resizingConstraint": 63,
  "resizingType": 0,
  "rotation": 0,
  "shouldBreakMaskChain": false,
  "style": {
    "_class": "style",
    "do_objectID": "4236D9FE-F820-4933-B1C2-06704BE26496",
    "endMarkerType": 0,
    "fills": [
      {
        "_class": "fill",
        "color": {
          "_class": "color",
          "alpha": 1,
          "blue": 0.1764705882352941,
          "green": 0.1764705882352941,
          "red": 0.1764705882352941
        },
        "fillType": 0,
        "isEnabled": true,
        "noiseIndex": 0,
        "noiseIntensity": 0,
        "patternFillType": 1,
        "patternTileScale": 1
      }
    ],
    "miterLimit": 10,
    "startMarkerType": 0,
    "windingRule": 1
  }
}