{
  "_class": "shapePath",
  "booleanOperation": -1,
  "clippingMaskMode": 0,
  "do_objectID": "EAAE5F10-9E9C-485C-8C0B-5BB4EDBD17C2",
  "edited": true,
  "exportOptions": {
    "_class": "exportOptions",
    "do_objectID": "D235483F-B36A-44D1-850A-7236D0E62B0E",
    "exportFormats": [
    ],
    "includedLayerIds": [
    ],
    "layerOptions": 0,
    "shouldTrim": false
  },
  "frame": {
    "_class": "rect",
    "constrainProportions": false,
    "do_objectID": "178E9549-B29C-45F7-9100-4F8A19086050",
    "height": 0.105890603085566,
    "width": 0.1059863482545715,
    "x": 29.53897527709175,
    "y": 30.59885059730419
  },
  "hasClippingMask": false,
  "isClosed": true,
  "isFixedToViewport": false,
  "isFlippedHorizontal": false,
  "isFlippedVertical": false,
  "isLocked": false,
  "isVisible": true,
  "layerListExpandedType": 0,
  "name": "Path",
  "nameIsFixed": false,
  "pointRadiusBehaviour": 0,
  "points": [
    {
      "_class": "curvePoint",
      "cornerRadius": 0,
      "curveFrom": "{1.055282948295087, 0.27890232699252238}",
      "curveMode": 3,
      "curveTo": "{0.40528294829505285, -0.12009767300747853}",
      "hasCurveFrom": true,
      "hasCurveTo": true,
      "point": "{0.63128294829505194, 0.017902326992498274}"
    },
    {
      "_class": "curvePoint",
      "cornerRadius": 0,
      "curveFrom": "{-0.29071705170491668, 0.57690232699252419}",
      "curveMode": 4,
      "curveTo": "{0.35728294829505103, 0.9759023269925251}",
      "hasCurveFrom": true,
      "hasCurveTo": true,
      "point": "{0.13528294829507104, 0.83490232699250555}"
    }
  ],
  "resizingConstraint": 63,
  "resizingType": 0,
  "rotation": 0,
  "shouldBreakMaskChain": false,
  "style": {
    "_class": "style",
    "do_objectID": "BDC8CE84-7931-4C0A-9BD1-DEC916E7DD43",
    "endMarkerType": 0,
    "fills": [
      {
        "_class": "fill",
        "color": {
          "_class": "color",
          "alpha": 1,
          "blue": 0.1764705882352941,
          "green": 0.1764705882352941,
          "red": 0.1764705882352941
        },
        "fillType": 0,
        "isEnabled": true,
        "noiseIndex": 0,
        "noiseIntensity": 0,
        "patternFillType": 1,
        "patternTileScale": 1
      }
    ],
    "miterLimit": 10,
    "startMarkerType": 0,
    "windingRule": 1
  }
}