{
  "_class": "shapePath",
  "booleanOperation": -1,
  "clippingMaskMode": 0,
  "do_objectID": "F65504E5-27B1-4F40-8B57-121E4EA95544",
  "edited": true,
  "exportOptions": {
    "_class": "exportOptions",
    "do_objectID": "0D48520B-67CA-4BB8-9151-05B62C5B7423",
    "exportFormats": [
    ],
    "includedLayerIds": [
    ],
    "layerOptions": 0,
    "shouldTrim": false
  },
  "frame": {
    "_class": "rect",
    "constrainProportions": false,
    "do_objectID": "F8F286DE-247E-40A3-AD77-38A558C1248B",
    "height": 0.1058906030855553,
    "width": 0.1072150776560008,
    "x": 27.13862945063085,
    "y": 31.8228523159055
  },
  "hasClippingMask": false,
  "isClosed": true,
  "isFixedToViewport": false,
  "isFlippedHorizontal": false,
  "isFlippedVertical": false,
  "isLocked": false,
  "isVisible": true,
  "layerListExpandedType": 0,
  "name": "Path",
  "nameIsFixed": false,
  "pointRadiusBehaviour": 0,
  "points": [
    {
      "_class": "curvePoint",
      "cornerRadius": 0,
      "curveFrom": "{0.081533508124131598, 0.25481953758087883}",
      "curveMode": 3,
      "curveTo": "{-0.057770538273167187, 0.7683789133207104}",
      "hasCurveFrom": true,
      "hasCurveTo": true,
      "point": "{0.0050677000473649215, 0.53512102891979541}"
    },
    {
      "_class": "curvePoint",
      "cornerRadius": 0,
      "curveFrom": "{1.1452410363207262, 0.43907366475469961}",
      "curveMode": 4,
      "curveTo": "{0.75988364710215495, 0.25579961272539731}",
      "hasCurveFrom": true,
      "hasCurveTo": true,
      "point": "{0.88934555978662011, 0}"
    },
    {
      "_class": "curvePoint",
      "cornerRadius": 0,
      "curveFrom": "{0.48127555430760044, 1.2515559595797447}",
      "curveMode": 4,
      "curveTo": "{0.91130108883836236, 0.64390936996391002}",
      "hasCurveFrom": true,
      "hasCurveTo": true,
      "point": "{0.65313435067818126, 0.83894432372765704}"
    }
  ],
  "resizingConstraint": 63,
  "resizingType": 0,
  "rotation": 0,
  "shouldBreakMaskChain": false,
  "style": {
    "_class": "style",
    "do_objectID": "09B5A0B8-13A4-4F07-B573-E2974BAC8AB4",
    "endMarkerType": 0,
    "fills": [
      {
        "_class": "fill",
        "color": {
          "_class": "color",
          "alpha": 1,
          "blue": 0.1764705882352941,
          "green": 0.1764705882352941,
          "red": 0.1764705882352941
        },
        "fillType": 0,
        "isEnabled": true,
        "noiseIndex": 0,
        "noiseIntensity": 0,
        "patternFillType": 1,
        "patternTileScale": 1
      }
    ],
    "miterLimit": 10,
    "startMarkerType": 0,
    "windingRule": 1
  }
}