{
  "_class": "shapePath",
  "booleanOperation": -1,
  "clippingMaskMode": 0,
  "do_objectID": "F866B3D6-DA5A-4E67-9DD9-C615F1AB2B0E",
  "edited": true,
  "exportOptions": {
    "_class": "exportOptions",
    "do_objectID": "88577655-2C20-4E11-8F39-99C0584BA7DB",
    "exportFormats": [
    ],
    "includedLayerIds": [
    ],
    "layerOptions": 0,
    "shouldTrim": false
  },
  "frame": {
    "_class": "rect",
    "constrainProportions": false,
    "do_objectID": "890C2647-2566-476D-9F20-2567B5453A82",
    "height": 0.1058906030855606,
    "width": 0.1714818698900409,
    "x": 13.9169100162346,
    "y": 9.002117097678441
  },
  "hasClippingMask": false,
  "isClosed": true,
  "isFixedToViewport": false,
  "isFlippedHorizontal": false,
  "isFlippedVertical": false,
  "isLocked": false,
  "isVisible": true,
  "layerListExpandedType": 0,
  "name": "Path",
  "nameIsFixed": false,
  "pointRadiusBehaviour": 0,
  "points": [
    {
      "_class": "curvePoint",
      "cornerRadius": 0,
      "curveFrom": "{-0.60844767444430126, 1.6516134985527979}",
      "curveMode": 4,
      "curveTo": "{0.61942556496373657, 1.0506636061543351}",
      "hasCurveFrom": true,
      "hasCurveTo": true,
      "point": "{0.61327199822808665, 0.54658580768025922}"
    },
    {
      "_class": "curvePoint",
      "cornerRadius": 0,
      "curveFrom": "{0.80687267475772373, 0.49514929763188414}",
      "curveMode": 4,
      "curveTo": "{0.32358101036465203, -1.1165280172171372}",
      "hasCurveFrom": true,
      "hasCurveTo": true,
      "point": "{0.61327199822808665, 0.54658580768025922}"
    },
    {
      "_class": "curvePoint",
      "cornerRadius": 0,
      "curveFrom": "{0.80545262089564129, 1.0258026262976245}",
      "curveMode": 4,
      "curveTo": "{0.99242637940226763, 0.4702883177751736}",
      "hasCurveFrom": true,
      "hasCurveTo": true,
      "point": "{1, 0.97350884108174818}"
    }
  ],
  "resizingConstraint": 63,
  "resizingType": 0,
  "rotation": 0,
  "shouldBreakMaskChain": false,
  "style": {
    "_class": "style",
    "do_objectID": "5D452928-30EF-4845-9FE1-16017070BECE",
    "endMarkerType": 0,
    "fills": [
      {
        "_class": "fill",
        "color": {
          "_class": "color",
          "alpha": 1,
          "blue": 0.1764705882352941,
          "green": 0.1764705882352941,
          "red": 0.1764705882352941
        },
        "fillType": 0,
        "isEnabled": true,
        "noiseIndex": 0,
        "noiseIntensity": 0,
        "patternFillType": 1,
        "patternTileScale": 1
      }
    ],
    "miterLimit": 10,
    "startMarkerType": 0,
    "windingRule": 1
  }
}