{
  "_class": "shapePath",
  "booleanOperation": -1,
  "clippingMaskMode": 0,
  "do_objectID": "FAA881D7-7E6A-4371-B6ED-F846FC247AB4",
  "edited": true,
  "exportOptions": {
    "_class": "exportOptions",
    "do_objectID": "8706AC46-4C5B-4FDF-A163-3C0B357644CE",
    "exportFormats": [
    ],
    "includedLayerIds": [
    ],
    "layerOptions": 0,
    "shouldTrim": false
  },
  "frame": {
    "_class": "rect",
    "constrainProportions": false,
    "do_objectID": "23663840-CC19-4C7D-944E-E998CD57AF95",
    "height": 0.1058906030855606,
    "width": 0.1059863482545715,
    "x": 20.28151755939435,
    "y": 10.99453949236584
  },
  "hasClippingMask": false,
  "isClosed": true,
  "isFixedToViewport": false,
  "isFlippedHorizontal": false,
  "isFlippedVertical": false,
  "isLocked": false,
  "isVisible": true,
  "layerListExpandedType": 0,
  "name": "Path",
  "nameIsFixed": false,
  "pointRadiusBehaviour": 0,
  "points": [
    {
      "_class": "curvePoint",
      "cornerRadius": 0,
      "curveFrom": "{0.92588439988432469, 0.17045236461621016}",
      "curveMode": 3,
      "curveTo": "{0.24788439988432742, -0.078547635383756642}",
      "hasCurveFrom": true,
      "hasCurveTo": true,
      "point": "{0.48388439988431742, 0.0064523646162228943}"
    },
    {
      "_class": "curvePoint",
      "cornerRadius": 0,
      "curveFrom": "{-0.26811560011566371, 0.70145236461621607}",
      "curveMode": 4,
      "curveTo": "{0.40988439988433356, 0.94945236461620652}",
      "hasCurveFrom": true,
      "hasCurveTo": true,
      "point": "{0.17188439988433402, 0.86445236461622699}"
    }
  ],
  "resizingConstraint": 63,
  "resizingType": 0,
  "rotation": 0,
  "shouldBreakMaskChain": false,
  "style": {
    "_class": "style",
    "do_objectID": "9F12EF9C-FE2E-4A5B-B0E6-174F4EB5D376",
    "endMarkerType": 0,
    "fills": [
      {
        "_class": "fill",
        "color": {
          "_class": "color",
          "alpha": 1,
          "blue": 0.1764705882352941,
          "green": 0.1764705882352941,
          "red": 0.1764705882352941
        },
        "fillType": 0,
        "isEnabled": true,
        "noiseIndex": 0,
        "noiseIntensity": 0,
        "patternFillType": 1,
        "patternTileScale": 1
      }
    ],
    "miterLimit": 10,
    "startMarkerType": 0,
    "windingRule": 1
  }
}