{
  "_class": "shapePath",
  "booleanOperation": -1,
  "clippingMaskMode": 0,
  "do_objectID": "FE9EC808-06DA-4F7A-9B59-FBDFE7644C2A",
  "edited": true,
  "exportOptions": {
    "_class": "exportOptions",
    "do_objectID": "161935A0-D180-4413-A7BC-CECAEE927F2D",
    "exportFormats": [
    ],
    "includedLayerIds": [
    ],
    "layerOptions": 0,
    "shouldTrim": false
  },
  "frame": {
    "_class": "rect",
    "constrainProportions": false,
    "do_objectID": "4327F578-C8ED-4B17-B836-DA44136870D3",
    "height": 3.711280271666239,
    "width": 2.365246544040186,
    "x": 27.82028002052737,
    "y": 4.789861838955091
  },
  "hasClippingMask": false,
  "isClosed": true,
  "isFixedToViewport": false,
  "isFlippedHorizontal": false,
  "isFlippedVertical": false,
  "isLocked": false,
  "isVisible": true,
  "layerListExpandedType": 0,
  "name": "Path",
  "nameIsFixed": false,
  "pointRadiusBehaviour": 0,
  "points": [
    {
      "_class": "curvePoint",
      "cornerRadius": 0,
      "curveFrom": "{0.63162771543292573, 0.90815724493586569}",
      "curveMode": 4,
      "curveTo": "{0.63111294141871843, 0.91230907064659272}",
      "hasCurveFrom": true,
      "hasCurveTo": true,
      "point": "{0.6279213425306297, 0.91418831807355239}"
    },
    {
      "_class": "curvePoint",
      "cornerRadius": 0,
      "curveFrom": "{0.61779745358454319, 0.88484146581299339}",
      "curveMode": 2,
      "curveTo": "{0.61117402793507047, 0.89045735637960843}",
      "hasCurveFrom": true,
      "hasCurveTo": true,
      "point": "{0.61704245169703875, 0.88547516552673589}"
    },
    {
      "_class": "curvePoint",
      "cornerRadius": 0,
      "curveFrom": "{0.6207831428669478, 0.88425146952778511}",
      "curveMode": 4,
      "curveTo": "{0.61923882082432591, 0.88451369009898895}",
      "hasCurveFrom": false,
      "hasCurveTo": true,
      "point": "{0.6207831428669478, 0.88425146952778511}"
    },
    {
      "_class": "curvePoint",
      "cornerRadius": 0,
      "curveFrom": "{0.39256666323484052, 0.80353123702554485}",
      "curveMode": 1,
      "curveTo": "{0.39256666323484052, 0.80353123702554485}",
      "hasCurveFrom": false,
      "hasCurveTo": false,
      "point": "{0.39256666323484052, 0.80353123702554485}"
    },
    {
      "_class": "curvePoint",
      "cornerRadius": 0,
      "curveFrom": "{1, 0.10720451019382489}",
      "curveMode": 1,
      "curveTo": "{1, 0.10720451019382489}",
      "hasCurveFrom": false,
      "hasCurveTo": false,
      "point": "{1, 0.10720451019382489}"
    },
    {
      "_class": "curvePoint",
      "cornerRadius": 0,
      "curveFrom": "{0.6968324238992416, 0}",
      "curveMode": 1,
      "curveTo": "{0.6968324238992416, 0}",
      "hasCurveFrom": false,
      "hasCurveTo": false,
      "point": "{0.6968324238992416, 0}"
    },
    {
      "_class": "curvePoint",
      "cornerRadius": 0,
      "curveFrom": "{0.64346751775970323, 0.079321722789152754}",
      "curveMode": 4,
      "curveTo": "{0.63612340849033921, 0.069597709940344907}",
      "hasCurveFrom": true,
      "hasCurveTo": false,
      "point": "{0.63612340849033921, 0.069597709940344907}"
    },
    {
      "_class": "curvePoint",
      "cornerRadius": 0,
      "curveFrom": "{0.6227049658533248, 0.085003168498568454}",
      "curveMode": 4,
      "curveTo": "{0.63385840282782602, 0.082490221357865073}",
      "hasCurveFrom": false,
      "hasCurveTo": true,
      "point": "{0.6227049658533248, 0.085003168498568454}"
    },
    {
      "_class": "curvePoint",
      "cornerRadius": 0,
      "curveFrom": "{0.060846288479358385, 0.74059829993663029}",
      "curveMode": 4,
      "curveTo": "{0.057002642506606291, 0.73345278937132652}",
      "hasCurveFrom": true,
      "hasCurveTo": false,
      "point": "{0.057002642506606291, 0.73345278937132652}"
    },
    {
      "_class": "curvePoint",
      "cornerRadius": 0,
      "curveFrom": "{0.092178866810804574, 0.75093416078491415}",
      "curveMode": 4,
      "curveTo": "{0.071690861045334356, 0.74042348622249365}",
      "hasCurveFrom": true,
      "hasCurveTo": true,
      "point": "{0.083290435498816706, 0.73937460393767829}"
    },
    {
      "_class": "curvePoint",
      "cornerRadius": 0,
      "curveFrom": "{0.051820584096914458, 0.76166335249000305}",
      "curveMode": 4,
      "curveTo": "{0.079721335666976742, 0.75429932478202966}",
      "hasCurveFrom": true,
      "hasCurveTo": true,
      "point": "{0.066165619959504332, 0.75722745449380457}"
    },
    {
      "_class": "curvePoint",
      "cornerRadius": 0,
      "curveFrom": "{0.04135351247469167, 0.75141489849878762}",
      "curveMode": 4,
      "curveTo": "{0.045574659391194997, 0.75755523020781035}",
      "hasCurveFrom": false,
      "hasCurveTo": true,
      "point": "{0.04135351247469167, 0.75141489849878762}"
    },
    {
      "_class": "curvePoint",
      "cornerRadius": 0,
      "curveFrom": "{0, 0.79881126674387615}",
      "curveMode": 1,
      "curveTo": "{0, 0.79881126674387615}",
      "hasCurveFrom": false,
      "hasCurveTo": false,
      "point": "{0, 0.79881126674387615}"
    },
    {
      "_class": "curvePoint",
      "cornerRadius": 0,
      "curveFrom": "{0.1504512852191226, 0.85016279527128957}",
      "curveMode": 4,
      "curveTo": "{0.14564672775318394, 0.8503376089854251}",
      "hasCurveFrom": true,
      "hasCurveTo": false,
      "point": "{0.14564672775318394, 0.8503376089854251}"
    },
    {
      "_class": "curvePoint",
      "cornerRadius": 0,
      "curveFrom": "{0.14938741892309301, 0.84701614841684369}",
      "curveMode": 4,
      "curveTo": "{0.15480970520608198, 0.84983501955728391}",
      "hasCurveFrom": true,
      "hasCurveTo": true,
      "point": "{0.15858471464360605, 0.84924502327207563}"
    },
    {
      "_class": "curvePoint",
      "cornerRadius": 0,
      "curveFrom": "{0.14990219293730031, 0.83062736271660553}",
      "curveMode": 4,
      "curveTo": "{0.14108239816054047, 0.83982693442300571}",
      "hasCurveFrom": true,
      "hasCurveTo": true,
      "point": "{0.14413672397817509, 0.83654917728295741}"
    },
    {
      "_class": "curvePoint",
      "cornerRadius": 0,
      "curveFrom": "{0.19815367720237478, 0.84122544413609202}",
      "curveMode": 4,
      "curveTo": "{0.18144068087443058, 0.83473548499879835}",
      "hasCurveFrom": true,
      "hasCurveTo": true,
      "point": "{0.18936820069322993, 0.82957848043179028}"
    },
    {
      "_class": "curvePoint",
      "cornerRadius": 0,
      "curveFrom": "{0.17032156216754249, 0.84887354412953697}",
      "curveMode": 4,
      "curveTo": "{0.18569614605854695, 0.8444813495618726}",
      "hasCurveFrom": true,
      "hasCurveTo": true,
      "point": "{0.17224338515391757, 0.84743133098791656}"
    },
    {
      "_class": "curvePoint",
      "cornerRadius": 0,
      "curveFrom": "{0.16740450942036586, 0.85293796298319557}",
      "curveMode": 4,
      "curveTo": "{0.16812519304025531, 0.84946354041474526}",
      "hasCurveFrom": true,
      "hasCurveTo": true,
      "point": "{0.16579155084251401, 0.8497257609859491}"
    },
    {
      "_class": "curvePoint",
      "cornerRadius": 0,
      "curveFrom": "{0.16541404989876082, 0.85733015755085984}",
      "curveMode": 4,
      "curveTo": "{0.16726723634990981, 0.85547276183816667}",
      "hasCurveFrom": false,
      "hasCurveTo": true,
      "point": "{0.16541404989876082, 0.85733015755085984}"
    },
    {
      "_class": "curvePoint",
      "cornerRadius": 0,
      "curveFrom": "{0.31589965338549841, 0.90350282979699759}",
      "curveMode": 4,
      "curveTo": "{0.3138748755962803, 0.90983982693442345}",
      "hasCurveFrom": true,
      "hasCurveTo": false,
      "point": "{0.3138748755962803, 0.90983982693442345}"
    },
    {
      "_class": "curvePoint",
      "cornerRadius": 0,
      "curveFrom": "{0.34524177219533952, 0.90241024408364812}",
      "curveMode": 2,
      "curveTo": "{0.32952400562819689, 0.89635731923169382}",
      "hasCurveFrom": true,
      "hasCurveTo": true,
      "point": "{0.33498061017879888, 0.89849878722985854}"
    },
    {
      "_class": "curvePoint",
      "cornerRadius": 0,
      "curveFrom": "{0.327876728782732, 0.91477831435876189}",
      "curveMode": 4,
      "curveTo": "{0.33662788702426377, 0.91097611607630591}",
      "hasCurveFrom": false,
      "hasCurveTo": true,
      "point": "{0.327876728782732, 0.91477831435876189}"
    },
    {
      "_class": "curvePoint",
      "cornerRadius": 0,
      "curveFrom": "{0.56879096743196422, 1}",
      "curveMode": 1,
      "curveTo": "{0.56879096743196422, 1}",
      "hasCurveFrom": false,
      "hasCurveTo": false,
      "point": "{0.56879096743196422, 1}"
    },
    {
      "_class": "curvePoint",
      "cornerRadius": 0,
      "curveFrom": "{0.63948659871649705, 0.91289906693180101}",
      "curveMode": 4,
      "curveTo": "{0.6453207042108523, 0.91224351550379079}",
      "hasCurveFrom": true,
      "hasCurveTo": false,
      "point": "{0.6453207042108523, 0.91224351550379079}"
    }
  ],
  "resizingConstraint": 63,
  "resizingType": 0,
  "rotation": 0,
  "shouldBreakMaskChain": false,
  "style": {
    "_class": "style",
    "do_objectID": "17261164-EE4B-4C38-AE9B-F06A6F586FA8",
    "endMarkerType": 0,
    "fills": [
      {
        "_class": "fill",
        "color": {
          "_class": "color",
          "alpha": 1,
          "blue": 0.1764705882352941,
          "green": 0.1764705882352941,
          "red": 0.1764705882352941
        },
        "fillType": 0,
        "isEnabled": true,
        "noiseIndex": 0,
        "noiseIntensity": 0,
        "patternFillType": 1,
        "patternTileScale": 1
      }
    ],
    "miterLimit": 10,
    "startMarkerType": 0,
    "windingRule": 1
  }
}