{
  "_class": "symbolInstance",
  "booleanOperation": 0,
  "clippingMaskMode": 0,
  "do_objectID": "33D267E3-9674-4B3A-AB22-437886938E81",
  "exportOptions": {
    "_class": "exportOptions",
    "do_objectID": "5E6E2560-397E-4AC5-8A64-3C1BEC93390B",
    "exportFormats": [
    ],
    "includedLayerIds": [
    ],
    "layerOptions": 0,
    "shouldTrim": false
  },
  "frame": {
    "_class": "rect",
    "constrainProportions": false,
    "do_objectID": "B5FCFB4F-8E60-4D0E-83A5-2C3A2A94563C",
    "height": 460,
    "width": 1366,
    "x": 0,
    "y": 2590
  },
  "hasClippingMask": false,
  "horizontalSpacing": 0,
  "isFixedToViewport": false,
  "isFlippedHorizontal": false,
  "isFlippedVertical": false,
  "isLocked": false,
  "isVisible": true,
  "layerListExpandedType": 0,
  "name": "Brand Product Carousel",
  "nameIsFixed": false,
  "overrideValues": [
    {
      "_class": "overrideValue",
      "overrideName": "EEDF3B34-E29A-48F9-8E45-9DC2F9F7FB88/AEC5C3B3-89BF-46C8-8D59-F95AC5AF86B7_image",
      "value": {
        "_class": "MSJSONFileReference",
        "_ref": "images/116d8e625d48e6e2a7e41689ddce9057a00dc0fa.png",
        "_ref_class": "MSImageData"
      }
    },
    {
      "_class": "overrideValue",
      "overrideName": "65CFCCA9-67C6-4CA3-93CF-C7FEBDBCA424/AEC5C3B3-89BF-46C8-8D59-F95AC5AF86B7_image",
      "value": {
        "_class": "MSJSONFileReference",
        "_ref": "images/7cbcb306b8eccf073007411682cb33b64c83ec00.png",
        "_ref_class": "MSImageData"
      }
    },
    {
      "_class": "overrideValue",
      "overrideName": "B0723FA6-F06A-46D3-8AE5-16162349E7A7/AEC5C3B3-89BF-46C8-8D59-F95AC5AF86B7_image",
      "value": {
        "_class": "MSJSONFileReference",
        "_ref": "images/1cc018a27cbb0e624ee83e91bee3fa65769e00b3.png",
        "_ref_class": "MSImageData"
      }
    },
    {
      "_class": "overrideValue",
      "overrideName": "E4B33CBA-31A7-417B-B145-01A673325FC9_stringValue",
      "value": "More From Michael Michael Kors"
    },
    {
      "_class": "overrideValue",
      "overrideName": "81172131-17AF-42BC-B3B9-7722FABEDF8F/AEC5C3B3-89BF-46C8-8D59-F95AC5AF86B7_image",
      "value": {
        "_class": "MSJSONFileReference",
        "_ref": "images/7e81a7d67b5c72bc4b2876bf9bfc7041ccdf2443.png",
        "_ref_class": "MSImageData"
      }
    },
    {
      "_class": "overrideValue",
      "overrideName": "C5354B9B-6405-48FA-B4D2-CA09A24945FB_image",
      "value": {
        "_class": "MSJSONFileReference",
        "_ref": "images/b001b490f71c9bf7d22a05e67a9a81dbc1c34060.png",
        "_ref_class": "MSImageData"
      }
    }
  ],
  "resizingConstraint": 63,
  "resizingType": 0,
  "rotation": 0,
  "scale": 1,
  "shouldBreakMaskChain": false,
  "style": {
    "_class": "style",
    "do_objectID": "A58CE637-E820-4117-BCF2-E5E3DA2370E8",
    "endMarkerType": 0,
    "miterLimit": 10,
    "startMarkerType": 0,
    "windingRule": 1
  },
  "symbolID": "69911F81-A5ED-474C-A1E7-684F3E475D33",
  "verticalSpacing": 0
}