{
  "_class": "symbolMaster",
  "allowsOverrides": true,
  "backgroundColor": {
    "_class": "color",
    "alpha": 1,
    "blue": 1,
    "do_objectID": "C1917BDC-E432-4651-8732-0431BC62EC32",
    "green": 1,
    "red": 1
  },
  "booleanOperation": -1,
  "changeIdentifier": 2327,
  "clippingMaskMode": 0,
  "do_objectID": "3E1F1DDE-CC60-48E4-84EE-93E613E9E169",
  "exportOptions": {
    "_class": "exportOptions",
    "do_objectID": "7302CA37-2090-48C1-B1D9-C3C5FA0283BE",
    "exportFormats": [
    ],
    "includedLayerIds": [
    ],
    "layerOptions": 0,
    "shouldTrim": false
  },
  "frame": {
    "_class": "rect",
    "constrainProportions": false,
    "do_objectID": "9E6870B6-29F4-401C-BAA4-DDE93AA66ADD",
    "height": 40,
    "width": 176,
    "x": 9449,
    "y": 90
  },
  "groupLayout": {
    "_class": "MSImmutableFreeformGroupLayout",
    "do_objectID": "C3280C6E-3EB1-43EB-B6E6-ADB6F58F0E82"
  },
  "hasBackgroundColor": false,
  "hasClickThrough": true,
  "hasClippingMask": false,
  "horizontalRulerData": {
    "_class": "rulerData",
    "base": 0,
    "do_objectID": "9C19559A-CAEA-48D4-B6A2-E1295114A6AD",
    "guides": [
    ]
  },
  "includeBackgroundColorInExport": true,
  "includeBackgroundColorInInstance": false,
  "includeInCloudUpload": true,
  "isFixedToViewport": false,
  "isFlippedHorizontal": false,
  "isFlippedVertical": false,
  "isFlowHome": false,
  "isLocked": false,
  "isVisible": true,
  "layerListExpandedType": 2,
  "layers": [
    {
      "class": "symbolInstance",
      "id": "A185143B-5F24-465F-BAEF-624343FCAC47"
    },
    {
      "class": "symbolInstance",
      "id": "9972B692-FA93-451E-B967-408E15914EFF"
    }
  ],
  "name": "button / 03 tertiary / medium / 02 text and icon / 02 hover",
  "nameIsFixed": true,
  "overrideProperties": [
    {
      "_class": "MSImmutableOverrideProperty",
      "canOverride": false,
      "overrideName": "A185143B-5F24-465F-BAEF-624343FCAC47_symbolID"
    },
    {
      "_class": "MSImmutableOverrideProperty",
      "canOverride": false,
      "overrideName": "9972B692-FA93-451E-B967-408E15914EFF/BE723698-E08A-461D-A0D5-CF91951155C8_layerStyle"
    },
    {
      "_class": "MSImmutableOverrideProperty",
      "canOverride": true,
      "overrideName": "9972B692-FA93-451E-B967-408E15914EFF_symbolID"
    },
    {
      "_class": "MSImmutableOverrideProperty",
      "canOverride": true,
      "overrideName": "A185143B-5F24-465F-BAEF-624343FCAC47/C0A0F919-67EE-430C-9AAD-6E96AEF09D8A_stringValue"
    }
  ],
  "resizesContent": true,
  "resizingConstraint": 63,
  "resizingType": 0,
  "rotation": 0,
  "shouldBreakMaskChain": true,
  "style": {
    "_class": "style",
    "do_objectID": "196047E7-E9A4-4864-B50C-D11D05395530",
    "endMarkerType": 0,
    "miterLimit": 10,
    "startMarkerType": 0,
    "windingRule": 1
  },
  "symbolID": "9F355894-D8F4-41A8-B1BA-FA137DE334A7",
  "userInfo": {
    "com.animaapp.stc-sketch-plugin": {
      "kModelPropertiesKey": {
      }
    }
  },
  "verticalRulerData": {
    "_class": "rulerData",
    "base": 0,
    "do_objectID": "01A62D04-BC57-4749-97A2-FF386E5CDEA0",
    "guides": [
    ]
  }
}