{
  "_class": "shapePath",
  "booleanOperation": -1,
  "clippingMaskMode": 0,
  "do_objectID": "D3E9A1A8-FBA6-4F0B-AA2E-74E61775DB04",
  "edited": true,
  "exportOptions": {
    "_class": "exportOptions",
    "do_objectID": "54ABD511-08CE-4843-8D44-084DE96C56E9",
    "exportFormats": [
    ],
    "includedLayerIds": [
    ],
    "layerOptions": 0,
    "shouldTrim": false
  },
  "frame": {
    "_class": "rect",
    "constrainProportions": false,
    "do_objectID": "4C7D4FB4-A40B-4D3E-8CA6-589CD0E1AF36",
    "height": 2,
    "width": 985,
    "x": 0,
    "y": 929.9999999999998
  },
  "hasClippingMask": false,
  "isClosed": false,
  "isFixedToViewport": false,
  "isFlippedHorizontal": false,
  "isFlippedVertical": false,
  "isLocked": false,
  "isVisible": true,
  "layerListExpandedType": 0,
  "name": "divider",
  "nameIsFixed": true,
  "pointRadiusBehaviour": 1,
  "points": [
    {
      "_class": "curvePoint",
      "cornerRadius": 0,
      "curveFrom": "{0, 0.25000000000000044}",
      "curveMode": 1,
      "curveTo": "{0, 0.25000000000000044}",
      "hasCurveFrom": false,
      "hasCurveTo": false,
      "point": "{0, 0.25000000000000044}"
    },
    {
      "_class": "curvePoint",
      "cornerRadius": 0,
      "curveFrom": "{0, 0.25000000000000044}",
      "curveMode": 1,
      "curveTo": "{0, 0.25000000000000044}",
      "hasCurveFrom": false,
      "hasCurveTo": false,
      "point": "{0.99949238578680211, 0.25}"
    }
  ],
  "resizingConstraint": 63,
  "resizingType": 0,
  "rotation": 0,
  "shouldBreakMaskChain": false,
  "style": {
    "_class": "style",
    "borderOptions": {
      "_class": "borderOptions",
      "dashPattern": [
      ],
      "do_objectID": "AEAD4B7E-6773-4733-A636-841E0F5CFEE8",
      "isEnabled": false,
      "lineCapStyle": 2,
      "lineJoinStyle": 0
    },
    "borders": [
      {
        "_class": "border",
        "color": {
          "_class": "color",
          "alpha": 1,
          "blue": 0.8627450980392157,
          "green": 0.8627450980392157,
          "red": 0.8627450980392157
        },
        "fillType": 0,
        "isEnabled": true,
        "position": 0,
        "thickness": 1
      }
    ],
    "do_objectID": "17D415D6-E8E7-405F-8433-C852A1A6F3E3",
    "endMarkerType": 0,
    "fills": [
      {
        "_class": "fill",
        "color": {
          "_class": "color",
          "alpha": 1,
          "blue": 0.847,
          "green": 0.847,
          "red": 0.847
        },
        "fillType": 0,
        "isEnabled": false,
        "noiseIndex": 0,
        "noiseIntensity": 0,
        "patternFillType": 0,
        "patternTileScale": 1
      }
    ],
    "miterLimit": 10,
    "startMarkerType": 0,
    "windingRule": 1
  }
}