{
  "_class": "symbolInstance",
  "booleanOperation": 0,
  "clippingMaskMode": 0,
  "do_objectID": "44788C30-88E8-4C50-93D2-5EE87439410A",
  "exportOptions": {
    "_class": "exportOptions",
    "do_objectID": "BEF5FBFC-A848-428A-9238-AF3D88AD412B",
    "exportFormats": [
    ],
    "includedLayerIds": [
    ],
    "layerOptions": 0,
    "shouldTrim": false
  },
  "frame": {
    "_class": "rect",
    "constrainProportions": false,
    "do_objectID": "0D0AB0CC-5D0C-4F0F-9998-627FA43B3B3B",
    "height": 1000,
    "width": 1366,
    "x": 0,
    "y": 4445.000000000001
  },
  "hasClippingMask": false,
  "horizontalSpacing": 0,
  "isFixedToViewport": false,
  "isFlippedHorizontal": false,
  "isFlippedVertical": false,
  "isLocked": false,
  "isVisible": true,
  "layerListExpandedType": 0,
  "name": "Footer",
  "nameIsFixed": false,
  "overrideValues": [
  ],
  "resizingConstraint": 63,
  "resizingType": 0,
  "rotation": 0,
  "scale": 1,
  "shouldBreakMaskChain": false,
  "style": {
    "_class": "style",
    "do_objectID": "81083285-889E-4117-9A0A-7C75E6DB19DD",
    "endMarkerType": 0,
    "miterLimit": 10,
    "startMarkerType": 0,
    "windingRule": 1
  },
  "symbolID": "C5E036E9-5D86-492E-938C-D5EB71A9D902",
  "verticalSpacing": 0
}