{
  "_class": "symbolMaster",
  "allowsOverrides": true,
  "backgroundColor": {
    "_class": "color",
    "alpha": 1,
    "blue": 1,
    "green": 1,
    "red": 1
  },
  "booleanOperation": -1,
  "changeIdentifier": 3067,
  "clippingMaskMode": 0,
  "do_objectID": "43DBF244-974A-4DFD-8E61-CE9286D4317F",
  "exportOptions": {
    "_class": "exportOptions",
    "exportFormats": [
    ],
    "includedLayerIds": [
    ],
    "layerOptions": 0,
    "shouldTrim": false
  },
  "frame": {
    "_class": "rect",
    "constrainProportions": false,
    "height": 48,
    "width": 1312,
    "x": 96538,
    "y": 490
  },
  "groupLayout": {
    "_class": "MSImmutableFreeformGroupLayout"
  },
  "hasBackgroundColor": false,
  "hasClickThrough": true,
  "hasClippingMask": false,
  "horizontalRulerData": {
    "_class": "rulerData",
    "base": 0,
    "guides": [
    ]
  },
  "includeBackgroundColorInExport": true,
  "includeBackgroundColorInInstance": false,
  "includeInCloudUpload": true,
  "isFixedToViewport": false,
  "isFlippedHorizontal": false,
  "isFlippedVertical": false,
  "isFlowHome": false,
  "isLocked": false,
  "isVisible": true,
  "layerListExpandedType": 2,
  "layers": [
    {
      "class": "rectangle",
      "id": "BFC35D56-3EBB-4834-90EB-E1D445E29434"
    },
    {
      "class": "rectangle",
      "id": "E978C71F-64EB-46BC-B877-CDC864EB4E1D"
    },
    {
      "class": "text",
      "id": "F1C2F46A-3283-497B-9E18-A39D79868B98"
    },
    {
      "class": "text",
      "id": "EAC74BA5-34EC-488B-967D-0608F91E146F"
    },
    {
      "class": "text",
      "id": "6F72F269-D11A-4D05-84E0-9142622944FF"
    },
    {
      "class": "text",
      "id": "7136021F-0B98-48F9-AD6E-4CA5155C134C"
    },
    {
      "class": "text",
      "id": "1599412F-86AE-4A05-B537-5CDA746660FD"
    },
    {
      "class": "text",
      "id": "26F770E4-E8E6-4D95-A6C5-2038B57F3493"
    },
    {
      "class": "text",
      "id": "91BEAC5E-E3DA-4484-9406-1FCDDD79543E"
    },
    {
      "class": "text",
      "id": "19721AED-1DB9-4897-AD17-3EEE9333B18F"
    },
    {
      "class": "text",
      "id": "902DD3E1-A156-4532-AA31-E3FFCCFA302B"
    },
    {
      "class": "text",
      "id": "DC543EC5-9186-44B7-AC38-13D384BCB8B2"
    },
    {
      "class": "text",
      "id": "955DC18B-6F92-4F0A-B1E8-E4EBF9A50A42"
    },
    {
      "class": "text",
      "id": "01146CB3-9C43-41D0-9634-16AF9B93C1C6"
    },
    {
      "class": "rectangle",
      "id": "DC562913-72AB-4D9F-B5C5-8BE0EB78BF10"
    },
    {
      "class": "text",
      "id": "DF9BE0AA-3B5A-4560-A63D-6B06986615FA"
    },
    {
      "class": "text",
      "id": "ED695BEA-1BA6-4121-BD10-8DC8120B0F9B"
    },
    {
      "class": "text",
      "id": "739B4A2B-A898-408A-89D0-FC2975B982C0"
    },
    {
      "class": "symbolInstance",
      "id": "4E88A2D5-0375-428F-9704-191163F6A22B"
    }
  ],
  "name": "ui shell / header / configuration / base + menu + navigation",
  "nameIsFixed": true,
  "overrideProperties": [
    {
      "_class": "MSImmutableOverrideProperty",
      "canOverride": false,
      "overrideName": "DC543EC5-9186-44B7-AC38-13D384BCB8B2_stringValue"
    },
    {
      "_class": "MSImmutableOverrideProperty",
      "canOverride": false,
      "overrideName": "E978C71F-64EB-46BC-B877-CDC864EB4E1D_layerStyle"
    },
    {
      "_class": "MSImmutableOverrideProperty",
      "canOverride": true,
      "overrideName": "ED695BEA-1BA6-4121-BD10-8DC8120B0F9B_stringValue"
    },
    {
      "_class": "MSImmutableOverrideProperty",
      "canOverride": false,
      "overrideName": "955DC18B-6F92-4F0A-B1E8-E4EBF9A50A42_textStyle"
    },
    {
      "_class": "MSImmutableOverrideProperty",
      "canOverride": true,
      "overrideName": "4E88A2D5-0375-428F-9704-191163F6A22B_symbolID"
    },
    {
      "_class": "MSImmutableOverrideProperty",
      "canOverride": false,
      "overrideName": "7136021F-0B98-48F9-AD6E-4CA5155C134C_stringValue"
    },
    {
      "_class": "MSImmutableOverrideProperty",
      "canOverride": true,
      "overrideName": "91BEAC5E-E3DA-4484-9406-1FCDDD79543E_stringValue"
    },
    {
      "_class": "MSImmutableOverrideProperty",
      "canOverride": false,
      "overrideName": "01146CB3-9C43-41D0-9634-16AF9B93C1C6_stringValue"
    },
    {
      "_class": "MSImmutableOverrideProperty",
      "canOverride": false,
      "overrideName": "1599412F-86AE-4A05-B537-5CDA746660FD_textStyle"
    },
    {
      "_class": "MSImmutableOverrideProperty",
      "canOverride": false,
      "overrideName": "739B4A2B-A898-408A-89D0-FC2975B982C0_stringValue"
    },
    {
      "_class": "MSImmutableOverrideProperty",
      "canOverride": false,
      "overrideName": "26F770E4-E8E6-4D95-A6C5-2038B57F3493_stringValue"
    },
    {
      "_class": "MSImmutableOverrideProperty",
      "canOverride": false,
      "overrideName": "902DD3E1-A156-4532-AA31-E3FFCCFA302B_textStyle"
    },
    {
      "_class": "MSImmutableOverrideProperty",
      "canOverride": true,
      "overrideName": "902DD3E1-A156-4532-AA31-E3FFCCFA302B_stringValue"
    },
    {
      "_class": "MSImmutableOverrideProperty",
      "canOverride": false,
      "overrideName": "6F72F269-D11A-4D05-84E0-9142622944FF_textStyle"
    },
    {
      "_class": "MSImmutableOverrideProperty",
      "canOverride": false,
      "overrideName": "19721AED-1DB9-4897-AD17-3EEE9333B18F_stringValue"
    },
    {
      "_class": "MSImmutableOverrideProperty",
      "canOverride": true,
      "overrideName": "1599412F-86AE-4A05-B537-5CDA746660FD_stringValue"
    },
    {
      "_class": "MSImmutableOverrideProperty",
      "canOverride": true,
      "overrideName": "955DC18B-6F92-4F0A-B1E8-E4EBF9A50A42_stringValue"
    },
    {
      "_class": "MSImmutableOverrideProperty",
      "canOverride": true,
      "overrideName": "6F72F269-D11A-4D05-84E0-9142622944FF_stringValue"
    },
    {
      "_class": "MSImmutableOverrideProperty",
      "canOverride": false,
      "overrideName": "F1C2F46A-3283-497B-9E18-A39D79868B98_textStyle"
    },
    {
      "_class": "MSImmutableOverrideProperty",
      "canOverride": false,
      "overrideName": "4E88A2D5-0375-428F-9704-191163F6A22B/E5400C10-65AF-401A-9284-5C5C458A9BCA/74270E34-AC69-4B87-A62C-032A65257DDE_layerStyle"
    },
    {
      "_class": "MSImmutableOverrideProperty",
      "canOverride": false,
      "overrideName": "91BEAC5E-E3DA-4484-9406-1FCDDD79543E_textStyle"
    },
    {
      "_class": "MSImmutableOverrideProperty",
      "canOverride": false,
      "overrideName": "EAC74BA5-34EC-488B-967D-0608F91E146F_stringValue"
    },
    {
      "_class": "MSImmutableOverrideProperty",
      "canOverride": false,
      "overrideName": "BFC35D56-3EBB-4834-90EB-E1D445E29434_layerStyle"
    },
    {
      "_class": "MSImmutableOverrideProperty",
      "canOverride": true,
      "overrideName": "F1C2F46A-3283-497B-9E18-A39D79868B98_stringValue"
    },
    {
      "_class": "MSImmutableOverrideProperty",
      "canOverride": false,
      "overrideName": "DF9BE0AA-3B5A-4560-A63D-6B06986615FA_stringValue"
    }
  ],
  "resizesContent": true,
  "resizingConstraint": 63,
  "resizingType": 0,
  "rotation": 0,
  "shouldBreakMaskChain": true,
  "style": {
    "_class": "style",
    "endMarkerType": 0,
    "miterLimit": 10,
    "startMarkerType": 0,
    "windingRule": 1
  },
  "symbolID": "B4BBB886-8D8A-4ACE-8499-44D133ABB6C1",
  "verticalRulerData": {
    "_class": "rulerData",
    "base": 0,
    "guides": [
    ]
  }
}