{
  "_class": "shapePath",
  "booleanOperation": -1,
  "clippingMaskMode": 0,
  "do_objectID": "FB9B4939-5767-4B7E-B570-7D2A0E094CB1",
  "edited": true,
  "exportOptions": {
    "_class": "exportOptions",
    "exportFormats": [
    ],
    "includedLayerIds": [
    ],
    "layerOptions": 0,
    "shouldTrim": false
  },
  "frame": {
    "_class": "rect",
    "constrainProportions": false,
    "height": 5.044555660000001,
    "width": 4.019165000000001,
    "x": 57.08953870000001,
    "y": 2.09655762
  },
  "hasClippingMask": false,
  "isClosed": true,
  "isFixedToViewport": false,
  "isFlippedHorizontal": false,
  "isFlippedVertical": false,
  "isLocked": false,
  "isVisible": true,
  "layerListExpandedType": 0,
  "name": "Download-on-path",
  "nameIsFixed": false,
  "pointRadiusBehaviour": 1,
  "points": [
    {
      "_class": "curvePoint",
      "cornerRadius": 0,
      "curveFrom": "{0.20045556726334771, 0.018148825421028417}",
      "curveMode": 1,
      "curveTo": "{0.20045556726334771, 0.018148825421028417}",
      "hasCurveFrom": false,
      "hasCurveTo": false,
      "point": "{0.20045556726334771, 0.018148825421028417}"
    },
    {
      "_class": "curvePoint",
      "cornerRadius": 0,
      "curveFrom": "{0.25740346564522809, 0.11221994525480171}",
      "curveMode": 4,
      "curveTo": "{0.21640091909637785, 0.16424682684539957}",
      "hasCurveFrom": true,
      "hasCurveTo": false,
      "point": "{0.21640091909637785, 0.16424682684539957}"
    },
    {
      "_class": "curvePoint",
      "cornerRadius": 0,
      "curveFrom": "{0.43261224657360231, 0.014367679709574343}",
      "curveMode": 2,
      "curveTo": "{0.3088454940267425, 0.071839223199293603}",
      "hasCurveFrom": true,
      "hasCurveTo": true,
      "point": "{0.37072899470412346, 0.043103451454434151}"
    },
    {
      "_class": "curvePoint",
      "cornerRadius": 0,
      "curveFrom": "{0.71488306650759503, 0}",
      "curveMode": 3,
      "curveTo": "{0.50303682481311429, 0}",
      "hasCurveFrom": true,
      "hasCurveTo": true,
      "point": "{0.58200471988584734, 0}"
    },
    {
      "_class": "curvePoint",
      "cornerRadius": 0,
      "curveFrom": "{0.96355387250834357, 0.15502147517190859}",
      "curveMode": 2,
      "curveTo": "{0.81776737207852601, 0.031003931870582296}",
      "hasCurveFrom": true,
      "hasCurveTo": true,
      "point": "{0.89066062229343657, 0.093012703521245257}"
    },
    {
      "_class": "curvePoint",
      "cornerRadius": 0,
      "curveFrom": "{1, 0.38021778116330657}",
      "curveMode": 4,
      "curveTo": "{1, 0.25075555613950745}",
      "hasCurveFrom": false,
      "hasCurveTo": true,
      "point": "{1, 0.38021778116330657}"
    },
    {
      "_class": "curvePoint",
      "cornerRadius": 0,
      "curveFrom": "{1, 1}",
      "curveMode": 1,
      "curveTo": "{1, 1}",
      "hasCurveFrom": false,
      "hasCurveTo": false,
      "point": "{1, 1}"
    },
    {
      "_class": "curvePoint",
      "cornerRadius": 0,
      "curveFrom": "{0.77562652939105281, 1}",
      "curveMode": 1,
      "curveTo": "{0.77562652939105281, 1}",
      "hasCurveFrom": false,
      "hasCurveTo": false,
      "point": "{0.77562652939105281, 1}"
    },
    {
      "_class": "curvePoint",
      "cornerRadius": 0,
      "curveFrom": "{0.77562652939105281, 0.29733773618428083}",
      "curveMode": 4,
      "curveTo": "{0.77562652939105281, 0.38384755576272117}",
      "hasCurveFrom": true,
      "hasCurveTo": false,
      "point": "{0.77562652939105281, 0.38384755576272117}"
    },
    {
      "_class": "curvePoint",
      "cornerRadius": 0,
      "curveFrom": "{0.66837489876628442, 0.16333919487370668}",
      "curveMode": 2,
      "curveTo": "{0.7541763027892614, 0.235934845448806}",
      "hasCurveFrom": true,
      "hasCurveTo": true,
      "point": "{0.71127560077777285, 0.19963702016125634}"
    },
    {
      "_class": "curvePoint",
      "cornerRadius": 0,
      "curveFrom": "{0.45026541582642177, 0.14519055975685288}",
      "curveMode": 3,
      "curveTo": "{0.6028859228222766, 0.14519055975685288}",
      "hasCurveFrom": true,
      "hasCurveTo": true,
      "point": "{0.51480643367465562, 0.14519055975685288}"
    },
    {
      "_class": "curvePoint",
      "cornerRadius": 0,
      "curveFrom": "{0.29365950390193057, 0.20719915299735239}",
      "curveMode": 2,
      "curveTo": "{0.3931286722490871, 0.15759212774748155}",
      "hasCurveFrom": true,
      "hasCurveTo": true,
      "point": "{0.34339421247945634, 0.18239564037241679}"
    },
    {
      "_class": "curvePoint",
      "cornerRadius": 0,
      "curveFrom": "{0.2243737194168422, 0.28402903180574685}",
      "curveMode": 4,
      "curveTo": "{0.25398658676615693, 0.24107660653703644}",
      "hasCurveFrom": false,
      "hasCurveTo": true,
      "point": "{0.2243737194168422, 0.28402903180574685}"
    },
    {
      "_class": "curvePoint",
      "cornerRadius": 0,
      "curveFrom": "{0.2243737194168422, 1}",
      "curveMode": 1,
      "curveTo": "{0.2243737194168422, 1}",
      "hasCurveFrom": false,
      "hasCurveTo": false,
      "point": "{0.2243737194168422, 1}"
    },
    {
      "_class": "curvePoint",
      "cornerRadius": 0,
      "curveFrom": "{0, 1}",
      "curveMode": 1,
      "curveTo": "{0, 1}",
      "hasCurveFrom": false,
      "hasCurveTo": false,
      "point": "{0, 1}"
    },
    {
      "_class": "curvePoint",
      "cornerRadius": 0,
      "curveFrom": "{0, 0.018148825421028417}",
      "curveMode": 1,
      "curveTo": "{0, 0.018148825421028417}",
      "hasCurveFrom": false,
      "hasCurveTo": false,
      "point": "{0, 0.018148825421028417}"
    }
  ],
  "resizingConstraint": 63,
  "resizingType": 0,
  "rotation": 0,
  "shouldBreakMaskChain": false,
  "style": {
    "_class": "style",
    "endMarkerType": 0,
    "fills": [
      {
        "_class": "fill",
        "color": {
          "_class": "color",
          "alpha": 1,
          "blue": 1,
          "green": 1,
          "red": 1
        },
        "fillType": 0,
        "isEnabled": true,
        "noiseIndex": 0,
        "noiseIntensity": 0,
        "patternFillType": 1,
        "patternTileScale": 1
      }
    ],
    "miterLimit": 10,
    "startMarkerType": 0,
    "windingRule": 0
  }
}