{
  "_class": "symbolInstance",
  "booleanOperation": -1,
  "clippingMaskMode": 0,
  "do_objectID": "FCB06915-0F39-44F2-B76B-A13C21471020",
  "exportOptions": {
    "_class": "exportOptions",
    "do_objectID": "620FB365-F8AC-4779-A488-0AC5996B60D7",
    "exportFormats": [
    ],
    "includedLayerIds": [
    ],
    "layerOptions": 0,
    "shouldTrim": false
  },
  "frame": {
    "_class": "rect",
    "constrainProportions": false,
    "do_objectID": "46E3EEB9-FE42-4AE4-86FE-05D0AB6D4F3D",
    "height": 40,
    "width": 226,
    "x": 0,
    "y": 492
  },
  "hasClippingMask": false,
  "horizontalSpacing": 0,
  "isFixedToViewport": false,
  "isFlippedHorizontal": false,
  "isFlippedVertical": false,
  "isLocked": false,
  "isVisible": true,
  "layerListExpandedType": 0,
  "name": "component / dropdown / no label / multi-select / closed / 04 selected",
  "nameIsFixed": false,
  "overrideValues": [
  ],
  "resizingConstraint": 63,
  "resizingType": 0,
  "rotation": 0,
  "scale": 1,
  "shouldBreakMaskChain": false,
  "style": {
    "_class": "style",
    "do_objectID": "87C93EC2-8437-499B-B098-9F275162E1BA",
    "endMarkerType": 0,
    "miterLimit": 10,
    "startMarkerType": 0,
    "windingRule": 1
  },
  "symbolID": "A9D5CB7F-0885-4DB2-A245-B21ADA5B0B84",
  "verticalSpacing": 0
}