{
  "_class": "symbolInstance",
  "booleanOperation": -1,
  "clippingMaskMode": 0,
  "do_objectID": "7BA0B40B-F629-44BA-B351-D76BD1C54C6C",
  "exportOptions": {
    "_class": "exportOptions",
    "do_objectID": "3006CE49-877F-40C3-972B-86223EA1C613",
    "exportFormats": [
    ],
    "includedLayerIds": [
    ],
    "layerOptions": 0,
    "shouldTrim": false
  },
  "frame": {
    "_class": "rect",
    "constrainProportions": false,
    "do_objectID": "8BA547CA-285F-43F6-9271-871BA81A4D39",
    "height": 16,
    "width": 16,
    "x": 8,
    "y": 8
  },
  "hasClippingMask": false,
  "horizontalSpacing": 0,
  "isFixedToViewport": false,
  "isFlippedHorizontal": false,
  "isFlippedVertical": false,
  "isLocked": false,
  "isVisible": true,
  "layerListExpandedType": 0,
  "name": "Icon",
  "nameIsFixed": true,
  "overrideValues": [
    {
      "_class": "overrideValue",
      "do_objectID": "510992A7-7D31-4B16-807C-1608F920764F",
      "overrideName": "BE723698-E08A-461D-A0D5-CF91951155C8_layerStyle",
      "value": "A7E8A898-757B-4128-B3CE-E8002E0B16DA"
    }
  ],
  "resizingConstraint": 9,
  "resizingType": 0,
  "rotation": 0,
  "scale": 1,
  "shouldBreakMaskChain": false,
  "style": {
    "_class": "style",
    "do_objectID": "C036BA3A-B7B9-4F1C-896D-909E82F52009",
    "endMarkerType": 0,
    "miterLimit": 10,
    "startMarkerType": 0,
    "windingRule": 1
  },
  "symbolID": "F2F8A963-BA8C-46DF-A551-3D51C49206A3",
  "verticalSpacing": 0
}