{
  "_class": "group",
  "booleanOperation": 0,
  "clippingMaskMode": 0,
  "do_objectID": "2158D060-A99E-40A1-ADCB-1A2F7CBBE1C0",
  "exportOptions": {
    "_class": "exportOptions",
    "do_objectID": "FBA3F847-AC68-4006-91F6-C5EF72592418",
    "exportFormats": [
    ],
    "includedLayerIds": [
    ],
    "layerOptions": 0,
    "shouldTrim": false
  },
  "frame": {
    "_class": "rect",
    "constrainProportions": false,
    "do_objectID": "10108623-CF51-4868-B130-300A5D986F54",
    "height": 540,
    "width": 430,
    "x": 468,
    "y": 219
  },
  "groupLayout": {
    "_class": "MSImmutableFreeformGroupLayout",
    "do_objectID": "F9EE66A2-4DB0-4B9B-A39E-208166812CB3"
  },
  "hasClickThrough": false,
  "hasClippingMask": false,
  "isFixedToViewport": false,
  "isFlippedHorizontal": false,
  "isFlippedVertical": false,
  "isLocked": false,
  "isVisible": true,
  "layerListExpandedType": 0,
  "layers": [
    {
      "class": "group",
      "id": "5FF81446-DC36-4C9A-BB20-72F51344288D"
    }
  ],
  "name": "Group 6",
  "nameIsFixed": false,
  "resizingConstraint": 63,
  "resizingType": 0,
  "rotation": 0,
  "shouldBreakMaskChain": false,
  "style": {
    "_class": "style",
    "do_objectID": "24BC9412-CB6D-4893-B7C3-8829F56A90F0",
    "endMarkerType": 0,
    "miterLimit": 10,
    "startMarkerType": 0,
    "windingRule": 1
  }
}