{
  "_class": "shapePath",
  "booleanOperation": -1,
  "clippingMaskMode": 0,
  "do_objectID": "00740327-6C8C-430B-A060-DBAED6B28017",
  "edited": true,
  "exportOptions": {
    "_class": "exportOptions",
    "exportFormats": [
    ],
    "includedLayerIds": [
    ],
    "layerOptions": 0,
    "shouldTrim": false
  },
  "frame": {
    "_class": "rect",
    "constrainProportions": false,
    "height": 22.45260273972603,
    "width": 22.45260273972603,
    "x": 0,
    "y": 0
  },
  "hasClippingMask": false,
  "isClosed": true,
  "isFixedToViewport": false,
  "isFlippedHorizontal": false,
  "isFlippedVertical": false,
  "isLocked": false,
  "isVisible": true,
  "layerListExpandedType": 0,
  "name": "Path",
  "nameIsFixed": false,
  "pointRadiusBehaviour": 1,
  "points": [
    {
      "_class": "curvePoint",
      "cornerRadius": 0,
      "curveFrom": "{0.80670392424834059, 0}",
      "curveMode": 4,
      "curveTo": "{0.91329070675517388, 0}",
      "hasCurveFrom": false,
      "hasCurveTo": true,
      "point": "{0.80670392424834059, 0}"
    },
    {
      "_class": "curvePoint",
      "cornerRadius": 0,
      "curveFrom": "{0.086648281921124545, 0}",
      "curveMode": 4,
      "curveTo": "{0.19323506442795782, 0}",
      "hasCurveFrom": true,
      "hasCurveTo": false,
      "point": "{0.19323506442795782, 0}"
    },
    {
      "_class": "curvePoint",
      "cornerRadius": 0,
      "curveFrom": "{0, 0.19323506442795782}",
      "curveMode": 4,
      "curveTo": "{0, 0.086703192112456071}",
      "hasCurveFrom": false,
      "hasCurveTo": true,
      "point": "{0, 0.19323506442795782}"
    },
    {
      "_class": "curvePoint",
      "cornerRadius": 0,
      "curveFrom": "{0, 0.9133517180788755}",
      "curveMode": 4,
      "curveTo": "{0, 0.80676493557204221}",
      "hasCurveFrom": true,
      "hasCurveTo": false,
      "point": "{0, 0.80676493557204221}"
    },
    {
      "_class": "curvePoint",
      "cornerRadius": 0,
      "curveFrom": "{0.19323506442795782, 1}",
      "curveMode": 4,
      "curveTo": "{0.086703192112456071, 1}",
      "hasCurveFrom": false,
      "hasCurveTo": true,
      "point": "{0.19323506442795782, 1}"
    },
    {
      "_class": "curvePoint",
      "cornerRadius": 0,
      "curveFrom": "{0.9133517180788755, 1}",
      "curveMode": 4,
      "curveTo": "{0.80676493557204221, 1}",
      "hasCurveFrom": true,
      "hasCurveTo": false,
      "point": "{0.80676493557204221, 1}"
    },
    {
      "_class": "curvePoint",
      "cornerRadius": 0,
      "curveFrom": "{1, 0.80676493557204221}",
      "curveMode": 4,
      "curveTo": "{1, 0.91329680788754386}",
      "hasCurveFrom": false,
      "hasCurveTo": true,
      "point": "{1, 0.80676493557204221}"
    },
    {
      "_class": "curvePoint",
      "cornerRadius": 0,
      "curveFrom": "{0.99999389886762979, 0.086703192112456071}",
      "curveMode": 4,
      "curveTo": "{1, 0.19323506442795782}",
      "hasCurveFrom": true,
      "hasCurveTo": false,
      "point": "{1, 0.19323506442795782}"
    }
  ],
  "resizingConstraint": 63,
  "resizingType": 0,
  "rotation": 0,
  "shouldBreakMaskChain": false,
  "style": {
    "_class": "style",
    "endMarkerType": 0,
    "fills": [
      {
        "_class": "fill",
        "color": {
          "_class": "color",
          "alpha": 1,
          "blue": 1,
          "green": 1,
          "red": 1
        },
        "fillType": 0,
        "isEnabled": true,
        "noiseIndex": 0,
        "noiseIntensity": 0,
        "patternFillType": 1,
        "patternTileScale": 1
      }
    ],
    "miterLimit": 10,
    "startMarkerType": 0,
    "windingRule": 0
  }
}