{
  "_class": "group",
  "booleanOperation": -1,
  "clippingMaskMode": 0,
  "do_objectID": "2BF601A0-13D6-48D0-A322-9B82AD198E63",
  "exportOptions": {
    "_class": "exportOptions",
    "do_objectID": "848C2C31-EEB0-43ED-8F0D-30F3C47D4BB3",
    "exportFormats": [
    ],
    "includedLayerIds": [
    ],
    "layerOptions": 0,
    "shouldTrim": false
  },
  "frame": {
    "_class": "rect",
    "constrainProportions": false,
    "do_objectID": "2E890FB3-304F-46EA-97FF-3CC66CE891F4",
    "height": 103,
    "width": 320,
    "x": 0,
    "y": 0
  },
  "groupLayout": {
    "_class": "MSImmutableFreeformGroupLayout",
    "do_objectID": "7C2BDB33-1F47-45E5-8879-1E0AC386312E"
  },
  "hasClickThrough": false,
  "hasClippingMask": false,
  "isFixedToViewport": false,
  "isFlippedHorizontal": false,
  "isFlippedVertical": false,
  "isLocked": false,
  "isVisible": true,
  "layerListExpandedType": 0,
  "layers": [
    {
      "class": "rectangle",
      "id": "23482704-51DD-417F-94D2-B618C8849685"
    },
    {
      "class": "group",
      "id": "DFEFEFB1-788D-4D90-B56E-B2FD733AD18A"
    }
  ],
  "name": "token",
  "nameIsFixed": true,
  "resizingConstraint": 63,
  "resizingType": 0,
  "rotation": 0,
  "shouldBreakMaskChain": false,
  "style": {
    "_class": "style",
    "blur": {
      "_class": "blur",
      "center": "{0.5, 0.5}",
      "do_objectID": "5F09D58F-938E-473E-B436-7EF7ABD7BCE5",
      "isEnabled": false,
      "motionAngle": 0,
      "radius": 7.999999523162842,
      "saturation": 1,
      "type": 0
    },
    "borders": [
      {
        "_class": "border",
        "color": {
          "_class": "color",
          "alpha": 1,
          "blue": 0.8352941176,
          "green": 0.7921568627,
          "red": 0.7294117647
        },
        "fillType": 0,
        "isEnabled": false,
        "position": 1,
        "thickness": 0.7999999523162842
      }
    ],
    "do_objectID": "39B8D87D-1066-4A8B-BDFD-6082E8D60B57",
    "endMarkerType": 0,
    "fills": [
      {
        "_class": "fill",
        "color": {
          "_class": "color",
          "alpha": 1,
          "blue": 1,
          "green": 1,
          "red": 1
        },
        "fillType": 0,
        "isEnabled": true,
        "noiseIndex": 0,
        "noiseIntensity": 0,
        "patternFillType": 0,
        "patternTileScale": 1
      }
    ],
    "miterLimit": 10,
    "startMarkerType": 0,
    "windingRule": 1
  }
}