{
  "_class": "symbolInstance",
  "booleanOperation": -1,
  "clippingMaskMode": 0,
  "do_objectID": "D417CED5-AFB0-460C-8524-E8349542EFDA",
  "exportOptions": {
    "_class": "exportOptions",
    "do_objectID": "39EE947D-75AA-48B6-A221-6CFECA442346",
    "exportFormats": [
    ],
    "includedLayerIds": [
    ],
    "layerOptions": 0,
    "shouldTrim": false
  },
  "frame": {
    "_class": "rect",
    "constrainProportions": false,
    "do_objectID": "74FCC987-82CD-48D6-8523-9884D2561CC3",
    "height": 24,
    "width": 1024,
    "x": 0,
    "y": 395
  },
  "hasClippingMask": false,
  "horizontalSpacing": 0,
  "isFixedToViewport": false,
  "isFlippedHorizontal": false,
  "isFlippedVertical": false,
  "isLocked": false,
  "isVisible": true,
  "layerListExpandedType": 0,
  "name": "row 5",
  "nameIsFixed": true,
  "overrideValues": [
  ],
  "resizingConstraint": 63,
  "resizingType": 0,
  "rotation": 0,
  "scale": 1,
  "shouldBreakMaskChain": false,
  "style": {
    "_class": "style",
    "do_objectID": "A2BC8DE0-E47C-4A3F-910A-C4F174543309",
    "endMarkerType": 0,
    "miterLimit": 10,
    "startMarkerType": 0,
    "windingRule": 1
  },
  "symbolID": "0666EAAB-10EB-4D8B-BA11-1F9D574D8889",
  "verticalSpacing": 0
}