{
  "_class": "shapePath",
  "booleanOperation": -1,
  "clippingMaskMode": 0,
  "do_objectID": "029BD33B-4ED4-4C91-B7FB-393CDC440BC6",
  "edited": true,
  "exportOptions": {
    "_class": "exportOptions",
    "do_objectID": "4AE804C9-D28D-4F43-9239-881A24C89156",
    "exportFormats": [
    ],
    "includedLayerIds": [
    ],
    "layerOptions": 0,
    "shouldTrim": false
  },
  "frame": {
    "_class": "rect",
    "constrainProportions": false,
    "do_objectID": "8AA2222C-5D23-4A9B-83A8-C40755AA4EF0",
    "height": 0.105890603085566,
    "width": 0.1154214642575386,
    "x": 6.956988984043712,
    "y": 21.18800648619101
  },
  "hasClippingMask": false,
  "isClosed": true,
  "isFixedToViewport": false,
  "isFlippedHorizontal": false,
  "isFlippedVertical": false,
  "isLocked": false,
  "isVisible": true,
  "layerListExpandedType": 0,
  "name": "Path",
  "nameIsFixed": false,
  "pointRadiusBehaviour": 0,
  "points": [
    {
      "_class": "curvePoint",
      "cornerRadius": 0,
      "curveFrom": "{0.13035525440589826, 0.048999999999978172}",
      "curveMode": 3,
      "curveTo": "{-0.083435429809970846, 0.54599999999999227}",
      "hasCurveFrom": true,
      "hasCurveTo": true,
      "point": "{0.013614288682762238, 0.31799999999998363}"
    },
    {
      "_class": "curvePoint",
      "cornerRadius": 0,
      "curveFrom": "{1.1198404277339513, 0.53199999999998226}",
      "curveMode": 4,
      "curveTo": "{0.77735337769076218, 0.23500000000001364}",
      "hasCurveFrom": true,
      "hasCurveTo": true,
      "point": "{0.93980616734163147, 0}"
    },
    {
      "_class": "curvePoint",
      "cornerRadius": 0,
      "curveFrom": "{0.36243066819285868, 1.2039999999999509}",
      "curveMode": 4,
      "curveTo": "{0.86455747256828375, 0.68500000000000227}",
      "hasCurveFrom": true,
      "hasCurveTo": true,
      "point": "{0.58888001134256251, 0.81899999999995998}"
    }
  ],
  "resizingConstraint": 63,
  "resizingType": 0,
  "rotation": 0,
  "shouldBreakMaskChain": false,
  "style": {
    "_class": "style",
    "do_objectID": "CD9483E6-DE93-4D66-BEA9-97C5F2C3244A",
    "endMarkerType": 0,
    "fills": [
      {
        "_class": "fill",
        "color": {
          "_class": "color",
          "alpha": 1,
          "blue": 0.1764705882352941,
          "green": 0.1764705882352941,
          "red": 0.1764705882352941
        },
        "fillType": 0,
        "isEnabled": true,
        "noiseIndex": 0,
        "noiseIntensity": 0,
        "patternFillType": 1,
        "patternTileScale": 1
      }
    ],
    "miterLimit": 10,
    "startMarkerType": 0,
    "windingRule": 1
  }
}