{
  "_class": "shapePath",
  "booleanOperation": -1,
  "clippingMaskMode": 0,
  "do_objectID": "077C4AD3-D084-4823-B1E6-59F880568855",
  "edited": true,
  "exportOptions": {
    "_class": "exportOptions",
    "do_objectID": "21C6B5D3-5F70-47C6-8991-AC8539F0E046",
    "exportFormats": [
    ],
    "includedLayerIds": [
    ],
    "layerOptions": 0,
    "shouldTrim": false
  },
  "frame": {
    "_class": "rect",
    "constrainProportions": false,
    "do_objectID": "F067F506-E520-40C4-9543-1DA0A5495A39",
    "height": 0.1058906030855589,
    "width": 0.1059863482545502,
    "x": 25.41562125187147,
    "y": 22.79662842852104
  },
  "hasClippingMask": false,
  "isClosed": true,
  "isFixedToViewport": false,
  "isFlippedHorizontal": false,
  "isFlippedVertical": false,
  "isLocked": false,
  "isVisible": true,
  "layerListExpandedType": 0,
  "name": "Path",
  "nameIsFixed": false,
  "pointRadiusBehaviour": 0,
  "points": [
    {
      "_class": "curvePoint",
      "cornerRadius": 0,
      "curveFrom": "{0.94054465325098136, 0.24642829476783845}",
      "curveMode": 4,
      "curveTo": "{0.36354465325098317, -0.10857170523217974}",
      "hasCurveFrom": true,
      "hasCurveTo": true,
      "point": "{0.56254465325093861, 0.016428294767820262}"
    },
    {
      "_class": "curvePoint",
      "cornerRadius": 0,
      "curveFrom": "{-0.25745534674905457, 0.51342829476783436}",
      "curveMode": 3,
      "curveTo": "{0.32054465325097681, 0.86542829476786665}",
      "hasCurveFrom": true,
      "hasCurveTo": true,
      "point": "{0.11854465325097863, 0.74342829476779571}"
    }
  ],
  "resizingConstraint": 63,
  "resizingType": 0,
  "rotation": 0,
  "shouldBreakMaskChain": false,
  "style": {
    "_class": "style",
    "do_objectID": "F6873EE3-DA83-4796-935B-41339EA101AD",
    "endMarkerType": 0,
    "fills": [
      {
        "_class": "fill",
        "color": {
          "_class": "color",
          "alpha": 1,
          "blue": 0.1764705882352941,
          "green": 0.1764705882352941,
          "red": 0.1764705882352941
        },
        "fillType": 0,
        "isEnabled": true,
        "noiseIndex": 0,
        "noiseIntensity": 0,
        "patternFillType": 1,
        "patternTileScale": 1
      }
    ],
    "miterLimit": 10,
    "startMarkerType": 0,
    "windingRule": 1
  }
}