{
  "_class": "shapePath",
  "booleanOperation": -1,
  "clippingMaskMode": 0,
  "do_objectID": "20DEAC85-302D-45B2-B034-2B7A57C81280",
  "edited": true,
  "exportOptions": {
    "_class": "exportOptions",
    "do_objectID": "2A2C16E2-DD7E-4A6E-BC03-D401F086A911",
    "exportFormats": [
    ],
    "includedLayerIds": [
    ],
    "layerOptions": 0,
    "shouldTrim": false
  },
  "frame": {
    "_class": "rect",
    "constrainProportions": false,
    "do_objectID": "B1C7F47F-A483-4031-ABE4-128D4021E48F",
    "height": 0.1058906030855571,
    "width": 0.1059863482545715,
    "x": 30.63775150489237,
    "y": 13.89221157758938
  },
  "hasClippingMask": false,
  "isClosed": true,
  "isFixedToViewport": false,
  "isFlippedHorizontal": false,
  "isFlippedVertical": false,
  "isLocked": false,
  "isVisible": true,
  "layerListExpandedType": 0,
  "name": "Path",
  "nameIsFixed": false,
  "pointRadiusBehaviour": 0,
  "points": [
    {
      "_class": "curvePoint",
      "cornerRadius": 0,
      "curveFrom": "{1.054748846783184, 0.27588018216329147}",
      "curveMode": 3,
      "curveTo": "{0.40674884678315948, -0.12011981783672354}",
      "hasCurveFrom": true,
      "hasCurveTo": true,
      "point": "{0.63174884678318222, 0.01788018216331011}"
    },
    {
      "_class": "curvePoint",
      "cornerRadius": 0,
      "curveFrom": "{-0.2882511532168337, 0.57788018216331238}",
      "curveMode": 4,
      "curveTo": "{0.36074884678316721, 0.97188018216331784}",
      "hasCurveFrom": true,
      "hasCurveTo": true,
      "point": "{0.13274884678315857, 0.83588018216329374}"
    }
  ],
  "resizingConstraint": 63,
  "resizingType": 0,
  "rotation": 0,
  "shouldBreakMaskChain": false,
  "style": {
    "_class": "style",
    "do_objectID": "FBE0442C-7D51-41D7-BEEE-CFDF209DDF8D",
    "endMarkerType": 0,
    "fills": [
      {
        "_class": "fill",
        "color": {
          "_class": "color",
          "alpha": 1,
          "blue": 0.1764705882352941,
          "green": 0.1764705882352941,
          "red": 0.1764705882352941
        },
        "fillType": 0,
        "isEnabled": true,
        "noiseIndex": 0,
        "noiseIntensity": 0,
        "patternFillType": 1,
        "patternTileScale": 1
      }
    ],
    "miterLimit": 10,
    "startMarkerType": 0,
    "windingRule": 1
  }
}