{
  "_class": "shapePath",
  "booleanOperation": -1,
  "clippingMaskMode": 0,
  "do_objectID": "2A6ACEA3-C585-412C-9664-CF00753CB1FA",
  "edited": true,
  "exportOptions": {
    "_class": "exportOptions",
    "do_objectID": "6F98C01D-2D6E-45A2-AFCA-6F8CD39F403F",
    "exportFormats": [
    ],
    "includedLayerIds": [
    ],
    "layerOptions": 0,
    "shouldTrim": false
  },
  "frame": {
    "_class": "rect",
    "constrainProportions": false,
    "do_objectID": "92A325A7-F2D2-4012-8DEC-79DBB4D0C9FE",
    "height": 0.1058906030855802,
    "width": 0.1059863482545573,
    "x": 16.43069351726033,
    "y": 31.26241328043182
  },
  "hasClippingMask": false,
  "isClosed": true,
  "isFixedToViewport": false,
  "isFlippedHorizontal": false,
  "isFlippedVertical": false,
  "isLocked": false,
  "isVisible": true,
  "layerListExpandedType": 0,
  "name": "Path",
  "nameIsFixed": false,
  "pointRadiusBehaviour": 0,
  "points": [
    {
      "_class": "curvePoint",
      "cornerRadius": 0,
      "curveFrom": "{-0.25932679673178427, 0.51765338723856757}",
      "curveMode": 3,
      "curveTo": "{0.31967320326822346, 0.86765338723853347}",
      "hasCurveFrom": true,
      "hasCurveTo": true,
      "point": "{0.12067320326821118, 0.74865338723856212}"
    },
    {
      "_class": "curvePoint",
      "cornerRadius": 0,
      "curveFrom": "{0.94167320326820914, 0.24865338723856212}",
      "curveMode": 3,
      "curveTo": "{0.36167320326822505, -0.10634661276145607}",
      "hasCurveFrom": true,
      "hasCurveTo": true,
      "point": "{0.56167320326821368, 0.015653387238558025}"
    }
  ],
  "resizingConstraint": 63,
  "resizingType": 0,
  "rotation": 0,
  "shouldBreakMaskChain": false,
  "style": {
    "_class": "style",
    "do_objectID": "A93E0E6F-BD66-4E29-AC58-9C9463372919",
    "endMarkerType": 0,
    "fills": [
      {
        "_class": "fill",
        "color": {
          "_class": "color",
          "alpha": 1,
          "blue": 0.1764705882352941,
          "green": 0.1764705882352941,
          "red": 0.1764705882352941
        },
        "fillType": 0,
        "isEnabled": true,
        "noiseIndex": 0,
        "noiseIntensity": 0,
        "patternFillType": 1,
        "patternTileScale": 1
      }
    ],
    "miterLimit": 10,
    "startMarkerType": 0,
    "windingRule": 1
  }
}