{
  "_class": "shapePath",
  "booleanOperation": -1,
  "clippingMaskMode": 0,
  "do_objectID": "2EACF414-24EF-4ED7-BAE9-A10511519171",
  "edited": true,
  "exportOptions": {
    "_class": "exportOptions",
    "do_objectID": "800A7541-C2FC-435E-81CB-7C931FF2B9D0",
    "exportFormats": [
    ],
    "includedLayerIds": [
    ],
    "layerOptions": 0,
    "shouldTrim": false
  },
  "frame": {
    "_class": "rect",
    "constrainProportions": false,
    "do_objectID": "BD35DE39-2882-4FA4-89EC-D067D2AD05BF",
    "height": 0.1058906030855589,
    "width": 0.1059863482545538,
    "x": 17.027323100964,
    "y": 18.10957947970295
  },
  "hasClippingMask": false,
  "isClosed": true,
  "isFixedToViewport": false,
  "isFlippedHorizontal": false,
  "isFlippedVertical": false,
  "isLocked": false,
  "isVisible": true,
  "layerListExpandedType": 0,
  "name": "Path",
  "nameIsFixed": false,
  "pointRadiusBehaviour": 0,
  "points": [
    {
      "_class": "curvePoint",
      "cornerRadius": 0,
      "curveFrom": "{0.92840797051803747, 0.16842229786482221}",
      "curveMode": 3,
      "curveTo": "{0.24840797051803065, -0.078577702135163463}",
      "hasCurveFrom": true,
      "hasCurveTo": true,
      "point": "{0.48340797051801587, 0.0064222978648444951}"
    },
    {
      "_class": "curvePoint",
      "cornerRadius": 0,
      "curveFrom": "{-0.26959202948197003, 0.70542229786482835}",
      "curveMode": 3,
      "curveTo": "{0.40940797051803202, 0.9504222978648329}",
      "hasCurveFrom": true,
      "hasCurveTo": true,
      "point": "{0.17340797051804202, 0.86542229786482494}"
    }
  ],
  "resizingConstraint": 63,
  "resizingType": 0,
  "rotation": 0,
  "shouldBreakMaskChain": false,
  "style": {
    "_class": "style",
    "do_objectID": "992BAEB1-FB56-469A-A44B-69599F2B67E3",
    "endMarkerType": 0,
    "fills": [
      {
        "_class": "fill",
        "color": {
          "_class": "color",
          "alpha": 1,
          "blue": 0.1764705882352941,
          "green": 0.1764705882352941,
          "red": 0.1764705882352941
        },
        "fillType": 0,
        "isEnabled": true,
        "noiseIndex": 0,
        "noiseIntensity": 0,
        "patternFillType": 1,
        "patternTileScale": 1
      }
    ],
    "miterLimit": 10,
    "startMarkerType": 0,
    "windingRule": 1
  }
}