{
  "_class": "shapePath",
  "booleanOperation": -1,
  "clippingMaskMode": 0,
  "do_objectID": "316182B5-ED62-41F3-BA27-04907CA430BE",
  "edited": true,
  "exportOptions": {
    "_class": "exportOptions",
    "do_objectID": "4B80F51E-4F0C-4517-82F6-04EDF1259316",
    "exportFormats": [
    ],
    "includedLayerIds": [
    ],
    "layerOptions": 0,
    "shouldTrim": false
  },
  "frame": {
    "_class": "rect",
    "constrainProportions": false,
    "do_objectID": "780E7169-9D74-49AC-9D57-8D9871518814",
    "height": 0.1058906030855553,
    "width": 0.105986348254536,
    "x": 23.02520115510591,
    "y": 4.192741578464895
  },
  "hasClippingMask": false,
  "isClosed": true,
  "isFixedToViewport": false,
  "isFlippedHorizontal": false,
  "isFlippedVertical": false,
  "isLocked": false,
  "isVisible": true,
  "layerListExpandedType": 0,
  "name": "Path",
  "nameIsFixed": false,
  "pointRadiusBehaviour": 0,
  "points": [
    {
      "_class": "curvePoint",
      "cornerRadius": 0,
      "curveFrom": "{0.93967391005662648, 0.24496169530312528}",
      "curveMode": 4,
      "curveTo": "{0.3616739100565951, -0.10703830469690701}",
      "hasCurveFrom": true,
      "hasCurveTo": true,
      "point": "{0.56667391005657919, 0.015961695303083445}"
    },
    {
      "_class": "curvePoint",
      "cornerRadius": 0,
      "curveFrom": "{-0.25832608994340944, 0.51396169530313074}",
      "curveMode": 3,
      "curveTo": "{0.32067391005659829, 0.86696169530308254}",
      "hasCurveFrom": true,
      "hasCurveTo": true,
      "point": "{0.11967391005657646, 0.74396169530309209}"
    }
  ],
  "resizingConstraint": 63,
  "resizingType": 0,
  "rotation": 0,
  "shouldBreakMaskChain": false,
  "style": {
    "_class": "style",
    "do_objectID": "26D8404A-3C63-4A39-AD46-3850E140D8AF",
    "endMarkerType": 0,
    "fills": [
      {
        "_class": "fill",
        "color": {
          "_class": "color",
          "alpha": 1,
          "blue": 0.1764705882352941,
          "green": 0.1764705882352941,
          "red": 0.1764705882352941
        },
        "fillType": 0,
        "isEnabled": true,
        "noiseIndex": 0,
        "noiseIntensity": 0,
        "patternFillType": 1,
        "patternTileScale": 1
      }
    ],
    "miterLimit": 10,
    "startMarkerType": 0,
    "windingRule": 1
  }
}