{
  "_class": "shapePath",
  "booleanOperation": -1,
  "clippingMaskMode": 0,
  "do_objectID": "31848D36-F368-4D63-975D-FD84B96ABD2A",
  "edited": true,
  "exportOptions": {
    "_class": "exportOptions",
    "do_objectID": "35D437CF-0049-49BF-BAC2-519D601D1429",
    "exportFormats": [
    ],
    "includedLayerIds": [
    ],
    "layerOptions": 0,
    "shouldTrim": false
  },
  "frame": {
    "_class": "rect",
    "constrainProportions": false,
    "do_objectID": "12ECE32F-7BFF-43DD-A12C-16D252A8AD0E",
    "height": 0.1058906030855624,
    "width": 0.105986348254536,
    "x": 26.76573235776394,
    "y": 35.95871092740176
  },
  "hasClippingMask": false,
  "isClosed": true,
  "isFixedToViewport": false,
  "isFlippedHorizontal": false,
  "isFlippedVertical": false,
  "isLocked": false,
  "isVisible": true,
  "layerListExpandedType": 0,
  "name": "Path",
  "nameIsFixed": false,
  "pointRadiusBehaviour": 0,
  "points": [
    {
      "_class": "curvePoint",
      "cornerRadius": 0,
      "curveFrom": "{-0.28934616049099304, 0.57961567347035725}",
      "curveMode": 4,
      "curveTo": "{0.36365383950902697, 0.97561567347037226}",
      "hasCurveFrom": true,
      "hasCurveTo": true,
      "point": "{0.13365383950900878, 0.8386156734703718}"
    },
    {
      "_class": "curvePoint",
      "cornerRadius": 0,
      "curveFrom": "{1.0576538395090438, 0.27561567347032678}",
      "curveMode": 3,
      "curveTo": "{0.40665383950903333, -0.11938432652965503}",
      "hasCurveFrom": true,
      "hasCurveTo": true,
      "point": "{0.63465383950904197, 0.017615673470345428}"
    }
  ],
  "resizingConstraint": 63,
  "resizingType": 0,
  "rotation": 0,
  "shouldBreakMaskChain": false,
  "style": {
    "_class": "style",
    "do_objectID": "985E5AAA-29C6-4CE1-B4A8-433032AE6015",
    "endMarkerType": 0,
    "fills": [
      {
        "_class": "fill",
        "color": {
          "_class": "color",
          "alpha": 1,
          "blue": 0.1764705882352941,
          "green": 0.1764705882352941,
          "red": 0.1764705882352941
        },
        "fillType": 0,
        "isEnabled": true,
        "noiseIndex": 0,
        "noiseIntensity": 0,
        "patternFillType": 1,
        "patternTileScale": 1
      }
    ],
    "miterLimit": 10,
    "startMarkerType": 0,
    "windingRule": 1
  }
}