{
  "_class": "shapePath",
  "booleanOperation": -1,
  "clippingMaskMode": 0,
  "do_objectID": "34677F85-5126-45B1-83A8-C236C03B92C7",
  "edited": true,
  "exportOptions": {
    "_class": "exportOptions",
    "do_objectID": "760FD76A-6A1D-4415-9821-FFA1E0FB51EE",
    "exportFormats": [
    ],
    "includedLayerIds": [
    ],
    "layerOptions": 0,
    "shouldTrim": false
  },
  "frame": {
    "_class": "rect",
    "constrainProportions": false,
    "do_objectID": "4FF46ADB-64D0-40B2-82D9-AEB5AE1EA52A",
    "height": 0.1058906030855553,
    "width": 0.1059863482545627,
    "x": 12.94879891991645,
    "y": 20.12941152446845
  },
  "hasClippingMask": false,
  "isClosed": true,
  "isFixedToViewport": false,
  "isFlippedHorizontal": false,
  "isFlippedVertical": false,
  "isLocked": false,
  "isVisible": true,
  "layerListExpandedType": 0,
  "name": "Path",
  "nameIsFixed": false,
  "pointRadiusBehaviour": 0,
  "points": [
    {
      "_class": "curvePoint",
      "cornerRadius": 0,
      "curveFrom": "{-0.26961813259472933, 0.70230713046888127}",
      "curveMode": 3,
      "curveTo": "{0.41138186740528226, 0.94730713046885739}",
      "hasCurveFrom": true,
      "hasCurveTo": true,
      "point": "{0.17438186740528749, 0.86230713046887786}"
    },
    {
      "_class": "curvePoint",
      "cornerRadius": 0,
      "curveFrom": "{0.9273818674052734, 0.16730713046885626}",
      "curveMode": 3,
      "curveTo": "{0.24638186740529022, -0.077692869531119868}",
      "hasCurveFrom": true,
      "hasCurveTo": true,
      "point": "{0.48338186740528499, 0.0063071304688833152}"
    }
  ],
  "resizingConstraint": 63,
  "resizingType": 0,
  "rotation": 0,
  "shouldBreakMaskChain": false,
  "style": {
    "_class": "style",
    "do_objectID": "FB7E33FD-E962-4446-8CD5-5A92E43E1A56",
    "endMarkerType": 0,
    "fills": [
      {
        "_class": "fill",
        "color": {
          "_class": "color",
          "alpha": 1,
          "blue": 0.1764705882352941,
          "green": 0.1764705882352941,
          "red": 0.1764705882352941
        },
        "fillType": 0,
        "isEnabled": true,
        "noiseIndex": 0,
        "noiseIntensity": 0,
        "patternFillType": 1,
        "patternTileScale": 1
      }
    ],
    "miterLimit": 10,
    "startMarkerType": 0,
    "windingRule": 1
  }
}