{
  "_class": "shapePath",
  "booleanOperation": -1,
  "clippingMaskMode": 0,
  "do_objectID": "34949CF5-BD01-48C4-98A6-E1DC207EF506",
  "edited": true,
  "exportOptions": {
    "_class": "exportOptions",
    "do_objectID": "51BBA339-2C37-4969-877D-936A029C10F8",
    "exportFormats": [
    ],
    "includedLayerIds": [
    ],
    "layerOptions": 0,
    "shouldTrim": false
  },
  "frame": {
    "_class": "rect",
    "constrainProportions": false,
    "do_objectID": "E53E9733-CF5D-4F4C-83EB-40AAB16582E4",
    "height": 0.1058906030855624,
    "width": 0.1560921481241522,
    "x": 13.02415675661056,
    "y": 23.45493221273497
  },
  "hasClippingMask": false,
  "isClosed": true,
  "isFixedToViewport": false,
  "isFlippedHorizontal": false,
  "isFlippedVertical": false,
  "isLocked": false,
  "isVisible": true,
  "layerListExpandedType": 0,
  "name": "Path",
  "nameIsFixed": false,
  "pointRadiusBehaviour": 0,
  "points": [
    {
      "_class": "curvePoint",
      "cornerRadius": 0,
      "curveFrom": "{0.78367134685387596, 0.96502570812458544}",
      "curveMode": 4,
      "curveTo": "{0.92823712948517678, 0.20502570812459453}",
      "hasCurveFrom": true,
      "hasCurveTo": true,
      "point": "{1, 0.81602570812458453}"
    },
    {
      "_class": "curvePoint",
      "cornerRadius": 0,
      "curveFrom": "{0.28445137805512039, 0.6150257081245627}",
      "curveMode": 4,
      "curveTo": "{0.57358294331773663, 1.0800257081245945}",
      "hasCurveFrom": true,
      "hasCurveTo": true,
      "point": "{0.50078003120124437, 0.46802570812457134}"
    },
    {
      "_class": "curvePoint",
      "cornerRadius": 0,
      "curveFrom": "{0.21736869474779302, -0.028974291875442759}",
      "curveMode": 4,
      "curveTo": "{0.074362974518981037, 0.73102570812454815}",
      "hasCurveFrom": true,
      "hasCurveTo": true,
      "point": "{0, 0.11802570812460544}"
    },
    {
      "_class": "curvePoint",
      "cornerRadius": 0,
      "curveFrom": "{0.71762870514820287, 0.31502570812460817}",
      "curveMode": 4,
      "curveTo": "{0.42797711908476688, -0.14797429187547095}",
      "hasCurveFrom": true,
      "hasCurveTo": true,
      "point": "{0.50078003120124437, 0.46802570812457134}"
    }
  ],
  "resizingConstraint": 63,
  "resizingType": 0,
  "rotation": 0,
  "shouldBreakMaskChain": false,
  "style": {
    "_class": "style",
    "do_objectID": "098180F8-8AC4-4F74-9E0F-AE9E847A6AEB",
    "endMarkerType": 0,
    "fills": [
      {
        "_class": "fill",
        "color": {
          "_class": "color",
          "alpha": 1,
          "blue": 0.1764705882352941,
          "green": 0.1764705882352941,
          "red": 0.1764705882352941
        },
        "fillType": 0,
        "isEnabled": true,
        "noiseIndex": 0,
        "noiseIntensity": 0,
        "patternFillType": 1,
        "patternTileScale": 1
      }
    ],
    "miterLimit": 10,
    "startMarkerType": 0,
    "windingRule": 1
  }
}