{
  "_class": "shapePath",
  "booleanOperation": -1,
  "clippingMaskMode": 0,
  "do_objectID": "3D223099-CF88-400D-85A5-A7CF35E06D7D",
  "edited": true,
  "exportOptions": {
    "_class": "exportOptions",
    "do_objectID": "D8311EEC-B062-4D95-A617-B2B5200D8FF2",
    "exportFormats": [
    ],
    "includedLayerIds": [
    ],
    "layerOptions": 0,
    "shouldTrim": false
  },
  "frame": {
    "_class": "rect",
    "constrainProportions": false,
    "do_objectID": "E410A22F-A41A-4C1E-8B50-FAFDEE221EC0",
    "height": 0.1058906030855518,
    "width": 0.1059863482545609,
    "x": 40.86779113006937,
    "y": 13.1696900086646
  },
  "hasClippingMask": false,
  "isClosed": true,
  "isFixedToViewport": false,
  "isFlippedHorizontal": false,
  "isFlippedVertical": false,
  "isLocked": false,
  "isVisible": true,
  "layerListExpandedType": 0,
  "name": "Path",
  "nameIsFixed": false,
  "pointRadiusBehaviour": 0,
  "points": [
    {
      "_class": "curvePoint",
      "cornerRadius": 0,
      "curveFrom": "{-0.28871735943721433, 0.58113848074495422}",
      "curveMode": 3,
      "curveTo": "{0.36228264056279613, 0.97713848074491239}",
      "hasCurveFrom": true,
      "hasCurveTo": true,
      "point": "{0.13328264056281114, 0.83713848074492603}"
    },
    {
      "_class": "curvePoint",
      "cornerRadius": 0,
      "curveFrom": "{1.0542826405628034, 0.27413848074493785}",
      "curveMode": 3,
      "curveTo": "{0.4062826405628357, -0.11786151925505806}",
      "hasCurveFrom": true,
      "hasCurveTo": true,
      "point": "{0.63128264056280159, 0.017138480744932849}"
    }
  ],
  "resizingConstraint": 63,
  "resizingType": 0,
  "rotation": 0,
  "shouldBreakMaskChain": false,
  "style": {
    "_class": "style",
    "do_objectID": "582319B8-BCFE-44E0-9A8B-EC464F1D9DD3",
    "endMarkerType": 0,
    "fills": [
      {
        "_class": "fill",
        "color": {
          "_class": "color",
          "alpha": 1,
          "blue": 0.1764705882352941,
          "green": 0.1764705882352941,
          "red": 0.1764705882352941
        },
        "fillType": 0,
        "isEnabled": true,
        "noiseIndex": 0,
        "noiseIntensity": 0,
        "patternFillType": 1,
        "patternTileScale": 1
      }
    ],
    "miterLimit": 10,
    "startMarkerType": 0,
    "windingRule": 1
  }
}