{
  "_class": "shapePath",
  "booleanOperation": -1,
  "clippingMaskMode": 0,
  "do_objectID": "3F81023F-D792-4184-92A4-2646839F405A",
  "edited": true,
  "exportOptions": {
    "_class": "exportOptions",
    "do_objectID": "45CDD990-FC20-4AF9-90C4-429C84504233",
    "exportFormats": [
    ],
    "includedLayerIds": [
    ],
    "layerOptions": 0,
    "shouldTrim": false
  },
  "frame": {
    "_class": "rect",
    "constrainProportions": false,
    "do_objectID": "FC00CE38-252A-4205-8C5E-85710AF01069",
    "height": 0.1058906030855642,
    "width": 0.1154275733031014,
    "x": 37.36461903257471,
    "y": 8.750193565165096
  },
  "hasClippingMask": false,
  "isClosed": true,
  "isFixedToViewport": false,
  "isFlippedHorizontal": false,
  "isFlippedVertical": false,
  "isLocked": false,
  "isVisible": true,
  "layerListExpandedType": 0,
  "name": "Path",
  "nameIsFixed": false,
  "pointRadiusBehaviour": 0,
  "points": [
    {
      "_class": "curvePoint",
      "cornerRadius": 0,
      "curveFrom": "{0.36224532497743994, 1.2029999999999745}",
      "curveMode": 4,
      "curveTo": "{0.8636423325029815, 0.68299999999999272}",
      "hasCurveFrom": true,
      "hasCurveTo": true,
      "point": "{0.5900891264336483, 0.81700000000000728}"
    },
    {
      "_class": "curvePoint",
      "cornerRadius": 0,
      "curveFrom": "{0.12947897225519903, 0.048000000000001819}",
      "curveMode": 3,
      "curveTo": "{-0.082893953793455696, 0.54699999999996862}",
      "hasCurveFrom": true,
      "hasCurveTo": true,
      "point": "{0.013447406698826605, 0.31899999999995998}"
    },
    {
      "_class": "curvePoint",
      "cornerRadius": 0,
      "curveFrom": "{1.120318219945929, 0.53100000000000591}",
      "curveMode": 4,
      "curveTo": "{0.77855251776159651, 0.23399999999998045}",
      "hasCurveFrom": true,
      "hasCurveTo": true,
      "point": "{0.93959026632171772, 0}"
    }
  ],
  "resizingConstraint": 63,
  "resizingType": 0,
  "rotation": 0,
  "shouldBreakMaskChain": false,
  "style": {
    "_class": "style",
    "do_objectID": "F1F7F0EB-3A34-414E-A5F3-FF15F8BF66BE",
    "endMarkerType": 0,
    "fills": [
      {
        "_class": "fill",
        "color": {
          "_class": "color",
          "alpha": 1,
          "blue": 0.1764705882352941,
          "green": 0.1764705882352941,
          "red": 0.1764705882352941
        },
        "fillType": 0,
        "isEnabled": true,
        "noiseIndex": 0,
        "noiseIntensity": 0,
        "patternFillType": 1,
        "patternTileScale": 1
      }
    ],
    "miterLimit": 10,
    "startMarkerType": 0,
    "windingRule": 1
  }
}