{
  "_class": "shapePath",
  "booleanOperation": -1,
  "clippingMaskMode": 0,
  "do_objectID": "47D7E3C2-562A-4C50-AA99-EB39BD7B4560",
  "edited": true,
  "exportOptions": {
    "_class": "exportOptions",
    "do_objectID": "30C39104-1DC7-447B-B66D-94C6A21D660F",
    "exportFormats": [
    ],
    "includedLayerIds": [
    ],
    "layerOptions": 0,
    "shouldTrim": false
  },
  "frame": {
    "_class": "rect",
    "constrainProportions": false,
    "do_objectID": "891E3DAC-6D91-4C0F-A8A2-F8F1182D598F",
    "height": 0.105890603085566,
    "width": 0.2098427607356754,
    "x": 16.97245643730377,
    "y": 23.25174800828169
  },
  "hasClippingMask": false,
  "isClosed": true,
  "isFixedToViewport": false,
  "isFlippedHorizontal": false,
  "isFlippedVertical": false,
  "isLocked": false,
  "isVisible": true,
  "layerListExpandedType": 0,
  "name": "Path",
  "nameIsFixed": false,
  "pointRadiusBehaviour": 0,
  "points": [
    {
      "_class": "curvePoint",
      "cornerRadius": 0,
      "curveFrom": "{0.48443114804331855, 0.44690629146059985}",
      "curveMode": 4,
      "curveTo": "{0.72696665209765166, 0.53446528820612105}",
      "hasCurveFrom": true,
      "hasCurveTo": true,
      "point": "{0.69602113323904025, 0.52252542501351706}"
    },
    {
      "_class": "curvePoint",
      "cornerRadius": 0,
      "curveFrom": "{-0.15459381638691422, 0.072790578093397562}",
      "curveMode": 4,
      "curveTo": "{0.22951743644554959, 0.89743712926020514}",
      "hasCurveFrom": true,
      "hasCurveTo": true,
      "point": "{0.014832899363963488, 0.86161753968248367}"
    },
    {
      "_class": "curvePoint",
      "cornerRadius": 0,
      "curveFrom": "{0.92463115380699978, 0.8377378132973663}",
      "curveMode": 4,
      "curveTo": "{1.1876680641051478, -0.6053936512445357}",
      "hasCurveFrom": true,
      "hasCurveTo": true,
      "point": "{0.97762535485236379, 0.87594537551359042}"
    },
    {
      "_class": "curvePoint",
      "cornerRadius": 0,
      "curveFrom": "{0.72077754832592278, 0.95156450906655288}",
      "curveMode": 3,
      "curveTo": "{0.79736770750097707, 1.047879405486599}",
      "hasCurveFrom": true,
      "hasCurveTo": true,
      "point": "{0.7509494292130654, 0.989772071282777}"
    }
  ],
  "resizingConstraint": 63,
  "resizingType": 0,
  "rotation": 0,
  "shouldBreakMaskChain": false,
  "style": {
    "_class": "style",
    "do_objectID": "7A7198F9-588C-4FAB-8FF7-F26A2A3BB263",
    "endMarkerType": 0,
    "fills": [
      {
        "_class": "fill",
        "color": {
          "_class": "color",
          "alpha": 1,
          "blue": 0.1764705882352941,
          "green": 0.1764705882352941,
          "red": 0.1764705882352941
        },
        "fillType": 0,
        "isEnabled": true,
        "noiseIndex": 0,
        "noiseIntensity": 0,
        "patternFillType": 1,
        "patternTileScale": 1
      }
    ],
    "miterLimit": 10,
    "startMarkerType": 0,
    "windingRule": 1
  }
}