{
  "_class": "shapePath",
  "booleanOperation": -1,
  "clippingMaskMode": 0,
  "do_objectID": "565F74D5-A6F6-4003-A6A7-83D37DD7FBD9",
  "edited": true,
  "exportOptions": {
    "_class": "exportOptions",
    "do_objectID": "678F1400-CBA4-454D-8D81-A214A90C018E",
    "exportFormats": [
    ],
    "includedLayerIds": [
    ],
    "layerOptions": 0,
    "shouldTrim": false
  },
  "frame": {
    "_class": "rect",
    "constrainProportions": false,
    "do_objectID": "86E18227-5DFD-41E2-9736-F56F042A3476",
    "height": 0.1660763815820943,
    "width": 0.1403330045436917,
    "x": 43.63023189196187,
    "y": 16.85034643624719
  },
  "hasClippingMask": false,
  "isClosed": true,
  "isFixedToViewport": false,
  "isFlippedHorizontal": false,
  "isFlippedVertical": false,
  "isLocked": false,
  "isVisible": true,
  "layerListExpandedType": 0,
  "name": "Path",
  "nameIsFixed": false,
  "pointRadiusBehaviour": 0,
  "points": [
    {
      "_class": "curvePoint",
      "cornerRadius": 0,
      "curveFrom": "{0.85316135239602497, 0.33291197826131119}",
      "curveMode": 3,
      "curveTo": "{0.66228334643759723, 0.049688412891054703}",
      "hasCurveFrom": true,
      "hasCurveTo": true,
      "point": "{0.80920156920559205, 0.26845420131497594}"
    },
    {
      "_class": "curvePoint",
      "cornerRadius": 0,
      "curveFrom": "{0.78837851401009607, 1.1977204856246038}",
      "curveMode": 3,
      "curveTo": "{1.0342062489565651, 0.85687557419627813}",
      "hasCurveFrom": true,
      "hasCurveTo": true,
      "point": "{0.99429539316528559, 0.91156702130225498}"
    },
    {
      "_class": "curvePoint",
      "cornerRadius": 0,
      "curveFrom": "{0.34762384570617738, 0.53165679051249548}",
      "curveMode": 3,
      "curveTo": "{0.56221699785940249, 0.70061429675061215}",
      "hasCurveFrom": true,
      "hasCurveTo": true,
      "point": "{0.52230614206812298, 0.66887372476946449}"
    },
    {
      "_class": "curvePoint",
      "cornerRadius": 0,
      "curveFrom": "{-0.094866077197387919, 0.18006891625977142}",
      "curveMode": 4,
      "curveTo": "{0.41414193869168714, 0.27822053115533435}",
      "hasCurveFrom": true,
      "hasCurveTo": true,
      "point": "{0.048003218171453477, 0.42373884577660187}"
    },
    {
      "_class": "curvePoint",
      "cornerRadius": 0,
      "curveFrom": "{0.70566471142816989, -0.050416467972560511}",
      "curveMode": 3,
      "curveTo": "{0.10468820175914127, 0.072639288015883902}",
      "hasCurveFrom": true,
      "hasCurveTo": true,
      "point": "{0.33779073630828971, 0.024784271798159369}"
    }
  ],
  "resizingConstraint": 63,
  "resizingType": 0,
  "rotation": 0,
  "shouldBreakMaskChain": false,
  "style": {
    "_class": "style",
    "do_objectID": "2842BABD-0B40-42A4-9BEA-CF07249FC0C1",
    "endMarkerType": 0,
    "fills": [
      {
        "_class": "fill",
        "color": {
          "_class": "color",
          "alpha": 1,
          "blue": 0.1764705882352941,
          "green": 0.1764705882352941,
          "red": 0.1764705882352941
        },
        "fillType": 0,
        "isEnabled": true,
        "noiseIndex": 0,
        "noiseIntensity": 0,
        "patternFillType": 1,
        "patternTileScale": 1
      }
    ],
    "miterLimit": 10,
    "startMarkerType": 0,
    "windingRule": 1
  }
}