{
  "_class": "shapePath",
  "booleanOperation": -1,
  "clippingMaskMode": 0,
  "do_objectID": "5C5B61FF-113F-4332-993C-BDFACA1A2E88",
  "edited": true,
  "exportOptions": {
    "_class": "exportOptions",
    "do_objectID": "A984F30C-814D-4F8A-95EB-D8AEF854CD28",
    "exportFormats": [
    ],
    "includedLayerIds": [
    ],
    "layerOptions": 0,
    "shouldTrim": false
  },
  "frame": {
    "_class": "rect",
    "constrainProportions": false,
    "do_objectID": "ECD1F344-3E77-46FA-9307-C41200A89672",
    "height": 0.1454895178937008,
    "width": 0.1344194473705596,
    "x": 5.156560527239746,
    "y": 26.70209165349652
  },
  "hasClippingMask": false,
  "isClosed": true,
  "isFixedToViewport": false,
  "isFlippedHorizontal": false,
  "isFlippedVertical": false,
  "isLocked": false,
  "isVisible": true,
  "layerListExpandedType": 0,
  "name": "Path",
  "nameIsFixed": false,
  "pointRadiusBehaviour": 0,
  "points": [
    {
      "_class": "curvePoint",
      "cornerRadius": 0,
      "curveFrom": "{0.94444444444444542, 0.48996655518393017}",
      "curveMode": 4,
      "curveTo": "{0.31159420289855283, 0.13210702341138544}",
      "hasCurveFrom": true,
      "hasCurveTo": true,
      "point": "{1, 0}"
    },
    {
      "_class": "curvePoint",
      "cornerRadius": 0,
      "curveFrom": "{0.053743961352655988, 0.51003344481606983}",
      "curveMode": 4,
      "curveTo": "{0.68961352657004338, 0.86677814938685716}",
      "hasCurveFrom": true,
      "hasCurveTo": true,
      "point": "{0, 1}"
    }
  ],
  "resizingConstraint": 63,
  "resizingType": 0,
  "rotation": 0,
  "shouldBreakMaskChain": false,
  "style": {
    "_class": "style",
    "do_objectID": "709701EF-CF09-43CC-83DF-A74984CE8098",
    "endMarkerType": 0,
    "fills": [
      {
        "_class": "fill",
        "color": {
          "_class": "color",
          "alpha": 1,
          "blue": 0.1764705882352941,
          "green": 0.1764705882352941,
          "red": 0.1764705882352941
        },
        "fillType": 0,
        "isEnabled": true,
        "noiseIndex": 0,
        "noiseIntensity": 0,
        "patternFillType": 1,
        "patternTileScale": 1
      }
    ],
    "miterLimit": 10,
    "startMarkerType": 0,
    "windingRule": 1
  }
}