{
  "_class": "shapePath",
  "booleanOperation": -1,
  "clippingMaskMode": 0,
  "do_objectID": "5C9C92FF-0537-4609-B29A-A9CFE3171EF4",
  "edited": true,
  "exportOptions": {
    "_class": "exportOptions",
    "do_objectID": "19DD66A0-5F36-437C-8B2A-488202EB6420",
    "exportFormats": [
    ],
    "includedLayerIds": [
    ],
    "layerOptions": 0,
    "shouldTrim": false
  },
  "frame": {
    "_class": "rect",
    "constrainProportions": false,
    "do_objectID": "6F0A72A4-C818-4AAA-A909-71CE720FBD1A",
    "height": 0.1058906030855589,
    "width": 0.1059863482545396,
    "x": 37.7433026686803,
    "y": 27.92148182293995
  },
  "hasClippingMask": false,
  "isClosed": true,
  "isFixedToViewport": false,
  "isFlippedHorizontal": false,
  "isFlippedVertical": false,
  "isLocked": false,
  "isVisible": true,
  "layerListExpandedType": 0,
  "name": "Path",
  "nameIsFixed": false,
  "pointRadiusBehaviour": 0,
  "points": [
    {
      "_class": "curvePoint",
      "cornerRadius": 0,
      "curveFrom": "{-0.25712574955701939, 0.51396169530312363}",
      "curveMode": 3,
      "curveTo": "{0.32087425044295514, 0.86596169530309908}",
      "hasCurveFrom": true,
      "hasCurveTo": true,
      "point": "{0.11887425044295696, 0.74396169530314182}"
    },
    {
      "_class": "curvePoint",
      "cornerRadius": 0,
      "curveFrom": "{0.94087425044295969, 0.24396169530314182}",
      "curveMode": 3,
      "curveTo": "{0.36087425044297561, -0.10703830469685727}",
      "hasCurveFrom": true,
      "hasCurveTo": true,
      "point": "{0.56487425044298334, 0.01596169530307634}"
    }
  ],
  "resizingConstraint": 63,
  "resizingType": 0,
  "rotation": 0,
  "shouldBreakMaskChain": false,
  "style": {
    "_class": "style",
    "do_objectID": "C694971F-D94B-4173-ADE0-B7054C2FE28A",
    "endMarkerType": 0,
    "fills": [
      {
        "_class": "fill",
        "color": {
          "_class": "color",
          "alpha": 1,
          "blue": 0.1764705882352941,
          "green": 0.1764705882352941,
          "red": 0.1764705882352941
        },
        "fillType": 0,
        "isEnabled": true,
        "noiseIndex": 0,
        "noiseIntensity": 0,
        "patternFillType": 1,
        "patternTileScale": 1
      }
    ],
    "miterLimit": 10,
    "startMarkerType": 0,
    "windingRule": 1
  }
}