{
  "_class": "shapePath",
  "booleanOperation": -1,
  "clippingMaskMode": 0,
  "do_objectID": "6169CFD0-270E-4038-9BE9-78A86BCCBA2A",
  "edited": true,
  "exportOptions": {
    "_class": "exportOptions",
    "do_objectID": "DD9F0F3F-5A89-4662-8E76-F35D6849B6A7",
    "exportFormats": [
    ],
    "includedLayerIds": [
    ],
    "layerOptions": 0,
    "shouldTrim": false
  },
  "frame": {
    "_class": "rect",
    "constrainProportions": false,
    "do_objectID": "A425AE79-26AB-42B7-815C-28A02728818D",
    "height": 0.1066541641564864,
    "width": 0.1186953843310246,
    "x": 6.61979098861804,
    "y": 11.77919774204891
  },
  "hasClippingMask": false,
  "isClosed": true,
  "isFixedToViewport": false,
  "isFlippedHorizontal": false,
  "isFlippedVertical": false,
  "isLocked": false,
  "isVisible": true,
  "layerListExpandedType": 0,
  "name": "Path",
  "nameIsFixed": false,
  "pointRadiusBehaviour": 0,
  "points": [
    {
      "_class": "curvePoint",
      "cornerRadius": 0,
      "curveFrom": "{0.38126544058476125, 1.145894676600266}",
      "curveMode": 4,
      "curveTo": "{0.92014803901880349, 0.73528875399635096}",
      "hasCurveFrom": true,
      "hasCurveTo": true,
      "point": "{0.68558365924357612, 0.88888578430375031}"
    },
    {
      "_class": "curvePoint",
      "cornerRadius": 0,
      "curveFrom": "{-0.13163043355931661, 0.31175634864375323}",
      "curveMode": 4,
      "curveTo": "{0.23833845698994272, 0.91093684311025558}",
      "hasCurveFrom": true,
      "hasCurveTo": true,
      "point": "{0.10088236271933435, 0.65088642546106046}"
    },
    {
      "_class": "curvePoint",
      "cornerRadius": 0,
      "curveFrom": "{0.39836196972289134, 0.41592859197105014}",
      "curveMode": 4,
      "curveTo": "{0.079682666588041753, 0.15283664896926191}",
      "hasCurveFrom": true,
      "hasCurveTo": true,
      "point": "{0.3121954628666927, 0}"
    },
    {
      "_class": "curvePoint",
      "cornerRadius": 0,
      "curveFrom": "{1.1314611391661618, 0.5763690543218597}",
      "curveMode": 4,
      "curveTo": "{0.64455198931204838, 0.33836969547916979}",
      "hasCurveFrom": true,
      "hasCurveTo": true,
      "point": "{0.89963220405303956, 0.23571821482819103}"
    }
  ],
  "resizingConstraint": 63,
  "resizingType": 0,
  "rotation": 0,
  "shouldBreakMaskChain": false,
  "style": {
    "_class": "style",
    "do_objectID": "5A2944F2-70E6-4099-B052-5215DDA3B95C",
    "endMarkerType": 0,
    "fills": [
      {
        "_class": "fill",
        "color": {
          "_class": "color",
          "alpha": 1,
          "blue": 0.1764705882352941,
          "green": 0.1764705882352941,
          "red": 0.1764705882352941
        },
        "fillType": 0,
        "isEnabled": true,
        "noiseIndex": 0,
        "noiseIntensity": 0,
        "patternFillType": 1,
        "patternTileScale": 1
      }
    ],
    "miterLimit": 10,
    "startMarkerType": 0,
    "windingRule": 1
  }
}