{
  "_class": "shapePath",
  "booleanOperation": -1,
  "clippingMaskMode": 0,
  "do_objectID": "77889999-FC29-484B-B73B-4207A1BF67B2",
  "edited": true,
  "exportOptions": {
    "_class": "exportOptions",
    "do_objectID": "5FE28E96-7CFF-47B9-8A3A-42AF60443653",
    "exportFormats": [
    ],
    "includedLayerIds": [
    ],
    "layerOptions": 0,
    "shouldTrim": false
  },
  "frame": {
    "_class": "rect",
    "constrainProportions": false,
    "do_objectID": "58D1E541-67FC-4C48-9292-F9B20C561D02",
    "height": 0.1058906030855695,
    "width": 0.1059863482545751,
    "x": 34.6751203337831,
    "y": 30.09140050769807
  },
  "hasClippingMask": false,
  "isClosed": true,
  "isFixedToViewport": false,
  "isFlippedHorizontal": false,
  "isFlippedVertical": false,
  "isLocked": false,
  "isVisible": true,
  "layerListExpandedType": 0,
  "name": "Path",
  "nameIsFixed": false,
  "pointRadiusBehaviour": 0,
  "points": [
    {
      "_class": "curvePoint",
      "cornerRadius": 0,
      "curveFrom": "{-0.28920568270609692, 0.58016040257763279}",
      "curveMode": 3,
      "curveTo": "{0.35979431729390399, 0.9731604025776619}",
      "hasCurveFrom": true,
      "hasCurveTo": true,
      "point": "{0.1337943172939049, 0.83516040257762825}"
    },
    {
      "_class": "curvePoint",
      "cornerRadius": 0,
      "curveFrom": "{1.0557943172938735, 0.27516040257762597}",
      "curveMode": 4,
      "curveTo": "{0.40579431729389626, -0.11783959742234629}",
      "hasCurveFrom": true,
      "hasCurveTo": true,
      "point": "{0.6327943172938717, 0.017160402577644618}"
    }
  ],
  "resizingConstraint": 63,
  "resizingType": 0,
  "rotation": 0,
  "shouldBreakMaskChain": false,
  "style": {
    "_class": "style",
    "do_objectID": "1F694469-3174-4246-B81A-F0CF2890775D",
    "endMarkerType": 0,
    "fills": [
      {
        "_class": "fill",
        "color": {
          "_class": "color",
          "alpha": 1,
          "blue": 0.1764705882352941,
          "green": 0.1764705882352941,
          "red": 0.1764705882352941
        },
        "fillType": 0,
        "isEnabled": true,
        "noiseIndex": 0,
        "noiseIntensity": 0,
        "patternFillType": 1,
        "patternTileScale": 1
      }
    ],
    "miterLimit": 10,
    "startMarkerType": 0,
    "windingRule": 1
  }
}