{
  "_class": "shapePath",
  "booleanOperation": -1,
  "clippingMaskMode": 0,
  "do_objectID": "78CB2BAD-E997-4CF0-A722-FC966E39AECF",
  "edited": true,
  "exportOptions": {
    "_class": "exportOptions",
    "do_objectID": "B09715FA-4EE9-4DBB-94AA-003C5D968726",
    "exportFormats": [
    ],
    "includedLayerIds": [
    ],
    "layerOptions": 0,
    "shouldTrim": false
  },
  "frame": {
    "_class": "rect",
    "constrainProportions": false,
    "do_objectID": "810BD83F-27E1-48A0-8BB1-ED5DEE2687E5",
    "height": 0.1058906030855802,
    "width": 0.1059863482545786,
    "x": 27.16778785448177,
    "y": 31.44917924977655
  },
  "hasClippingMask": false,
  "isClosed": true,
  "isFixedToViewport": false,
  "isFlippedHorizontal": false,
  "isFlippedVertical": false,
  "isLocked": false,
  "isVisible": true,
  "layerListExpandedType": 0,
  "name": "Path",
  "nameIsFixed": false,
  "pointRadiusBehaviour": 0,
  "points": [
    {
      "_class": "curvePoint",
      "cornerRadius": 0,
      "curveFrom": "{0.44899298085078226, 0.39176374672675884}",
      "curveMode": 3,
      "curveTo": "{0.28309519720563137, 0.28507299588572493}",
      "hasCurveFrom": true,
      "hasCurveTo": true,
      "point": "{0.43886776400860905, 0.38514726605441607}"
    },
    {
      "_class": "curvePoint",
      "cornerRadius": 0,
      "curveFrom": "{0.5331101669243743, 0.18251754546492877}",
      "curveMode": 4,
      "curveTo": "{0.45055070651881912, 0.40003434756714029}",
      "hasCurveFrom": true,
      "hasCurveTo": true,
      "point": "{0.45911819769299972, 0.40747788832345544}"
    },
    {
      "_class": "curvePoint",
      "cornerRadius": 0,
      "curveFrom": "{1.2340867175375967, 0.15439750260756591}",
      "curveMode": 3,
      "curveTo": "{0.72938360109608902, -0.040788677225606265}",
      "hasCurveFrom": true,
      "hasCurveTo": true,
      "point": "{0.8493284775343517, 0.0063537475646245874}"
    },
    {
      "_class": "curvePoint",
      "cornerRadius": 0,
      "curveFrom": "{0.5331101669243743, 0.78213610639310316}",
      "curveMode": 4,
      "curveTo": "{0.78468286231110973, 0.87972919630968927}",
      "hasCurveFrom": true,
      "hasCurveTo": true,
      "point": "{0.57906307413126246, 0.80115848832597114}"
    },
    {
      "_class": "curvePoint",
      "cornerRadius": 0,
      "curveFrom": "{0.38123191429151088, 0.89627039799045216}",
      "curveMode": 4,
      "curveTo": "{0.50117679072977361, 0.75567018370387307}",
      "hasCurveFrom": true,
      "hasCurveTo": true,
      "point": "{0.47625318004131661, 0.72424190051038584}"
    },
    {
      "_class": "curvePoint",
      "cornerRadius": 0,
      "curveFrom": "{-0.20135748555148578, 0.79702318790578042}",
      "curveMode": 4,
      "curveTo": "{0.1834007544517593, 1.0467953332855455}",
      "hasCurveFrom": true,
      "hasCurveTo": true,
      "point": "{0.09305266570606413, 0.98641994715072312}"
    }
  ],
  "resizingConstraint": 63,
  "resizingType": 0,
  "rotation": 0,
  "shouldBreakMaskChain": false,
  "style": {
    "_class": "style",
    "do_objectID": "7A9514E3-372B-42F3-8F9F-372381958996",
    "endMarkerType": 0,
    "fills": [
      {
        "_class": "fill",
        "color": {
          "_class": "color",
          "alpha": 1,
          "blue": 0.1764705882352941,
          "green": 0.1764705882352941,
          "red": 0.1764705882352941
        },
        "fillType": 0,
        "isEnabled": true,
        "noiseIndex": 0,
        "noiseIntensity": 0,
        "patternFillType": 1,
        "patternTileScale": 1
      }
    ],
    "miterLimit": 10,
    "startMarkerType": 0,
    "windingRule": 1
  }
}