{
  "_class": "shapePath",
  "booleanOperation": -1,
  "clippingMaskMode": 0,
  "do_objectID": "7ED4A1C5-EDF6-4FAD-9D46-A590E1E49AAE",
  "edited": true,
  "exportOptions": {
    "_class": "exportOptions",
    "do_objectID": "D1A31F2A-8B4B-4F86-82E0-4734AF4F1424",
    "exportFormats": [
    ],
    "includedLayerIds": [
    ],
    "layerOptions": 0,
    "shouldTrim": false
  },
  "frame": {
    "_class": "rect",
    "constrainProportions": false,
    "do_objectID": "ABEA554B-94FB-40A3-A503-CF6EC1029FE2",
    "height": 0.1066436544203953,
    "width": 0.1059863482545609,
    "x": 29.73939958095723,
    "y": 20.69403956674255
  },
  "hasClippingMask": false,
  "isClosed": true,
  "isFixedToViewport": false,
  "isFlippedHorizontal": false,
  "isFlippedVertical": false,
  "isLocked": false,
  "isVisible": true,
  "layerListExpandedType": 0,
  "name": "Path",
  "nameIsFixed": false,
  "pointRadiusBehaviour": 0,
  "points": [
    {
      "_class": "curvePoint",
      "cornerRadius": 0,
      "curveFrom": "{0.12212648549370897, 0.013688212927757196}",
      "curveMode": 3,
      "curveTo": "{-0.12587351450633832, 0.26159695817490092}",
      "hasCurveFrom": true,
      "hasCurveTo": true,
      "point": "{0.028126485493658038, 0.10798479087452179}"
    },
    {
      "_class": "curvePoint",
      "cornerRadius": 0,
      "curveFrom": "{0.52012648549367668, 0.18859315589352918}",
      "curveMode": 4,
      "curveTo": "{0.49912648549366168, 0.083650190114057346}",
      "hasCurveFrom": true,
      "hasCurveTo": true,
      "point": "{0.61412648549367077, 0}"
    },
    {
      "_class": "curvePoint",
      "cornerRadius": 0,
      "curveFrom": "{0.8041264854936685, 0.98631178707226441}",
      "curveMode": 4,
      "curveTo": "{1.0511264854936826, 0.73612167300377385}",
      "hasCurveFrom": true,
      "hasCurveTo": true,
      "point": "{0.89812648549366259, 0.89277566539922448}"
    },
    {
      "_class": "curvePoint",
      "cornerRadius": 0,
      "curveFrom": "{0.40712648549367714, 0.81292775665396333}",
      "curveMode": 4,
      "curveTo": "{0.42712648549365895, 0.9178707224334568}",
      "hasCurveFrom": true,
      "hasCurveTo": true,
      "point": "{0.3121264854937067, 1}"
    }
  ],
  "resizingConstraint": 63,
  "resizingType": 0,
  "rotation": 0,
  "shouldBreakMaskChain": false,
  "style": {
    "_class": "style",
    "do_objectID": "6757E874-F598-41D3-8304-E3288CDA997E",
    "endMarkerType": 0,
    "fills": [
      {
        "_class": "fill",
        "color": {
          "_class": "color",
          "alpha": 1,
          "blue": 0.1764705882352941,
          "green": 0.1764705882352941,
          "red": 0.1764705882352941
        },
        "fillType": 0,
        "isEnabled": true,
        "noiseIndex": 0,
        "noiseIntensity": 0,
        "patternFillType": 1,
        "patternTileScale": 1
      }
    ],
    "miterLimit": 10,
    "startMarkerType": 0,
    "windingRule": 1
  }
}