{
  "_class": "shapePath",
  "booleanOperation": -1,
  "clippingMaskMode": 0,
  "do_objectID": "7F448ECB-A472-49A1-A849-9F3E81A2265D",
  "edited": true,
  "exportOptions": {
    "_class": "exportOptions",
    "do_objectID": "06BA35CB-273E-41B3-BBD6-15D09CE9A7D6",
    "exportFormats": [
    ],
    "includedLayerIds": [
    ],
    "layerOptions": 0,
    "shouldTrim": false
  },
  "frame": {
    "_class": "rect",
    "constrainProportions": false,
    "do_objectID": "BADEBB36-7F07-4911-A1B4-04041118EADC",
    "height": 0.1058906030855535,
    "width": 0.1059863482545502,
    "x": 23.72315608728586,
    "y": 4.490477972289697
  },
  "hasClippingMask": false,
  "isClosed": true,
  "isFixedToViewport": false,
  "isFlippedHorizontal": false,
  "isFlippedVertical": false,
  "isLocked": false,
  "isVisible": true,
  "layerListExpandedType": 0,
  "name": "Path",
  "nameIsFixed": false,
  "pointRadiusBehaviour": 0,
  "points": [
    {
      "_class": "curvePoint",
      "cornerRadius": 0,
      "curveFrom": "{1.0551162586194209, 0.27763816454559276}",
      "curveMode": 3,
      "curveTo": "{0.40711625861939638, -0.1193618354543986}",
      "hasCurveFrom": true,
      "hasCurveTo": true,
      "point": "{0.63011625861940956, 0.017638164545601853}"
    },
    {
      "_class": "curvePoint",
      "cornerRadius": 0,
      "curveFrom": "{-0.28988374138060635, 0.57863816454563732}",
      "curveMode": 3,
      "curveTo": "{0.35911625861939456, 0.97463816454559549}",
      "hasCurveFrom": true,
      "hasCurveTo": true,
      "point": "{0.13411625861937182, 0.83663816454561868}"
    }
  ],
  "resizingConstraint": 63,
  "resizingType": 0,
  "rotation": 0,
  "shouldBreakMaskChain": false,
  "style": {
    "_class": "style",
    "do_objectID": "AF3B8CCF-F04F-44EA-BD6F-69B7B617A164",
    "endMarkerType": 0,
    "fills": [
      {
        "_class": "fill",
        "color": {
          "_class": "color",
          "alpha": 1,
          "blue": 0.1764705882352941,
          "green": 0.1764705882352941,
          "red": 0.1764705882352941
        },
        "fillType": 0,
        "isEnabled": true,
        "noiseIndex": 0,
        "noiseIntensity": 0,
        "patternFillType": 1,
        "patternTileScale": 1
      }
    ],
    "miterLimit": 10,
    "startMarkerType": 0,
    "windingRule": 1
  }
}