{
  "_class": "shapePath",
  "booleanOperation": -1,
  "clippingMaskMode": 0,
  "do_objectID": "89702411-38DC-4966-8B8B-9EE16F7C08F4",
  "edited": true,
  "exportOptions": {
    "_class": "exportOptions",
    "do_objectID": "F5C19E99-66F1-43D9-A56C-FB45A770370D",
    "exportFormats": [
    ],
    "includedLayerIds": [
    ],
    "layerOptions": 0,
    "shouldTrim": false
  },
  "frame": {
    "_class": "rect",
    "constrainProportions": false,
    "do_objectID": "BFD9C79B-96EA-4057-811E-96F0FFCC0486",
    "height": 0.1734103602980008,
    "width": 0.2498448423952695,
    "x": 17.24919700726551,
    "y": 4.227506256907826
  },
  "hasClippingMask": false,
  "isClosed": true,
  "isFixedToViewport": false,
  "isFlippedHorizontal": false,
  "isFlippedVertical": false,
  "isLocked": false,
  "isVisible": true,
  "layerListExpandedType": 0,
  "name": "Path",
  "nameIsFixed": false,
  "pointRadiusBehaviour": 0,
  "points": [
    {
      "_class": "curvePoint",
      "cornerRadius": 0,
      "curveFrom": "{0.17153996101365157, 0.36958851349735128}",
      "curveMode": 4,
      "curveTo": "{0.030864197530873032, 0.55899255803262804}",
      "hasCurveFrom": true,
      "hasCurveTo": true,
      "point": "{0, 0.37566814949476945}"
    },
    {
      "_class": "curvePoint",
      "cornerRadius": 0,
      "curveFrom": "{0.29889538661468973, -0.070951264162510672}",
      "curveMode": 4,
      "curveTo": "{0.1624431448992851, 0.206373670181761}",
      "hasCurveFrom": true,
      "hasCurveTo": true,
      "point": "{0.14554905782976188, 0.035676197946248933}"
    },
    {
      "_class": "curvePoint",
      "cornerRadius": 0,
      "curveFrom": "{0.38661468486030703, 0.48884291190845736}",
      "curveMode": 4,
      "curveTo": "{0.34307992202729387, 0.080104307158216592}",
      "hasCurveFrom": true,
      "hasCurveTo": true,
      "point": "{0.38141650422352352, 0.24285148616632338}"
    },
    {
      "_class": "curvePoint",
      "cornerRadius": 0,
      "curveFrom": "{0.74593892137752382, 0.40700165809690719}",
      "curveMode": 4,
      "curveTo": "{0.49967511371020451, 0.4762159756061109}",
      "hasCurveFrom": true,
      "hasCurveTo": true,
      "point": "{0.61825860948668554, 0.4518974316163849}"
    },
    {
      "_class": "curvePoint",
      "cornerRadius": 0,
      "curveFrom": "{0.95679012345679626, 0.59219672386475286}",
      "curveMode": 4,
      "curveTo": "{0.87329434697856201, 0.36257354888493953}",
      "hasCurveFrom": true,
      "hasCurveTo": true,
      "point": "{1, 0.3190807682879388}"
    },
    {
      "_class": "curvePoint",
      "cornerRadius": 0,
      "curveFrom": "{0.70662768031189382, 0.75447623856534951}",
      "curveMode": 4,
      "curveTo": "{0.91487979207277448, 0.86718333667152736}",
      "hasCurveFrom": true,
      "hasCurveTo": true,
      "point": "{0.71020142949967668, 1}"
    },
    {
      "_class": "curvePoint",
      "cornerRadius": 0,
      "curveFrom": "{0.34730344379467698, 0.83678515668438314}",
      "curveMode": 4,
      "curveTo": "{0.5929174788823961, 0.76757083917520608}",
      "hasCurveFrom": true,
      "hasCurveTo": true,
      "point": "{0.47368421052632403, 0.79235704747241553}"
    },
    {
      "_class": "curvePoint",
      "cornerRadius": 0,
      "curveFrom": "{0.061728395061736829, 0.74138163795551959}",
      "curveMode": 4,
      "curveTo": "{0.22027290448343895, 0.88074560158886739}",
      "hasCurveFrom": true,
      "hasCurveTo": true,
      "point": "{0.092592592592600623, 0.92517371080086164}"
    }
  ],
  "resizingConstraint": 63,
  "resizingType": 0,
  "rotation": 0,
  "shouldBreakMaskChain": false,
  "style": {
    "_class": "style",
    "do_objectID": "9B611695-BDDE-4D78-A498-7557E9E6A0EC",
    "endMarkerType": 0,
    "fills": [
      {
        "_class": "fill",
        "color": {
          "_class": "color",
          "alpha": 1,
          "blue": 0.1764705882352941,
          "green": 0.1764705882352941,
          "red": 0.1764705882352941
        },
        "fillType": 0,
        "isEnabled": true,
        "noiseIndex": 0,
        "noiseIntensity": 0,
        "patternFillType": 1,
        "patternTileScale": 1
      }
    ],
    "miterLimit": 10,
    "startMarkerType": 0,
    "windingRule": 1
  }
}