{
  "_class": "shapePath",
  "booleanOperation": -1,
  "clippingMaskMode": 0,
  "do_objectID": "8E9C37C5-CE63-46D4-ABBD-3B008ACEF591",
  "edited": true,
  "exportOptions": {
    "_class": "exportOptions",
    "do_objectID": "F1ED2018-579F-4DE0-AF39-A653086C5138",
    "exportFormats": [
    ],
    "includedLayerIds": [
    ],
    "layerOptions": 0,
    "shouldTrim": false
  },
  "frame": {
    "_class": "rect",
    "constrainProportions": false,
    "do_objectID": "57301FDE-A490-4559-A8DB-0D0CF79671F5",
    "height": 0.1058906030855544,
    "width": 0.1059863482545431,
    "x": 25.06361926844049,
    "y": 6.493134474200952
  },
  "hasClippingMask": false,
  "isClosed": true,
  "isFixedToViewport": false,
  "isFlippedHorizontal": false,
  "isFlippedVertical": false,
  "isLocked": false,
  "isVisible": true,
  "layerListExpandedType": 0,
  "name": "Path",
  "nameIsFixed": false,
  "pointRadiusBehaviour": 0,
  "points": [
    {
      "_class": "curvePoint",
      "cornerRadius": 0,
      "curveFrom": "{-0.30191553822862716, 0.78931092748730691}",
      "curveMode": 3,
      "curveTo": "{0.46208446177138285, 1.0633109274873078}",
      "hasCurveFrom": true,
      "hasCurveTo": true,
      "point": "{0.19408446177135374, 0.96631092748732783}"
    },
    {
      "_class": "curvePoint",
      "cornerRadius": 0,
      "curveFrom": "{1.0400844617713574, 0.18931092748734102}",
      "curveMode": 3,
      "curveTo": "{0.27808446177135693, -0.08868907251267899}",
      "hasCurveFrom": true,
      "hasCurveTo": true,
      "point": "{0.54408446177137648, 0.0073109274873246477}"
    }
  ],
  "resizingConstraint": 63,
  "resizingType": 0,
  "rotation": 0,
  "shouldBreakMaskChain": false,
  "style": {
    "_class": "style",
    "do_objectID": "D36ED7C0-68EB-48FC-AE62-DA03AD3532D4",
    "endMarkerType": 0,
    "fills": [
      {
        "_class": "fill",
        "color": {
          "_class": "color",
          "alpha": 1,
          "blue": 0.1764705882352941,
          "green": 0.1764705882352941,
          "red": 0.1764705882352941
        },
        "fillType": 0,
        "isEnabled": true,
        "noiseIndex": 0,
        "noiseIntensity": 0,
        "patternFillType": 1,
        "patternTileScale": 1
      }
    ],
    "miterLimit": 10,
    "startMarkerType": 0,
    "windingRule": 1
  }
}