{
  "_class": "shapePath",
  "booleanOperation": -1,
  "clippingMaskMode": 0,
  "do_objectID": "9004F2A6-7AB3-436B-8B2D-FCEDB42653E8",
  "edited": true,
  "exportOptions": {
    "_class": "exportOptions",
    "do_objectID": "5F8145E5-CB30-4DD1-BB90-9F0303A1CB38",
    "exportFormats": [
    ],
    "includedLayerIds": [
    ],
    "layerOptions": 0,
    "shouldTrim": false
  },
  "frame": {
    "_class": "rect",
    "constrainProportions": false,
    "do_objectID": "93622E53-0403-43AE-B961-D7EA0359A14D",
    "height": 0.1058906030855571,
    "width": 0.1059863482545502,
    "x": 26.84213256468246,
    "y": 13.39763920779324
  },
  "hasClippingMask": false,
  "isClosed": true,
  "isFixedToViewport": false,
  "isFlippedHorizontal": false,
  "isFlippedVertical": false,
  "isLocked": false,
  "isVisible": true,
  "layerListExpandedType": 0,
  "name": "Path",
  "nameIsFixed": false,
  "pointRadiusBehaviour": 0,
  "points": [
    {
      "_class": "curvePoint",
      "cornerRadius": 0,
      "curveFrom": "{1.0554303399928244, 0.27134586037493591}",
      "curveMode": 4,
      "curveTo": "{0.40843033999283307, -0.12165413962503635}",
      "hasCurveFrom": true,
      "hasCurveTo": true,
      "point": "{0.63343033999285581, 0.018345860374950007}"
    },
    {
      "_class": "curvePoint",
      "cornerRadius": 0,
      "curveFrom": "{-0.28956966000714601, 0.57734586037491908}",
      "curveMode": 3,
      "curveTo": "{0.3594303399928549, 0.97234586037495774}",
      "hasCurveFrom": true,
      "hasCurveTo": true,
      "point": "{0.13343033999285581, 0.83534586037495728}"
    }
  ],
  "resizingConstraint": 63,
  "resizingType": 0,
  "rotation": 0,
  "shouldBreakMaskChain": false,
  "style": {
    "_class": "style",
    "do_objectID": "0B86F56C-1196-46E9-8206-61732B5753FE",
    "endMarkerType": 0,
    "fills": [
      {
        "_class": "fill",
        "color": {
          "_class": "color",
          "alpha": 1,
          "blue": 0.1764705882352941,
          "green": 0.1764705882352941,
          "red": 0.1764705882352941
        },
        "fillType": 0,
        "isEnabled": true,
        "noiseIndex": 0,
        "noiseIntensity": 0,
        "patternFillType": 1,
        "patternTileScale": 1
      }
    ],
    "miterLimit": 10,
    "startMarkerType": 0,
    "windingRule": 1
  }
}