{
  "_class": "shapePath",
  "booleanOperation": -1,
  "clippingMaskMode": 0,
  "do_objectID": "9006C314-9505-4397-912E-D9844B90C07C",
  "edited": true,
  "exportOptions": {
    "_class": "exportOptions",
    "do_objectID": "60A2F3BD-4449-458E-9FED-BAFC313EDE2E",
    "exportFormats": [
    ],
    "includedLayerIds": [
    ],
    "layerOptions": 0,
    "shouldTrim": false
  },
  "frame": {
    "_class": "rect",
    "constrainProportions": false,
    "do_objectID": "BEDA156B-5E59-4F3B-8A8F-54C5B49F995D",
    "height": 0.1058906030855731,
    "width": 0.1059863482545609,
    "x": 5.880501744292978,
    "y": 16.87413151980046
  },
  "hasClippingMask": false,
  "isClosed": true,
  "isFixedToViewport": false,
  "isFlippedHorizontal": false,
  "isFlippedVertical": false,
  "isLocked": false,
  "isVisible": true,
  "layerListExpandedType": 0,
  "name": "Path",
  "nameIsFixed": false,
  "pointRadiusBehaviour": 0,
  "points": [
    {
      "_class": "curvePoint",
      "cornerRadius": 0,
      "curveFrom": "{-0.30169948055431917, 0.78746576816129732}",
      "curveMode": 3,
      "curveTo": "{0.46030051944568129, 1.0674657681612985}",
      "hasCurveFrom": true,
      "hasCurveTo": true,
      "point": "{0.19430051944567595, 0.96846576816128049}"
    },
    {
      "_class": "curvePoint",
      "cornerRadius": 0,
      "curveFrom": "{1.0413005194456701, 0.187465768161303}",
      "curveMode": 3,
      "curveTo": "{0.27730051944567435, -0.08953423183871223}",
      "hasCurveFrom": true,
      "hasCurveTo": true,
      "point": "{0.54230051944567492, 0.0074657681612961824}"
    }
  ],
  "resizingConstraint": 63,
  "resizingType": 0,
  "rotation": 0,
  "shouldBreakMaskChain": false,
  "style": {
    "_class": "style",
    "do_objectID": "54CD355B-301A-436F-A068-B62FBAA285AF",
    "endMarkerType": 0,
    "fills": [
      {
        "_class": "fill",
        "color": {
          "_class": "color",
          "alpha": 1,
          "blue": 0.1764705882352941,
          "green": 0.1764705882352941,
          "red": 0.1764705882352941
        },
        "fillType": 0,
        "isEnabled": true,
        "noiseIndex": 0,
        "noiseIntensity": 0,
        "patternFillType": 1,
        "patternTileScale": 1
      }
    ],
    "miterLimit": 10,
    "startMarkerType": 0,
    "windingRule": 1
  }
}