{
  "_class": "shapePath",
  "booleanOperation": -1,
  "clippingMaskMode": 0,
  "do_objectID": "9D1EBE3B-1DD9-4699-96E3-C30D03C97F02",
  "edited": true,
  "exportOptions": {
    "_class": "exportOptions",
    "do_objectID": "B83C4D59-AEF0-4C36-B440-0874027CE4EE",
    "exportFormats": [
    ],
    "includedLayerIds": [
    ],
    "layerOptions": 0,
    "shouldTrim": false
  },
  "frame": {
    "_class": "rect",
    "constrainProportions": false,
    "do_objectID": "745657F2-61F9-4DB8-8A2A-E948B9D183E8",
    "height": 0.1058906030855549,
    "width": 0.1059863482545644,
    "x": 17.9054486257796,
    "y": 3.102872084792182
  },
  "hasClippingMask": false,
  "isClosed": true,
  "isFixedToViewport": false,
  "isFlippedHorizontal": false,
  "isFlippedVertical": false,
  "isLocked": false,
  "isVisible": true,
  "layerListExpandedType": 0,
  "name": "Path",
  "nameIsFixed": false,
  "pointRadiusBehaviour": 0,
  "points": [
    {
      "_class": "curvePoint",
      "cornerRadius": 0,
      "curveFrom": "{-0.30078759225597196, 0.78590836276990217}",
      "curveMode": 4,
      "curveTo": "{0.46021240774402372, 1.062908362769889}",
      "hasCurveFrom": true,
      "hasCurveTo": true,
      "point": "{0.19321240774402781, 0.96890836276989489}"
    },
    {
      "_class": "curvePoint",
      "cornerRadius": 0,
      "curveFrom": "{1.0382124077440267, 0.18490836276990308}",
      "curveMode": 4,
      "curveTo": "{0.277212407744031, -0.092091637230083734}",
      "hasCurveFrom": true,
      "hasCurveTo": true,
      "point": "{0.54321240774402213, 0.0079083627698821601}"
    }
  ],
  "resizingConstraint": 63,
  "resizingType": 0,
  "rotation": 0,
  "shouldBreakMaskChain": false,
  "style": {
    "_class": "style",
    "do_objectID": "678D7FBE-D4C4-446D-B2BF-284D35907CFE",
    "endMarkerType": 0,
    "fills": [
      {
        "_class": "fill",
        "color": {
          "_class": "color",
          "alpha": 1,
          "blue": 0.1764705882352941,
          "green": 0.1764705882352941,
          "red": 0.1764705882352941
        },
        "fillType": 0,
        "isEnabled": true,
        "noiseIndex": 0,
        "noiseIntensity": 0,
        "patternFillType": 1,
        "patternTileScale": 1
      }
    ],
    "miterLimit": 10,
    "startMarkerType": 0,
    "windingRule": 1
  }
}