{
  "_class": "shapePath",
  "booleanOperation": -1,
  "clippingMaskMode": 0,
  "do_objectID": "A0CDA674-CAAA-4B90-BC05-E016211D425E",
  "edited": true,
  "exportOptions": {
    "_class": "exportOptions",
    "do_objectID": "D36007B0-15D9-46D0-A4F2-73F506CA99CE",
    "exportFormats": [
    ],
    "includedLayerIds": [
    ],
    "layerOptions": 0,
    "shouldTrim": false
  },
  "frame": {
    "_class": "rect",
    "constrainProportions": false,
    "do_objectID": "ED2B3186-F480-45BA-A99E-4916BEB8BA41",
    "height": 0.1058906030855589,
    "width": 0.1059863482545786,
    "x": 20.90947198115692,
    "y": 15.42811862473112
  },
  "hasClippingMask": false,
  "isClosed": true,
  "isFixedToViewport": false,
  "isFlippedHorizontal": false,
  "isFlippedVertical": false,
  "isLocked": false,
  "isVisible": true,
  "layerListExpandedType": 0,
  "name": "Path",
  "nameIsFixed": false,
  "pointRadiusBehaviour": 0,
  "points": [
    {
      "_class": "curvePoint",
      "cornerRadius": 0,
      "curveFrom": "{-0.25829174709951985, 0.51494023333759742}",
      "curveMode": 4,
      "curveTo": "{0.31970825290051152, 0.86794023333760606}",
      "hasCurveFrom": true,
      "hasCurveTo": true,
      "point": "{0.11970825290046605, 0.74394023333758241}"
    },
    {
      "_class": "curvePoint",
      "cornerRadius": 0,
      "curveFrom": "{0.93870825290048288, 0.24594023333759196}",
      "curveMode": 3,
      "curveTo": "{0.36170825290048469, -0.10705976666241668}",
      "hasCurveFrom": true,
      "hasCurveTo": true,
      "point": "{0.56370825290048288, 0.015940233337573773}"
    }
  ],
  "resizingConstraint": 63,
  "resizingType": 0,
  "rotation": 0,
  "shouldBreakMaskChain": false,
  "style": {
    "_class": "style",
    "do_objectID": "F9151659-8E17-4EFD-921F-C1CA765517BF",
    "endMarkerType": 0,
    "fills": [
      {
        "_class": "fill",
        "color": {
          "_class": "color",
          "alpha": 1,
          "blue": 0.1764705882352941,
          "green": 0.1764705882352941,
          "red": 0.1764705882352941
        },
        "fillType": 0,
        "isEnabled": true,
        "noiseIndex": 0,
        "noiseIntensity": 0,
        "patternFillType": 1,
        "patternTileScale": 1
      }
    ],
    "miterLimit": 10,
    "startMarkerType": 0,
    "windingRule": 1
  }
}