{
  "_class": "shapePath",
  "booleanOperation": -1,
  "clippingMaskMode": 0,
  "do_objectID": "AB5C81F8-7798-4066-811C-6D592018DFE9",
  "edited": true,
  "exportOptions": {
    "_class": "exportOptions",
    "do_objectID": "B5B4C1C8-5774-41DA-B65A-A39392C646D4",
    "exportFormats": [
    ],
    "includedLayerIds": [
    ],
    "layerOptions": 0,
    "shouldTrim": false
  },
  "frame": {
    "_class": "rect",
    "constrainProportions": false,
    "do_objectID": "3D061247-BF05-4861-8992-E9C4174418C1",
    "height": 0.1058906030855589,
    "width": 0.1059863482545538,
    "x": 35.26058326628548,
    "y": 17.09553213759438
  },
  "hasClippingMask": false,
  "isClosed": true,
  "isFixedToViewport": false,
  "isFlippedHorizontal": false,
  "isFlippedVertical": false,
  "isLocked": false,
  "isVisible": true,
  "layerListExpandedType": 0,
  "name": "Path",
  "nameIsFixed": false,
  "pointRadiusBehaviour": 0,
  "points": [
    {
      "_class": "curvePoint",
      "cornerRadius": 0,
      "curveFrom": "{0.92909827375689247, 0.16642229786484108}",
      "curveMode": 3,
      "curveTo": "{0.2470982737568761, -0.078577702135135041}",
      "hasCurveFrom": true,
      "hasCurveTo": true,
      "point": "{0.48509827375687564, 0.0064222978648444951}"
    },
    {
      "_class": "curvePoint",
      "cornerRadius": 0,
      "curveFrom": "{-0.26890172624308661, 0.70542229786485677}",
      "curveMode": 3,
      "curveTo": "{0.41209827375689656, 0.95242229786484245}",
      "hasCurveFrom": true,
      "hasCurveTo": true,
      "point": "{0.17309827375692066, 0.86542229786485336}"
    }
  ],
  "resizingConstraint": 63,
  "resizingType": 0,
  "rotation": 0,
  "shouldBreakMaskChain": false,
  "style": {
    "_class": "style",
    "do_objectID": "6F080799-5C8A-4F60-8D9C-31B5A4C91515",
    "endMarkerType": 0,
    "fills": [
      {
        "_class": "fill",
        "color": {
          "_class": "color",
          "alpha": 1,
          "blue": 0.1764705882352941,
          "green": 0.1764705882352941,
          "red": 0.1764705882352941
        },
        "fillType": 0,
        "isEnabled": true,
        "noiseIndex": 0,
        "noiseIntensity": 0,
        "patternFillType": 1,
        "patternTileScale": 1
      }
    ],
    "miterLimit": 10,
    "startMarkerType": 0,
    "windingRule": 1
  }
}