{
  "_class": "shapePath",
  "booleanOperation": -1,
  "clippingMaskMode": 0,
  "do_objectID": "ABA07606-9417-4022-A184-2A74122AF027",
  "edited": true,
  "exportOptions": {
    "_class": "exportOptions",
    "do_objectID": "1588CDEB-755B-43B5-A6E8-33329F7511DE",
    "exportFormats": [
    ],
    "includedLayerIds": [
    ],
    "layerOptions": 0,
    "shouldTrim": false
  },
  "frame": {
    "_class": "rect",
    "constrainProportions": false,
    "do_objectID": "B4CB4F35-F105-4FF7-955A-4501097E4C3A",
    "height": 0.1058906030855571,
    "width": 0.1059863482545609,
    "x": 18.60522058045057,
    "y": 14.20015140884696
  },
  "hasClippingMask": false,
  "isClosed": true,
  "isFixedToViewport": false,
  "isFlippedHorizontal": false,
  "isFlippedVertical": false,
  "isLocked": false,
  "isVisible": true,
  "layerListExpandedType": 0,
  "name": "Path",
  "nameIsFixed": false,
  "pointRadiusBehaviour": 0,
  "points": [
    {
      "_class": "curvePoint",
      "cornerRadius": 0,
      "curveFrom": "{-0.26873031746004017, 0.70074025569948617}",
      "curveMode": 4,
      "curveTo": "{0.41026968253996188, 0.94774025569950027}",
      "hasCurveFrom": true,
      "hasCurveTo": true,
      "point": "{0.17326968253996711, 0.86374025569949708}"
    },
    {
      "_class": "curvePoint",
      "cornerRadius": 0,
      "curveFrom": "{0.92926968253996733, 0.165740255699518}",
      "curveMode": 3,
      "curveTo": "{0.24626968253997461, -0.080259744300519742}",
      "hasCurveFrom": true,
      "hasCurveTo": true,
      "point": "{0.48526968253995051, 0.0067402556995261875}"
    }
  ],
  "resizingConstraint": 63,
  "resizingType": 0,
  "rotation": 0,
  "shouldBreakMaskChain": false,
  "style": {
    "_class": "style",
    "do_objectID": "509DA685-916A-4AF6-BB1E-76D520BE6F14",
    "endMarkerType": 0,
    "fills": [
      {
        "_class": "fill",
        "color": {
          "_class": "color",
          "alpha": 1,
          "blue": 0.1764705882352941,
          "green": 0.1764705882352941,
          "red": 0.1764705882352941
        },
        "fillType": 0,
        "isEnabled": true,
        "noiseIndex": 0,
        "noiseIntensity": 0,
        "patternFillType": 1,
        "patternTileScale": 1
      }
    ],
    "miterLimit": 10,
    "startMarkerType": 0,
    "windingRule": 1
  }
}