{
  "_class": "shapePath",
  "booleanOperation": -1,
  "clippingMaskMode": 0,
  "do_objectID": "BF6E7704-727D-4477-B348-D3F168C22BE3",
  "edited": true,
  "exportOptions": {
    "_class": "exportOptions",
    "do_objectID": "C713E7BE-8664-4636-A33F-5B4BB59788CB",
    "exportFormats": [
    ],
    "includedLayerIds": [
    ],
    "layerOptions": 0,
    "shouldTrim": false
  },
  "frame": {
    "_class": "rect",
    "constrainProportions": false,
    "do_objectID": "717D3EF0-3C74-4B14-997F-0EFA18815E8D",
    "height": 0.1058906030855546,
    "width": 0.1437820307396009,
    "x": 28.0045174001358,
    "y": 1.205580778560604
  },
  "hasClippingMask": false,
  "isClosed": true,
  "isFixedToViewport": false,
  "isFlippedHorizontal": false,
  "isFlippedVertical": false,
  "isLocked": false,
  "isVisible": true,
  "layerListExpandedType": 0,
  "name": "Path",
  "nameIsFixed": false,
  "pointRadiusBehaviour": 0,
  "points": [
    {
      "_class": "curvePoint",
      "cornerRadius": 0,
      "curveFrom": "{0.51444601446462357, 0.18639053254434187}",
      "curveMode": 4,
      "curveTo": "{0.096684066357179313, 0.39842209072977552}",
      "hasCurveFrom": true,
      "hasCurveTo": true,
      "point": "{0.29427417694851637, 0.27909270216958171}"
    },
    {
      "_class": "curvePoint",
      "cornerRadius": 0,
      "curveFrom": "{1.0863282488333075, 0.46646942800789792}",
      "curveMode": 4,
      "curveTo": "{0.73574693832694027, 0.092702169625239805}",
      "hasCurveFrom": true,
      "hasCurveTo": true,
      "point": "{0.95648331901615224, 0}"
    },
    {
      "_class": "curvePoint",
      "cornerRadius": 0,
      "curveFrom": "{0.48508976946246735, 0.81360946745560203}",
      "curveMode": 4,
      "curveTo": "{0.90285171756991156, 0.60157790927016841}",
      "hasCurveFrom": true,
      "hasCurveTo": true,
      "point": "{0.70526160697854234, 0.71992110453644398}"
    },
    {
      "_class": "curvePoint",
      "cornerRadius": 0,
      "curveFrom": "{-0.085663378560006942, 0.53254437869818372}",
      "curveMode": 4,
      "curveTo": "{0.26378884560015059, 0.90729783037470413}",
      "hasCurveFrom": true,
      "hasCurveTo": true,
      "point": "{0.043052464910938622, 1}"
    }
  ],
  "resizingConstraint": 63,
  "resizingType": 0,
  "rotation": 0,
  "shouldBreakMaskChain": false,
  "style": {
    "_class": "style",
    "do_objectID": "A075F579-5C4C-4109-87D0-A52F83A19E5E",
    "endMarkerType": 0,
    "fills": [
      {
        "_class": "fill",
        "color": {
          "_class": "color",
          "alpha": 1,
          "blue": 0.1764705882352941,
          "green": 0.1764705882352941,
          "red": 0.1764705882352941
        },
        "fillType": 0,
        "isEnabled": true,
        "noiseIndex": 0,
        "noiseIntensity": 0,
        "patternFillType": 1,
        "patternTileScale": 1
      }
    ],
    "miterLimit": 10,
    "startMarkerType": 0,
    "windingRule": 1
  }
}