{
  "_class": "shapePath",
  "booleanOperation": -1,
  "clippingMaskMode": 0,
  "do_objectID": "C89D028A-FF48-4203-8179-17B742167C1E",
  "edited": true,
  "exportOptions": {
    "_class": "exportOptions",
    "do_objectID": "FEB14E05-17EC-4AB4-B242-9BC7BF35528E",
    "exportFormats": [
    ],
    "includedLayerIds": [
    ],
    "layerOptions": 0,
    "shouldTrim": false
  },
  "frame": {
    "_class": "rect",
    "constrainProportions": false,
    "do_objectID": "7B0661D1-5F2C-4B5B-9F4E-4105F50CBF0A",
    "height": 0.1058906030855589,
    "width": 0.1073295657239228,
    "x": 38.54872969130761,
    "y": 12.76567181989671
  },
  "hasClippingMask": false,
  "isClosed": true,
  "isFixedToViewport": false,
  "isFlippedHorizontal": false,
  "isFlippedVertical": false,
  "isLocked": false,
  "isVisible": true,
  "layerListExpandedType": 0,
  "name": "Path",
  "nameIsFixed": false,
  "pointRadiusBehaviour": 0,
  "points": [
    {
      "_class": "curvePoint",
      "cornerRadius": 0,
      "curveFrom": "{0.08417278460473826, 0.25490890211789718}",
      "curveMode": 3,
      "curveTo": "{-0.060276624044372999, 0.76668754406230011}",
      "hasCurveFrom": true,
      "hasCurveTo": true,
      "point": "{0.0055197034554650562, 0.53726953215614814}"
    },
    {
      "_class": "curvePoint",
      "cornerRadius": 0,
      "curveFrom": "{1.1452331004930365, 0.43530597130900039}",
      "curveMode": 4,
      "curveTo": "{0.76028677063764583, 0.25686973982645006}",
      "hasCurveFrom": true,
      "hasCurveTo": true,
      "point": "{0.88961058675802762, 0}"
    },
    {
      "_class": "curvePoint",
      "cornerRadius": 0,
      "curveFrom": "{0.48046330885668687, 1.2510144580862936}",
      "curveMode": 4,
      "curveTo": "{0.91078641629818013, 0.64315476842051311}",
      "hasCurveFrom": true,
      "hasCurveTo": true,
      "point": "{0.65365134331029395, 0.84021895813476188}"
    }
  ],
  "resizingConstraint": 63,
  "resizingType": 0,
  "rotation": 0,
  "shouldBreakMaskChain": false,
  "style": {
    "_class": "style",
    "do_objectID": "00DDD267-30AD-4C90-BA65-1D04BC9410D3",
    "endMarkerType": 0,
    "fills": [
      {
        "_class": "fill",
        "color": {
          "_class": "color",
          "alpha": 1,
          "blue": 0.1764705882352941,
          "green": 0.1764705882352941,
          "red": 0.1764705882352941
        },
        "fillType": 0,
        "isEnabled": true,
        "noiseIndex": 0,
        "noiseIntensity": 0,
        "patternFillType": 1,
        "patternTileScale": 1
      }
    ],
    "miterLimit": 10,
    "startMarkerType": 0,
    "windingRule": 1
  }
}