{
  "_class": "shapePath",
  "booleanOperation": -1,
  "clippingMaskMode": 0,
  "do_objectID": "CB5FA823-9EFA-430B-A8D0-EC8B96E4ED0F",
  "edited": true,
  "exportOptions": {
    "_class": "exportOptions",
    "do_objectID": "4615364C-1300-419D-A1D9-09AEAECE9973",
    "exportFormats": [
    ],
    "includedLayerIds": [
    ],
    "layerOptions": 0,
    "shouldTrim": false
  },
  "frame": {
    "_class": "rect",
    "constrainProportions": false,
    "do_objectID": "E3576810-C66A-4597-BCDB-41D50F1AA1B6",
    "height": 0.1058906030855553,
    "width": 0.1059863482545591,
    "x": 7.264899075389473,
    "y": 27.97504888405583
  },
  "hasClippingMask": false,
  "isClosed": true,
  "isFixedToViewport": false,
  "isFlippedHorizontal": false,
  "isFlippedVertical": false,
  "isLocked": false,
  "isVisible": true,
  "layerListExpandedType": 0,
  "name": "Path",
  "nameIsFixed": false,
  "pointRadiusBehaviour": 0,
  "points": [
    {
      "_class": "curvePoint",
      "cornerRadius": 0,
      "curveFrom": "{-0.26998444966994839, 0.70343776867809993}",
      "curveMode": 3,
      "curveTo": "{0.41001555033004422, 0.94643776867809493}",
      "hasCurveFrom": true,
      "hasCurveTo": true,
      "point": "{0.17401555033004001, 0.86143776867811539}"
    },
    {
      "_class": "curvePoint",
      "cornerRadius": 0,
      "curveFrom": "{0.92701555033004013, 0.16943776867810811}",
      "curveMode": 3,
      "curveTo": "{0.24801555033003808, -0.078562231321882336}",
      "hasCurveFrom": true,
      "hasCurveTo": true,
      "point": "{0.48401555033004229, 0.0064377686781540433}"
    }
  ],
  "resizingConstraint": 63,
  "resizingType": 0,
  "rotation": 0,
  "shouldBreakMaskChain": false,
  "style": {
    "_class": "style",
    "do_objectID": "606DE886-AA94-4526-878F-8C6805F342E4",
    "endMarkerType": 0,
    "fills": [
      {
        "_class": "fill",
        "color": {
          "_class": "color",
          "alpha": 1,
          "blue": 0.1764705882352941,
          "green": 0.1764705882352941,
          "red": 0.1764705882352941
        },
        "fillType": 0,
        "isEnabled": true,
        "noiseIndex": 0,
        "noiseIntensity": 0,
        "patternFillType": 1,
        "patternTileScale": 1
      }
    ],
    "miterLimit": 10,
    "startMarkerType": 0,
    "windingRule": 1
  }
}