{
  "_class": "shapePath",
  "booleanOperation": -1,
  "clippingMaskMode": 0,
  "do_objectID": "D0BDE840-2097-4E39-A416-BB47C3747CEE",
  "edited": true,
  "exportOptions": {
    "_class": "exportOptions",
    "do_objectID": "3F4AC4EB-C037-46BC-8876-F5547C6BD312",
    "exportFormats": [
    ],
    "includedLayerIds": [
    ],
    "layerOptions": 0,
    "shouldTrim": false
  },
  "frame": {
    "_class": "rect",
    "constrainProportions": false,
    "do_objectID": "2449A05F-3944-4F1C-A07F-145D156A3751",
    "height": 0.1064872058620256,
    "width": 0.1185832550619814,
    "x": 12.59371806003343,
    "y": 14.18196442886858
  },
  "hasClippingMask": false,
  "isClosed": true,
  "isFixedToViewport": false,
  "isFlippedHorizontal": false,
  "isFlippedVertical": false,
  "isLocked": false,
  "isVisible": true,
  "layerListExpandedType": 0,
  "name": "Path",
  "nameIsFixed": false,
  "pointRadiusBehaviour": 0,
  "points": [
    {
      "_class": "curvePoint",
      "cornerRadius": 0,
      "curveFrom": "{1.1307058253178781, 0.57422643307333199}",
      "curveMode": 4,
      "curveTo": "{0.64607429795170901, 0.33585392173121648}",
      "hasCurveFrom": true,
      "hasCurveTo": true,
      "point": "{0.90071120216106237, 0.2353262172674413}"
    },
    {
      "_class": "curvePoint",
      "cornerRadius": 0,
      "curveFrom": "{0.38048526883015138, 1.1469297191093701}",
      "curveMode": 4,
      "curveTo": "{0.91987742075745882, 0.73720316606762704}",
      "hasCurveFrom": true,
      "hasCurveTo": true,
      "point": "{0.68646025856555482, 0.88799472276331148}"
    },
    {
      "_class": "curvePoint",
      "cornerRadius": 0,
      "curveFrom": "{-0.13152657081660638, 0.30996042209661495}",
      "curveMode": 4,
      "curveTo": "{0.23742313716414695, 0.91008035480459182}",
      "hasCurveFrom": true,
      "hasCurveTo": true,
      "point": "{0.10052157576126233, 0.65114535845848975}"
    },
    {
      "_class": "curvePoint",
      "cornerRadius": 0,
      "curveFrom": "{0.3989669796195302, 0.41505756767235824}",
      "curveMode": 4,
      "curveTo": "{0.079986341550830606, 0.14926840965830401}",
      "hasCurveFrom": true,
      "hasCurveTo": true,
      "point": "{0.31271899593571695, 0}"
    }
  ],
  "resizingConstraint": 63,
  "resizingType": 0,
  "rotation": 0,
  "shouldBreakMaskChain": false,
  "style": {
    "_class": "style",
    "do_objectID": "0AA15A3C-DE17-4BED-861F-AA03BDC81AD8",
    "endMarkerType": 0,
    "fills": [
      {
        "_class": "fill",
        "color": {
          "_class": "color",
          "alpha": 1,
          "blue": 0.1764705882352941,
          "green": 0.1764705882352941,
          "red": 0.1764705882352941
        },
        "fillType": 0,
        "isEnabled": true,
        "noiseIndex": 0,
        "noiseIntensity": 0,
        "patternFillType": 1,
        "patternTileScale": 1
      }
    ],
    "miterLimit": 10,
    "startMarkerType": 0,
    "windingRule": 1
  }
}