{
  "_class": "shapePath",
  "booleanOperation": -1,
  "clippingMaskMode": 0,
  "do_objectID": "D8A068D4-A1A8-4DCC-A18F-8B7490815A3B",
  "edited": true,
  "exportOptions": {
    "_class": "exportOptions",
    "do_objectID": "860FAE51-8951-4E10-8369-D83C3684D657",
    "exportFormats": [
    ],
    "includedLayerIds": [
    ],
    "layerOptions": 0,
    "shouldTrim": false
  },
  "frame": {
    "_class": "rect",
    "constrainProportions": false,
    "do_objectID": "2E89794C-51C8-4A4A-89E1-6DAC0C0B0963",
    "height": 0.1058906030855535,
    "width": 0.1059863482545502,
    "x": 28.56511364026859,
    "y": 9.130805411894032
  },
  "hasClippingMask": false,
  "isClosed": true,
  "isFixedToViewport": false,
  "isFlippedHorizontal": false,
  "isFlippedVertical": false,
  "isLocked": false,
  "isVisible": true,
  "layerListExpandedType": 0,
  "name": "Path",
  "nameIsFixed": false,
  "pointRadiusBehaviour": 0,
  "points": [
    {
      "_class": "curvePoint",
      "cornerRadius": 0,
      "curveFrom": "{1.0409135153470288, 0.18675705771067896}",
      "curveMode": 4,
      "curveTo": "{0.27891351534702835, -0.091242942289341045}",
      "hasCurveFrom": true,
      "hasCurveTo": true,
      "point": "{0.54391351534701471, 0.0077570577106484961}"
    },
    {
      "_class": "curvePoint",
      "cornerRadius": 0,
      "curveFrom": "{-0.30208648465298893, 0.78675705771064486}",
      "curveMode": 3,
      "curveTo": "{0.46391351534703062, 1.0677570577106508}",
      "hasCurveFrom": true,
      "hasCurveTo": true,
      "point": "{0.19391351534699197, 0.96775705771068488}"
    }
  ],
  "resizingConstraint": 63,
  "resizingType": 0,
  "rotation": 0,
  "shouldBreakMaskChain": false,
  "style": {
    "_class": "style",
    "do_objectID": "0B001052-372B-4AE4-9E92-0EB56F916318",
    "endMarkerType": 0,
    "fills": [
      {
        "_class": "fill",
        "color": {
          "_class": "color",
          "alpha": 1,
          "blue": 0.1764705882352941,
          "green": 0.1764705882352941,
          "red": 0.1764705882352941
        },
        "fillType": 0,
        "isEnabled": true,
        "noiseIndex": 0,
        "noiseIntensity": 0,
        "patternFillType": 1,
        "patternTileScale": 1
      }
    ],
    "miterLimit": 10,
    "startMarkerType": 0,
    "windingRule": 1
  }
}