{
  "_class": "shapePath",
  "booleanOperation": -1,
  "clippingMaskMode": 0,
  "do_objectID": "E2CF3861-D7A1-4582-9D7A-1CC7CD8FC878",
  "edited": true,
  "exportOptions": {
    "_class": "exportOptions",
    "do_objectID": "836D1D73-8C24-4D14-B6A2-AB86706DBA57",
    "exportFormats": [
    ],
    "includedLayerIds": [
    ],
    "layerOptions": 0,
    "shouldTrim": false
  },
  "frame": {
    "_class": "rect",
    "constrainProportions": false,
    "do_objectID": "7C5F80BC-3328-4F23-83E3-0DC98461E3B3",
    "height": 0.1196193081901988,
    "width": 0.1059863482545751,
    "x": 36.27043723471515,
    "y": 28.29355558836046
  },
  "hasClippingMask": false,
  "isClosed": true,
  "isFixedToViewport": false,
  "isFlippedHorizontal": false,
  "isFlippedVertical": false,
  "isLocked": false,
  "isVisible": true,
  "layerListExpandedType": 0,
  "name": "Path",
  "nameIsFixed": false,
  "pointRadiusBehaviour": 0,
  "points": [
    {
      "_class": "curvePoint",
      "cornerRadius": 0,
      "curveFrom": "{0.12904112025440084, 0.011525423728849144}",
      "curveMode": 4,
      "curveTo": "{-0.13952396740668654, 0.26169491525424959}",
      "hasCurveFrom": true,
      "hasCurveTo": true,
      "point": "{0.031818633323325803, 0.10779661016952286}"
    },
    {
      "_class": "curvePoint",
      "cornerRadius": 0,
      "curveFrom": "{0.56221061648195592, 0.1884745762711971}",
      "curveMode": 4,
      "curveTo": "{0.54103344111083873, 0.083389830508505361}",
      "hasCurveFrom": true,
      "hasCurveTo": true,
      "point": "{0.6632834989350721, 0}"
    },
    {
      "_class": "curvePoint",
      "cornerRadius": 0,
      "curveFrom": "{0.8692796593632911, 0.98711864406779315}",
      "curveMode": 3,
      "curveTo": "{1.1339943515023372, 0.73830508474578893}",
      "hasCurveFrom": true,
      "hasCurveTo": true,
      "point": "{0.97035254181640729, 0.89220338983051573}"
    },
    {
      "_class": "curvePoint",
      "cornerRadius": 0,
      "curveFrom": "{0.44188575641874311, 0.81152542372880287}",
      "curveMode": 4,
      "curveTo": "{0.46113773402883962, 0.91796610169492943}",
      "hasCurveFrom": true,
      "hasCurveTo": true,
      "point": "{0.3379250773241233, 1}"
    }
  ],
  "resizingConstraint": 63,
  "resizingType": 0,
  "rotation": 0,
  "shouldBreakMaskChain": false,
  "style": {
    "_class": "style",
    "do_objectID": "8E255368-6A84-4E95-AF2E-958243C3BE5A",
    "endMarkerType": 0,
    "fills": [
      {
        "_class": "fill",
        "color": {
          "_class": "color",
          "alpha": 1,
          "blue": 0.1764705882352941,
          "green": 0.1764705882352941,
          "red": 0.1764705882352941
        },
        "fillType": 0,
        "isEnabled": true,
        "noiseIndex": 0,
        "noiseIntensity": 0,
        "patternFillType": 1,
        "patternTileScale": 1
      }
    ],
    "miterLimit": 10,
    "startMarkerType": 0,
    "windingRule": 1
  }
}