{
  "_class": "shapePath",
  "booleanOperation": -1,
  "clippingMaskMode": 0,
  "do_objectID": "F9CEFC2B-80CB-48D9-863C-4474EDC36D7F",
  "edited": true,
  "exportOptions": {
    "_class": "exportOptions",
    "do_objectID": "D5035769-2CFE-47F1-9DB8-BF14DEFAA056",
    "exportFormats": [
    ],
    "includedLayerIds": [
    ],
    "layerOptions": 0,
    "shouldTrim": false
  },
  "frame": {
    "_class": "rect",
    "constrainProportions": false,
    "do_objectID": "F715839B-EFAA-496D-85EF-A214937B8824",
    "height": 3.302303884409879,
    "width": 2.510948783188784,
    "x": 14.16331287037767,
    "y": 5.378226639578706
  },
  "hasClippingMask": false,
  "isClosed": true,
  "isFixedToViewport": false,
  "isFlippedHorizontal": false,
  "isFlippedVertical": false,
  "isLocked": false,
  "isVisible": true,
  "layerListExpandedType": 0,
  "name": "Path",
  "nameIsFixed": false,
  "pointRadiusBehaviour": 0,
  "points": [
    {
      "_class": "curvePoint",
      "cornerRadius": 0,
      "curveFrom": "{0.73243033555311343, 0.55289783889980415}",
      "curveMode": 4,
      "curveTo": "{0.73666515807849009, 0.55660609037328046}",
      "hasCurveFrom": true,
      "hasCurveTo": true,
      "point": "{0.73501648671364928, 0.55692534381139525}"
    },
    {
      "_class": "curvePoint",
      "cornerRadius": 0,
      "curveFrom": "{0.73294756578522025, 0.54742141453831072}",
      "curveMode": 4,
      "curveTo": "{0.73223637421607335, 0.54995088408644455}",
      "hasCurveFrom": false,
      "hasCurveTo": true,
      "point": "{0.73294756578522025, 0.54742141453831072}"
    },
    {
      "_class": "curvePoint",
      "cornerRadius": 0,
      "curveFrom": "{0.27545742548652019, 0}",
      "curveMode": 1,
      "curveTo": "{0.27545742548652019, 0}",
      "hasCurveFrom": false,
      "hasCurveTo": false,
      "point": "{0.27545742548652019, 0}"
    },
    {
      "_class": "curvePoint",
      "cornerRadius": 0,
      "curveFrom": "{0.00016163444753331134, 0.13293222003929309}",
      "curveMode": 4,
      "curveTo": "{0.00022628822654700338, 0.13276031434184701}",
      "hasCurveFrom": true,
      "hasCurveTo": false,
      "point": "{0.00022628822654700338, 0.13276031434184701}"
    },
    {
      "_class": "curvePoint",
      "cornerRadius": 0,
      "curveFrom": "{0, 0.13332514734774012}",
      "curveMode": 4,
      "curveTo": "{6.4653779013692047e-05, 0.1331286836935166}",
      "hasCurveFrom": false,
      "hasCurveTo": true,
      "point": "{0, 0.13332514734774012}"
    },
    {
      "_class": "curvePoint",
      "cornerRadius": 0,
      "curveFrom": "{0.1876899204758522, 0.35171905697446004}",
      "curveMode": 4,
      "curveTo": "{0.18901532294562645, 0.35955304518663983}",
      "hasCurveFrom": true,
      "hasCurveTo": false,
      "point": "{0.18901532294562645, 0.35955304518663983}"
    },
    {
      "_class": "curvePoint",
      "cornerRadius": 0,
      "curveFrom": "{0.22253830736406591, 0.34611984282907671}",
      "curveMode": 2,
      "curveTo": "{0.19994181159888805, 0.33985756385068783}",
      "hasCurveFrom": true,
      "hasCurveTo": true,
      "point": "{0.20643951638973285, 0.34169941060903725}"
    },
    {
      "_class": "curvePoint",
      "cornerRadius": 0,
      "curveFrom": "{0.1940906445981774, 0.36495579567779962}",
      "curveMode": 2,
      "curveTo": "{0.20378871145018435, 0.36765717092337952}",
      "hasCurveFrom": true,
      "hasCurveTo": true,
      "point": "{0.1951574319518978, 0.3652504911591356}"
    },
    {
      "_class": "curvePoint",
      "cornerRadius": 0,
      "curveFrom": "{0.1927329152388963, 0.36397347740667929}",
      "curveMode": 4,
      "curveTo": "{0.19350876058705693, 0.36441552062868393}",
      "hasCurveFrom": false,
      "hasCurveTo": true,
      "point": "{0.1927329152388963, 0.36397347740667929}"
    },
    {
      "_class": "curvePoint",
      "cornerRadius": 0,
      "curveFrom": "{0.72425163250792002, 1}",
      "curveMode": 1,
      "curveTo": "{0.72425163250792002, 1}",
      "hasCurveFrom": false,
      "hasCurveTo": false,
      "point": "{0.72425163250792002, 1}"
    },
    {
      "_class": "curvePoint",
      "cornerRadius": 0,
      "curveFrom": "{1, 0.86701866404715211}",
      "curveMode": 1,
      "curveTo": "{1, 0.86701866404715211}",
      "hasCurveFrom": false,
      "hasCurveTo": false,
      "point": "{1, 0.86701866404715211}"
    },
    {
      "_class": "curvePoint",
      "cornerRadius": 0,
      "curveFrom": "{0.7384108101118515, 0.55631139489194448}",
      "curveMode": 4,
      "curveTo": "{0.74009180836619926, 0.55599214145383113}",
      "hasCurveFrom": true,
      "hasCurveTo": false,
      "point": "{0.74009180836619926, 0.55599214145383113}"
    }
  ],
  "resizingConstraint": 63,
  "resizingType": 0,
  "rotation": 0,
  "shouldBreakMaskChain": false,
  "style": {
    "_class": "style",
    "do_objectID": "34B9FA9D-879A-4684-A7EB-F373C0E906BF",
    "endMarkerType": 0,
    "fills": [
      {
        "_class": "fill",
        "color": {
          "_class": "color",
          "alpha": 1,
          "blue": 0.1764705882352941,
          "green": 0.1764705882352941,
          "red": 0.1764705882352941
        },
        "fillType": 0,
        "isEnabled": true,
        "noiseIndex": 0,
        "noiseIntensity": 0,
        "patternFillType": 1,
        "patternTileScale": 1
      }
    ],
    "miterLimit": 10,
    "startMarkerType": 0,
    "windingRule": 1
  }
}