{
  "_class": "shapeGroup",
  "booleanOperation": 0,
  "clippingMaskMode": 0,
  "do_objectID": "8437703B-B411-4AC9-B844-09B9503A3E8F",
  "exportOptions": {
    "_class": "exportOptions",
    "do_objectID": "52790017-650C-47E7-A0C8-56ABCAB31C7E",
    "exportFormats": [
    ],
    "includedLayerIds": [
    ],
    "layerOptions": 0,
    "shouldTrim": false
  },
  "frame": {
    "_class": "rect",
    "constrainProportions": false,
    "do_objectID": "D66A4BD2-1DEF-4BE9-9DA9-105760868DB6",
    "height": 30,
    "width": 82,
    "x": 0,
    "y": 8.881784197001252e-16
  },
  "groupLayout": {
    "_class": "MSImmutableFreeformGroupLayout",
    "do_objectID": "F9F6AEC8-3F35-47A1-828B-13A2DFAC1E30"
  },
  "hasClickThrough": false,
  "hasClippingMask": false,
  "isFixedToViewport": false,
  "isFlippedHorizontal": false,
  "isFlippedVertical": false,
  "isLocked": true,
  "isVisible": true,
  "layerListExpandedType": 0,
  "layers": [
    {
      "class": "rectangle",
      "id": "94A89E46-08CC-481F-82D6-7F04C100D875"
    },
    {
      "class": "rectangle",
      "id": "F4D6EE84-AD4D-4A6F-BF50-3907E3998EB7"
    }
  ],
  "name": "combined shape",
  "nameIsFixed": false,
  "resizingConstraint": 18,
  "resizingType": 0,
  "rotation": 180,
  "sharedStyleID": "2A6E1DC6-B6A6-4B78-B2C9-0812B71E2293",
  "shouldBreakMaskChain": false,
  "style": {
    "_class": "style",
    "blur": {
      "_class": "blur",
      "center": "{0.5, 0.5}",
      "do_objectID": "D42C6F8A-8E33-47A7-AD86-4A3C14D5575D",
      "isEnabled": false,
      "motionAngle": 0,
      "radius": 7.999999523162842,
      "saturation": 1,
      "type": 0
    },
    "do_objectID": "65F57D93-8A37-4CF3-9051-C1308AD55A0B",
    "endMarkerType": 0,
    "fills": [
      {
        "_class": "fill",
        "color": {
          "_class": "color",
          "alpha": 1,
          "blue": 0.9529411764705882,
          "green": 0.9529411764705882,
          "red": 0.9529411764705882
        },
        "fillType": 0,
        "isEnabled": true,
        "noiseIndex": 0,
        "noiseIntensity": 0,
        "patternFillType": 0,
        "patternTileScale": 1
      }
    ],
    "miterLimit": 10,
    "startMarkerType": 0,
    "windingRule": 1
  },
  "windingRule": 1
}