{
  "_class": "symbolInstance",
  "booleanOperation": -1,
  "clippingMaskMode": 0,
  "do_objectID": "5A82B1DD-CF93-47BF-AAA0-3FD9FB82DAED",
  "exportOptions": {
    "_class": "exportOptions",
    "do_objectID": "E3B84111-2E93-405A-8F5C-17C34EF0C863",
    "exportFormats": [
    ],
    "includedLayerIds": [
    ],
    "layerOptions": 0,
    "shouldTrim": false
  },
  "frame": {
    "_class": "rect",
    "constrainProportions": false,
    "do_objectID": "E10E8BEA-8CB4-4D1D-90C2-01EA7CD973D1",
    "height": 24,
    "width": 1024,
    "x": 0,
    "y": 235
  },
  "hasClippingMask": false,
  "horizontalSpacing": 0,
  "isFixedToViewport": false,
  "isFlippedHorizontal": false,
  "isFlippedVertical": false,
  "isLocked": false,
  "isVisible": true,
  "layerListExpandedType": 0,
  "name": "row 5",
  "nameIsFixed": true,
  "overrideValues": [
  ],
  "resizingConstraint": 63,
  "resizingType": 0,
  "rotation": 0,
  "scale": 1,
  "shouldBreakMaskChain": false,
  "style": {
    "_class": "style",
    "do_objectID": "1EA33263-CDD4-4E6D-B051-E2C25644228A",
    "endMarkerType": 0,
    "miterLimit": 10,
    "startMarkerType": 0,
    "windingRule": 1
  },
  "symbolID": "2796DB5F-7A2E-4078-B497-A8B80DE0D1B9",
  "verticalSpacing": 0
}