{
  "_class": "group",
  "booleanOperation": 0,
  "clippingMaskMode": 0,
  "do_objectID": "405A453C-C366-472D-A0E1-897EDBD7FB6F",
  "exportOptions": {
    "_class": "exportOptions",
    "exportFormats": [
    ],
    "includedLayerIds": [
    ],
    "layerOptions": 0,
    "shouldTrim": false
  },
  "frame": {
    "_class": "rect",
    "constrainProportions": false,
    "height": 95,
    "width": 398,
    "x": 20,
    "y": 5
  },
  "groupLayout": {
    "_class": "MSImmutableFreeformGroupLayout"
  },
  "hasClickThrough": false,
  "hasClippingMask": false,
  "isFixedToViewport": false,
  "isFlippedHorizontal": false,
  "isFlippedVertical": false,
  "isLocked": false,
  "isVisible": true,
  "layerListExpandedType": 2,
  "layers": [
    {
      "class": "group",
      "id": "33DE3EEF-819A-4502-8B2A-D8BB71238C21"
    },
    {
      "class": "group",
      "id": "17FB1D3E-F501-49AB-BBB8-346D3E4962F5"
    },
    {
      "class": "text",
      "id": "985CEEFE-3E06-42E6-81DF-457F3925BC15"
    },
    {
      "class": "text",
      "id": "1CC66D84-1438-46E8-9C80-35EA47592E0C"
    },
    {
      "class": "group",
      "id": "277F50CC-2677-4475-8855-B3FD0D19514E"
    },
    {
      "class": "group",
      "id": "AF9070AD-C21F-4E8F-A94A-133307C33895"
    },
    {
      "class": "group",
      "id": "9EBFD3B0-EF6A-4741-946E-3F9E84A93855"
    },
    {
      "class": "text",
      "id": "C1269929-85E9-4C40-894C-F367E31B9BCD"
    },
    {
      "class": "text",
      "id": "420A0809-CE5D-4CA6-B3FB-752FE5FA9EEF"
    },
    {
      "class": "text",
      "id": "3EDB73B7-4F5E-44F1-8572-CA1EB7A353C3"
    }
  ],
  "maintainScrollPosition": false,
  "name": "Group 8",
  "nameIsFixed": false,
  "resizingConstraint": 63,
  "resizingType": 0,
  "rotation": 0,
  "shouldBreakMaskChain": false,
  "style": {
    "_class": "style",
    "blur": {
      "_class": "blur",
      "center": "{0.5, 0.5}",
      "isEnabled": false,
      "motionAngle": 0,
      "radius": 10,
      "saturation": 1,
      "type": 0
    },
    "borderOptions": {
      "_class": "borderOptions",
      "dashPattern": [
      ],
      "isEnabled": true,
      "lineCapStyle": 0,
      "lineJoinStyle": 0
    },
    "borders": [
    ],
    "colorControls": {
      "_class": "colorControls",
      "brightness": 0,
      "contrast": 1,
      "hue": 0,
      "isEnabled": false,
      "saturation": 1
    },
    "contextSettings": {
      "_class": "graphicsContextSettings",
      "blendMode": 0,
      "opacity": 1
    },
    "do_objectID": "FFD9E07C-A03A-4B5B-9680-461BBF84F4DB",
    "endMarkerType": 0,
    "fills": [
    ],
    "innerShadows": [
    ],
    "miterLimit": 10,
    "shadows": [
    ],
    "startMarkerType": 0,
    "windingRule": 1
  }
}