{
  "_class": "symbolInstance",
  "booleanOperation": 0,
  "clippingMaskMode": 0,
  "do_objectID": "2D9B4B0A-F228-47CF-B387-FA2E86CE65BE",
  "exportOptions": {
    "_class": "exportOptions",
    "do_objectID": "8CA561C8-0715-4216-9BE0-D7ABBA1DE795",
    "exportFormats": [
    ],
    "includedLayerIds": [
    ],
    "layerOptions": 0,
    "shouldTrim": false
  },
  "frame": {
    "_class": "rect",
    "constrainProportions": false,
    "do_objectID": "62E4A326-31ED-43B6-B0C5-FDF1EA86EB2A",
    "height": 108,
    "width": 1366,
    "x": 0,
    "y": -4
  },
  "hasClippingMask": false,
  "horizontalSpacing": 0,
  "isFixedToViewport": false,
  "isFlippedHorizontal": false,
  "isFlippedVertical": false,
  "isLocked": false,
  "isVisible": true,
  "layerListExpandedType": 0,
  "name": "Closed Navigation",
  "nameIsFixed": false,
  "overrideValues": [
  ],
  "resizingConstraint": 63,
  "resizingType": 0,
  "rotation": 0,
  "scale": 1,
  "shouldBreakMaskChain": false,
  "style": {
    "_class": "style",
    "do_objectID": "2321696C-5D20-49C0-951D-355D4571F7A8",
    "endMarkerType": 0,
    "miterLimit": 10,
    "startMarkerType": 0,
    "windingRule": 1
  },
  "symbolID": "638B2CC8-CE1F-432B-AA36-4C3A6AC6F650",
  "verticalSpacing": 0
}