{
  "_class": "symbolInstance",
  "booleanOperation": -1,
  "clippingMaskMode": 0,
  "do_objectID": "8E0708C7-9E91-4D1B-9093-1280C149A205",
  "exportOptions": {
    "_class": "exportOptions",
    "do_objectID": "DBCED920-48A7-48C9-B714-838D84F14DDC",
    "exportFormats": [
    ],
    "includedLayerIds": [
    ],
    "layerOptions": 0,
    "shouldTrim": false
  },
  "frame": {
    "_class": "rect",
    "constrainProportions": false,
    "do_objectID": "C1135036-1173-4BEA-83D5-312B8C6F9F17",
    "height": 64,
    "width": 120,
    "x": 0,
    "y": 512
  },
  "hasClippingMask": false,
  "horizontalSpacing": 0,
  "isFixedToViewport": false,
  "isFlippedHorizontal": false,
  "isFlippedVertical": false,
  "isLocked": false,
  "isVisible": true,
  "layerListExpandedType": 0,
  "name": "Date Picker / simple / mm-yyyy / filled",
  "nameIsFixed": true,
  "overrideValues": [
    {
      "_class": "overrideValue",
      "do_objectID": "58FFF3E3-5B8C-4F81-BF3C-517D37CA2F2E",
      "overrideName": "351B6D5A-F98A-4228-A7D9-64D4E17B5C1F_stringValue",
      "value": "07 / 18 / 2019"
    }
  ],
  "resizingConstraint": 63,
  "resizingType": 0,
  "rotation": 0,
  "scale": 1,
  "shouldBreakMaskChain": false,
  "style": {
    "_class": "style",
    "do_objectID": "7145A959-A36B-4A19-BA2E-C740F169B82E",
    "endMarkerType": 0,
    "miterLimit": 10,
    "startMarkerType": 0,
    "windingRule": 1
  },
  "symbolID": "171CB7F1-5781-43BA-BBE6-E317B622EA21",
  "verticalSpacing": 0
}