{
  "_class": "group",
  "booleanOperation": -1,
  "clippingMaskMode": 0,
  "do_objectID": "B2D5B795-AD6A-478D-BB0E-E7D33A55AA01",
  "exportOptions": {
    "_class": "exportOptions",
    "do_objectID": "D399435F-D594-4E08-BCE7-14EE6D2AC8E4",
    "exportFormats": [
    ],
    "includedLayerIds": [
    ],
    "layerOptions": 0,
    "shouldTrim": false
  },
  "frame": {
    "_class": "rect",
    "constrainProportions": false,
    "do_objectID": "DA2EB2D2-B844-4A03-B6C3-B427D083BA38",
    "height": 852,
    "width": 152,
    "x": 320,
    "y": 0
  },
  "groupLayout": {
    "_class": "MSImmutableFreeformGroupLayout",
    "do_objectID": "A5E9F977-C871-449C-9C1D-9C1B120A426B"
  },
  "hasClickThrough": false,
  "hasClippingMask": false,
  "isFixedToViewport": false,
  "isFlippedHorizontal": false,
  "isFlippedVertical": false,
  "isLocked": false,
  "isVisible": true,
  "layerListExpandedType": 0,
  "layers": [
    {
      "class": "symbolInstance",
      "id": "71B3CBF8-C92D-47BC-9E0C-6695E4798513"
    },
    {
      "class": "symbolInstance",
      "id": "A08F6FF3-C82D-4D96-9A8F-F904E2B814D6"
    },
    {
      "class": "group",
      "id": "9388ABE9-B61C-43AE-B4E4-BDB7F413B0BF"
    },
    {
      "class": "symbolInstance",
      "id": "DCC1C101-16A6-471C-8292-97559FF0FEA2"
    },
    {
      "class": "symbolInstance",
      "id": "EF80B517-E692-4BB6-A41F-ED7ECEC060AD"
    },
    {
      "class": "symbolInstance",
      "id": "8E0708C7-9E91-4D1B-9093-1280C149A205"
    },
    {
      "class": "symbolInstance",
      "id": "313BD5C1-00F1-49C3-9A35-7C2E34FA4C99"
    },
    {
      "class": "symbolInstance",
      "id": "E465A818-4475-49F2-8540-20C234D8B680"
    }
  ],
  "name": "Date Picker / simple / mm/dd/yyyy",
  "nameIsFixed": true,
  "resizingConstraint": 63,
  "resizingType": 0,
  "rotation": 0,
  "shouldBreakMaskChain": false,
  "style": {
    "_class": "style",
    "do_objectID": "A0EBF323-30B7-4BFB-BA88-4B3EB70668B1",
    "endMarkerType": 0,
    "miterLimit": 10,
    "startMarkerType": 0,
    "windingRule": 1
  }
}