{
  "_class": "shapePath",
  "booleanOperation": -1,
  "clippingMaskMode": 0,
  "do_objectID": "10209099-3759-4120-8EC4-22C1AE905BF7",
  "edited": true,
  "exportOptions": {
    "_class": "exportOptions",
    "exportFormats": [
    ],
    "includedLayerIds": [
    ],
    "layerOptions": 0,
    "shouldTrim": false
  },
  "frame": {
    "_class": "rect",
    "constrainProportions": false,
    "height": 15.00007264019451,
    "width": 18.01699368910632,
    "x": 0,
    "y": 0.00003507154157578185
  },
  "hasClippingMask": false,
  "isClosed": true,
  "isFixedToViewport": false,
  "isFlippedHorizontal": false,
  "isFlippedVertical": false,
  "isLocked": false,
  "isVisible": true,
  "layerListExpandedType": 0,
  "maintainScrollPosition": false,
  "name": "Path",
  "nameIsFixed": false,
  "pointRadiusBehaviour": 1,
  "points": [
    {
      "_class": "curvePoint",
      "cornerRadius": 0,
      "curveFrom": "{0.94402524294811008, 2.4077120687439236e-06}",
      "curveMode": 4,
      "curveTo": "{0.96008547971958602, -0.00016138770590311044}",
      "hasCurveFrom": false,
      "hasCurveTo": true,
      "point": "{0.94402524294811008, 2.4077120687439236e-06}"
    },
    {
      "_class": "curvePoint",
      "cornerRadius": 0,
      "curveFrom": "{0.039914520280413923, -0.00016138770590311044}",
      "curveMode": 4,
      "curveTo": "{0.055974757051889971, 2.4077120687439236e-06}",
      "hasCurveFrom": true,
      "hasCurveTo": false,
      "point": "{0.055974757051889971, 2.4077120687439236e-06}"
    },
    {
      "_class": "curvePoint",
      "cornerRadius": 0,
      "curveFrom": "{0.0032950701478424451, 0.03693195101965982}",
      "curveMode": 2,
      "curveTo": "{0.024582616962179959, 0.0080389253280043725}",
      "hasCurveFrom": true,
      "hasCurveTo": true,
      "point": "{0.013938843555011201, 0.022485438173832095}"
    },
    {
      "_class": "curvePoint",
      "cornerRadius": 0,
      "curveFrom": "{0.00047160168337621519, 0.075335376231969731}",
      "curveMode": 4,
      "curveTo": "{-0.0016168833024973535, 0.056208090712500831}",
      "hasCurveFrom": false,
      "hasCurveTo": true,
      "point": "{0.00047160168337621519, 0.075335376231969731}"
    },
    {
      "_class": "curvePoint",
      "cornerRadius": 0,
      "curveFrom": "{0.097361678128660728, 0.97539715413097861}",
      "curveMode": 4,
      "curveTo": "{0.093716902702479316, 0.94199784592994507}",
      "hasCurveFrom": true,
      "hasCurveTo": false,
      "point": "{0.093716902702479316, 0.94199784592994507}"
    },
    {
      "_class": "curvePoint",
      "cornerRadius": 0,
      "curveFrom": "{0.14922005807099306, 0.99999756505588655}",
      "curveMode": 4,
      "curveTo": "{0.1211765736896407, 1.0002832573512297}",
      "hasCurveFrom": false,
      "hasCurveTo": true,
      "point": "{0.14922005807099306, 0.99999756505588655}"
    },
    {
      "_class": "curvePoint",
      "cornerRadius": 0,
      "curveFrom": "{0.87882342631035926, 1.0002832573512297}",
      "curveMode": 4,
      "curveTo": "{0.85077994192900697, 0.99999756505588655}",
      "hasCurveFrom": true,
      "hasCurveTo": false,
      "point": "{0.85077994192900697, 0.99999756505588655}"
    },
    {
      "_class": "curvePoint",
      "cornerRadius": 0,
      "curveFrom": "{0.90628309729752066, 0.94199784592994507}",
      "curveMode": 4,
      "curveTo": "{0.9026383218713393, 0.97539715413097861}",
      "hasCurveFrom": false,
      "hasCurveTo": true,
      "point": "{0.90628309729752066, 0.94199784592994507}"
    },
    {
      "_class": "curvePoint",
      "cornerRadius": 0,
      "curveFrom": "{1.0016168833024974, 0.056208090712500831}",
      "curveMode": 4,
      "curveTo": "{0.99952839831662377, 0.075335376231969731}",
      "hasCurveFrom": true,
      "hasCurveTo": false,
      "point": "{0.99952839831662377, 0.075335376231969731}"
    },
    {
      "_class": "curvePoint",
      "cornerRadius": 0,
      "curveFrom": "{0.97541738303782022, 0.0080389253280043725}",
      "curveMode": 2,
      "curveTo": "{0.99670492985215764, 0.03693195101965982}",
      "hasCurveFrom": true,
      "hasCurveTo": true,
      "point": "{0.98606115644498893, 0.022485438173832095}"
    }
  ],
  "resizingConstraint": 63,
  "resizingType": 0,
  "rotation": 0,
  "shouldBreakMaskChain": false,
  "style": {
    "_class": "style",
    "blur": {
      "_class": "blur",
      "center": "{0.5, 0.5}",
      "isEnabled": false,
      "motionAngle": 0,
      "radius": 10,
      "saturation": 1,
      "type": 0
    },
    "borderOptions": {
      "_class": "borderOptions",
      "dashPattern": [
      ],
      "isEnabled": true,
      "lineCapStyle": 0,
      "lineJoinStyle": 0
    },
    "borders": [
    ],
    "colorControls": {
      "_class": "colorControls",
      "brightness": 0,
      "contrast": 1,
      "hue": 0,
      "isEnabled": false,
      "saturation": 1
    },
    "contextSettings": {
      "_class": "graphicsContextSettings",
      "blendMode": 0,
      "opacity": 1
    },
    "do_objectID": "899AF661-49A8-4846-A365-5D005E5E998B",
    "endMarkerType": 0,
    "fills": [
    ],
    "innerShadows": [
    ],
    "miterLimit": 10,
    "shadows": [
    ],
    "startMarkerType": 0,
    "windingRule": 1
  }
}