{
  "_class": "symbolInstance",
  "booleanOperation": -1,
  "clippingMaskMode": 0,
  "do_objectID": "4E2646A2-7A5E-4A9B-B7CF-20DD8D891ADF",
  "exportOptions": {
    "_class": "exportOptions",
    "do_objectID": "B3CCDF0A-06E1-478F-89E6-3FF01C3BB854",
    "exportFormats": [
    ],
    "includedLayerIds": [
    ],
    "layerOptions": 0,
    "shouldTrim": false
  },
  "frame": {
    "_class": "rect",
    "constrainProportions": false,
    "do_objectID": "E22D7E59-B107-477E-B904-1015DAD300C4",
    "height": 32,
    "width": 256,
    "x": 0,
    "y": 112
  },
  "hasClippingMask": false,
  "horizontalSpacing": 0,
  "isFixedToViewport": false,
  "isFlippedHorizontal": false,
  "isFlippedVertical": false,
  "isLocked": false,
  "isVisible": true,
  "layerListExpandedType": 0,
  "name": "Link",
  "nameIsFixed": true,
  "overrideValues": [
    {
      "_class": "overrideValue",
      "do_objectID": "78A533D7-702D-42C6-8D58-98A60AB13E51",
      "overrideName": "0942895D-3E55-4CF2-A4C1-56ECBDAB05D2_stringValue",
      "value": "Link 4"
    }
  ],
  "resizingConstraint": 63,
  "resizingType": 0,
  "rotation": 0,
  "scale": 1,
  "shouldBreakMaskChain": false,
  "style": {
    "_class": "style",
    "do_objectID": "ECCA4371-9234-4F68-98F6-FD1AF52AD50C",
    "endMarkerType": 0,
    "miterLimit": 10,
    "startMarkerType": 0,
    "windingRule": 1
  },
  "symbolID": "1880CD24-0F8F-4BB8-A216-39389A38C62D",
  "verticalSpacing": 0
}