{
  "_class": "page",
  "booleanOperation": -1,
  "clippingMaskMode": 0,
  "do_objectID": "DBE69045-134C-4DCB-988D-DB0C5D9AFEE5",
  "exportOptions": {
    "_class": "exportOptions",
    "do_objectID": "79D034A8-BA03-4B80-807B-A9FA6489DE85",
    "exportFormats": [
    ],
    "includedLayerIds": [
    ],
    "layerOptions": 0,
    "shouldTrim": false
  },
  "frame": {
    "_class": "rect",
    "constrainProportions": false,
    "do_objectID": "CD6A3235-EC93-4360-A1A6-2638CBCCD7BA",
    "height": 0,
    "width": 0,
    "x": 0,
    "y": 0
  },
  "grid": {
    "_class": "simpleGrid",
    "do_objectID": "CFB1945F-F0AD-4275-BB13-E608C5C96AA7",
    "gridSize": 20,
    "isEnabled": false,
    "thickGridTimes": 10
  },
  "groupLayout": {
    "_class": "MSImmutableFreeformGroupLayout"
  },
  "hasClickThrough": true,
  "hasClippingMask": false,
  "horizontalRulerData": {
    "_class": "rulerData",
    "base": -936,
    "do_objectID": "33F3E8C8-3ABD-4784-8E2E-412020146E17",
    "guides": [
    ]
  },
  "includeInCloudUpload": true,
  "isFixedToViewport": false,
  "isFlippedHorizontal": false,
  "isFlippedVertical": false,
  "isLocked": false,
  "isVisible": true,
  "layerListExpandedType": 0,
  "layers": [
    {
      "class": "artboard",
      "id": "3916074B-3589-495F-9D6D-CEB3A034ED92"
    }
  ],
  "name": "Progress indicator",
  "nameIsFixed": true,
  "resizingConstraint": 63,
  "resizingType": 0,
  "rotation": 0,
  "shouldBreakMaskChain": false,
  "style": {
    "_class": "style",
    "do_objectID": "7CA7B74B-DBD5-4544-B2C0-CC3D10E079AB",
    "endMarkerType": 0,
    "miterLimit": 10,
    "startMarkerType": 0,
    "windingRule": 1
  },
  "verticalRulerData": {
    "_class": "rulerData",
    "base": -600,
    "do_objectID": "E313C427-649B-4B17-9FA5-A99A29D8AB63",
    "guides": [
    ]
  }
}