{
  "_class": "symbolInstance",
  "booleanOperation": -1,
  "clippingMaskMode": 0,
  "do_objectID": "EC95A8C0-F5EC-4B07-947C-E2381D5A200A",
  "exportOptions": {
    "_class": "exportOptions",
    "do_objectID": "26E7DC01-E933-4F70-91A1-AE26D38F8BDF",
    "exportFormats": [
    ],
    "includedLayerIds": [
    ],
    "layerOptions": 0,
    "shouldTrim": false
  },
  "frame": {
    "_class": "rect",
    "constrainProportions": false,
    "do_objectID": "600E47D6-25EE-4C31-A44C-9C5CBBD33BC1",
    "height": 48,
    "width": 1024,
    "x": 0,
    "y": 612
  },
  "hasClippingMask": false,
  "horizontalSpacing": 0,
  "isFixedToViewport": false,
  "isFlippedHorizontal": false,
  "isFlippedVertical": false,
  "isLocked": false,
  "isVisible": true,
  "layerListExpandedType": 0,
  "name": "row 10",
  "nameIsFixed": true,
  "overrideValues": [
  ],
  "resizingConstraint": 63,
  "resizingType": 0,
  "rotation": 0,
  "scale": 1,
  "shouldBreakMaskChain": false,
  "style": {
    "_class": "style",
    "do_objectID": "09332416-E233-4505-AD23-A8472AFEB4D4",
    "endMarkerType": 0,
    "miterLimit": 10,
    "startMarkerType": 0,
    "windingRule": 1
  },
  "symbolID": "0B201327-D073-42FA-80C4-802B486C5541",
  "verticalSpacing": 0
}