{
  "_class": "group",
  "booleanOperation": 0,
  "clippingMaskMode": 0,
  "do_objectID": "159C749B-FD50-4EED-8D0E-87D0FE1477AE",
  "exportOptions": {
    "_class": "exportOptions",
    "exportFormats": [
    ],
    "includedLayerIds": [
    ],
    "layerOptions": 0,
    "shouldTrim": false
  },
  "frame": {
    "_class": "rect",
    "constrainProportions": false,
    "height": 20,
    "width": 20,
    "x": 162,
    "y": 1486
  },
  "groupLayout": {
    "_class": "MSImmutableFreeformGroupLayout"
  },
  "hasClickThrough": false,
  "hasClippingMask": false,
  "isFixedToViewport": false,
  "isFlippedHorizontal": false,
  "isFlippedVertical": false,
  "isLocked": false,
  "isVisible": true,
  "layerListExpandedType": 0,
  "layers": [
    {
      "class": "rectangle",
      "id": "6CCCB379-1E92-4E65-9EDD-36267DB2F68C"
    },
    {
      "class": "shapePath",
      "id": "CF5EEE5F-5252-4675-8273-38102F009CE5"
    },
    {
      "class": "shapePath",
      "id": "2FFA0E28-2601-49E9-A99D-76526C9D740F"
    },
    {
      "class": "shapePath",
      "id": "C79B34E0-A512-4C06-8196-8014BB64A865"
    },
    {
      "class": "shapePath",
      "id": "A345EC81-DB71-483F-AE90-40FB2FFE5F51"
    },
    {
      "class": "shapePath",
      "id": "F355893B-20C3-4F2D-BD06-B8EB2AB88E09"
    },
    {
      "class": "shapePath",
      "id": "38D992B5-AFDB-443B-A930-83258CD5140C"
    },
    {
      "class": "shapePath",
      "id": "E4FB74BB-15CF-4A31-B51C-D70A8EBDEEA2"
    }
  ],
  "name": "Cursor - Pointer",
  "nameIsFixed": true,
  "resizingConstraint": 63,
  "resizingType": 0,
  "rotation": 0,
  "shouldBreakMaskChain": false,
  "style": {
    "_class": "style",
    "endMarkerType": 0,
    "miterLimit": 10,
    "startMarkerType": 0,
    "windingRule": 1
  }
}