{
  "_class": "symbolInstance",
  "booleanOperation": -1,
  "clippingMaskMode": 0,
  "do_objectID": "4C7B4B0A-C080-4A70-AB63-6AC4B1F0BCBA",
  "exportOptions": {
    "_class": "exportOptions",
    "do_objectID": "61193D93-7432-4B13-B100-A03DFC93A47E",
    "exportFormats": [
    ],
    "includedLayerIds": [
    ],
    "layerOptions": 0,
    "shouldTrim": false
  },
  "frame": {
    "_class": "rect",
    "constrainProportions": false,
    "do_objectID": "0B92B71F-89A1-466F-AFED-39CD990A0017",
    "height": 48,
    "width": 1216,
    "x": 96,
    "y": 104
  },
  "hasClippingMask": false,
  "horizontalSpacing": 0,
  "isFixedToViewport": false,
  "isFlippedHorizontal": false,
  "isFlippedVertical": false,
  "isLocked": false,
  "isVisible": true,
  "layerListExpandedType": 0,
  "name": "ui shell [experimental] / header / base + actions copy 2",
  "nameIsFixed": false,
  "overrideValues": [
    {
      "_class": "overrideValue",
      "do_objectID": "DC66C397-09DD-4CF3-9D11-E5F231EF7CBF",
      "overrideName": "944D0647-53B8-4C03-BA20-8B438BDF2A9F_symbolID",
      "value": "70EF39A9-FA87-4675-B685-FD6EEC17C070"
    }
  ],
  "resizingConstraint": 63,
  "resizingType": 0,
  "rotation": 0,
  "scale": 1,
  "shouldBreakMaskChain": false,
  "style": {
    "_class": "style",
    "do_objectID": "84E6FD41-00AC-4C25-B9A0-E9A46D94E8DD",
    "endMarkerType": 0,
    "miterLimit": 10,
    "startMarkerType": 0,
    "windingRule": 1
  },
  "symbolID": "2A018E7B-D429-41F8-A526-FBD9ADE324E7",
  "verticalSpacing": 0
}