{
  "_class": "shapePath",
  "booleanOperation": -1,
  "clippingMaskMode": 0,
  "do_objectID": "3826F6AC-B304-416B-BDED-F577D5990951",
  "edited": true,
  "exportOptions": {
    "_class": "exportOptions",
    "exportFormats": [
    ],
    "includedLayerIds": [
    ],
    "layerOptions": 0,
    "shouldTrim": false
  },
  "frame": {
    "_class": "rect",
    "constrainProportions": false,
    "height": 16.11811764705882,
    "width": 13.797,
    "x": 0,
    "y": 0
  },
  "hasClippingMask": false,
  "isClosed": true,
  "isFixedToViewport": false,
  "isFlippedHorizontal": false,
  "isFlippedVertical": false,
  "isLocked": false,
  "isVisible": true,
  "layerListExpandedType": 0,
  "maintainScrollPosition": false,
  "name": "Path",
  "nameIsFixed": false,
  "pointRadiusBehaviour": 1,
  "points": [
    {
      "_class": "curvePoint",
      "cornerRadius": 0,
      "curveFrom": "{0.95415883248276478, 0.96821990598814633}",
      "curveMode": 4,
      "curveTo": "{1, 0.91142959329654594}",
      "hasCurveFrom": true,
      "hasCurveTo": false,
      "point": "{1, 0.91142959329654594}"
    },
    {
      "_class": "curvePoint",
      "cornerRadius": 0,
      "curveFrom": "{0.7456650849076315, 1}",
      "curveMode": 2,
      "curveTo": "{0.91389858835467241, 1}",
      "hasCurveFrom": true,
      "hasCurveTo": true,
      "point": "{0.82702121944668305, 1}"
    },
    {
      "_class": "curvePoint",
      "cornerRadius": 0,
      "curveFrom": "{0.65323663712060254, 0.84988759452278773}",
      "curveMode": 4,
      "curveTo": "{0.68403617154624441, 0.96821990598814633}",
      "hasCurveFrom": false,
      "hasCurveTo": true,
      "point": "{0.65323663712060254, 0.84988759452278773}"
    },
    {
      "_class": "curvePoint",
      "cornerRadius": 0,
      "curveFrom": "{0.58689229116304109, 0.59431841406090324}",
      "curveMode": 4,
      "curveTo": "{0.61769182558868296, 0.71196096464336811}",
      "hasCurveFrom": true,
      "hasCurveTo": false,
      "point": "{0.61769182558868296, 0.71196096464336811}"
    },
    {
      "_class": "curvePoint",
      "cornerRadius": 0,
      "curveFrom": "{0.43522249082281389, 0.51520028612303281}",
      "curveMode": 4,
      "curveTo": "{0.56319575014176249, 0.51520028612303281}",
      "hasCurveFrom": false,
      "hasCurveTo": true,
      "point": "{0.43522249082281389, 0.51520028612303281}"
    },
    {
      "_class": "curvePoint",
      "cornerRadius": 0,
      "curveFrom": "{0.28119497418449946, 0.51520028612303281}",
      "curveMode": 1,
      "curveTo": "{0.28119497418449946, 0.51520028612303281}",
      "hasCurveFrom": false,
      "hasCurveTo": false,
      "point": "{0.28119497418449946, 0.51520028612303281}"
    },
    {
      "_class": "curvePoint",
      "cornerRadius": 0,
      "curveFrom": "{0.28119497418449946, 0.93439607602697716}",
      "curveMode": 4,
      "curveTo": "{0.28119497418449946, 0.83366544042509705}",
      "hasCurveFrom": true,
      "hasCurveTo": false,
      "point": "{0.28119497418449946, 0.83366544042509705}"
    },
    {
      "_class": "curvePoint",
      "cornerRadius": 0,
      "curveFrom": "{0.41230190706419539, 0.95266196607398324}",
      "curveMode": 4,
      "curveTo": "{0.30253379890769089, 0.94860004087471883}",
      "hasCurveFrom": false,
      "hasCurveTo": true,
      "point": "{0.41230190706419539, 0.95266196607398324}"
    },
    {
      "_class": "curvePoint",
      "cornerRadius": 0,
      "curveFrom": "{0.36255110872355101, 0.97767218475372974}",
      "curveMode": 4,
      "curveTo": "{0.41230190706419539, 0.98038013488657261}",
      "hasCurveFrom": true,
      "hasCurveTo": false,
      "point": "{0.41230190706419539, 0.98038013488657261}"
    },
    {
      "_class": "curvePoint",
      "cornerRadius": 0,
      "curveFrom": "{0.12322798221267253, 0.97631820968730842}",
      "curveMode": 2,
      "curveTo": "{0.28119497418449946, 0.97631820968730842}",
      "hasCurveFrom": true,
      "hasCurveTo": true,
      "point": "{0.20697167755991289, 0.97631820968730842}"
    },
    {
      "_class": "curvePoint",
      "cornerRadius": 0,
      "curveFrom": "{0, 0.98038013488657261}",
      "curveMode": 4,
      "curveTo": "{0.045035365744471735, 0.97767218475372974}",
      "hasCurveFrom": false,
      "hasCurveTo": true,
      "point": "{0, 0.98038013488657261}"
    },
    {
      "_class": "curvePoint",
      "cornerRadius": 0,
      "curveFrom": "{0.10979795266660787, 0.94860004087471883}",
      "curveMode": 4,
      "curveTo": "{0, 0.95266196607398324}",
      "hasCurveFrom": true,
      "hasCurveTo": false,
      "point": "{0, 0.95266196607398324}"
    },
    {
      "_class": "curvePoint",
      "cornerRadius": 0,
      "curveFrom": "{0.13110693287969763, 0.83366544042509705}",
      "curveMode": 4,
      "curveTo": "{0.13110693287969763, 0.93439607602697716}",
      "hasCurveFrom": false,
      "hasCurveTo": true,
      "point": "{0.13110693287969763, 0.83366544042509705}"
    },
    {
      "_class": "curvePoint",
      "cornerRadius": 0,
      "curveFrom": "{0.13110693287969763, 0.045984058859595271}",
      "curveMode": 4,
      "curveTo": "{0.13110693287969763, 0.14671469446147545}",
      "hasCurveFrom": true,
      "hasCurveTo": false,
      "point": "{0.13110693287969763, 0.14671469446147545}"
    },
    {
      "_class": "curvePoint",
      "cornerRadius": 0,
      "curveFrom": "{0, 0.027718168812589254}",
      "curveMode": 4,
      "curveTo": "{0.10979795266660787, 0.031780094011853666}",
      "hasCurveFrom": false,
      "hasCurveTo": true,
      "point": "{0, 0.027718168812589254}"
    },
    {
      "_class": "curvePoint",
      "cornerRadius": 0,
      "curveFrom": "{0.045035365744471735, 0.0027079501328426975}",
      "curveMode": 4,
      "curveTo": "{0, 0}",
      "hasCurveFrom": true,
      "hasCurveTo": false,
      "point": "{0, 0}"
    },
    {
      "_class": "curvePoint",
      "cornerRadius": 0,
      "curveFrom": "{0.2993702808368402, 0.0040363784998978455}",
      "curveMode": 3,
      "curveTo": "{0.12636165577342157, 0.0040363784998978455}",
      "hasCurveFrom": true,
      "hasCurveTo": true,
      "point": "{0.19748112334736079, 0.0040363784998978455}"
    },
    {
      "_class": "curvePoint",
      "cornerRadius": 0,
      "curveFrom": "{0.70221147819858687, 0.0013539750664213488}",
      "curveMode": 3,
      "curveTo": "{0.40284119736174667, 0.0013539750664213488}",
      "hasCurveFrom": true,
      "hasCurveTo": true,
      "point": "{0.44154952696451527, 0.0013539750664213488}"
    },
    {
      "_class": "curvePoint",
      "cornerRadius": 0,
      "curveFrom": "{0.83176649655295909, 0.33805947271612485}",
      "curveMode": 3,
      "curveTo": "{0.83176649655295909, 0.10681075005109333}",
      "hasCurveFrom": true,
      "hasCurveTo": true,
      "point": "{0.83176649655295909, 0.24205497649703644}"
    },
    {
      "_class": "curvePoint",
      "cornerRadius": 0,
      "curveFrom": "{0.51738442713462884, 0.50845595749029204}",
      "curveMode": 4,
      "curveTo": "{0.76145283075178338, 0.47598610259554464}",
      "hasCurveFrom": false,
      "hasCurveTo": true,
      "point": "{0.51738442713462884, 0.50845595749029204}"
    },
    {
      "_class": "curvePoint",
      "cornerRadius": 0,
      "curveFrom": "{0.68087265347539372, 0.53142244022072327}",
      "curveMode": 4,
      "curveTo": "{0.5371116483122933, 0.51116390762313491}",
      "hasCurveFrom": true,
      "hasCurveTo": false,
      "point": "{0.5371116483122933, 0.51116390762313491}"
    },
    {
      "_class": "curvePoint",
      "cornerRadius": 0,
      "curveFrom": "{0.76381054704987061, 0.69369507459636204}",
      "curveMode": 4,
      "curveTo": "{0.73301101262422874, 0.57876047414674014}",
      "hasCurveFrom": false,
      "hasCurveTo": true,
      "point": "{0.76381054704987061, 0.69369507459636204}"
    },
    {
      "_class": "curvePoint",
      "cornerRadius": 0,
      "curveFrom": "{0.82385770137583236, 0.91546597179644373}",
      "curveMode": 4,
      "curveTo": "{0.80410063568806622, 0.83501941549151837}",
      "hasCurveFrom": true,
      "hasCurveTo": false,
      "point": "{0.80410063568806622, 0.83501941549151837}"
    },
    {
      "_class": "curvePoint",
      "cornerRadius": 0,
      "curveFrom": "{0.9265228161279736, 0.94860004087471883}",
      "curveMode": 2,
      "curveTo": "{0.84200316351807136, 0.94860004087471883}",
      "hasCurveFrom": true,
      "hasCurveTo": true,
      "point": "{0.88703852926254312, 0.94860004087471883}"
    },
    {
      "_class": "curvePoint",
      "cornerRadius": 0,
      "curveFrom": "{0.97549765720595782, 0.89587165338238295}",
      "curveMode": 4,
      "curveTo": "{0.94550392455307952, 0.92831596157776408}",
      "hasCurveFrom": false,
      "hasCurveTo": true,
      "point": "{0.97549765720595782, 0.89587165338238295}"
    }
  ],
  "resizingConstraint": 63,
  "resizingType": 0,
  "rotation": 0,
  "shouldBreakMaskChain": false,
  "style": {
    "_class": "style",
    "blur": {
      "_class": "blur",
      "center": "{0.5, 0.5}",
      "isEnabled": false,
      "motionAngle": 0,
      "radius": 10,
      "saturation": 1,
      "type": 0
    },
    "borderOptions": {
      "_class": "borderOptions",
      "dashPattern": [
      ],
      "isEnabled": true,
      "lineCapStyle": 0,
      "lineJoinStyle": 0
    },
    "borders": [
    ],
    "colorControls": {
      "_class": "colorControls",
      "brightness": 0,
      "contrast": 1,
      "hue": 0,
      "isEnabled": true,
      "saturation": 1
    },
    "contextSettings": {
      "_class": "graphicsContextSettings",
      "blendMode": 0,
      "opacity": 1
    },
    "do_objectID": "F60917CE-1DC7-42E0-9566-4A0B26F66C3B",
    "endMarkerType": 0,
    "fills": [
      {
        "_class": "fill",
        "color": {
          "_class": "color",
          "alpha": 1,
          "blue": 0.1764705882352941,
          "green": 0.1764705882352941,
          "red": 0.1764705882352941
        },
        "contextSettings": {
          "_class": "graphicsContextSettings",
          "blendMode": 0,
          "opacity": 1
        },
        "fillType": 0,
        "gradient": {
          "_class": "gradient",
          "elipseLength": 0,
          "from": "{0.5, 0}",
          "gradientType": 0,
          "stops": [
            {
              "_class": "gradientStop",
              "color": {
                "_class": "color",
                "alpha": 1,
                "blue": 1,
                "green": 1,
                "red": 1
              },
              "position": 0
            },
            {
              "_class": "gradientStop",
              "color": {
                "_class": "color",
                "alpha": 1,
                "blue": 0,
                "green": 0,
                "red": 0
              },
              "position": 1
            }
          ],
          "to": "{0.5, 1}"
        },
        "isEnabled": true,
        "noiseIndex": 0,
        "noiseIntensity": 0,
        "patternFillType": 1,
        "patternTileScale": 1
      }
    ],
    "innerShadows": [
    ],
    "miterLimit": 10,
    "shadows": [
    ],
    "startMarkerType": 0,
    "windingRule": 1
  }
}