{
  "_class": "shapePath",
  "booleanOperation": -1,
  "clippingMaskMode": 0,
  "do_objectID": "2C483119-5652-4D16-BF71-7AEB6F3B14BA",
  "edited": true,
  "exportOptions": {
    "_class": "exportOptions",
    "exportFormats": [
    ],
    "includedLayerIds": [
    ],
    "layerOptions": 0,
    "shouldTrim": false
  },
  "frame": {
    "_class": "rect",
    "constrainProportions": false,
    "height": 3.014897959183671,
    "width": 1.960918367346949,
    "x": 40.19257823129251,
    "y": 20.23225510204081
  },
  "hasClippingMask": false,
  "isClosed": false,
  "isFixedToViewport": false,
  "isFlippedHorizontal": false,
  "isFlippedVertical": false,
  "isLocked": false,
  "isVisible": true,
  "layerListExpandedType": 1,
  "maintainScrollPosition": false,
  "name": "Fill 25",
  "nameIsFixed": false,
  "pointRadiusBehaviour": 1,
  "points": [
    {
      "_class": "curvePoint",
      "cornerRadius": 0,
      "curveFrom": "{0, 0.72344254157359156}",
      "curveMode": 1,
      "curveTo": "{0, 0.72344254157359156}",
      "hasCurveFrom": false,
      "hasCurveTo": false,
      "point": "{0, 0.72344254157359156}"
    },
    {
      "_class": "curvePoint",
      "cornerRadius": 0,
      "curveFrom": "{0.28820835718374149, 0.74782824522213975}",
      "curveMode": 4,
      "curveTo": "{0.27904979965655446, 0.70153884338545502}",
      "hasCurveFrom": true,
      "hasCurveTo": false,
      "point": "{0.27904979965655446, 0.70153884338545502}"
    },
    {
      "_class": "curvePoint",
      "cornerRadius": 0,
      "curveFrom": "{0.3901927113146339, 0.83215438073963843}",
      "curveMode": 2,
      "curveTo": "{0.31205876741079736, 0.78313477289649991}",
      "hasCurveFrom": true,
      "hasCurveTo": true,
      "point": "{0.3512688418240773, 0.80752047654504799}"
    },
    {
      "_class": "curvePoint",
      "cornerRadius": 0,
      "curveFrom": "{0.55247090249952124, 0.84450235790518724}",
      "curveMode": 2,
      "curveTo": "{0.43751192520511356, 0.84450235790518724}",
      "hasCurveFrom": true,
      "hasCurveTo": true,
      "point": "{0.49284487693188161, 0.84450235790518724}"
    },
    {
      "_class": "curvePoint",
      "cornerRadius": 0,
      "curveFrom": "{0.68393436367105165, 0.77084884586746172}",
      "curveMode": 2,
      "curveTo": "{0.60255676397633628, 0.82967237527922522}",
      "hasCurveFrom": true,
      "hasCurveTo": true,
      "point": "{0.64319786300324377, 0.80026061057334341}"
    },
    {
      "_class": "curvePoint",
      "cornerRadius": 0,
      "curveFrom": "{0.70425491318450539, 0.63427649540828923}",
      "curveMode": 2,
      "curveTo": "{0.70425491318450539, 0.73138495904690914}",
      "hasCurveFrom": true,
      "hasCurveTo": true,
      "point": "{0.70425491318450539, 0.68149664929262932}"
    },
    {
      "_class": "curvePoint",
      "cornerRadius": 0,
      "curveFrom": "{0.60675443617630198, 0.5415115413253917}",
      "curveMode": 2,
      "curveTo": "{0.68498378172104446, 0.59686026309257934}",
      "hasCurveFrom": true,
      "hasCurveTo": true,
      "point": "{0.64577370730776451, 0.56931000248200492}"
    },
    {
      "_class": "curvePoint",
      "cornerRadius": 0,
      "curveFrom": "{0.46622781911848765, 0.52786051129312561}",
      "curveMode": 3,
      "curveTo": "{0.55905361572219026, 0.52786051129312561}",
      "hasCurveFrom": true,
      "hasCurveTo": true,
      "point": "{0.5029574508681528, 0.52786051129312561}"
    },
    {
      "_class": "curvePoint",
      "cornerRadius": 0,
      "curveFrom": "{0.37053997328753824, 0.54169769173492166}",
      "curveMode": 4,
      "curveTo": "{0.42205685937798082, 0.53239017125837629}",
      "hasCurveFrom": false,
      "hasCurveTo": true,
      "point": "{0.37053997328753824, 0.54169769173492166}"
    },
    {
      "_class": "curvePoint",
      "cornerRadius": 0,
      "curveFrom": "{0.4805380652547217, 0.39010920824025708}",
      "curveMode": 4,
      "curveTo": "{0.40240412135088516, 0.38899230578307342}",
      "hasCurveFrom": true,
      "hasCurveTo": false,
      "point": "{0.40240412135088516, 0.38899230578307342}"
    },
    {
      "_class": "curvePoint",
      "cornerRadius": 0,
      "curveFrom": "{0.62220950200343195, 0.33240258128567907}",
      "curveMode": 2,
      "curveTo": "{0.54016409082236128, 0.37918838421444501}",
      "hasCurveFrom": true,
      "hasCurveTo": true,
      "point": "{0.58118679641289805, 0.35598163315959297}"
    },
    {
      "_class": "curvePoint",
      "cornerRadius": 0,
      "curveFrom": "{0.64291165808051498, 0.2296475552246213}",
      "curveMode": 2,
      "curveTo": "{0.64291165808051498, 0.3015016133035483}",
      "hasCurveFrom": true,
      "hasCurveTo": true,
      "point": "{0.64291165808051498, 0.26272027798461062}"
    },
    {
      "_class": "curvePoint",
      "cornerRadius": 0,
      "curveFrom": "{0.56744896012211332, 0.16418466120625397}",
      "curveMode": 2,
      "curveTo": "{0.62783819881701963, 0.20340034748076413}",
      "hasCurveFrom": true,
      "hasCurveTo": true,
      "point": "{0.59769128029001806, 0.18385455448001964}"
    },
    {
      "_class": "curvePoint",
      "cornerRadius": 0,
      "curveFrom": "{0.42797176111428908, 0.1543807396376273}",
      "curveMode": 2,
      "curveTo": "{0.52718946765884334, 0.1543807396376273}",
      "hasCurveFrom": true,
      "hasCurveTo": true,
      "point": "{0.47748521274565753, 0.1543807396376273}"
    },
    {
      "_class": "curvePoint",
      "cornerRadius": 0,
      "curveFrom": "{0.31616103796985157, 0.21003971208736621}",
      "curveMode": 2,
      "curveTo": "{0.38599503911467103, 0.16554976420948181}",
      "hasCurveFrom": true,
      "hasCurveTo": true,
      "point": "{0.3512688418240773, 0.18788781335318902}"
    },
    {
      "_class": "curvePoint",
      "cornerRadius": 0,
      "curveFrom": "{0.28744514405647753, 0.28524447753784959}",
      "curveMode": 4,
      "curveTo": "{0.29488647204731921, 0.24261603375527427}",
      "hasCurveFrom": false,
      "hasCurveTo": true,
      "point": "{0.28744514405647753, 0.28524447753784959}"
    },
    {
      "_class": "curvePoint",
      "cornerRadius": 0,
      "curveFrom": "{0.039973287540546652, 0.19682303301067261}",
      "curveMode": 4,
      "curveTo": "{0.021465369204349716, 0.2561429635145191}",
      "hasCurveFrom": true,
      "hasCurveTo": false,
      "point": "{0.021465369204349716, 0.2561429635145191}"
    },
    {
      "_class": "curvePoint",
      "cornerRadius": 0,
      "curveFrom": "{0.14224384659416237, 0.07867957309506092}",
      "curveMode": 2,
      "curveTo": "{0.067735165044839354, 0.1494167287168025}",
      "hasCurveFrom": true,
      "hasCurveTo": true,
      "point": "{0.1052280099217712, 0.11404815090593172}"
    },
    {
      "_class": "curvePoint",
      "cornerRadius": 0,
      "curveFrom": "{0.32808624308337947, 0.010300322660709665}",
      "curveMode": 2,
      "curveTo": "{0.19452394581186624, 0.05088111193844589}",
      "hasCurveFrom": true,
      "hasCurveTo": true,
      "point": "{0.26111429116580687, 0.030590717299577776}"
    },
    {
      "_class": "curvePoint",
      "cornerRadius": 0,
      "curveFrom": "{0.6274565922533849, 0}",
      "curveMode": 3,
      "curveTo": "{0.40278572791451989, 0}",
      "hasCurveFrom": true,
      "hasCurveTo": true,
      "point": "{0.48549895058194859, 0}"
    },
    {
      "_class": "curvePoint",
      "cornerRadius": 0,
      "curveFrom": "{0.89696622781911484, 0.13638620004963894}",
      "curveMode": 3,
      "curveTo": "{0.74107994657507648, 0.029411764705881732}",
      "hasCurveFrom": true,
      "hasCurveTo": true,
      "point": "{0.82655981682884605, 0.088297344254157556}"
    },
    {
      "_class": "curvePoint",
      "cornerRadius": 0,
      "curveFrom": "{0.93236023659606937, 0.33724249193348271}",
      "curveMode": 3,
      "curveTo": "{0.93236023659606937, 0.19068006949615177}",
      "hasCurveFrom": true,
      "hasCurveTo": true,
      "point": "{0.93236023659606937, 0.25130305286671545}"
    },
    {
      "_class": "curvePoint",
      "cornerRadius": 0,
      "curveFrom": "{0.80204159511543216, 0.46897493174484983}",
      "curveMode": 4,
      "curveTo": "{0.86023659606944969, 0.40586994291387457}",
      "hasCurveFrom": true,
      "hasCurveTo": true,
      "point": "{0.71579851173439857, 0.45693720526185228}"
    },
    {
      "_class": "curvePoint",
      "cornerRadius": 0,
      "curveFrom": "{0.97414615531387005, 0.57954827500620576}",
      "curveMode": 2,
      "curveTo": "{0.87082617821026154, 0.49590469099032003}",
      "hasCurveFrom": true,
      "hasCurveTo": true,
      "point": "{0.92262926922342747, 0.53785058327128232}"
    },
    {
      "_class": "curvePoint",
      "cornerRadius": 0,
      "curveFrom": "{1, 0.7754405559692229}",
      "curveMode": 3,
      "curveTo": "{1, 0.63018118639861098}",
      "hasCurveFrom": true,
      "hasCurveTo": true,
      "point": "{1, 0.68950111690245752}"
    },
    {
      "_class": "curvePoint",
      "cornerRadius": 0,
      "curveFrom": "{0.75892005342491542, 0.96965748324646284}",
      "curveMode": 2,
      "curveTo": "{0.95172676970043624, 0.84865971705137777}",
      "hasCurveFrom": true,
      "hasCurveTo": true,
      "point": "{0.85537111238313146, 0.90922065028543098}"
    },
    {
      "_class": "curvePoint",
      "cornerRadius": 0,
      "curveFrom": "{0.35861476817401033, 1}",
      "curveMode": 2,
      "curveTo": "{0.63871398588055484, 1}",
      "hasCurveFrom": true,
      "hasCurveTo": true,
      "point": "{0.49484831139095575, 1}"
    },
    {
      "_class": "curvePoint",
      "cornerRadius": 0,
      "curveFrom": "{0.066208738790305907, 0.87254901960784292}",
      "curveMode": 2,
      "curveTo": "{0.24575462697958278, 0.97449739389426648}",
      "hasCurveFrom": true,
      "hasCurveTo": true,
      "point": "{0.15598168288494435, 0.92367833209233119}"
    },
    {
      "_class": "curvePoint",
      "cornerRadius": 0,
      "curveFrom": "{0, 0.72344254157359156}",
      "curveMode": 4,
      "curveTo": "{0.014405647777142726, 0.80596922313229191}",
      "hasCurveFrom": false,
      "hasCurveTo": true,
      "point": "{0, 0.72344254157359156}"
    }
  ],
  "resizingConstraint": 63,
  "resizingType": 0,
  "rotation": 0,
  "shouldBreakMaskChain": false,
  "style": {
    "_class": "style",
    "blur": {
      "_class": "blur",
      "center": "{0.5, 0.5}",
      "isEnabled": false,
      "motionAngle": 0,
      "radius": 10,
      "saturation": 1,
      "type": 0
    },
    "borderOptions": {
      "_class": "borderOptions",
      "dashPattern": [
      ],
      "isEnabled": true,
      "lineCapStyle": 0,
      "lineJoinStyle": 0
    },
    "borders": [
    ],
    "colorControls": {
      "_class": "colorControls",
      "brightness": 0,
      "contrast": 1,
      "hue": 0,
      "isEnabled": false,
      "saturation": 1
    },
    "contextSettings": {
      "_class": "graphicsContextSettings",
      "blendMode": 0,
      "opacity": 1
    },
    "do_objectID": "A31DFC88-1F83-4661-965C-B11D5EA36456",
    "endMarkerType": 0,
    "fills": [
      {
        "_class": "fill",
        "color": {
          "_class": "color",
          "alpha": 1,
          "blue": 0.1252310872077942,
          "green": 0.1220022812485695,
          "red": 0.1366096138954163
        },
        "contextSettings": {
          "_class": "graphicsContextSettings",
          "blendMode": 0,
          "opacity": 1
        },
        "fillType": 0,
        "gradient": {
          "_class": "gradient",
          "elipseLength": 0,
          "from": "{0.5, 0}",
          "gradientType": 0,
          "stops": [
            {
              "_class": "gradientStop",
              "color": {
                "_class": "color",
                "alpha": 1,
                "blue": 1,
                "green": 1,
                "red": 1
              },
              "position": 0
            },
            {
              "_class": "gradientStop",
              "color": {
                "_class": "color",
                "alpha": 1,
                "blue": 0,
                "green": 0,
                "red": 0
              },
              "position": 1
            }
          ],
          "to": "{0.5, 1}"
        },
        "isEnabled": true,
        "noiseIndex": 0,
        "noiseIntensity": 0,
        "patternFillType": 1,
        "patternTileScale": 1
      }
    ],
    "innerShadows": [
    ],
    "miterLimit": 10,
    "shadows": [
    ],
    "startMarkerType": 0,
    "windingRule": 1
  }
}