{
  "_class": "symbolInstance",
  "booleanOperation": -1,
  "clippingMaskMode": 0,
  "do_objectID": "06737A81-C383-4C3C-B344-BBC6E488E205",
  "exportOptions": {
    "_class": "exportOptions",
    "do_objectID": "C1A1307E-DF56-4932-9B84-BA43A0B326EF",
    "exportFormats": [
    ],
    "includedLayerIds": [
    ],
    "layerOptions": 0,
    "shouldTrim": false
  },
  "frame": {
    "_class": "rect",
    "constrainProportions": false,
    "do_objectID": "847C6F63-45F9-4179-B1C3-8980626652F2",
    "height": 24,
    "width": 4,
    "x": 57,
    "y": 0
  },
  "hasClippingMask": false,
  "horizontalSpacing": 0,
  "isFixedToViewport": false,
  "isFlippedHorizontal": false,
  "isFlippedVertical": false,
  "isLocked": false,
  "isVisible": true,
  "layerListExpandedType": 0,
  "name": "Spacer",
  "nameIsFixed": true,
  "overrideValues": [
  ],
  "resizingConstraint": 12,
  "resizingType": 0,
  "rotation": 0,
  "scale": 1,
  "shouldBreakMaskChain": false,
  "style": {
    "_class": "style",
    "do_objectID": "5A8EC021-2B14-45B4-AC8D-040B2D7B188F",
    "endMarkerType": 0,
    "miterLimit": 10,
    "startMarkerType": 0,
    "windingRule": 1
  },
  "symbolID": "11FF6E2C-1BB9-4EF3-9931-8B386FAF1432",
  "verticalSpacing": 0
}