{
  "_class": "group",
  "booleanOperation": -1,
  "clippingMaskMode": 0,
  "do_objectID": "F17472FE-A486-4621-84A2-DD07EA78DBC0",
  "exportOptions": {
    "_class": "exportOptions",
    "do_objectID": "66FA7FC7-30A6-4BC3-8A1A-66CC197ADC5C",
    "exportFormats": [
    ],
    "includedLayerIds": [
    ],
    "layerOptions": 0,
    "shouldTrim": false
  },
  "frame": {
    "_class": "rect",
    "constrainProportions": false,
    "do_objectID": "006CE25D-483A-424B-93ED-E6731C26D248",
    "height": 24,
    "width": 83,
    "x": 0,
    "y": 0
  },
  "groupLayout": {
    "_class": "MSImmutableFreeformGroupLayout",
    "do_objectID": "E80420A2-03C2-4300-8611-99DA140825C9"
  },
  "hasClickThrough": false,
  "hasClippingMask": false,
  "isFixedToViewport": false,
  "isFlippedHorizontal": false,
  "isFlippedVertical": false,
  "isLocked": false,
  "isVisible": true,
  "layerListExpandedType": 2,
  "layers": [
    {
      "class": "rectangle",
      "id": "0EDB6AEC-149E-4680-946C-C7EB0155E87F"
    },
    {
      "class": "symbolInstance",
      "id": "06737A81-C383-4C3C-B344-BBC6E488E205"
    },
    {
      "class": "oval",
      "id": "40A527D1-3F6A-4D41-B4A2-78EAE127C8BD"
    },
    {
      "class": "text",
      "id": "CE1B082F-5CCA-4E39-A82D-254603AD048F"
    }
  ],
  "name": "Tag",
  "nameIsFixed": false,
  "resizingConstraint": 63,
  "resizingType": 0,
  "rotation": 0,
  "shouldBreakMaskChain": false,
  "style": {
    "_class": "style",
    "do_objectID": "F30AD441-7357-4D99-8C55-D16D44DBC991",
    "endMarkerType": 0,
    "miterLimit": 10,
    "startMarkerType": 0,
    "windingRule": 1
  }
}