{
  "_class": "group",
  "booleanOperation": 0,
  "clippingMaskMode": 0,
  "do_objectID": "BE6866BA-396B-491E-8561-56F312B12D87",
  "exportOptions": {
    "_class": "exportOptions",
    "do_objectID": "7582CAEB-C8D9-4F1F-BFC3-3985A2F388B1",
    "exportFormats": [
    ],
    "includedLayerIds": [
    ],
    "layerOptions": 0,
    "shouldTrim": false
  },
  "frame": {
    "_class": "rect",
    "constrainProportions": true,
    "do_objectID": "1D2C7CD9-27F7-43A1-B1C2-6FBAFF581D33",
    "height": 15,
    "width": 15,
    "x": 905.1066017177982,
    "y": 24.10660171779818
  },
  "groupLayout": {
    "_class": "MSImmutableFreeformGroupLayout",
    "do_objectID": "98F49C9C-200B-4534-BA6C-CAB393AA8C42"
  },
  "hasClickThrough": false,
  "hasClippingMask": false,
  "isFixedToViewport": false,
  "isFlippedHorizontal": false,
  "isFlippedVertical": false,
  "isLocked": false,
  "isVisible": true,
  "layerListExpandedType": 0,
  "layers": [
    {
      "class": "shapePath",
      "id": "ED5D01C2-325F-4E60-9CF6-F06FEA5093DC"
    }
  ],
  "name": "cancel",
  "nameIsFixed": false,
  "resizingConstraint": 63,
  "resizingType": 0,
  "rotation": 0,
  "shouldBreakMaskChain": false,
  "style": {
    "_class": "style",
    "do_objectID": "7A943D09-723F-451E-B1F6-3322D58A1934",
    "endMarkerType": 0,
    "miterLimit": 10,
    "startMarkerType": 0,
    "windingRule": 1
  }
}