{
  "_class": "group",
  "booleanOperation": -1,
  "clippingMaskMode": 0,
  "do_objectID": "B673781E-ABF6-4152-894C-4F45280F6AF7",
  "exportOptions": {
    "_class": "exportOptions",
    "do_objectID": "3AAA2C6B-0F92-4E06-B526-149E0082C884",
    "exportFormats": [
    ],
    "includedLayerIds": [
    ],
    "layerOptions": 0,
    "shouldTrim": false
  },
  "frame": {
    "_class": "rect",
    "constrainProportions": false,
    "do_objectID": "D1549A0B-99AD-45C8-BEEA-0DDF3ADA2205",
    "height": 17,
    "width": 92,
    "x": 16,
    "y": 15.85576923076923
  },
  "groupLayout": {
    "_class": "MSImmutableFreeformGroupLayout"
  },
  "hasClickThrough": false,
  "hasClippingMask": false,
  "isFixedToViewport": false,
  "isFlippedHorizontal": false,
  "isFlippedVertical": false,
  "isLocked": false,
  "isVisible": true,
  "layerListExpandedType": 0,
  "layers": [
    {
      "class": "rectangle",
      "id": "6C66AEE4-9678-40BE-B0CE-2840B0D89900"
    },
    {
      "class": "text",
      "id": "9F31DB37-F6E8-4A49-9A1C-46909BB04C3A"
    }
  ],
  "name": "snippet",
  "nameIsFixed": true,
  "resizingConstraint": 63,
  "resizingType": 0,
  "rotation": 0,
  "shouldBreakMaskChain": false,
  "style": {
    "_class": "style",
    "do_objectID": "D4DBAD4A-73FA-4721-BDAB-4BAC24A60FED",
    "endMarkerType": 0,
    "miterLimit": 10,
    "startMarkerType": 0,
    "windingRule": 1
  }
}