{
  "_class": "group",
  "booleanOperation": -1,
  "clippingMaskMode": 0,
  "do_objectID": "09F10DDE-F64F-4A73-871A-2B79E1A8F77F",
  "exportOptions": {
    "_class": "exportOptions",
    "do_objectID": "25285C22-76FD-4389-BA5F-7EAE906560CB",
    "exportFormats": [
    ],
    "includedLayerIds": [
    ],
    "layerOptions": 0,
    "shouldTrim": false
  },
  "frame": {
    "_class": "rect",
    "constrainProportions": false,
    "do_objectID": "872B9459-9AF3-400C-B3A9-14027E65B342",
    "height": 103,
    "width": 319,
    "x": 641,
    "y": 0
  },
  "groupLayout": {
    "_class": "MSImmutableFreeformGroupLayout"
  },
  "hasClickThrough": false,
  "hasClippingMask": false,
  "isFixedToViewport": false,
  "isFlippedHorizontal": false,
  "isFlippedVertical": false,
  "isLocked": false,
  "isVisible": true,
  "layerListExpandedType": 0,
  "layers": [
    {
      "class": "rectangle",
      "id": "93F2D730-A426-4119-9290-3E5D1CF8D448"
    },
    {
      "class": "text",
      "id": "8544C01C-CEB1-4B46-8601-DEB24FB34BC9"
    },
    {
      "class": "rectangle",
      "id": "C6025AA0-1F87-4A4E-BFE0-2DCA12498459"
    }
  ],
  "name": "value",
  "nameIsFixed": true,
  "resizingConstraint": 63,
  "resizingType": 0,
  "rotation": 0,
  "shouldBreakMaskChain": false,
  "style": {
    "_class": "style",
    "do_objectID": "B111EF00-B904-4B2E-8B44-C06371DA39CB",
    "endMarkerType": 0,
    "miterLimit": 10,
    "startMarkerType": 0,
    "windingRule": 1
  }
}