{
  "_class": "symbolInstance",
  "booleanOperation": 0,
  "clippingMaskMode": 0,
  "do_objectID": "53A2F402-FDEE-41C6-83A1-409A2B2E208C",
  "exportOptions": {
    "_class": "exportOptions",
    "do_objectID": "2DD27A77-9940-4ED5-BB08-E936043EC39A",
    "exportFormats": [
    ],
    "includedLayerIds": [
    ],
    "layerOptions": 0,
    "shouldTrim": false
  },
  "frame": {
    "_class": "rect",
    "constrainProportions": false,
    "do_objectID": "C8A28A28-E21F-4CE4-AD99-F374C07B2AE9",
    "height": 300,
    "width": 1366,
    "x": 0,
    "y": 4037
  },
  "hasClippingMask": false,
  "horizontalSpacing": 0,
  "isFixedToViewport": false,
  "isFlippedHorizontal": false,
  "isFlippedVertical": false,
  "isLocked": false,
  "isVisible": true,
  "layerListExpandedType": 0,
  "name": "Callouts",
  "nameIsFixed": false,
  "overrideValues": [
  ],
  "resizingConstraint": 63,
  "resizingType": 0,
  "rotation": 0,
  "scale": 1,
  "shouldBreakMaskChain": false,
  "style": {
    "_class": "style",
    "do_objectID": "4908CDD5-9A73-4EAD-8ADF-E5F765C3D940",
    "endMarkerType": 0,
    "miterLimit": 10,
    "startMarkerType": 0,
    "windingRule": 1
  },
  "symbolID": "ACCD4F2C-1880-458C-9BF6-CF863E907D61",
  "verticalSpacing": 0
}