{
  "_class": "group",
  "booleanOperation": 0,
  "clippingMaskMode": 0,
  "do_objectID": "974E3545-3CE7-4CF0-B0A4-F85FA5B9C52F",
  "exportOptions": {
    "_class": "exportOptions",
    "exportFormats": [
      {
        "_class": "exportFormat",
        "absoluteSize": 0,
        "fileFormat": "png",
        "name": "",
        "namingScheme": 0,
        "scale": 1,
        "visibleScaleType": 0
      }
    ],
    "includedLayerIds": [
    ],
    "layerOptions": 0,
    "shouldTrim": false
  },
  "frame": {
    "_class": "rect",
    "constrainProportions": true,
    "height": 15,
    "width": 15,
    "x": 251,
    "y": 666
  },
  "groupLayout": {
    "_class": "MSImmutableFreeformGroupLayout"
  },
  "hasClickThrough": false,
  "hasClippingMask": false,
  "isFixedToViewport": false,
  "isFlippedHorizontal": false,
  "isFlippedVertical": false,
  "isLocked": false,
  "isVisible": true,
  "layerListExpandedType": 2,
  "layers": [
    {
      "class": "shapePath",
      "id": "3F575101-B45C-4B7B-BC57-28C15C187E14"
    },
    {
      "class": "shapePath",
      "id": "EDEFEF68-967E-402F-ABD2-1E3339875DAD"
    },
    {
      "class": "shapePath",
      "id": "88473E88-C67B-4407-980F-347D51323140"
    },
    {
      "class": "shapePath",
      "id": "4EC9A1B2-A7B0-4FAC-A8A8-2EDB0F4ECD95"
    },
    {
      "class": "shapePath",
      "id": "047A1078-7840-48D0-AFFD-0638C822D8EB"
    },
    {
      "class": "shapePath",
      "id": "F0C8A4F1-C7F2-410B-BC39-139AC2FC6C14"
    }
  ],
  "maintainScrollPosition": false,
  "name": "Group",
  "nameIsFixed": false,
  "resizingConstraint": 45,
  "resizingType": 0,
  "rotation": 0,
  "shouldBreakMaskChain": false,
  "style": {
    "_class": "style",
    "blur": {
      "_class": "blur",
      "center": "{0.5, 0.5}",
      "isEnabled": false,
      "motionAngle": 0,
      "radius": 10,
      "saturation": 1,
      "type": 0
    },
    "borderOptions": {
      "_class": "borderOptions",
      "dashPattern": [
      ],
      "isEnabled": true,
      "lineCapStyle": 0,
      "lineJoinStyle": 0
    },
    "borders": [
    ],
    "colorControls": {
      "_class": "colorControls",
      "brightness": 0,
      "contrast": 1,
      "hue": 0,
      "isEnabled": true,
      "saturation": 1
    },
    "contextSettings": {
      "_class": "graphicsContextSettings",
      "blendMode": 0,
      "opacity": 1
    },
    "do_objectID": "A2DB9EC8-A6B8-468A-887A-9513615A7309",
    "endMarkerType": 0,
    "fills": [
    ],
    "innerShadows": [
    ],
    "miterLimit": 10,
    "shadows": [
    ],
    "startMarkerType": 0,
    "windingRule": 1
  },
  "userInfo": {
    "com.animaapp.stc-sketch-plugin": {
      "kModelPropertiesKey": {
        "constraints": {
          "aspectRatio": {
            "constant": 11,
            "enabled": 1,
            "modelID": "constraint_806881b1-e97e-4a28-ace9-046f4c291640",
            "model_class": "ADModelConstraint",
            "model_version": 0,
            "multiplier": 11
          },
          "automatic": 1,
          "modelID": "viewConstraints_f7eb216f-5d1b-4ca4-856f-56108703a9c3",
          "model_class": "ADModelViewConstraints",
          "model_version": 0,
          "scaleFactor": 1
        }
      }
    }
  }
}