{
  "_class": "group",
  "booleanOperation": 0,
  "clippingMaskMode": 0,
  "do_objectID": "75C1D42C-1B0E-4729-B467-E0286E9B90E3",
  "exportOptions": {
    "_class": "exportOptions",
    "do_objectID": "61589789-0E92-47BD-A523-4C5B840AEC2A",
    "exportFormats": [
    ],
    "includedLayerIds": [
    ],
    "layerOptions": 0,
    "shouldTrim": false
  },
  "frame": {
    "_class": "rect",
    "constrainProportions": true,
    "do_objectID": "209977A3-7CF2-4146-8B09-E5230CE844ED",
    "height": 44.00000000000004,
    "width": 44.00000000000003,
    "x": -5.684341886080801e-14,
    "y": 0
  },
  "groupLayout": {
    "_class": "MSImmutableFreeformGroupLayout",
    "do_objectID": "D8F483D8-9C98-4665-A7AA-7AD753618B45"
  },
  "hasClickThrough": false,
  "hasClippingMask": false,
  "isFixedToViewport": false,
  "isFlippedHorizontal": false,
  "isFlippedVertical": false,
  "isLocked": false,
  "isVisible": true,
  "layerListExpandedType": 0,
  "layers": [
    {
      "class": "oval",
      "id": "633B47BA-D8A5-46F2-A551-B1541CF5DCC8"
    },
    {
      "class": "group",
      "id": "55030D3D-7DBC-4DE2-865C-6799A7220F46"
    }
  ],
  "name": "pink",
  "nameIsFixed": true,
  "resizingConstraint": 63,
  "resizingType": 0,
  "rotation": 0,
  "shouldBreakMaskChain": false,
  "style": {
    "_class": "style",
    "do_objectID": "BC342846-4621-464E-B09F-0979D4A0E305",
    "endMarkerType": 0,
    "miterLimit": 10,
    "startMarkerType": 0,
    "windingRule": 1
  }
}