{
  "_class": "shapePath",
  "booleanOperation": -1,
  "clippingMaskMode": 0,
  "do_objectID": "E0447B44-DA38-4D95-86C3-273F1B90969A",
  "edited": true,
  "exportOptions": {
    "_class": "exportOptions",
    "exportFormats": [
    ],
    "includedLayerIds": [
    ],
    "layerOptions": 0,
    "shouldTrim": false
  },
  "frame": {
    "_class": "rect",
    "constrainProportions": false,
    "height": 7.352468215493592,
    "width": 6.895438657900868,
    "x": 14.58661701954112,
    "y": 0
  },
  "hasClippingMask": false,
  "isClosed": true,
  "isFixedToViewport": false,
  "isFlippedHorizontal": false,
  "isFlippedVertical": false,
  "isLocked": false,
  "isVisible": true,
  "layerListExpandedType": 0,
  "name": "Path",
  "nameIsFixed": false,
  "pointRadiusBehaviour": 1,
  "points": [
    {
      "_class": "curvePoint",
      "cornerRadius": 0,
      "curveFrom": "{0, 0}",
      "curveMode": 1,
      "curveTo": "{0, 0}",
      "hasCurveFrom": false,
      "hasCurveTo": false,
      "point": "{0, 0}"
    },
    {
      "_class": "curvePoint",
      "cornerRadius": 0,
      "curveFrom": "{0, 0.29108114233907534}",
      "curveMode": 1,
      "curveTo": "{0, 0.29108114233907534}",
      "hasCurveFrom": false,
      "hasCurveTo": false,
      "point": "{0, 0.29108114233907534}"
    },
    {
      "_class": "curvePoint",
      "cornerRadius": 0,
      "curveFrom": "{0.29406078182587092, 0.29108114233907534}",
      "curveMode": 1,
      "curveTo": "{0.29406078182587092, 0.29108114233907534}",
      "hasCurveFrom": false,
      "hasCurveTo": false,
      "point": "{0.29406078182587092, 0.29108114233907534}"
    },
    {
      "_class": "curvePoint",
      "cornerRadius": 0,
      "curveFrom": "{0.29406078182587092, 1}",
      "curveMode": 1,
      "curveTo": "{0.29406078182587092, 1}",
      "hasCurveFrom": false,
      "hasCurveTo": false,
      "point": "{0.29406078182587092, 1}"
    },
    {
      "_class": "curvePoint",
      "cornerRadius": 0,
      "curveFrom": "{0.70479125128390974, 1}",
      "curveMode": 1,
      "curveTo": "{0.70479125128390974, 1}",
      "hasCurveFrom": false,
      "hasCurveTo": false,
      "point": "{0.70479125128390974, 1}"
    },
    {
      "_class": "curvePoint",
      "cornerRadius": 0,
      "curveFrom": "{0.70479125128390974, 0.29108114233907534}",
      "curveMode": 1,
      "curveTo": "{0.70479125128390974, 0.29108114233907534}",
      "hasCurveFrom": false,
      "hasCurveTo": false,
      "point": "{0.70479125128390974, 0.29108114233907534}"
    },
    {
      "_class": "curvePoint",
      "cornerRadius": 0,
      "curveFrom": "{1, 0.29108114233907534}",
      "curveMode": 1,
      "curveTo": "{1, 0.29108114233907534}",
      "hasCurveFrom": false,
      "hasCurveTo": false,
      "point": "{1, 0.29108114233907534}"
    },
    {
      "_class": "curvePoint",
      "cornerRadius": 0,
      "curveFrom": "{1, 0}",
      "curveMode": 1,
      "curveTo": "{1, 0}",
      "hasCurveFrom": false,
      "hasCurveTo": false,
      "point": "{1, 0}"
    }
  ],
  "resizingConstraint": 63,
  "resizingType": 0,
  "rotation": 0,
  "shouldBreakMaskChain": false,
  "style": {
    "_class": "style",
    "endMarkerType": 0,
    "fills": [
      {
        "_class": "fill",
        "color": {
          "_class": "color",
          "alpha": 1,
          "blue": 0.1764705882352941,
          "green": 0.1764705882352941,
          "red": 0.1764705882352941
        },
        "fillType": 0,
        "isEnabled": true,
        "noiseIndex": 0,
        "noiseIntensity": 0,
        "patternFillType": 1,
        "patternTileScale": 1
      }
    ],
    "miterLimit": 10,
    "startMarkerType": 0,
    "windingRule": 1
  }
}