{
  "_class": "symbolInstance",
  "booleanOperation": -1,
  "clippingMaskMode": 0,
  "do_objectID": "9A6215BB-B8F5-400F-9AC6-D6C136DF9EAD",
  "exportOptions": {
    "_class": "exportOptions",
    "do_objectID": "9DA1F614-1A08-4626-8A62-AAF0D465A42C",
    "exportFormats": [
    ],
    "includedLayerIds": [
    ],
    "layerOptions": 0,
    "shouldTrim": false
  },
  "frame": {
    "_class": "rect",
    "constrainProportions": false,
    "do_objectID": "0A7FFA7B-755A-4253-826C-BD42E7B8EB18",
    "height": 64,
    "width": 1024,
    "x": 0,
    "y": 708
  },
  "hasClippingMask": false,
  "horizontalSpacing": 0,
  "isFixedToViewport": false,
  "isFlippedHorizontal": false,
  "isFlippedVertical": false,
  "isLocked": false,
  "isVisible": true,
  "layerListExpandedType": 0,
  "name": "row 9",
  "nameIsFixed": true,
  "overrideValues": [
  ],
  "resizingConstraint": 63,
  "resizingType": 0,
  "rotation": 0,
  "scale": 1,
  "shouldBreakMaskChain": false,
  "style": {
    "_class": "style",
    "do_objectID": "00BF6F02-0CEB-45E5-BB9D-6B1EB50E99A2",
    "endMarkerType": 0,
    "miterLimit": 10,
    "startMarkerType": 0,
    "windingRule": 1
  },
  "symbolID": "4FCA5EA1-D8EA-4BCF-AD21-F6D5DB799DE2",
  "verticalSpacing": 0
}