{
  "_class": "group",
  "booleanOperation": 0,
  "clippingMaskMode": 0,
  "do_objectID": "B96953B7-BE09-49D6-8D96-AA94D0561000",
  "exportOptions": {
    "_class": "exportOptions",
    "do_objectID": "376DA60C-D9D1-436A-B9F2-A687501D549D",
    "exportFormats": [
    ],
    "includedLayerIds": [
    ],
    "layerOptions": 0,
    "shouldTrim": false
  },
  "frame": {
    "_class": "rect",
    "constrainProportions": false,
    "do_objectID": "204DBE99-AAF0-40DD-AF78-74B99AAA8AFD",
    "height": 38,
    "width": 38,
    "x": 2.85999999999983,
    "y": 2.860000000000003
  },
  "groupLayout": {
    "_class": "MSImmutableFreeformGroupLayout",
    "do_objectID": "9FCB08F1-33CD-4018-9F03-E2A7DD246B83"
  },
  "hasClickThrough": true,
  "hasClippingMask": false,
  "isFixedToViewport": false,
  "isFlippedHorizontal": false,
  "isFlippedVertical": false,
  "isLocked": false,
  "isVisible": true,
  "layerListExpandedType": 1,
  "layers": [
    {
      "class": "oval",
      "id": "6B8507F7-9A2A-4B9B-8D9B-AA4B83FDCABF"
    }
  ],
  "name": "pink icon",
  "nameIsFixed": true,
  "resizingConstraint": 63,
  "resizingType": 0,
  "rotation": 0,
  "shouldBreakMaskChain": false,
  "style": {
    "_class": "style",
    "do_objectID": "E74D38AA-F53D-4137-BC53-D07E6BEEB864",
    "endMarkerType": 0,
    "miterLimit": 10,
    "startMarkerType": 0,
    "windingRule": 1
  }
}