{
  "_class": "group",
  "booleanOperation": 0,
  "clippingMaskMode": 0,
  "do_objectID": "71AA1C61-6729-431A-B1D4-24080931B203",
  "exportOptions": {
    "_class": "exportOptions",
    "do_objectID": "D8B07F10-45BC-48DE-AE23-2D737D1E9D6A",
    "exportFormats": [
    ],
    "includedLayerIds": [
    ],
    "layerOptions": 0,
    "shouldTrim": false
  },
  "frame": {
    "_class": "rect",
    "constrainProportions": true,
    "do_objectID": "87290242-F06C-4AFF-AE6D-4265CB493522",
    "height": 70,
    "width": 947,
    "x": 1,
    "y": 428
  },
  "groupLayout": {
    "_class": "MSImmutableFreeformGroupLayout",
    "do_objectID": "4AF0C617-7228-4838-AC9F-014A7BB56FEC"
  },
  "hasClickThrough": false,
  "hasClippingMask": false,
  "isFixedToViewport": false,
  "isFlippedHorizontal": false,
  "isFlippedVertical": false,
  "isLocked": false,
  "isVisible": true,
  "layerListExpandedType": 0,
  "layers": [
    {
      "class": "rectangle",
      "id": "9D14EDCA-DB71-4736-919C-D083DC041141"
    },
    {
      "class": "group",
      "id": "34541236-FE5B-4671-BC54-9FD428E119B3"
    },
    {
      "class": "shapePath",
      "id": "4B33E1DE-6119-48E5-8FB0-10F6352D59C9"
    },
    {
      "class": "group",
      "id": "C3DC3EC9-EFD4-4303-9816-D3771A18A625"
    }
  ],
  "name": "q&a",
  "nameIsFixed": true,
  "resizingConstraint": 63,
  "resizingType": 0,
  "rotation": 0,
  "shouldBreakMaskChain": false,
  "style": {
    "_class": "style",
    "do_objectID": "AA11A377-0A56-4EEF-BA0C-FDB30DDD4D9D",
    "endMarkerType": 0,
    "miterLimit": 10,
    "startMarkerType": 0,
    "windingRule": 1
  }
}