{
  "_class": "symbolInstance",
  "booleanOperation": -1,
  "clippingMaskMode": 0,
  "do_objectID": "9F3E7F4B-AD53-481D-8FF8-3C125453778F",
  "exportOptions": {
    "_class": "exportOptions",
    "do_objectID": "568ADA90-A9EC-44A0-B33D-E1E504711260",
    "exportFormats": [
    ],
    "includedLayerIds": [
    ],
    "layerOptions": 0,
    "shouldTrim": false
  },
  "frame": {
    "_class": "rect",
    "constrainProportions": false,
    "do_objectID": "6D84EC51-E901-4DDF-8FC8-F36C05D589BE",
    "height": 32,
    "width": 256,
    "x": 0,
    "y": 48
  },
  "hasClippingMask": false,
  "horizontalSpacing": 0,
  "isFixedToViewport": false,
  "isFlippedHorizontal": false,
  "isFlippedVertical": false,
  "isLocked": false,
  "isVisible": true,
  "layerListExpandedType": 0,
  "name": "link 2",
  "nameIsFixed": true,
  "overrideValues": [
  ],
  "resizingConstraint": 63,
  "resizingType": 0,
  "rotation": 0,
  "scale": 1,
  "shouldBreakMaskChain": false,
  "style": {
    "_class": "style",
    "do_objectID": "E40A89FB-3A3C-46CA-9375-BB3395AB11C5",
    "endMarkerType": 0,
    "miterLimit": 10,
    "startMarkerType": 0,
    "windingRule": 1
  },
  "symbolID": "39EE8F98-A779-4DE9-ABF4-C9F0275063EC",
  "verticalSpacing": 0
}