{
  "_class": "symbolMaster",
  "allowsOverrides": true,
  "backgroundColor": {
    "_class": "color",
    "alpha": 1,
    "blue": 1,
    "green": 1,
    "red": 1
  },
  "booleanOperation": -1,
  "changeIdentifier": 299,
  "clippingMaskMode": 0,
  "do_objectID": "CD9E2F78-FCA0-4857-A64C-8054EB00EC51",
  "exportOptions": {
    "_class": "exportOptions",
    "exportFormats": [
    ],
    "includedLayerIds": [
    ],
    "layerOptions": 0,
    "shouldTrim": false
  },
  "frame": {
    "_class": "rect",
    "constrainProportions": false,
    "height": 32,
    "width": 512,
    "x": 79647,
    "y": 0
  },
  "groupLayout": {
    "_class": "MSImmutableFreeformGroupLayout"
  },
  "hasBackgroundColor": false,
  "hasClickThrough": true,
  "hasClippingMask": false,
  "horizontalRulerData": {
    "_class": "rulerData",
    "base": 0,
    "guides": [
    ]
  },
  "includeBackgroundColorInExport": true,
  "includeBackgroundColorInInstance": false,
  "includeInCloudUpload": true,
  "isFixedToViewport": false,
  "isFlippedHorizontal": false,
  "isFlippedVertical": false,
  "isFlowHome": false,
  "isLocked": false,
  "isVisible": true,
  "layerListExpandedType": 2,
  "layers": [
    {
      "class": "rectangle",
      "id": "4ADC6086-775F-4751-82DB-2A4F7C630647"
    },
    {
      "class": "rectangle",
      "id": "09B5D53D-1095-45B2-A4D3-C5A3B90823DE"
    },
    {
      "class": "symbolInstance",
      "id": "ED4567C4-A917-4A21-9406-64DB024D2179"
    },
    {
      "class": "text",
      "id": "A5B1B52A-A770-4773-8940-88DFB3982B0A"
    },
    {
      "class": "symbolInstance",
      "id": "189AE2EB-AD2B-41B1-A55F-D1B78DF7A4D0"
    }
  ],
  "name": "search / small / 01 enabled",
  "nameIsFixed": false,
  "overrideProperties": [
    {
      "_class": "MSImmutableOverrideProperty",
      "canOverride": true,
      "overrideName": "ED4567C4-A917-4A21-9406-64DB024D2179_symbolID"
    },
    {
      "_class": "MSImmutableOverrideProperty",
      "canOverride": false,
      "overrideName": "189AE2EB-AD2B-41B1-A55F-D1B78DF7A4D0_symbolID"
    },
    {
      "_class": "MSImmutableOverrideProperty",
      "canOverride": false,
      "overrideName": "A5B1B52A-A770-4773-8940-88DFB3982B0A_textStyle"
    },
    {
      "_class": "MSImmutableOverrideProperty",
      "canOverride": false,
      "overrideName": "189AE2EB-AD2B-41B1-A55F-D1B78DF7A4D0/2E263EF5-BDBF-4557-9D0B-7C965E3A09F2_layerStyle"
    },
    {
      "_class": "MSImmutableOverrideProperty",
      "canOverride": false,
      "overrideName": "09B5D53D-1095-45B2-A4D3-C5A3B90823DE_layerStyle"
    },
    {
      "_class": "MSImmutableOverrideProperty",
      "canOverride": true,
      "overrideName": "A5B1B52A-A770-4773-8940-88DFB3982B0A_stringValue"
    }
  ],
  "resizesContent": true,
  "resizingConstraint": 63,
  "resizingType": 0,
  "rotation": 0,
  "shouldBreakMaskChain": true,
  "style": {
    "_class": "style",
    "endMarkerType": 0,
    "miterLimit": 10,
    "startMarkerType": 0,
    "windingRule": 1
  },
  "symbolID": "C1132BC1-CE23-4409-B5F7-ABD9024FC9A2",
  "verticalRulerData": {
    "_class": "rulerData",
    "base": 0,
    "guides": [
    ]
  }
}