{
  "_class": "symbolInstance",
  "booleanOperation": -1,
  "clippingMaskMode": 0,
  "do_objectID": "50096AB0-6574-47BD-AE7A-37743A43D3ED",
  "exportOptions": {
    "_class": "exportOptions",
    "do_objectID": "3AC69C4A-519F-4FE0-8322-C271DD7A3BD5",
    "exportFormats": [
    ],
    "includedLayerIds": [
    ],
    "layerOptions": 0,
    "shouldTrim": false
  },
  "frame": {
    "_class": "rect",
    "constrainProportions": false,
    "do_objectID": "0B526823-CD17-4464-A33D-F9DAB5DC3F57",
    "height": 16,
    "width": 16,
    "x": 12,
    "y": 12
  },
  "hasClippingMask": false,
  "horizontalSpacing": 0,
  "isFixedToViewport": false,
  "isFlippedHorizontal": false,
  "isFlippedVertical": false,
  "isLocked": false,
  "isVisible": true,
  "layerListExpandedType": 2,
  "name": "Icon",
  "nameIsFixed": true,
  "overrideValues": [
    {
      "_class": "overrideValue",
      "do_objectID": "8B767B8F-9DE7-4321-BF93-6A0F1A3D0212",
      "overrideName": "BE723698-E08A-461D-A0D5-CF91951155C8_layerStyle",
      "value": "FC717D83-632A-4578-A354-C7BB21CB3CFE"
    }
  ],
  "resizingConstraint": 9,
  "resizingType": 0,
  "rotation": 0,
  "scale": 1,
  "shouldBreakMaskChain": false,
  "style": {
    "_class": "style",
    "do_objectID": "1688B368-E406-418B-B139-474DCD9B30D2",
    "endMarkerType": 0,
    "miterLimit": 10,
    "startMarkerType": 0,
    "windingRule": 1
  },
  "symbolID": "F2F8A963-BA8C-46DF-A551-3D51C49206A3",
  "verticalSpacing": 0
}