{
  "_class": "group",
  "booleanOperation": 0,
  "clippingMaskMode": 0,
  "do_objectID": "44EE4BFE-6DCB-4A9C-86F7-745199AB2C74",
  "exportOptions": {
    "_class": "exportOptions",
    "do_objectID": "94470F33-1A06-474E-9CCA-28CF2C1AA6F6",
    "exportFormats": [
    ],
    "includedLayerIds": [
    ],
    "layerOptions": 0,
    "shouldTrim": false
  },
  "frame": {
    "_class": "rect",
    "constrainProportions": true,
    "do_objectID": "02CC1E08-FF7E-4181-9D79-81D8DFDFAD6B",
    "height": 364,
    "width": 948,
    "x": 0,
    "y": 0
  },
  "groupLayout": {
    "_class": "MSImmutableFreeformGroupLayout",
    "do_objectID": "426246A6-B767-4195-A709-38C796D33B27"
  },
  "hasClickThrough": false,
  "hasClippingMask": false,
  "isFixedToViewport": false,
  "isFlippedHorizontal": false,
  "isFlippedVertical": false,
  "isLocked": false,
  "isVisible": true,
  "layerListExpandedType": 0,
  "layers": [
    {
      "class": "rectangle",
      "id": "7574FA33-90A7-437A-A09B-CBA857D3157C"
    },
    {
      "class": "rectangle",
      "id": "E653BB33-C776-4A73-9E57-685144020A33"
    },
    {
      "class": "shapePath",
      "id": "21FE5269-8361-4BFE-97BE-31D2F61035F1"
    },
    {
      "class": "text",
      "id": "7056D2AC-E154-47AC-BDBA-CC6F66498537"
    },
    {
      "class": "text",
      "id": "8B3636A1-2213-4DF6-BE48-FDF02E759264"
    },
    {
      "class": "text",
      "id": "BD681B85-6801-4D63-8744-61D506A0D7F5"
    },
    {
      "class": "group",
      "id": "EE783A27-E4CE-43EC-BE15-63D233F095CA"
    },
    {
      "class": "shapePath",
      "id": "22AA6C01-EAA6-4995-BA57-E78E8DFB4241"
    }
  ],
  "name": "Product Details",
  "nameIsFixed": true,
  "resizingConstraint": 63,
  "resizingType": 0,
  "rotation": 0,
  "shouldBreakMaskChain": false,
  "style": {
    "_class": "style",
    "do_objectID": "5BE33E2C-C4FA-40F6-A3E8-46394818695A",
    "endMarkerType": 0,
    "miterLimit": 10,
    "startMarkerType": 0,
    "windingRule": 1
  }
}