{
  "_class": "symbolInstance",
  "booleanOperation": -1,
  "clippingMaskMode": 0,
  "do_objectID": "03978E01-C22C-4393-B3C8-1846E5606E85",
  "exportOptions": {
    "_class": "exportOptions",
    "do_objectID": "A0430105-4569-48C1-882F-1B0BF3511EBB",
    "exportFormats": [
    ],
    "includedLayerIds": [
    ],
    "layerOptions": 0,
    "shouldTrim": false
  },
  "frame": {
    "_class": "rect",
    "constrainProportions": false,
    "do_objectID": "DE632A9E-4C84-48F8-88B9-DC062433BD68",
    "height": 48,
    "width": 200,
    "x": 600,
    "y": 0
  },
  "hasClippingMask": false,
  "horizontalSpacing": 0,
  "isFixedToViewport": false,
  "isFlippedHorizontal": false,
  "isFlippedVertical": false,
  "isLocked": false,
  "isVisible": true,
  "layerListExpandedType": 0,
  "name": "column header 4",
  "nameIsFixed": true,
  "overrideValues": [
  ],
  "resizingConstraint": 63,
  "resizingType": 0,
  "rotation": 0,
  "scale": 1,
  "shouldBreakMaskChain": false,
  "style": {
    "_class": "style",
    "do_objectID": "378D0743-0378-493F-AA3C-CC3E9FE4D254",
    "endMarkerType": 0,
    "miterLimit": 10,
    "startMarkerType": 0,
    "windingRule": 1
  },
  "symbolID": "E62B2737-033B-42A0-BBAA-62B28A4F07EE",
  "verticalSpacing": 0
}