{
  "_class": "shapePath",
  "booleanOperation": -1,
  "clippingMaskMode": 0,
  "do_objectID": "9419841D-699C-4AA9-B742-21CB2657AB3C",
  "edited": true,
  "exportOptions": {
    "_class": "exportOptions",
    "exportFormats": [
    ],
    "includedLayerIds": [
    ],
    "layerOptions": 0,
    "shouldTrim": false
  },
  "frame": {
    "_class": "rect",
    "constrainProportions": false,
    "height": 4.80651855,
    "width": 3.927611999999996,
    "x": 54.04083290000001,
    "y": 1.799011240000001
  },
  "hasClippingMask": false,
  "isClosed": true,
  "isFixedToViewport": false,
  "isFlippedHorizontal": false,
  "isFlippedVertical": false,
  "isLocked": false,
  "isVisible": true,
  "layerListExpandedType": 0,
  "maintainScrollPosition": false,
  "name": "Download-on-the-path",
  "nameIsFixed": false,
  "pointRadiusBehaviour": 1,
  "points": [
    {
      "_class": "curvePoint",
      "cornerRadius": 0,
      "curveFrom": "{0, 1}",
      "curveMode": 1,
      "curveTo": "{0, 1}",
      "hasCurveFrom": false,
      "hasCurveTo": false,
      "point": "{0, 1}"
    },
    {
      "_class": "curvePoint",
      "cornerRadius": 0,
      "curveFrom": "{0.20279719585335942, 1}",
      "curveMode": 1,
      "curveTo": "{0.20279719585335942, 1}",
      "hasCurveFrom": false,
      "hasCurveTo": false,
      "point": "{0.20279719585335942, 1}"
    },
    {
      "_class": "curvePoint",
      "cornerRadius": 0,
      "curveFrom": "{0.20279719585335942, 0.25809523818440261}",
      "curveMode": 4,
      "curveTo": "{0.20279719585335942, 0.42571429376882375}",
      "hasCurveFrom": true,
      "hasCurveTo": false,
      "point": "{0.20279719585335942, 0.42571429376882375}"
    },
    {
      "_class": "curvePoint",
      "cornerRadius": 0,
      "curveFrom": "{0.70629374795677569, 0.14666666583446347}",
      "curveMode": 2,
      "curveTo": "{0.32167833788062444, 0.14666666583446347}",
      "hasCurveFrom": true,
      "hasCurveTo": true,
      "point": "{0.51748255683097177, 0.14666666583446347}"
    },
    {
      "_class": "curvePoint",
      "cornerRadius": 0,
      "curveFrom": "{0.79720272776435119, 0.39428570394261769}",
      "curveMode": 4,
      "curveTo": "{0.79720272776435119, 0.23428571809007154}",
      "hasCurveFrom": false,
      "hasCurveTo": true,
      "point": "{0.79720272776435119, 0.39428570394261769}"
    },
    {
      "_class": "curvePoint",
      "cornerRadius": 0,
      "curveFrom": "{0.79720272776435119, 1}",
      "curveMode": 1,
      "curveTo": "{0.79720272776435119, 1}",
      "hasCurveFrom": false,
      "hasCurveTo": false,
      "point": "{0.79720272776435119, 1}"
    },
    {
      "_class": "curvePoint",
      "cornerRadius": 0,
      "curveFrom": "{1, 1}",
      "curveMode": 1,
      "curveTo": "{1, 1}",
      "hasCurveFrom": false,
      "hasCurveTo": false,
      "point": "{1, 1}"
    },
    {
      "_class": "curvePoint",
      "cornerRadius": 0,
      "curveFrom": "{1, 0.13999999854364428}",
      "curveMode": 4,
      "curveTo": "{1, 0.36476190235445988}",
      "hasCurveFrom": true,
      "hasCurveTo": false,
      "point": "{1, 0.36476190235445988}"
    },
    {
      "_class": "curvePoint",
      "cornerRadius": 0,
      "curveFrom": "{0.39277390434696829, 0}",
      "curveMode": 3,
      "curveTo": "{0.84615384615384648, 0}",
      "hasCurveFrom": true,
      "hasCurveTo": true,
      "point": "{0.58041960356572941, 0}"
    },
    {
      "_class": "curvePoint",
      "cornerRadius": 0,
      "curveFrom": "{0.19580419348958172, 0.17142856964527883}",
      "curveMode": 4,
      "curveTo": "{0.27156177850561741, 0.05809523818440275}",
      "hasCurveFrom": false,
      "hasCurveTo": true,
      "point": "{0.19580419348958172, 0.17142856964527883}"
    },
    {
      "_class": "curvePoint",
      "cornerRadius": 0,
      "curveFrom": "{0.19114220040065177, 0.17142856964527883}",
      "curveMode": 1,
      "curveTo": "{0.19114220040065177, 0.17142856964527883}",
      "hasCurveFrom": false,
      "hasCurveTo": false,
      "point": "{0.19114220040065177, 0.17142856964527883}"
    },
    {
      "_class": "curvePoint",
      "cornerRadius": 0,
      "curveFrom": "{0.19114220040065177, 0.0095238080377323484}",
      "curveMode": 1,
      "curveTo": "{0.19114220040065177, 0.0095238080377323484}",
      "hasCurveFrom": false,
      "hasCurveTo": false,
      "point": "{0.19114220040065177, 0.0095238080377323484}"
    },
    {
      "_class": "curvePoint",
      "cornerRadius": 0,
      "curveFrom": "{0, 0.0095238080377323484}",
      "curveMode": 1,
      "curveTo": "{0, 0.0095238080377323484}",
      "hasCurveFrom": false,
      "hasCurveTo": false,
      "point": "{0, 0.0095238080377323484}"
    }
  ],
  "resizingConstraint": 63,
  "resizingType": 0,
  "rotation": 0,
  "shouldBreakMaskChain": false,
  "style": {
    "_class": "style",
    "blur": {
      "_class": "blur",
      "center": "{0.5, 0.5}",
      "isEnabled": false,
      "motionAngle": 0,
      "radius": 10,
      "saturation": 1,
      "type": 0
    },
    "borderOptions": {
      "_class": "borderOptions",
      "dashPattern": [
      ],
      "isEnabled": true,
      "lineCapStyle": 0,
      "lineJoinStyle": 0
    },
    "borders": [
    ],
    "colorControls": {
      "_class": "colorControls",
      "brightness": 0,
      "contrast": 1,
      "hue": 0,
      "isEnabled": true,
      "saturation": 1
    },
    "contextSettings": {
      "_class": "graphicsContextSettings",
      "blendMode": 0,
      "opacity": 1
    },
    "do_objectID": "E279C988-756D-49A2-B2EF-762C9A13DACF",
    "endMarkerType": 0,
    "fills": [
      {
        "_class": "fill",
        "color": {
          "_class": "color",
          "alpha": 1,
          "blue": 1,
          "green": 1,
          "red": 1
        },
        "contextSettings": {
          "_class": "graphicsContextSettings",
          "blendMode": 0,
          "opacity": 1
        },
        "fillType": 0,
        "gradient": {
          "_class": "gradient",
          "elipseLength": 0,
          "from": "{0.5, 0}",
          "gradientType": 0,
          "stops": [
            {
              "_class": "gradientStop",
              "color": {
                "_class": "color",
                "alpha": 1,
                "blue": 1,
                "green": 1,
                "red": 1
              },
              "position": 0
            },
            {
              "_class": "gradientStop",
              "color": {
                "_class": "color",
                "alpha": 1,
                "blue": 0,
                "green": 0,
                "red": 0
              },
              "position": 1
            }
          ],
          "to": "{0.5, 1}"
        },
        "isEnabled": true,
        "noiseIndex": 0,
        "noiseIntensity": 0,
        "patternFillType": 1,
        "patternTileScale": 1
      }
    ],
    "innerShadows": [
    ],
    "miterLimit": 10,
    "shadows": [
    ],
    "startMarkerType": 0,
    "windingRule": 0
  }
}