{
  "_class": "shapePath",
  "booleanOperation": -1,
  "clippingMaskMode": 0,
  "do_objectID": "433F671F-33FB-456A-A29D-4D2F4F28211C",
  "edited": true,
  "exportOptions": {
    "_class": "exportOptions",
    "exportFormats": [
    ],
    "includedLayerIds": [
    ],
    "layerOptions": 0,
    "shouldTrim": false
  },
  "frame": {
    "_class": "rect",
    "constrainProportions": false,
    "height": 14.90876470588235,
    "width": 8.952588235294117,
    "x": 14.57836470588236,
    "y": 1.441711764705876
  },
  "hasClippingMask": false,
  "isClosed": true,
  "isFixedToViewport": false,
  "isFlippedHorizontal": false,
  "isFlippedVertical": false,
  "isLocked": false,
  "isVisible": true,
  "layerListExpandedType": 0,
  "maintainScrollPosition": false,
  "name": "Fill 5",
  "nameIsFixed": false,
  "pointRadiusBehaviour": 1,
  "points": [
    {
      "_class": "curvePoint",
      "cornerRadius": 0,
      "curveFrom": "{0.94374942507588999, 0.84143950064904582}",
      "curveMode": 4,
      "curveTo": "{0.86312206788703894, 0.84143950064904582}",
      "hasCurveFrom": true,
      "hasCurveTo": false,
      "point": "{0.86312206788703894, 0.84143950064904582}"
    },
    {
      "_class": "curvePoint",
      "cornerRadius": 0,
      "curveFrom": "{1, 0.96627723920788811}",
      "curveMode": 2,
      "curveTo": "{1, 0.87659844781395879}",
      "hasCurveFrom": true,
      "hasCurveTo": true,
      "point": "{1, 0.92065070290275375}"
    },
    {
      "_class": "curvePoint",
      "cornerRadius": 0,
      "curveFrom": "{0.86312206788703894, 1}",
      "curveMode": 4,
      "curveTo": "{0.94374942507588999, 1}",
      "hasCurveFrom": false,
      "hasCurveTo": true,
      "point": "{0.86312206788703894, 1}"
    },
    {
      "_class": "curvePoint",
      "cornerRadius": 0,
      "curveFrom": "{0.058596265292981356, 1}",
      "curveMode": 4,
      "curveTo": "{0.13936160426823663, 1}",
      "hasCurveFrom": true,
      "hasCurveTo": false,
      "point": "{0.13936160426823663, 1}"
    },
    {
      "_class": "curvePoint",
      "cornerRadius": 0,
      "curveFrom": "{0, 0.91777833015715204}",
      "curveMode": 4,
      "curveTo": "{0, 0.96478581489767179}",
      "hasCurveFrom": false,
      "hasCurveTo": true,
      "point": "{0, 0.91777833015715204}"
    },
    {
      "_class": "curvePoint",
      "cornerRadius": 0,
      "curveFrom": "{0, 0.038197033722761051}",
      "curveMode": 4,
      "curveTo": "{0, 0.085149280525865498}",
      "hasCurveFrom": true,
      "hasCurveTo": false,
      "point": "{0, 0.085149280525865498}"
    },
    {
      "_class": "curvePoint",
      "cornerRadius": 0,
      "curveFrom": "{0.22008094931469091, 0}",
      "curveMode": 2,
      "curveTo": "{0.06356360960353255, 0}",
      "hasCurveFrom": true,
      "hasCurveTo": true,
      "point": "{0.14184527642351222, 0}"
    },
    {
      "_class": "curvePoint",
      "cornerRadius": 0,
      "curveFrom": "{0.28359856498942182, 0.085149280525865498}",
      "curveMode": 4,
      "curveTo": "{0.28359856498942182, 0.038197033722761051}",
      "hasCurveFrom": false,
      "hasCurveTo": true,
      "point": "{0.28359856498942182, 0.085149280525865498}"
    },
    {
      "_class": "curvePoint",
      "cornerRadius": 0,
      "curveFrom": "{0.28359856498942182, 0.84143950064904582}",
      "curveMode": 1,
      "curveTo": "{0.28359856498942182, 0.84143950064904582}",
      "hasCurveFrom": false,
      "hasCurveTo": false,
      "point": "{0.28359856498942182, 0.84143950064904582}"
    }
  ],
  "resizingConstraint": 63,
  "resizingType": 0,
  "rotation": 0,
  "shouldBreakMaskChain": false,
  "style": {
    "_class": "style",
    "blur": {
      "_class": "blur",
      "center": "{0.5, 0.5}",
      "isEnabled": false,
      "motionAngle": 0,
      "radius": 10,
      "saturation": 1,
      "type": 0
    },
    "borderOptions": {
      "_class": "borderOptions",
      "dashPattern": [
      ],
      "isEnabled": true,
      "lineCapStyle": 0,
      "lineJoinStyle": 0
    },
    "borders": [
    ],
    "colorControls": {
      "_class": "colorControls",
      "brightness": 0,
      "contrast": 1,
      "hue": 0,
      "isEnabled": true,
      "saturation": 1
    },
    "contextSettings": {
      "_class": "graphicsContextSettings",
      "blendMode": 0,
      "opacity": 1
    },
    "do_objectID": "E5F5884E-39AB-4822-986C-873D77320877",
    "endMarkerType": 0,
    "fills": [
      {
        "_class": "fill",
        "color": {
          "_class": "color",
          "alpha": 1,
          "blue": 0.1764705882352941,
          "green": 0.1764705882352941,
          "red": 0.1764705882352941
        },
        "contextSettings": {
          "_class": "graphicsContextSettings",
          "blendMode": 0,
          "opacity": 1
        },
        "fillType": 0,
        "gradient": {
          "_class": "gradient",
          "elipseLength": 0,
          "from": "{0.5, 0}",
          "gradientType": 0,
          "stops": [
            {
              "_class": "gradientStop",
              "color": {
                "_class": "color",
                "alpha": 1,
                "blue": 1,
                "green": 1,
                "red": 1
              },
              "position": 0
            },
            {
              "_class": "gradientStop",
              "color": {
                "_class": "color",
                "alpha": 1,
                "blue": 0,
                "green": 0,
                "red": 0
              },
              "position": 1
            }
          ],
          "to": "{0.5, 1}"
        },
        "isEnabled": true,
        "noiseIndex": 0,
        "noiseIntensity": 0,
        "patternFillType": 1,
        "patternTileScale": 1
      }
    ],
    "innerShadows": [
    ],
    "miterLimit": 10,
    "shadows": [
    ],
    "startMarkerType": 0,
    "windingRule": 1
  }
}