{
  "_class": "symbolInstance",
  "booleanOperation": -1,
  "clippingMaskMode": 0,
  "do_objectID": "F6B322BB-053E-49EF-917D-544979342F31",
  "exportOptions": {
    "_class": "exportOptions",
    "do_objectID": "6D97DA51-ED5E-4DED-BD62-339E8DC9DF05",
    "exportFormats": [
    ],
    "includedLayerIds": [
    ],
    "layerOptions": 0,
    "shouldTrim": false
  },
  "frame": {
    "_class": "rect",
    "constrainProportions": false,
    "do_objectID": "A04E0ACA-D9DF-4A75-8406-A47ECB58CDE8",
    "height": 32,
    "width": 1024,
    "x": 0,
    "y": 396
  },
  "hasClippingMask": false,
  "horizontalSpacing": 0,
  "isFixedToViewport": false,
  "isFlippedHorizontal": false,
  "isFlippedVertical": false,
  "isLocked": false,
  "isVisible": true,
  "layerListExpandedType": 0,
  "name": "row 4",
  "nameIsFixed": true,
  "overrideValues": [
  ],
  "resizingConstraint": 63,
  "resizingType": 0,
  "rotation": 0,
  "scale": 1,
  "shouldBreakMaskChain": false,
  "style": {
    "_class": "style",
    "do_objectID": "6FD4360E-A1CB-488C-8947-A528A8A037F4",
    "endMarkerType": 0,
    "miterLimit": 10,
    "startMarkerType": 0,
    "windingRule": 1
  },
  "symbolID": "DD6B536D-4CD9-41AA-9A4D-28DBA5235D53",
  "verticalSpacing": 0
}