{
  "_class": "group",
  "booleanOperation": -1,
  "clippingMaskMode": 0,
  "do_objectID": "63F22774-D7B7-4DE7-8996-D8637D9EE90A",
  "exportOptions": {
    "_class": "exportOptions",
    "exportFormats": [
    ],
    "includedLayerIds": [
    ],
    "layerOptions": 0,
    "shouldTrim": false
  },
  "frame": {
    "_class": "rect",
    "constrainProportions": false,
    "height": 56,
    "width": 640,
    "x": 0,
    "y": 90
  },
  "groupLayout": {
    "_class": "MSImmutableFreeformGroupLayout"
  },
  "hasClickThrough": false,
  "hasClippingMask": false,
  "isFixedToViewport": false,
  "isFlippedHorizontal": false,
  "isFlippedVertical": false,
  "isLocked": false,
  "isVisible": true,
  "layerListExpandedType": 0,
  "layers": [
    {
      "class": "rectangle",
      "id": "8B7BD4AF-5209-4C55-AB54-F02F4EC201D4"
    },
    {
      "class": "rectangle",
      "id": "FD66D178-749E-4AF0-85C0-0B4E81CC24ED"
    },
    {
      "class": "group",
      "id": "75DADC9B-726C-4ACC-847D-85ED0547EED1"
    },
    {
      "class": "text",
      "id": "EADCB2EC-E267-4167-9710-B1B8DA5F9EA6"
    },
    {
      "class": "text",
      "id": "2CBE369D-3DBC-4BFE-AE9C-8402159C9BA1"
    }
  ],
  "name": "component / structured list / row / 2 column offset / 01 enabled",
  "nameIsFixed": false,
  "resizingConstraint": 63,
  "resizingType": 0,
  "rotation": 0,
  "shouldBreakMaskChain": false,
  "style": {
    "_class": "style",
    "endMarkerType": 0,
    "miterLimit": 10,
    "startMarkerType": 0,
    "windingRule": 1
  }
}