{
  "_class": "shapePath",
  "booleanOperation": -1,
  "clippingMaskMode": 0,
  "do_objectID": "91231AD7-F945-4E0E-B9AC-D902507ABEB5",
  "edited": true,
  "exportOptions": {
    "_class": "exportOptions",
    "do_objectID": "78D36E2C-C4DC-49F9-898B-A7ACF34ADA73",
    "exportFormats": [
    ],
    "includedLayerIds": [
    ],
    "layerOptions": 0,
    "shouldTrim": false
  },
  "frame": {
    "_class": "rect",
    "constrainProportions": false,
    "do_objectID": "CD45CA34-5460-46C4-9D45-651634D43B39",
    "height": 11.63812493154332,
    "width": 11.38804506519286,
    "x": 28.09195493480744,
    "y": 0.2684169594930153
  },
  "hasClippingMask": false,
  "isClosed": true,
  "isFixedToViewport": false,
  "isFlippedHorizontal": false,
  "isFlippedVertical": false,
  "isLocked": false,
  "isVisible": true,
  "layerListExpandedType": 0,
  "name": "Path",
  "nameIsFixed": false,
  "pointRadiusBehaviour": 0,
  "points": [
    {
      "_class": "curvePoint",
      "cornerRadius": 0,
      "curveFrom": "{1, 1}",
      "curveMode": 1,
      "curveTo": "{1, 1}",
      "hasCurveFrom": false,
      "hasCurveTo": false,
      "point": "{1, 1}"
    },
    {
      "_class": "curvePoint",
      "cornerRadius": 0,
      "curveFrom": "{0.77501462843768287, 0}",
      "curveMode": 1,
      "curveTo": "{0.77501462843768287, 0}",
      "hasCurveFrom": false,
      "hasCurveTo": false,
      "point": "{0.77501462843768287, 0}"
    },
    {
      "_class": "curvePoint",
      "cornerRadius": 0,
      "curveFrom": "{0.48332358104154494, 0}",
      "curveMode": 4,
      "curveTo": "{0.53335283791691046, 0}",
      "hasCurveFrom": true,
      "hasCurveTo": false,
      "point": "{0.53335283791691046, 0}"
    },
    {
      "_class": "curvePoint",
      "cornerRadius": 0,
      "curveFrom": "{0.41661790520772352, 0.076923076923076913}",
      "curveMode": 4,
      "curveTo": "{0.43329432416617886, 0.030795893880815873}",
      "hasCurveFrom": false,
      "hasCurveTo": true,
      "point": "{0.41661790520772352, 0.076923076923076913}"
    },
    {
      "_class": "curvePoint",
      "cornerRadius": 0,
      "curveFrom": "{0, 1}",
      "curveMode": 1,
      "curveTo": "{0, 1}",
      "hasCurveFrom": false,
      "hasCurveTo": false,
      "point": "{0, 1}"
    },
    {
      "_class": "curvePoint",
      "cornerRadius": 0,
      "curveFrom": "{0.29169104739613799, 1}",
      "curveMode": 1,
      "curveTo": "{0.29169104739613799, 1}",
      "hasCurveFrom": false,
      "hasCurveTo": false,
      "point": "{0.29169104739613799, 1}"
    },
    {
      "_class": "curvePoint",
      "cornerRadius": 0,
      "curveFrom": "{0.34991222937390271, 0.8538861485135314}",
      "curveMode": 1,
      "curveTo": "{0.34991222937390271, 0.8538861485135314}",
      "hasCurveFrom": false,
      "hasCurveTo": false,
      "point": "{0.34991222937390271, 0.8538861485135314}"
    },
    {
      "_class": "curvePoint",
      "cornerRadius": 0,
      "curveFrom": "{0.70830895260386206, 0.8538861485135314}",
      "curveMode": 1,
      "curveTo": "{0.70830895260386206, 0.8538861485135314}",
      "hasCurveFrom": false,
      "hasCurveTo": false,
      "point": "{0.70830895260386206, 0.8538861485135314}"
    },
    {
      "_class": "curvePoint",
      "cornerRadius": 0,
      "curveFrom": "{0.74166179052077219, 1}",
      "curveMode": 1,
      "curveTo": "{0.74166179052077219, 1}",
      "hasCurveFrom": false,
      "hasCurveTo": false,
      "point": "{0.74166179052077219, 1}"
    }
  ],
  "resizingConstraint": 63,
  "resizingType": 0,
  "rotation": 0,
  "shouldBreakMaskChain": false,
  "style": {
    "_class": "style",
    "blur": {
      "_class": "blur",
      "center": "{0.5, 0.5}",
      "do_objectID": "795FAA32-4639-45AB-A50C-B9CEDC1E26F8",
      "isEnabled": false,
      "motionAngle": 0,
      "radius": 20,
      "saturation": 1,
      "type": 0
    },
    "do_objectID": "113CD972-34D3-4938-945A-D1562259CCFB",
    "endMarkerType": 0,
    "fills": [
      {
        "_class": "fill",
        "color": {
          "_class": "color",
          "alpha": 1,
          "blue": 1,
          "green": 1,
          "red": 1
        },
        "fillType": 0,
        "isEnabled": true,
        "noiseIndex": 0,
        "noiseIntensity": 0,
        "patternFillType": 1,
        "patternTileScale": 1
      }
    ],
    "miterLimit": 10,
    "startMarkerType": 0,
    "windingRule": 1
  }
}