{
  "_class": "shapeGroup",
  "booleanOperation": 0,
  "clippingMaskMode": 0,
  "do_objectID": "89C205CB-0976-4F87-95BA-84679929C1ED",
  "exportOptions": {
    "_class": "exportOptions",
    "do_objectID": "A9726BDA-EB3E-45C0-8930-FD5FB1C7A67E",
    "exportFormats": [
    ],
    "includedLayerIds": [
    ],
    "layerOptions": 0,
    "shouldTrim": false
  },
  "frame": {
    "_class": "rect",
    "constrainProportions": true,
    "do_objectID": "BD6D10F9-CDCB-41AA-A0D3-A38278A7A477",
    "height": 11.99999999999999,
    "width": 39.48000000000008,
    "x": 10.07999999999996,
    "y": 28.39999999999998
  },
  "groupLayout": {
    "_class": "MSImmutableFreeformGroupLayout",
    "do_objectID": "619083A6-6E49-4341-BE10-5E67E2D46F08"
  },
  "hasClickThrough": false,
  "hasClippingMask": false,
  "isFixedToViewport": false,
  "isFlippedHorizontal": false,
  "isFlippedVertical": false,
  "isLocked": false,
  "isVisible": true,
  "layerListExpandedType": 0,
  "layers": [
    {
      "class": "shapePath",
      "id": "E02409FF-9F3E-4051-AF89-E36C6F15EA84"
    },
    {
      "class": "shapePath",
      "id": "BA5A9840-A4AF-4BAD-8389-CCF5DE3649E7"
    },
    {
      "class": "shapePath",
      "id": "8892F9C7-6677-4073-952C-A5E6D0910595"
    },
    {
      "class": "shapePath",
      "id": "91231AD7-F945-4E0E-B9AC-D902507ABEB5"
    },
    {
      "class": "shapePath",
      "id": "9832AD33-97CA-4681-BBF3-45473E52C80A"
    }
  ],
  "name": "visa-logo",
  "nameIsFixed": true,
  "resizingConstraint": 63,
  "resizingType": 0,
  "rotation": 0,
  "shouldBreakMaskChain": false,
  "style": {
    "_class": "style",
    "blur": {
      "_class": "blur",
      "center": "{0.5, 0.5}",
      "do_objectID": "F949E78A-1FFF-4ED8-88C9-FC98F4A667C1",
      "isEnabled": false,
      "motionAngle": 0,
      "radius": 20,
      "saturation": 1,
      "type": 0
    },
    "do_objectID": "C182EE35-5FDE-47B5-ADAB-0B3166CEDD3A",
    "endMarkerType": 0,
    "fills": [
      {
        "_class": "fill",
        "color": {
          "_class": "color",
          "alpha": 1,
          "blue": 1,
          "green": 1,
          "red": 1
        },
        "fillType": 0,
        "isEnabled": true,
        "noiseIndex": 0,
        "noiseIntensity": 0,
        "patternFillType": 1,
        "patternTileScale": 1
      }
    ],
    "miterLimit": 10,
    "startMarkerType": 0,
    "windingRule": 1
  },
  "windingRule": 1
}