{
  "_class": "symbolInstance",
  "booleanOperation": -1,
  "clippingMaskMode": 0,
  "do_objectID": "E93B6C35-9E6E-417C-9869-A2FEDECB0950",
  "exportOptions": {
    "_class": "exportOptions",
    "do_objectID": "B7BFC792-DF12-41DF-836B-8ECE880F28D2",
    "exportFormats": [
    ],
    "includedLayerIds": [
    ],
    "layerOptions": 0,
    "shouldTrim": false
  },
  "frame": {
    "_class": "rect",
    "constrainProportions": false,
    "do_objectID": "E6D39DC6-DA68-4C5A-8D59-5B40D5929036",
    "height": 16,
    "width": 16,
    "x": 58,
    "y": 4
  },
  "hasClippingMask": false,
  "horizontalSpacing": 0,
  "isFixedToViewport": false,
  "isFlippedHorizontal": false,
  "isFlippedVertical": false,
  "isLocked": true,
  "isVisible": true,
  "layerListExpandedType": 0,
  "name": "icon/navigation/close/16",
  "nameIsFixed": false,
  "overrideValues": [
    {
      "_class": "overrideValue",
      "do_objectID": "17620845-1925-45FB-A5F9-74468D70AE07",
      "overrideName": "0102D184-77A7-423A-9B10-676DDC10DDDA_layerStyle",
      "value": "B77D3553-E1C5-40CC-A8FB-E918989A7994"
    }
  ],
  "resizingConstraint": 12,
  "resizingType": 0,
  "rotation": 0,
  "scale": 1,
  "shouldBreakMaskChain": false,
  "style": {
    "_class": "style",
    "do_objectID": "E19FEADC-43EE-4951-9398-CFE8F83D8FFD",
    "endMarkerType": 0,
    "miterLimit": 10,
    "startMarkerType": 0,
    "windingRule": 1
  },
  "symbolID": "4CA331EF-386E-44F2-B4FB-265D74D3A575",
  "verticalSpacing": 0
}