{
  "_class": "shapePath",
  "booleanOperation": -1,
  "clippingMaskMode": 0,
  "do_objectID": "FC0382B5-6A20-4D06-8500-349EDF18A418",
  "edited": true,
  "exportOptions": {
    "_class": "exportOptions",
    "exportFormats": [
    ],
    "includedLayerIds": [
    ],
    "layerOptions": 0,
    "shouldTrim": false
  },
  "frame": {
    "_class": "rect",
    "constrainProportions": false,
    "height": 14.10882352941177,
    "width": 10.34301470588236,
    "x": 50.47713235294118,
    "y": 0.2690808823529398
  },
  "hasClippingMask": false,
  "isClosed": true,
  "isFixedToViewport": false,
  "isFlippedHorizontal": false,
  "isFlippedVertical": false,
  "isLocked": false,
  "isVisible": true,
  "layerListExpandedType": 1,
  "maintainScrollPosition": false,
  "name": "Fill 13",
  "nameIsFixed": false,
  "pointRadiusBehaviour": 0,
  "points": [
    {
      "_class": "curvePoint",
      "cornerRadius": 0,
      "curveFrom": "{0.36028862901219183, 0.032416093391703142}",
      "curveMode": 4,
      "curveTo": "{0.49106032061991228, 0.028272878882634821}",
      "hasCurveFrom": true,
      "hasCurveTo": false,
      "point": "{0.49106032061991228, 0.028272878882634821}"
    },
    {
      "_class": "curvePoint",
      "cornerRadius": 0,
      "curveFrom": "{0.33490918138840486, 0.14965082343131111}",
      "curveMode": 4,
      "curveTo": "{0.33490918138840486, 0.046904315196998052}",
      "hasCurveFrom": false,
      "hasCurveTo": true,
      "point": "{0.33490918138840486, 0.14965082343131111}"
    },
    {
      "_class": "curvePoint",
      "cornerRadius": 0,
      "curveFrom": "{0.33490918138840486, 0.95309568480300177}",
      "curveMode": 4,
      "curveTo": "{0.33490918138840486, 0.85034917656868869}",
      "hasCurveFrom": true,
      "hasCurveTo": false,
      "point": "{0.33490918138840486, 0.85034917656868869}"
    },
    {
      "_class": "curvePoint",
      "cornerRadius": 0,
      "curveFrom": "{0.49106032061991228, 0.96758390660829685}",
      "curveMode": 4,
      "curveTo": "{0.36028862901219183, 0.96758390660829685}",
      "hasCurveFrom": false,
      "hasCurveTo": true,
      "point": "{0.49106032061991228, 0.96758390660829685}"
    },
    {
      "_class": "curvePoint",
      "cornerRadius": 0,
      "curveFrom": "{0.87299612554651096, 0.96758390660829685}",
      "curveMode": 4,
      "curveTo": "{0.63217573667934424, 0.96758390660829685}",
      "hasCurveFrom": true,
      "hasCurveTo": false,
      "point": "{0.63217573667934424, 0.96758390660829685}"
    },
    {
      "_class": "curvePoint",
      "cornerRadius": 0,
      "curveFrom": "{0.94828137774144206, 0.70346049614342288}",
      "curveMode": 4,
      "curveTo": "{0.92098247609568784, 0.90001563477173219}",
      "hasCurveFrom": false,
      "hasCurveTo": true,
      "point": "{0.94828137774144206, 0.70346049614342288}"
    },
    {
      "_class": "curvePoint",
      "cornerRadius": 0,
      "curveFrom": "{0.98873209398215589, 0.73311444652908053}",
      "curveMode": 4,
      "curveTo": "{0.99249991113638747, 0.70346049614342288}",
      "hasCurveFrom": true,
      "hasCurveTo": false,
      "point": "{0.99249991113638747, 0.70346049614342288}"
    },
    {
      "_class": "curvePoint",
      "cornerRadius": 0,
      "curveFrom": "{0.98684818540504016, 0.85449239107775687}",
      "curveMode": 3,
      "curveTo": "{0.98684818540504016, 0.77379091098603281}",
      "hasCurveFrom": true,
      "hasCurveTo": true,
      "point": "{0.98684818540504016, 0.81931415468000823}"
    },
    {
      "_class": "curvePoint",
      "cornerRadius": 0,
      "curveFrom": "{0.86922830839227949, 0.99585678549093171}",
      "curveMode": 4,
      "curveTo": "{0.99061600255927162, 0.92828851365436726}",
      "hasCurveFrom": true,
      "hasCurveTo": true,
      "point": "{1, 1}"
    },
    {
      "_class": "curvePoint",
      "cornerRadius": 0,
      "curveFrom": "{0.4430739700707354, 0.99585678549093171}",
      "curveMode": 3,
      "curveTo": "{0.68766217609213365, 0.99585678549093171}",
      "hasCurveFrom": true,
      "hasCurveTo": true,
      "point": "{0.55880993850638039, 0.99585678549093171}"
    },
    {
      "_class": "curvePoint",
      "cornerRadius": 0,
      "curveFrom": "{0, 1}",
      "curveMode": 4,
      "curveTo": "{0.18906622116375738, 0.99585678549093171}",
      "hasCurveFrom": false,
      "hasCurveTo": true,
      "point": "{0, 1}"
    },
    {
      "_class": "curvePoint",
      "cornerRadius": 0,
      "curveFrom": "{0.13073614616286908, 0.96758390660829685}",
      "curveMode": 4,
      "curveTo": "{0, 0.97172712111736503}",
      "hasCurveFrom": true,
      "hasCurveTo": false,
      "point": "{0, 0.97172712111736503}"
    },
    {
      "_class": "curvePoint",
      "cornerRadius": 0,
      "curveFrom": "{0.15615113923150745, 0.85034917656868869}",
      "curveMode": 4,
      "curveTo": "{0.15615113923150745, 0.95309568480300177}",
      "hasCurveFrom": false,
      "hasCurveTo": true,
      "point": "{0.15615113923150745, 0.85034917656868869}"
    },
    {
      "_class": "curvePoint",
      "cornerRadius": 0,
      "curveFrom": "{0.15615113923150745, 0.046904315196998052}",
      "curveMode": 4,
      "curveTo": "{0.15615113923150745, 0.14965082343131111}",
      "hasCurveFrom": true,
      "hasCurveTo": false,
      "point": "{0.15615113923150745, 0.14965082343131111}"
    },
    {
      "_class": "curvePoint",
      "cornerRadius": 0,
      "curveFrom": "{0, 0.028272878882634821}",
      "curveMode": 4,
      "curveTo": "{0.13073614616286908, 0.032416093391703142}",
      "hasCurveFrom": false,
      "hasCurveTo": true,
      "point": "{0, 0.028272878882634821}"
    },
    {
      "_class": "curvePoint",
      "cornerRadius": 0,
      "curveFrom": "{0.053602530835673734, 0.002762143006045303}",
      "curveMode": 4,
      "curveTo": "{0, 0}",
      "hasCurveFrom": true,
      "hasCurveTo": false,
      "point": "{0, 0}"
    },
    {
      "_class": "curvePoint",
      "cornerRadius": 0,
      "curveFrom": "{0.33490918138840486, 0.0041171565561806088}",
      "curveMode": 3,
      "curveTo": "{0.14673159634592772, 0.0041171565561806088}",
      "hasCurveFrom": true,
      "hasCurveTo": true,
      "point": "{0.24647211459851404, 0.0041171565561806088}"
    },
    {
      "_class": "curvePoint",
      "cornerRadius": 0,
      "curveFrom": "{0.49106032061991228, 0}",
      "curveMode": 4,
      "curveTo": "{0.43180606405289135, 0.002762143006045303}",
      "hasCurveFrom": false,
      "hasCurveTo": true,
      "point": "{0.49106032061991228, 0}"
    }
  ],
  "resizingConstraint": 63,
  "resizingType": 0,
  "rotation": 0,
  "shouldBreakMaskChain": false,
  "style": {
    "_class": "style",
    "blur": {
      "_class": "blur",
      "center": "{0.5, 0.5}",
      "isEnabled": false,
      "motionAngle": 0,
      "radius": 10,
      "saturation": 1,
      "type": 0
    },
    "borderOptions": {
      "_class": "borderOptions",
      "dashPattern": [
      ],
      "isEnabled": true,
      "lineCapStyle": 0,
      "lineJoinStyle": 0
    },
    "borders": [
    ],
    "colorControls": {
      "_class": "colorControls",
      "brightness": 0,
      "contrast": 1,
      "hue": 0,
      "isEnabled": false,
      "saturation": 1
    },
    "contextSettings": {
      "_class": "graphicsContextSettings",
      "blendMode": 0,
      "opacity": 1
    },
    "do_objectID": "8C00CB5F-3206-47D3-97AC-A59155EE7970",
    "endMarkerType": 0,
    "fills": [
      {
        "_class": "fill",
        "color": {
          "_class": "color",
          "alpha": 1,
          "blue": 0.1764705882352941,
          "green": 0.1764705882352941,
          "red": 0.1764705882352941
        },
        "contextSettings": {
          "_class": "graphicsContextSettings",
          "blendMode": 0,
          "opacity": 1
        },
        "fillType": 0,
        "gradient": {
          "_class": "gradient",
          "elipseLength": 0,
          "from": "{0.5, 0}",
          "gradientType": 0,
          "stops": [
            {
              "_class": "gradientStop",
              "color": {
                "_class": "color",
                "alpha": 1,
                "blue": 1,
                "green": 1,
                "red": 1
              },
              "position": 0
            },
            {
              "_class": "gradientStop",
              "color": {
                "_class": "color",
                "alpha": 1,
                "blue": 0,
                "green": 0,
                "red": 0
              },
              "position": 1
            }
          ],
          "to": "{0.5, 1}"
        },
        "isEnabled": true,
        "noiseIndex": 0,
        "noiseIntensity": 0,
        "patternFillType": 1,
        "patternTileScale": 1
      }
    ],
    "innerShadows": [
    ],
    "miterLimit": 10,
    "shadows": [
    ],
    "startMarkerType": 0,
    "windingRule": 1
  }
}