{
  "_class": "group",
  "booleanOperation": 0,
  "clippingMaskMode": 0,
  "do_objectID": "DFA2C760-960E-4AB3-A639-1E27C976490B",
  "exportOptions": {
    "_class": "exportOptions",
    "do_objectID": "183D060B-9D8D-4269-A186-41B575641415",
    "exportFormats": [
    ],
    "includedLayerIds": [
    ],
    "layerOptions": 0,
    "shouldTrim": false
  },
  "frame": {
    "_class": "rect",
    "constrainProportions": true,
    "do_objectID": "692386B3-42FC-4757-836D-AAC8A8B6F0E2",
    "height": 12,
    "width": 13,
    "x": 43.4181818181818,
    "y": 0
  },
  "groupLayout": {
    "_class": "MSImmutableFreeformGroupLayout",
    "do_objectID": "F2C13C22-3DBF-42F7-B8DF-5D64C2BA00D9"
  },
  "hasClickThrough": false,
  "hasClippingMask": false,
  "isFixedToViewport": false,
  "isFlippedHorizontal": false,
  "isFlippedVertical": false,
  "isLocked": false,
  "isVisible": true,
  "layerListExpandedType": 0,
  "layers": [
    {
      "class": "shapeGroup",
      "id": "C46A7FEA-F067-42AA-B12D-C9E427F6E47C"
    }
  ],
  "name": "star border icon",
  "nameIsFixed": true,
  "resizingConstraint": 63,
  "resizingType": 0,
  "rotation": 0,
  "shouldBreakMaskChain": false,
  "style": {
    "_class": "style",
    "do_objectID": "EF1645EF-8E83-4895-9D3C-05DCAD71FA5E",
    "endMarkerType": 0,
    "miterLimit": 10,
    "startMarkerType": 0,
    "windingRule": 1
  }
}