{
  "_class": "symbolInstance",
  "booleanOperation": -1,
  "clippingMaskMode": 0,
  "do_objectID": "C2FB69C5-A2B9-463E-A5F8-809F886A6D07",
  "exportOptions": {
    "_class": "exportOptions",
    "do_objectID": "C63390EE-5C2A-4DD1-A4BB-B02C3AEC9D82",
    "exportFormats": [
    ],
    "includedLayerIds": [
    ],
    "layerOptions": 0,
    "shouldTrim": false
  },
  "frame": {
    "_class": "rect",
    "constrainProportions": false,
    "do_objectID": "2CEDFEA3-CF53-4545-8230-CB7248A99C73",
    "height": 40,
    "width": 226,
    "x": 0,
    "y": 164
  },
  "hasClippingMask": false,
  "horizontalSpacing": 0,
  "isFixedToViewport": false,
  "isFlippedHorizontal": false,
  "isFlippedVertical": false,
  "isLocked": false,
  "isVisible": true,
  "layerListExpandedType": 0,
  "name": "component / dropdown / 01 default / 02 no label / closed / 02 hover",
  "nameIsFixed": false,
  "overrideValues": [
  ],
  "resizingConstraint": 63,
  "resizingType": 0,
  "rotation": 0,
  "scale": 1,
  "shouldBreakMaskChain": false,
  "style": {
    "_class": "style",
    "do_objectID": "9589B46C-47EB-48AD-AF78-C818B6CB53C9",
    "endMarkerType": 0,
    "miterLimit": 10,
    "startMarkerType": 0,
    "windingRule": 1
  },
  "symbolID": "0CF27D1E-D43B-49FD-893A-4FE415723AB7",
  "verticalSpacing": 0
}