{
  "_class": "symbolInstance",
  "booleanOperation": -1,
  "clippingMaskMode": 0,
  "do_objectID": "12E5100D-4573-43B1-AB45-E3E618DBECEF",
  "exportOptions": {
    "_class": "exportOptions",
    "do_objectID": "286A1C81-3CC1-4C6F-B4D7-7D327CEF8EAF",
    "exportFormats": [
    ],
    "includedLayerIds": [
    ],
    "layerOptions": 0,
    "shouldTrim": false
  },
  "frame": {
    "_class": "rect",
    "constrainProportions": false,
    "do_objectID": "C3409EEA-6AC3-4613-A67F-8D3F8E34C66B",
    "height": 20,
    "width": 20,
    "x": 478,
    "y": 14
  },
  "hasClippingMask": false,
  "horizontalSpacing": 0,
  "isFixedToViewport": false,
  "isFlippedHorizontal": false,
  "isFlippedVertical": false,
  "isLocked": false,
  "isVisible": true,
  "layerListExpandedType": 0,
  "name": "icon/navigation/close/20 copy 2",
  "nameIsFixed": false,
  "overrideValues": [
  ],
  "resizingConstraint": 12,
  "resizingType": 0,
  "rotation": 0,
  "scale": 1,
  "shouldBreakMaskChain": false,
  "style": {
    "_class": "style",
    "do_objectID": "A4BA707E-BF23-479E-8B96-0C46E9B1772F",
    "endMarkerType": 0,
    "miterLimit": 10,
    "startMarkerType": 0,
    "windingRule": 1
  },
  "symbolID": "E9CA1EF6-4803-4BC5-B058-719C20519785",
  "verticalSpacing": 0
}