{
  "_class": "symbolInstance",
  "booleanOperation": -1,
  "clippingMaskMode": 0,
  "do_objectID": "3894C77D-E2B2-4165-9C14-BDD4425F0246",
  "exportOptions": {
    "_class": "exportOptions",
    "do_objectID": "8277C758-4191-4BCE-A951-13770F9D534C",
    "exportFormats": [
    ],
    "includedLayerIds": [
    ],
    "layerOptions": 0,
    "shouldTrim": false
  },
  "frame": {
    "_class": "rect",
    "constrainProportions": false,
    "do_objectID": "DF6F86CA-B02F-4B9A-8477-B1261C074292",
    "height": 32,
    "width": 165,
    "x": 0,
    "y": 295
  },
  "hasClippingMask": false,
  "horizontalSpacing": 0,
  "isFixedToViewport": false,
  "isFlippedHorizontal": false,
  "isFlippedVertical": false,
  "isLocked": false,
  "isVisible": true,
  "layerListExpandedType": 0,
  "name": "Button / Danger / Small / Text",
  "nameIsFixed": false,
  "overrideValues": [
  ],
  "resizingConstraint": 63,
  "resizingType": 0,
  "rotation": 0,
  "scale": 1,
  "shouldBreakMaskChain": false,
  "style": {
    "_class": "style",
    "do_objectID": "37DA5FCD-963A-4E20-8A28-1E9D89AC385C",
    "endMarkerType": 0,
    "miterLimit": 10,
    "startMarkerType": 0,
    "windingRule": 1
  },
  "symbolID": "80F741E7-1D71-4366-B3AC-1BF96ECF448E",
  "verticalSpacing": 0
}