{
  "_class": "star",
  "booleanOperation": -1,
  "clippingMaskMode": 0,
  "do_objectID": "21641566-BA28-44C2-B895-52FCCF54426E",
  "edited": true,
  "exportOptions": {
    "_class": "exportOptions",
    "exportFormats": [
    ],
    "includedLayerIds": [
    ],
    "layerOptions": 0,
    "shouldTrim": false
  },
  "frame": {
    "_class": "rect",
    "constrainProportions": false,
    "height": 24.93333333333333,
    "width": 26.4,
    "x": 8.800000000000182,
    "y": 9.533333333333303
  },
  "hasClippingMask": false,
  "isClosed": true,
  "isFixedToViewport": false,
  "isFlippedHorizontal": false,
  "isFlippedVertical": false,
  "isLocked": false,
  "isVisible": true,
  "layerListExpandedType": 0,
  "maintainScrollPosition": false,
  "name": "Favorites",
  "nameIsFixed": true,
  "numberOfPoints": 5,
  "pointRadiusBehaviour": 0,
  "points": [
    {
      "_class": "curvePoint",
      "cornerRadius": 0,
      "curveFrom": "{0.49805350528866882, 0.77099156417111148}",
      "curveMode": 1,
      "curveTo": "{0.49805350528866882, 0.77099156417111148}",
      "hasCurveFrom": false,
      "hasCurveTo": false,
      "point": "{0.5, 0.76470588235294112}"
    },
    {
      "_class": "curvePoint",
      "cornerRadius": 0,
      "curveFrom": "{0.18903651091372073, 1}",
      "curveMode": 1,
      "curveTo": "{0.18903651091372073, 1}",
      "hasCurveFrom": false,
      "hasCurveTo": false,
      "point": "{0.19444444444444445, 1}"
    },
    {
      "_class": "curvePoint",
      "cornerRadius": 0,
      "curveFrom": "{0.30339362235384043, 0.63819660112501053}",
      "curveMode": 1,
      "curveTo": "{0.30339362235384043, 0.63819660112501053}",
      "hasCurveFrom": false,
      "hasCurveTo": false,
      "point": "{0.30555555555555558, 0.6470588235294118}"
    },
    {
      "_class": "curvePoint",
      "cornerRadius": 0,
      "curveFrom": "{-0.0019464947113318784, 0.38196601125010532}",
      "curveMode": 1,
      "curveTo": "{-0.0019464947113318784, 0.38196601125010532}",
      "hasCurveFrom": false,
      "hasCurveTo": false,
      "point": "{0, 0.38235294117647056}"
    },
    {
      "_class": "curvePoint",
      "cornerRadius": 0,
      "curveFrom": "{0.37121506663377996, 0.38736764932901491}",
      "curveMode": 1,
      "curveTo": "{0.37121506663377996, 0.38736764932901491}",
      "hasCurveFrom": false,
      "hasCurveTo": false,
      "point": "{0.3611111111111111, 0.38235294117647056}"
    },
    {
      "_class": "curvePoint",
      "cornerRadius": 0,
      "curveFrom": "{0.49805350528866793, 0}",
      "curveMode": 1,
      "curveTo": "{0.49805350528866793, 0}",
      "hasCurveFrom": false,
      "hasCurveTo": false,
      "point": "{0.5, 0}"
    },
    {
      "_class": "curvePoint",
      "cornerRadius": 0,
      "curveFrom": "{0.65266972172133342, 0.32917960675006314}",
      "curveMode": 1,
      "curveTo": "{0.65266972172133342, 0.32917960675006314}",
      "hasCurveFrom": false,
      "hasCurveTo": false,
      "point": "{0.63888888888888884, 0.38235294117647056}"
    },
    {
      "_class": "curvePoint",
      "cornerRadius": 0,
      "curveFrom": "{0.9980535052886681, 0.3819660112501051}",
      "curveMode": 1,
      "curveTo": "{0.9980535052886681, 0.3819660112501051}",
      "hasCurveFrom": false,
      "hasCurveTo": false,
      "point": "{1, 0.38235294117647056}"
    },
    {
      "_class": "curvePoint",
      "cornerRadius": 0,
      "curveFrom": "{0.69271338822349726, 0.63819660112501042}",
      "curveMode": 1,
      "curveTo": "{0.69271338822349726, 0.63819660112501042}",
      "hasCurveFrom": false,
      "hasCurveTo": false,
      "point": "{0.69444444444444442, 0.6470588235294118}"
    },
    {
      "_class": "curvePoint",
      "cornerRadius": 0,
      "curveFrom": "{0.80707049966361555, 1}",
      "curveMode": 1,
      "curveTo": "{0.80707049966361555, 1}",
      "hasCurveFrom": false,
      "hasCurveTo": false,
      "point": "{0.80555555555555558, 1}"
    }
  ],
  "radius": 0.5,
  "resizingConstraint": 63,
  "resizingType": 0,
  "rotation": 0,
  "shouldBreakMaskChain": false,
  "style": {
    "_class": "style",
    "blur": {
      "_class": "blur",
      "center": "{0.5, 0.5}",
      "isEnabled": false,
      "motionAngle": 0,
      "radius": 10,
      "saturation": 1,
      "type": 0
    },
    "borderOptions": {
      "_class": "borderOptions",
      "dashPattern": [
      ],
      "isEnabled": true,
      "lineCapStyle": 0,
      "lineJoinStyle": 0
    },
    "borders": [
      {
        "_class": "border",
        "color": {
          "_class": "color",
          "alpha": 1,
          "blue": 0.419607843137255,
          "green": 0.615686274509804,
          "red": 0.7254901960784313
        },
        "contextSettings": {
          "_class": "graphicsContextSettings",
          "blendMode": 0,
          "opacity": 1
        },
        "fillType": 0,
        "gradient": {
          "_class": "gradient",
          "elipseLength": 0,
          "from": "{0.5, 0}",
          "gradientType": 0,
          "stops": [
            {
              "_class": "gradientStop",
              "color": {
                "_class": "color",
                "alpha": 1,
                "blue": 1,
                "green": 1,
                "red": 1
              },
              "position": 0
            },
            {
              "_class": "gradientStop",
              "color": {
                "_class": "color",
                "alpha": 1,
                "blue": 0,
                "green": 0,
                "red": 0
              },
              "position": 1
            }
          ],
          "to": "{0.5, 1}"
        },
        "isEnabled": true,
        "position": 0,
        "thickness": 1
      }
    ],
    "colorControls": {
      "_class": "colorControls",
      "brightness": 0,
      "contrast": 1,
      "hue": 0,
      "isEnabled": false,
      "saturation": 1
    },
    "contextSettings": {
      "_class": "graphicsContextSettings",
      "blendMode": 0,
      "opacity": 1
    },
    "do_objectID": "5F5C2076-FA64-4CB7-9BB6-2E65B1022272",
    "endMarkerType": 0,
    "fills": [
      {
        "_class": "fill",
        "color": {
          "_class": "color",
          "alpha": 1,
          "blue": 0.419607843137255,
          "green": 0.615686274509804,
          "red": 0.7254901960784313
        },
        "contextSettings": {
          "_class": "graphicsContextSettings",
          "blendMode": 0,
          "opacity": 1
        },
        "fillType": 0,
        "gradient": {
          "_class": "gradient",
          "elipseLength": 0,
          "from": "{0.5, 0}",
          "gradientType": 0,
          "stops": [
            {
              "_class": "gradientStop",
              "color": {
                "_class": "color",
                "alpha": 1,
                "blue": 1,
                "green": 1,
                "red": 1
              },
              "position": 0
            },
            {
              "_class": "gradientStop",
              "color": {
                "_class": "color",
                "alpha": 1,
                "blue": 0,
                "green": 0,
                "red": 0
              },
              "position": 1
            }
          ],
          "to": "{0.5, 1}"
        },
        "isEnabled": false,
        "noiseIndex": 0,
        "noiseIntensity": 0,
        "patternFillType": 0,
        "patternTileScale": 1
      }
    ],
    "innerShadows": [
    ],
    "miterLimit": 10,
    "shadows": [
    ],
    "startMarkerType": 0,
    "windingRule": 1
  }
}