{
  "_class": "group",
  "booleanOperation": 0,
  "clippingMaskMode": 0,
  "do_objectID": "063DCA11-19B3-4C80-9E53-7C779B3B2F41",
  "exportOptions": {
    "_class": "exportOptions",
    "do_objectID": "47D89E04-88EE-44D9-8946-2A4E664BFE26",
    "exportFormats": [
    ],
    "includedLayerIds": [
    ],
    "layerOptions": 0,
    "shouldTrim": false
  },
  "frame": {
    "_class": "rect",
    "constrainProportions": true,
    "do_objectID": "196498D5-83A5-4EED-A6E4-33E78E021A7E",
    "height": 62,
    "width": 478,
    "x": 0,
    "y": 0
  },
  "groupLayout": {
    "_class": "MSImmutableFreeformGroupLayout",
    "do_objectID": "5BEC7FDB-D241-4D63-B591-39BE6C3480E1"
  },
  "hasClickThrough": false,
  "hasClippingMask": false,
  "isFixedToViewport": false,
  "isFlippedHorizontal": false,
  "isFlippedVertical": false,
  "isLocked": false,
  "isVisible": true,
  "layerListExpandedType": 0,
  "layers": [
    {
      "class": "shapeGroup",
      "id": "51ECFE8E-4F35-411C-AA86-2EA953711752"
    },
    {
      "class": "text",
      "id": "505DDA99-0BF8-4814-8E23-7C02A05E9DFC"
    },
    {
      "class": "text",
      "id": "B55E2D1B-7146-4BCD-9EC3-006724AC1FC0"
    },
    {
      "class": "shapeGroup",
      "id": "514FCF17-5258-4D13-97D1-9F44AB868B51"
    },
    {
      "class": "shapePath",
      "id": "2B258028-5646-4F63-9D59-5191653A9C72"
    }
  ],
  "name": "package",
  "nameIsFixed": false,
  "resizingConstraint": 63,
  "resizingType": 0,
  "rotation": 0,
  "shouldBreakMaskChain": false,
  "style": {
    "_class": "style",
    "do_objectID": "C9DB57DD-B5D0-41BA-B525-0820B5FD240B",
    "endMarkerType": 0,
    "miterLimit": 10,
    "startMarkerType": 0,
    "windingRule": 1
  },
  "userInfo": {
    "com.animaapp.stc-sketch-plugin": {
      "kModelPropertiesKey": {
        "constraints": {
          "aspectRatio": {
            "constant": 62,
            "enabled": 1,
            "modelID": "constraint_cbec0825-8087-4718-b0ab-bdef2e523e03",
            "model_class": "ADModelConstraint",
            "model_version": 0,
            "multiplier": 478
          },
          "automatic": 1,
          "modelID": "viewConstraints_b8abd6d1-161b-4171-bbbe-2fe3d5cb2f8a",
          "model_class": "ADModelViewConstraints",
          "model_version": 0,
          "scaleFactor": 1
        }
      }
    }
  }
}