{
  "_class": "symbolInstance",
  "booleanOperation": -1,
  "clippingMaskMode": 0,
  "do_objectID": "DD9F501D-FC8B-458A-94B2-0F42C9E90C03",
  "exportOptions": {
    "_class": "exportOptions",
    "do_objectID": "0D320F85-6AE9-4CEC-BC97-5A6979AB68F3",
    "exportFormats": [
    ],
    "includedLayerIds": [
    ],
    "layerOptions": 0,
    "shouldTrim": false
  },
  "frame": {
    "_class": "rect",
    "constrainProportions": false,
    "do_objectID": "B5FC2465-45FE-45FC-A85F-A5B3A9532C85",
    "height": 20,
    "width": 20,
    "x": 14,
    "y": 14
  },
  "hasClippingMask": false,
  "horizontalSpacing": 0,
  "isFixedToViewport": false,
  "isFlippedHorizontal": false,
  "isFlippedVertical": false,
  "isLocked": false,
  "isVisible": true,
  "layerListExpandedType": 0,
  "name": "icon/image/search/20",
  "nameIsFixed": false,
  "overrideValues": [
    {
      "_class": "overrideValue",
      "do_objectID": "41D95683-E391-4900-A1AB-BAEE03F3029D",
      "overrideName": "1E67EED2-C1CC-405D-91B0-2C2CA121F5D4_layerStyle",
      "value": "37D7DA25-8545-44A5-B07F-27A0E75BA3FC"
    }
  ],
  "resizingConstraint": 9,
  "resizingType": 0,
  "rotation": 0,
  "scale": 1,
  "shouldBreakMaskChain": false,
  "style": {
    "_class": "style",
    "do_objectID": "744F2EC9-7945-4F29-910F-79648C6F19BD",
    "endMarkerType": 0,
    "miterLimit": 10,
    "startMarkerType": 0,
    "windingRule": 1
  },
  "symbolID": "4919B87F-FFD5-4C17-AA28-D6DB27377C86",
  "verticalSpacing": 0
}