{
  "_class": "symbolInstance",
  "booleanOperation": -1,
  "clippingMaskMode": 0,
  "do_objectID": "CC96A626-D35F-451A-821C-915622C03DEA",
  "exportOptions": {
    "_class": "exportOptions",
    "do_objectID": "C7669A44-D203-4357-AE84-56FAE87C3BB8",
    "exportFormats": [
    ],
    "includedLayerIds": [
    ],
    "layerOptions": 0,
    "shouldTrim": false
  },
  "frame": {
    "_class": "rect",
    "constrainProportions": false,
    "do_objectID": "DD93B706-D4AC-425F-996E-FC1BB1AD96CD",
    "height": 32,
    "width": 256,
    "x": 0,
    "y": 112
  },
  "hasClippingMask": false,
  "horizontalSpacing": 0,
  "isFixedToViewport": false,
  "isFlippedHorizontal": false,
  "isFlippedVertical": false,
  "isLocked": false,
  "isVisible": true,
  "layerListExpandedType": 0,
  "name": "Link",
  "nameIsFixed": true,
  "overrideValues": [
    {
      "_class": "overrideValue",
      "do_objectID": "78A533D7-702D-42C6-8D58-98A60AB13E51",
      "overrideName": "0942895D-3E55-4CF2-A4C1-56ECBDAB05D2_stringValue",
      "value": "Link 4"
    }
  ],
  "resizingConstraint": 63,
  "resizingType": 0,
  "rotation": 0,
  "scale": 1,
  "shouldBreakMaskChain": false,
  "style": {
    "_class": "style",
    "do_objectID": "FA008F00-867C-4FC0-A399-E4EE5A23E075",
    "endMarkerType": 0,
    "miterLimit": 10,
    "startMarkerType": 0,
    "windingRule": 1
  },
  "symbolID": "1880CD24-0F8F-4BB8-A216-39389A38C62D",
  "verticalSpacing": 0
}