{
  "_class": "group",
  "booleanOperation": 0,
  "clippingMaskMode": 0,
  "do_objectID": "B2ED26D6-1497-4A4E-B6C0-26F9D80AD114",
  "exportOptions": {
    "_class": "exportOptions",
    "do_objectID": "B2DCF02C-E9F8-44BF-843B-4A44B654E2D9",
    "exportFormats": [
    ],
    "includedLayerIds": [
    ],
    "layerOptions": 0,
    "shouldTrim": false
  },
  "frame": {
    "_class": "rect",
    "constrainProportions": true,
    "do_objectID": "E2ABE3FE-E2CC-42C1-90E4-2982B8EF993A",
    "height": 119,
    "width": 105,
    "x": 20,
    "y": 249
  },
  "groupLayout": {
    "_class": "MSImmutableFreeformGroupLayout",
    "do_objectID": "DE3E6A40-76B9-4E28-B4A3-4BAC1DEE513E"
  },
  "hasClickThrough": false,
  "hasClippingMask": false,
  "isFixedToViewport": false,
  "isFlippedHorizontal": false,
  "isFlippedVertical": false,
  "isLocked": false,
  "isVisible": true,
  "layerListExpandedType": 0,
  "layers": [
    {
      "class": "rectangle",
      "id": "9BD3EB92-7F41-4BBA-B95A-CDFA3450F808"
    },
    {
      "class": "bitmap",
      "id": "1C6A0A7E-0750-4CEF-93FC-DEEC4F4498CB"
    },
    {
      "class": "bitmap",
      "id": "EEAAE788-4C7D-494B-98B9-C3D922D9432B"
    }
  ],
  "name": "MP000000000654096_97Wx108H_20161105093338",
  "nameIsFixed": false,
  "resizingConstraint": 63,
  "resizingType": 0,
  "rotation": 0,
  "shouldBreakMaskChain": false,
  "style": {
    "_class": "style",
    "do_objectID": "E79A04FA-97EC-49F5-A9AB-B4625F00AA32",
    "endMarkerType": 0,
    "miterLimit": 10,
    "startMarkerType": 0,
    "windingRule": 1
  }
}