{
  "_class": "symbolInstance",
  "booleanOperation": -1,
  "clippingMaskMode": 0,
  "do_objectID": "063435E6-E427-4728-AE32-67D6A2216D17",
  "exportOptions": {
    "_class": "exportOptions",
    "do_objectID": "1F9777D4-DF50-40D7-B176-CBFF48F2EBD0",
    "exportFormats": [
    ],
    "includedLayerIds": [
    ],
    "layerOptions": 0,
    "shouldTrim": false
  },
  "frame": {
    "_class": "rect",
    "constrainProportions": false,
    "do_objectID": "F5978AFE-15AC-443E-93BE-8F6BF7F85B54",
    "height": 20,
    "width": 20,
    "x": 48,
    "y": 14
  },
  "hasClippingMask": false,
  "horizontalSpacing": 0,
  "isFixedToViewport": false,
  "isFlippedHorizontal": false,
  "isFlippedVertical": false,
  "isLocked": true,
  "isVisible": true,
  "layerListExpandedType": 0,
  "name": "checkbox",
  "nameIsFixed": true,
  "overrideValues": [
    {
      "_class": "overrideValue",
      "do_objectID": "B9EA1F50-8CDC-491C-A10C-2030FDB2EC3C",
      "overrideName": "A19EB3DE-5561-4192-ABC4-C256708F5390_layerStyle",
      "value": "4924B3FB-A922-4416-8B87-FEC904FA9809"
    }
  ],
  "resizingConstraint": 9,
  "resizingType": 0,
  "rotation": 0,
  "scale": 1,
  "shouldBreakMaskChain": false,
  "style": {
    "_class": "style",
    "do_objectID": "AC37A0AB-6C46-4FFB-99AB-0B51E2799780",
    "endMarkerType": 0,
    "miterLimit": 10,
    "startMarkerType": 0,
    "windingRule": 1
  },
  "symbolID": "5F3D9FC4-3BD7-4AFA-A22F-188C135736F2",
  "verticalSpacing": 0
}