{
  "_class": "symbolInstance",
  "booleanOperation": 0,
  "clippingMaskMode": 0,
  "do_objectID": "3DBD8232-21EE-4A2C-A831-D5B6EC3C65F9",
  "exportOptions": {
    "_class": "exportOptions",
    "do_objectID": "645AB70E-DB09-4F2E-AA46-07BB7204257A",
    "exportFormats": [
    ],
    "includedLayerIds": [
    ],
    "layerOptions": 0,
    "shouldTrim": false
  },
  "frame": {
    "_class": "rect",
    "constrainProportions": false,
    "do_objectID": "B9BEFF69-118E-4C11-9C6B-2F1C67AC69F1",
    "height": 108,
    "width": 1366,
    "x": 0,
    "y": 0
  },
  "hasClippingMask": false,
  "horizontalSpacing": 0,
  "isFixedToViewport": false,
  "isFlippedHorizontal": false,
  "isFlippedVertical": false,
  "isLocked": false,
  "isVisible": true,
  "layerListExpandedType": 0,
  "name": "Closed Navigation",
  "nameIsFixed": false,
  "overrideValues": [
  ],
  "resizingConstraint": 63,
  "resizingType": 0,
  "rotation": 0,
  "scale": 1,
  "shouldBreakMaskChain": false,
  "style": {
    "_class": "style",
    "do_objectID": "75F4B024-09C7-4ABD-BB23-D9FA59BC49BE",
    "endMarkerType": 0,
    "miterLimit": 10,
    "startMarkerType": 0,
    "windingRule": 1
  },
  "symbolID": "483DFAED-436F-480A-9D5D-27980FBC234E",
  "verticalSpacing": 0
}