{
  "_class": "group",
  "booleanOperation": 0,
  "clippingMaskMode": 0,
  "do_objectID": "60538368-59E1-46EB-8F12-8D0C6D02B823",
  "exportOptions": {
    "_class": "exportOptions",
    "do_objectID": "5110CD3A-2AA7-4FFF-8557-477AABB5EC9C",
    "exportFormats": [
    ],
    "includedLayerIds": [
    ],
    "layerOptions": 0,
    "shouldTrim": false
  },
  "frame": {
    "_class": "rect",
    "constrainProportions": true,
    "do_objectID": "D9F6DD91-324F-4EC5-90AC-4C0368EA2834",
    "height": 37,
    "width": 130,
    "x": 185,
    "y": 506
  },
  "groupLayout": {
    "_class": "MSImmutableFreeformGroupLayout",
    "do_objectID": "6A9A74A1-A62B-463B-BFB7-7018A1AA73FA"
  },
  "hasClickThrough": false,
  "hasClippingMask": false,
  "isFixedToViewport": false,
  "isFlippedHorizontal": false,
  "isFlippedVertical": false,
  "isLocked": false,
  "isVisible": true,
  "layerListExpandedType": 0,
  "layers": [
    {
      "class": "group",
      "id": "BABBEACF-A2C2-4118-A631-E75827DCB637"
    }
  ],
  "name": "CTA",
  "nameIsFixed": true,
  "resizingConstraint": 63,
  "resizingType": 0,
  "rotation": 0,
  "shouldBreakMaskChain": false,
  "style": {
    "_class": "style",
    "do_objectID": "A9F8FBCA-E779-4C61-9464-B97A4BF118E1",
    "endMarkerType": 0,
    "miterLimit": 10,
    "startMarkerType": 0,
    "windingRule": 1
  }
}