{
  "_class": "symbolInstance",
  "booleanOperation": -1,
  "clippingMaskMode": 0,
  "do_objectID": "2744301B-1D23-4799-AA68-B25972BD0992",
  "exportOptions": {
    "_class": "exportOptions",
    "do_objectID": "42E4FCCF-634E-4A94-BAD4-FB2FFB519F4E",
    "exportFormats": [
    ],
    "includedLayerIds": [
    ],
    "layerOptions": 0,
    "shouldTrim": false
  },
  "frame": {
    "_class": "rect",
    "constrainProportions": false,
    "do_objectID": "D0F7CEF6-26DC-48B0-9CD5-B4E814D871A0",
    "height": 48,
    "width": 200,
    "x": 600,
    "y": 0
  },
  "hasClippingMask": false,
  "horizontalSpacing": 0,
  "isFixedToViewport": false,
  "isFlippedHorizontal": false,
  "isFlippedVertical": false,
  "isLocked": false,
  "isVisible": true,
  "layerListExpandedType": 0,
  "name": "column 4",
  "nameIsFixed": true,
  "overrideValues": [
  ],
  "resizingConstraint": 63,
  "resizingType": 0,
  "rotation": 0,
  "scale": 1,
  "shouldBreakMaskChain": false,
  "style": {
    "_class": "style",
    "do_objectID": "765FB941-88DD-4AF9-8CD2-20FC2017308D",
    "endMarkerType": 0,
    "miterLimit": 10,
    "startMarkerType": 0,
    "windingRule": 1
  },
  "symbolID": "CC254D87-8A68-4BB2-98A2-2600F7C8CCA1",
  "verticalSpacing": 0
}