{
  "_class": "symbolMaster",
  "allowsOverrides": true,
  "backgroundColor": {
    "_class": "color",
    "alpha": 1,
    "blue": 1,
    "do_objectID": "A78EE366-3202-4663-8D57-40228322A6DE",
    "green": 1,
    "red": 1
  },
  "booleanOperation": -1,
  "changeIdentifier": 2876,
  "clippingMaskMode": 0,
  "do_objectID": "530B7729-3A11-441E-83BE-FD24148B4F95",
  "exportOptions": {
    "_class": "exportOptions",
    "do_objectID": "6BC544EE-E6A6-4BFB-BC2B-29052E9E4393",
    "exportFormats": [
    ],
    "includedLayerIds": [
    ],
    "layerOptions": 0,
    "shouldTrim": false
  },
  "frame": {
    "_class": "rect",
    "constrainProportions": false,
    "do_objectID": "AB6648F7-B22A-449E-904A-CB637736EE04",
    "height": 48,
    "width": 1200,
    "x": 46005,
    "y": 294
  },
  "groupLayout": {
    "_class": "MSImmutableFreeformGroupLayout"
  },
  "hasBackgroundColor": false,
  "hasClickThrough": true,
  "hasClippingMask": false,
  "horizontalRulerData": {
    "_class": "rulerData",
    "base": 0,
    "do_objectID": "159BB641-E7F5-4729-82BB-907E78E3706F",
    "guides": [
    ]
  },
  "includeBackgroundColorInExport": true,
  "includeBackgroundColorInInstance": false,
  "includeInCloudUpload": true,
  "isFixedToViewport": false,
  "isFlippedHorizontal": false,
  "isFlippedVertical": false,
  "isFlowHome": false,
  "isLocked": false,
  "isVisible": true,
  "layerListExpandedType": 2,
  "layers": [
    {
      "class": "rectangle",
      "id": "32217603-81E4-4A60-925E-AE79427609A5"
    },
    {
      "class": "rectangle",
      "id": "89A0E761-690E-4E15-A21E-F939AB08D0CB"
    },
    {
      "class": "symbolInstance",
      "id": "82AB0AB1-7397-41EE-B628-799220CBB461"
    },
    {
      "class": "symbolInstance",
      "id": "7138B5EE-06E2-4606-872F-51FAE8E3B2F5"
    },
    {
      "class": "symbolInstance",
      "id": "C0EF2AF5-E5D8-4686-86EA-9F61980E5B14"
    },
    {
      "class": "symbolInstance",
      "id": "F8D77FA3-4EC9-4AB2-94CD-C0AC97FC746F"
    },
    {
      "class": "symbolInstance",
      "id": "6925B6AB-CE45-4DB2-8F7F-B6EF08D1F8B2"
    },
    {
      "class": "symbolInstance",
      "id": "0933524C-1CE5-4756-A601-7C1482B3B992"
    }
  ],
  "name": "data table / row / 48 default / selectable+expandable / 04 disabled",
  "nameIsFixed": true,
  "overrideProperties": [
    {
      "_class": "MSImmutableOverrideProperty",
      "canOverride": false,
      "overrideName": "89A0E761-690E-4E15-A21E-F939AB08D0CB_layerStyle"
    },
    {
      "_class": "MSImmutableOverrideProperty",
      "canOverride": true,
      "overrideName": "6925B6AB-CE45-4DB2-8F7F-B6EF08D1F8B2_symbolID"
    },
    {
      "_class": "MSImmutableOverrideProperty",
      "canOverride": false,
      "overrideName": "0933524C-1CE5-4756-A601-7C1482B3B992/063435E6-E427-4728-AE32-67D6A2216D17/A19EB3DE-5561-4192-ABC4-C256708F5390_layerStyle"
    },
    {
      "_class": "MSImmutableOverrideProperty",
      "canOverride": true,
      "overrideName": "C0EF2AF5-E5D8-4686-86EA-9F61980E5B14_symbolID"
    },
    {
      "_class": "MSImmutableOverrideProperty",
      "canOverride": true,
      "overrideName": "7138B5EE-06E2-4606-872F-51FAE8E3B2F5_symbolID"
    },
    {
      "_class": "MSImmutableOverrideProperty",
      "canOverride": true,
      "overrideName": "F8D77FA3-4EC9-4AB2-94CD-C0AC97FC746F_symbolID"
    },
    {
      "_class": "MSImmutableOverrideProperty",
      "canOverride": false,
      "overrideName": "32217603-81E4-4A60-925E-AE79427609A5_layerStyle"
    },
    {
      "_class": "MSImmutableOverrideProperty",
      "canOverride": true,
      "overrideName": "0933524C-1CE5-4756-A601-7C1482B3B992_symbolID"
    },
    {
      "_class": "MSImmutableOverrideProperty",
      "canOverride": true,
      "overrideName": "82AB0AB1-7397-41EE-B628-799220CBB461_symbolID"
    }
  ],
  "resizesContent": true,
  "resizingConstraint": 63,
  "resizingType": 0,
  "rotation": 0,
  "shouldBreakMaskChain": true,
  "style": {
    "_class": "style",
    "do_objectID": "F300BBDE-AD7D-414E-8296-2697B81CFC9E",
    "endMarkerType": 0,
    "miterLimit": 10,
    "startMarkerType": 0,
    "windingRule": 1
  },
  "symbolID": "97703215-7AE3-4A2B-AD60-978C322B01EA",
  "verticalRulerData": {
    "_class": "rulerData",
    "base": 0,
    "do_objectID": "C60F40F5-9301-45E7-BAAC-F15E704F6EA4",
    "guides": [
    ]
  }
}