{
  "_class": "group",
  "booleanOperation": 0,
  "clippingMaskMode": 0,
  "do_objectID": "3634488C-83E2-40DB-AFDC-5C07F7CFB50B",
  "exportOptions": {
    "_class": "exportOptions",
    "do_objectID": "27E3BDCD-F01C-4CE5-A586-85F42FC5DD0B",
    "exportFormats": [
    ],
    "includedLayerIds": [
    ],
    "layerOptions": 0,
    "shouldTrim": false
  },
  "frame": {
    "_class": "rect",
    "constrainProportions": true,
    "do_objectID": "C611CE10-8219-48A1-A8CF-7118038E5B76",
    "height": 44,
    "width": 44,
    "x": 98,
    "y": 30
  },
  "groupLayout": {
    "_class": "MSImmutableFreeformGroupLayout",
    "do_objectID": "DB165B61-7FBE-45EC-B3BE-548B5324BDA7"
  },
  "hasClickThrough": false,
  "hasClippingMask": false,
  "isFixedToViewport": false,
  "isFlippedHorizontal": false,
  "isFlippedVertical": false,
  "isLocked": false,
  "isVisible": true,
  "layerListExpandedType": 0,
  "layers": [
    {
      "class": "oval",
      "id": "567FBDAD-C274-41E3-8572-A187E7891BBA"
    },
    {
      "class": "text",
      "id": "AF225DF8-5EFF-40AA-AACE-8F5DA315AD33"
    }
  ],
  "name": "Medium",
  "nameIsFixed": true,
  "resizingConstraint": 63,
  "resizingType": 0,
  "rotation": 0,
  "shouldBreakMaskChain": false,
  "style": {
    "_class": "style",
    "do_objectID": "A5C4A06E-B240-46F3-8B98-B051A2FAD7F9",
    "endMarkerType": 0,
    "miterLimit": 10,
    "startMarkerType": 0,
    "windingRule": 1
  }
}