{
  "_class": "group",
  "booleanOperation": 0,
  "clippingMaskMode": 0,
  "do_objectID": "68A22AC3-2B94-4F57-B563-3DC18745D33E",
  "exportOptions": {
    "_class": "exportOptions",
    "do_objectID": "C10A3B76-CD78-4D7C-9B63-91C7AA2AFE99",
    "exportFormats": [
    ],
    "includedLayerIds": [
    ],
    "layerOptions": 0,
    "shouldTrim": false
  },
  "frame": {
    "_class": "rect",
    "constrainProportions": true,
    "do_objectID": "DF78B210-8A99-4C2B-B6DC-6C042FCBFCF8",
    "height": 20,
    "width": 15.38461538461539,
    "x": 137.9999999999999,
    "y": 2
  },
  "groupLayout": {
    "_class": "MSImmutableFreeformGroupLayout",
    "do_objectID": "3546CD47-A753-4B1F-B1EA-DBD27E69E44D"
  },
  "hasClickThrough": false,
  "hasClippingMask": false,
  "isFixedToViewport": false,
  "isFlippedHorizontal": false,
  "isFlippedVertical": false,
  "isLocked": false,
  "isVisible": true,
  "layerListExpandedType": 2,
  "layers": [
    {
      "class": "rectangle",
      "id": "C4B43B85-1D05-450E-8B8C-A08201BB09FB"
    },
    {
      "class": "shapePath",
      "id": "C7012D6F-B96C-4967-A662-5A9CF4B31111"
    }
  ],
  "name": "Group",
  "nameIsFixed": false,
  "resizingConstraint": 63,
  "resizingType": 0,
  "rotation": 0,
  "shouldBreakMaskChain": false,
  "style": {
    "_class": "style",
    "do_objectID": "53AFE85D-2687-4394-99FF-AE85B61397EE",
    "endMarkerType": 0,
    "fills": [
      {
        "_class": "fill",
        "color": {
          "_class": "color",
          "alpha": 1,
          "blue": 0,
          "green": 0,
          "red": 0
        },
        "fillType": 0,
        "isEnabled": true,
        "noiseIndex": 0,
        "noiseIntensity": 0,
        "patternFillType": 1,
        "patternTileScale": 1
      }
    ],
    "miterLimit": 10,
    "startMarkerType": 0,
    "windingRule": 1
  },
  "userInfo": {
    "com.animaapp.stc-sketch-plugin": {
      "kModelPropertiesKey": {
        "constraints": {
          "aspectRatio": {
            "constant": 20,
            "enabled": 1,
            "modelID": "constraint_6bd6a6f6-387a-44d8-bfc2-c64e55f1578b",
            "model_class": "ADModelConstraint",
            "model_version": 0,
            "multiplier": 15.38461
          },
          "automatic": 1,
          "modelID": "viewConstraints_33724ee0-c1d3-45d1-a3fb-c74661a792f7",
          "model_class": "ADModelViewConstraints",
          "model_version": 0,
          "scaleFactor": 1
        }
      }
    }
  }
}