{
  "_class": "symbolInstance",
  "booleanOperation": -1,
  "clippingMaskMode": 0,
  "do_objectID": "5BFBA40C-CB9B-4413-84CD-1FE77FA7D60F",
  "exportOptions": {
    "_class": "exportOptions",
    "do_objectID": "8358393C-AA30-4B64-80A1-8A24BEC7A775",
    "exportFormats": [
    ],
    "includedLayerIds": [
    ],
    "layerOptions": 0,
    "shouldTrim": false
  },
  "frame": {
    "_class": "rect",
    "constrainProportions": false,
    "do_objectID": "A08A8F2B-9594-4FD1-98C3-C2A0F60D4ECE",
    "height": 112,
    "width": 127,
    "x": 320,
    "y": 0
  },
  "hasClippingMask": false,
  "horizontalSpacing": 0,
  "isFixedToViewport": false,
  "isFlippedHorizontal": false,
  "isFlippedVertical": false,
  "isLocked": false,
  "isVisible": true,
  "layerListExpandedType": 0,
  "name": "checkbox / group / 3",
  "nameIsFixed": true,
  "overrideValues": [
    {
      "_class": "overrideValue",
      "do_objectID": "3A989CA9-3B2E-4CAD-A8FF-1ED4937C1F1A",
      "overrideName": "1CFB94F1-B5E8-422E-98B8-B5B3040710CA/A9AD1E59-A52B-4B3C-B57C-ABEEA82D1E2E_symbolID",
      "value": "EF95E7A4-F97B-4286-826F-10F280933C10"
    }
  ],
  "resizingConstraint": 63,
  "resizingType": 0,
  "rotation": 0,
  "scale": 1,
  "shouldBreakMaskChain": false,
  "style": {
    "_class": "style",
    "do_objectID": "0192F554-B2CE-49A5-BA98-54FEEBB27F16",
    "endMarkerType": 0,
    "miterLimit": 10,
    "startMarkerType": 0,
    "windingRule": 1
  },
  "symbolID": "995B0B70-C652-4C6B-B372-9FCF74F08CC0",
  "userInfo": {
    "com.animaapp.stc-sketch-plugin": {
      "kModelPropertiesKey": {
      }
    }
  },
  "verticalSpacing": 0
}