{
  "_class": "group",
  "booleanOperation": 0,
  "clippingMaskMode": 0,
  "do_objectID": "5784A367-E25D-49F1-B5A9-F57B03E4179D",
  "exportOptions": {
    "_class": "exportOptions",
    "do_objectID": "BC1F7BAF-2B25-4376-83A4-686F72EA38F5",
    "exportFormats": [
    ],
    "includedLayerIds": [
    ],
    "layerOptions": 0,
    "shouldTrim": false
  },
  "frame": {
    "_class": "rect",
    "constrainProportions": false,
    "do_objectID": "18B33629-D37D-4CDF-BE70-8A0D385F8583",
    "height": 40,
    "width": 40,
    "x": 0,
    "y": 213
  },
  "groupLayout": {
    "_class": "MSImmutableFreeformGroupLayout",
    "do_objectID": "F48A1B81-8F7C-411F-93E2-0D0F5080F03D"
  },
  "hasClickThrough": false,
  "hasClippingMask": false,
  "isFixedToViewport": false,
  "isFlippedHorizontal": true,
  "isFlippedVertical": false,
  "isLocked": false,
  "isVisible": true,
  "layerListExpandedType": 0,
  "layers": [
    {
      "class": "oval",
      "id": "7B313E69-416B-4998-A533-1903BA91E073"
    },
    {
      "class": "group",
      "id": "E145A061-4BB4-4403-AFF2-F1DEAC8FB128"
    }
  ],
  "name": "arrow small button",
  "nameIsFixed": true,
  "resizingConstraint": 63,
  "resizingType": 0,
  "rotation": 0,
  "shouldBreakMaskChain": false,
  "style": {
    "_class": "style",
    "do_objectID": "3F3F3C50-9CFA-4D1F-9C05-FBD4B5DF26DA",
    "endMarkerType": 0,
    "miterLimit": 10,
    "startMarkerType": 0,
    "windingRule": 1
  }
}