{
  "_class": "shapePath",
  "booleanOperation": -1,
  "clippingMaskMode": 0,
  "do_objectID": "04D2337D-34C7-4235-949C-2F47350A9081",
  "edited": true,
  "exportOptions": {
    "_class": "exportOptions",
    "exportFormats": [
    ],
    "includedLayerIds": [
    ],
    "layerOptions": 0,
    "shouldTrim": false
  },
  "frame": {
    "_class": "rect",
    "constrainProportions": false,
    "height": 31.58171425860921,
    "width": 38.05949879948889,
    "x": 1.046325233452443,
    "y": 1.045932616104064
  },
  "hasClippingMask": false,
  "isClosed": true,
  "isFixedToViewport": false,
  "isFlippedHorizontal": false,
  "isFlippedVertical": false,
  "isLocked": false,
  "isVisible": true,
  "layerListExpandedType": 0,
  "maintainScrollPosition": false,
  "name": "Path",
  "nameIsFixed": false,
  "pointRadiusBehaviour": 1,
  "points": [
    {
      "_class": "curvePoint",
      "cornerRadius": 0,
      "curveFrom": "{0.96259914189062423, 0.77060543651162072}",
      "curveMode": 2,
      "curveTo": "{1.005829570207885, 0.71555745512519131}",
      "hasCurveFrom": true,
      "hasCurveTo": true,
      "point": "{0.98721971671973541, 0.73924416557421491}"
    },
    {
      "_class": "curvePoint",
      "cornerRadius": 0,
      "curveFrom": "{0.91013943664021668, 0.76296402747243242}",
      "curveMode": 4,
      "curveTo": "{0.92696120368826296, 0.76692562565110045}",
      "hasCurveFrom": false,
      "hasCurveTo": true,
      "point": "{0.91013943664021668, 0.76296402747243242}"
    },
    {
      "_class": "curvePoint",
      "cornerRadius": 0,
      "curveFrom": "{0.68584462449590688, 0.49024363067902105}",
      "curveMode": 4,
      "curveTo": "{0.69119512930513838, 0.49675789044561747}",
      "hasCurveFrom": true,
      "hasCurveTo": false,
      "point": "{0.69119512930513838, 0.49675789044561747}"
    },
    {
      "_class": "curvePoint",
      "cornerRadius": 0,
      "curveFrom": "{0.66634072778770603, 0.5031063929662446}",
      "curveMode": 2,
      "curveTo": "{0.67715177349479061, 0.49021047922982713}",
      "hasCurveFrom": true,
      "hasCurveTo": true,
      "point": "{0.67174625064124838, 0.49665843609803584}"
    },
    {
      "_class": "curvePoint",
      "cornerRadius": 0,
      "curveFrom": "{0.67166372357478199, 0.52009651067810536}",
      "curveMode": 4,
      "curveTo": "{0.66631321876555061, 0.513582250911509}",
      "hasCurveFrom": false,
      "hasCurveTo": true,
      "point": "{0.67166372357478199, 0.52009651067810536}"
    },
    {
      "_class": "curvePoint",
      "cornerRadius": 0,
      "curveFrom": "{0.90506402205253966, 0.81093417445596938}",
      "curveMode": 4,
      "curveTo": "{0.89240987186104115, 0.78849064335171615}",
      "hasCurveFrom": true,
      "hasCurveTo": false,
      "point": "{0.89240987186104115, 0.78849064335171615}"
    },
    {
      "_class": "curvePoint",
      "cornerRadius": 0,
      "curveFrom": "{0.86690900832295625, 0.88516026920105528}",
      "curveMode": 2,
      "curveTo": "{0.89736149584901881, 0.848958886681344}",
      "hasCurveFrom": true,
      "hasCurveTo": true,
      "point": "{0.88206647953059902, 0.86715903228878122}"
    },
    {
      "_class": "curvePoint",
      "cornerRadius": 0,
      "curveFrom": "{0.81336269669740924, 0.88101633805182089}",
      "curveMode": 3,
      "curveTo": "{0.8316699509418487, 0.89542064272655952}",
      "hasCurveFrom": true,
      "hasCurveTo": true,
      "point": "{0.81363778691896349, 0.88123182247158116}"
    },
    {
      "_class": "curvePoint",
      "cornerRadius": 0,
      "curveFrom": "{0.81277125272106743, 0.88080085363206084}",
      "curveMode": 4,
      "curveTo": "{0.81306009745369945, 0.88095003515343329}",
      "hasCurveFrom": false,
      "hasCurveTo": true,
      "point": "{0.81277125272106743, 0.88080085363206084}"
    },
    {
      "_class": "curvePoint",
      "cornerRadius": 0,
      "curveFrom": "{0.58382741583248965, 0.5980024162837112}",
      "curveMode": 4,
      "curveTo": "{0.58916416613064337, 0.60456640322409838}",
      "hasCurveFrom": true,
      "hasCurveTo": false,
      "point": "{0.58916416613064337, 0.60456640322409838}"
    },
    {
      "_class": "curvePoint",
      "cornerRadius": 0,
      "curveFrom": "{0.56426850107997795, 0.61068284560036834}",
      "curveMode": 2,
      "curveTo": "{0.57512081032029561, 0.59791953766072659}",
      "hasCurveFrom": true,
      "hasCurveTo": true,
      "point": "{0.56971528746675337, 0.60426804018135349}"
    },
    {
      "_class": "curvePoint",
      "cornerRadius": 0,
      "curveFrom": "{0.56945395175627678, 0.62770611476142302}",
      "curveMode": 4,
      "curveTo": "{0.5641722195024339, 0.62117527927022986}",
      "hasCurveFrom": false,
      "hasCurveTo": true,
      "point": "{0.56945395175627678, 0.62770611476142302}"
    },
    {
      "_class": "curvePoint",
      "cornerRadius": 0,
      "curveFrom": "{0.80245536941278062, 0.93327959770596447}",
      "curveMode": 4,
      "curveTo": "{0.79460154358740498, 0.90576389487504838}",
      "hasCurveFrom": true,
      "hasCurveTo": false,
      "point": "{0.79460154358740498, 0.90576389487504838}"
    },
    {
      "_class": "curvePoint",
      "cornerRadius": 0,
      "curveFrom": "{0.7594450132727637, 1.0043728805022292}",
      "curveMode": 4,
      "curveTo": "{0.7996081856196936, 0.96863561827123212}",
      "hasCurveFrom": true,
      "hasCurveTo": true,
      "point": "{0.77491883823519392, 0.98993542437829674}"
    },
    {
      "_class": "curvePoint",
      "cornerRadius": 0,
      "curveFrom": "{0.70906223919509115, 0.97523275666081322}",
      "curveMode": 4,
      "curveTo": "{0.72900628025777892, 1.0020854305078519}",
      "hasCurveFrom": true,
      "hasCurveTo": true,
      "point": "{0.71105664330135998, 0.99061502908677113}"
    },
    {
      "_class": "curvePoint",
      "cornerRadius": 0,
      "curveFrom": "{0.67148491493077189, 0.89654779199915124}",
      "curveMode": 2,
      "curveTo": "{0.70313404492059572, 0.94325818391332084}",
      "hasCurveFrom": true,
      "hasCurveTo": true,
      "point": "{0.68661487711625913, 0.91884214158203203}"
    },
    {
      "_class": "curvePoint",
      "cornerRadius": 0,
      "curveFrom": "{0.61396354960376476, 0.85641796274996584}",
      "curveMode": 4,
      "curveTo": "{0.64110119996009796, 0.87649116523685688}",
      "hasCurveFrom": true,
      "hasCurveTo": true,
      "point": "{0.61181784587564114, 0.88076770218286682}"
    },
    {
      "_class": "curvePoint",
      "cornerRadius": 0,
      "curveFrom": "{0.56063731015546103, 0.75688073654535648}",
      "curveMode": 3,
      "curveTo": "{0.61157026467624231, 0.82227197008027475}",
      "hasCurveFrom": true,
      "hasCurveTo": true,
      "point": "{0.58930171124142061, 0.79367884515055753}"
    },
    {
      "_class": "curvePoint",
      "cornerRadius": 0,
      "curveFrom": "{0.51044709923287646, 0.73093972755114944}",
      "curveMode": 4,
      "curveTo": "{0.53109262036052773, 0.7499686593884336}",
      "hasCurveFrom": true,
      "hasCurveTo": true,
      "point": "{0.50934673834665922, 0.75353244017677512}"
    },
    {
      "_class": "curvePoint",
      "cornerRadius": 0,
      "curveFrom": "{0.45688703309625156, 0.64055230132404961}",
      "curveMode": 2,
      "curveTo": "{0.50625197335417316, 0.6993795479185807}",
      "hasCurveFrom": true,
      "hasCurveTo": true,
      "point": "{0.48230536956787018, 0.67085272588725131}"
    },
    {
      "_class": "curvePoint",
      "cornerRadius": 0,
      "curveFrom": "{0.40450985491231023, 0.61795958869842416}",
      "curveMode": 4,
      "curveTo": "{0.42347732568848012, 0.64035339262888635}",
      "hasCurveFrom": true,
      "hasCurveTo": true,
      "point": "{0.40056231023300581, 0.64511062558820753}"
    },
    {
      "_class": "curvePoint",
      "cornerRadius": 0,
      "curveFrom": "{0.35623152102952815, 0.52114078132771258}",
      "curveMode": 2,
      "curveTo": "{0.40162140758598991, 0.58210629639524836}",
      "hasCurveFrom": true,
      "hasCurveTo": true,
      "point": "{0.37779859439938634, 0.5501151479231593}"
    },
    {
      "_class": "curvePoint",
      "cornerRadius": 0,
      "curveFrom": "{0.31632968439307491, 0.51469282445950393}",
      "curveMode": 4,
      "curveTo": "{0.33246372588723544, 0.51485858170547327}",
      "hasCurveFrom": false,
      "hasCurveTo": true,
      "point": "{0.31632968439307491, 0.51469282445950393}"
    },
    {
      "_class": "curvePoint",
      "cornerRadius": 0,
      "curveFrom": "{0.29474885651213895, 0.51469282445950393}",
      "curveMode": 4,
      "curveTo": "{0.31569697688349996, 0.51469282445950393}",
      "hasCurveFrom": true,
      "hasCurveTo": false,
      "point": "{0.31569697688349996, 0.51469282445950393}"
    },
    {
      "_class": "curvePoint",
      "cornerRadius": 0,
      "curveFrom": "{0.26106405888281325, 0.54091562077185884}",
      "curveMode": 4,
      "curveTo": "{0.2731680286312031, 0.52516868240476833}",
      "hasCurveFrom": false,
      "hasCurveTo": true,
      "point": "{0.26106405888281325, 0.54091562077185884}"
    },
    {
      "_class": "curvePoint",
      "cornerRadius": 0,
      "curveFrom": "{0.14280277263661376, 0.67905770956273537}",
      "curveMode": 1,
      "curveTo": "{0.14280277263661376, 0.67905770956273537}",
      "hasCurveFrom": false,
      "hasCurveTo": false,
      "point": "{0.14280277263661376, 0.67905770956273537}"
    },
    {
      "_class": "curvePoint",
      "cornerRadius": 0,
      "curveFrom": "{-0.01901905019271137, 0.48401115823057272}",
      "curveMode": 4,
      "curveTo": "{0.057057150578134132, 0.57569149097623351}",
      "hasCurveFrom": true,
      "hasCurveTo": false,
      "point": "{0.057057150578134132, 0.57569149097623351}"
    },
    {
      "_class": "curvePoint",
      "cornerRadius": 0,
      "curveFrom": "{0.057057150578134132, 0.24311615266328115}",
      "curveMode": 4,
      "curveTo": "{-0.01901905019271137, 0.33481306113353893}",
      "hasCurveFrom": false,
      "hasCurveTo": true,
      "point": "{0.057057150578134132, 0.24311615266328115}"
    },
    {
      "_class": "curvePoint",
      "cornerRadius": 0,
      "curveFrom": "{0.23849290620428182, 0.024465769505079622}",
      "curveMode": 4,
      "curveTo": "{0.20163081651600376, 0.068888711424871907}",
      "hasCurveFrom": true,
      "hasCurveTo": false,
      "point": "{0.20163081651600376, 0.068888711424871907}"
    },
    {
      "_class": "curvePoint",
      "cornerRadius": 0,
      "curveFrom": "{0.39174566863219001, 0}",
      "curveMode": 2,
      "curveTo": "{0.28750022917418283, 0}",
      "hasCurveFrom": true,
      "hasCurveTo": true,
      "point": "{0.33961607164764751, 0}"
    },
    {
      "_class": "curvePoint",
      "cornerRadius": 0,
      "curveFrom": "{0.47760132677929129, 0.068888711424871907}",
      "curveMode": 4,
      "curveTo": "{0.44075299160209103, 0.024482345229676579}",
      "hasCurveFrom": false,
      "hasCurveTo": true,
      "point": "{0.47760132677929129, 0.068888711424871907}"
    },
    {
      "_class": "curvePoint",
      "cornerRadius": 0,
      "curveFrom": "{0.5195938490995573, 0.11949439861932187}",
      "curveMode": 4,
      "curveTo": "{0.5195938490995573, 0.11949439861932187}",
      "hasCurveFrom": true,
      "hasCurveTo": false,
      "point": "{0.5195938490995573, 0.11949439861932187}"
    },
    {
      "_class": "curvePoint",
      "cornerRadius": 0,
      "curveFrom": "{0.31864044225413091, 0.3634890646862407}",
      "curveMode": 3,
      "curveTo": "{0.34079895960033096, 0.33310576150005444}",
      "hasCurveFrom": true,
      "hasCurveTo": true,
      "point": "{0.32579278801454314, 0.35365966000025689}"
    },
    {
      "_class": "curvePoint",
      "cornerRadius": 0,
      "curveFrom": "{0.31844787909904299, 0.40942039754435433}",
      "curveMode": 2,
      "curveTo": "{0.31546315019517868, 0.37557276791740823}",
      "hasCurveFrom": true,
      "hasCurveTo": true,
      "point": "{0.31661852912570676, 0.38863443889979488}"
    },
    {
      "_class": "curvePoint",
      "cornerRadius": 0,
      "curveFrom": "{0.41521086453077283, 0.50613975056748417}",
      "curveMode": 3,
      "curveTo": "{0.33099199320191969, 0.4307533551006128}",
      "hasCurveFrom": true,
      "hasCurveTo": true,
      "point": "{0.35288917483764304, 0.45036243729878978}"
    },
    {
      "_class": "curvePoint",
      "cornerRadius": 0,
      "curveFrom": "{0.58439135078667592, 0.4005689606095898}",
      "curveMode": 3,
      "curveTo": "{0.49699518739887039, 0.49874697739725005}",
      "hasCurveFrom": true,
      "hasCurveTo": true,
      "point": "{0.55640092074352443, 0.43199653444538316}"
    },
    {
      "_class": "curvePoint",
      "cornerRadius": 0,
      "curveFrom": "{0.68104430012978401, 0.28632906668749702}",
      "curveMode": 4,
      "curveTo": "{0.65502076517074592, 0.31712676298860681}",
      "hasCurveFrom": false,
      "hasCurveTo": true,
      "point": "{0.68104430012978401, 0.28632906668749702}"
    },
    {
      "_class": "curvePoint",
      "cornerRadius": 0,
      "curveFrom": "{0.97827928451922019, 0.65048116035761527}",
      "curveMode": 4,
      "curveTo": "{0.97827928451922019, 0.65048116035761527}",
      "hasCurveFrom": true,
      "hasCurveTo": false,
      "point": "{0.97827928451922019, 0.65048116035761527}"
    },
    {
      "_class": "curvePoint",
      "cornerRadius": 0,
      "curveFrom": "{0.97830679354137551, 0.65053088753140609}",
      "curveMode": 4,
      "curveTo": "{0.97827928451922019, 0.65049773608221229}",
      "hasCurveFrom": true,
      "hasCurveTo": true,
      "point": "{0.97827928451922019, 0.6505143118068093}"
    },
    {
      "_class": "curvePoint",
      "cornerRadius": 0,
      "curveFrom": "{0.97830679354137551, 0.65053088753140609}",
      "curveMode": 4,
      "curveTo": "{0.97830679354137551, 0.65053088753140609}",
      "hasCurveFrom": false,
      "hasCurveTo": true,
      "point": "{0.97830679354137551, 0.65053088753140609}"
    },
    {
      "_class": "curvePoint",
      "cornerRadius": 0,
      "curveFrom": "{0.99943372255674701, 0.68195846136719918}",
      "curveMode": 4,
      "curveTo": "{0.99665531131904828, 0.67299099436025633}",
      "hasCurveFrom": true,
      "hasCurveTo": false,
      "point": "{0.99665531131904828, 0.67299099436025633}"
    }
  ],
  "resizingConstraint": 63,
  "resizingType": 0,
  "rotation": 0,
  "shouldBreakMaskChain": false,
  "style": {
    "_class": "style",
    "blur": {
      "_class": "blur",
      "center": "{0.5, 0.5}",
      "isEnabled": false,
      "motionAngle": 0,
      "radius": 10,
      "saturation": 1,
      "type": 0
    },
    "borderOptions": {
      "_class": "borderOptions",
      "dashPattern": [
      ],
      "isEnabled": true,
      "lineCapStyle": 0,
      "lineJoinStyle": 0
    },
    "borders": [
    ],
    "colorControls": {
      "_class": "colorControls",
      "brightness": 0,
      "contrast": 1,
      "hue": 0,
      "isEnabled": true,
      "saturation": 1
    },
    "contextSettings": {
      "_class": "graphicsContextSettings",
      "blendMode": 0,
      "opacity": 1
    },
    "do_objectID": "92FA2A69-0852-41F5-8801-19C3D631730A",
    "endMarkerType": 0,
    "fills": [
      {
        "_class": "fill",
        "color": {
          "_class": "color",
          "alpha": 1,
          "blue": 0.1764705882352941,
          "green": 0.1764705882352941,
          "red": 0.1764705882352941
        },
        "contextSettings": {
          "_class": "graphicsContextSettings",
          "blendMode": 0,
          "opacity": 1
        },
        "fillType": 0,
        "gradient": {
          "_class": "gradient",
          "elipseLength": 0,
          "from": "{0.5, 0}",
          "gradientType": 0,
          "stops": [
            {
              "_class": "gradientStop",
              "color": {
                "_class": "color",
                "alpha": 1,
                "blue": 1,
                "green": 1,
                "red": 1
              },
              "position": 0
            },
            {
              "_class": "gradientStop",
              "color": {
                "_class": "color",
                "alpha": 1,
                "blue": 0,
                "green": 0,
                "red": 0
              },
              "position": 1
            }
          ],
          "to": "{0.5, 1}"
        },
        "isEnabled": true,
        "noiseIndex": 0,
        "noiseIntensity": 0,
        "patternFillType": 1,
        "patternTileScale": 1
      }
    ],
    "innerShadows": [
    ],
    "miterLimit": 10,
    "shadows": [
    ],
    "startMarkerType": 0,
    "windingRule": 0
  }
}