{
  "_class": "shapePath",
  "booleanOperation": -1,
  "clippingMaskMode": 0,
  "do_objectID": "6D766A84-A899-4E9A-B734-529C25546DE9",
  "edited": true,
  "exportOptions": {
    "_class": "exportOptions",
    "exportFormats": [
    ],
    "includedLayerIds": [
    ],
    "layerOptions": 0,
    "shouldTrim": false
  },
  "frame": {
    "_class": "rect",
    "constrainProportions": false,
    "height": 10.7365806963332,
    "width": 19.98182833045721,
    "x": 0,
    "y": 0
  },
  "hasClippingMask": false,
  "isClosed": true,
  "isFixedToViewport": false,
  "isFlippedHorizontal": false,
  "isFlippedVertical": false,
  "isLocked": false,
  "isVisible": true,
  "layerListExpandedType": 0,
  "maintainScrollPosition": false,
  "name": "Path",
  "nameIsFixed": false,
  "pointRadiusBehaviour": 0,
  "points": [
    {
      "_class": "curvePoint",
      "cornerRadius": 0,
      "curveFrom": "{0.8213990426457789, 0.34564346773246513}",
      "curveMode": 4,
      "curveTo": "{0.8106222802436901, 0.38239164854566288}",
      "hasCurveFrom": true,
      "hasCurveTo": false,
      "point": "{0.8106222802436901, 0.38239164854566288}"
    },
    {
      "_class": "curvePoint",
      "cornerRadius": 0,
      "curveFrom": "{0.82753481288076591, 0.11609590566549639}",
      "curveMode": 3,
      "curveTo": "{0.827532637075718, 0.30353389943754022}",
      "hasCurveFrom": true,
      "hasCurveTo": true,
      "point": "{0.827532637075718, 0.25880032881016879}"
    },
    {
      "_class": "curvePoint",
      "cornerRadius": 0,
      "curveFrom": "{0.63176457789382079, 0}",
      "curveMode": 3,
      "curveTo": "{0.76515230635335063, 0}",
      "hasCurveFrom": true,
      "hasCurveTo": true,
      "point": "{0.68847693646649266, 0}"
    },
    {
      "_class": "curvePoint",
      "cornerRadius": 0,
      "curveFrom": "{0.51827458659704095, 0.17315985762357713}",
      "curveMode": 3,
      "curveTo": "{0.5737358572671889, 0.054537134897206324}",
      "hasCurveFrom": true,
      "hasCurveTo": true,
      "point": "{0.52927763272410799, 0.14962887374418407}"
    },
    {
      "_class": "curvePoint",
      "cornerRadius": 0,
      "curveFrom": "{0.49152523933855524, 0.19844827516389887}",
      "curveMode": 4,
      "curveTo": "{0.50847476066144481, 0.19844827516389887}",
      "hasCurveFrom": true,
      "hasCurveTo": true,
      "point": "{0.5, 0.22478548375993615}"
    },
    {
      "_class": "curvePoint",
      "cornerRadius": 0,
      "curveFrom": "{0.4262641427328111, 0.054537134897206324}",
      "curveMode": 3,
      "curveTo": "{0.4817254134029591, 0.17315985762357711}",
      "hasCurveFrom": true,
      "hasCurveTo": true,
      "point": "{0.47072236727589212, 0.14962887374418402}"
    },
    {
      "_class": "curvePoint",
      "cornerRadius": 0,
      "curveFrom": "{0.23484769364664923, 0}",
      "curveMode": 3,
      "curveTo": "{0.36823759791122718, 0}",
      "hasCurveFrom": true,
      "hasCurveTo": true,
      "point": "{0.31152306353350739, 0}"
    },
    {
      "_class": "curvePoint",
      "cornerRadius": 0,
      "curveFrom": "{0.17246518711923411, 0.30352985005122468}",
      "curveMode": 3,
      "curveTo": "{0.17246518711923411, 0.11609995505181188}",
      "hasCurveFrom": true,
      "hasCurveTo": true,
      "point": "{0.17246518711923411, 0.25880032881016879}"
    },
    {
      "_class": "curvePoint",
      "cornerRadius": 0,
      "curveFrom": "{0.18937554395126197, 0.38239164854566288}",
      "curveMode": 4,
      "curveTo": "{0.17859660574412531, 0.34564346773246513}",
      "hasCurveFrom": false,
      "hasCurveTo": true,
      "point": "{0.18937554395126197, 0.38239164854566288}"
    },
    {
      "_class": "curvePoint",
      "cornerRadius": 0,
      "curveFrom": "{0, 0.38239164854566288}",
      "curveMode": 1,
      "curveTo": "{0, 0.38239164854566288}",
      "hasCurveFrom": false,
      "hasCurveTo": false,
      "point": "{0, 0.38239164854566288}"
    },
    {
      "_class": "curvePoint",
      "cornerRadius": 0,
      "curveFrom": "{0, 1}",
      "curveMode": 1,
      "curveTo": "{0, 1}",
      "hasCurveFrom": false,
      "hasCurveTo": false,
      "point": "{0, 1}"
    },
    {
      "_class": "curvePoint",
      "cornerRadius": 0,
      "curveFrom": "{0.46367275892080068, 1}",
      "curveMode": 1,
      "curveTo": "{0.46367275892080068, 1}",
      "hasCurveFrom": false,
      "hasCurveTo": false,
      "point": "{0.46367275892080068, 1}"
    },
    {
      "_class": "curvePoint",
      "cornerRadius": 0,
      "curveFrom": "{0.46367275892080068, 0.38239164854566288}",
      "curveMode": 1,
      "curveTo": "{0.46367275892080068, 0.38239164854566288}",
      "hasCurveFrom": false,
      "hasCurveTo": false,
      "point": "{0.46367275892080068, 0.38239164854566288}"
    },
    {
      "_class": "curvePoint",
      "cornerRadius": 0,
      "curveFrom": "{0.53632506527415147, 0.38239164854566288}",
      "curveMode": 1,
      "curveTo": "{0.53632506527415147, 0.38239164854566288}",
      "hasCurveFrom": false,
      "hasCurveTo": false,
      "point": "{0.53632506527415147, 0.38239164854566288}"
    },
    {
      "_class": "curvePoint",
      "cornerRadius": 0,
      "curveFrom": "{0.53632506527415147, 1}",
      "curveMode": 1,
      "curveTo": "{0.53632506527415147, 1}",
      "hasCurveFrom": false,
      "hasCurveTo": false,
      "point": "{0.53632506527415147, 1}"
    },
    {
      "_class": "curvePoint",
      "cornerRadius": 0,
      "curveFrom": "{1, 1}",
      "curveMode": 1,
      "curveTo": "{1, 1}",
      "hasCurveFrom": false,
      "hasCurveTo": false,
      "point": "{1, 1}"
    },
    {
      "_class": "curvePoint",
      "cornerRadius": 0,
      "curveFrom": "{1, 0.38239164854566288}",
      "curveMode": 1,
      "curveTo": "{1, 0.38239164854566288}",
      "hasCurveFrom": false,
      "hasCurveTo": false,
      "point": "{1, 0.38239164854566288}"
    }
  ],
  "resizingConstraint": 63,
  "resizingType": 0,
  "rotation": 0,
  "shouldBreakMaskChain": false,
  "style": {
    "_class": "style",
    "blur": {
      "_class": "blur",
      "center": "{0.5, 0.5}",
      "isEnabled": false,
      "motionAngle": 0,
      "radius": 10,
      "saturation": 1,
      "type": 0
    },
    "borderOptions": {
      "_class": "borderOptions",
      "dashPattern": [
      ],
      "isEnabled": true,
      "lineCapStyle": 0,
      "lineJoinStyle": 0
    },
    "borders": [
    ],
    "colorControls": {
      "_class": "colorControls",
      "brightness": 0,
      "contrast": 1,
      "hue": 0,
      "isEnabled": false,
      "saturation": 1
    },
    "contextSettings": {
      "_class": "graphicsContextSettings",
      "blendMode": 0,
      "opacity": 1
    },
    "do_objectID": "5FA83BF1-432E-4AF0-82EC-246D2732BF4D",
    "endMarkerType": 0,
    "fills": [
      {
        "_class": "fill",
        "color": {
          "_class": "color",
          "alpha": 1,
          "blue": 1,
          "green": 1,
          "red": 1
        },
        "contextSettings": {
          "_class": "graphicsContextSettings",
          "blendMode": 0,
          "opacity": 1
        },
        "fillType": 0,
        "gradient": {
          "_class": "gradient",
          "elipseLength": 0,
          "from": "{0.5, 0}",
          "gradientType": 0,
          "stops": [
            {
              "_class": "gradientStop",
              "color": {
                "_class": "color",
                "alpha": 1,
                "blue": 1,
                "green": 1,
                "red": 1
              },
              "position": 0
            },
            {
              "_class": "gradientStop",
              "color": {
                "_class": "color",
                "alpha": 1,
                "blue": 0,
                "green": 0,
                "red": 0
              },
              "position": 1
            }
          ],
          "to": "{0.5, 1}"
        },
        "isEnabled": true,
        "noiseIndex": 0,
        "noiseIntensity": 0,
        "patternFillType": 1,
        "patternTileScale": 1
      }
    ],
    "innerShadows": [
    ],
    "miterLimit": 10,
    "shadows": [
    ],
    "startMarkerType": 0,
    "windingRule": 0
  }
}