{
  "_class": "shapePath",
  "booleanOperation": -1,
  "clippingMaskMode": 0,
  "do_objectID": "02EDB936-15C3-4BFA-A539-AF5068F91AD8",
  "edited": true,
  "exportOptions": {
    "_class": "exportOptions",
    "do_objectID": "BE4A8D8A-89A8-44FC-A8C6-FCCC01AB2453",
    "exportFormats": [
    ],
    "includedLayerIds": [
    ],
    "layerOptions": 0,
    "shouldTrim": false
  },
  "frame": {
    "_class": "rect",
    "constrainProportions": false,
    "do_objectID": "FFDCE306-97D0-4971-91E4-C2F6CA546FA0",
    "height": 0.117916253632913,
    "width": 0.1180228722686039,
    "x": 30.26328853955604,
    "y": 30.3237588163152
  },
  "hasClippingMask": false,
  "isClosed": true,
  "isFixedToViewport": false,
  "isFlippedHorizontal": false,
  "isFlippedVertical": false,
  "isLocked": false,
  "isVisible": true,
  "layerListExpandedType": 0,
  "name": "Path",
  "nameIsFixed": false,
  "pointRadiusBehaviour": 0,
  "points": [
    {
      "_class": "curvePoint",
      "cornerRadius": 0,
      "curveFrom": "{0.2689133425034117, 0.12929848693259091}",
      "curveMode": 4,
      "curveTo": "{0.065337001375495141, 0.46217331499309838}",
      "hasCurveFrom": true,
      "hasCurveTo": true,
      "point": "{0, 0.19463548830808605}"
    },
    {
      "_class": "curvePoint",
      "cornerRadius": 0,
      "curveFrom": "{0.87001375515817037, 0.26753782668497322}",
      "curveMode": 4,
      "curveTo": "{0.53645116918842406, 0.065337001375495141}",
      "hasCurveFrom": true,
      "hasCurveTo": true,
      "point": "{0.80536451169187484, 0}"
    },
    {
      "_class": "curvePoint",
      "cornerRadius": 0,
      "curveFrom": "{0.73108665749654922, 0.87070151306736998}",
      "curveMode": 4,
      "curveTo": "{0.93466299862446578, 0.53645116918842406}",
      "hasCurveFrom": true,
      "hasCurveTo": true,
      "point": "{1, 0.80536451169187484}"
    },
    {
      "_class": "curvePoint",
      "cornerRadius": 0,
      "curveFrom": "{0.12998624484179058, 0.73108665749654922}",
      "curveMode": 4,
      "curveTo": "{0.46354883081153686, 0.93535075653366551}",
      "hasCurveFrom": true,
      "hasCurveTo": true,
      "point": "{0.19532324621732483, 1}"
    }
  ],
  "resizingConstraint": 63,
  "resizingType": 0,
  "rotation": 0,
  "shouldBreakMaskChain": false,
  "style": {
    "_class": "style",
    "do_objectID": "09134229-4D3C-4070-86EA-169980B05D81",
    "endMarkerType": 0,
    "fills": [
      {
        "_class": "fill",
        "color": {
          "_class": "color",
          "alpha": 1,
          "blue": 0.1764705882352941,
          "green": 0.1764705882352941,
          "red": 0.1764705882352941
        },
        "fillType": 0,
        "isEnabled": true,
        "noiseIndex": 0,
        "noiseIntensity": 0,
        "patternFillType": 1,
        "patternTileScale": 1
      }
    ],
    "miterLimit": 10,
    "startMarkerType": 0,
    "windingRule": 1
  }
}