{
  "_class": "shapePath",
  "booleanOperation": -1,
  "clippingMaskMode": 0,
  "do_objectID": "03ECD993-E959-4F0A-8CA2-1ABFB7D7B59D",
  "edited": true,
  "exportOptions": {
    "_class": "exportOptions",
    "do_objectID": "CAC314A9-E73A-4733-8E6E-114944E31B6B",
    "exportFormats": [
    ],
    "includedLayerIds": [
    ],
    "layerOptions": 0,
    "shouldTrim": false
  },
  "frame": {
    "_class": "rect",
    "constrainProportions": false,
    "do_objectID": "C21C6B72-E935-4304-8AB5-C43CA7B68782",
    "height": 0.1058906030855535,
    "width": 0.1059863482545325,
    "x": 35.46458320872222,
    "y": 6.427281801604061
  },
  "hasClippingMask": false,
  "isClosed": true,
  "isFixedToViewport": false,
  "isFlippedHorizontal": false,
  "isFlippedVertical": false,
  "isLocked": false,
  "isVisible": true,
  "layerListExpandedType": 0,
  "name": "Path",
  "nameIsFixed": false,
  "pointRadiusBehaviour": 0,
  "points": [
    {
      "_class": "curvePoint",
      "cornerRadius": 0,
      "curveFrom": "{1.0408912097228722, 0.18632609084183116}",
      "curveMode": 3,
      "curveTo": "{0.27889120972287174, -0.088673909158202946}",
      "hasCurveFrom": true,
      "hasCurveTo": true,
      "point": "{0.54489120972289129, 0.007326090841800692}"
    },
    {
      "_class": "curvePoint",
      "cornerRadius": 0,
      "curveFrom": "{-0.3021087902770887, 0.78732609084183025}",
      "curveMode": 3,
      "curveTo": "{0.46389120972287401, 1.0643260908418171}",
      "hasCurveFrom": true,
      "hasCurveTo": true,
      "point": "{0.1938912097228922, 0.96632609084180388}"
    }
  ],
  "resizingConstraint": 63,
  "resizingType": 0,
  "rotation": 0,
  "shouldBreakMaskChain": false,
  "style": {
    "_class": "style",
    "do_objectID": "E6A90F1E-28B6-4E91-A461-6C51AA8E978F",
    "endMarkerType": 0,
    "fills": [
      {
        "_class": "fill",
        "color": {
          "_class": "color",
          "alpha": 1,
          "blue": 0.1764705882352941,
          "green": 0.1764705882352941,
          "red": 0.1764705882352941
        },
        "fillType": 0,
        "isEnabled": true,
        "noiseIndex": 0,
        "noiseIntensity": 0,
        "patternFillType": 1,
        "patternTileScale": 1
      }
    ],
    "miterLimit": 10,
    "startMarkerType": 0,
    "windingRule": 1
  }
}