{
  "_class": "shapePath",
  "booleanOperation": -1,
  "clippingMaskMode": 0,
  "do_objectID": "05FE34C8-96E6-4B90-BBEB-221231B201BA",
  "edited": true,
  "exportOptions": {
    "_class": "exportOptions",
    "do_objectID": "FC344463-D3E3-4A8B-9D72-9CAFE5D8FDD9",
    "exportFormats": [
    ],
    "includedLayerIds": [
    ],
    "layerOptions": 0,
    "shouldTrim": false
  },
  "frame": {
    "_class": "rect",
    "constrainProportions": false,
    "do_objectID": "65B76BEC-5A50-4761-9879-642CF38C92D5",
    "height": 0.1066436544203988,
    "width": 0.1059863482545502,
    "x": 26.9569802725218,
    "y": 13.16045608584237
  },
  "hasClippingMask": false,
  "isClosed": true,
  "isFixedToViewport": false,
  "isFlippedHorizontal": false,
  "isFlippedVertical": false,
  "isLocked": false,
  "isVisible": true,
  "layerListExpandedType": 0,
  "name": "Path",
  "nameIsFixed": false,
  "pointRadiusBehaviour": 0,
  "points": [
    {
      "_class": "curvePoint",
      "cornerRadius": 0,
      "curveFrom": "{0.12254724158492536, 0.014448669201525087}",
      "curveMode": 4,
      "curveTo": "{-0.12445275841508874, 0.26083650190111141}",
      "hasCurveFrom": true,
      "hasCurveTo": true,
      "point": "{0.027547241584898075, 0.10798479087452179}"
    },
    {
      "_class": "curvePoint",
      "cornerRadius": 0,
      "curveFrom": "{0.51654724158493082, 0.18783269961973967}",
      "curveMode": 4,
      "curveTo": "{0.49954724158493491, 0.082889733840289456}",
      "hasCurveFrom": true,
      "hasCurveTo": true,
      "point": "{0.61354724158491081, 0}"
    },
    {
      "_class": "curvePoint",
      "cornerRadius": 0,
      "curveFrom": "{0.80254724158493218, 0.98631178707222122}",
      "curveMode": 3,
      "curveTo": "{1.051547241584899, 0.73688212927756336}",
      "hasCurveFrom": true,
      "hasCurveTo": true,
      "point": "{0.89754724158490262, 0.89201520912547816}"
    },
    {
      "_class": "curvePoint",
      "cornerRadius": 0,
      "curveFrom": "{0.40654724158491717, 0.81292775665396333}",
      "curveMode": 4,
      "curveTo": "{0.42454724158494628, 0.91711026615966729}",
      "hasCurveFrom": true,
      "hasCurveTo": true,
      "point": "{0.31054724158491354, 1}"
    }
  ],
  "resizingConstraint": 63,
  "resizingType": 0,
  "rotation": 0,
  "shouldBreakMaskChain": false,
  "style": {
    "_class": "style",
    "do_objectID": "04FA848D-C027-4C90-93AF-22127BF79527",
    "endMarkerType": 0,
    "fills": [
      {
        "_class": "fill",
        "color": {
          "_class": "color",
          "alpha": 1,
          "blue": 0.1764705882352941,
          "green": 0.1764705882352941,
          "red": 0.1764705882352941
        },
        "fillType": 0,
        "isEnabled": true,
        "noiseIndex": 0,
        "noiseIntensity": 0,
        "patternFillType": 1,
        "patternTileScale": 1
      }
    ],
    "miterLimit": 10,
    "startMarkerType": 0,
    "windingRule": 1
  }
}