{
  "_class": "shapePath",
  "booleanOperation": -1,
  "clippingMaskMode": 0,
  "do_objectID": "07BAC8CD-0333-4018-A0E6-B8B483CA06E4",
  "edited": true,
  "exportOptions": {
    "_class": "exportOptions",
    "do_objectID": "54D04094-CB84-475A-8FB9-371F27342050",
    "exportFormats": [
    ],
    "includedLayerIds": [
    ],
    "layerOptions": 0,
    "shouldTrim": false
  },
  "frame": {
    "_class": "rect",
    "constrainProportions": false,
    "do_objectID": "0A8D930E-662A-4A42-B34C-0867C7995A22",
    "height": 0.3071178910900905,
    "width": 0.2172082036897791,
    "x": 21.06684864695849,
    "y": 21.06530507430396
  },
  "hasClippingMask": false,
  "isClosed": true,
  "isFixedToViewport": false,
  "isFlippedHorizontal": false,
  "isFlippedVertical": false,
  "isLocked": false,
  "isVisible": true,
  "layerListExpandedType": 0,
  "name": "Path",
  "nameIsFixed": false,
  "pointRadiusBehaviour": 0,
  "points": [
    {
      "_class": "curvePoint",
      "cornerRadius": 0,
      "curveFrom": "{0.65580364676331127, 0.34750544100243413}",
      "curveMode": 4,
      "curveTo": "{1.6102388338565767, 0.097967861782389004}",
      "hasCurveFrom": true,
      "hasCurveTo": true,
      "point": "{0.60647496833875592, 0.24927477489676703}"
    },
    {
      "_class": "curvePoint",
      "cornerRadius": 0,
      "curveFrom": "{0.48128476173099538, 0.51597631459226345}",
      "curveMode": 4,
      "curveTo": "{0.69429496401883728, 0.4436236196649736}",
      "hasCurveFrom": true,
      "hasCurveTo": true,
      "point": "{0.49025361235364179, 0.47583905317273362}"
    },
    {
      "_class": "curvePoint",
      "cornerRadius": 0,
      "curveFrom": "{0.55303556671216669, 0.70530800168301377}",
      "curveMode": 3,
      "curveTo": "{0.61133309575936845, 0.59228992347542331}",
      "hasCurveFrom": true,
      "hasCurveTo": true,
      "point": "{0.59190058607696083, 0.62978657559100992}"
    },
    {
      "_class": "curvePoint",
      "cornerRadius": 0,
      "curveFrom": "{0.20549260508462847, 0.87245857062087151}",
      "curveMode": 4,
      "curveTo": "{0.2193195831278662, 0.70504394075261345}",
      "hasCurveFrom": true,
      "hasCurveTo": true,
      "point": "{0.15579022455080507, 0.77396384358481907}"
    },
    {
      "_class": "curvePoint",
      "cornerRadius": 0,
      "curveFrom": "{-0.010133511968153762, 0.90203339482473321}",
      "curveMode": 4,
      "curveTo": "{0.24323651812159708, 0.96725644463143934}",
      "hasCurveFrom": true,
      "hasCurveTo": true,
      "point": "{0.039942570674958974, 1}"
    },
    {
      "_class": "curvePoint",
      "cornerRadius": 0,
      "curveFrom": "{0.16475907517345148, 0.73356252123490384}",
      "curveMode": 4,
      "curveTo": "{-0.048998531332947848, 0.8072355208141504}",
      "hasCurveFrom": true,
      "hasCurveTo": true,
      "point": "{0.15579022455080507, 0.77396384358481907}"
    },
    {
      "_class": "curvePoint",
      "cornerRadius": 0,
      "curveFrom": "{0.093381972301548183, 0.54449489507453896}",
      "curveMode": 4,
      "curveTo": "{0.03508444325434644, 0.65804109514291498}",
      "hasCurveFrom": true,
      "hasCurveTo": true,
      "point": "{0.05376954871819669, 0.62001632116652783}"
    },
    {
      "_class": "curvePoint",
      "cornerRadius": 0,
      "curveFrom": "{0.44092493392908644, 0.37813650892785217}",
      "curveMode": 4,
      "curveTo": "{0.42672425377655943, 0.5447589560049243}",
      "hasCurveFrom": true,
      "hasCurveTo": true,
      "point": "{0.49025361235364179, 0.47583905317273362}"
    },
    {
      "_class": "curvePoint",
      "cornerRadius": 0,
      "curveFrom": "{0.34563089606347353, -0.2265630216688293}",
      "curveMode": 4,
      "curveTo": "{0.40131251034573495, 0.28228239119571308}",
      "hasCurveFrom": true,
      "hasCurveTo": true,
      "point": "{0.60647496833875592, 0.24927477489676703}"
    }
  ],
  "resizingConstraint": 63,
  "resizingType": 0,
  "rotation": 0,
  "shouldBreakMaskChain": false,
  "style": {
    "_class": "style",
    "do_objectID": "CB638003-4A91-49D7-A4A2-E0CC63F972F0",
    "endMarkerType": 0,
    "fills": [
      {
        "_class": "fill",
        "color": {
          "_class": "color",
          "alpha": 1,
          "blue": 0.1764705882352941,
          "green": 0.1764705882352941,
          "red": 0.1764705882352941
        },
        "fillType": 0,
        "isEnabled": true,
        "noiseIndex": 0,
        "noiseIntensity": 0,
        "patternFillType": 1,
        "patternTileScale": 1
      }
    ],
    "miterLimit": 10,
    "startMarkerType": 0,
    "windingRule": 1
  }
}