{
  "_class": "shapePath",
  "booleanOperation": -1,
  "clippingMaskMode": 0,
  "do_objectID": "16FD45E6-149C-4F25-8F6C-EF7E657AB606",
  "edited": true,
  "exportOptions": {
    "_class": "exportOptions",
    "do_objectID": "A1152A5A-E39A-41BC-817C-F33FBADFE4A2",
    "exportFormats": [
    ],
    "includedLayerIds": [
    ],
    "layerOptions": 0,
    "shouldTrim": false
  },
  "frame": {
    "_class": "rect",
    "constrainProportions": false,
    "do_objectID": "4CAFC9D8-9E94-4038-9A14-7E5F5795C12B",
    "height": 0.105890603085566,
    "width": 0.1673899417755962,
    "x": 32.97245730491811,
    "y": 31.60954659070761
  },
  "hasClippingMask": false,
  "isClosed": true,
  "isFixedToViewport": false,
  "isFlippedHorizontal": false,
  "isFlippedVertical": false,
  "isLocked": false,
  "isVisible": true,
  "layerListExpandedType": 0,
  "name": "Path",
  "nameIsFixed": false,
  "pointRadiusBehaviour": 0,
  "points": [
    {
      "_class": "curvePoint",
      "cornerRadius": 0,
      "curveFrom": "{0.23470253288146756, 0.623227088143949}",
      "curveMode": 4,
      "curveTo": "{0.86995112394497054, 2.1822270881439181}",
      "hasCurveFrom": true,
      "hasCurveTo": true,
      "point": "{0.41606358101716584, 0.48822708814390126}"
    },
    {
      "_class": "curvePoint",
      "cornerRadius": 0,
      "curveFrom": "{0.18087612554708407, 0.042227088143931724}",
      "curveMode": 4,
      "curveTo": "{0.061100246163375824, 0.7232270881439149}",
      "hasCurveFrom": true,
      "hasCurveTo": true,
      "point": "{0, 0.17722708814392263}"
    },
    {
      "_class": "curvePoint",
      "cornerRadius": 0,
      "curveFrom": "{1.4644662175662322, -1.2037729118560492}",
      "curveMode": 4,
      "curveTo": "{0.35447841226520338, -0.057772911856091014}",
      "hasCurveFrom": true,
      "hasCurveTo": true,
      "point": "{0.41606358101716584, 0.48822708814390126}"
    }
  ],
  "resizingConstraint": 63,
  "resizingType": 0,
  "rotation": 0,
  "shouldBreakMaskChain": false,
  "style": {
    "_class": "style",
    "do_objectID": "C3488B83-074A-463B-B497-29886C83A66C",
    "endMarkerType": 0,
    "fills": [
      {
        "_class": "fill",
        "color": {
          "_class": "color",
          "alpha": 1,
          "blue": 0.1764705882352941,
          "green": 0.1764705882352941,
          "red": 0.1764705882352941
        },
        "fillType": 0,
        "isEnabled": true,
        "noiseIndex": 0,
        "noiseIntensity": 0,
        "patternFillType": 1,
        "patternTileScale": 1
      }
    ],
    "miterLimit": 10,
    "startMarkerType": 0,
    "windingRule": 1
  }
}