{
  "_class": "shapePath",
  "booleanOperation": -1,
  "clippingMaskMode": 0,
  "do_objectID": "1CB72705-3DC6-4E9E-994C-7AA388778609",
  "edited": true,
  "exportOptions": {
    "_class": "exportOptions",
    "do_objectID": "EB4900DE-A4D6-404F-AC8D-2279FD27CD69",
    "exportFormats": [
    ],
    "includedLayerIds": [
    ],
    "layerOptions": 0,
    "shouldTrim": false
  },
  "frame": {
    "_class": "rect",
    "constrainProportions": false,
    "do_objectID": "664F46BB-0DD0-490E-A0E1-EC1940A0CF36",
    "height": 0.1058906030855589,
    "width": 0.1059863482545564,
    "x": 6.585950058787255,
    "y": 10.07114700636579
  },
  "hasClippingMask": false,
  "isClosed": true,
  "isFixedToViewport": false,
  "isFlippedHorizontal": false,
  "isFlippedVertical": false,
  "isLocked": false,
  "isVisible": true,
  "layerListExpandedType": 0,
  "name": "Path",
  "nameIsFixed": false,
  "pointRadiusBehaviour": 0,
  "points": [
    {
      "_class": "curvePoint",
      "cornerRadius": 0,
      "curveFrom": "{1.0424270509503515, 0.18960680286583909}",
      "curveMode": 3,
      "curveTo": "{0.27642705095034614, -0.090393197134190473}",
      "hasCurveFrom": true,
      "hasCurveTo": true,
      "point": "{0.54442705095034682, 0.0076068028658227149}"
    },
    {
      "_class": "curvePoint",
      "cornerRadius": 0,
      "curveFrom": "{-0.3015729490496426, 0.78760680286579543}",
      "curveMode": 3,
      "curveTo": "{0.46142705095034842, 1.0636068028658059}",
      "hasCurveFrom": true,
      "hasCurveTo": true,
      "point": "{0.19442705095035251, 0.96860680286583545}"
    }
  ],
  "resizingConstraint": 63,
  "resizingType": 0,
  "rotation": 0,
  "shouldBreakMaskChain": false,
  "style": {
    "_class": "style",
    "do_objectID": "80EEFABF-BBC0-4E82-8B91-BAC065C9888C",
    "endMarkerType": 0,
    "fills": [
      {
        "_class": "fill",
        "color": {
          "_class": "color",
          "alpha": 1,
          "blue": 0.1764705882352941,
          "green": 0.1764705882352941,
          "red": 0.1764705882352941
        },
        "fillType": 0,
        "isEnabled": true,
        "noiseIndex": 0,
        "noiseIntensity": 0,
        "patternFillType": 1,
        "patternTileScale": 1
      }
    ],
    "miterLimit": 10,
    "startMarkerType": 0,
    "windingRule": 1
  }
}