{
  "_class": "shapePath",
  "booleanOperation": -1,
  "clippingMaskMode": 0,
  "do_objectID": "211D0193-6576-4C13-9B8C-C0B3795881D3",
  "edited": true,
  "exportOptions": {
    "_class": "exportOptions",
    "do_objectID": "53A8AC3D-1A2C-4F85-AFC6-F6699D7C30E7",
    "exportFormats": [
    ],
    "includedLayerIds": [
    ],
    "layerOptions": 0,
    "shouldTrim": false
  },
  "frame": {
    "_class": "rect",
    "constrainProportions": false,
    "do_objectID": "155CD11A-3863-4C71-A5FA-10BE40F3210F",
    "height": 0.1058906030855546,
    "width": 0.1059863482545644,
    "x": 17.33322231708116,
    "y": 1.28958685884704
  },
  "hasClippingMask": false,
  "isClosed": true,
  "isFixedToViewport": false,
  "isFlippedHorizontal": false,
  "isFlippedVertical": false,
  "isLocked": false,
  "isVisible": true,
  "layerListExpandedType": 0,
  "name": "Path",
  "nameIsFixed": false,
  "pointRadiusBehaviour": 0,
  "points": [
    {
      "_class": "curvePoint",
      "cornerRadius": 0,
      "curveFrom": "{-0.25816206751812842, 0.51613906502879736}",
      "curveMode": 3,
      "curveTo": "{0.32083793248187931, 0.869139065028806}",
      "hasCurveFrom": true,
      "hasCurveTo": true,
      "point": "{0.11983793248185748, 0.7451390650288392}"
    },
    {
      "_class": "curvePoint",
      "cornerRadius": 0,
      "curveFrom": "{0.9388379324818743, 0.2481390650288251}",
      "curveMode": 3,
      "curveTo": "{0.36083793248187135, -0.10786093497116944}",
      "hasCurveFrom": true,
      "hasCurveTo": true,
      "point": "{0.56283793248186953, 0.016139065028797361}"
    }
  ],
  "resizingConstraint": 63,
  "resizingType": 0,
  "rotation": 0,
  "shouldBreakMaskChain": false,
  "style": {
    "_class": "style",
    "do_objectID": "7DA878CE-5308-4C01-849D-5AAF5E4E168D",
    "endMarkerType": 0,
    "fills": [
      {
        "_class": "fill",
        "color": {
          "_class": "color",
          "alpha": 1,
          "blue": 0.1764705882352941,
          "green": 0.1764705882352941,
          "red": 0.1764705882352941
        },
        "fillType": 0,
        "isEnabled": true,
        "noiseIndex": 0,
        "noiseIntensity": 0,
        "patternFillType": 1,
        "patternTileScale": 1
      }
    ],
    "miterLimit": 10,
    "startMarkerType": 0,
    "windingRule": 1
  }
}