{
  "_class": "shapePath",
  "booleanOperation": -1,
  "clippingMaskMode": 0,
  "do_objectID": "33490F82-2CA5-4BD1-9CD9-9226BA74753D",
  "edited": true,
  "exportOptions": {
    "_class": "exportOptions",
    "do_objectID": "9D16A4B6-35DC-4EF5-A20A-214597E2E0BD",
    "exportFormats": [
    ],
    "includedLayerIds": [
    ],
    "layerOptions": 0,
    "shouldTrim": false
  },
  "frame": {
    "_class": "rect",
    "constrainProportions": false,
    "do_objectID": "A3C43EDE-DBEB-4676-9C19-E47B65D4C875",
    "height": 0.1181595471411434,
    "width": 0.1183475569240464,
    "x": 31.60366796855963,
    "y": 28.99261893520754
  },
  "hasClippingMask": false,
  "isClosed": true,
  "isFixedToViewport": false,
  "isFlippedHorizontal": false,
  "isFlippedVertical": false,
  "isLocked": false,
  "isVisible": true,
  "layerListExpandedType": 0,
  "name": "Path",
  "nameIsFixed": false,
  "pointRadiusBehaviour": 0,
  "points": [
    {
      "_class": "curvePoint",
      "cornerRadius": 0,
      "curveFrom": "{0.73182441700959366, 0.87028140013729216}",
      "curveMode": 4,
      "curveTo": "{0.93484224965704699, 0.5353466026081215}",
      "hasCurveFrom": true,
      "hasCurveTo": true,
      "point": "{1, 0.80507892930679958}"
    },
    {
      "_class": "curvePoint",
      "cornerRadius": 0,
      "curveFrom": "{0.12894375857337773, 0.73026767330132192}",
      "curveMode": 4,
      "curveTo": "{0.46159122085047288, 0.93548387096778474}",
      "hasCurveFrom": true,
      "hasCurveTo": true,
      "point": "{0.19478737997255596, 1}"
    },
    {
      "_class": "curvePoint",
      "cornerRadius": 0,
      "curveFrom": "{0.2661179698216527, 0.12971859986274686}",
      "curveMode": 4,
      "curveTo": "{0.063786008230463667, 0.46190803019904236}",
      "hasCurveFrom": true,
      "hasCurveTo": true,
      "point": "{0, 0.19492107069320044}"
    },
    {
      "_class": "curvePoint",
      "cornerRadius": 0,
      "curveFrom": "{0.86968449931413294, 0.26698695950584195}",
      "curveMode": 4,
      "curveTo": "{0.53703703703703776, 0.06520247083049259}",
      "hasCurveFrom": true,
      "hasCurveTo": true,
      "point": "{0.80521262002740501, 0}"
    }
  ],
  "resizingConstraint": 63,
  "resizingType": 0,
  "rotation": 0,
  "shouldBreakMaskChain": false,
  "style": {
    "_class": "style",
    "do_objectID": "7898DA3E-8CEA-42C2-A3BA-3B68EA9E8123",
    "endMarkerType": 0,
    "fills": [
      {
        "_class": "fill",
        "color": {
          "_class": "color",
          "alpha": 1,
          "blue": 0.1764705882352941,
          "green": 0.1764705882352941,
          "red": 0.1764705882352941
        },
        "fillType": 0,
        "isEnabled": true,
        "noiseIndex": 0,
        "noiseIntensity": 0,
        "patternFillType": 1,
        "patternTileScale": 1
      }
    ],
    "miterLimit": 10,
    "startMarkerType": 0,
    "windingRule": 1
  }
}