{
  "_class": "shapePath",
  "booleanOperation": -1,
  "clippingMaskMode": 0,
  "do_objectID": "34123A0D-5469-459C-890D-510316804208",
  "edited": true,
  "exportOptions": {
    "_class": "exportOptions",
    "do_objectID": "0DADCBF4-F270-43C6-9114-56F9FA33DFE4",
    "exportFormats": [
    ],
    "includedLayerIds": [
    ],
    "layerOptions": 0,
    "shouldTrim": false
  },
  "frame": {
    "_class": "rect",
    "constrainProportions": false,
    "do_objectID": "599F6D1F-6CCC-4923-88D1-67EF2C3ED3AF",
    "height": 0.1058906030855535,
    "width": 0.1059863482545644,
    "x": 24.75574635627604,
    "y": 14.14620970868771
  },
  "hasClippingMask": false,
  "isClosed": true,
  "isFixedToViewport": false,
  "isFlippedHorizontal": false,
  "isFlippedVertical": false,
  "isLocked": false,
  "isVisible": true,
  "layerListExpandedType": 0,
  "name": "Path",
  "nameIsFixed": false,
  "pointRadiusBehaviour": 0,
  "points": [
    {
      "_class": "curvePoint",
      "cornerRadius": 0,
      "curveFrom": "{1.0399697363164933, 0.18988377591108474}",
      "curveMode": 4,
      "curveTo": "{0.27596973631648325, -0.086116224088925719}",
      "hasCurveFrom": true,
      "hasCurveTo": true,
      "point": "{0.5419697363165028, 0.006883775911092016}"
    },
    {
      "_class": "curvePoint",
      "cornerRadius": 0,
      "curveFrom": "{-0.30003026368348173, 0.79088377591108383}",
      "curveMode": 4,
      "curveTo": "{0.45896973631653282, 1.0678837759110706}",
      "hasCurveFrom": true,
      "hasCurveTo": true,
      "point": "{0.19296973631651326, 0.96788377591110475}"
    }
  ],
  "resizingConstraint": 63,
  "resizingType": 0,
  "rotation": 0,
  "shouldBreakMaskChain": false,
  "style": {
    "_class": "style",
    "do_objectID": "9854C1DB-7BEE-440E-ABE9-843459F19AF2",
    "endMarkerType": 0,
    "fills": [
      {
        "_class": "fill",
        "color": {
          "_class": "color",
          "alpha": 1,
          "blue": 0.1764705882352941,
          "green": 0.1764705882352941,
          "red": 0.1764705882352941
        },
        "fillType": 0,
        "isEnabled": true,
        "noiseIndex": 0,
        "noiseIntensity": 0,
        "patternFillType": 1,
        "patternTileScale": 1
      }
    ],
    "miterLimit": 10,
    "startMarkerType": 0,
    "windingRule": 1
  }
}