{
  "_class": "shapePath",
  "booleanOperation": -1,
  "clippingMaskMode": 0,
  "do_objectID": "38C6DC12-8626-42D1-9D07-AD7E8B7A814C",
  "edited": true,
  "exportOptions": {
    "_class": "exportOptions",
    "do_objectID": "D44F960D-6676-45BA-912B-9E99C00CD4C8",
    "exportFormats": [
    ],
    "includedLayerIds": [
    ],
    "layerOptions": 0,
    "shouldTrim": false
  },
  "frame": {
    "_class": "rect",
    "constrainProportions": false,
    "do_objectID": "44A91FDA-6DC2-4B88-91DC-AEF95CD37C2A",
    "height": 0.1058906030855731,
    "width": 0.1059863482545467,
    "x": 43.53141297981676,
    "y": 18.48351850889713
  },
  "hasClippingMask": false,
  "isClosed": true,
  "isFixedToViewport": false,
  "isFlippedHorizontal": false,
  "isFlippedVertical": false,
  "isLocked": false,
  "isVisible": true,
  "layerListExpandedType": 0,
  "name": "Path",
  "nameIsFixed": false,
  "pointRadiusBehaviour": 0,
  "points": [
    {
      "_class": "curvePoint",
      "cornerRadius": 0,
      "curveFrom": "{-0.26959548508580156, 0.70046043555009874}",
      "curveMode": 4,
      "curveTo": "{0.40940451491417207, 0.95046043555009874}",
      "hasCurveFrom": true,
      "hasCurveTo": true,
      "point": "{0.17440451491415843, 0.86046043555012375}"
    },
    {
      "_class": "curvePoint",
      "cornerRadius": 0,
      "curveFrom": "{0.92840451491417753, 0.1674604355501117}",
      "curveMode": 3,
      "curveTo": "{0.24640451491416115, -0.078539564449897625}",
      "hasCurveFrom": true,
      "hasCurveTo": true,
      "point": "{0.48240451491415115, 0.0064604355501103328}"
    }
  ],
  "resizingConstraint": 63,
  "resizingType": 0,
  "rotation": 0,
  "shouldBreakMaskChain": false,
  "style": {
    "_class": "style",
    "do_objectID": "82D2B556-033C-421D-B50F-28CD8C22ED7C",
    "endMarkerType": 0,
    "fills": [
      {
        "_class": "fill",
        "color": {
          "_class": "color",
          "alpha": 1,
          "blue": 0.1764705882352941,
          "green": 0.1764705882352941,
          "red": 0.1764705882352941
        },
        "fillType": 0,
        "isEnabled": true,
        "noiseIndex": 0,
        "noiseIntensity": 0,
        "patternFillType": 1,
        "patternTileScale": 1
      }
    ],
    "miterLimit": 10,
    "startMarkerType": 0,
    "windingRule": 1
  }
}