{
  "_class": "shapePath",
  "booleanOperation": -1,
  "clippingMaskMode": 0,
  "do_objectID": "3D6974BF-14A4-4413-AB2C-AAF877BE0E72",
  "edited": true,
  "exportOptions": {
    "_class": "exportOptions",
    "do_objectID": "4DB0D72E-1775-4758-B073-0452A7E0E2FB",
    "exportFormats": [
    ],
    "includedLayerIds": [
    ],
    "layerOptions": 0,
    "shouldTrim": false
  },
  "frame": {
    "_class": "rect",
    "constrainProportions": false,
    "do_objectID": "70B3D4EA-482F-4AB5-9485-9F243FD1D2B6",
    "height": 3.874368019985187,
    "width": 3.380129605920601,
    "x": 27.60663751721862,
    "y": 28.45502137995821
  },
  "hasClippingMask": false,
  "isClosed": true,
  "isFixedToViewport": false,
  "isFlippedHorizontal": false,
  "isFlippedVertical": false,
  "isLocked": false,
  "isVisible": true,
  "layerListExpandedType": 0,
  "name": "Path",
  "nameIsFixed": false,
  "pointRadiusBehaviour": 0,
  "points": [
    {
      "_class": "curvePoint",
      "cornerRadius": 0,
      "curveFrom": "{0.08020748282983603, 0.35291162557039302}",
      "curveMode": 2,
      "curveTo": "{0.070049469285817928, 0.34966718298656141}",
      "hasCurveFrom": true,
      "hasCurveTo": true,
      "point": "{0.072330819845348462, 0.35039979905387769}"
    },
    {
      "_class": "curvePoint",
      "cornerRadius": 0,
      "curveFrom": "{0.071730464434946045, 0.36683133084941549}",
      "curveMode": 4,
      "curveTo": "{0.076797464098747326, 0.36168208649055966}",
      "hasCurveFrom": false,
      "hasCurveTo": true,
      "point": "{0.071730464434946045, 0.36683133084941549}"
    },
    {
      "_class": "curvePoint",
      "cornerRadius": 0,
      "curveFrom": "{0.10743960424571458, 0.42047975886465488}",
      "curveMode": 4,
      "curveTo": "{0.10621487920849149, 0.42110771549378312}",
      "hasCurveFrom": true,
      "hasCurveTo": false,
      "point": "{0.10621487920849149, 0.42110771549378312}"
    },
    {
      "_class": "curvePoint",
      "cornerRadius": 0,
      "curveFrom": "{0.11327505883483123, 0.42376606522376198}",
      "curveMode": 4,
      "curveTo": "{0.10844820133519091, 0.41976807468497451}",
      "hasCurveFrom": true,
      "hasCurveTo": true,
      "point": "{0.10907257096201024, 0.41895173106710731}"
    },
    {
      "_class": "curvePoint",
      "cornerRadius": 0,
      "curveFrom": "{0.11212237644685751, 0.43042240549252708}",
      "curveMode": 4,
      "curveTo": "{0.11368330051390514, 0.42738728178507152}",
      "hasCurveFrom": false,
      "hasCurveTo": true,
      "point": "{0.11212237644685751, 0.43042240549252708}"
    },
    {
      "_class": "curvePoint",
      "cornerRadius": 0,
      "curveFrom": "{0.35312905239902126, 0.80721731485745429}",
      "curveMode": 4,
      "curveTo": "{0.35171221363046962, 0.80748942939674295}",
      "hasCurveFrom": true,
      "hasCurveTo": false,
      "point": "{0.35171221363046962, 0.80748942939674295}"
    },
    {
      "_class": "curvePoint",
      "cornerRadius": 0,
      "curveFrom": "{0.36520820325632841, 0.82551178465273967}",
      "curveMode": 4,
      "curveTo": "{0.35452187695115595, 0.80690333654288893}",
      "hasCurveFrom": true,
      "hasCurveTo": true,
      "point": "{0.35591470150329063, 0.80661029011596197}"
    },
    {
      "_class": "curvePoint",
      "cornerRadius": 0,
      "curveFrom": "{0.40682484030546162, 0.86854774563570081}",
      "curveMode": 4,
      "curveTo": "{0.38838192209788203, 0.82440239460794551}",
      "hasCurveFrom": true,
      "hasCurveTo": true,
      "point": "{0.39902021997022341, 0.8412525641562355}"
    },
    {
      "_class": "curvePoint",
      "cornerRadius": 0,
      "curveFrom": "{0.44061284280293972, 0.89060995520576047}",
      "curveMode": 4,
      "curveTo": "{0.44700062436962767, 0.84964625109892422}",
      "hasCurveFrom": true,
      "hasCurveTo": true,
      "point": "{0.44594399884731883, 0.88973081592497949}"
    },
    {
      "_class": "curvePoint",
      "cornerRadius": 0,
      "curveFrom": "{0.42032082993132042, 0.89460794574454672}",
      "curveMode": 4,
      "curveTo": "{0.43544978627347486, 0.89213798300330682}",
      "hasCurveFrom": true,
      "hasCurveTo": true,
      "point": "{0.43011863022909569, 0.89305898605936207}"
    },
    {
      "_class": "curvePoint",
      "cornerRadius": 0,
      "curveFrom": "{0.40723308198453551, 0.88389081927408164}",
      "curveMode": 4,
      "curveTo": "{0.41076317179770472, 0.8946707414074605}",
      "hasCurveFrom": true,
      "hasCurveTo": true,
      "point": "{0.41047500120071129, 0.88261397412818676}"
    },
    {
      "_class": "curvePoint",
      "cornerRadius": 0,
      "curveFrom": "{0.40250228135056015, 0.88740737639720313}",
      "curveMode": 4,
      "curveTo": "{0.40485567455934007, 0.8856281659480052}",
      "hasCurveFrom": false,
      "hasCurveTo": true,
      "point": "{0.40250228135056015, 0.88740737639720313}"
    },
    {
      "_class": "curvePoint",
      "cornerRadius": 0,
      "curveFrom": "{0.47404063205417635, 1}",
      "curveMode": 1,
      "curveTo": "{0.47404063205417635, 1}",
      "hasCurveFrom": false,
      "hasCurveTo": false,
      "point": "{0.47404063205417635, 1}"
    },
    {
      "_class": "curvePoint",
      "cornerRadius": 0,
      "curveFrom": "{0.64672686230248411, 0.91664922342696808}",
      "curveMode": 1,
      "curveTo": "{0.64672686230248411, 0.91664922342696808}",
      "hasCurveFrom": false,
      "hasCurveTo": false,
      "point": "{0.64672686230248411, 0.91664922342696808}"
    },
    {
      "_class": "curvePoint",
      "cornerRadius": 0,
      "curveFrom": "{0.39419336247058312, 0.51913174530079098}",
      "curveMode": 1,
      "curveTo": "{0.39419336247058312, 0.51913174530079098}",
      "hasCurveFrom": false,
      "hasCurveTo": false,
      "point": "{0.39419336247058312, 0.51913174530079098}"
    },
    {
      "_class": "curvePoint",
      "cornerRadius": 0,
      "curveFrom": "{0.57847845924787478, 0.66314313224766575}",
      "curveMode": 4,
      "curveTo": "{0.5700014408529861, 0.66661782559551175}",
      "hasCurveFrom": true,
      "hasCurveTo": false,
      "point": "{0.5700014408529861, 0.66661782559551175}"
    },
    {
      "_class": "curvePoint",
      "cornerRadius": 0,
      "curveFrom": "{0.5998270976418042, 0.66435718173064795}",
      "curveMode": 4,
      "curveTo": "{0.58695547764276479, 0.6597312345627323}",
      "hasCurveFrom": true,
      "hasCurveTo": true,
      "point": "{0.59543249603765469, 0.65625654121488619}"
    },
    {
      "_class": "curvePoint",
      "cornerRadius": 0,
      "curveFrom": "{0.60364535805196684, 0.68265165152593454}",
      "curveMode": 4,
      "curveTo": "{0.60419768502953819, 0.67252061790932227}",
      "hasCurveFrom": true,
      "hasCurveTo": true,
      "point": "{0.6085202439844396, 0.68066312220035941}"
    },
    {
      "_class": "curvePoint",
      "cornerRadius": 0,
      "curveFrom": "{0.59387157197060714, 0.68662871017708371}",
      "curveMode": 4,
      "curveTo": "{0.5987464579030799, 0.68464018085150857}",
      "hasCurveFrom": false,
      "hasCurveTo": true,
      "point": "{0.59387157197060714, 0.68662871017708371}"
    },
    {
      "_class": "curvePoint",
      "cornerRadius": 0,
      "curveFrom": "{0.78723404255319251, 0.84880897559341872}",
      "curveMode": 1,
      "curveTo": "{0.78723404255319251, 0.84880897559341872}",
      "hasCurveFrom": false,
      "hasCurveTo": false,
      "point": "{0.78723404255319251, 0.84880897559341872}"
    },
    {
      "_class": "curvePoint",
      "cornerRadius": 0,
      "curveFrom": "{1, 0.74611713484321973}",
      "curveMode": 1,
      "curveTo": "{1, 0.74611713484321973}",
      "hasCurveFrom": false,
      "hasCurveTo": false,
      "point": "{1, 0.74611713484321973}"
    },
    {
      "_class": "curvePoint",
      "cornerRadius": 0,
      "curveFrom": "{0.88826185101580224, 0.58282747938209056}",
      "curveMode": 4,
      "curveTo": "{0.88869410691129169, 0.57095909909155584}",
      "hasCurveFrom": true,
      "hasCurveTo": false,
      "point": "{0.88869410691129169, 0.57095909909155584}"
    },
    {
      "_class": "curvePoint",
      "cornerRadius": 0,
      "curveFrom": "{0.8783920080687776, 0.6104366391761199}",
      "curveMode": 4,
      "curveTo": "{0.88674895538158705, 0.59438188135806114}",
      "hasCurveFrom": true,
      "hasCurveTo": true,
      "point": "{0.87406944911387607, 0.60233599866035936}"
    },
    {
      "_class": "curvePoint",
      "cornerRadius": 0,
      "curveFrom": "{0.87399740646462809, 0.62935906560053601}",
      "curveMode": 4,
      "curveTo": "{0.88273858124009452, 0.61864193913007093}",
      "hasCurveFrom": true,
      "hasCurveTo": true,
      "point": "{0.88713318284424403, 0.6267007158705572}"
    },
    {
      "_class": "curvePoint",
      "cornerRadius": 0,
      "curveFrom": "{0.85951683396570855, 0.6464185540252021}",
      "curveMode": 4,
      "curveTo": "{0.87647087075548846, 0.63691547703771922}",
      "hasCurveFrom": true,
      "hasCurveTo": true,
      "point": "{0.8796167331059993, 0.64466027546364135}"
    },
    {
      "_class": "curvePoint",
      "cornerRadius": 0,
      "curveFrom": "{0.82131021564766404, 0.62655419265709367}",
      "curveMode": 4,
      "curveTo": "{0.84253878295951301, 0.64078787625068023}",
      "hasCurveFrom": true,
      "hasCurveTo": true,
      "point": "{0.83197252773642094, 0.6194792146355752}"
    },
    {
      "_class": "curvePoint",
      "cornerRadius": 0,
      "curveFrom": "{0.80704577109648989, 0.60474316573868669}",
      "curveMode": 4,
      "curveTo": "{0.81621920176744722, 0.6201071712647046}",
      "hasCurveFrom": true,
      "hasCurveTo": true,
      "point": "{0.8114403727006394, 0.61294846569263528}"
    },
    {
      "_class": "curvePoint",
      "cornerRadius": 0,
      "curveFrom": "{0.82193458527448338, 0.57818060032653773}",
      "curveMode": 4,
      "curveTo": "{0.80265116949234039, 0.59662159333528664}",
      "hasCurveFrom": true,
      "hasCurveTo": true,
      "point": "{0.79832861053743887, 0.58854188470716329}"
    },
    {
      "_class": "curvePoint",
      "cornerRadius": 0,
      "curveFrom": "{0.86657701359204686, 0.59318876376271612}",
      "curveMode": 4,
      "curveTo": "{0.83944094904183331, 0.582764683719178}",
      "hasCurveFrom": true,
      "hasCurveTo": true,
      "point": "{0.85344123721243093, 0.59580524971741944}"
    },
    {
      "_class": "curvePoint",
      "cornerRadius": 0,
      "curveFrom": "{0.86945871956198117, 0.57437099677648928}",
      "curveMode": 4,
      "curveTo": "{0.86415157773401896, 0.58559048855025742}",
      "hasCurveFrom": true,
      "hasCurveTo": true,
      "point": "{0.86090965851784318, 0.57784569012433529}"
    },
    {
      "_class": "curvePoint",
      "cornerRadius": 0,
      "curveFrom": "{0.88648479900100918, 0.56744254196843424}",
      "curveMode": 4,
      "curveTo": "{0.87798376638970366, 0.57091723531628036}",
      "hasCurveFrom": false,
      "hasCurveTo": true,
      "point": "{0.88648479900100918, 0.56744254196843424}"
    },
    {
      "_class": "curvePoint",
      "cornerRadius": 0,
      "curveFrom": "{0.52591133951299252, 0}",
      "curveMode": 1,
      "curveTo": "{0.52591133951299252, 0}",
      "hasCurveFrom": false,
      "hasCurveTo": false,
      "point": "{0.52591133951299252, 0}"
    },
    {
      "_class": "curvePoint",
      "cornerRadius": 0,
      "curveFrom": "{0.35322510926468481, 0.083371708460669061}",
      "curveMode": 1,
      "curveTo": "{0.35322510926468481, 0.083371708460669061}",
      "hasCurveFrom": false,
      "hasCurveTo": false,
      "point": "{0.35322510926468481, 0.083371708460669061}"
    },
    {
      "_class": "curvePoint",
      "cornerRadius": 0,
      "curveFrom": "{0.56942509965899923, 0.42364047389793558}",
      "curveMode": 1,
      "curveTo": "{0.56942509965899923, 0.42364047389793558}",
      "hasCurveFrom": false,
      "hasCurveTo": false,
      "point": "{0.56942509965899923, 0.42364047389793558}"
    },
    {
      "_class": "curvePoint",
      "cornerRadius": 0,
      "curveFrom": "{0.23507516449738353, 0.14045296604847782}",
      "curveMode": 1,
      "curveTo": "{0.23507516449738353, 0.14045296604847782}",
      "hasCurveFrom": false,
      "hasCurveTo": false,
      "point": "{0.23507516449738353, 0.14045296604847782}"
    },
    {
      "_class": "curvePoint",
      "cornerRadius": 0,
      "curveFrom": "{0, 0.25388286515677905}",
      "curveMode": 1,
      "curveTo": "{0, 0.25388286515677905}",
      "hasCurveFrom": false,
      "hasCurveTo": false,
      "point": "{0, 0.25388286515677905}"
    },
    {
      "_class": "curvePoint",
      "cornerRadius": 0,
      "curveFrom": "{0.066735507420392789, 0.35167664419977368}",
      "curveMode": 4,
      "curveTo": "{0.064021900965371428, 0.35464897224431663}",
      "hasCurveFrom": true,
      "hasCurveTo": false,
      "point": "{0.064021900965371428, 0.35464897224431663}"
    }
  ],
  "resizingConstraint": 63,
  "resizingType": 0,
  "rotation": 0,
  "shouldBreakMaskChain": false,
  "style": {
    "_class": "style",
    "do_objectID": "25182274-A5AC-4940-BF11-92DDA43E2F43",
    "endMarkerType": 0,
    "fills": [
      {
        "_class": "fill",
        "color": {
          "_class": "color",
          "alpha": 1,
          "blue": 0.1764705882352941,
          "green": 0.1764705882352941,
          "red": 0.1764705882352941
        },
        "fillType": 0,
        "isEnabled": true,
        "noiseIndex": 0,
        "noiseIntensity": 0,
        "patternFillType": 1,
        "patternTileScale": 1
      }
    ],
    "miterLimit": 10,
    "startMarkerType": 0,
    "windingRule": 1
  }
}