{
  "_class": "shapePath",
  "booleanOperation": -1,
  "clippingMaskMode": 0,
  "do_objectID": "41A3A5C2-11EF-4441-AE0A-EAE271337845",
  "edited": true,
  "exportOptions": {
    "_class": "exportOptions",
    "do_objectID": "55B74655-E0E7-4E34-9B98-4BF0C759AAB4",
    "exportFormats": [
    ],
    "includedLayerIds": [
    ],
    "layerOptions": 0,
    "shouldTrim": false
  },
  "frame": {
    "_class": "rect",
    "constrainProportions": false,
    "do_objectID": "62AFABA3-09FF-4787-AF7C-AECA31964309",
    "height": 0.1058906030855766,
    "width": 0.1059863482545538,
    "x": 32.16345603999678,
    "y": 32.89206912963732
  },
  "hasClippingMask": false,
  "isClosed": true,
  "isFixedToViewport": false,
  "isFlippedHorizontal": false,
  "isFlippedVertical": false,
  "isLocked": false,
  "isVisible": true,
  "layerListExpandedType": 0,
  "name": "Path",
  "nameIsFixed": false,
  "pointRadiusBehaviour": 0,
  "points": [
    {
      "_class": "curvePoint",
      "cornerRadius": 0,
      "curveFrom": "{-0.30339084547318862, 0.79171709354039876}",
      "curveMode": 3,
      "curveTo": "{0.46160915452679774, 1.0627170935404138}",
      "hasCurveFrom": true,
      "hasCurveTo": true,
      "point": "{0.19560915452677818, 0.96871709354041968}"
    },
    {
      "_class": "curvePoint",
      "cornerRadius": 0,
      "curveFrom": "{1.0396091545267723, 0.18571709354040422}",
      "curveMode": 4,
      "curveTo": "{0.27860915452680501, -0.091282906459582591}",
      "hasCurveFrom": true,
      "hasCurveTo": true,
      "point": "{0.54360915452679137, 0.0077170935404069496}"
    }
  ],
  "resizingConstraint": 63,
  "resizingType": 0,
  "rotation": 0,
  "shouldBreakMaskChain": false,
  "style": {
    "_class": "style",
    "do_objectID": "12417277-92F6-4A83-B21D-646904A71B4D",
    "endMarkerType": 0,
    "fills": [
      {
        "_class": "fill",
        "color": {
          "_class": "color",
          "alpha": 1,
          "blue": 0.1764705882352941,
          "green": 0.1764705882352941,
          "red": 0.1764705882352941
        },
        "fillType": 0,
        "isEnabled": true,
        "noiseIndex": 0,
        "noiseIntensity": 0,
        "patternFillType": 1,
        "patternTileScale": 1
      }
    ],
    "miterLimit": 10,
    "startMarkerType": 0,
    "windingRule": 1
  }
}