{
  "_class": "shapePath",
  "booleanOperation": -1,
  "clippingMaskMode": 0,
  "do_objectID": "44049DF4-30CA-469D-AE48-E9794AF8213F",
  "edited": true,
  "exportOptions": {
    "_class": "exportOptions",
    "do_objectID": "5FEAE856-3731-4785-B8DC-8636847AEE4E",
    "exportFormats": [
    ],
    "includedLayerIds": [
    ],
    "layerOptions": 0,
    "shouldTrim": false
  },
  "frame": {
    "_class": "rect",
    "constrainProportions": false,
    "do_objectID": "11B83ABB-C07D-4A27-BF33-715A48007492",
    "height": 0.1058906030855518,
    "width": 0.1059863482545715,
    "x": 27.44994405550561,
    "y": 13.35862250037366
  },
  "hasClippingMask": false,
  "isClosed": true,
  "isFixedToViewport": false,
  "isFlippedHorizontal": false,
  "isFlippedVertical": false,
  "isLocked": false,
  "isVisible": true,
  "layerListExpandedType": 0,
  "name": "Path",
  "nameIsFixed": false,
  "pointRadiusBehaviour": 0,
  "points": [
    {
      "_class": "curvePoint",
      "cornerRadius": 0,
      "curveFrom": "{0.92840797051809432, 0.16645250038632753}",
      "curveMode": 3,
      "curveTo": "{0.2484079705180875, -0.078547499613677019}",
      "hasCurveFrom": true,
      "hasCurveTo": true,
      "point": "{0.48340797051804429, 0.0064525003863593611}"
    },
    {
      "_class": "curvePoint",
      "cornerRadius": 0,
      "curveFrom": "{-0.26959202948194161, 0.70145250038635254}",
      "curveMode": 4,
      "curveTo": "{0.41140797051804157, 0.94745250038633344}",
      "hasCurveFrom": true,
      "hasCurveTo": true,
      "point": "{0.17340797051804202, 0.86345250038633026}"
    }
  ],
  "resizingConstraint": 63,
  "resizingType": 0,
  "rotation": 0,
  "shouldBreakMaskChain": false,
  "style": {
    "_class": "style",
    "do_objectID": "96E0E83B-0CCB-40BE-B125-91A16BABA765",
    "endMarkerType": 0,
    "fills": [
      {
        "_class": "fill",
        "color": {
          "_class": "color",
          "alpha": 1,
          "blue": 0.1764705882352941,
          "green": 0.1764705882352941,
          "red": 0.1764705882352941
        },
        "fillType": 0,
        "isEnabled": true,
        "noiseIndex": 0,
        "noiseIntensity": 0,
        "patternFillType": 1,
        "patternTileScale": 1
      }
    ],
    "miterLimit": 10,
    "startMarkerType": 0,
    "windingRule": 1
  }
}