{
  "_class": "shapePath",
  "booleanOperation": -1,
  "clippingMaskMode": 0,
  "do_objectID": "45C5D873-FAA4-4886-9A56-51E29FB4282F",
  "edited": true,
  "exportOptions": {
    "_class": "exportOptions",
    "do_objectID": "AC203A2F-324F-41ED-9C80-4329DCFB1B9F",
    "exportFormats": [
    ],
    "includedLayerIds": [
    ],
    "layerOptions": 0,
    "shouldTrim": false
  },
  "frame": {
    "_class": "rect",
    "constrainProportions": false,
    "do_objectID": "C4A85FD2-613A-455A-864D-2E23C4FE800B",
    "height": 0.1058906030856015,
    "width": 0.2389412363458554,
    "x": 17.44110993151709,
    "y": 18.94151532946116
  },
  "hasClippingMask": false,
  "isClosed": true,
  "isFixedToViewport": false,
  "isFlippedHorizontal": false,
  "isFlippedVertical": false,
  "isLocked": false,
  "isVisible": true,
  "layerListExpandedType": 0,
  "name": "Path",
  "nameIsFixed": false,
  "pointRadiusBehaviour": 0,
  "points": [
    {
      "_class": "curvePoint",
      "cornerRadius": 0,
      "curveFrom": "{0.55736543883716338, 0.70833333333332693}",
      "curveMode": 4,
      "curveTo": "{0.94123980299918397, 0.46913580246913145}",
      "hasCurveFrom": true,
      "hasCurveTo": true,
      "point": "{0.82302008731034437, 0.56250000000000133}"
    },
    {
      "_class": "curvePoint",
      "cornerRadius": 0,
      "curveFrom": "{-0.051398154594999725, 0.6373456790123524}",
      "curveMode": 4,
      "curveTo": "{0.29239021401736009, 0.85416666666665253}",
      "hasCurveFrom": true,
      "hasCurveTo": true,
      "point": "{0.025716430064098069, 1}"
    },
    {
      "_class": "curvePoint",
      "cornerRadius": 0,
      "curveFrom": "{0.44254284141524119, 0.29166666666667307}",
      "curveMode": 4,
      "curveTo": "{0.05832876542652693, 0.53009259259259323}",
      "hasCurveFrom": true,
      "hasCurveTo": true,
      "point": "{0.17756761659543793, 0.43827160493827388}"
    },
    {
      "_class": "curvePoint",
      "cornerRadius": 0,
      "curveFrom": "{1.0519858585007917, 0.36651234567902402}",
      "curveMode": 4,
      "curveTo": "{0.70819748988843179, 0.14660493827160084}",
      "hasCurveFrom": true,
      "hasCurveTo": true,
      "point": "{0.97385213836162243, 0}"
    }
  ],
  "resizingConstraint": 63,
  "resizingType": 0,
  "rotation": 0,
  "shouldBreakMaskChain": false,
  "style": {
    "_class": "style",
    "do_objectID": "B57A54F2-0556-403A-9BD9-4F6B80BB22FA",
    "endMarkerType": 0,
    "fills": [
      {
        "_class": "fill",
        "color": {
          "_class": "color",
          "alpha": 1,
          "blue": 0.1764705882352941,
          "green": 0.1764705882352941,
          "red": 0.1764705882352941
        },
        "fillType": 0,
        "isEnabled": true,
        "noiseIndex": 0,
        "noiseIntensity": 0,
        "patternFillType": 1,
        "patternTileScale": 1
      }
    ],
    "miterLimit": 10,
    "startMarkerType": 0,
    "windingRule": 1
  }
}