{
  "_class": "shapePath",
  "booleanOperation": -1,
  "clippingMaskMode": 0,
  "do_objectID": "47140984-C5CF-4970-8779-AE9383003915",
  "edited": true,
  "exportOptions": {
    "_class": "exportOptions",
    "do_objectID": "C647F4A5-6635-4562-8B08-937A5C262F81",
    "exportFormats": [
    ],
    "includedLayerIds": [
    ],
    "layerOptions": 0,
    "shouldTrim": false
  },
  "frame": {
    "_class": "rect",
    "constrainProportions": false,
    "do_objectID": "7E81969A-4537-4B08-8E8B-B232A660607C",
    "height": 0.105890603085566,
    "width": 0.1059863482545644,
    "x": 21.65150749613379,
    "y": 21.14999922714058
  },
  "hasClippingMask": false,
  "isClosed": true,
  "isFixedToViewport": false,
  "isFlippedHorizontal": false,
  "isFlippedVertical": false,
  "isLocked": false,
  "isVisible": true,
  "layerListExpandedType": 0,
  "name": "Path",
  "nameIsFixed": false,
  "pointRadiusBehaviour": 0,
  "points": [
    {
      "_class": "curvePoint",
      "cornerRadius": 0,
      "curveFrom": "{1.0550934282664457, 0.27665934895924238}",
      "curveMode": 3,
      "curveTo": "{0.40709342826647799, -0.11934065104077263}",
      "hasCurveFrom": true,
      "hasCurveTo": true,
      "point": "{0.63209342826644388, 0.017659348959227827}"
    },
    {
      "_class": "curvePoint",
      "cornerRadius": 0,
      "curveFrom": "{-0.28990657173352474, 0.5776593489592301}",
      "curveMode": 3,
      "curveTo": "{0.35909342826647617, 0.97265934895926875}",
      "hasCurveFrom": true,
      "hasCurveTo": true,
      "point": "{0.13409342826645343, 0.83665934895924465}"
    }
  ],
  "resizingConstraint": 63,
  "resizingType": 0,
  "rotation": 0,
  "shouldBreakMaskChain": false,
  "style": {
    "_class": "style",
    "do_objectID": "EBDB1261-E4B8-4EB2-BBBD-72CEEFBA2DB8",
    "endMarkerType": 0,
    "fills": [
      {
        "_class": "fill",
        "color": {
          "_class": "color",
          "alpha": 1,
          "blue": 0.1764705882352941,
          "green": 0.1764705882352941,
          "red": 0.1764705882352941
        },
        "fillType": 0,
        "isEnabled": true,
        "noiseIndex": 0,
        "noiseIntensity": 0,
        "patternFillType": 1,
        "patternTileScale": 1
      }
    ],
    "miterLimit": 10,
    "startMarkerType": 0,
    "windingRule": 1
  }
}