{
  "_class": "shapePath",
  "booleanOperation": -1,
  "clippingMaskMode": 0,
  "do_objectID": "5060F923-C287-4D39-AC4D-0250673ECBB6",
  "edited": true,
  "exportOptions": {
    "_class": "exportOptions",
    "do_objectID": "1DA83083-3C12-4D15-9CE8-82058ECE3383",
    "exportFormats": [
    ],
    "includedLayerIds": [
    ],
    "layerOptions": 0,
    "shouldTrim": false
  },
  "frame": {
    "_class": "rect",
    "constrainProportions": false,
    "do_objectID": "F705A8E3-E472-4339-9018-3E45C53F8116",
    "height": 0.1058906030855553,
    "width": 0.1059863482545573,
    "x": 27.72850379633744,
    "y": 24.85530726009392
  },
  "hasClippingMask": false,
  "isClosed": true,
  "isFixedToViewport": false,
  "isFlippedHorizontal": false,
  "isFlippedVertical": false,
  "isLocked": false,
  "isVisible": true,
  "layerListExpandedType": 0,
  "name": "Path",
  "nameIsFixed": false,
  "pointRadiusBehaviour": 0,
  "points": [
    {
      "_class": "curvePoint",
      "cornerRadius": 0,
      "curveFrom": "{0.93765058837476545, 0.2463017419374296}",
      "curveMode": 4,
      "curveTo": "{0.36265058837477682, -0.10469825806256949}",
      "hasCurveFrom": true,
      "hasCurveTo": true,
      "point": "{0.5636505883747418, 0.015301741937435054}"
    },
    {
      "_class": "curvePoint",
      "cornerRadius": 0,
      "curveFrom": "{-0.25734941162522773, 0.5133017419374255}",
      "curveMode": 4,
      "curveTo": "{0.3206505883747468, 0.86430174193742459}",
      "hasCurveFrom": true,
      "hasCurveTo": true,
      "point": "{0.11865058837474862, 0.7463017419374296}"
    }
  ],
  "resizingConstraint": 63,
  "resizingType": 0,
  "rotation": 0,
  "shouldBreakMaskChain": false,
  "style": {
    "_class": "style",
    "do_objectID": "4B9325C9-57D6-4E0B-AE68-D7DE4C08D7ED",
    "endMarkerType": 0,
    "fills": [
      {
        "_class": "fill",
        "color": {
          "_class": "color",
          "alpha": 1,
          "blue": 0.1764705882352941,
          "green": 0.1764705882352941,
          "red": 0.1764705882352941
        },
        "fillType": 0,
        "isEnabled": true,
        "noiseIndex": 0,
        "noiseIntensity": 0,
        "patternFillType": 1,
        "patternTileScale": 1
      }
    ],
    "miterLimit": 10,
    "startMarkerType": 0,
    "windingRule": 1
  }
}