{
  "_class": "shapePath",
  "booleanOperation": -1,
  "clippingMaskMode": 0,
  "do_objectID": "55B6AF96-FC19-41CF-972F-2F6ABDAE182F",
  "edited": true,
  "exportOptions": {
    "_class": "exportOptions",
    "do_objectID": "1C645DAA-3E2A-4ABE-A3D7-E91ED9C0FCB6",
    "exportFormats": [
    ],
    "includedLayerIds": [
    ],
    "layerOptions": 0,
    "shouldTrim": false
  },
  "frame": {
    "_class": "rect",
    "constrainProportions": false,
    "do_objectID": "BFA5EF46-09C6-4D46-B6B8-181D12DCB064",
    "height": 0.1058906030855553,
    "width": 0.105986348254568,
    "x": 38.53714814556481,
    "y": 15.35055718451977
  },
  "hasClippingMask": false,
  "isClosed": true,
  "isFixedToViewport": false,
  "isFlippedHorizontal": false,
  "isFlippedVertical": false,
  "isLocked": false,
  "isVisible": true,
  "layerListExpandedType": 0,
  "name": "Path",
  "nameIsFixed": false,
  "pointRadiusBehaviour": 0,
  "points": [
    {
      "_class": "curvePoint",
      "cornerRadius": 0,
      "curveFrom": "{1.0419790385777219, 0.1893336955859013}",
      "curveMode": 3,
      "curveTo": "{0.27897903857774509, -0.088666304414118713}",
      "hasCurveFrom": true,
      "hasCurveTo": true,
      "point": "{0.54397903857773144, 0.0073336955858849251}"
    },
    {
      "_class": "curvePoint",
      "cornerRadius": 0,
      "curveFrom": "{-0.30302096142224855, 0.78633369558588129}",
      "curveMode": 3,
      "curveTo": "{0.46097903857776146, 1.0623336955858917}",
      "hasCurveFrom": true,
      "hasCurveTo": true,
      "point": "{0.1949790385777419, 0.96633369558588811}"
    }
  ],
  "resizingConstraint": 63,
  "resizingType": 0,
  "rotation": 0,
  "shouldBreakMaskChain": false,
  "style": {
    "_class": "style",
    "do_objectID": "B64294D4-BC72-4DE5-9B7C-9E80A41497C0",
    "endMarkerType": 0,
    "fills": [
      {
        "_class": "fill",
        "color": {
          "_class": "color",
          "alpha": 1,
          "blue": 0.1764705882352941,
          "green": 0.1764705882352941,
          "red": 0.1764705882352941
        },
        "fillType": 0,
        "isEnabled": true,
        "noiseIndex": 0,
        "noiseIntensity": 0,
        "patternFillType": 1,
        "patternTileScale": 1
      }
    ],
    "miterLimit": 10,
    "startMarkerType": 0,
    "windingRule": 1
  }
}