{
  "_class": "shapePath",
  "booleanOperation": -1,
  "clippingMaskMode": 0,
  "do_objectID": "656B5DB4-5DD2-40CA-9E35-D8A49FE994E9",
  "edited": true,
  "exportOptions": {
    "_class": "exportOptions",
    "do_objectID": "20D18E7A-B1F4-43D5-A6CF-EEABF603B187",
    "exportFormats": [
    ],
    "includedLayerIds": [
    ],
    "layerOptions": 0,
    "shouldTrim": false
  },
  "frame": {
    "_class": "rect",
    "constrainProportions": false,
    "do_objectID": "628D3072-05FB-4B79-B975-F72E3227B727",
    "height": 0.1058906030855571,
    "width": 0.1059863482545467,
    "x": 40.38488875648214,
    "y": 14.6960287613329
  },
  "hasClippingMask": false,
  "isClosed": true,
  "isFixedToViewport": false,
  "isFlippedHorizontal": false,
  "isFlippedVertical": false,
  "isLocked": false,
  "isVisible": true,
  "layerListExpandedType": 0,
  "name": "Path",
  "nameIsFixed": false,
  "pointRadiusBehaviour": 0,
  "points": [
    {
      "_class": "curvePoint",
      "cornerRadius": 0,
      "curveFrom": "{-0.25653108986386997, 0.51418311619633528}",
      "curveMode": 3,
      "curveTo": "{0.32046891013612822, 0.86718311619634392}",
      "hasCurveFrom": true,
      "hasCurveTo": true,
      "point": "{0.11846891013613003, 0.74418311619635347}"
    },
    {
      "_class": "curvePoint",
      "cornerRadius": 0,
      "curveFrom": "{0.93746891013614686, 0.24718311619633937}",
      "curveMode": 3,
      "curveTo": "{0.36046891013614868, -0.10781688380362198}",
      "hasCurveFrom": true,
      "hasCurveTo": true,
      "point": "{0.56446891013609957, 0.016183116196344827}"
    }
  ],
  "resizingConstraint": 63,
  "resizingType": 0,
  "rotation": 0,
  "shouldBreakMaskChain": false,
  "style": {
    "_class": "style",
    "do_objectID": "CEE0FEFA-E6A5-475F-853D-8C078BB9F3D1",
    "endMarkerType": 0,
    "fills": [
      {
        "_class": "fill",
        "color": {
          "_class": "color",
          "alpha": 1,
          "blue": 0.1764705882352941,
          "green": 0.1764705882352941,
          "red": 0.1764705882352941
        },
        "fillType": 0,
        "isEnabled": true,
        "noiseIndex": 0,
        "noiseIntensity": 0,
        "patternFillType": 1,
        "patternTileScale": 1
      }
    ],
    "miterLimit": 10,
    "startMarkerType": 0,
    "windingRule": 1
  }
}