{
  "_class": "shapePath",
  "booleanOperation": -1,
  "clippingMaskMode": 0,
  "do_objectID": "70D28030-B967-4959-99F3-6730087918C8",
  "edited": true,
  "exportOptions": {
    "_class": "exportOptions",
    "do_objectID": "B50D8A3F-0533-4680-8027-FCBA6D64B99E",
    "exportFormats": [
    ],
    "includedLayerIds": [
    ],
    "layerOptions": 0,
    "shouldTrim": false
  },
  "frame": {
    "_class": "rect",
    "constrainProportions": false,
    "do_objectID": "CA72B10C-8960-4240-A6CE-A5F3FE5BD4E8",
    "height": 0.1058906030855766,
    "width": 0.1059863482545467,
    "x": 32.08245155962421,
    "y": 20.32255806115617
  },
  "hasClippingMask": false,
  "isClosed": true,
  "isFixedToViewport": false,
  "isFlippedHorizontal": false,
  "isFlippedVertical": false,
  "isLocked": false,
  "isVisible": true,
  "layerListExpandedType": 0,
  "name": "Path",
  "nameIsFixed": false,
  "pointRadiusBehaviour": 0,
  "points": [
    {
      "_class": "curvePoint",
      "cornerRadius": 0,
      "curveFrom": "{-0.28744432716086976, 0.57765866648139763}",
      "curveMode": 4,
      "curveTo": "{0.3595556728391216, 0.97265866648140786}",
      "hasCurveFrom": true,
      "hasCurveTo": true,
      "point": "{0.13255567283914615, 0.83765866648141696}"
    },
    {
      "_class": "curvePoint",
      "cornerRadius": 0,
      "curveFrom": "{1.0545556728391716, 0.27665866648140991}",
      "curveMode": 4,
      "curveTo": "{0.40455567283913751, -0.1193413335186051}",
      "hasCurveFrom": true,
      "hasCurveTo": true,
      "point": "{0.63355567283912251, 0.017658666481395358}"
    }
  ],
  "resizingConstraint": 63,
  "resizingType": 0,
  "rotation": 0,
  "shouldBreakMaskChain": false,
  "style": {
    "_class": "style",
    "do_objectID": "A941BEE4-EAC2-4018-98CE-64F7B124A36F",
    "endMarkerType": 0,
    "fills": [
      {
        "_class": "fill",
        "color": {
          "_class": "color",
          "alpha": 1,
          "blue": 0.1764705882352941,
          "green": 0.1764705882352941,
          "red": 0.1764705882352941
        },
        "fillType": 0,
        "isEnabled": true,
        "noiseIndex": 0,
        "noiseIntensity": 0,
        "patternFillType": 1,
        "patternTileScale": 1
      }
    ],
    "miterLimit": 10,
    "startMarkerType": 0,
    "windingRule": 1
  }
}