{
  "_class": "shapePath",
  "booleanOperation": -1,
  "clippingMaskMode": 0,
  "do_objectID": "716BFED0-AAB1-4651-9703-705B94A53E3A",
  "edited": true,
  "exportOptions": {
    "_class": "exportOptions",
    "do_objectID": "3F6366E3-526D-4CE3-BD86-4A59987702E0",
    "exportFormats": [
    ],
    "includedLayerIds": [
    ],
    "layerOptions": 0,
    "shouldTrim": false
  },
  "frame": {
    "_class": "rect",
    "constrainProportions": false,
    "do_objectID": "F65AC59E-8A49-48DD-8FB3-7A80BFC276E8",
    "height": 0.1058906030855766,
    "width": 0.1059863482545569,
    "x": 3.331040838243095,
    "y": 28.9465073543523
  },
  "hasClippingMask": false,
  "isClosed": true,
  "isFixedToViewport": false,
  "isFlippedHorizontal": false,
  "isFlippedVertical": false,
  "isLocked": false,
  "isVisible": true,
  "layerListExpandedType": 0,
  "name": "Path",
  "nameIsFixed": false,
  "pointRadiusBehaviour": 0,
  "points": [
    {
      "_class": "curvePoint",
      "cornerRadius": 0,
      "curveFrom": "{-0.26924376223740154, 0.70159200066052563}",
      "curveMode": 3,
      "curveTo": "{0.40875623776259573, 0.94759200066050653}",
      "hasCurveFrom": true,
      "hasCurveTo": true,
      "point": "{0.17275623776259863, 0.86259200066052699}"
    },
    {
      "_class": "curvePoint",
      "cornerRadius": 0,
      "curveFrom": "{0.92775623776260119, 0.16759200066053381}",
      "curveMode": 3,
      "curveTo": "{0.24875623776259914, -0.079407999339480284}",
      "hasCurveFrom": true,
      "hasCurveTo": true,
      "point": "{0.48475623776259624, 0.0065920006605324488}"
    }
  ],
  "resizingConstraint": 63,
  "resizingType": 0,
  "rotation": 0,
  "shouldBreakMaskChain": false,
  "style": {
    "_class": "style",
    "do_objectID": "D96CB0EC-FD97-4296-A32F-838079D7AB8A",
    "endMarkerType": 0,
    "fills": [
      {
        "_class": "fill",
        "color": {
          "_class": "color",
          "alpha": 1,
          "blue": 0.1764705882352941,
          "green": 0.1764705882352941,
          "red": 0.1764705882352941
        },
        "fillType": 0,
        "isEnabled": true,
        "noiseIndex": 0,
        "noiseIntensity": 0,
        "patternFillType": 1,
        "patternTileScale": 1
      }
    ],
    "miterLimit": 10,
    "startMarkerType": 0,
    "windingRule": 1
  }
}