{
  "_class": "shapePath",
  "booleanOperation": -1,
  "clippingMaskMode": 0,
  "do_objectID": "7B4A6634-B8BB-4438-8154-A5340E114CBE",
  "edited": true,
  "exportOptions": {
    "_class": "exportOptions",
    "do_objectID": "5EB588F8-AFDC-4685-877B-7F65064787FB",
    "exportFormats": [
    ],
    "includedLayerIds": [
    ],
    "layerOptions": 0,
    "shouldTrim": false
  },
  "frame": {
    "_class": "rect",
    "constrainProportions": false,
    "do_objectID": "68C592FC-B031-4C55-BE76-55CD85592177",
    "height": 8.154885994229371,
    "width": 18.53795157604711,
    "x": 14.63516084596041,
    "y": 21.25839940789207
  },
  "hasClippingMask": false,
  "isClosed": true,
  "isFixedToViewport": false,
  "isFlippedHorizontal": false,
  "isFlippedVertical": false,
  "isLocked": false,
  "isVisible": true,
  "layerListExpandedType": 0,
  "name": "Path",
  "nameIsFixed": false,
  "pointRadiusBehaviour": 0,
  "points": [
    {
      "_class": "curvePoint",
      "cornerRadius": 0,
      "curveFrom": "{0.93476252402783067, 0.35468741353387528}",
      "curveMode": 4,
      "curveTo": "{0.96316243470341245, 0.24294884519241228}",
      "hasCurveFrom": true,
      "hasCurveTo": true,
      "point": "{0.93396561009891377, 0.35202223586250514}"
    },
    {
      "_class": "curvePoint",
      "cornerRadius": 0,
      "curveFrom": "{0.9351259518086007, 0.36048516943838488}",
      "curveMode": 2,
      "curveTo": "{0.93575209846703533, 0.35755148506131768}",
      "hasCurveFrom": true,
      "hasCurveTo": true,
      "point": "{0.93544559310975961, 0.35900341021064563}"
    },
    {
      "_class": "curvePoint",
      "cornerRadius": 0,
      "curveFrom": "{0.9329410064760203, 0.36085312307211914}",
      "curveMode": 4,
      "curveTo": "{0.93330005560882934, 0.36034594373913409}",
      "hasCurveFrom": true,
      "hasCurveTo": true,
      "point": "{0.93287970540456544, 0.36171831134603388}"
    },
    {
      "_class": "curvePoint",
      "cornerRadius": 0,
      "curveFrom": "{0.89992162220149663, 0.47782259982828584}",
      "curveMode": 4,
      "curveTo": "{0.93267390895039437, 0.35962992585727349}",
      "hasCurveFrom": true,
      "hasCurveTo": true,
      "point": "{0.93231048116962445, 0.35830728171439291}"
    },
    {
      "_class": "curvePoint",
      "cornerRadius": 0,
      "curveFrom": "{0.81188014764800942, 0.68034626877398685}",
      "curveMode": 4,
      "curveTo": "{0.8592220894032343, 0.58568273797633752}",
      "hasCurveFrom": true,
      "hasCurveTo": true,
      "point": "{0.81155612769888918, 0.67719380115523964}"
    },
    {
      "_class": "curvePoint",
      "cornerRadius": 0,
      "curveFrom": "{0.80882385137117363, 0.68441364813066696}",
      "curveMode": 2,
      "curveTo": "{0.81015496035134282, 0.68549761964626121}",
      "hasCurveFrom": true,
      "hasCurveTo": true,
      "point": "{0.80924420157543753, 0.68475176768599}"
    },
    {
      "_class": "curvePoint",
      "cornerRadius": 0,
      "curveFrom": "{0.74197941159728709, 0.80895103611038743}",
      "curveMode": 4,
      "curveTo": "{0.80861367626904157, 0.68375729840562838}",
      "hasCurveFrom": true,
      "hasCurveTo": true,
      "point": "{0.80849983142205362, 0.68300150175255314}"
    },
    {
      "_class": "curvePoint",
      "cornerRadius": 0,
      "curveFrom": "{0.52538521155437634, 0.9783091545560193}",
      "curveMode": 3,
      "curveTo": "{0.66208660089937421, 0.90315711103907037}",
      "hasCurveFrom": true,
      "hasCurveTo": true,
      "point": "{0.57220609420223223, 0.95256234488744973}"
    },
    {
      "_class": "curvePoint",
      "cornerRadius": 0,
      "curveFrom": "{0.43275491393767423, 0.9909389144166153}",
      "curveMode": 4,
      "curveTo": "{0.47851616377894834, 0.99039195631241617}",
      "hasCurveFrom": true,
      "hasCurveTo": true,
      "point": "{0.43240900074874894, 0.99004389206428978}"
    },
    {
      "_class": "curvePoint",
      "cornerRadius": 0,
      "curveFrom": "{0.43490920873452693, 0.99340519823191265}",
      "curveMode": 4,
      "curveTo": "{0.43307017659087221, 0.99214222224585358}",
      "hasCurveFrom": true,
      "hasCurveTo": true,
      "point": "{0.43331975952465396, 0.9939621010289158}"
    },
    {
      "_class": "curvePoint",
      "cornerRadius": 0,
      "curveFrom": "{0.43489169414268253, 0.99891455804511797}",
      "curveMode": 4,
      "curveTo": "{0.43644611416886692, 0.99314663621901911}",
      "hasCurveFrom": true,
      "hasCurveTo": true,
      "point": "{0.43650303659236117, 0.99835765524811548}"
    },
    {
      "_class": "curvePoint",
      "cornerRadius": 0,
      "curveFrom": "{0.4318966989373022, 0.99557314126310181}",
      "curveMode": 4,
      "curveTo": "{0.43336792465222601, 0.99916317536520816}",
      "hasCurveFrom": true,
      "hasCurveTo": true,
      "point": "{0.43331975952465396, 0.9939621010289158}"
    },
    {
      "_class": "curvePoint",
      "cornerRadius": 0,
      "curveFrom": "{0.43008393868141409, 0.99765158205905824}",
      "curveMode": 4,
      "curveTo": "{0.43084582342664235, 0.99634882730178442}",
      "hasCurveFrom": true,
      "hasCurveTo": true,
      "point": "{0.43007080273753062, 0.99660738931467807}"
    },
    {
      "_class": "curvePoint",
      "cornerRadius": 0,
      "curveFrom": "{0.42758373069563582, 1.001022832919485}",
      "curveMode": 4,
      "curveTo": "{0.43004453084976424, 0.99865599603222377}",
      "hasCurveFrom": true,
      "hasCurveTo": true,
      "point": "{0.43017151164063566, 0.99978969101183657}"
    },
    {
      "_class": "curvePoint",
      "cornerRadius": 0,
      "curveFrom": "{0.42231183855049231, 0.99547369433506572}",
      "curveMode": 4,
      "curveTo": "{0.4259636309500352, 0.99629910383776632}",
      "hasCurveFrom": true,
      "hasCurveTo": true,
      "point": "{0.42309999518348723, 0.99934217983567364}"
    },
    {
      "_class": "curvePoint",
      "cornerRadius": 0,
      "curveFrom": "{0.35689483801191862, 0.98677208813189909}",
      "curveMode": 4,
      "curveTo": "{0.42254828554039092, 0.99245050772276522}",
      "hasCurveFrom": true,
      "hasCurveTo": true,
      "point": "{0.42309999518348723, 0.98967593843055557}"
    },
    {
      "_class": "curvePoint",
      "cornerRadius": 0,
      "curveFrom": "{0.23175745793213975, 0.90797034235602181}",
      "curveMode": 4,
      "curveTo": "{0.29237983895332803, 0.95820098570710177}",
      "hasCurveFrom": true,
      "hasCurveTo": true,
      "point": "{0.23194136114650524, 0.90724437978135775}"
    },
    {
      "_class": "curvePoint",
      "cornerRadius": 0,
      "curveFrom": "{0.23226975974358638, 0.90891508817236588}",
      "curveMode": 4,
      "curveTo": "{0.23154728283000778, 0.90859685800265022}",
      "hasCurveFrom": true,
      "hasCurveTo": true,
      "point": "{0.23131521448807041, 0.90914381610684936}"
    },
    {
      "_class": "curvePoint",
      "cornerRadius": 0,
      "curveFrom": "{0.23179248711582834, 0.91445428206398183}",
      "curveMode": 4,
      "curveTo": "{0.23306667367250333, 0.90962116136142301}",
      "hasCurveFrom": true,
      "hasCurveTo": true,
      "point": "{0.23342134415735111, 0.91314158261390399}"
    },
    {
      "_class": "curvePoint",
      "cornerRadius": 0,
      "curveFrom": "{0.22803998581318055, 0.9113515379092525}",
      "curveMode": 4,
      "curveTo": "{0.23021617384983867, 0.91547858542275462}",
      "hasCurveFrom": true,
      "hasCurveTo": true,
      "point": "{0.22966446420674225, 0.91002889376637142}"
    },
    {
      "_class": "curvePoint",
      "cornerRadius": 0,
      "curveFrom": "{0.22723431458834137, 0.90587201217445856}",
      "curveMode": 4,
      "curveTo": "{0.22645929389922981, 0.91239573065363277}",
      "hasCurveFrom": true,
      "hasCurveTo": true,
      "point": "{0.22591634155205559, 0.90693609430444555}"
    },
    {
      "_class": "curvePoint",
      "cornerRadius": 0,
      "curveFrom": "{0.2292134634667507, 0.90693609430444555}",
      "curveMode": 4,
      "curveTo": "{0.2284909865531721, 0.90519577306381205}",
      "hasCurveFrom": true,
      "hasCurveTo": true,
      "point": "{0.2292178421147118, 0.90778139319275353}"
    },
    {
      "_class": "curvePoint",
      "cornerRadius": 0,
      "curveFrom": "{0.2188054172632575, 0.89600687691326841}",
      "curveMode": 4,
      "curveTo": "{0.22931417236985557, 0.90603112725931667}",
      "hasCurveFrom": true,
      "hasCurveTo": true,
      "point": "{0.22948931828829897, 0.9051361049069907}"
    },
    {
      "_class": "curvePoint",
      "cornerRadius": 0,
      "curveFrom": "{0.19762589707550099, 0.87740035667769745}",
      "curveMode": 4,
      "curveTo": "{0.2082484970290874, 0.88618152042329279}",
      "hasCurveFrom": true,
      "hasCurveTo": true,
      "point": "{0.19783607217763297, 0.87567992482267132}"
    },
    {
      "_class": "curvePoint",
      "cornerRadius": 0,
      "curveFrom": "{0.19386463847693114, 0.87934951646720638}",
      "curveMode": 4,
      "curveTo": "{0.19705667284056028, 0.87863349858534578}",
      "hasCurveFrom": true,
      "hasCurveTo": true,
      "point": "{0.19565112684505279, 0.87871305612777517}"
    },
    {
      "_class": "curvePoint",
      "cornerRadius": 0,
      "curveFrom": "{0.19036172010806504, 0.87511307733286481}",
      "curveMode": 4,
      "curveTo": "{0.19213945118026457, 0.87960807848010059}",
      "hasCurveFrom": true,
      "hasCurveTo": true,
      "point": "{0.19207377146084828, 0.87379043318998373}"
    },
    {
      "_class": "curvePoint",
      "cornerRadius": 0,
      "curveFrom": "{0.18797097832131399, 0.88293955056931339}",
      "curveMode": 4,
      "curveTo": "{0.18876351360226984, 0.87660478125340746}",
      "hasCurveFrom": true,
      "hasCurveTo": true,
      "point": "{0.1898932047762292, 0.88188541313212976}"
    },
    {
      "_class": "curvePoint",
      "cornerRadius": 0,
      "curveFrom": "{0.18081626755290497, 0.86997167115339391}",
      "curveMode": 4,
      "curveTo": "{0.18605313051435973, 0.883983743313693}",
      "hasCurveFrom": true,
      "hasCurveTo": true,
      "point": "{0.18412214676352232, 0.8850577701364839}"
    },
    {
      "_class": "curvePoint",
      "cornerRadius": 0,
      "curveFrom": "{0.16937048178263511, 0.85161376823791313}",
      "curveMode": 4,
      "curveTo": "{0.17148536874783801, 0.87723129690003587}",
      "hasCurveFrom": true,
      "hasCurveTo": true,
      "point": "{0.17129270823755044, 0.8505596308007296}"
    },
    {
      "_class": "curvePoint",
      "cornerRadius": 0,
      "curveFrom": "{0.16580626234231391, 0.85777947777615693}",
      "curveMode": 4,
      "curveTo": "{0.1674570126236421, 0.85266790567509676}",
      "hasCurveFrom": true,
      "hasCurveTo": true,
      "point": "{0.16553478616872688, 0.85372204311228028}"
    },
    {
      "_class": "curvePoint",
      "cornerRadius": 0,
      "curveFrom": "{0.1630958792544038, 0.85777947777615693}",
      "curveMode": 4,
      "curveTo": "{0.16592448583726321, 0.86170763143358631}",
      "hasCurveFrom": true,
      "hasCurveTo": true,
      "point": "{0.16334984083614656, 0.86183691244003369}"
    },
    {
      "_class": "curvePoint",
      "cornerRadius": 0,
      "curveFrom": "{0.16558732994425987, 0.85023145593821003}",
      "curveMode": 4,
      "curveTo": "{0.16295138387168814, 0.85385132411872766}",
      "hasCurveFrom": true,
      "hasCurveTo": true,
      "point": "{0.16553478616872688, 0.85372204311228028}"
    },
    {
      "_class": "curvePoint",
      "cornerRadius": 0,
      "curveFrom": "{0.10446140440754705, 0.76891370288301775}",
      "curveMode": 4,
      "curveTo": "{0.16621347660269456, 0.84584584641181426}",
      "hasCurveFrom": true,
      "hasCurveTo": true,
      "point": "{0.16725559481743221, 0.84244476147297676}"
    },
    {
      "_class": "curvePoint",
      "cornerRadius": 0,
      "curveFrom": "{0, 0.54970283941284404}",
      "curveMode": 4,
      "curveTo": "{0.04764406846453953, 0.66988445194457946}",
      "hasCurveFrom": false,
      "hasCurveTo": true,
      "point": "{0, 0.54970283941284404}"
    },
    {
      "_class": "curvePoint",
      "cornerRadius": 0,
      "curveFrom": "{0.02920996054838184, 0.56440109537659244}",
      "curveMode": 4,
      "curveTo": "{0.018928895135759891, 0.5393006907402581}",
      "hasCurveFrom": true,
      "hasCurveTo": false,
      "point": "{0.018928895135759891, 0.5393006907402581}"
    },
    {
      "_class": "curvePoint",
      "cornerRadius": 0,
      "curveFrom": "{0.052359872318625454, 0.61050469121417039}",
      "curveMode": 4,
      "curveTo": "{0.039959541292839622, 0.58839763911172527}",
      "hasCurveFrom": true,
      "hasCurveTo": true,
      "point": "{0.051046277930300629, 0.61147927110892519}"
    },
    {
      "_class": "curvePoint",
      "cornerRadius": 0,
      "curveFrom": "{0.053599029691611767, 0.61575548901448141}",
      "curveMode": 4,
      "curveTo": "{0.053130514359775935, 0.61286158340862829}",
      "hasCurveFrom": true,
      "hasCurveTo": true,
      "point": "{0.053839855329471338, 0.61562620800803458}"
    },
    {
      "_class": "curvePoint",
      "cornerRadius": 0,
      "curveFrom": "{0.10288946978951836, 0.71830516120540011}",
      "curveMode": 4,
      "curveTo": "{0.053498320788506887, 0.61599416164176835}",
      "hasCurveFrom": true,
      "hasCurveTo": true,
      "point": "{0.053310038926180303, 0.61617316611223316}"
    },
    {
      "_class": "curvePoint",
      "cornerRadius": 0,
      "curveFrom": "{0.22232585022396789, 0.8545176185365696}",
      "curveMode": 4,
      "curveTo": "{0.16005709756941255, 0.79990136565909442}",
      "hasCurveFrom": true,
      "hasCurveTo": true,
      "point": "{0.22200620892280884, 0.85703362581588571}"
    },
    {
      "_class": "curvePoint",
      "cornerRadius": 0,
      "curveFrom": "{0.22523765111808777, 0.85334414478574316}",
      "curveMode": 2,
      "curveTo": "{0.22340299762239413, 0.85185244086520007}",
      "hasCurveFrom": true,
      "hasCurveTo": true,
      "point": "{0.22403352292879003, 0.85236956489098836}"
    },
    {
      "_class": "curvePoint",
      "cornerRadius": 0,
      "curveFrom": "{0.24436358541209646, 0.87743019075610806}",
      "curveMode": 4,
      "curveTo": "{0.22481730091382382, 0.85672534033897341}",
      "hasCurveFrom": true,
      "hasCurveTo": true,
      "point": "{0.22407730940840082, 0.85893306214137666}"
    },
    {
      "_class": "curvePoint",
      "cornerRadius": 0,
      "curveFrom": "{0.28737504433381067, 0.90484770881568577}",
      "curveMode": 4,
      "curveTo": "{0.26513589133947219, 0.89342125678432749}",
      "hasCurveFrom": true,
      "hasCurveTo": true,
      "point": "{0.28633730476703412, 0.90653830659230117}"
    },
    {
      "_class": "curvePoint",
      "cornerRadius": 0,
      "curveFrom": "{0.28855727928330288, 0.89575825959317812}",
      "curveMode": 4,
      "curveTo": "{0.28706416032857379, 0.90203336075226137}",
      "hasCurveFrom": true,
      "hasCurveTo": true,
      "point": "{0.28660878094062114, 0.8991295104536049}"
    },
    {
      "_class": "curvePoint",
      "cornerRadius": 0,
      "curveFrom": "{0.29087796270267663, 0.90473831719484565}",
      "curveMode": 4,
      "curveTo": "{0.28946803805920801, 0.89884111436230008}",
      "hasCurveFrom": true,
      "hasCurveTo": true,
      "point": "{0.2903569035953078, 0.90220242052992294}"
    },
    {
      "_class": "curvePoint",
      "cornerRadius": 0,
      "curveFrom": "{0.37160709516115614, 0.9571567929627216}",
      "curveMode": 4,
      "curveTo": "{0.29140340045800656, 0.90727421385976903}",
      "hasCurveFrom": true,
      "hasCurveTo": true,
      "point": "{0.29192008091741428, 0.9098200552174952}"
    },
    {
      "_class": "curvePoint",
      "cornerRadius": 0,
      "curveFrom": "{0.54239188023522111, 0.92462770280208373}",
      "curveMode": 4,
      "curveTo": "{0.45686812825935602, 0.96555011368897603}",
      "hasCurveFrom": true,
      "hasCurveTo": true,
      "point": "{0.54251886102609248, 0.92779011511363496}"
    },
    {
      "_class": "curvePoint",
      "cornerRadius": 0,
      "curveFrom": "{0.54556202135904486, 0.92370284637134759}",
      "curveMode": 4,
      "curveTo": "{0.54362228031228532, 0.92333489273761327}",
      "hasCurveFrom": true,
      "hasCurveTo": true,
      "point": "{0.54500593306798728, 0.92228075530042974}"
    },
    {
      "_class": "curvePoint",
      "cornerRadius": 0,
      "curveFrom": "{0.54967795044246248, 0.92458792403086965}",
      "curveMode": 4,
      "curveTo": "{0.54592982778777577, 0.92497576705021067}",
      "hasCurveFrom": true,
      "hasCurveTo": true,
      "point": "{0.54621881855320709, 0.92617907487944828}"
    },
    {
      "_class": "curvePoint",
      "cornerRadius": 0,
      "curveFrom": "{0.56156597965680155, 0.91589626252050638}",
      "curveMode": 4,
      "curveTo": "{0.55313708233171777, 0.92291721563986151}",
      "hasCurveFrom": true,
      "hasCurveTo": true,
      "point": "{0.55659621422097283, 0.92118683909203203}"
    },
    {
      "_class": "curvePoint",
      "cornerRadius": 0,
      "curveFrom": "{0.57288916328416117, 0.90947199096936893}",
      "curveMode": 4,
      "curveTo": "{0.56653574509263027, 0.91061563064178463}",
      "hasCurveFrom": true,
      "hasCurveTo": true,
      "point": "{0.57150113188049789, 0.90533499876306289}"
    },
    {
      "_class": "curvePoint",
      "cornerRadius": 0,
      "curveFrom": "{0.64462455283057696, 0.87235839742626253}",
      "curveMode": 4,
      "curveTo": "{0.57206597746747767, 0.91179904908541554}",
      "hasCurveFrom": true,
      "hasCurveTo": true,
      "point": "{0.57079616955876367, 0.91374820887492458}"
    },
    {
      "_class": "curvePoint",
      "cornerRadius": 0,
      "curveFrom": "{0.76963933076744584, 0.70271188288932573}",
      "curveMode": 4,
      "curveTo": "{0.71145147801261921, 0.79983175280946905}",
      "hasCurveFrom": true,
      "hasCurveTo": true,
      "point": "{0.76926276704279262, 0.70378590971211663}"
    },
    {
      "_class": "curvePoint",
      "cornerRadius": 0,
      "curveFrom": "{0.81013306711153743, 0.63550564892246864}",
      "curveMode": 4,
      "curveTo": "{0.77006405961967073, 0.70199586500746514}",
      "hasCurveFrom": true,
      "hasCurveTo": true,
      "point": "{0.77044062334432384, 0.7018069158441963}"
    },
    {
      "_class": "curvePoint",
      "cornerRadius": 0,
      "curveFrom": "{0.87494581423148154, 0.4714679411267732}",
      "curveMode": 4,
      "curveTo": "{0.84556070776465664, 0.55813593891031255}",
      "hasCurveFrom": true,
      "hasCurveTo": true,
      "point": "{0.87605799081359659, 0.47216406962302643}"
    },
    {
      "_class": "curvePoint",
      "cornerRadius": 0,
      "curveFrom": "{0.87305423831229412, 0.46712211037159213}",
      "curveMode": 4,
      "curveTo": "{0.87367162767480655, 0.46708233160037749}",
      "hasCurveFrom": true,
      "hasCurveTo": true,
      "point": "{0.87358843336354619, 0.46707238690757352}"
    },
    {
      "_class": "curvePoint",
      "cornerRadius": 0,
      "curveFrom": "{0.86695478170250595, 0.46757956624055796}",
      "curveMode": 4,
      "curveTo": "{0.86864493981548385, 0.47306903666815586}",
      "hasCurveFrom": true,
      "hasCurveTo": true,
      "point": "{0.86846979389704049, 0.4725419679495641}"
    },
    {
      "_class": "curvePoint",
      "cornerRadius": 0,
      "curveFrom": "{0.87034823387234506, 0.46309450978612615}",
      "curveMode": 4,
      "curveTo": "{0.8684347647133519, 0.46656520757458908}",
      "hasCurveFrom": true,
      "hasCurveTo": true,
      "point": "{0.86983155341293739, 0.46399947683125498}"
    },
    {
      "_class": "curvePoint",
      "cornerRadius": 0,
      "curveFrom": "{0.8751866398693412, 0.45877851310935525}",
      "curveMode": 4,
      "curveTo": "{0.87441599782819068, 0.45814205276992398}",
      "hasCurveFrom": true,
      "hasCurveTo": true,
      "point": "{0.87494143558352055, 0.45856967456047965}"
    },
    {
      "_class": "curvePoint",
      "cornerRadius": 0,
      "curveFrom": "{0.9008805461049737, 0.40176558926620803}",
      "curveMode": 4,
      "curveTo": "{0.87671916665572014, 0.46607791762721196}",
      "hasCurveFrom": true,
      "hasCurveTo": true,
      "point": "{0.87718768198755581, 0.4689917126186724}"
    },
    {
      "_class": "curvePoint",
      "cornerRadius": 0,
      "curveFrom": "{0.93888721040717049, 0.25294326146004936}",
      "curveMode": 4,
      "curveTo": "{0.92157841501701121, 0.32936822565586138}",
      "hasCurveFrom": true,
      "hasCurveTo": true,
      "point": "{0.93893537553474249, 0.25290348268883467}"
    },
    {
      "_class": "curvePoint",
      "cornerRadius": 0,
      "curveFrom": "{0.93795455839146002, 0.25362944526349868}",
      "curveMode": 4,
      "curveTo": "{0.93883904527959872, 0.25299298492406741}",
      "hasCurveFrom": true,
      "hasCurveTo": true,
      "point": "{0.93878212285610474, 0.25303276369528205}"
    },
    {
      "_class": "curvePoint",
      "cornerRadius": 0,
      "curveFrom": "{0.9351347091045229, 0.25350016425705185}",
      "curveMode": 4,
      "curveTo": "{0.93706131420739913, 0.25392778604760752}",
      "hasCurveFrom": true,
      "hasCurveTo": true,
      "point": "{0.93622937109479354, 0.25444491007339537}"
    },
    {
      "_class": "curvePoint",
      "cornerRadius": 0,
      "curveFrom": "{0.93098375083741636, 0.25708025366635479}",
      "curveMode": 4,
      "curveTo": "{0.93197770392458235, 0.25881063021418488}",
      "hasCurveFrom": true,
      "hasCurveTo": true,
      "point": "{0.93108883838848244, 0.25726920282962362}"
    },
    {
      "_class": "curvePoint",
      "cornerRadius": 0,
      "curveFrom": "{0.93130777078653659, 0.24899521841701211}",
      "curveMode": 2,
      "curveTo": "{0.93040576930655372, 0.25166039608838231}",
      "hasCurveFrom": true,
      "hasCurveTo": true,
      "point": "{0.93047582767393089, 0.25145155753950671}"
    },
    {
      "_class": "curvePoint",
      "cornerRadius": 0,
      "curveFrom": "{0.93725397471768679, 0.24772229773814958}",
      "curveMode": 4,
      "curveTo": "{0.93455234892569872, 0.25074548435044952}",
      "hasCurveFrom": true,
      "hasCurveTo": true,
      "point": "{0.93561198173228077, 0.24862726478327901}"
    },
    {
      "_class": "curvePoint",
      "cornerRadius": 0,
      "curveFrom": "{0.95735196885905594, 0.17084982236617452}",
      "curveMode": 4,
      "curveTo": "{0.93890910364697588, 0.24680738600021623}",
      "hasCurveFrom": true,
      "hasCurveTo": true,
      "point": "{0.94056423257626531, 0.24589247426228344}"
    },
    {
      "_class": "curvePoint",
      "cornerRadius": 0,
      "curveFrom": "{0.9810579689203569, 0.010412093365388782}",
      "curveMode": 4,
      "curveTo": "{0.97095204942617841, 0.091988408433475763}",
      "hasCurveFrom": false,
      "hasCurveTo": true,
      "point": "{0.9810579689203569, 0.010412093365388782}"
    },
    {
      "_class": "curvePoint",
      "cornerRadius": 0,
      "curveFrom": "{0.98553294713658324, 0.12443794105168435}",
      "curveMode": 4,
      "curveTo": "{1, 0}",
      "hasCurveFrom": true,
      "hasCurveTo": false,
      "point": "{1, 0}"
    }
  ],
  "resizingConstraint": 63,
  "resizingType": 0,
  "rotation": 0,
  "shouldBreakMaskChain": false,
  "style": {
    "_class": "style",
    "do_objectID": "8BE25C30-3D93-49EB-9AB2-A58EE4639000",
    "endMarkerType": 0,
    "fills": [
      {
        "_class": "fill",
        "color": {
          "_class": "color",
          "alpha": 1,
          "blue": 0.1764705882352941,
          "green": 0.1764705882352941,
          "red": 0.1764705882352941
        },
        "fillType": 0,
        "isEnabled": true,
        "noiseIndex": 0,
        "noiseIntensity": 0,
        "patternFillType": 1,
        "patternTileScale": 1
      }
    ],
    "miterLimit": 10,
    "startMarkerType": 0,
    "windingRule": 1
  }
}