{
  "_class": "shapePath",
  "booleanOperation": -1,
  "clippingMaskMode": 0,
  "do_objectID": "8247AD4B-4CB8-4CB9-9E91-868A3C227364",
  "edited": true,
  "exportOptions": {
    "_class": "exportOptions",
    "do_objectID": "64C04659-5258-4E7C-9A11-739BC5C73882",
    "exportFormats": [
    ],
    "includedLayerIds": [
    ],
    "layerOptions": 0,
    "shouldTrim": false
  },
  "frame": {
    "_class": "rect",
    "constrainProportions": false,
    "do_objectID": "6042F00E-01E3-4624-9D0E-19C75F740DCB",
    "height": 3.483173839863785,
    "width": 2.932470637171441,
    "x": 11.4528453663937,
    "y": 7.075988056481242
  },
  "hasClippingMask": false,
  "isClosed": true,
  "isFixedToViewport": false,
  "isFlippedHorizontal": false,
  "isFlippedVertical": false,
  "isLocked": false,
  "isVisible": true,
  "layerListExpandedType": 0,
  "name": "Path",
  "nameIsFixed": false,
  "pointRadiusBehaviour": 0,
  "points": [
    {
      "_class": "curvePoint",
      "cornerRadius": 0,
      "curveFrom": "{0.62842195587787519, 0.51585867355922255}",
      "curveMode": 4,
      "curveTo": "{0.63484374567497981, 0.51958391219683486}",
      "hasCurveFrom": true,
      "hasCurveTo": true,
      "point": "{0.63102388795083986, 0.52037552540732734}"
    },
    {
      "_class": "curvePoint",
      "cornerRadius": 0,
      "curveFrom": "{0.62983364242810047, 0.51022425011983252}",
      "curveMode": 4,
      "curveTo": "{0.62867107703379776, 0.51278535168319173}",
      "hasCurveFrom": false,
      "hasCurveTo": true,
      "point": "{0.62983364242810047, 0.51022425011983252}"
    },
    {
      "_class": "curvePoint",
      "cornerRadius": 0,
      "curveFrom": "{0.62130816286987545, 0.49625460522878329}",
      "curveMode": 4,
      "curveTo": "{0.6175159852741714, 0.49930464436332955}",
      "hasCurveFrom": true,
      "hasCurveTo": false,
      "point": "{0.6175159852741714, 0.49930464436332955}"
    },
    {
      "_class": "curvePoint",
      "cornerRadius": 0,
      "curveFrom": "{0.62795139369446673, 0.48964230664702041}",
      "curveMode": 4,
      "curveTo": "{0.62501730008027256, 0.49371678640690986}",
      "hasCurveFrom": true,
      "hasCurveTo": true,
      "point": "{0.62869875716223289, 0.4911556848435506}"
    },
    {
      "_class": "curvePoint",
      "cornerRadius": 0,
      "curveFrom": "{0.62999972319871522, 0.48500904109148896}",
      "curveMode": 4,
      "curveTo": "{0.62767459241010903, 0.48822205941643093}",
      "hasCurveFrom": true,
      "hasCurveTo": true,
      "point": "{0.62842195587787519, 0.4872209015325723}"
    },
    {
      "_class": "curvePoint",
      "cornerRadius": 0,
      "curveFrom": "{0.63863592327068386, 0.47956087958398042}",
      "curveMode": 4,
      "curveTo": "{0.63470534503280096, 0.48438040707139207}",
      "hasCurveFrom": true,
      "hasCurveTo": true,
      "point": "{0.63990920917873029, 0.48400788320763166}"
    },
    {
      "_class": "curvePoint",
      "cornerRadius": 0,
      "curveFrom": "{0.64732748359952363, 0.46610345500560413}",
      "curveMode": 4,
      "curveTo": "{0.63736263736263743, 0.47513715870181505}",
      "hasCurveFrom": true,
      "hasCurveTo": true,
      "point": "{0.63606167132615521, 0.47069015507816514}"
    },
    {
      "_class": "curvePoint",
      "cornerRadius": 0,
      "curveFrom": "{0.66792149915575583, 0.47131878909826203}",
      "curveMode": 4,
      "curveTo": "{0.65236526697483888, 0.47006152105806692}",
      "hasCurveFrom": true,
      "hasCurveTo": true,
      "point": "{0.65582528302931342, 0.47623144755161445}"
    },
    {
      "_class": "curvePoint",
      "cornerRadius": 0,
      "curveFrom": "{0.67533977357654906, 0.45499758731721962}",
      "curveMode": 4,
      "curveTo": "{0.67924267168599683, 0.46924662510608983}",
      "hasCurveFrom": true,
      "hasCurveTo": true,
      "point": "{0.68973344036316331, 0.47043404492182872}"
    },
    {
      "_class": "curvePoint",
      "cornerRadius": 0,
      "curveFrom": "{0.6278406731807239, 0.41809444206336643}",
      "curveMode": 4,
      "curveTo": "{0.65648960611177254, 0.44561464249873278}",
      "hasCurveFrom": true,
      "hasCurveTo": true,
      "point": "{0.63287845655603836, 0.44296040996943276}"
    },
    {
      "_class": "curvePoint",
      "cornerRadius": 0,
      "curveFrom": "{0.6154122955130511, 0.39136585483849268}",
      "curveMode": 4,
      "curveTo": "{0.60470008580839807, 0.41821085577079176}",
      "hasCurveFrom": true,
      "hasCurveTo": true,
      "point": "{0.60090790821269402, 0.39164524773631371}"
    },
    {
      "_class": "curvePoint",
      "cornerRadius": 0,
      "curveFrom": "{0.62399313532814793, 0.37248355149409235}",
      "curveMode": 4,
      "curveTo": "{0.61466493204528505, 0.38319361257722923}",
      "hasCurveFrom": true,
      "hasCurveTo": true,
      "point": "{0.61322556536662309, 0.37467212919368986}"
    },
    {
      "_class": "curvePoint",
      "cornerRadius": 0,
      "curveFrom": "{0.64173609765549289, 0.35439286136018461}",
      "curveMode": 4,
      "curveTo": "{0.63487142580341571, 0.370271691053009}",
      "hasCurveFrom": true,
      "hasCurveTo": true,
      "point": "{0.64566667589337579, 0.36808311335341154}"
    },
    {
      "_class": "curvePoint",
      "cornerRadius": 0,
      "curveFrom": "{0.64658012013175747, 0.31811835012642831}",
      "curveMode": 4,
      "curveTo": "{0.63783319954604589, 0.34077245759141128}",
      "hasCurveFrom": true,
      "hasCurveTo": true,
      "point": "{0.63387494117972709, 0.32708220559818435}"
    },
    {
      "_class": "curvePoint",
      "cornerRadius": 0,
      "curveFrom": "{0.66927782544910996, 0.29099395629630825}",
      "curveMode": 4,
      "curveTo": "{0.65945137985440272, 0.30917777739615682}",
      "hasCurveFrom": true,
      "hasCurveTo": true,
      "point": "{0.65848257535914989, 0.29320581673739032}"
    },
    {
      "_class": "curvePoint",
      "cornerRadius": 0,
      "curveFrom": "{0.68834943394137316, 0.2774434007519912}",
      "curveMode": 4,
      "curveTo": "{0.68012843579594184, 0.28878209585522496}",
      "hasCurveFrom": true,
      "hasCurveTo": true,
      "point": "{0.69097904614277372, 0.28659351815562745}"
    },
    {
      "_class": "curvePoint",
      "cornerRadius": 0,
      "curveFrom": "{0.68995488139064987, 0.26154128831768092}",
      "curveMode": 4,
      "curveTo": "{0.68574750186840849, 0.26836313157280983}",
      "hasCurveFrom": true,
      "hasCurveTo": true,
      "point": "{0.68311788966700793, 0.25925957965214264}"
    },
    {
      "_class": "curvePoint",
      "cornerRadius": 0,
      "curveFrom": "{0.71896365599136414, 0.25485914151146183}",
      "curveMode": 2,
      "curveTo": "{0.70993993412129408, 0.2490850216231619}",
      "hasCurveFrom": true,
      "hasCurveTo": true,
      "point": "{0.71558668032219663, 0.25267056381186431}"
    },
    {
      "_class": "curvePoint",
      "cornerRadius": 0,
      "curveFrom": "{0.73402164586043661, 0.26603485742430122}",
      "curveMode": 4,
      "curveTo": "{0.71655548481744935, 0.26368330053430805}",
      "hasCurveFrom": true,
      "hasCurveTo": true,
      "point": "{0.71951725856007953, 0.26629096758063764}"
    },
    {
      "_class": "curvePoint",
      "cornerRadius": 0,
      "curveFrom": "{0.7255238464306476, 0.23835167779853919}",
      "curveMode": 4,
      "curveTo": "{0.73327428239267045, 0.2579091806460081}",
      "hasCurveFrom": true,
      "hasCurveTo": true,
      "point": "{0.73175187532870156, 0.2493644145209829}"
    },
    {
      "_class": "curvePoint",
      "cornerRadius": 0,
      "curveFrom": "{0.7388933484651371, 0.21418419213702602}",
      "curveMode": 4,
      "curveTo": "{0.73443684778697393, 0.23516194221508308}",
      "hasCurveFrom": true,
      "hasCurveTo": true,
      "point": "{0.74415257286793834, 0.23241457871984361}"
    },
    {
      "_class": "curvePoint",
      "cornerRadius": 0,
      "curveFrom": "{0.73017410800786076, 0.1773974605905968}",
      "curveMode": 4,
      "curveTo": "{0.73366180419077187, 0.19597708829569163}",
      "hasCurveFrom": true,
      "hasCurveTo": true,
      "point": "{0.72840257978796996, 0.17776998445435857}"
    },
    {
      "_class": "curvePoint",
      "cornerRadius": 0,
      "curveFrom": "{0.72591136822874824, 0.16151863089777241}",
      "curveMode": 4,
      "curveTo": "{0.73191795609931631, 0.17704821946832092}",
      "hasCurveFrom": true,
      "hasCurveTo": true,
      "point": "{0.73366180419077187, 0.176698978346045}"
    },
    {
      "_class": "curvePoint",
      "cornerRadius": 0,
      "curveFrom": "{0.69967060647161428, 0.1339518649794357}",
      "curveMode": 4,
      "curveTo": "{0.71470091621225085, 0.14726959310890217}",
      "hasCurveFrom": false,
      "hasCurveTo": true,
      "point": "{0.69967060647161428, 0.1339518649794357}"
    },
    {
      "_class": "curvePoint",
      "cornerRadius": 0,
      "curveFrom": "{0.55509729565145172, 0.0059899177774300292}",
      "curveMode": 4,
      "curveTo": "{0.60403576272593895, 0.04929581693968}",
      "hasCurveFrom": true,
      "hasCurveTo": false,
      "point": "{0.60403576272593895, 0.04929581693968}"
    },
    {
      "_class": "curvePoint",
      "cornerRadius": 0,
      "curveFrom": "{0.36845018960887987, 0.018725577369768698}",
      "curveMode": 2,
      "curveTo": "{0.49821463171589092, -0.0087713403241117711}",
      "hasCurveFrom": true,
      "hasCurveTo": true,
      "point": "{0.43333241066238537, 0.0049654771520855371}"
    },
    {
      "_class": "curvePoint",
      "cornerRadius": 0,
      "curveFrom": "{0.25042212195864572, 0.094021963332522066}",
      "curveMode": 4,
      "curveTo": "{0.30747086666482137, 0.048411072763247985}",
      "hasCurveFrom": false,
      "hasCurveTo": true,
      "point": "{0.25042212195864572, 0.094021963332522066}"
    },
    {
      "_class": "curvePoint",
      "cornerRadius": 0,
      "curveFrom": "{0, 0.29411384365530951}",
      "curveMode": 1,
      "curveTo": "{0, 0.29411384365530951}",
      "hasCurveFrom": false,
      "hasCurveTo": false,
      "point": "{0, 0.29411384365530951}"
    },
    {
      "_class": "curvePoint",
      "cornerRadius": 0,
      "curveFrom": "{0.030392781022504301, 0.31914279075177149}",
      "curveMode": 4,
      "curveTo": "{0.028731973316356484, 0.31958516283998817}",
      "hasCurveFrom": true,
      "hasCurveTo": false,
      "point": "{0.028731973316356484, 0.31958516283998817}"
    },
    {
      "_class": "curvePoint",
      "cornerRadius": 0,
      "curveFrom": "{0.03451712015943792, 0.3207492999142425}",
      "curveMode": 4,
      "curveTo": "{0.031859827829601409, 0.31860728769761404}",
      "hasCurveFrom": true,
      "hasCurveTo": true,
      "point": "{0.032800952196418244, 0.31779239174563695}"
    },
    {
      "_class": "curvePoint",
      "cornerRadius": 0,
      "curveFrom": "{0.035070722728153335, 0.32517302079640786}",
      "curveMode": 4,
      "curveTo": "{0.035098402856589266, 0.32312413954572017}",
      "hasCurveFrom": false,
      "hasCurveTo": true,
      "point": "{0.035070722728153335, 0.32517302079640786}"
    },
    {
      "_class": "curvePoint",
      "cornerRadius": 0,
      "curveFrom": "{0.44706175436654044, 0.68857004989555481}",
      "curveMode": 4,
      "curveTo": "{0.4479475184764854, 0.69075862759515227}",
      "hasCurveFrom": true,
      "hasCurveTo": false,
      "point": "{0.4479475184764854, 0.69075862759515227}"
    },
    {
      "_class": "curvePoint",
      "cornerRadius": 0,
      "curveFrom": "{0.45403714673236051, 0.6808867452054771}",
      "curveMode": 4,
      "curveTo": "{0.44587150884380106, 0.68624177574704615}",
      "hasCurveFrom": true,
      "hasCurveTo": true,
      "point": "{0.44432142165139615, 0.68372723966665727}"
    },
    {
      "_class": "curvePoint",
      "cornerRadius": 0,
      "curveFrom": "{0.45519971212666394, 0.65820935499900823}",
      "curveMode": 4,
      "curveTo": "{0.46303318847399466, 0.67772029236350684}",
      "hasCurveFrom": true,
      "hasCurveTo": true,
      "point": "{0.45663907880532595, 0.66675412112403354}"
    },
    {
      "_class": "curvePoint",
      "cornerRadius": 0,
      "curveFrom": "{0.45669443906219698, 0.63969957551836842}",
      "curveMode": 4,
      "curveTo": "{0.45439698840202597, 0.65008367822071522}",
      "hasCurveFrom": true,
      "hasCurveTo": true,
      "point": "{0.46895673595925491, 0.64980428532289425}"
    },
    {
      "_class": "curvePoint",
      "cornerRadius": 0,
      "curveFrom": "{0.48346112325961205, 0.6217252990918859}",
      "curveMode": 4,
      "curveTo": "{0.48085919118664738, 0.6351128754458073}",
      "hasCurveFrom": true,
      "hasCurveTo": true,
      "point": "{0.48124671298474803, 0.6328311667802704}"
    },
    {
      "_class": "curvePoint",
      "cornerRadius": 0,
      "curveFrom": "{0.48816674509369701, 0.59366959560236343}",
      "curveMode": 4,
      "curveTo": "{0.47261051291278011, 0.60563692472569541}",
      "hasCurveFrom": true,
      "hasCurveTo": true,
      "point": "{0.48963379190079409, 0.60221436172738874}"
    },
    {
      "_class": "curvePoint",
      "cornerRadius": 0,
      "curveFrom": "{0.50042904199075489, 0.57671975980122414}",
      "curveMode": 4,
      "curveTo": "{0.48744706175436681, 0.58552063608258453}",
      "hasCurveFrom": true,
      "hasCurveTo": true,
      "point": "{0.50197912918315901, 0.58526452592624945}"
    },
    {
      "_class": "curvePoint",
      "cornerRadius": 0,
      "curveFrom": "{0.50574362665042794, 0.52670843109127063}",
      "curveMode": 4,
      "curveTo": "{0.499681678522988, 0.56854751753996069}",
      "hasCurveFrom": true,
      "hasCurveTo": true,
      "point": "{0.51424142608021695, 0.56826812464213972}"
    },
    {
      "_class": "curvePoint",
      "cornerRadius": 0,
      "curveFrom": "{0.51570847288731403, 0.57683617350864946}",
      "curveMode": 4,
      "curveTo": "{0.58540703628864821, 0.56759292513907245}",
      "hasCurveFrom": true,
      "hasCurveTo": true,
      "point": "{0.51424142608021695, 0.56826812464213972}"
    },
    {
      "_class": "curvePoint",
      "cornerRadius": 0,
      "curveFrom": "{0.50341849586182097, 0.5937627265683042}",
      "curveMode": 4,
      "curveTo": "{0.51648351648351609, 0.58493856754545803}",
      "hasCurveFrom": true,
      "hasCurveTo": true,
      "point": "{0.50197912918315901, 0.58526452592624945}"
    },
    {
      "_class": "curvePoint",
      "cornerRadius": 0,
      "curveFrom": "{0.4948653361751601, 0.62039818282723591}",
      "curveMode": 4,
      "curveTo": "{0.50416585932958713, 0.60188840334659732}",
      "hasCurveFrom": true,
      "hasCurveTo": true,
      "point": "{0.48963379190079409, 0.60221436172738874}"
    },
    {
      "_class": "curvePoint",
      "cornerRadius": 0,
      "curveFrom": "{0.49447781437705868, 0.65904753369247127}",
      "curveMode": 4,
      "curveTo": "{0.50012456057796129, 0.6386052866685703}",
      "hasCurveFrom": true,
      "hasCurveTo": true,
      "point": "{0.50535610485232652, 0.65683567325138925}"
    },
    {
      "_class": "curvePoint",
      "cornerRadius": 0,
      "curveFrom": "{0.47548924627010247, 0.67250495827084888}",
      "curveMode": 4,
      "curveTo": "{0.48376560467240565, 0.66123611139206873}",
      "hasCurveFrom": true,
      "hasCurveTo": true,
      "point": "{0.47288731419713786, 0.66344797183315207}"
    },
    {
      "_class": "curvePoint",
      "cornerRadius": 0,
      "curveFrom": "{0.48376560467240565, 0.70116601303898363}",
      "curveMode": 2,
      "curveTo": "{0.47811885847150309, 0.68160851019151469}",
      "hasCurveFrom": true,
      "hasCurveTo": true,
      "point": "{0.48072079054446853, 0.6907353448536665}"
    },
    {
      "_class": "curvePoint",
      "cornerRadius": 0,
      "curveFrom": "{0.47410523984831315, 0.71390167263132231}",
      "curveMode": 4,
      "curveTo": "{0.47734381487530103, 0.70668402277094711}",
      "hasCurveFrom": false,
      "hasCurveTo": true,
      "point": "{0.47410523984831315, 0.71390167263132231}"
    },
    {
      "_class": "curvePoint",
      "cornerRadius": 0,
      "curveFrom": "{0.70786392448860969, 0.92032645863805163}",
      "curveMode": 4,
      "curveTo": "{0.70742104243363713, 0.92051272056993316}",
      "hasCurveFrom": true,
      "hasCurveTo": false,
      "point": "{0.70742104243363713, 0.92051272056993316}"
    },
    {
      "_class": "curvePoint",
      "cornerRadius": 0,
      "curveFrom": "{0.71027209566252358, 0.92163029216121717}",
      "curveMode": 4,
      "curveTo": "{0.70833448667201804, 0.92014019670617142}",
      "hasCurveFrom": true,
      "hasCurveTo": true,
      "point": "{0.7087773687269906, 0.91997721751577577}"
    },
    {
      "_class": "curvePoint",
      "cornerRadius": 0,
      "curveFrom": "{0.71201594375397914, 0.92456391758833678}",
      "curveMode": 4,
      "curveTo": "{0.71129626041464822, 0.92314367035774736}",
      "hasCurveFrom": false,
      "hasCurveTo": true,
      "point": "{0.71201594375397914, 0.92456391758833678}"
    },
    {
      "_class": "curvePoint",
      "cornerRadius": 0,
      "curveFrom": "{0.78334763473302527, 0.98004669054728477}",
      "curveMode": 4,
      "curveTo": "{0.78146538599939086, 0.98605363785043665}",
      "hasCurveFrom": true,
      "hasCurveTo": false,
      "point": "{0.78146538599939086, 0.98605363785043665}"
    },
    {
      "_class": "curvePoint",
      "cornerRadius": 0,
      "curveFrom": "{0.80427381183048696, 0.97783483010620276}",
      "curveMode": 2,
      "curveTo": "{0.79032302709884528, 0.97357408841443305}",
      "hasCurveFrom": true,
      "hasCurveTo": true,
      "point": "{0.7943643258504719, 0.97480807371314238}"
    },
    {
      "_class": "curvePoint",
      "cornerRadius": 0,
      "curveFrom": "{0.79015694632823053, 0.99373694254051304}",
      "curveMode": 4,
      "curveTo": "{0.79682785728125771, 0.99017468309329515}",
      "hasCurveFrom": false,
      "hasCurveTo": true,
      "point": "{0.79015694632823053, 0.99373694254051304}"
    },
    {
      "_class": "curvePoint",
      "cornerRadius": 0,
      "curveFrom": "{0.79721537907935913, 1}",
      "curveMode": 1,
      "curveTo": "{0.79721537907935913, 1}",
      "hasCurveFrom": false,
      "hasCurveTo": false,
      "point": "{0.79721537907935913, 1}"
    },
    {
      "_class": "curvePoint",
      "cornerRadius": 0,
      "curveFrom": "{1, 0.83797540200532006}",
      "curveMode": 1,
      "curveTo": "{1, 0.83797540200532006}",
      "hasCurveFrom": false,
      "hasCurveTo": false,
      "point": "{1, 0.83797540200532006}"
    },
    {
      "_class": "curvePoint",
      "cornerRadius": 0,
      "curveFrom": "{0.63797160018822474, 0.5197701741287164}",
      "curveMode": 4,
      "curveTo": "{0.64098873418772673, 0.52007284976802193}",
      "hasCurveFrom": true,
      "hasCurveTo": false,
      "point": "{0.64098873418772673, 0.52007284976802193}"
    }
  ],
  "resizingConstraint": 63,
  "resizingType": 0,
  "rotation": 0,
  "shouldBreakMaskChain": false,
  "style": {
    "_class": "style",
    "do_objectID": "63610B14-096A-41C0-965F-F212FF00DCED",
    "endMarkerType": 0,
    "fills": [
      {
        "_class": "fill",
        "color": {
          "_class": "color",
          "alpha": 1,
          "blue": 0.1764705882352941,
          "green": 0.1764705882352941,
          "red": 0.1764705882352941
        },
        "fillType": 0,
        "isEnabled": true,
        "noiseIndex": 0,
        "noiseIntensity": 0,
        "patternFillType": 1,
        "patternTileScale": 1
      }
    ],
    "miterLimit": 10,
    "startMarkerType": 0,
    "windingRule": 1
  }
}