{
  "_class": "shapePath",
  "booleanOperation": -1,
  "clippingMaskMode": 0,
  "do_objectID": "8D03546B-ED8F-4935-8305-FA1591360180",
  "edited": true,
  "exportOptions": {
    "_class": "exportOptions",
    "do_objectID": "C066E831-2E90-4D83-BD0B-6429F7406C10",
    "exportFormats": [
    ],
    "includedLayerIds": [
    ],
    "layerOptions": 0,
    "shouldTrim": false
  },
  "frame": {
    "_class": "rect",
    "constrainProportions": false,
    "do_objectID": "43D99E1E-C563-403E-B17A-866EAEED38BF",
    "height": 0.1058906030855553,
    "width": 0.1154286272036842,
    "x": 22.90957492424304,
    "y": 14.67528256562852
  },
  "hasClippingMask": false,
  "isClosed": true,
  "isFixedToViewport": false,
  "isFlippedHorizontal": false,
  "isFlippedVertical": false,
  "isLocked": false,
  "isVisible": true,
  "layerListExpandedType": 0,
  "name": "Path",
  "nameIsFixed": false,
  "pointRadiusBehaviour": 0,
  "points": [
    {
      "_class": "curvePoint",
      "cornerRadius": 0,
      "curveFrom": "{0.1309021969354715, 0.045999999999992269}",
      "curveMode": 3,
      "curveTo": "{-0.082875220457453588, 0.54300000000000637}",
      "hasCurveFrom": true,
      "hasCurveTo": true,
      "point": "{0.013465260407129889, 0.31799999999998363}"
    },
    {
      "_class": "curvePoint",
      "cornerRadius": 0,
      "curveFrom": "{1.1203259675666559, 0.52899999999999636}",
      "curveMode": 4,
      "curveTo": "{0.77715695543587826, 0.23200000000002774}",
      "hasCurveFrom": true,
      "hasCurveTo": true,
      "point": "{0.93959966404695994, 0}"
    },
    {
      "_class": "curvePoint",
      "cornerRadius": 0,
      "curveFrom": "{0.36155677885945908, 1.1999999999999886}",
      "curveMode": 4,
      "curveTo": "{0.86365242365735861, 0.68200000000001637}",
      "hasCurveFrom": true,
      "hasCurveTo": true,
      "point": "{0.58939850002826288, 0.81600000000003092}"
    }
  ],
  "resizingConstraint": 63,
  "resizingType": 0,
  "rotation": 0,
  "shouldBreakMaskChain": false,
  "style": {
    "_class": "style",
    "do_objectID": "E58493B7-1997-43E1-A5E0-0BAE0BDA1415",
    "endMarkerType": 0,
    "fills": [
      {
        "_class": "fill",
        "color": {
          "_class": "color",
          "alpha": 1,
          "blue": 0.1764705882352941,
          "green": 0.1764705882352941,
          "red": 0.1764705882352941
        },
        "fillType": 0,
        "isEnabled": true,
        "noiseIndex": 0,
        "noiseIntensity": 0,
        "patternFillType": 1,
        "patternTileScale": 1
      }
    ],
    "miterLimit": 10,
    "startMarkerType": 0,
    "windingRule": 1
  }
}