{
  "_class": "shapePath",
  "booleanOperation": -1,
  "clippingMaskMode": 0,
  "do_objectID": "8E6747AF-874D-4C6F-ADF2-A98F5D5DA856",
  "edited": true,
  "exportOptions": {
    "_class": "exportOptions",
    "do_objectID": "211F6E25-52C0-4146-AE3B-AB131DAF0562",
    "exportFormats": [
    ],
    "includedLayerIds": [
    ],
    "layerOptions": 0,
    "shouldTrim": false
  },
  "frame": {
    "_class": "rect",
    "constrainProportions": false,
    "do_objectID": "3D4C1590-6BBB-4EBB-B035-35E7B76BE269",
    "height": 0.1078981330014264,
    "width": 0.1093141949141412,
    "x": 20.6086615299275,
    "y": 6.632891261280698
  },
  "hasClippingMask": false,
  "isClosed": true,
  "isFixedToViewport": false,
  "isFlippedHorizontal": false,
  "isFlippedVertical": false,
  "isLocked": false,
  "isVisible": true,
  "layerListExpandedType": 0,
  "name": "Path",
  "nameIsFixed": false,
  "pointRadiusBehaviour": 0,
  "points": [
    {
      "_class": "curvePoint",
      "cornerRadius": 0,
      "curveFrom": "{0.23136830142797252, 0.19241339450587994}",
      "curveMode": 4,
      "curveTo": "{-1.0146291930667268, 1.1807868858154875}",
      "hasCurveFrom": true,
      "hasCurveTo": true,
      "point": "{0.40141205961587678, 0.54867882027070469}"
    },
    {
      "_class": "curvePoint",
      "cornerRadius": 0,
      "curveFrom": "{1.8597786145548469, 1.2754903534238857}",
      "curveMode": 4,
      "curveTo": "{0.47195423004316828, 0.090193778674644579}",
      "hasCurveFrom": true,
      "hasCurveTo": true,
      "point": "{0.73036133855576491, 0}"
    }
  ],
  "resizingConstraint": 63,
  "resizingType": 0,
  "rotation": 0,
  "shouldBreakMaskChain": false,
  "style": {
    "_class": "style",
    "do_objectID": "03A53283-3FA4-409A-A41D-97D77BF9247A",
    "endMarkerType": 0,
    "fills": [
      {
        "_class": "fill",
        "color": {
          "_class": "color",
          "alpha": 1,
          "blue": 0.1764705882352941,
          "green": 0.1764705882352941,
          "red": 0.1764705882352941
        },
        "fillType": 0,
        "isEnabled": true,
        "noiseIndex": 0,
        "noiseIntensity": 0,
        "patternFillType": 1,
        "patternTileScale": 1
      }
    ],
    "miterLimit": 10,
    "startMarkerType": 0,
    "windingRule": 1
  }
}