{
  "_class": "shapePath",
  "booleanOperation": -1,
  "clippingMaskMode": 0,
  "do_objectID": "901B0251-4250-42DD-AD46-ABCE05E00C12",
  "edited": true,
  "exportOptions": {
    "_class": "exportOptions",
    "do_objectID": "CC679E30-7E01-4E6F-896C-9045277B5AA4",
    "exportFormats": [
    ],
    "includedLayerIds": [
    ],
    "layerOptions": 0,
    "shouldTrim": false
  },
  "frame": {
    "_class": "rect",
    "constrainProportions": false,
    "do_objectID": "EFCF49F3-22D9-414D-8C21-AC0947E08F82",
    "height": 0.1058906030855624,
    "width": 0.3721248987466055,
    "x": 39.12450098587313,
    "y": 16.61358618114361
  },
  "hasClippingMask": false,
  "isClosed": true,
  "isFixedToViewport": false,
  "isFlippedHorizontal": false,
  "isFlippedVertical": false,
  "isLocked": false,
  "isVisible": true,
  "layerListExpandedType": 0,
  "name": "Path",
  "nameIsFixed": false,
  "pointRadiusBehaviour": 0,
  "points": [
    {
      "_class": "curvePoint",
      "cornerRadius": 0,
      "curveFrom": "{0.58938406303486812, 0.089999006211559596}",
      "curveMode": 2,
      "curveTo": "{0.39546754488608793, 0.22713208079704203}",
      "hasCurveFrom": true,
      "hasCurveTo": true,
      "point": "{0.495370542987489, 0.1562011801493895}"
    },
    {
      "_class": "curvePoint",
      "cornerRadius": 0,
      "curveFrom": "{1.2348272319912625, -1.0638103109905741}",
      "curveMode": 4,
      "curveTo": "{0.67270927105830358, -0.091268850999172646}",
      "hasCurveFrom": true,
      "hasCurveTo": true,
      "point": "{0.70477420713014693, 0.43125545043868801}"
    },
    {
      "_class": "curvePoint",
      "cornerRadius": 0,
      "curveFrom": "{0.60661623956327637, 0.52425374239896538}",
      "curveMode": 4,
      "curveTo": "{0.93424572241981896, 1.9294736963411951}",
      "hasCurveFrom": true,
      "hasCurveTo": true,
      "point": "{0.70477420713014693, 0.43125545043868801}"
    },
    {
      "_class": "curvePoint",
      "cornerRadius": 0,
      "curveFrom": "{0.32544819468839187, 0.98136399101730742}",
      "curveMode": 4,
      "curveTo": "{0.51958284165398216, 0.84423091643180259}",
      "hasCurveFrom": true,
      "hasCurveTo": true,
      "point": "{0.42011610118621373, 0.91358557484285496}"
    },
    {
      "_class": "curvePoint",
      "cornerRadius": 0,
      "curveFrom": "{0.11866207634750492, 0.75832571453628139}",
      "curveMode": 4,
      "curveTo": "{0.24255924429858899, 1.1642080904646397}",
      "hasCurveFrom": true,
      "hasCurveTo": true,
      "point": "{0.20962179295948044, 0.63853130455355656}"
    },
    {
      "_class": "curvePoint",
      "cornerRadius": 0,
      "curveFrom": "{0.091395974245595757, 0.24368262428151069}",
      "curveMode": 4,
      "curveTo": "{0.030974291987767917, 0.84817152202333634}",
      "hasCurveFrom": true,
      "hasCurveTo": true,
      "point": "{0, 0.36426515538254683}"
    },
    {
      "_class": "curvePoint",
      "cornerRadius": 0,
      "curveFrom": "{0.30887040461042631, 0.54632113371156787}",
      "curveMode": 4,
      "curveTo": "{0.17908375860534514, 0.1562011801493895}",
      "hasCurveFrom": true,
      "hasCurveTo": true,
      "point": "{0.20962179295948044, 0.63853130455355656}"
    }
  ],
  "resizingConstraint": 63,
  "resizingType": 0,
  "rotation": 0,
  "shouldBreakMaskChain": false,
  "style": {
    "_class": "style",
    "do_objectID": "6F493EDB-6B17-48FA-B14F-1862683587EB",
    "endMarkerType": 0,
    "fills": [
      {
        "_class": "fill",
        "color": {
          "_class": "color",
          "alpha": 1,
          "blue": 0.1764705882352941,
          "green": 0.1764705882352941,
          "red": 0.1764705882352941
        },
        "fillType": 0,
        "isEnabled": true,
        "noiseIndex": 0,
        "noiseIntensity": 0,
        "patternFillType": 1,
        "patternTileScale": 1
      }
    ],
    "miterLimit": 10,
    "startMarkerType": 0,
    "windingRule": 1
  }
}