{
  "_class": "shapePath",
  "booleanOperation": -1,
  "clippingMaskMode": 0,
  "do_objectID": "9FE284C2-D77F-451D-9C45-ADE75FF6A940",
  "edited": true,
  "exportOptions": {
    "_class": "exportOptions",
    "do_objectID": "847D19DA-EA67-456C-AFDE-9B1DAF1F7E89",
    "exportFormats": [
    ],
    "includedLayerIds": [
    ],
    "layerOptions": 0,
    "shouldTrim": false
  },
  "frame": {
    "_class": "rect",
    "constrainProportions": false,
    "do_objectID": "83D07FF0-E7F2-475B-9C91-8DD791F809F7",
    "height": 0.1058906030855624,
    "width": 0.1059863482545609,
    "x": 19.21717780351633,
    "y": 16.13926734126989
  },
  "hasClippingMask": false,
  "isClosed": true,
  "isFixedToViewport": false,
  "isFlippedHorizontal": false,
  "isFlippedVertical": false,
  "isLocked": false,
  "isVisible": true,
  "layerListExpandedType": 0,
  "name": "Path",
  "nameIsFixed": false,
  "pointRadiusBehaviour": 0,
  "points": [
    {
      "_class": "curvePoint",
      "cornerRadius": 0,
      "curveFrom": "{0.94017335964480253, 0.24591813510869542}",
      "curveMode": 3,
      "curveTo": "{0.362173359644828, -0.10708186489131322}",
      "hasCurveFrom": true,
      "hasCurveTo": true,
      "point": "{0.56417335964482618, 0.015918135108677234}"
    },
    {
      "_class": "curvePoint",
      "cornerRadius": 0,
      "curveFrom": "{-0.25782664035517655, 0.51591813510867723}",
      "curveMode": 3,
      "curveTo": "{0.32117335964480276, 0.86991813510871907}",
      "hasCurveFrom": true,
      "hasCurveTo": true,
      "point": "{0.11917335964480458, 0.74491813510871907}"
    }
  ],
  "resizingConstraint": 63,
  "resizingType": 0,
  "rotation": 0,
  "shouldBreakMaskChain": false,
  "style": {
    "_class": "style",
    "do_objectID": "A78898CB-317F-41B2-86CB-97586138C369",
    "endMarkerType": 0,
    "fills": [
      {
        "_class": "fill",
        "color": {
          "_class": "color",
          "alpha": 1,
          "blue": 0.1764705882352941,
          "green": 0.1764705882352941,
          "red": 0.1764705882352941
        },
        "fillType": 0,
        "isEnabled": true,
        "noiseIndex": 0,
        "noiseIntensity": 0,
        "patternFillType": 1,
        "patternTileScale": 1
      }
    ],
    "miterLimit": 10,
    "startMarkerType": 0,
    "windingRule": 1
  }
}