{
  "_class": "shapePath",
  "booleanOperation": -1,
  "clippingMaskMode": 0,
  "do_objectID": "AB978571-7F82-46B4-94FC-035A7CB91484",
  "edited": true,
  "exportOptions": {
    "_class": "exportOptions",
    "do_objectID": "6A9E2EC9-4012-48CF-93B3-B79548809546",
    "exportFormats": [
    ],
    "includedLayerIds": [
    ],
    "layerOptions": 0,
    "shouldTrim": false
  },
  "frame": {
    "_class": "rect",
    "constrainProportions": false,
    "do_objectID": "04EEE273-57F6-464B-B1B5-AEE3C8C8C7B3",
    "height": 0.1058906030855553,
    "width": 0.1436307882400278,
    "x": 19.80216328176145,
    "y": 35.15873070444471
  },
  "hasClippingMask": false,
  "isClosed": true,
  "isFixedToViewport": false,
  "isFlippedHorizontal": false,
  "isFlippedVertical": false,
  "isLocked": false,
  "isVisible": true,
  "layerListExpandedType": 0,
  "name": "Path",
  "nameIsFixed": false,
  "pointRadiusBehaviour": 0,
  "points": [
    {
      "_class": "curvePoint",
      "cornerRadius": 0,
      "curveFrom": "{0.48565632896752425, 0.81317600786627486}",
      "curveMode": 4,
      "curveTo": "{0.90272790304241157, 0.60176991150445003}",
      "hasCurveFrom": true,
      "hasCurveTo": true,
      "point": "{0.70662514395843101, 0.72074729596854181}"
    },
    {
      "_class": "curvePoint",
      "cornerRadius": 0,
      "curveFrom": "{-0.086262956891264966, 0.53195673549655753}",
      "curveMode": 4,
      "curveTo": "{0.26468751397663354, 0.90658800393316541}",
      "hasCurveFrom": true,
      "hasCurveTo": true,
      "point": "{0.0437186989857428, 1}"
    },
    {
      "_class": "curvePoint",
      "cornerRadius": 0,
      "curveFrom": "{0.51447834831417194, 0.18682399213372516}",
      "curveMode": 4,
      "curveTo": "{0.096276498970783567, 0.39823008849560587}",
      "hasCurveFrom": true,
      "hasCurveTo": true,
      "point": "{0.29407467095751566, 0.27925270403145819}"
    },
    {
      "_class": "curvePoint",
      "cornerRadius": 0,
      "curveFrom": "{1.0863976341729611, 0.46804326450344247}",
      "curveMode": 4,
      "curveTo": "{0.73544716330506266, 0.093411996066890532}",
      "hasCurveFrom": true,
      "hasCurveTo": true,
      "point": "{0.95641597829595337, 0}"
    }
  ],
  "resizingConstraint": 63,
  "resizingType": 0,
  "rotation": 0,
  "shouldBreakMaskChain": false,
  "style": {
    "_class": "style",
    "do_objectID": "2C6753FB-C220-49D7-B8F6-C94D2843D05D",
    "endMarkerType": 0,
    "fills": [
      {
        "_class": "fill",
        "color": {
          "_class": "color",
          "alpha": 1,
          "blue": 0.1764705882352941,
          "green": 0.1764705882352941,
          "red": 0.1764705882352941
        },
        "fillType": 0,
        "isEnabled": true,
        "noiseIndex": 0,
        "noiseIntensity": 0,
        "patternFillType": 1,
        "patternTileScale": 1
      }
    ],
    "miterLimit": 10,
    "startMarkerType": 0,
    "windingRule": 1
  }
}