{
  "_class": "shapePath",
  "booleanOperation": -1,
  "clippingMaskMode": 0,
  "do_objectID": "B524B389-5093-4758-A279-0ABC3E39C9D5",
  "edited": true,
  "exportOptions": {
    "_class": "exportOptions",
    "do_objectID": "9A70C5FC-43E9-4405-88FB-BCA3EC68ACF7",
    "exportFormats": [
    ],
    "includedLayerIds": [
    ],
    "layerOptions": 0,
    "shouldTrim": false
  },
  "frame": {
    "_class": "rect",
    "constrainProportions": false,
    "do_objectID": "7FF599F9-0E30-45D0-95F7-EE86FED256E9",
    "height": 0.1058906030855908,
    "width": 0.1154264379505712,
    "x": 20.44972664002268,
    "y": 35.10082684949698
  },
  "hasClippingMask": false,
  "isClosed": true,
  "isFixedToViewport": false,
  "isFlippedHorizontal": false,
  "isFlippedVertical": false,
  "isLocked": false,
  "isVisible": true,
  "layerListExpandedType": 0,
  "name": "Path",
  "nameIsFixed": false,
  "pointRadiusBehaviour": 0,
  "points": [
    {
      "_class": "curvePoint",
      "cornerRadius": 0,
      "curveFrom": "{0.3632935398732266, 1.1999999999999886}",
      "curveMode": 4,
      "curveTo": "{0.8661019362711444, 0.68600000000003547}",
      "hasCurveFrom": true,
      "hasCurveTo": true,
      "point": "{0.58973312538388711, 0.81799999999998363}"
    },
    {
      "_class": "curvePoint",
      "cornerRadius": 0,
      "curveFrom": "{0.13193135467752781, 0.048000000000001819}",
      "curveMode": 4,
      "curveTo": "{-0.081850117357399998, 0.54400000000003956}",
      "hasCurveFrom": true,
      "hasCurveTo": true,
      "point": "{0.013085733710735251, 0.31999999999999318}"
    },
    {
      "_class": "curvePoint",
      "cornerRadius": 0,
      "curveFrom": "{1.1199674343126325, 0.53300000000001546}",
      "curveMode": 4,
      "curveTo": "{0.77749514194089553, 0.23399999999998045}",
      "hasCurveFrom": true,
      "hasCurveTo": true,
      "point": "{0.93923770301994447, 0}"
    }
  ],
  "resizingConstraint": 63,
  "resizingType": 0,
  "rotation": 0,
  "shouldBreakMaskChain": false,
  "style": {
    "_class": "style",
    "do_objectID": "83DEB44F-38C7-45F4-82C9-C0EB329D762F",
    "endMarkerType": 0,
    "fills": [
      {
        "_class": "fill",
        "color": {
          "_class": "color",
          "alpha": 1,
          "blue": 0.1764705882352941,
          "green": 0.1764705882352941,
          "red": 0.1764705882352941
        },
        "fillType": 0,
        "isEnabled": true,
        "noiseIndex": 0,
        "noiseIntensity": 0,
        "patternFillType": 1,
        "patternTileScale": 1
      }
    ],
    "miterLimit": 10,
    "startMarkerType": 0,
    "windingRule": 1
  }
}