{
  "_class": "shapePath",
  "booleanOperation": -1,
  "clippingMaskMode": 0,
  "do_objectID": "B848CE7F-4A64-418F-8020-E6B00B5E1DF2",
  "edited": true,
  "exportOptions": {
    "_class": "exportOptions",
    "do_objectID": "6F1FB8E8-2F8D-4877-A027-89AC9FD349C9",
    "exportFormats": [
    ],
    "includedLayerIds": [
    ],
    "layerOptions": 0,
    "shouldTrim": false
  },
  "frame": {
    "_class": "rect",
    "constrainProportions": false,
    "do_objectID": "CE8F54BD-58ED-46B7-A3DC-E0DB61AF91AE",
    "height": 0.1455706157297598,
    "width": 0.1603942198093229,
    "x": 29.06292936823014,
    "y": 20.91478787650099
  },
  "hasClippingMask": false,
  "isClosed": true,
  "isFixedToViewport": false,
  "isFlippedHorizontal": false,
  "isFlippedVertical": false,
  "isLocked": false,
  "isVisible": true,
  "layerListExpandedType": 0,
  "name": "Path",
  "nameIsFixed": false,
  "pointRadiusBehaviour": 0,
  "points": [
    {
      "_class": "curvePoint",
      "cornerRadius": 0,
      "curveFrom": "{0.333502024291494, 0.17771587743733369}",
      "curveMode": 4,
      "curveTo": "{0.053643724696353541, 0.51253481894150854}",
      "hasCurveFrom": true,
      "hasCurveTo": true,
      "point": "{0, 0.26685236768804321}"
    },
    {
      "_class": "curvePoint",
      "cornerRadius": 0,
      "curveFrom": "{0.95242914979757387, 0.49025069637882318}",
      "curveMode": 4,
      "curveTo": "{0.666497975708506, 0.089136490250709521}",
      "hasCurveFrom": true,
      "hasCurveTo": true,
      "point": "{1, 0}"
    },
    {
      "_class": "curvePoint",
      "cornerRadius": 0,
      "curveFrom": "{0.10728744939270708, 0.75487465181058844}",
      "curveMode": 4,
      "curveTo": "{0.73785425101213087, 0.86796657381614428}",
      "hasCurveFrom": true,
      "hasCurveTo": true,
      "point": "{0.1609311740890606, 1}"
    }
  ],
  "resizingConstraint": 63,
  "resizingType": 0,
  "rotation": 0,
  "shouldBreakMaskChain": false,
  "style": {
    "_class": "style",
    "do_objectID": "4D805C76-C153-4EAC-A1BC-6272F0DE03E8",
    "endMarkerType": 0,
    "fills": [
      {
        "_class": "fill",
        "color": {
          "_class": "color",
          "alpha": 1,
          "blue": 0.1764705882352941,
          "green": 0.1764705882352941,
          "red": 0.1764705882352941
        },
        "fillType": 0,
        "isEnabled": true,
        "noiseIndex": 0,
        "noiseIntensity": 0,
        "patternFillType": 1,
        "patternTileScale": 1
      }
    ],
    "miterLimit": 10,
    "startMarkerType": 0,
    "windingRule": 1
  }
}