{
  "_class": "shapePath",
  "booleanOperation": -1,
  "clippingMaskMode": 0,
  "do_objectID": "B98A702B-2227-48E6-854A-16398AA5030B",
  "edited": true,
  "exportOptions": {
    "_class": "exportOptions",
    "do_objectID": "1E16101C-BA9C-48F0-97A2-FB37BDE16D9D",
    "exportFormats": [
    ],
    "includedLayerIds": [
    ],
    "layerOptions": 0,
    "shouldTrim": false
  },
  "frame": {
    "_class": "rect",
    "constrainProportions": false,
    "do_objectID": "EA7DEFF1-DEE0-4B08-8D5B-5A11751499C6",
    "height": 0.105890603085566,
    "width": 0.1072217763283696,
    "x": 23.61089454822553,
    "y": 18.35607005093578
  },
  "hasClippingMask": false,
  "isClosed": true,
  "isFixedToViewport": false,
  "isFlippedHorizontal": false,
  "isFlippedVertical": false,
  "isLocked": false,
  "isVisible": true,
  "layerListExpandedType": 0,
  "name": "Path",
  "nameIsFixed": false,
  "pointRadiusBehaviour": 0,
  "points": [
    {
      "_class": "curvePoint",
      "cornerRadius": 0,
      "curveFrom": "{0.48158236380938502, 1.251368166554119}",
      "curveMode": 4,
      "curveTo": "{0.91233807243710063, 0.64285972477878095}",
      "hasCurveFrom": true,
      "hasCurveTo": true,
      "point": "{0.65343042331461876, 0.84013423574142299}"
    },
    {
      "_class": "curvePoint",
      "cornerRadius": 0,
      "curveFrom": "{0.083379371299409213, 0.25419949422551652}",
      "curveMode": 3,
      "curveTo": "{-0.05970117163669808, 0.76652434359119215}",
      "hasCurveFrom": true,
      "hasCurveTo": true,
      "point": "{0.0054042605987815922, 0.53293561916775811}"
    },
    {
      "_class": "curvePoint",
      "cornerRadius": 0,
      "curveFrom": "{1.1462634045389404, 0.43675202675809566}",
      "curveMode": 4,
      "curveTo": "{0.75941601067471887, 0.25419949422551652}",
      "hasCurveFrom": true,
      "hasCurveTo": true,
      "point": "{0.88735575541650158, 0}"
    }
  ],
  "resizingConstraint": 63,
  "resizingType": 0,
  "rotation": 0,
  "shouldBreakMaskChain": false,
  "style": {
    "_class": "style",
    "do_objectID": "37B19E24-FD04-457D-9FAE-566CD5DE4570",
    "endMarkerType": 0,
    "fills": [
      {
        "_class": "fill",
        "color": {
          "_class": "color",
          "alpha": 1,
          "blue": 0.1764705882352941,
          "green": 0.1764705882352941,
          "red": 0.1764705882352941
        },
        "fillType": 0,
        "isEnabled": true,
        "noiseIndex": 0,
        "noiseIntensity": 0,
        "patternFillType": 1,
        "patternTileScale": 1
      }
    ],
    "miterLimit": 10,
    "startMarkerType": 0,
    "windingRule": 1
  }
}