{
  "_class": "shapePath",
  "booleanOperation": -1,
  "clippingMaskMode": 0,
  "do_objectID": "BBA13781-9595-45D5-BAD0-58FA6E9D265B",
  "edited": true,
  "exportOptions": {
    "_class": "exportOptions",
    "do_objectID": "EB5B956A-71B8-4B75-8C0B-FDEF3A1BD3B5",
    "exportFormats": [
    ],
    "includedLayerIds": [
    ],
    "layerOptions": 0,
    "shouldTrim": false
  },
  "frame": {
    "_class": "rect",
    "constrainProportions": false,
    "do_objectID": "4C83580A-7463-489A-9646-6DDA27DDB570",
    "height": 0.1058906030855518,
    "width": 0.1436076597421163,
    "x": 17.94914124485097,
    "y": 14.61267503618933
  },
  "hasClippingMask": false,
  "isClosed": true,
  "isFixedToViewport": false,
  "isFlippedHorizontal": false,
  "isFlippedVertical": false,
  "isLocked": false,
  "isVisible": true,
  "layerListExpandedType": 0,
  "name": "Path",
  "nameIsFixed": false,
  "pointRadiusBehaviour": 0,
  "points": [
    {
      "_class": "curvePoint",
      "cornerRadius": 0,
      "curveFrom": "{0.48379887864982229, 0.81324110671934657}",
      "curveMode": 4,
      "curveTo": "{0.90319853811449369, 0.60079051383399584}",
      "hasCurveFrom": true,
      "hasCurveTo": true,
      "point": "{0.70536851006512102, 0.72035573122528129}"
    },
    {
      "_class": "curvePoint",
      "cornerRadius": 0,
      "curveFrom": "{-0.085951602132385896, 0.53260869565216107}",
      "curveMode": 4,
      "curveTo": "{0.26335970453766827, 0.90711462450593472}",
      "hasCurveFrom": true,
      "hasCurveTo": true,
      "point": "{0.043485759077070502, 1}"
    },
    {
      "_class": "curvePoint",
      "cornerRadius": 0,
      "curveFrom": "{0.51432122583458428, 0.18675889328065345}",
      "curveMode": 4,
      "curveTo": "{0.096052023673041484, 0.4001976284584709}",
      "hasCurveFrom": true,
      "hasCurveTo": true,
      "point": "{0.29444728037398654, 0.28063241106718545}"
    },
    {
      "_class": "curvePoint",
      "cornerRadius": 0,
      "curveFrom": "{1.0857673925714935, 0.46837944664030567}",
      "curveMode": 4,
      "curveTo": "{0.73645608590145539, 0.092885375494065267}",
      "hasCurveFrom": true,
      "hasCurveTo": true,
      "point": "{0.95689526001360936, 0}"
    }
  ],
  "resizingConstraint": 63,
  "resizingType": 0,
  "rotation": 0,
  "shouldBreakMaskChain": false,
  "style": {
    "_class": "style",
    "do_objectID": "17F20A0F-42F6-46D1-AA3E-AE626FDD2DDE",
    "endMarkerType": 0,
    "fills": [
      {
        "_class": "fill",
        "color": {
          "_class": "color",
          "alpha": 1,
          "blue": 0.1764705882352941,
          "green": 0.1764705882352941,
          "red": 0.1764705882352941
        },
        "fillType": 0,
        "isEnabled": true,
        "noiseIndex": 0,
        "noiseIntensity": 0,
        "patternFillType": 1,
        "patternTileScale": 1
      }
    ],
    "miterLimit": 10,
    "startMarkerType": 0,
    "windingRule": 1
  }
}