{
  "_class": "shapePath",
  "booleanOperation": -1,
  "clippingMaskMode": 0,
  "do_objectID": "BC968BAE-73A1-4027-8157-4B816598F3D9",
  "edited": true,
  "exportOptions": {
    "_class": "exportOptions",
    "do_objectID": "C24F8584-027D-4716-8211-2687579EF74B",
    "exportFormats": [
    ],
    "includedLayerIds": [
    ],
    "layerOptions": 0,
    "shouldTrim": false
  },
  "frame": {
    "_class": "rect",
    "constrainProportions": false,
    "do_objectID": "00BDEF3B-EE2C-49ED-B02B-13258583BEEC",
    "height": 0.1058906030855589,
    "width": 0.1059863482545111,
    "x": 43.3035513724315,
    "y": 16.75927463746335
  },
  "hasClippingMask": false,
  "isClosed": true,
  "isFixedToViewport": false,
  "isFlippedHorizontal": false,
  "isFlippedVertical": false,
  "isLocked": false,
  "isVisible": true,
  "layerListExpandedType": 0,
  "name": "Path",
  "nameIsFixed": false,
  "pointRadiusBehaviour": 0,
  "points": [
    {
      "_class": "curvePoint",
      "cornerRadius": 0,
      "curveFrom": "{0.94057884282153736, 0.24574131773940167}",
      "curveMode": 3,
      "curveTo": "{0.36257884282156283, -0.1062586822606022}",
      "hasCurveFrom": true,
      "hasCurveTo": true,
      "point": "{0.56457884282156101, 0.015741317739383476}"
    },
    {
      "_class": "curvePoint",
      "cornerRadius": 0,
      "curveFrom": "{-0.25842115717841807, 0.51374131773940235}",
      "curveMode": 3,
      "curveTo": "{0.31957884282155646, 0.86574131773940621}",
      "hasCurveFrom": true,
      "hasCurveTo": true,
      "point": "{0.11957884282162468, 0.74374131773939212}"
    }
  ],
  "resizingConstraint": 63,
  "resizingType": 0,
  "rotation": 0,
  "shouldBreakMaskChain": false,
  "style": {
    "_class": "style",
    "do_objectID": "A2FCBEC6-1A82-458A-ADC9-8016141DD51E",
    "endMarkerType": 0,
    "fills": [
      {
        "_class": "fill",
        "color": {
          "_class": "color",
          "alpha": 1,
          "blue": 0.1764705882352941,
          "green": 0.1764705882352941,
          "red": 0.1764705882352941
        },
        "fillType": 0,
        "isEnabled": true,
        "noiseIndex": 0,
        "noiseIntensity": 0,
        "patternFillType": 1,
        "patternTileScale": 1
      }
    ],
    "miterLimit": 10,
    "startMarkerType": 0,
    "windingRule": 1
  }
}