{
  "_class": "shapePath",
  "booleanOperation": -1,
  "clippingMaskMode": 0,
  "do_objectID": "C75B7A0E-807C-4C8C-BAB0-D69BCAF1572A",
  "edited": true,
  "exportOptions": {
    "_class": "exportOptions",
    "do_objectID": "E7AF63C1-250A-45FC-BAD1-54A517F40396",
    "exportFormats": [
    ],
    "includedLayerIds": [
    ],
    "layerOptions": 0,
    "shouldTrim": false
  },
  "frame": {
    "_class": "rect",
    "constrainProportions": false,
    "do_objectID": "17061D40-AD66-40F9-850C-F83FBB28ABCD",
    "height": 0.1058906030855544,
    "width": 0.1059863482545573,
    "x": 21.95412705190888,
    "y": 3.957904876216624
  },
  "hasClippingMask": false,
  "isClosed": true,
  "isFixedToViewport": false,
  "isFlippedHorizontal": false,
  "isFlippedVertical": false,
  "isLocked": false,
  "isVisible": true,
  "layerListExpandedType": 0,
  "name": "Path",
  "nameIsFixed": false,
  "pointRadiusBehaviour": 0,
  "points": [
    {
      "_class": "curvePoint",
      "cornerRadius": 0,
      "curveFrom": "{-0.29107235552856991, 0.57668263748961124}",
      "curveMode": 3,
      "curveTo": "{0.35892764447146419, 0.97168263748959305}",
      "hasCurveFrom": true,
      "hasCurveTo": true,
      "point": "{0.13492764447147465, 0.83368263748961624}"
    },
    {
      "_class": "curvePoint",
      "cornerRadius": 0,
      "curveFrom": "{1.0539276444714574, 0.27768263748963307}",
      "curveMode": 3,
      "curveTo": "{0.40792764447144236, -0.11931736251041514}",
      "hasCurveFrom": true,
      "hasCurveTo": true,
      "point": "{0.63092764447145555, 0.017682637489585318}"
    }
  ],
  "resizingConstraint": 63,
  "resizingType": 0,
  "rotation": 0,
  "shouldBreakMaskChain": false,
  "style": {
    "_class": "style",
    "do_objectID": "F68DCC09-3F57-4A49-BCC7-A7D811C1CB00",
    "endMarkerType": 0,
    "fills": [
      {
        "_class": "fill",
        "color": {
          "_class": "color",
          "alpha": 1,
          "blue": 0.1764705882352941,
          "green": 0.1764705882352941,
          "red": 0.1764705882352941
        },
        "fillType": 0,
        "isEnabled": true,
        "noiseIndex": 0,
        "noiseIntensity": 0,
        "patternFillType": 1,
        "patternTileScale": 1
      }
    ],
    "miterLimit": 10,
    "startMarkerType": 0,
    "windingRule": 1
  }
}