{
  "_class": "shapePath",
  "booleanOperation": -1,
  "clippingMaskMode": 0,
  "do_objectID": "CCBC2144-A7FB-46FC-9DC3-FFFC94F65352",
  "edited": true,
  "exportOptions": {
    "_class": "exportOptions",
    "do_objectID": "289517B4-FE8E-4499-AAF6-04010D2AD558",
    "exportFormats": [
    ],
    "includedLayerIds": [
    ],
    "layerOptions": 0,
    "shouldTrim": false
  },
  "frame": {
    "_class": "rect",
    "constrainProportions": false,
    "do_objectID": "B581CF5F-3B4E-4278-AE49-8854CEB6FCD8",
    "height": 0.1058906030855535,
    "width": 0.1181852145963518,
    "x": 26.81838434486631,
    "y": 8.219645486609066
  },
  "hasClippingMask": false,
  "isClosed": true,
  "isFixedToViewport": false,
  "isFlippedHorizontal": false,
  "isFlippedVertical": false,
  "isLocked": false,
  "isVisible": true,
  "layerListExpandedType": 0,
  "name": "Path",
  "nameIsFixed": false,
  "pointRadiusBehaviour": 0,
  "points": [
    {
      "_class": "curvePoint",
      "cornerRadius": 0,
      "curveFrom": "{0.75068681318680675, 0.41707441683166735}",
      "curveMode": 4,
      "curveTo": "{0.4903846153846278, -0.053925583168336289}",
      "hasCurveFrom": true,
      "hasCurveTo": true,
      "point": "{0.49862637362638657, 0.47107441683164097}"
    },
    {
      "_class": "curvePoint",
      "cornerRadius": 0,
      "curveFrom": "{0.74862637362637674, 0.96807441683165507}",
      "curveMode": 4,
      "curveTo": "{0.98969780219781134, 0.39107441683165689}",
      "hasCurveFrom": true,
      "hasCurveTo": true,
      "point": "{1, 0.91607441683163415}"
    },
    {
      "_class": "curvePoint",
      "cornerRadius": 0,
      "curveFrom": "{0.24656593406592733, 0.52307441683166189}",
      "curveMode": 4,
      "curveTo": "{0.50892857142857528, 0.99507441683164188}",
      "hasCurveFrom": true,
      "hasCurveTo": true,
      "point": "{0.49862637362638657, 0.47107441683164097}"
    },
    {
      "_class": "curvePoint",
      "cornerRadius": 0,
      "curveFrom": "{0.24999999999999023, -0.025925583168373123}",
      "curveMode": 4,
      "curveTo": "{0.0068681318681258086, 0.55107441683162506}",
      "hasCurveFrom": true,
      "hasCurveTo": true,
      "point": "{0, 0.027074416831624148}"
    }
  ],
  "resizingConstraint": 63,
  "resizingType": 0,
  "rotation": 0,
  "shouldBreakMaskChain": false,
  "style": {
    "_class": "style",
    "do_objectID": "48B1EAE6-EDE1-4DDD-A8B4-D41150863DF5",
    "endMarkerType": 0,
    "fills": [
      {
        "_class": "fill",
        "color": {
          "_class": "color",
          "alpha": 1,
          "blue": 0.1764705882352941,
          "green": 0.1764705882352941,
          "red": 0.1764705882352941
        },
        "fillType": 0,
        "isEnabled": true,
        "noiseIndex": 0,
        "noiseIntensity": 0,
        "patternFillType": 1,
        "patternTileScale": 1
      }
    ],
    "miterLimit": 10,
    "startMarkerType": 0,
    "windingRule": 1
  }
}