{
  "_class": "shapePath",
  "booleanOperation": -1,
  "clippingMaskMode": 0,
  "do_objectID": "D11E88A8-D205-45D9-895C-45AD7B5FB67C",
  "edited": true,
  "exportOptions": {
    "_class": "exportOptions",
    "do_objectID": "6D38383E-72F8-479B-A69B-2A81BCCB241C",
    "exportFormats": [
    ],
    "includedLayerIds": [
    ],
    "layerOptions": 0,
    "shouldTrim": false
  },
  "frame": {
    "_class": "rect",
    "constrainProportions": false,
    "do_objectID": "9D56E5DF-F70C-498E-9DB8-EBC63D805CC6",
    "height": 0.1058906030855731,
    "width": 0.1059863482545538,
    "x": 14.31192011722529,
    "y": 18.63104476449112
  },
  "hasClippingMask": false,
  "isClosed": true,
  "isFixedToViewport": false,
  "isFlippedHorizontal": false,
  "isFlippedVertical": false,
  "isLocked": false,
  "isVisible": true,
  "layerListExpandedType": 0,
  "name": "Path",
  "nameIsFixed": false,
  "pointRadiusBehaviour": 0,
  "points": [
    {
      "_class": "curvePoint",
      "cornerRadius": 0,
      "curveFrom": "{1.0552113336752029, 0.27534586037495501}",
      "curveMode": 3,
      "curveTo": "{0.40621133367520201, -0.12165413962503635}",
      "hasCurveFrom": true,
      "hasCurveTo": true,
      "point": "{0.63221133367522953, 0.018345860374950007}"
    },
    {
      "_class": "curvePoint",
      "cornerRadius": 0,
      "curveFrom": "{-0.28978866632479594, 0.57734586037497593}",
      "curveMode": 3,
      "curveTo": "{0.36021133367520974, 0.97434586037496729}",
      "hasCurveFrom": true,
      "hasCurveTo": true,
      "point": "{0.13421133367521065, 0.83534586037495728}"
    }
  ],
  "resizingConstraint": 63,
  "resizingType": 0,
  "rotation": 0,
  "shouldBreakMaskChain": false,
  "style": {
    "_class": "style",
    "do_objectID": "6A623D87-58E8-4DDA-A8D6-A61FC77F1F30",
    "endMarkerType": 0,
    "fills": [
      {
        "_class": "fill",
        "color": {
          "_class": "color",
          "alpha": 1,
          "blue": 0.1764705882352941,
          "green": 0.1764705882352941,
          "red": 0.1764705882352941
        },
        "fillType": 0,
        "isEnabled": true,
        "noiseIndex": 0,
        "noiseIntensity": 0,
        "patternFillType": 1,
        "patternTileScale": 1
      }
    ],
    "miterLimit": 10,
    "startMarkerType": 0,
    "windingRule": 1
  }
}