{
  "_class": "shapePath",
  "booleanOperation": -1,
  "clippingMaskMode": 0,
  "do_objectID": "E0DA881E-EDF9-4E7E-838D-ADC1FC5D7FF0",
  "edited": true,
  "exportOptions": {
    "_class": "exportOptions",
    "do_objectID": "1A99B84E-0B2C-4585-8B60-26F1FBAA3759",
    "exportFormats": [
    ],
    "includedLayerIds": [
    ],
    "layerOptions": 0,
    "shouldTrim": false
  },
  "frame": {
    "_class": "rect",
    "constrainProportions": false,
    "do_objectID": "7B1292A2-B696-46B3-AFA2-B5F105DB6620",
    "height": 0.1058906030855553,
    "width": 0.105986348254568,
    "x": 36.87484744249929,
    "y": 20.17666916643835
  },
  "hasClippingMask": false,
  "isClosed": true,
  "isFixedToViewport": false,
  "isFlippedHorizontal": false,
  "isFlippedVertical": false,
  "isLocked": false,
  "isVisible": true,
  "layerListExpandedType": 0,
  "name": "Path",
  "nameIsFixed": false,
  "pointRadiusBehaviour": 0,
  "points": [
    {
      "_class": "curvePoint",
      "cornerRadius": 0,
      "curveFrom": "{-0.25606484216348235, 0.51658329633033873}",
      "curveMode": 4,
      "curveTo": "{0.31993515783653947, 0.86658329633033304}",
      "hasCurveFrom": true,
      "hasCurveTo": true,
      "point": "{0.11793515783654129, 0.74658329633032849}"
    },
    {
      "_class": "curvePoint",
      "cornerRadius": 0,
      "curveFrom": "{0.94293515783652992, 0.24658329633032849}",
      "curveMode": 3,
      "curveTo": "{0.36093515783653629, -0.10941670366966605}",
      "hasCurveFrom": true,
      "hasCurveTo": true,
      "point": "{0.56493515783654402, 0.016583296330338726}"
    }
  ],
  "resizingConstraint": 63,
  "resizingType": 0,
  "rotation": 0,
  "shouldBreakMaskChain": false,
  "style": {
    "_class": "style",
    "do_objectID": "1CFE495E-D14B-4998-A195-4D1519C9FCE2",
    "endMarkerType": 0,
    "fills": [
      {
        "_class": "fill",
        "color": {
          "_class": "color",
          "alpha": 1,
          "blue": 0.1764705882352941,
          "green": 0.1764705882352941,
          "red": 0.1764705882352941
        },
        "fillType": 0,
        "isEnabled": true,
        "noiseIndex": 0,
        "noiseIntensity": 0,
        "patternFillType": 1,
        "patternTileScale": 1
      }
    ],
    "miterLimit": 10,
    "startMarkerType": 0,
    "windingRule": 1
  }
}