{
  "_class": "shapePath",
  "booleanOperation": -1,
  "clippingMaskMode": 0,
  "do_objectID": "E34F377F-5E47-4953-B0A5-59E3B93082A8",
  "edited": true,
  "exportOptions": {
    "_class": "exportOptions",
    "do_objectID": "6B627561-9720-4F47-BA52-E8AC4A3CFF7C",
    "exportFormats": [
    ],
    "includedLayerIds": [
    ],
    "layerOptions": 0,
    "shouldTrim": false
  },
  "frame": {
    "_class": "rect",
    "constrainProportions": false,
    "do_objectID": "3B9AD25D-D79B-4870-9088-AB3AB7BE25A2",
    "height": 0.1593279974438691,
    "width": 0.295846415059037,
    "x": 15.08425591818795,
    "y": 10.06673583578175
  },
  "hasClippingMask": false,
  "isClosed": true,
  "isFixedToViewport": false,
  "isFlippedHorizontal": false,
  "isFlippedVertical": false,
  "isLocked": false,
  "isVisible": true,
  "layerListExpandedType": 0,
  "name": "Path",
  "nameIsFixed": false,
  "pointRadiusBehaviour": 0,
  "points": [
    {
      "_class": "curvePoint",
      "cornerRadius": 0,
      "curveFrom": "{0.048099048778019605, 0.46013534956466334}",
      "curveMode": 4,
      "curveTo": "{-0.023511329756168074, 1.6924226076355162}",
      "hasCurveFrom": true,
      "hasCurveTo": true,
      "point": "{0.00035879642189188827, 0.44690136827186899}"
    },
    {
      "_class": "curvePoint",
      "cornerRadius": 0,
      "curveFrom": "{0.2077819618312666, 0.30947156253906893}",
      "curveMode": 4,
      "curveTo": "{0.13672032182991056, 0.26111663089232584}",
      "hasCurveFrom": true,
      "hasCurveTo": true,
      "point": "{0.18034503518981648, 0.28962059059989187}"
    },
    {
      "_class": "curvePoint",
      "cornerRadius": 0,
      "curveFrom": "{0.50766757002233043, 0.60825414018780066}",
      "curveMode": 4,
      "curveTo": "{0.23741384260403553, 0.62759611284649786}",
      "hasCurveFrom": true,
      "hasCurveTo": true,
      "point": "{0.26430203071265396, 0.62352411860257229}"
    },
    {
      "_class": "curvePoint",
      "cornerRadius": 0,
      "curveFrom": "{1.1521609768300352, 0.51765226826024624}",
      "curveMode": 4,
      "curveTo": "{0.74088144647467591, 0.062097912220017301}",
      "hasCurveFrom": true,
      "hasCurveTo": true,
      "point": "{0.98342387798510489, 0}"
    }
  ],
  "resizingConstraint": 63,
  "resizingType": 0,
  "rotation": 0,
  "shouldBreakMaskChain": false,
  "style": {
    "_class": "style",
    "do_objectID": "E690C360-2D0D-44F0-9837-67CE47180B74",
    "endMarkerType": 0,
    "fills": [
      {
        "_class": "fill",
        "color": {
          "_class": "color",
          "alpha": 1,
          "blue": 0.1764705882352941,
          "green": 0.1764705882352941,
          "red": 0.1764705882352941
        },
        "fillType": 0,
        "isEnabled": true,
        "noiseIndex": 0,
        "noiseIntensity": 0,
        "patternFillType": 1,
        "patternTileScale": 1
      }
    ],
    "miterLimit": 10,
    "startMarkerType": 0,
    "windingRule": 1
  }
}