{
  "_class": "shapePath",
  "booleanOperation": -1,
  "clippingMaskMode": 0,
  "do_objectID": "E6D005DF-D311-413F-829F-3702576C530A",
  "edited": true,
  "exportOptions": {
    "_class": "exportOptions",
    "do_objectID": "E9C09711-E740-453C-96E9-71173FB49C3E",
    "exportFormats": [
    ],
    "includedLayerIds": [
    ],
    "layerOptions": 0,
    "shouldTrim": false
  },
  "frame": {
    "_class": "rect",
    "constrainProportions": false,
    "do_objectID": "F39138D5-18AA-4120-B99B-F9989578A251",
    "height": 0.1182406449771456,
    "width": 0.1059863482544969,
    "x": 36.67103573554032,
    "y": 18.20636344556689
  },
  "hasClippingMask": false,
  "isClosed": true,
  "isFixedToViewport": false,
  "isFlippedHorizontal": false,
  "isFlippedVertical": false,
  "isLocked": false,
  "isVisible": true,
  "layerListExpandedType": 0,
  "name": "Path",
  "nameIsFixed": false,
  "pointRadiusBehaviour": 0,
  "points": [
    {
      "_class": "curvePoint",
      "cornerRadius": 0,
      "curveFrom": "{-0.026176772570636331, 0.74965706447189229}",
      "curveMode": 4,
      "curveTo": "{0.5528232274293714, 0.99176954732510259}",
      "hasCurveFrom": true,
      "hasCurveTo": true,
      "point": "{0.025823227429384588, 1}"
    },
    {
      "_class": "curvePoint",
      "cornerRadius": 0,
      "curveFrom": "{0.41882322742935685, 0.24965706447188252}",
      "curveMode": 4,
      "curveTo": "{-0.05017677257063724, 0.51097393689986648}",
      "hasCurveFrom": true,
      "hasCurveTo": true,
      "point": "{0.47082322742937777, 0.50068587105625439}"
    },
    {
      "_class": "curvePoint",
      "cornerRadius": 0,
      "curveFrom": "{0.96782322742939186, 0.25240054869684186}",
      "curveMode": 4,
      "curveTo": "{0.38982322742936049, 0.0096021947873868446}",
      "hasCurveFrom": true,
      "hasCurveTo": true,
      "point": "{0.91582322742937095, 0}"
    },
    {
      "_class": "curvePoint",
      "cornerRadius": 0,
      "curveFrom": "{0.52482322742940823, 0.75171467764060684}",
      "curveMode": 4,
      "curveTo": "{0.99782322742936458, 0.49245541838135704}",
      "hasCurveFrom": true,
      "hasCurveTo": true,
      "point": "{0.47082322742937777, 0.50068587105625439}"
    }
  ],
  "resizingConstraint": 63,
  "resizingType": 0,
  "rotation": 0,
  "shouldBreakMaskChain": false,
  "style": {
    "_class": "style",
    "do_objectID": "7B212040-FC4B-40BA-AA85-CD85DA0C11D5",
    "endMarkerType": 0,
    "fills": [
      {
        "_class": "fill",
        "color": {
          "_class": "color",
          "alpha": 1,
          "blue": 0.1764705882352941,
          "green": 0.1764705882352941,
          "red": 0.1764705882352941
        },
        "fillType": 0,
        "isEnabled": true,
        "noiseIndex": 0,
        "noiseIntensity": 0,
        "patternFillType": 1,
        "patternTileScale": 1
      }
    ],
    "miterLimit": 10,
    "startMarkerType": 0,
    "windingRule": 1
  }
}