{
  "_class": "shapePath",
  "booleanOperation": -1,
  "clippingMaskMode": 0,
  "do_objectID": "EC05E6E6-8172-45B0-A2C8-62F87B10F763",
  "edited": true,
  "exportOptions": {
    "_class": "exportOptions",
    "do_objectID": "6C164A1B-6803-4926-ACF1-8E642C2688D9",
    "exportFormats": [
    ],
    "includedLayerIds": [
    ],
    "layerOptions": 0,
    "shouldTrim": false
  },
  "frame": {
    "_class": "rect",
    "constrainProportions": false,
    "do_objectID": "EF7A1363-1DE1-495E-A327-8C83BB073100",
    "height": 0.1058906030855589,
    "width": 0.1059863482545751,
    "x": 28.37118598453148,
    "y": 19.24270079023682
  },
  "hasClippingMask": false,
  "isClosed": true,
  "isFixedToViewport": false,
  "isFlippedHorizontal": false,
  "isFlippedVertical": false,
  "isLocked": false,
  "isVisible": true,
  "layerListExpandedType": 0,
  "name": "Path",
  "nameIsFixed": false,
  "pointRadiusBehaviour": 0,
  "points": [
    {
      "_class": "curvePoint",
      "cornerRadius": 0,
      "curveFrom": "{1.0540335733645634, 0.27814676538909566}",
      "curveMode": 3,
      "curveTo": "{0.40503357336456247, -0.12085323461090525}",
      "hasCurveFrom": true,
      "hasCurveTo": true,
      "point": "{0.63303357336457111, 0.018146765389076336}"
    },
    {
      "_class": "curvePoint",
      "cornerRadius": 0,
      "curveFrom": "{-0.2869664266354448, 0.57614676538909748}",
      "curveMode": 3,
      "curveTo": "{0.36003357336454656, 0.97214676538908407}",
      "hasCurveFrom": true,
      "hasCurveTo": true,
      "point": "{0.13203357336459476, 0.83314676538907406}"
    }
  ],
  "resizingConstraint": 63,
  "resizingType": 0,
  "rotation": 0,
  "shouldBreakMaskChain": false,
  "style": {
    "_class": "style",
    "do_objectID": "84CA204C-7A35-48E3-9248-84CD482EBA89",
    "endMarkerType": 0,
    "fills": [
      {
        "_class": "fill",
        "color": {
          "_class": "color",
          "alpha": 1,
          "blue": 0.1764705882352941,
          "green": 0.1764705882352941,
          "red": 0.1764705882352941
        },
        "fillType": 0,
        "isEnabled": true,
        "noiseIndex": 0,
        "noiseIntensity": 0,
        "patternFillType": 1,
        "patternTileScale": 1
      }
    ],
    "miterLimit": 10,
    "startMarkerType": 0,
    "windingRule": 1
  }
}