{
  "_class": "shapePath",
  "booleanOperation": -1,
  "clippingMaskMode": 0,
  "do_objectID": "ECA22135-4123-4B76-8F51-742098BA7158",
  "edited": true,
  "exportOptions": {
    "_class": "exportOptions",
    "do_objectID": "E8FDA8D8-2ED7-4997-9E36-0DFE15F9313F",
    "exportFormats": [
    ],
    "includedLayerIds": [
    ],
    "layerOptions": 0,
    "shouldTrim": false
  },
  "frame": {
    "_class": "rect",
    "constrainProportions": false,
    "do_objectID": "0ABFBAD6-A8FF-49C2-9957-1E310E5BF803",
    "height": 0.1058906030855695,
    "width": 0.1059863482545467,
    "x": 33.11422618810312,
    "y": 28.99039651954875
  },
  "hasClippingMask": false,
  "isClosed": true,
  "isFixedToViewport": false,
  "isFlippedHorizontal": false,
  "isFlippedVertical": false,
  "isLocked": false,
  "isVisible": true,
  "layerListExpandedType": 0,
  "name": "Path",
  "nameIsFixed": false,
  "pointRadiusBehaviour": 0,
  "points": [
    {
      "_class": "curvePoint",
      "cornerRadius": 0,
      "curveFrom": "{-0.25654244714456809, 0.51440413020503684}",
      "curveMode": 4,
      "curveTo": "{0.32145755285540645, 0.86740413020504548}",
      "hasCurveFrom": true,
      "hasCurveTo": true,
      "point": "{0.11845755285543191, 0.74640413020506458}"
    },
    {
      "_class": "curvePoint",
      "cornerRadius": 0,
      "curveFrom": "{0.93945755285540145, 0.24440413020505503}",
      "curveMode": 3,
      "curveTo": "{0.36045755285545056, -0.10859586979495361}",
      "hasCurveFrom": true,
      "hasCurveTo": true,
      "point": "{0.56545755285543464, 0.016404130205046386}"
    }
  ],
  "resizingConstraint": 63,
  "resizingType": 0,
  "rotation": 0,
  "shouldBreakMaskChain": false,
  "style": {
    "_class": "style",
    "do_objectID": "83A335D3-8DB1-4A2E-9169-7AC1C66502CA",
    "endMarkerType": 0,
    "fills": [
      {
        "_class": "fill",
        "color": {
          "_class": "color",
          "alpha": 1,
          "blue": 0.1764705882352941,
          "green": 0.1764705882352941,
          "red": 0.1764705882352941
        },
        "fillType": 0,
        "isEnabled": true,
        "noiseIndex": 0,
        "noiseIntensity": 0,
        "patternFillType": 1,
        "patternTileScale": 1
      }
    ],
    "miterLimit": 10,
    "startMarkerType": 0,
    "windingRule": 1
  }
}