{
  "_class": "shapePath",
  "booleanOperation": -1,
  "clippingMaskMode": 0,
  "do_objectID": "F02D4E25-E0C4-4AC6-AEDD-F2495E76D6B7",
  "edited": true,
  "exportOptions": {
    "_class": "exportOptions",
    "do_objectID": "275D5B14-E2A7-4AA3-B426-4CD816DF6115",
    "exportFormats": [
    ],
    "includedLayerIds": [
    ],
    "layerOptions": 0,
    "shouldTrim": false
  },
  "frame": {
    "_class": "rect",
    "constrainProportions": false,
    "do_objectID": "C49D9D06-3074-4415-864B-572F2D5873BC",
    "height": 0.105890603085566,
    "width": 0.1059863482545662,
    "x": 10.39357277590305,
    "y": 20.98151746476747
  },
  "hasClippingMask": false,
  "isClosed": true,
  "isFixedToViewport": false,
  "isFlippedHorizontal": false,
  "isFlippedVertical": false,
  "isLocked": false,
  "isVisible": true,
  "layerListExpandedType": 0,
  "name": "Path",
  "nameIsFixed": false,
  "pointRadiusBehaviour": 0,
  "points": [
    {
      "_class": "curvePoint",
      "cornerRadius": 0,
      "curveFrom": "{1.0398632762333193, 0.19017177784934347}",
      "curveMode": 4,
      "curveTo": "{0.27686327623331408, -0.087828222150676538}",
      "hasCurveFrom": true,
      "hasCurveTo": true,
      "point": "{0.54486327623331476, 0.0071717778493507467}"
    },
    {
      "_class": "curvePoint",
      "cornerRadius": 0,
      "curveFrom": "{-0.30213672376667944, 0.78917177784933301}",
      "curveMode": 3,
      "curveTo": "{0.45886327623330203, 1.0661717778493198}",
      "hasCurveFrom": true,
      "hasCurveTo": true,
      "point": "{0.19486327623332045, 0.97017177784931619}"
    }
  ],
  "resizingConstraint": 63,
  "resizingType": 0,
  "rotation": 0,
  "shouldBreakMaskChain": false,
  "style": {
    "_class": "style",
    "do_objectID": "DCD8AE79-3754-4A19-AAD5-2B15AD95DEA8",
    "endMarkerType": 0,
    "fills": [
      {
        "_class": "fill",
        "color": {
          "_class": "color",
          "alpha": 1,
          "blue": 0.1764705882352941,
          "green": 0.1764705882352941,
          "red": 0.1764705882352941
        },
        "fillType": 0,
        "isEnabled": true,
        "noiseIndex": 0,
        "noiseIntensity": 0,
        "patternFillType": 1,
        "patternTileScale": 1
      }
    ],
    "miterLimit": 10,
    "startMarkerType": 0,
    "windingRule": 1
  }
}