{
  "_class": "shapePath",
  "booleanOperation": -1,
  "clippingMaskMode": 0,
  "do_objectID": "F2019FDF-C14E-40CF-95AB-1F20E189B64C",
  "edited": true,
  "exportOptions": {
    "_class": "exportOptions",
    "do_objectID": "BB8123E0-66F1-4AE8-8854-339BFCF1A206",
    "exportFormats": [
    ],
    "includedLayerIds": [
    ],
    "layerOptions": 0,
    "shouldTrim": false
  },
  "frame": {
    "_class": "rect",
    "constrainProportions": false,
    "do_objectID": "0D3EF257-8E0A-413D-B2AC-5D3A09181D5F",
    "height": 0.1561428117834511,
    "width": 0.7111870680449606,
    "x": 27.00258248471901,
    "y": 2.354058855492815
  },
  "hasClippingMask": false,
  "isClosed": true,
  "isFixedToViewport": false,
  "isFlippedHorizontal": false,
  "isFlippedVertical": false,
  "isLocked": false,
  "isVisible": true,
  "layerListExpandedType": 0,
  "name": "Path",
  "nameIsFixed": false,
  "pointRadiusBehaviour": 0,
  "points": [
    {
      "_class": "curvePoint",
      "cornerRadius": 0,
      "curveFrom": "{0.294438472192602, 0.31857022621194797}",
      "curveMode": 4,
      "curveTo": "{0.21214731170799042, 0.053165794500309914}",
      "hasCurveFrom": true,
      "hasCurveTo": true,
      "point": "{0.21945193621702258, 0.47802063821876295}"
    },
    {
      "_class": "curvePoint",
      "cornerRadius": 0,
      "curveFrom": "{0.46952119089356298, 0.19911226281921707}",
      "curveMode": 4,
      "curveTo": "{0.36908260389431546, 0.15963919665468382}",
      "hasCurveFrom": true,
      "hasCurveTo": true,
      "point": "{0.44384087035397995, 0.00070816709741966131}"
    },
    {
      "_class": "curvePoint",
      "cornerRadius": 0,
      "curveFrom": "{0.56539438757466054, 0.295198015982929}",
      "curveMode": 4,
      "curveTo": "{0.49657112852859037, 0.3808961201559789}",
      "hasCurveFrom": true,
      "hasCurveTo": true,
      "point": "{0.55375264226338683, 0.18093387708555861}"
    },
    {
      "_class": "curvePoint",
      "cornerRadius": 0,
      "curveFrom": "{0.77117935616516498, -0.20756419516554797}",
      "curveMode": 4,
      "curveTo": "{0.57703613288594069, 0.40946215488032889}",
      "hasCurveFrom": true,
      "hasCurveTo": true,
      "point": "{0.58890614771312289, 0.52268752887865666}"
    },
    {
      "_class": "curvePoint",
      "cornerRadius": 0,
      "curveFrom": "{1.0062969575497687, 0.27753901269879183}",
      "curveMode": 4,
      "curveTo": "{0.83178491263857557, 0.59020724731801866}",
      "hasCurveFrom": true,
      "hasCurveTo": true,
      "point": "{0.99750858118733465, 0.068227885536781607}"
    },
    {
      "_class": "curvePoint",
      "cornerRadius": 0,
      "curveFrom": "{0.96874662218300989, 0.70758768091260538}",
      "curveMode": 4,
      "curveTo": "{0.99145943901578937, 0.41309783202706651}",
      "hasCurveFrom": true,
      "hasCurveTo": true,
      "point": "{0.95893103299899107, 0.52892011827305985}"
    },
    {
      "_class": "curvePoint",
      "cornerRadius": 0,
      "curveFrom": "{0.85929138930541993, 0.87950327170819698}",
      "curveMode": 4,
      "curveTo": "{0.9388433155991428, 0.77510739935196726}",
      "hasCurveFrom": true,
      "hasCurveTo": true,
      "point": "{0.90368981014940042, 0.83068132145204432}"
    },
    {
      "_class": "curvePoint",
      "cornerRadius": 0,
      "curveFrom": "{0.74823826981647712, 0.77199110465475096}",
      "curveMode": 4,
      "curveTo": "{0.81455056418757354, 0.92884460441390049}",
      "hasCurveFrom": true,
      "hasCurveTo": true,
      "point": "{0.77015214334358661, 0.97766655467005315}"
    },
    {
      "_class": "curvePoint",
      "cornerRadius": 0,
      "curveFrom": "{0.79491938581953581, 0.58501342282268765}",
      "curveMode": 4,
      "curveTo": "{0.77106522140721401, 0.69044806007798942}",
      "hasCurveFrom": true,
      "hasCurveTo": true,
      "point": "{0.80233814508652546, 0.63227722573021738}"
    },
    {
      "_class": "curvePoint",
      "cornerRadius": 0,
      "curveFrom": "{0.70692148743723837, 0.55540862319926554}",
      "curveMode": 4,
      "curveTo": "{0.78727235703663767, 0.54294344441045939}",
      "hasCurveFrom": true,
      "hasCurveTo": true,
      "point": "{0.77311964705038383, 0.54450159175905277}"
    },
    {
      "_class": "curvePoint",
      "cornerRadius": 0,
      "curveFrom": "{0.56368236620535672, 0.57566453873106826}",
      "curveMode": 4,
      "curveTo": "{0.62485859646853525, 0.87898388925867565}",
      "hasCurveFrom": true,
      "hasCurveTo": true,
      "point": "{0.58890614771312289, 0.52268752887865666}"
    },
    {
      "_class": "curvePoint",
      "cornerRadius": 0,
      "curveFrom": "{0.46392858775383461, 0.78809196059029474}",
      "curveMode": 3,
      "curveTo": "{0.53880098897145012, 0.62812216613395855}",
      "hasCurveFrom": true,
      "hasCurveTo": true,
      "point": "{0.51380547697959245, 0.68213794088544211}"
    },
    {
      "_class": "curvePoint",
      "cornerRadius": 0,
      "curveFrom": "{0.33860862352068044, 0.800557139379101}",
      "curveMode": 4,
      "curveTo": "{0.4141658332860213, 0.89404598029514737}",
      "hasCurveFrom": true,
      "hasCurveTo": true,
      "point": "{0.36463134833412297, 1}"
    },
    {
      "_class": "curvePoint",
      "cornerRadius": 0,
      "curveFrom": "{0.2428495615975339, 0.70499076866493982}",
      "curveMode": 4,
      "curveTo": "{0.31167282064361052, 0.62033142939096197}",
      "hasCurveFrom": true,
      "hasCurveTo": true,
      "point": "{0.25426303739289913, 0.81769676021371684}"
    },
    {
      "_class": "curvePoint",
      "cornerRadius": 0,
      "curveFrom": "{0.17996130996505158, 0.45672595778788816}",
      "curveMode": 4,
      "curveTo": "{0.23120781628625373, 0.59124601221709072}",
      "hasCurveFrom": true,
      "hasCurveTo": true,
      "point": "{0.21945193621702258, 0.47802063821876295}"
    },
    {
      "_class": "curvePoint",
      "cornerRadius": 0,
      "curveFrom": "{0.061717700725027601, 0.78237875364544252}",
      "curveMode": 4,
      "curveTo": "{0.10657266060082499, 0.8566504439287288}",
      "hasCurveFrom": true,
      "hasCurveTo": true,
      "point": "{0.07004953805564465, 0.79536331488376999}"
    },
    {
      "_class": "curvePoint",
      "cornerRadius": 0,
      "curveFrom": "{0.026792464791193602, -0.22054875640390498}",
      "curveMode": 4,
      "curveTo": "{-0.0026543027608565352, 0.15444537215935283}",
      "hasCurveFrom": true,
      "hasCurveTo": true,
      "point": "{8.493143003215167e-05, 0.11497230599479005}"
    },
    {
      "_class": "curvePoint",
      "cornerRadius": 0,
      "curveFrom": "{0.1465198258846194, 0.35752390992695993}",
      "curveMode": 4,
      "curveTo": "{0.10132246173495608, 0.28377160209319491}",
      "hasCurveFrom": true,
      "hasCurveTo": true,
      "point": "{0.11011083809739007, 0.29675616333155191}"
    }
  ],
  "resizingConstraint": 63,
  "resizingType": 0,
  "rotation": 0,
  "shouldBreakMaskChain": false,
  "style": {
    "_class": "style",
    "do_objectID": "A1042923-B88A-42CB-A41F-C09C8E227EC6",
    "endMarkerType": 0,
    "fills": [
      {
        "_class": "fill",
        "color": {
          "_class": "color",
          "alpha": 1,
          "blue": 0.1764705882352941,
          "green": 0.1764705882352941,
          "red": 0.1764705882352941
        },
        "fillType": 0,
        "isEnabled": true,
        "noiseIndex": 0,
        "noiseIntensity": 0,
        "patternFillType": 1,
        "patternTileScale": 1
      }
    ],
    "miterLimit": 10,
    "startMarkerType": 0,
    "windingRule": 1
  }
}