{
  "_class": "shapePath",
  "booleanOperation": -1,
  "clippingMaskMode": 0,
  "do_objectID": "FA4BD0F1-EDA4-4F40-BEF7-8632B0B7620B",
  "edited": true,
  "exportOptions": {
    "_class": "exportOptions",
    "do_objectID": "724219D3-1BB1-4E91-BD16-7F180B19F42A",
    "exportFormats": [
    ],
    "includedLayerIds": [
    ],
    "layerOptions": 0,
    "shouldTrim": false
  },
  "frame": {
    "_class": "rect",
    "constrainProportions": false,
    "do_objectID": "E7892F3D-DBBE-4D63-836E-371EFEEDE575",
    "height": 0.1058906030855624,
    "width": 0.1059863482545502,
    "x": 8.211820330969353,
    "y": 22.71661959810756
  },
  "hasClippingMask": false,
  "isClosed": true,
  "isFixedToViewport": false,
  "isFlippedHorizontal": false,
  "isFlippedVertical": false,
  "isLocked": false,
  "isVisible": true,
  "layerListExpandedType": 0,
  "name": "Path",
  "nameIsFixed": false,
  "pointRadiusBehaviour": 0,
  "points": [
    {
      "_class": "curvePoint",
      "cornerRadius": 0,
      "curveFrom": "{0.36186483624362747, 1.0720000000000027}",
      "curveMode": 4,
      "curveTo": "{0.86405904687396484, 0.61200000000002319}",
      "hasCurveFrom": true,
      "hasCurveTo": true,
      "point": "{0.59006314893571754, 0.72800000000000864}"
    },
    {
      "_class": "curvePoint",
      "cornerRadius": 0,
      "curveFrom": "{0.13050806939663706, 0.043000000000006366}",
      "curveMode": 3,
      "curveTo": "{-0.083477199598367288, 0.48700000000002319}",
      "hasCurveFrom": true,
      "hasCurveTo": true,
      "point": "{0.013645265665040136, 0.28299999999995862}"
    },
    {
      "_class": "curvePoint",
      "cornerRadius": 0,
      "curveFrom": "{1.1198938334215067, 0.47300000000001319}",
      "curveMode": 4,
      "curveTo": "{0.77720155761400078, 0.20800000000002683}",
      "hasCurveFrom": true,
      "hasCurveTo": true,
      "point": "{0.93986194659175504, 0}"
    }
  ],
  "resizingConstraint": 63,
  "resizingType": 0,
  "rotation": 0,
  "shouldBreakMaskChain": false,
  "style": {
    "_class": "style",
    "do_objectID": "9FF66694-4425-45F4-91EB-CCF70916D14E",
    "endMarkerType": 0,
    "fills": [
      {
        "_class": "fill",
        "color": {
          "_class": "color",
          "alpha": 1,
          "blue": 0.1764705882352941,
          "green": 0.1764705882352941,
          "red": 0.1764705882352941
        },
        "fillType": 0,
        "isEnabled": true,
        "noiseIndex": 0,
        "noiseIntensity": 0,
        "patternFillType": 1,
        "patternTileScale": 1
      }
    ],
    "miterLimit": 10,
    "startMarkerType": 0,
    "windingRule": 1
  }
}