{
  "_class": "shapePath",
  "booleanOperation": -1,
  "clippingMaskMode": 0,
  "do_objectID": "FA89CCC0-3BC6-428C-8154-8235DBEBD316",
  "edited": true,
  "exportOptions": {
    "_class": "exportOptions",
    "do_objectID": "761660A3-EB0D-41D8-90B4-C88880D630D7",
    "exportFormats": [
    ],
    "includedLayerIds": [
    ],
    "layerOptions": 0,
    "shouldTrim": false
  },
  "frame": {
    "_class": "rect",
    "constrainProportions": false,
    "do_objectID": "F18D539C-EAD7-4EE3-B1F2-2C4690465616",
    "height": 0.1058906030855553,
    "width": 0.1059863482545396,
    "x": 36.61981629753536,
    "y": 10.80718492757887
  },
  "hasClippingMask": false,
  "isClosed": true,
  "isFixedToViewport": false,
  "isFlippedHorizontal": false,
  "isFlippedVertical": false,
  "isLocked": false,
  "isVisible": true,
  "layerListExpandedType": 0,
  "name": "Path",
  "nameIsFixed": false,
  "pointRadiusBehaviour": 0,
  "points": [
    {
      "_class": "curvePoint",
      "cornerRadius": 0,
      "curveFrom": "{1.0548285692563582, 0.27668126697201956}",
      "curveMode": 3,
      "curveTo": "{0.40582856925635724, -0.11931873302793861}",
      "hasCurveFrom": true,
      "hasCurveTo": true,
      "point": "{0.62982856925634678, 0.017681266972061849}"
    },
    {
      "_class": "curvePoint",
      "cornerRadius": 0,
      "curveFrom": "{-0.28917143074369278, 0.57668126697203093}",
      "curveMode": 3,
      "curveTo": "{0.35682856925632223, 0.97268126697204593}",
      "hasCurveFrom": true,
      "hasCurveTo": true,
      "point": "{0.13382856925630904, 0.83568126697204548}"
    }
  ],
  "resizingConstraint": 63,
  "resizingType": 0,
  "rotation": 0,
  "shouldBreakMaskChain": false,
  "style": {
    "_class": "style",
    "do_objectID": "9F8C36E2-5E51-41B9-800F-A16EE99FF7C8",
    "endMarkerType": 0,
    "fills": [
      {
        "_class": "fill",
        "color": {
          "_class": "color",
          "alpha": 1,
          "blue": 0.1764705882352941,
          "green": 0.1764705882352941,
          "red": 0.1764705882352941
        },
        "fillType": 0,
        "isEnabled": true,
        "noiseIndex": 0,
        "noiseIntensity": 0,
        "patternFillType": 1,
        "patternTileScale": 1
      }
    ],
    "miterLimit": 10,
    "startMarkerType": 0,
    "windingRule": 1
  }
}