{
  "_class": "shapePath",
  "booleanOperation": -1,
  "clippingMaskMode": 0,
  "do_objectID": "FB756CE9-A1F2-4B17-BB89-2F0D39421407",
  "edited": true,
  "exportOptions": {
    "_class": "exportOptions",
    "do_objectID": "788AB2BD-FB15-42C9-B093-3AE5DC77E0C9",
    "exportFormats": [
    ],
    "includedLayerIds": [
    ],
    "layerOptions": 0,
    "shouldTrim": false
  },
  "frame": {
    "_class": "rect",
    "constrainProportions": false,
    "do_objectID": "6491A3C0-188D-416C-8FCF-912726593AAB",
    "height": 0.1903582161510924,
    "width": 0.2082908382658921,
    "x": 15.86670862216041,
    "y": 7.460473083369121
  },
  "hasClippingMask": false,
  "isClosed": true,
  "isFixedToViewport": false,
  "isFlippedHorizontal": false,
  "isFlippedVertical": false,
  "isLocked": false,
  "isVisible": true,
  "layerListExpandedType": 0,
  "name": "Path",
  "nameIsFixed": false,
  "pointRadiusBehaviour": 0,
  "points": [
    {
      "_class": "curvePoint",
      "cornerRadius": 0,
      "curveFrom": "{-0.071405929611822544, 0.69070403069094388}",
      "curveMode": 4,
      "curveTo": "{0.34557422210862598, 0.85642873049979518}",
      "hasCurveFrom": true,
      "hasCurveTo": true,
      "point": "{0.013548905037760552, 1}"
    },
    {
      "_class": "curvePoint",
      "cornerRadius": 0,
      "curveFrom": "{0.31712604353330259, -0.36541815652275655}",
      "curveMode": 4,
      "curveTo": "{0.25789147992442119, 0.54670673368481382}",
      "hasCurveFrom": true,
      "hasCurveTo": true,
      "point": "{0.5895270959189105, 0.40313546418460899}"
    },
    {
      "_class": "curvePoint",
      "cornerRadius": 0,
      "curveFrom": "{0.67487163164486974, 0.71200540598771567}",
      "curveMode": 4,
      "curveTo": "{1.6366538881365231, 0.15689156575396937}",
      "hasCurveFrom": true,
      "hasCurveTo": true,
      "point": "{0.5895270959189105, 0.40313546418460899}"
    }
  ],
  "resizingConstraint": 63,
  "resizingType": 0,
  "rotation": 0,
  "shouldBreakMaskChain": false,
  "style": {
    "_class": "style",
    "do_objectID": "C299414B-0B7F-4201-BFF9-9CB47482F241",
    "endMarkerType": 0,
    "fills": [
      {
        "_class": "fill",
        "color": {
          "_class": "color",
          "alpha": 1,
          "blue": 0.1764705882352941,
          "green": 0.1764705882352941,
          "red": 0.1764705882352941
        },
        "fillType": 0,
        "isEnabled": true,
        "noiseIndex": 0,
        "noiseIntensity": 0,
        "patternFillType": 1,
        "patternTileScale": 1
      }
    ],
    "miterLimit": 10,
    "startMarkerType": 0,
    "windingRule": 1
  }
}