{
  "_class": "shapePath",
  "booleanOperation": -1,
  "clippingMaskMode": 0,
  "do_objectID": "FE2FCEF4-FFB6-4F1B-A3FE-79B48991B5AC",
  "edited": true,
  "exportOptions": {
    "_class": "exportOptions",
    "do_objectID": "196C1E89-EC51-42E3-8A47-2BC3B5AC3362",
    "exportFormats": [
    ],
    "includedLayerIds": [
    ],
    "layerOptions": 0,
    "shouldTrim": false
  },
  "frame": {
    "_class": "rect",
    "constrainProportions": false,
    "do_objectID": "386BF4DC-69A0-4BE3-9EAB-4E8600DA4975",
    "height": 0.1719909983866019,
    "width": 0.1657515166248231,
    "x": 17.5534265294544,
    "y": 4.847215520949405
  },
  "hasClippingMask": false,
  "isClosed": true,
  "isFixedToViewport": false,
  "isFlippedHorizontal": false,
  "isFlippedVertical": false,
  "isLocked": false,
  "isVisible": true,
  "layerListExpandedType": 0,
  "name": "Path",
  "nameIsFixed": false,
  "pointRadiusBehaviour": 0,
  "points": [
    {
      "_class": "curvePoint",
      "cornerRadius": 0,
      "curveFrom": "{0.90744368266405839, 0.43087086507995959}",
      "curveMode": 4,
      "curveTo": "{0.80362389813907431, 0.0805287381159253}",
      "hasCurveFrom": true,
      "hasCurveTo": true,
      "point": "{0.86141038197844499, 0.24650508897909126}"
    },
    {
      "_class": "curvePoint",
      "cornerRadius": 0,
      "curveFrom": "{0.71400587659157555, 0.86561573864772634}",
      "curveMode": 4,
      "curveTo": "{0.95396669931440059, 0.61476511745676921}",
      "hasCurveFrom": true,
      "hasCurveTo": true,
      "point": "{1, 0.79913089355763756}"
    },
    {
      "_class": "curvePoint",
      "cornerRadius": 0,
      "curveFrom": "{0.092556317335941635, 0.81516270017509973}",
      "curveMode": 4,
      "curveTo": "{0.42703232125366553, 0.93257210746184716}",
      "hasCurveFrom": true,
      "hasCurveTo": true,
      "point": "{0.13907933398628383, 1}"
    },
    {
      "_class": "curvePoint",
      "cornerRadius": 0,
      "curveFrom": "{0.095494613124384439, 0.42096886687504703}",
      "curveMode": 4,
      "curveTo": "{0.046523016650342211, 0.63126844779829006}",
      "hasCurveFrom": true,
      "hasCurveTo": true,
      "point": "{0, 0.44690267169742176}"
    },
    {
      "_class": "curvePoint",
      "cornerRadius": 0,
      "curveFrom": "{0.52595494613123561, 0.3115753628970574}",
      "curveMode": 3,
      "curveTo": "{0.19343780607246891, 0.40682315515376638}",
      "hasCurveFrom": true,
      "hasCurveTo": true,
      "point": "{0.28795298726738167, 0.37994630288330095}"
    },
    {
      "_class": "curvePoint",
      "cornerRadius": 0,
      "curveFrom": "{0.73604309500488974, -0.071773424749991946}",
      "curveMode": 4,
      "curveTo": "{0.5465230166503352, 0.25687861090806258}",
      "hasCurveFrom": true,
      "hasCurveTo": true,
      "point": "{0.5058765915768787, 0.036205508055874996}"
    }
  ],
  "resizingConstraint": 63,
  "resizingType": 0,
  "rotation": 0,
  "shouldBreakMaskChain": false,
  "style": {
    "_class": "style",
    "do_objectID": "86F0267F-075A-41C8-9034-DBF722611EBD",
    "endMarkerType": 0,
    "fills": [
      {
        "_class": "fill",
        "color": {
          "_class": "color",
          "alpha": 1,
          "blue": 0.1764705882352941,
          "green": 0.1764705882352941,
          "red": 0.1764705882352941
        },
        "fillType": 0,
        "isEnabled": true,
        "noiseIndex": 0,
        "noiseIntensity": 0,
        "patternFillType": 1,
        "patternTileScale": 1
      }
    ],
    "miterLimit": 10,
    "startMarkerType": 0,
    "windingRule": 1
  }
}