{
  "_class": "shapePath",
  "booleanOperation": -1,
  "clippingMaskMode": 0,
  "do_objectID": "A86687DA-C416-4203-99B9-466F25CD2B89",
  "edited": true,
  "exportOptions": {
    "_class": "exportOptions",
    "do_objectID": "CBD79E1A-99C5-4F05-93A9-DE84CEF6E333",
    "exportFormats": [
    ],
    "includedLayerIds": [
    ],
    "layerOptions": 0,
    "shouldTrim": false
  },
  "frame": {
    "_class": "rect",
    "constrainProportions": false,
    "do_objectID": "FE62A78D-FC01-4FD3-949F-72A80F488190",
    "height": 11.47368421052633,
    "width": 12.06060606060607,
    "x": 0,
    "y": 0
  },
  "hasClippingMask": false,
  "isClosed": true,
  "isFixedToViewport": false,
  "isFlippedHorizontal": false,
  "isFlippedVertical": false,
  "isLocked": false,
  "isVisible": true,
  "layerListExpandedType": 0,
  "name": "Path",
  "nameIsFixed": false,
  "pointRadiusBehaviour": 0,
  "points": [
    {
      "_class": "curvePoint",
      "cornerRadius": 0,
      "curveFrom": "{1, 0.38105263157894737}",
      "curveMode": 1,
      "curveTo": "{1, 0.38105263157894737}",
      "hasCurveFrom": false,
      "hasCurveTo": false,
      "point": "{1, 0.38105263157894737}"
    },
    {
      "_class": "curvePoint",
      "cornerRadius": 0,
      "curveFrom": "{0.64049999999999996, 0.34842105263157902}",
      "curveMode": 1,
      "curveTo": "{0.64049999999999996, 0.34842105263157902}",
      "hasCurveFrom": false,
      "hasCurveTo": false,
      "point": "{0.64049999999999996, 0.34842105263157902}"
    },
    {
      "_class": "curvePoint",
      "cornerRadius": 0,
      "curveFrom": "{0.5, 0}",
      "curveMode": 1,
      "curveTo": "{0.5, 0}",
      "hasCurveFrom": false,
      "hasCurveTo": false,
      "point": "{0.5, 0}"
    },
    {
      "_class": "curvePoint",
      "cornerRadius": 0,
      "curveFrom": "{0.35949999999999999, 0.34894736842105267}",
      "curveMode": 1,
      "curveTo": "{0.35949999999999999, 0.34894736842105267}",
      "hasCurveFrom": false,
      "hasCurveTo": false,
      "point": "{0.35949999999999999, 0.34894736842105267}"
    },
    {
      "_class": "curvePoint",
      "cornerRadius": 0,
      "curveFrom": "{0, 0.38105263157894737}",
      "curveMode": 1,
      "curveTo": "{0, 0.38105263157894737}",
      "hasCurveFrom": false,
      "hasCurveTo": false,
      "point": "{0, 0.38105263157894737}"
    },
    {
      "_class": "curvePoint",
      "cornerRadius": 0,
      "curveFrom": "{0.27300000000000002, 0.63}",
      "curveMode": 1,
      "curveTo": "{0.27300000000000002, 0.63}",
      "hasCurveFrom": false,
      "hasCurveTo": false,
      "point": "{0.27300000000000002, 0.63}"
    },
    {
      "_class": "curvePoint",
      "cornerRadius": 0,
      "curveFrom": "{0.191, 1}",
      "curveMode": 1,
      "curveTo": "{0.191, 1}",
      "hasCurveFrom": false,
      "hasCurveTo": false,
      "point": "{0.191, 1}"
    },
    {
      "_class": "curvePoint",
      "cornerRadius": 0,
      "curveFrom": "{0.5, 0.80368421052631578}",
      "curveMode": 1,
      "curveTo": "{0.5, 0.80368421052631578}",
      "hasCurveFrom": false,
      "hasCurveTo": false,
      "point": "{0.5, 0.80368421052631578}"
    },
    {
      "_class": "curvePoint",
      "cornerRadius": 0,
      "curveFrom": "{0.80899999999999994, 1}",
      "curveMode": 1,
      "curveTo": "{0.80899999999999994, 1}",
      "hasCurveFrom": false,
      "hasCurveTo": false,
      "point": "{0.80899999999999994, 1}"
    },
    {
      "_class": "curvePoint",
      "cornerRadius": 0,
      "curveFrom": "{0.72750000000000004, 0.62999999999999989}",
      "curveMode": 1,
      "curveTo": "{0.72750000000000004, 0.62999999999999989}",
      "hasCurveFrom": false,
      "hasCurveTo": false,
      "point": "{0.72750000000000004, 0.62999999999999989}"
    },
    {
      "_class": "curvePoint",
      "cornerRadius": 0,
      "curveFrom": "{1, 0.38105263157894737}",
      "curveMode": 1,
      "curveTo": "{1, 0.38105263157894737}",
      "hasCurveFrom": false,
      "hasCurveTo": false,
      "point": "{1, 0.38105263157894737}"
    }
  ],
  "resizingConstraint": 63,
  "resizingType": 0,
  "rotation": 0,
  "shouldBreakMaskChain": false,
  "style": {
    "_class": "style",
    "do_objectID": "627E2DFF-46F6-4F43-8D34-8AE134FC6AC3",
    "endMarkerType": 0,
    "fills": [
      {
        "_class": "fill",
        "color": {
          "_class": "color",
          "alpha": 1,
          "blue": 0,
          "green": 0.6235294117647059,
          "red": 1
        },
        "fillType": 0,
        "isEnabled": true,
        "noiseIndex": 0,
        "noiseIntensity": 0,
        "patternFillType": 0,
        "patternTileScale": 1
      }
    ],
    "miterLimit": 10,
    "startMarkerType": 0,
    "windingRule": 1
  }
}