{
  "_class": "symbolInstance",
  "booleanOperation": -1,
  "clippingMaskMode": 0,
  "do_objectID": "6E72A315-EE34-4915-9058-FA14D198D58E",
  "exportOptions": {
    "_class": "exportOptions",
    "do_objectID": "679B9A02-1B49-43C6-BE86-8732FB750CF8",
    "exportFormats": [
    ],
    "includedLayerIds": [
    ],
    "layerOptions": 0,
    "shouldTrim": false
  },
  "frame": {
    "_class": "rect",
    "constrainProportions": false,
    "do_objectID": "02F47478-AE5B-4597-9BD7-D8A8F6B3E6DB",
    "height": 64,
    "width": 1024,
    "x": 0,
    "y": 739
  },
  "hasClippingMask": false,
  "horizontalSpacing": 0,
  "isFixedToViewport": false,
  "isFlippedHorizontal": false,
  "isFlippedVertical": false,
  "isLocked": false,
  "isVisible": true,
  "layerListExpandedType": 0,
  "name": "row 7",
  "nameIsFixed": true,
  "overrideValues": [
  ],
  "resizingConstraint": 63,
  "resizingType": 0,
  "rotation": 0,
  "scale": 1,
  "shouldBreakMaskChain": false,
  "style": {
    "_class": "style",
    "do_objectID": "F3754920-3709-468F-AB1D-8FF204F0D42B",
    "endMarkerType": 0,
    "miterLimit": 10,
    "startMarkerType": 0,
    "windingRule": 1
  },
  "symbolID": "B9DAC269-3F84-4288-9CDA-4102868D0AD8",
  "verticalSpacing": 0
}