{
  "_class": "shapePath",
  "booleanOperation": -1,
  "clippingMaskMode": 0,
  "do_objectID": "00A6FFB3-82DE-427C-9A82-B5FD13AC497F",
  "edited": true,
  "exportOptions": {
    "_class": "exportOptions",
    "do_objectID": "732E8C12-B03E-4EC5-ACF4-08CAF8CB0ED1",
    "exportFormats": [
    ],
    "includedLayerIds": [
    ],
    "layerOptions": 0,
    "shouldTrim": false
  },
  "frame": {
    "_class": "rect",
    "constrainProportions": false,
    "do_objectID": "C0AC4948-B290-4C87-A9EE-B93E7CE33F54",
    "height": 0.1166997860919921,
    "width": 0.10598634825456,
    "x": 6.999596279188601,
    "y": 21.74977119658655
  },
  "hasClippingMask": false,
  "isClosed": true,
  "isFixedToViewport": false,
  "isFlippedHorizontal": false,
  "isFlippedVertical": false,
  "isLocked": false,
  "isVisible": true,
  "layerListExpandedType": 0,
  "name": "Path",
  "nameIsFixed": false,
  "pointRadiusBehaviour": 0,
  "points": [
    {
      "_class": "curvePoint",
      "cornerRadius": 0,
      "curveFrom": "{0.074043154423464361, 0.085476025017329149}",
      "curveMode": 3,
      "curveTo": "{-0.091455970167109102, 0.35997220291868315}",
      "hasCurveFrom": true,
      "hasCurveTo": true,
      "point": "{0.011656049865759733, 0.18902015288390633}"
    },
    {
      "_class": "curvePoint",
      "cornerRadius": 0,
      "curveFrom": "{0.47436040866872342, 0.19249478804721112}",
      "curveMode": 4,
      "curveTo": "{0.43363549319355926, 0.094510076441953167}",
      "hasCurveFrom": true,
      "hasCurveTo": true,
      "point": "{0.51595181170719318, 0}"
    },
    {
      "_class": "curvePoint",
      "cornerRadius": 0,
      "curveFrom": "{0.92580042914876415, 0.91382904794994668}",
      "curveMode": 4,
      "curveTo": "{1.0921660413026308, 0.63933287004863226}",
      "hasCurveFrom": true,
      "hasCurveTo": true,
      "point": "{0.98818753370646883, 0.80889506601807915}"
    },
    {
      "_class": "curvePoint",
      "cornerRadius": 0,
      "curveFrom": "{0.52461668734021183, 0.80750521195274938}",
      "curveMode": 4,
      "curveTo": "{0.56620809037866926, 0.90340514246003234}",
      "hasCurveFrom": true,
      "hasCurveTo": true,
      "point": "{0.48215879673843653, 1}"
    }
  ],
  "resizingConstraint": 63,
  "resizingType": 0,
  "rotation": 0,
  "shouldBreakMaskChain": false,
  "style": {
    "_class": "style",
    "do_objectID": "C13B70F4-3744-43F3-86EB-0FED1E0571E7",
    "endMarkerType": 0,
    "fills": [
      {
        "_class": "fill",
        "color": {
          "_class": "color",
          "alpha": 1,
          "blue": 0.1764705882352941,
          "green": 0.1764705882352941,
          "red": 0.1764705882352941
        },
        "fillType": 0,
        "isEnabled": true,
        "noiseIndex": 0,
        "noiseIntensity": 0,
        "patternFillType": 1,
        "patternTileScale": 1
      }
    ],
    "miterLimit": 10,
    "startMarkerType": 0,
    "windingRule": 1
  }
}