{
  "_class": "shapePath",
  "booleanOperation": -1,
  "clippingMaskMode": 0,
  "do_objectID": "09C1DF46-57EA-4168-9DD5-FEF959CEEE9D",
  "edited": true,
  "exportOptions": {
    "_class": "exportOptions",
    "do_objectID": "E63E842C-14C0-458B-8222-FBB8DBEB448F",
    "exportFormats": [
    ],
    "includedLayerIds": [
    ],
    "layerOptions": 0,
    "shouldTrim": false
  },
  "frame": {
    "_class": "rect",
    "constrainProportions": false,
    "do_objectID": "7E912F8C-E390-4F5F-855F-45FEC29BE788",
    "height": 0.1058906030855589,
    "width": 0.1059863482545644,
    "x": 27.00533923749094,
    "y": 28.9463931686527
  },
  "hasClippingMask": false,
  "isClosed": true,
  "isFixedToViewport": false,
  "isFlippedHorizontal": false,
  "isFlippedVertical": false,
  "isLocked": false,
  "isVisible": true,
  "layerListExpandedType": 0,
  "name": "Path",
  "nameIsFixed": false,
  "pointRadiusBehaviour": 0,
  "points": [
    {
      "_class": "curvePoint",
      "cornerRadius": 0,
      "curveFrom": "{0.36123290729427704, 1.0660000000000309}",
      "curveMode": 4,
      "curveTo": "{0.86388570878570192, 0.60500000000001819}",
      "hasCurveFrom": true,
      "hasCurveTo": true,
      "point": "{0.58770285082340767, 0.72399999999998954}"
    },
    {
      "_class": "curvePoint",
      "cornerRadius": 0,
      "curveFrom": "{0.13081749436573314, 0.038000000000010914}",
      "curveMode": 4,
      "curveTo": "{-0.084605134844896721, 0.48400000000003729}",
      "hasCurveFrom": true,
      "hasCurveTo": true,
      "point": "{0.014031600141646542, 0.28300000000001546}"
    },
    {
      "_class": "curvePoint",
      "cornerRadius": 0,
      "curveFrom": "{1.1211303136306239, 0.47200000000003683}",
      "curveMode": 4,
      "curveTo": "{0.77787447587745162, 0.20600000000001728}",
      "hasCurveFrom": true,
      "hasCurveTo": true,
      "point": "{0.93884962737549627, 0}"
    }
  ],
  "resizingConstraint": 63,
  "resizingType": 0,
  "rotation": 0,
  "shouldBreakMaskChain": false,
  "style": {
    "_class": "style",
    "do_objectID": "F05D997E-9E5B-497D-84BE-EE78F51FA432",
    "endMarkerType": 0,
    "fills": [
      {
        "_class": "fill",
        "color": {
          "_class": "color",
          "alpha": 1,
          "blue": 0.1764705882352941,
          "green": 0.1764705882352941,
          "red": 0.1764705882352941
        },
        "fillType": 0,
        "isEnabled": true,
        "noiseIndex": 0,
        "noiseIntensity": 0,
        "patternFillType": 1,
        "patternTileScale": 1
      }
    ],
    "miterLimit": 10,
    "startMarkerType": 0,
    "windingRule": 1
  }
}