{
  "_class": "shapePath",
  "booleanOperation": -1,
  "clippingMaskMode": 0,
  "do_objectID": "0CDBA387-2FBD-4885-A8F8-5B1B7113813C",
  "edited": true,
  "exportOptions": {
    "_class": "exportOptions",
    "do_objectID": "CDE902E1-1970-4C89-B413-840B14F831F9",
    "exportFormats": [
    ],
    "includedLayerIds": [
    ],
    "layerOptions": 0,
    "shouldTrim": false
  },
  "frame": {
    "_class": "rect",
    "constrainProportions": false,
    "do_objectID": "C3F3E1AB-E8AF-4962-9298-251ABA430E25",
    "height": 0.1058906030855695,
    "width": 0.1059863482545538,
    "x": 30.54833037011742,
    "y": 33.3137880559376
  },
  "hasClippingMask": false,
  "isClosed": true,
  "isFixedToViewport": false,
  "isFlippedHorizontal": false,
  "isFlippedVertical": false,
  "isLocked": false,
  "isVisible": true,
  "layerListExpandedType": 0,
  "name": "Path",
  "nameIsFixed": false,
  "pointRadiusBehaviour": 0,
  "points": [
    {
      "_class": "curvePoint",
      "cornerRadius": 0,
      "curveFrom": "{0.9263855673924013, 0.16659158116181061}",
      "curveMode": 3,
      "curveTo": "{0.24838556739240403, -0.079408418838227135}",
      "hasCurveFrom": true,
      "hasCurveTo": true,
      "point": "{0.48438556739239402, 0.0065915811617855979}"
    },
    {
      "_class": "curvePoint",
      "cornerRadius": 0,
      "curveFrom": "{-0.26961443260762508, 0.70159158116177878}",
      "curveMode": 4,
      "curveTo": "{0.41038556739238174, 0.95059158116180242}",
      "hasCurveFrom": true,
      "hasCurveTo": true,
      "point": "{0.1733855673924154, 0.86559158116176604}"
    }
  ],
  "resizingConstraint": 63,
  "resizingType": 0,
  "rotation": 0,
  "shouldBreakMaskChain": false,
  "style": {
    "_class": "style",
    "do_objectID": "19B4CB25-F639-42B0-BCF0-630047778AB7",
    "endMarkerType": 0,
    "fills": [
      {
        "_class": "fill",
        "color": {
          "_class": "color",
          "alpha": 1,
          "blue": 0.1764705882352941,
          "green": 0.1764705882352941,
          "red": 0.1764705882352941
        },
        "fillType": 0,
        "isEnabled": true,
        "noiseIndex": 0,
        "noiseIntensity": 0,
        "patternFillType": 1,
        "patternTileScale": 1
      }
    ],
    "miterLimit": 10,
    "startMarkerType": 0,
    "windingRule": 1
  }
}