{
  "_class": "shapePath",
  "booleanOperation": -1,
  "clippingMaskMode": 0,
  "do_objectID": "13B1B54B-36A7-4A0D-B2F8-E724125E626A",
  "edited": true,
  "exportOptions": {
    "_class": "exportOptions",
    "do_objectID": "FF75A9A5-19F5-41D5-8182-EA2C47C68ED3",
    "exportFormats": [
    ],
    "includedLayerIds": [
    ],
    "layerOptions": 0,
    "shouldTrim": false
  },
  "frame": {
    "_class": "rect",
    "constrainProportions": false,
    "do_objectID": "038D217A-D887-4088-8518-C2C5FC4C614E",
    "height": 0.1058906030855624,
    "width": 0.3721248987466055,
    "x": 39.12450098587313,
    "y": 16.61358618114361
  },
  "hasClippingMask": false,
  "isClosed": true,
  "isFixedToViewport": false,
  "isFlippedHorizontal": false,
  "isFlippedVertical": false,
  "isLocked": false,
  "isVisible": true,
  "layerListExpandedType": 0,
  "name": "Path",
  "nameIsFixed": false,
  "pointRadiusBehaviour": 0,
  "points": [
    {
      "_class": "curvePoint",
      "cornerRadius": 0,
      "curveFrom": "{0.58938406303486812, 0.089999006211559596}",
      "curveMode": 2,
      "curveTo": "{0.39546754488608793, 0.22713208079704203}",
      "hasCurveFrom": true,
      "hasCurveTo": true,
      "point": "{0.495370542987489, 0.1562011801493895}"
    },
    {
      "_class": "curvePoint",
      "cornerRadius": 0,
      "curveFrom": "{1.2348272319912625, -1.0638103109905741}",
      "curveMode": 4,
      "curveTo": "{0.67270927105830358, -0.091268850999172646}",
      "hasCurveFrom": true,
      "hasCurveTo": true,
      "point": "{0.70477420713014693, 0.43125545043868801}"
    },
    {
      "_class": "curvePoint",
      "cornerRadius": 0,
      "curveFrom": "{0.60661623956327637, 0.52425374239896538}",
      "curveMode": 4,
      "curveTo": "{0.93424572241981896, 1.9294736963411951}",
      "hasCurveFrom": true,
      "hasCurveTo": true,
      "point": "{0.70477420713014693, 0.43125545043868801}"
    },
    {
      "_class": "curvePoint",
      "cornerRadius": 0,
      "curveFrom": "{0.32544819468839187, 0.98136399101730742}",
      "curveMode": 4,
      "curveTo": "{0.51958284165398216, 0.84423091643180259}",
      "hasCurveFrom": true,
      "hasCurveTo": true,
      "point": "{0.42011610118621373, 0.91358557484285496}"
    },
    {
      "_class": "curvePoint",
      "cornerRadius": 0,
      "curveFrom": "{0.11866207634750492, 0.75832571453628139}",
      "curveMode": 4,
      "curveTo": "{0.24255924429858899, 1.1642080904646397}",
      "hasCurveFrom": true,
      "hasCurveTo": true,
      "point": "{0.20962179295948044, 0.63853130455355656}"
    },
    {
      "_class": "curvePoint",
      "cornerRadius": 0,
      "curveFrom": "{0.091395974245595757, 0.24368262428151069}",
      "curveMode": 4,
      "curveTo": "{0.030974291987767917, 0.84817152202333634}",
      "hasCurveFrom": true,
      "hasCurveTo": true,
      "point": "{0, 0.36426515538254683}"
    },
    {
      "_class": "curvePoint",
      "cornerRadius": 0,
      "curveFrom": "{0.30887040461042631, 0.54632113371156787}",
      "curveMode": 4,
      "curveTo": "{0.17908375860534514, 0.1562011801493895}",
      "hasCurveFrom": true,
      "hasCurveTo": true,
      "point": "{0.20962179295948044, 0.63853130455355656}"
    }
  ],
  "resizingConstraint": 63,
  "resizingType": 0,
  "rotation": 0,
  "shouldBreakMaskChain": false,
  "style": {
    "_class": "style",
    "do_objectID": "D6C4A70B-006B-45F2-B008-1AE5BE8AD1BD",
    "endMarkerType": 0,
    "fills": [
      {
        "_class": "fill",
        "color": {
          "_class": "color",
          "alpha": 1,
          "blue": 0.1764705882352941,
          "green": 0.1764705882352941,
          "red": 0.1764705882352941
        },
        "fillType": 0,
        "isEnabled": true,
        "noiseIndex": 0,
        "noiseIntensity": 0,
        "patternFillType": 1,
        "patternTileScale": 1
      }
    ],
    "miterLimit": 10,
    "startMarkerType": 0,
    "windingRule": 1
  }
}