{
  "_class": "shapePath",
  "booleanOperation": -1,
  "clippingMaskMode": 0,
  "do_objectID": "2E028E7B-FE64-44A7-9F09-3130BAB3DD2E",
  "edited": true,
  "exportOptions": {
    "_class": "exportOptions",
    "do_objectID": "D03878C3-9B65-4785-8752-BC4DC4217C08",
    "exportFormats": [
    ],
    "includedLayerIds": [
    ],
    "layerOptions": 0,
    "shouldTrim": false
  },
  "frame": {
    "_class": "rect",
    "constrainProportions": false,
    "do_objectID": "CBCC0026-F8B5-4D37-A875-5769757ADE59",
    "height": 0.1058906030855518,
    "width": 0.105986348254568,
    "x": 17.14020617796086,
    "y": 16.49929839751369
  },
  "hasClippingMask": false,
  "isClosed": true,
  "isFixedToViewport": false,
  "isFlippedHorizontal": false,
  "isFlippedVertical": false,
  "isLocked": false,
  "isVisible": true,
  "layerListExpandedType": 0,
  "name": "Path",
  "nameIsFixed": false,
  "pointRadiusBehaviour": 0,
  "points": [
    {
      "_class": "curvePoint",
      "cornerRadius": 0,
      "curveFrom": "{0.9247284285058015, 0.16745250038636073}",
      "curveMode": 3,
      "curveTo": "{0.24672842850580423, -0.078547499613620175}",
      "hasCurveFrom": true,
      "hasCurveTo": true,
      "point": "{0.48472842850580378, 0.0064525003863593611}"
    },
    {
      "_class": "curvePoint",
      "cornerRadius": 0,
      "curveFrom": "{-0.26927157149421532, 0.70145250038638096}",
      "curveMode": 3,
      "curveTo": "{0.40872842850578195, 0.94845250038636664}",
      "hasCurveFrom": true,
      "hasCurveTo": true,
      "point": "{0.17372842850579673, 0.8634525003863871}"
    }
  ],
  "resizingConstraint": 63,
  "resizingType": 0,
  "rotation": 0,
  "shouldBreakMaskChain": false,
  "style": {
    "_class": "style",
    "do_objectID": "AC80E737-8DC3-4311-B389-2DBF2881940B",
    "endMarkerType": 0,
    "fills": [
      {
        "_class": "fill",
        "color": {
          "_class": "color",
          "alpha": 1,
          "blue": 0.1764705882352941,
          "green": 0.1764705882352941,
          "red": 0.1764705882352941
        },
        "fillType": 0,
        "isEnabled": true,
        "noiseIndex": 0,
        "noiseIntensity": 0,
        "patternFillType": 1,
        "patternTileScale": 1
      }
    ],
    "miterLimit": 10,
    "startMarkerType": 0,
    "windingRule": 1
  }
}