{
  "_class": "shapePath",
  "booleanOperation": -1,
  "clippingMaskMode": 0,
  "do_objectID": "34FF2825-A337-4131-8901-6170568185B5",
  "edited": true,
  "exportOptions": {
    "_class": "exportOptions",
    "do_objectID": "7454DF01-3E14-43E5-9274-8F11CB8711F5",
    "exportFormats": [
    ],
    "includedLayerIds": [
    ],
    "layerOptions": 0,
    "shouldTrim": false
  },
  "frame": {
    "_class": "rect",
    "constrainProportions": false,
    "do_objectID": "435B02B6-1BBB-43F3-A446-BAAC51ADE9D6",
    "height": 0.118159547141051,
    "width": 0.1182663857602009,
    "x": 16.88887821084167,
    "y": 23.79051714322927
  },
  "hasClippingMask": false,
  "isClosed": true,
  "isFixedToViewport": false,
  "isFlippedHorizontal": false,
  "isFlippedVertical": false,
  "isLocked": false,
  "isVisible": true,
  "layerListExpandedType": 0,
  "name": "Path",
  "nameIsFixed": false,
  "pointRadiusBehaviour": 0,
  "points": [
    {
      "_class": "curvePoint",
      "cornerRadius": 0,
      "curveFrom": "{0.2683596431022795, 0.13040494166090716}",
      "curveMode": 4,
      "curveTo": "{0.065202470830473078, 0.46328071379544095}",
      "hasCurveFrom": true,
      "hasCurveTo": true,
      "point": "{0, 0.19560741249139973}"
    },
    {
      "_class": "curvePoint",
      "cornerRadius": 0,
      "curveFrom": "{0.87028140013727262, 0.26835964310224053}",
      "curveMode": 4,
      "curveTo": "{0.53534660260810196, 0.065202470830453579}",
      "hasCurveFrom": true,
      "hasCurveTo": true,
      "point": "{0.80507892930679958, 0}"
    },
    {
      "_class": "curvePoint",
      "cornerRadius": 0,
      "curveFrom": "{0.73026767330130238, 0.87096774193549142}",
      "curveMode": 4,
      "curveTo": "{0.93548387096774566, 0.53740562800275837}",
      "hasCurveFrom": true,
      "hasCurveTo": true,
      "point": "{1, 0.80507892930679958}"
    },
    {
      "_class": "curvePoint",
      "cornerRadius": 0,
      "curveFrom": "{0.12971859986272738, 0.73164035689772045}",
      "curveMode": 4,
      "curveTo": "{0.46328071379547997, 0.93548387096770669}",
      "hasCurveFrom": true,
      "hasCurveTo": true,
      "point": "{0.19492107069321996, 1}"
    }
  ],
  "resizingConstraint": 63,
  "resizingType": 0,
  "rotation": 0,
  "shouldBreakMaskChain": false,
  "style": {
    "_class": "style",
    "do_objectID": "F5F8B194-983B-44D9-AD9C-066DA1FEBAC7",
    "endMarkerType": 0,
    "fills": [
      {
        "_class": "fill",
        "color": {
          "_class": "color",
          "alpha": 1,
          "blue": 0.1764705882352941,
          "green": 0.1764705882352941,
          "red": 0.1764705882352941
        },
        "fillType": 0,
        "isEnabled": true,
        "noiseIndex": 0,
        "noiseIntensity": 0,
        "patternFillType": 1,
        "patternTileScale": 1
      }
    ],
    "miterLimit": 10,
    "startMarkerType": 0,
    "windingRule": 1
  }
}