{
  "_class": "shapePath",
  "booleanOperation": -1,
  "clippingMaskMode": 0,
  "do_objectID": "3FF62987-B079-4191-920D-4AC76FBDD807",
  "edited": true,
  "exportOptions": {
    "_class": "exportOptions",
    "do_objectID": "10867425-1DC8-4362-9A5A-F73F107931A2",
    "exportFormats": [
    ],
    "includedLayerIds": [
    ],
    "layerOptions": 0,
    "shouldTrim": false
  },
  "frame": {
    "_class": "rect",
    "constrainProportions": false,
    "do_objectID": "9D221BB0-C646-4F7F-B608-0B7C4F181FAD",
    "height": 0.205583014415005,
    "width": 0.2625075439591313,
    "x": 39.26289782027332,
    "y": 10.33719711904567
  },
  "hasClippingMask": false,
  "isClosed": true,
  "isFixedToViewport": false,
  "isFlippedHorizontal": false,
  "isFlippedVertical": false,
  "isLocked": false,
  "isVisible": true,
  "layerListExpandedType": 0,
  "name": "Path",
  "nameIsFixed": false,
  "pointRadiusBehaviour": 0,
  "points": [
    {
      "_class": "curvePoint",
      "cornerRadius": 0,
      "curveFrom": "{0.87384044526901339, 0.17120315581854897}",
      "curveMode": 4,
      "curveTo": "{0.54019789734075263, 0.16134122287970201}",
      "hasCurveFrom": true,
      "hasCurveTo": true,
      "point": "{0.81076066790352008, 0}"
    },
    {
      "_class": "curvePoint",
      "cornerRadius": 0,
      "curveFrom": "{0.72974644403215416, 0.67810650887573065}",
      "curveMode": 4,
      "curveTo": "{0.93753865182436735, 0.34398422090730002}",
      "hasCurveFrom": true,
      "hasCurveTo": true,
      "point": "{1, 0.51676528599605098}"
    },
    {
      "_class": "curvePoint",
      "cornerRadius": 0,
      "curveFrom": "{0.12708719851576891, 0.82721893491124898}",
      "curveMode": 4,
      "curveTo": "{0.46011131725416893, 0.83905325443786527}",
      "hasCurveFrom": true,
      "hasCurveTo": true,
      "point": "{0.1895485466914015, 1}"
    },
    {
      "_class": "curvePoint",
      "cornerRadius": 0,
      "curveFrom": "{0.27056277056276745, 0.32110453648915716}",
      "curveMode": 4,
      "curveTo": "{0.06307977736549332, 0.65522682445758773}",
      "hasCurveFrom": true,
      "hasCurveTo": true,
      "point": "{0, 0.48284023668640408}"
    }
  ],
  "resizingConstraint": 63,
  "resizingType": 0,
  "rotation": 0,
  "shouldBreakMaskChain": false,
  "style": {
    "_class": "style",
    "do_objectID": "66CF34E5-CA71-44D5-8F06-822DDC1AFCCC",
    "endMarkerType": 0,
    "fills": [
      {
        "_class": "fill",
        "color": {
          "_class": "color",
          "alpha": 1,
          "blue": 0.1764705882352941,
          "green": 0.1764705882352941,
          "red": 0.1764705882352941
        },
        "fillType": 0,
        "isEnabled": true,
        "noiseIndex": 0,
        "noiseIntensity": 0,
        "patternFillType": 1,
        "patternTileScale": 1
      }
    ],
    "miterLimit": 10,
    "startMarkerType": 0,
    "windingRule": 1
  }
}