{
  "_class": "shapePath",
  "booleanOperation": -1,
  "clippingMaskMode": 0,
  "do_objectID": "4F817A4D-8334-4357-8489-9EE97E7D688F",
  "edited": true,
  "exportOptions": {
    "_class": "exportOptions",
    "do_objectID": "F3710D40-99B6-4D95-9770-59E908FA7271",
    "exportFormats": [
    ],
    "includedLayerIds": [
    ],
    "layerOptions": 0,
    "shouldTrim": false
  },
  "frame": {
    "_class": "rect",
    "constrainProportions": false,
    "do_objectID": "26FBF1AE-5A91-4324-8E86-65F87C591387",
    "height": 0.3672920995209239,
    "width": 0.2954096380071789,
    "x": 25.56773536258532,
    "y": 16.59275980145827
  },
  "hasClippingMask": false,
  "isClosed": true,
  "isFixedToViewport": false,
  "isFlippedHorizontal": false,
  "isFlippedVertical": false,
  "isLocked": false,
  "isVisible": true,
  "layerListExpandedType": 0,
  "name": "Path",
  "nameIsFixed": false,
  "pointRadiusBehaviour": 0,
  "points": [
    {
      "_class": "curvePoint",
      "cornerRadius": 0,
      "curveFrom": "{0.014165380332619815, 0.1185692205784956}",
      "curveMode": 4,
      "curveTo": "{0.58679634338629261, 0.243762419960253}",
      "hasCurveFrom": true,
      "hasCurveTo": true,
      "point": "{0.077363615218572782, 0.22344888496356841}"
    },
    {
      "_class": "curvePoint",
      "cornerRadius": 0,
      "curveFrom": "{0.30680068534805932, 0.041731066460585803}",
      "curveMode": 4,
      "curveTo": "{0.1031924590415302, 0.08920291455067271}",
      "hasCurveFrom": true,
      "hasCurveTo": true,
      "point": "{0.19936368604191582, 0.062486200044157045}"
    },
    {
      "_class": "curvePoint",
      "cornerRadius": 0,
      "curveFrom": "{0.6008098650349315, 0.25701037756678918}",
      "curveMode": 4,
      "curveTo": "{0.4145124595884831, 0.020755133583571245}",
      "hasCurveFrom": true,
      "hasCurveTo": true,
      "point": "{0.52139990902603472, 0}"
    },
    {
      "_class": "curvePoint",
      "cornerRadius": 0,
      "curveFrom": "{0.37467009411688673, 0.55199823360565292}",
      "curveMode": 4,
      "curveTo": "{1.0107740669908241, 0.079046147052330401}",
      "hasCurveFrom": true,
      "hasCurveTo": true,
      "point": "{0.99978306961936214, 0.45528814307794513}"
    },
    {
      "_class": "curvePoint",
      "cornerRadius": 0,
      "curveFrom": "{0.74039553165261995, 0.91653786707882834}",
      "curveMode": 4,
      "curveTo": "{0.97340467592782842, 0.57209096930890047}",
      "hasCurveFrom": true,
      "hasCurveTo": true,
      "point": "{0.95609385506776345, 0.87458600132479924}"
    },
    {
      "_class": "curvePoint",
      "cornerRadius": 0,
      "curveFrom": "{0.29608446291086205, 0.95738573636564717}",
      "curveMode": 4,
      "curveTo": "{0.52579630797462884, 0.95826893353941422}",
      "hasCurveFrom": true,
      "hasCurveTo": true,
      "point": "{0.31119708429663784, 1}"
    },
    {
      "_class": "curvePoint",
      "cornerRadius": 0,
      "curveFrom": "{0.23261145309061318, 0.76330315742989541}",
      "curveMode": 4,
      "curveTo": "{0.28674211514511316, 0.91344667697063453}",
      "hasCurveFrom": true,
      "hasCurveTo": true,
      "point": "{0.27217904362791362, 0.87061161404283838}"
    },
    {
      "_class": "curvePoint",
      "cornerRadius": 0,
      "curveFrom": "{-0.23862755921123893, 0.48973283285493291}",
      "curveMode": 4,
      "curveTo": "{0.20046278577906826, 0.75402958710532009}",
      "hasCurveFrom": true,
      "hasCurveTo": true,
      "point": "{0.072142891467122119, 0.77235592846102741}"
    }
  ],
  "resizingConstraint": 63,
  "resizingType": 0,
  "rotation": 0,
  "shouldBreakMaskChain": false,
  "style": {
    "_class": "style",
    "do_objectID": "75D2C41F-3EBD-4E72-AD4F-3C321C77EE97",
    "endMarkerType": 0,
    "fills": [
      {
        "_class": "fill",
        "color": {
          "_class": "color",
          "alpha": 1,
          "blue": 0.1764705882352941,
          "green": 0.1764705882352941,
          "red": 0.1764705882352941
        },
        "fillType": 0,
        "isEnabled": true,
        "noiseIndex": 0,
        "noiseIntensity": 0,
        "patternFillType": 1,
        "patternTileScale": 1
      }
    ],
    "miterLimit": 10,
    "startMarkerType": 0,
    "windingRule": 1
  }
}