{
  "_class": "shapePath",
  "booleanOperation": -1,
  "clippingMaskMode": 0,
  "do_objectID": "4FC7DB4E-5116-4BA8-9091-B3F7DD6FE426",
  "edited": true,
  "exportOptions": {
    "_class": "exportOptions",
    "do_objectID": "8E61BB17-C56E-4C1F-816E-D73C63F441F7",
    "exportFormats": [
    ],
    "includedLayerIds": [
    ],
    "layerOptions": 0,
    "shouldTrim": false
  },
  "frame": {
    "_class": "rect",
    "constrainProportions": false,
    "do_objectID": "D0602E17-F8C4-4D23-90B2-9EB3068CAB94",
    "height": 0.1277290917963079,
    "width": 0.1613845635833346,
    "x": 12.80335964974712,
    "y": 13.33473533553777
  },
  "hasClippingMask": false,
  "isClosed": true,
  "isFixedToViewport": false,
  "isFlippedHorizontal": false,
  "isFlippedVertical": false,
  "isLocked": false,
  "isVisible": true,
  "layerListExpandedType": 0,
  "name": "Path",
  "nameIsFixed": false,
  "pointRadiusBehaviour": 0,
  "points": [
    {
      "_class": "curvePoint",
      "cornerRadius": 0,
      "curveFrom": "{0.47789048158733038, 0.26031746031744196}",
      "curveMode": 4,
      "curveTo": "{0.065960234143870297, 0.53269841269841567}",
      "hasCurveFrom": true,
      "hasCurveTo": true,
      "point": "{0.2575907888153729, 0.38920634920635172}"
    },
    {
      "_class": "curvePoint",
      "cornerRadius": 0,
      "curveFrom": "{1.108611519797482, 0.31936507936507275}",
      "curveMode": 4,
      "curveTo": "{0.6981901743593022, 0.13015873015872098}",
      "hasCurveFrom": true,
      "hasCurveTo": true,
      "point": "{0.91748393246107751, 0}"
    },
    {
      "_class": "curvePoint",
      "cornerRadius": 0,
      "curveFrom": "{0.52114567240557619, 0.74095238095236926}",
      "curveMode": 4,
      "curveTo": "{0.93307591984903626, 0.4692063492063373}",
      "hasCurveFrom": true,
      "hasCurveTo": true,
      "point": "{0.74194833251263193, 0.61142857142855389}"
    },
    {
      "_class": "curvePoint",
      "cornerRadius": 0,
      "curveFrom": "{-0.10856943113437896, 0.68380952380952764}",
      "curveMode": 4,
      "curveTo": "{0.30235488163889901, 0.87174603174603194}",
      "hasCurveFrom": true,
      "hasCurveTo": true,
      "point": "{0.083061123537123624, 1}"
    }
  ],
  "resizingConstraint": 63,
  "resizingType": 0,
  "rotation": 0,
  "shouldBreakMaskChain": false,
  "style": {
    "_class": "style",
    "do_objectID": "1A438526-1B88-4855-811B-96635A6AA362",
    "endMarkerType": 0,
    "fills": [
      {
        "_class": "fill",
        "color": {
          "_class": "color",
          "alpha": 1,
          "blue": 0.1764705882352941,
          "green": 0.1764705882352941,
          "red": 0.1764705882352941
        },
        "fillType": 0,
        "isEnabled": true,
        "noiseIndex": 0,
        "noiseIntensity": 0,
        "patternFillType": 1,
        "patternTileScale": 1
      }
    ],
    "miterLimit": 10,
    "startMarkerType": 0,
    "windingRule": 1
  }
}