{
  "_class": "shapePath",
  "booleanOperation": -1,
  "clippingMaskMode": 0,
  "do_objectID": "53421706-481B-46FA-A524-B7351CD824CA",
  "edited": true,
  "exportOptions": {
    "_class": "exportOptions",
    "do_objectID": "F8BD77CF-F9AB-430B-BB9C-276FB013B4C6",
    "exportFormats": [
    ],
    "includedLayerIds": [
    ],
    "layerOptions": 0,
    "shouldTrim": false
  },
  "frame": {
    "_class": "rect",
    "constrainProportions": false,
    "do_objectID": "09E903E1-2849-40EF-8B1D-ACECF27F5FBB",
    "height": 0.1084247174381758,
    "width": 0.1623726802503533,
    "x": 8.69153436131827,
    "y": 18.07783031795947
  },
  "hasClippingMask": false,
  "isClosed": true,
  "isFixedToViewport": false,
  "isFlippedHorizontal": false,
  "isFlippedVertical": false,
  "isLocked": false,
  "isVisible": true,
  "layerListExpandedType": 0,
  "name": "Path",
  "nameIsFixed": false,
  "pointRadiusBehaviour": 0,
  "points": [
    {
      "_class": "curvePoint",
      "cornerRadius": 0,
      "curveFrom": "{0.21314711479710319, -0.28204663537175634}",
      "curveMode": 3,
      "curveTo": "{-0.25026624262543828, 0.8556073199577251}",
      "hasCurveFrom": true,
      "hasCurveTo": true,
      "point": "{0.049177771501961648, 0.12110621270357659}"
    },
    {
      "_class": "curvePoint",
      "cornerRadius": 0,
      "curveFrom": "{0.59557561364095146, 0.49808030441040463}",
      "curveMode": 4,
      "curveTo": "{0.39961225214188373, 0.45021057847936469}",
      "hasCurveFrom": true,
      "hasCurveTo": true,
      "point": "{0.41260982203722829, 0.45395040081774379}"
    },
    {
      "_class": "curvePoint",
      "cornerRadius": 0,
      "curveFrom": "{0.91201644993919218, 1.605815681033002}",
      "curveMode": 4,
      "curveTo": "{0.81503458225853587, 0.2213334513716689}",
      "hasCurveFrom": true,
      "hasCurveTo": true,
      "point": "{1, 0.24078052753113396}"
    }
  ],
  "resizingConstraint": 63,
  "resizingType": 0,
  "rotation": 0,
  "shouldBreakMaskChain": false,
  "style": {
    "_class": "style",
    "do_objectID": "FAD88B03-E8FB-48D9-A5BD-AE538AF5160E",
    "endMarkerType": 0,
    "fills": [
      {
        "_class": "fill",
        "color": {
          "_class": "color",
          "alpha": 1,
          "blue": 0.1764705882352941,
          "green": 0.1764705882352941,
          "red": 0.1764705882352941
        },
        "fillType": 0,
        "isEnabled": true,
        "noiseIndex": 0,
        "noiseIntensity": 0,
        "patternFillType": 1,
        "patternTileScale": 1
      }
    ],
    "miterLimit": 10,
    "startMarkerType": 0,
    "windingRule": 1
  }
}