{
  "_class": "shapePath",
  "booleanOperation": -1,
  "clippingMaskMode": 0,
  "do_objectID": "5694B354-2215-4063-8104-C4705DE46629",
  "edited": true,
  "exportOptions": {
    "_class": "exportOptions",
    "do_objectID": "D03E0B81-F9C6-4FD8-AB16-3055890A2AD9",
    "exportFormats": [
    ],
    "includedLayerIds": [
    ],
    "layerOptions": 0,
    "shouldTrim": false
  },
  "frame": {
    "_class": "rect",
    "constrainProportions": false,
    "do_objectID": "BAFB5052-5FB6-4522-8ED0-D8248808A09B",
    "height": 0.1058906030855553,
    "width": 0.105986348254568,
    "x": 24.57594608504636,
    "y": 15.97803660795648
  },
  "hasClippingMask": false,
  "isClosed": true,
  "isFixedToViewport": false,
  "isFlippedHorizontal": false,
  "isFlippedVertical": false,
  "isLocked": false,
  "isVisible": true,
  "layerListExpandedType": 0,
  "name": "Path",
  "nameIsFixed": false,
  "pointRadiusBehaviour": 0,
  "points": [
    {
      "_class": "curvePoint",
      "cornerRadius": 0,
      "curveFrom": "{-0.30395458095449612, 0.79101968188507499}",
      "curveMode": 3,
      "curveTo": "{0.46204541904546659, 1.0640196818850427}",
      "hasCurveFrom": true,
      "hasCurveTo": true,
      "point": "{0.19604541904550388, 0.97001968188504861}"
    },
    {
      "_class": "curvePoint",
      "cornerRadius": 0,
      "curveFrom": "{1.0420454190455075, 0.1890196818850427}",
      "curveMode": 3,
      "curveTo": "{0.27904541904547386, -0.086980318114967758}",
      "hasCurveFrom": true,
      "hasCurveTo": true,
      "point": "{0.54404541904546022, 0.0070196818850831733}"
    }
  ],
  "resizingConstraint": 63,
  "resizingType": 0,
  "rotation": 0,
  "shouldBreakMaskChain": false,
  "style": {
    "_class": "style",
    "do_objectID": "DC5DBFDC-E407-471F-B236-0B0ACDD7A4D7",
    "endMarkerType": 0,
    "fills": [
      {
        "_class": "fill",
        "color": {
          "_class": "color",
          "alpha": 1,
          "blue": 0.1764705882352941,
          "green": 0.1764705882352941,
          "red": 0.1764705882352941
        },
        "fillType": 0,
        "isEnabled": true,
        "noiseIndex": 0,
        "noiseIntensity": 0,
        "patternFillType": 1,
        "patternTileScale": 1
      }
    ],
    "miterLimit": 10,
    "startMarkerType": 0,
    "windingRule": 1
  }
}