{
  "_class": "shapePath",
  "booleanOperation": -1,
  "clippingMaskMode": 0,
  "do_objectID": "56E29035-D5B0-4522-A54F-C1593433A612",
  "edited": true,
  "exportOptions": {
    "_class": "exportOptions",
    "do_objectID": "D029B780-8995-411D-82CE-2D825E26A7D6",
    "exportFormats": [
    ],
    "includedLayerIds": [
    ],
    "layerOptions": 0,
    "shouldTrim": false
  },
  "frame": {
    "_class": "rect",
    "constrainProportions": false,
    "do_objectID": "F13BC971-CA71-4DC6-A52E-955CE92D9B7A",
    "height": 0.1067247522564223,
    "width": 0.1059863482545502,
    "x": 27.96673982800525,
    "y": 24.19365448628923
  },
  "hasClippingMask": false,
  "isClosed": true,
  "isFixedToViewport": false,
  "isFlippedHorizontal": false,
  "isFlippedVertical": false,
  "isLocked": false,
  "isVisible": true,
  "layerListExpandedType": 0,
  "name": "Path",
  "nameIsFixed": false,
  "pointRadiusBehaviour": 0,
  "points": [
    {
      "_class": "curvePoint",
      "cornerRadius": 0,
      "curveFrom": "{0.12366702640304084, 0.015957446808479162}",
      "curveMode": 4,
      "curveTo": "{-0.12533297359692597, 0.26291793313070705}",
      "hasCurveFrom": true,
      "hasCurveTo": true,
      "point": "{0.027667026403037198, 0.10790273556226586}"
    },
    {
      "_class": "curvePoint",
      "cornerRadius": 0,
      "curveFrom": "{0.51966702640305584, 0.18996960486322562}",
      "curveMode": 4,
      "curveTo": "{0.50266702640305994, 0.084346504559264582}",
      "hasCurveFrom": true,
      "hasCurveTo": true,
      "point": "{0.61466702640308313, 0}"
    },
    {
      "_class": "curvePoint",
      "cornerRadius": 0,
      "curveFrom": "{0.80666702640303356, 0.9878419452887387}",
      "curveMode": 4,
      "curveTo": "{1.0516670264030381, 0.74012158054711907}",
      "hasCurveFrom": true,
      "hasCurveTo": true,
      "point": "{0.89866702640307494, 0.89133738601825607}"
    },
    {
      "_class": "curvePoint",
      "cornerRadius": 0,
      "curveFrom": "{0.4106670264030754, 0.81306990881455732}",
      "curveMode": 4,
      "curveTo": "{0.42666702640303811, 0.91869300911851837}",
      "hasCurveFrom": true,
      "hasCurveTo": true,
      "point": "{0.31166702640308586, 1}"
    }
  ],
  "resizingConstraint": 63,
  "resizingType": 0,
  "rotation": 0,
  "shouldBreakMaskChain": false,
  "style": {
    "_class": "style",
    "do_objectID": "C41F2C3D-BCB5-4BE7-8A70-9D90B24FB41B",
    "endMarkerType": 0,
    "fills": [
      {
        "_class": "fill",
        "color": {
          "_class": "color",
          "alpha": 1,
          "blue": 0.1764705882352941,
          "green": 0.1764705882352941,
          "red": 0.1764705882352941
        },
        "fillType": 0,
        "isEnabled": true,
        "noiseIndex": 0,
        "noiseIntensity": 0,
        "patternFillType": 1,
        "patternTileScale": 1
      }
    ],
    "miterLimit": 10,
    "startMarkerType": 0,
    "windingRule": 1
  }
}