{
  "_class": "shapePath",
  "booleanOperation": -1,
  "clippingMaskMode": 0,
  "do_objectID": "664189FD-73B9-4C3B-BAA3-251683287C07",
  "edited": true,
  "exportOptions": {
    "_class": "exportOptions",
    "do_objectID": "85F57483-5A38-488F-801E-B97F7F374097",
    "exportFormats": [
    ],
    "includedLayerIds": [
    ],
    "layerOptions": 0,
    "shouldTrim": false
  },
  "frame": {
    "_class": "rect",
    "constrainProportions": false,
    "do_objectID": "2594D451-1968-4A0E-902A-253DA9345377",
    "height": 0.1058906030855695,
    "width": 0.1154259387644352,
    "x": 19.30616639345482,
    "y": 32.94792259558178
  },
  "hasClippingMask": false,
  "isClosed": true,
  "isFixedToViewport": false,
  "isFlippedHorizontal": false,
  "isFlippedVertical": false,
  "isLocked": false,
  "isVisible": true,
  "layerListExpandedType": 0,
  "name": "Path",
  "nameIsFixed": false,
  "pointRadiusBehaviour": 0,
  "points": [
    {
      "_class": "curvePoint",
      "cornerRadius": 0,
      "curveFrom": "{0.36277286088465693, 1.2019999999999982}",
      "curveMode": 4,
      "curveTo": "{0.86488020022580858, 0.68399999999996908}",
      "hasCurveFrom": true,
      "hasCurveTo": true,
      "point": "{0.5892134256855508, 0.81999999999999318}"
    },
    {
      "_class": "curvePoint",
      "cornerRadius": 0,
      "curveFrom": "{0.1314096751098067, 0.048000000000001819}",
      "curveMode": 4,
      "curveTo": "{-0.082372721472422195, 0.54699999999996862}",
      "hasCurveFrom": true,
      "hasCurveTo": true,
      "point": "{0.013266771735413361, 0.31899999999995998}"
    },
    {
      "_class": "curvePoint",
      "cornerRadius": 0,
      "curveFrom": "{1.1201532593026127, 0.53199999999998226}",
      "curveMode": 4,
      "curveTo": "{0.77767948583040969, 0.2349999999999568}",
      "hasCurveFrom": true,
      "hasCurveTo": true,
      "point": "{0.93942274640250245, 0}"
    }
  ],
  "resizingConstraint": 63,
  "resizingType": 0,
  "rotation": 0,
  "shouldBreakMaskChain": false,
  "style": {
    "_class": "style",
    "do_objectID": "F792C39E-1087-4E85-88DA-42990BB302F5",
    "endMarkerType": 0,
    "fills": [
      {
        "_class": "fill",
        "color": {
          "_class": "color",
          "alpha": 1,
          "blue": 0.1764705882352941,
          "green": 0.1764705882352941,
          "red": 0.1764705882352941
        },
        "fillType": 0,
        "isEnabled": true,
        "noiseIndex": 0,
        "noiseIntensity": 0,
        "patternFillType": 1,
        "patternTileScale": 1
      }
    ],
    "miterLimit": 10,
    "startMarkerType": 0,
    "windingRule": 1
  }
}