{
  "_class": "shapePath",
  "booleanOperation": -1,
  "clippingMaskMode": 0,
  "do_objectID": "697ED9E7-CC68-4597-8BFF-A5BF2004BCC2",
  "edited": true,
  "exportOptions": {
    "_class": "exportOptions",
    "do_objectID": "DDB6CBE9-618F-40A9-9654-1B6898899FD5",
    "exportFormats": [
    ],
    "includedLayerIds": [
    ],
    "layerOptions": 0,
    "shouldTrim": false
  },
  "frame": {
    "_class": "rect",
    "constrainProportions": false,
    "do_objectID": "6049354C-6D41-436E-8FB6-87D2DA73CC85",
    "height": 0.1058906030855535,
    "width": 0.1151971911533813,
    "x": 12.42439462795017,
    "y": 5.007204039598962
  },
  "hasClippingMask": false,
  "isClosed": true,
  "isFixedToViewport": false,
  "isFlippedHorizontal": false,
  "isFlippedVertical": false,
  "isLocked": false,
  "isVisible": true,
  "layerListExpandedType": 0,
  "name": "Path",
  "nameIsFixed": false,
  "pointRadiusBehaviour": 0,
  "points": [
    {
      "_class": "curvePoint",
      "cornerRadius": 0,
      "curveFrom": "{0.36278270148771069, 1.1979999999999791}",
      "curveMode": 4,
      "curveTo": "{0.86518244978566972, 0.67799999999999727}",
      "hasCurveFrom": true,
      "hasCurveTo": true,
      "point": "{0.5896729103964703, 0.81599999999997408}"
    },
    {
      "_class": "curvePoint",
      "cornerRadius": 0,
      "curveFrom": "{0.13096009673310499, 0.042999999999949523}",
      "curveMode": 4,
      "curveTo": "{-0.084656064528000688, 0.54199999999997317}",
      "hasCurveFrom": true,
      "hasCurveTo": true,
      "point": "{0.01399185238884086, 0.31799999999998363}"
    },
    {
      "_class": "curvePoint",
      "cornerRadius": 0,
      "curveFrom": "{1.1195531498355431, 0.52999999999997272}",
      "curveMode": 4,
      "curveTo": "{0.77921783647242382, 0.22999999999996135}",
      "hasCurveFrom": true,
      "hasCurveTo": true,
      "point": "{0.93987301545128177, 0}"
    }
  ],
  "resizingConstraint": 63,
  "resizingType": 0,
  "rotation": 0,
  "shouldBreakMaskChain": false,
  "style": {
    "_class": "style",
    "do_objectID": "BEA72155-D83C-4A46-801C-82963EF667E2",
    "endMarkerType": 0,
    "fills": [
      {
        "_class": "fill",
        "color": {
          "_class": "color",
          "alpha": 1,
          "blue": 0.1764705882352941,
          "green": 0.1764705882352941,
          "red": 0.1764705882352941
        },
        "fillType": 0,
        "isEnabled": true,
        "noiseIndex": 0,
        "noiseIntensity": 0,
        "patternFillType": 1,
        "patternTileScale": 1
      }
    ],
    "miterLimit": 10,
    "startMarkerType": 0,
    "windingRule": 1
  }
}