{
  "_class": "shapePath",
  "booleanOperation": -1,
  "clippingMaskMode": 0,
  "do_objectID": "702B8CD4-1E51-47D6-9E58-8F78D6AB1AC9",
  "edited": true,
  "exportOptions": {
    "_class": "exportOptions",
    "do_objectID": "DF549175-18E9-485E-9745-B187C7F05788",
    "exportFormats": [
    ],
    "includedLayerIds": [
    ],
    "layerOptions": 0,
    "shouldTrim": false
  },
  "frame": {
    "_class": "rect",
    "constrainProportions": false,
    "do_objectID": "5B10B59A-E6C4-4F0C-9E76-C63EEDCE7380",
    "height": 0.1058906030855624,
    "width": 0.1059863482545573,
    "x": 12.15495780933768,
    "y": 18.92924497583492
  },
  "hasClippingMask": false,
  "isClosed": true,
  "isFixedToViewport": false,
  "isFlippedHorizontal": false,
  "isFlippedVertical": false,
  "isLocked": false,
  "isVisible": true,
  "layerListExpandedType": 0,
  "name": "Path",
  "nameIsFixed": false,
  "pointRadiusBehaviour": 0,
  "points": [
    {
      "_class": "curvePoint",
      "cornerRadius": 0,
      "curveFrom": "{1.0422232879291187, 0.18830309539987411}",
      "curveMode": 3,
      "curveTo": "{0.28022328792911821, -0.088696904600112703}",
      "hasCurveFrom": true,
      "hasCurveTo": true,
      "point": "{0.54222328792911867, 0.0073030953998909354}"
    },
    {
      "_class": "curvePoint",
      "cornerRadius": 0,
      "curveFrom": "{-0.30277671207088019, 0.79030309539987798}",
      "curveMode": 3,
      "curveTo": "{0.46022328792912504, 1.0663030953998884}",
      "hasCurveFrom": true,
      "hasCurveTo": true,
      "point": "{0.19422328792910548, 0.96830309539987525}"
    }
  ],
  "resizingConstraint": 63,
  "resizingType": 0,
  "rotation": 0,
  "shouldBreakMaskChain": false,
  "style": {
    "_class": "style",
    "do_objectID": "2A224665-A466-4B9D-88C5-440273E4EF9A",
    "endMarkerType": 0,
    "fills": [
      {
        "_class": "fill",
        "color": {
          "_class": "color",
          "alpha": 1,
          "blue": 0.1764705882352941,
          "green": 0.1764705882352941,
          "red": 0.1764705882352941
        },
        "fillType": 0,
        "isEnabled": true,
        "noiseIndex": 0,
        "noiseIntensity": 0,
        "patternFillType": 1,
        "patternTileScale": 1
      }
    ],
    "miterLimit": 10,
    "startMarkerType": 0,
    "windingRule": 1
  }
}