{
  "_class": "shapePath",
  "booleanOperation": -1,
  "clippingMaskMode": 0,
  "do_objectID": "70D19723-E7CA-438A-8FFA-0163F789E9B5",
  "edited": true,
  "exportOptions": {
    "_class": "exportOptions",
    "do_objectID": "7426E1A4-91AA-4E20-9B73-0F433549D601",
    "exportFormats": [
    ],
    "includedLayerIds": [
    ],
    "layerOptions": 0,
    "shouldTrim": false
  },
  "frame": {
    "_class": "rect",
    "constrainProportions": false,
    "do_objectID": "7BD3ECD6-5EE6-4DFF-BB65-22A2AD75A250",
    "height": 0.105890603085566,
    "width": 0.1059863482545111,
    "x": 35.4571312421431,
    "y": 15.98834253252019
  },
  "hasClippingMask": false,
  "isClosed": true,
  "isFixedToViewport": false,
  "isFlippedHorizontal": false,
  "isFlippedVertical": false,
  "isLocked": false,
  "isVisible": true,
  "layerListExpandedType": 0,
  "name": "Path",
  "nameIsFixed": false,
  "pointRadiusBehaviour": 0,
  "points": [
    {
      "_class": "curvePoint",
      "cornerRadius": 0,
      "curveFrom": "{0.94269679958699726, 0.24393953937749302}",
      "curveMode": 3,
      "curveTo": "{0.36169679958697998, -0.10706046062250607}",
      "hasCurveFrom": true,
      "hasCurveTo": true,
      "point": "{0.56469679958701136, 0.01593953937748438}"
    },
    {
      "_class": "curvePoint",
      "cornerRadius": 0,
      "curveFrom": "{-0.25830320041296773, 0.51493953937750803}",
      "curveMode": 3,
      "curveTo": "{0.32169679958701636, 0.86693953937748347}",
      "hasCurveFrom": true,
      "hasCurveTo": true,
      "point": "{0.11969679958701818, 0.74493953937746937}"
    }
  ],
  "resizingConstraint": 63,
  "resizingType": 0,
  "rotation": 0,
  "shouldBreakMaskChain": false,
  "style": {
    "_class": "style",
    "do_objectID": "1D1C90FF-8E75-44B4-817B-8AF6D129C4DA",
    "endMarkerType": 0,
    "fills": [
      {
        "_class": "fill",
        "color": {
          "_class": "color",
          "alpha": 1,
          "blue": 0.1764705882352941,
          "green": 0.1764705882352941,
          "red": 0.1764705882352941
        },
        "fillType": 0,
        "isEnabled": true,
        "noiseIndex": 0,
        "noiseIntensity": 0,
        "patternFillType": 1,
        "patternTileScale": 1
      }
    ],
    "miterLimit": 10,
    "startMarkerType": 0,
    "windingRule": 1
  }
}