{
  "_class": "shapePath",
  "booleanOperation": -1,
  "clippingMaskMode": 0,
  "do_objectID": "71675FA6-4560-4933-9A81-E4EF0F63382F",
  "edited": true,
  "exportOptions": {
    "_class": "exportOptions",
    "do_objectID": "C1E4E600-9A56-43D7-9E1C-AE099ADA9A23",
    "exportFormats": [
    ],
    "includedLayerIds": [
    ],
    "layerOptions": 0,
    "shouldTrim": false
  },
  "frame": {
    "_class": "rect",
    "constrainProportions": false,
    "do_objectID": "5E08B9B9-AD7E-4038-9FF3-509399904A10",
    "height": 0.1058906030855624,
    "width": 0.1059863482545662,
    "x": 6.810370182097946,
    "y": 18.38440321875933
  },
  "hasClippingMask": false,
  "isClosed": true,
  "isFixedToViewport": false,
  "isFlippedHorizontal": false,
  "isFlippedVertical": false,
  "isLocked": false,
  "isVisible": true,
  "layerListExpandedType": 0,
  "name": "Path",
  "nameIsFixed": false,
  "pointRadiusBehaviour": 0,
  "points": [
    {
      "_class": "curvePoint",
      "cornerRadius": 0,
      "curveFrom": "{0.94065058837473714, 0.24462979236341198}",
      "curveMode": 4,
      "curveTo": "{0.36265058837473418, -0.10937020763657301}",
      "hasCurveFrom": true,
      "hasCurveTo": true,
      "point": "{0.5636505883747418, 0.016629792363431761}"
    },
    {
      "_class": "curvePoint",
      "cornerRadius": 0,
      "curveFrom": "{-0.25734941162525615, 0.51462979236342221}",
      "curveMode": 3,
      "curveTo": "{0.31965058837474203, 0.86762979236343085}",
      "hasCurveFrom": true,
      "hasCurveTo": true,
      "point": "{0.11865058837473441, 0.74362979236343563}"
    }
  ],
  "resizingConstraint": 63,
  "resizingType": 0,
  "rotation": 0,
  "shouldBreakMaskChain": false,
  "style": {
    "_class": "style",
    "do_objectID": "1401B4B6-ED21-46B6-9AB2-D11BCC96F773",
    "endMarkerType": 0,
    "fills": [
      {
        "_class": "fill",
        "color": {
          "_class": "color",
          "alpha": 1,
          "blue": 0.1764705882352941,
          "green": 0.1764705882352941,
          "red": 0.1764705882352941
        },
        "fillType": 0,
        "isEnabled": true,
        "noiseIndex": 0,
        "noiseIntensity": 0,
        "patternFillType": 1,
        "patternTileScale": 1
      }
    ],
    "miterLimit": 10,
    "startMarkerType": 0,
    "windingRule": 1
  }
}