{
  "_class": "shapePath",
  "booleanOperation": -1,
  "clippingMaskMode": 0,
  "do_objectID": "7367524D-AEC6-4C86-A3E9-3E98040C0C19",
  "edited": true,
  "exportOptions": {
    "_class": "exportOptions",
    "do_objectID": "0A6CBB1B-1574-476C-95B8-CF1E00CCBE45",
    "exportFormats": [
    ],
    "includedLayerIds": [
    ],
    "layerOptions": 0,
    "shouldTrim": false
  },
  "frame": {
    "_class": "rect",
    "constrainProportions": false,
    "do_objectID": "A65DD9FE-9EE9-4FDA-94D9-68167880A869",
    "height": 0.1058906030855589,
    "width": 0.1059863482545751,
    "x": 20.00267360857193,
    "y": 15.33579894609404
  },
  "hasClippingMask": false,
  "isClosed": true,
  "isFixedToViewport": false,
  "isFlippedHorizontal": false,
  "isFlippedVertical": false,
  "isLocked": false,
  "isVisible": true,
  "layerListExpandedType": 0,
  "name": "Path",
  "nameIsFixed": false,
  "pointRadiusBehaviour": 0,
  "points": [
    {
      "_class": "curvePoint",
      "cornerRadius": 0,
      "curveFrom": "{0.92614314848617596, 0.16831436415267831}",
      "curveMode": 3,
      "curveTo": "{0.24714314848617391, -0.077685635847302592}",
      "hasCurveFrom": true,
      "hasCurveTo": true,
      "point": "{0.48314314848616391, 0.0063143641527005911}"
    },
    {
      "_class": "curvePoint",
      "cornerRadius": 0,
      "curveFrom": "{-0.26885685151381722, 0.70131436415269377}",
      "curveMode": 4,
      "curveTo": "{0.40814314848617528, 0.95231436415267012}",
      "hasCurveFrom": true,
      "hasCurveTo": true,
      "point": "{0.17314314848619006, 0.86331436415267149}"
    }
  ],
  "resizingConstraint": 63,
  "resizingType": 0,
  "rotation": 0,
  "shouldBreakMaskChain": false,
  "style": {
    "_class": "style",
    "do_objectID": "155E2432-308C-4129-BD7A-1D811EDA08D9",
    "endMarkerType": 0,
    "fills": [
      {
        "_class": "fill",
        "color": {
          "_class": "color",
          "alpha": 1,
          "blue": 0.1764705882352941,
          "green": 0.1764705882352941,
          "red": 0.1764705882352941
        },
        "fillType": 0,
        "isEnabled": true,
        "noiseIndex": 0,
        "noiseIntensity": 0,
        "patternFillType": 1,
        "patternTileScale": 1
      }
    ],
    "miterLimit": 10,
    "startMarkerType": 0,
    "windingRule": 1
  }
}