{
  "_class": "shapePath",
  "booleanOperation": -1,
  "clippingMaskMode": 0,
  "do_objectID": "85629986-481F-4AC2-80CB-3F888F7162E1",
  "edited": true,
  "exportOptions": {
    "_class": "exportOptions",
    "do_objectID": "68C163F4-14CD-4E32-B753-6B83FFEE48C9",
    "exportFormats": [
    ],
    "includedLayerIds": [
    ],
    "layerOptions": 0,
    "shouldTrim": false
  },
  "frame": {
    "_class": "rect",
    "constrainProportions": false,
    "do_objectID": "92E41880-4013-4738-98F5-0CD9A6ECBF73",
    "height": 0.1058906030855589,
    "width": 0.1966672389663096,
    "x": 18.55732458255837,
    "y": 16.71829925168093
  },
  "hasClippingMask": false,
  "isClosed": true,
  "isFixedToViewport": false,
  "isFlippedHorizontal": false,
  "isFlippedVertical": false,
  "isLocked": false,
  "isVisible": true,
  "layerListExpandedType": 0,
  "name": "Path",
  "nameIsFixed": false,
  "pointRadiusBehaviour": 0,
  "points": [
    {
      "_class": "curvePoint",
      "cornerRadius": 0,
      "curveFrom": "{0.079794359057957176, 0.2696245954352765}",
      "curveMode": 4,
      "curveTo": "{-0.0060542152848178689, 0.49698828249513072}",
      "hasCurveFrom": true,
      "hasCurveTo": true,
      "point": "{0.00054952120308429458, 0.48008391914494736}"
    },
    {
      "_class": "curvePoint",
      "cornerRadius": 0,
      "curveFrom": "{0.64565202936537958, 0.16059145182665763}",
      "curveMode": 4,
      "curveTo": "{0.38604263868458571, 0.42007342925182894}",
      "hasCurveFrom": true,
      "hasCurveTo": true,
      "point": "{0.4846859524726807, 0.24088717773998647}"
    },
    {
      "_class": "curvePoint",
      "cornerRadius": 0,
      "curveFrom": "{1.0616874281034505, 0.39133601155653891}",
      "curveMode": 4,
      "curveTo": "{0.80703083978858614, 0.080295725913328814}",
      "hasCurveFrom": true,
      "hasCurveTo": true,
      "point": "{0.96882238374227714, 0}"
    },
    {
      "_class": "curvePoint",
      "cornerRadius": 0,
      "curveFrom": "{0.7050856577565342, 0.6634962614943537}",
      "curveMode": 4,
      "curveTo": "{0.93126363246730937, 0.52657091835793357}",
      "hasCurveFrom": true,
      "hasCurveTo": true,
      "point": "{0.78556869620288361, 0.61616404411385484}"
    },
    {
      "_class": "curvePoint",
      "cornerRadius": 0,
      "curveFrom": "{0.44134893177079126, 0.65588929798678686}",
      "curveMode": 4,
      "curveTo": "{0.62295168518820043, 0.68969802468712949}",
      "hasCurveFrom": true,
      "hasCurveTo": true,
      "point": "{0.5432941138028432, 0.73618502390011564}"
    },
    {
      "_class": "curvePoint",
      "cornerRadius": 0,
      "curveFrom": "{0.048839344270891594, 0.96101305645743151}",
      "curveMode": 4,
      "curveTo": "{0.14252985569305707, 1.1063905812689314}",
      "hasCurveFrom": true,
      "hasCurveTo": true,
      "point": "{0.05915768253324679, 0.97622698347258929}"
    }
  ],
  "resizingConstraint": 63,
  "resizingType": 0,
  "rotation": 0,
  "shouldBreakMaskChain": false,
  "style": {
    "_class": "style",
    "do_objectID": "4CB26164-13DE-4FD0-9A5D-09F6FDF2ACB2",
    "endMarkerType": 0,
    "fills": [
      {
        "_class": "fill",
        "color": {
          "_class": "color",
          "alpha": 1,
          "blue": 0.1764705882352941,
          "green": 0.1764705882352941,
          "red": 0.1764705882352941
        },
        "fillType": 0,
        "isEnabled": true,
        "noiseIndex": 0,
        "noiseIntensity": 0,
        "patternFillType": 1,
        "patternTileScale": 1
      }
    ],
    "miterLimit": 10,
    "startMarkerType": 0,
    "windingRule": 1
  }
}