{
  "_class": "shapePath",
  "booleanOperation": -1,
  "clippingMaskMode": 0,
  "do_objectID": "8CBC2C50-EACA-448A-BB64-52C2E22689FA",
  "edited": true,
  "exportOptions": {
    "_class": "exportOptions",
    "do_objectID": "100988E2-A6FD-4596-AC6E-3A0A660D3DF7",
    "exportFormats": [
    ],
    "includedLayerIds": [
    ],
    "layerOptions": 0,
    "shouldTrim": false
  },
  "frame": {
    "_class": "rect",
    "constrainProportions": false,
    "do_objectID": "22E1E583-1BC5-4B8A-A2CF-491E9D5A5735",
    "height": 0.1536767543470816,
    "width": 0.3623708937137913,
    "x": 31.18626302574121,
    "y": 18.2239948181222
  },
  "hasClippingMask": false,
  "isClosed": true,
  "isFixedToViewport": false,
  "isFlippedHorizontal": false,
  "isFlippedVertical": false,
  "isLocked": false,
  "isVisible": true,
  "layerListExpandedType": 0,
  "name": "Path",
  "nameIsFixed": false,
  "pointRadiusBehaviour": 0,
  "points": [
    {
      "_class": "curvePoint",
      "cornerRadius": 0,
      "curveFrom": "{0.28028725804940513, -0.075679192576602369}",
      "curveMode": 3,
      "curveTo": "{-0.0048650359135819854, 0.086857643999359122}",
      "hasCurveFrom": true,
      "hasCurveTo": true,
      "point": "{0.11945509224781929, 0.016143565748784124}"
    },
    {
      "_class": "curvePoint",
      "cornerRadius": 0,
      "curveFrom": "{0.33427131370148189, 0.28950097271745345}",
      "curveMode": 4,
      "curveTo": "{0.23257520886314595, 0.25308849958841334}",
      "hasCurveFrom": true,
      "hasCurveTo": true,
      "point": "{0.30313528160339936, 0.27736348167443009}"
    },
    {
      "_class": "curvePoint",
      "cornerRadius": 0,
      "curveFrom": "{0.4700154536398739, 0.22142547947621113}",
      "curveMode": 4,
      "curveTo": "{0.42499140722465939, 0.15546085424245898}",
      "hasCurveFrom": true,
      "hasCurveTo": true,
      "point": "{0.45007943308786597, 0.19345647837710164}"
    },
    {
      "_class": "curvePoint",
      "cornerRadius": 0,
      "curveFrom": "{0.6059835938091821, 0.58818879577588457}",
      "curveMode": 4,
      "curveTo": "{0.46575944925236529, 0.53383394458326816}",
      "hasCurveFrom": true,
      "hasCurveTo": true,
      "point": "{0.4859194700352894, 0.54227741661318385}"
    },
    {
      "_class": "curvePoint",
      "cornerRadius": 0,
      "curveFrom": "{0.9086079057840486, 0.6879273091293141}",
      "curveMode": 4,
      "curveTo": "{0.78003177323515149, 0.35757646595868076}",
      "hasCurveFrom": true,
      "hasCurveTo": true,
      "point": "{0.81699181133718113, 0.71959032924151634}"
    },
    {
      "_class": "curvePoint",
      "cornerRadius": 0,
      "curveFrom": "{0.90793590509128741, 1.0151118502887273}",
      "curveMode": 4,
      "curveTo": "{0.99663999653618141, 0.67262351607508553}",
      "hasCurveFrom": true,
      "hasCurveTo": true,
      "point": "{1, 0.98450426418025505}"
    },
    {
      "_class": "curvePoint",
      "cornerRadius": 0,
      "curveFrom": "{0.37705535780747129, 1.2868861062517789}",
      "curveMode": 4,
      "curveTo": "{0.81923181364639341, 1.031471077346686}",
      "hasCurveFrom": true,
      "hasCurveTo": true,
      "point": "{0.81699181133718113, 0.71959032924151634}"
    },
    {
      "_class": "curvePoint",
      "cornerRadius": 0,
      "curveFrom": "{-0.010913042148457938, 0.18026355333034821}",
      "curveMode": 4,
      "curveTo": "{0.30470328321985057, 0.43567858223544126}",
      "hasCurveFrom": true,
      "hasCurveTo": true,
      "point": "{0.0081269774798599613, 0.44570520527097446}"
    }
  ],
  "resizingConstraint": 63,
  "resizingType": 0,
  "rotation": 0,
  "shouldBreakMaskChain": false,
  "style": {
    "_class": "style",
    "do_objectID": "FADA505C-A34E-4DB5-8D27-20BA8DDBE35C",
    "endMarkerType": 0,
    "fills": [
      {
        "_class": "fill",
        "color": {
          "_class": "color",
          "alpha": 1,
          "blue": 0.1764705882352941,
          "green": 0.1764705882352941,
          "red": 0.1764705882352941
        },
        "fillType": 0,
        "isEnabled": true,
        "noiseIndex": 0,
        "noiseIntensity": 0,
        "patternFillType": 1,
        "patternTileScale": 1
      }
    ],
    "miterLimit": 10,
    "startMarkerType": 0,
    "windingRule": 1
  }
}