{
  "_class": "shapePath",
  "booleanOperation": -1,
  "clippingMaskMode": 0,
  "do_objectID": "94A80F9C-F94A-4D82-96F3-C6981DE8037F",
  "edited": true,
  "exportOptions": {
    "_class": "exportOptions",
    "do_objectID": "D578F5FD-B7FB-4038-A465-3358AEF41834",
    "exportFormats": [
    ],
    "includedLayerIds": [
    ],
    "layerOptions": 0,
    "shouldTrim": false
  },
  "frame": {
    "_class": "rect",
    "constrainProportions": false,
    "do_objectID": "B70C2DA3-0217-47AA-BCEE-5412F6F10AA8",
    "height": 0.1058906030855624,
    "width": 0.1059863482545556,
    "x": 5.742180994844873,
    "y": 17.43709104803345
  },
  "hasClippingMask": false,
  "isClosed": true,
  "isFixedToViewport": false,
  "isFlippedHorizontal": false,
  "isFlippedVertical": false,
  "isLocked": false,
  "isVisible": true,
  "layerListExpandedType": 0,
  "name": "Path",
  "nameIsFixed": false,
  "pointRadiusBehaviour": 0,
  "points": [
    {
      "_class": "curvePoint",
      "cornerRadius": 0,
      "curveFrom": "{-0.2696368202264523, 0.70173272600544578}",
      "curveMode": 3,
      "curveTo": "{0.40936317977353553, 0.94773272600545511}",
      "hasCurveFrom": true,
      "hasCurveTo": true,
      "point": "{0.17336317977354554, 0.86173272600544237}"
    },
    {
      "_class": "curvePoint",
      "cornerRadius": 0,
      "curveFrom": "{0.92936317977354577, 0.16673272600544919}",
      "curveMode": 3,
      "curveTo": "{0.24836317977353417, -0.080267273994564903}",
      "hasCurveFrom": true,
      "hasCurveTo": true,
      "point": "{0.48536317977354315, 0.006732726005452605}"
    }
  ],
  "resizingConstraint": 63,
  "resizingType": 0,
  "rotation": 0,
  "shouldBreakMaskChain": false,
  "style": {
    "_class": "style",
    "do_objectID": "A72EBF67-6F80-42BF-8C06-5A795113F30B",
    "endMarkerType": 0,
    "fills": [
      {
        "_class": "fill",
        "color": {
          "_class": "color",
          "alpha": 1,
          "blue": 0.1764705882352941,
          "green": 0.1764705882352941,
          "red": 0.1764705882352941
        },
        "fillType": 0,
        "isEnabled": true,
        "noiseIndex": 0,
        "noiseIntensity": 0,
        "patternFillType": 1,
        "patternTileScale": 1
      }
    ],
    "miterLimit": 10,
    "startMarkerType": 0,
    "windingRule": 1
  }
}