{
  "_class": "shapePath",
  "booleanOperation": -1,
  "clippingMaskMode": 0,
  "do_objectID": "9FFCC19A-6DB3-4066-A4FF-D5D03D7730DA",
  "edited": true,
  "exportOptions": {
    "_class": "exportOptions",
    "do_objectID": "EA980E1B-C985-46DD-9EFA-4A0D98D6B94E",
    "exportFormats": [
    ],
    "includedLayerIds": [
    ],
    "layerOptions": 0,
    "shouldTrim": false
  },
  "frame": {
    "_class": "rect",
    "constrainProportions": false,
    "do_objectID": "33392B75-44FF-4C93-9BB5-872DCD7988C0",
    "height": 6.389551640972879,
    "width": 4.952950704015738,
    "x": 5.028391259487275,
    "y": 19.07887973036149
  },
  "hasClippingMask": false,
  "isClosed": true,
  "isFixedToViewport": false,
  "isFlippedHorizontal": false,
  "isFlippedVertical": false,
  "isLocked": false,
  "isVisible": true,
  "layerListExpandedType": 0,
  "name": "Path",
  "nameIsFixed": false,
  "pointRadiusBehaviour": 0,
  "points": [
    {
      "_class": "curvePoint",
      "cornerRadius": 0,
      "curveFrom": "{0.1785193394578046, 0.097187017024081557}",
      "curveMode": 3,
      "curveTo": "{0.12091395267783739, 0.23261340676066711}",
      "hasCurveFrom": true,
      "hasCurveTo": true,
      "point": "{0.13558161161612201, 0.19812854257001067}"
    },
    {
      "_class": "curvePoint",
      "cornerRadius": 0,
      "curveFrom": "{0.47059421945569219, -0.0040337381914074396}",
      "curveMode": 3,
      "curveTo": "{0.26693500423104011, 0.034144572992064921}",
      "hasCurveFrom": true,
      "hasCurveTo": true,
      "point": "{0.400894159718793, 0.0090392872470820718}"
    },
    {
      "_class": "curvePoint",
      "cornerRadius": 0,
      "curveFrom": "{0.59914518784888227, 0.010740049779856618}",
      "curveMode": 4,
      "curveTo": "{0.53608244863712873, -0.0028152814515093436}",
      "hasCurveFrom": true,
      "hasCurveTo": true,
      "point": "{0.59755550861199547, 0.011971198777461686}"
    },
    {
      "_class": "curvePoint",
      "cornerRadius": 0,
      "curveFrom": "{0.60476642473807973, 0.010524281398833057}",
      "curveMode": 4,
      "curveTo": "{0.60134123957818975, 0.0096739001324457827}",
      "hasCurveFrom": true,
      "hasCurveTo": true,
      "point": "{0.60360284509046136, 0.0086331350004496127}"
    },
    {
      "_class": "curvePoint",
      "cornerRadius": 0,
      "curveFrom": "{0.63288899762980755, 0.021185777872940677}",
      "curveMode": 4,
      "curveTo": "{0.60589722749421537, 0.01241542779721614}",
      "hasCurveFrom": true,
      "hasCurveTo": true,
      "point": "{0.6070444186960926, 0.014319266453306915}"
    },
    {
      "_class": "curvePoint",
      "cornerRadius": 0,
      "curveFrom": "{0.68356207186128937, 0.038789939312926056}",
      "curveMode": 4,
      "curveTo": "{0.65809442717961963, 0.030248049875932409}",
      "hasCurveFrom": true,
      "hasCurveTo": true,
      "point": "{0.68248043444237672, 0.04208992631681685}"
    },
    {
      "_class": "curvePoint",
      "cornerRadius": 0,
      "curveFrom": "{0.69531258745765812, 0.037368406449711726}",
      "curveMode": 2,
      "curveTo": "{0.68774112552526978, 0.035236107154890062}",
      "hasCurveFrom": true,
      "hasCurveTo": true,
      "point": "{0.69015022704921158, 0.035921489071082738}"
    },
    {
      "_class": "curvePoint",
      "cornerRadius": 0,
      "curveFrom": "{0.70570286205751565, 0.053893725984578936}",
      "curveMode": 4,
      "curveTo": "{0.69244460945296571, 0.042800692748423831}",
      "hasCurveFrom": true,
      "hasCurveTo": true,
      "point": "{0.68898664740159354, 0.04541529783612195}"
    },
    {
      "_class": "curvePoint",
      "cornerRadius": 0,
      "curveFrom": "{0.82053670136540491, 0.13007265674362173}",
      "curveMode": 3,
      "curveTo": "{0.72210769624435711, 0.063438303780447125}",
      "hasCurveFrom": true,
      "hasCurveTo": true,
      "point": "{0.73815198462489418, 0.074277491862457024}"
    },
    {
      "_class": "curvePoint",
      "cornerRadius": 0,
      "curveFrom": "{0.93451834149475677, 0.33665184318717045}",
      "curveMode": 4,
      "curveTo": "{0.8857463269692426, 0.21763654266608684}",
      "hasCurveFrom": true,
      "hasCurveTo": true,
      "point": "{0.93389558055659494, 0.33674068899112142}"
    },
    {
      "_class": "curvePoint",
      "cornerRadius": 0,
      "curveFrom": "{0.93820574178650418, 0.33814952959662842}",
      "curveMode": 4,
      "curveTo": "{0.93507554864995401, 0.33667722770258512}",
      "hasCurveFrom": true,
      "hasCurveTo": true,
      "point": "{0.93551803668496369, 0.33689299608360868}"
    },
    {
      "_class": "curvePoint",
      "cornerRadius": 0,
      "curveFrom": "{0.9387465604959605, 0.34896333316322331}",
      "curveMode": 4,
      "curveTo": "{0.93771408841427117, 0.34035798243769333}",
      "hasCurveFrom": true,
      "hasCurveTo": true,
      "point": "{0.93610802073164334, 0.34232528238232079}"
    },
    {
      "_class": "curvePoint",
      "cornerRadius": 0,
      "curveFrom": "{0.94444973961386336, 0.35971367544128258}",
      "curveMode": 4,
      "curveTo": "{0.94133593492305434, 0.35563946071724817}",
      "hasCurveFrom": true,
      "hasCurveTo": true,
      "point": "{0.94384336712144279, 0.36244251084834561}"
    },
    {
      "_class": "curvePoint",
      "cornerRadius": 0,
      "curveFrom": "{0.96026458975402507, 0.35589330587139406}",
      "curveMode": 2,
      "curveTo": "{0.94798964389394114, 0.35819060451640999}",
      "hasCurveFrom": true,
      "hasCurveTo": true,
      "point": "{0.95211953222069834, 0.3574163767962667}"
    },
    {
      "_class": "curvePoint",
      "cornerRadius": 0,
      "curveFrom": "{0.95547916359762386, 0.36324212308390358}",
      "curveMode": 4,
      "curveTo": "{0.96177232676220636, 0.35758137614646096}",
      "hasCurveFrom": true,
      "hasCurveTo": true,
      "point": "{0.9640339322744782, 0.3630390469605877}"
    },
    {
      "_class": "curvePoint",
      "cornerRadius": 0,
      "curveFrom": "{0.95105428324752683, 0.37442400212401}",
      "curveMode": 4,
      "curveTo": "{0.95588887474115147, 0.36765902876603418}",
      "hasCurveFrom": true,
      "hasCurveTo": true,
      "point": "{0.95677385081117083, 0.37227901057148066}"
    },
    {
      "_class": "curvePoint",
      "cornerRadius": 0,
      "curveFrom": "{0.95157871351124201, 0.38387973411592724}",
      "curveMode": 4,
      "curveTo": "{0.94838296659172761, 0.37274862410665011}",
      "hasCurveFrom": true,
      "hasCurveTo": true,
      "point": "{0.94656384911446534, 0.36995632741105006}"
    },
    {
      "_class": "curvePoint",
      "cornerRadius": 0,
      "curveFrom": "{0.99530308674849743, 0.52233957344455029}",
      "curveMode": 3,
      "curveTo": "{0.95646247034208987, 0.39804429371724187}",
      "hasCurveFrom": true,
      "hasCurveTo": true,
      "point": "{0.961051235149598, 0.41274192814226229}"
    },
    {
      "_class": "curvePoint",
      "cornerRadius": 0,
      "curveFrom": "{0.99666332774500876, 0.69659157950767858}",
      "curveMode": 4,
      "curveTo": "{1.0069224947789372, 0.61651612563250402}",
      "hasCurveFrom": true,
      "hasCurveTo": true,
      "point": "{0.99607334369832912, 0.69536043051007357}"
    },
    {
      "_class": "curvePoint",
      "cornerRadius": 0,
      "curveFrom": "{0.99018989167727423, 0.7355060416381729}",
      "curveMode": 4,
      "curveTo": "{0.99638472416741009, 0.69810195817484422}",
      "hasCurveFrom": true,
      "hasCurveTo": true,
      "point": "{0.99553252498887279, 0.69959964458430224}"
    },
    {
      "_class": "curvePoint",
      "cornerRadius": 0,
      "curveFrom": "{0.91753991170697691, 0.89245850044629038}",
      "curveMode": 3,
      "curveTo": "{0.98011099754649744, 0.7682012974921042}",
      "hasCurveFrom": true,
      "hasCurveTo": true,
      "point": "{0.96529584259654289, 0.79764733537297294}"
    },
    {
      "_class": "curvePoint",
      "cornerRadius": 0,
      "curveFrom": "{0.69416539625578122, 0.97724278193086311}",
      "curveMode": 3,
      "curveTo": "{0.83349996194661513, 0.95112211556929804}",
      "hasCurveFrom": true,
      "hasCurveTo": true,
      "point": "{0.7131596048697163, 0.97368894977282672}"
    },
    {
      "_class": "curvePoint",
      "cornerRadius": 0,
      "curveFrom": "{0.65738972401275242, 0.99268925956061216}",
      "curveMode": 4,
      "curveTo": "{0.67559728723111456, 0.97985738701856051}",
      "hasCurveFrom": true,
      "hasCurveTo": true,
      "point": "{0.65742250090423449, 0.98165968761299371}"
    },
    {
      "_class": "curvePoint",
      "cornerRadius": 0,
      "curveFrom": "{0.62782496789580766, 0.98399506303113127}",
      "curveMode": 4,
      "curveTo": "{0.62026989440916047, 0.99564655560640647}",
      "hasCurveFrom": true,
      "hasCurveTo": true,
      "point": "{0.64323010689244176, 0.98284006757976949}"
    },
    {
      "_class": "curvePoint",
      "cornerRadius": 0,
      "curveFrom": "{0.59889936116276576, 0.985936978460344}",
      "curveMode": 4,
      "curveTo": "{0.6127312093682542, 0.98447736882400771}",
      "hasCurveFrom": true,
      "hasCurveTo": true,
      "point": "{0.59794883130978183, 0.98435044624693513}"
    },
    {
      "_class": "curvePoint",
      "cornerRadius": 0,
      "curveFrom": "{0.60642165775793078, 0.99480886659772616}",
      "curveMode": 4,
      "curveTo": "{0.59988266790723177, 0.98752351067375288}",
      "hasCurveFrom": true,
      "hasCurveTo": true,
      "point": "{0.60083319776021549, 0.98912273514486881}"
    },
    {
      "_class": "curvePoint",
      "cornerRadius": 0,
      "curveFrom": "{0.59275369400985323, 0.99505001949416438}",
      "curveMode": 4,
      "curveTo": "{0.60132485113244849, 0.9974488562008389}",
      "hasCurveFrom": true,
      "hasCurveTo": true,
      "point": "{0.59573639113473342, 1}"
    },
    {
      "_class": "curvePoint",
      "cornerRadius": 0,
      "curveFrom": "{0.58642775395378854, 0.9848073675243969}",
      "curveMode": 4,
      "curveTo": "{0.58975460843923178, 0.99011273124603572}",
      "hasCurveFrom": true,
      "hasCurveTo": true,
      "point": "{0.58677191131435147, 0.98515005848249304}"
    },
    {
      "_class": "curvePoint",
      "cornerRadius": 0,
      "curveFrom": "{0.49856929633575031, 0.98134238117031147}",
      "curveMode": 4,
      "curveTo": "{0.58646053084527072, 0.98456621462795868}",
      "hasCurveFrom": true,
      "hasCurveTo": true,
      "point": "{0.58619831571341297, 0.98423621592756949}"
    },
    {
      "_class": "curvePoint",
      "cornerRadius": 0,
      "curveFrom": "{0.25959298053902707, 0.83448026723947499}",
      "curveMode": 3,
      "curveTo": "{0.42175665114721372, 0.95531056061269803}",
      "hasCurveFrom": true,
      "hasCurveTo": true,
      "point": "{0.35577676859354418, 0.90614075425472851}"
    },
    {
      "_class": "curvePoint",
      "cornerRadius": 0,
      "curveFrom": "{0.13200893044456211, 0.54429717927812926}",
      "curveMode": 3,
      "curveTo": "{0.1881229686620893, 0.72377839551665446}",
      "hasCurveFrom": true,
      "hasCurveTo": true,
      "point": "{0.14133395607124816, 0.57408590811709559}"
    },
    {
      "_class": "curvePoint",
      "cornerRadius": 0,
      "curveFrom": "{0.11680045279682116, 0.48774047893452865}",
      "curveMode": 4,
      "curveTo": "{0.12455218763236155, 0.51548575428262355}",
      "hasCurveFrom": true,
      "hasCurveTo": true,
      "point": "{0.11879984317723538, 0.48761355635745601}"
    },
    {
      "_class": "curvePoint",
      "cornerRadius": 0,
      "curveFrom": "{0.10816374189126134, 0.48435164612668724}",
      "curveMode": 4,
      "curveTo": "{0.11465356640473703, 0.48817201569657576}",
      "hasCurveFrom": true,
      "hasCurveTo": true,
      "point": "{0.1124083493382063, 0.48878124406652479}"
    },
    {
      "_class": "curvePoint",
      "cornerRadius": 0,
      "curveFrom": "{0.10567269813861409, 0.41934190215004319}",
      "curveMode": 4,
      "curveTo": "{0.11114643901614162, 0.47990935592914197}",
      "hasCurveFrom": true,
      "hasCurveTo": true,
      "point": "{0.11670212212237456, 0.47682513730627507}"
    },
    {
      "_class": "curvePoint",
      "cornerRadius": 0,
      "curveFrom": "{0.10413218423895076, 0.3159507708666105}",
      "curveMode": 4,
      "curveTo": "{0.10231306676168858, 0.36602172752179662}",
      "hasCurveFrom": true,
      "hasCurveTo": true,
      "point": "{0.10672155866604463, 0.31690269019465644}"
    },
    {
      "_class": "curvePoint",
      "cornerRadius": 0,
      "curveFrom": "{0.076173495804633784, 0.32875725889324747}",
      "curveMode": 4,
      "curveTo": "{0.10159197514908022, 0.31489731347690736}",
      "hasCurveFrom": true,
      "hasCurveTo": true,
      "point": "{0.099543419431442695, 0.31287924450145133}"
    },
    {
      "_class": "curvePoint",
      "cornerRadius": 0,
      "curveFrom": "{0.037660648313048169, 0.32624419186720804}",
      "curveMode": 4,
      "curveTo": "{0.068421760969093401, 0.31139425034970036}",
      "hasCurveFrom": true,
      "hasCurveTo": true,
      "point": "{0.04718233528862744, 0.32276651325541567}"
    },
    {
      "_class": "curvePoint",
      "cornerRadius": 0,
      "curveFrom": "{0.016994818233520892, 0.33072455883787422}",
      "curveMode": 4,
      "curveTo": "{0.028040630663022419, 0.32969648596358575}",
      "hasCurveFrom": true,
      "hasCurveTo": true,
      "point": "{0.018486166795961028, 0.33317416457537807}"
    },
    {
      "_class": "curvePoint",
      "cornerRadius": 0,
      "curveFrom": "{0.0079483961844335881, 0.32744995634939916}",
      "curveMode": 4,
      "curveTo": "{0.015503469671080756, 0.32822418406954174}",
      "hasCurveFrom": true,
      "hasCurveTo": true,
      "point": "{0.014028509554381797, 0.32577457833203854}"
    },
    {
      "_class": "curvePoint",
      "cornerRadius": 0,
      "curveFrom": "{0.0060801133699482108, 0.32011383139459593}",
      "curveMode": 4,
      "curveTo": "{0.002048555717637525, 0.32875725889324747}",
      "hasCurveFrom": true,
      "hasCurveTo": true,
      "point": "{0, 0.32178920941195582}"
    },
    {
      "_class": "curvePoint",
      "cornerRadius": 0,
      "curveFrom": "{0.029974467260472277, 0.31998690881752262}",
      "curveMode": 4,
      "curveTo": "{0.011979953836744273, 0.31881922110845384}",
      "hasCurveFrom": true,
      "hasCurveTo": true,
      "point": "{0.014028509554381797, 0.32577457833203854}"
    },
    {
      "_class": "curvePoint",
      "cornerRadius": 0,
      "curveFrom": "{0.068225099620200194, 0.30615234791659712}",
      "curveMode": 3,
      "curveTo": "{0.045920424966562755, 0.31421193156071503}",
      "hasCurveFrom": true,
      "hasCurveTo": true,
      "point": "{0.061882771118394408, 0.30847503107702839}"
    },
    {
      "_class": "curvePoint",
      "cornerRadius": 0,
      "curveFrom": "{0.083744957737022133, 0.30171005771905257}",
      "curveMode": 4,
      "curveTo": "{0.074632981904970225, 0.30382966475616657}",
      "hasCurveFrom": true,
      "hasCurveTo": true,
      "point": "{0.081008087298258369, 0.30154505836885764}"
    },
    {
      "_class": "curvePoint",
      "cornerRadius": 0,
      "curveFrom": "{0.094921877732452267, 0.29890506876574557}",
      "curveMode": 4,
      "curveTo": "{0.087940399846743789, 0.29753430493336019}",
      "hasCurveFrom": true,
      "hasCurveTo": true,
      "point": "{0.090578939611060699, 0.29802930298394364}"
    },
    {
      "_class": "curvePoint",
      "cornerRadius": 0,
      "curveFrom": "{0.10237862054465306, 0.31152117292677295}",
      "curveMode": 4,
      "curveTo": "{0.095511861779131901, 0.31106425164931117}",
      "hasCurveFrom": true,
      "hasCurveTo": true,
      "point": "{0.099543419431442695, 0.31287924450145133}"
    },
    {
      "_class": "curvePoint",
      "cornerRadius": 0,
      "curveFrom": "{0.11160531549689227, 0.27000479796628812}",
      "curveMode": 4,
      "curveTo": "{0.10493521808026456, 0.31073425294892271}",
      "hasCurveFrom": true,
      "hasCurveTo": true,
      "point": "{0.10740987338717063, 0.31016310135209457}"
    }
  ],
  "resizingConstraint": 63,
  "resizingType": 0,
  "rotation": 0,
  "shouldBreakMaskChain": false,
  "style": {
    "_class": "style",
    "do_objectID": "D798AD5C-9E4B-493F-807B-3ECE2E2FD44E",
    "endMarkerType": 0,
    "fills": [
      {
        "_class": "fill",
        "color": {
          "_class": "color",
          "alpha": 1,
          "blue": 0.1764705882352941,
          "green": 0.1764705882352941,
          "red": 0.1764705882352941
        },
        "fillType": 0,
        "isEnabled": true,
        "noiseIndex": 0,
        "noiseIntensity": 0,
        "patternFillType": 1,
        "patternTileScale": 1
      }
    ],
    "miterLimit": 10,
    "startMarkerType": 0,
    "windingRule": 1
  }
}