{
  "_class": "shapePath",
  "booleanOperation": -1,
  "clippingMaskMode": 0,
  "do_objectID": "A960D1CA-628A-48EE-B853-97AAEA3A5182",
  "edited": true,
  "exportOptions": {
    "_class": "exportOptions",
    "do_objectID": "BD48CE8A-8329-49C3-AF38-33893E7869C6",
    "exportFormats": [
    ],
    "includedLayerIds": [
    ],
    "layerOptions": 0,
    "shouldTrim": false
  },
  "frame": {
    "_class": "rect",
    "constrainProportions": false,
    "do_objectID": "5DE190FD-ED04-4C3E-8581-662B727E0C95",
    "height": 0.1807670765803131,
    "width": 0.2092592604597119,
    "x": 3.898245144909867,
    "y": 20.91835618128768
  },
  "hasClippingMask": false,
  "isClosed": true,
  "isFixedToViewport": false,
  "isFlippedHorizontal": false,
  "isFlippedVertical": false,
  "isLocked": false,
  "isVisible": true,
  "layerListExpandedType": 0,
  "name": "Path",
  "nameIsFixed": false,
  "pointRadiusBehaviour": 0,
  "points": [
    {
      "_class": "curvePoint",
      "cornerRadius": 0,
      "curveFrom": "{0.15865011636927792, 0.80305069537908791}",
      "curveMode": 4,
      "curveTo": "{0.49262994569433732, 0.86227007626737973}",
      "hasCurveFrom": true,
      "hasCurveTo": true,
      "point": "{0.23778122575639987, 1}"
    },
    {
      "_class": "curvePoint",
      "cornerRadius": 0,
      "curveFrom": "{0.25562451512800549, 0.27456258411844403}",
      "curveMode": 4,
      "curveTo": "{0.079906904577192725, 0.60789591745176885}",
      "hasCurveFrom": true,
      "hasCurveTo": true,
      "point": "{0, 0.41274113952447533}"
    },
    {
      "_class": "curvePoint",
      "cornerRadius": 0,
      "curveFrom": "{0.84251357641582691, 0.19739793629432315}",
      "curveMode": 4,
      "curveTo": "{0.50930954228083825, 0.13772992373262027}",
      "hasCurveFrom": true,
      "hasCurveTo": true,
      "point": "{0.76260667183863418, 0}"
    },
    {
      "_class": "curvePoint",
      "cornerRadius": 0,
      "curveFrom": "{0.74553917765709932, 0.72454015253475945}",
      "curveMode": 4,
      "curveTo": "{0.92086889061287802, 0.39210408254823115}",
      "hasCurveFrom": true,
      "hasCurveTo": true,
      "point": "{1, 0.58770749214896123}"
    }
  ],
  "resizingConstraint": 63,
  "resizingType": 0,
  "rotation": 0,
  "shouldBreakMaskChain": false,
  "style": {
    "_class": "style",
    "do_objectID": "A44317E4-A743-4ED5-A4C8-A78E93B43FC5",
    "endMarkerType": 0,
    "fills": [
      {
        "_class": "fill",
        "color": {
          "_class": "color",
          "alpha": 1,
          "blue": 0.1764705882352941,
          "green": 0.1764705882352941,
          "red": 0.1764705882352941
        },
        "fillType": 0,
        "isEnabled": true,
        "noiseIndex": 0,
        "noiseIntensity": 0,
        "patternFillType": 1,
        "patternTileScale": 1
      }
    ],
    "miterLimit": 10,
    "startMarkerType": 0,
    "windingRule": 1
  }
}