{
  "_class": "shapePath",
  "booleanOperation": -1,
  "clippingMaskMode": 0,
  "do_objectID": "AC3F066A-2687-47C1-B93F-48B3602ED861",
  "edited": true,
  "exportOptions": {
    "_class": "exportOptions",
    "do_objectID": "1E57CB7B-F2E7-4219-8D5D-5108AD58F020",
    "exportFormats": [
    ],
    "includedLayerIds": [
    ],
    "layerOptions": 0,
    "shouldTrim": false
  },
  "frame": {
    "_class": "rect",
    "constrainProportions": false,
    "do_objectID": "102DB73C-98D8-413F-87B8-29C0A0FB256C",
    "height": 0.2145081091231802,
    "width": 0.2093404316236018,
    "x": 19.89967902114873,
    "y": 15.63127520841695
  },
  "hasClippingMask": false,
  "isClosed": true,
  "isFixedToViewport": false,
  "isFlippedHorizontal": false,
  "isFlippedVertical": false,
  "isLocked": false,
  "isVisible": true,
  "layerListExpandedType": 0,
  "name": "Path",
  "nameIsFixed": false,
  "pointRadiusBehaviour": 0,
  "points": [
    {
      "_class": "curvePoint",
      "cornerRadius": 0,
      "curveFrom": "{0.33036060488561508, -0.082092848596155843}",
      "curveMode": 4,
      "curveTo": "{0.19348584722760517, 0.22035850913622923}",
      "hasCurveFrom": true,
      "hasCurveTo": true,
      "point": "{0.13609926328034044, 0.062705738918224688}"
    },
    {
      "_class": "curvePoint",
      "cornerRadius": 0,
      "curveFrom": "{0.65335401318340336, 0.37385257318542559}",
      "curveMode": 4,
      "curveTo": "{0.42148119426133612, 0.050229620411757256}",
      "hasCurveFrom": true,
      "hasCurveTo": true,
      "point": "{0.50872431174873189, 0.19351595113749004}"
    },
    {
      "_class": "curvePoint",
      "cornerRadius": 0,
      "curveFrom": "{0.76269872043426856, 0.62677752108916196}",
      "curveMode": 4,
      "curveTo": "{0.881737107405969, 0.32508229175108999}",
      "hasCurveFrom": true,
      "hasCurveTo": true,
      "point": "{1, 0.5738485334859752}"
    },
    {
      "_class": "curvePoint",
      "cornerRadius": 0,
      "curveFrom": "{0.67119038386971286, 1.0819668144764087}",
      "curveMode": 4,
      "curveTo": "{0.80767739433888797, 0.78064964933551495}",
      "hasCurveFrom": true,
      "hasCurveTo": true,
      "point": "{0.8654517254749875, 0.93716822696202828}"
    },
    {
      "_class": "curvePoint",
      "cornerRadius": 0,
      "curveFrom": "{0.34703373400542037, 0.62639945689198395}",
      "curveMode": 4,
      "curveTo": "{0.57890655292748761, 0.95040047386283033}",
      "hasCurveFrom": true,
      "hasCurveTo": true,
      "point": "{0.49205118262892661, 0.80560188634842833}"
    },
    {
      "_class": "curvePoint",
      "cornerRadius": 0,
      "curveFrom": "{0.23807677394338989, 0.37347450898826906}",
      "curveMode": 4,
      "curveTo": "{0.11942613416052415, 0.67479167412916297}",
      "hasCurveFrom": true,
      "hasCurveTo": true,
      "point": "{0, 0.42640349659143428}"
    }
  ],
  "resizingConstraint": 63,
  "resizingType": 0,
  "rotation": 0,
  "shouldBreakMaskChain": false,
  "style": {
    "_class": "style",
    "do_objectID": "1B8AD10A-B48F-4556-B755-A63CC1524A89",
    "endMarkerType": 0,
    "fills": [
      {
        "_class": "fill",
        "color": {
          "_class": "color",
          "alpha": 1,
          "blue": 0.1764705882352941,
          "green": 0.1764705882352941,
          "red": 0.1764705882352941
        },
        "fillType": 0,
        "isEnabled": true,
        "noiseIndex": 0,
        "noiseIntensity": 0,
        "patternFillType": 1,
        "patternTileScale": 1
      }
    ],
    "miterLimit": 10,
    "startMarkerType": 0,
    "windingRule": 1
  }
}