{
  "_class": "shapePath",
  "booleanOperation": -1,
  "clippingMaskMode": 0,
  "do_objectID": "B8AF8270-BF83-491B-BC1D-6FCF4E1B3F8F",
  "edited": true,
  "exportOptions": {
    "_class": "exportOptions",
    "do_objectID": "EBDFE3B6-5B00-490E-A45A-9AADB8318401",
    "exportFormats": [
    ],
    "includedLayerIds": [
    ],
    "layerOptions": 0,
    "shouldTrim": false
  },
  "frame": {
    "_class": "rect",
    "constrainProportions": false,
    "do_objectID": "A91D1420-3946-421A-B5FA-28F8B412E84C",
    "height": 0.1058906030855624,
    "width": 0.1203505951727948,
    "x": 24.6883512871617,
    "y": 25.21905552544634
  },
  "hasClippingMask": false,
  "isClosed": true,
  "isFixedToViewport": false,
  "isFlippedHorizontal": false,
  "isFlippedVertical": false,
  "isLocked": false,
  "isVisible": true,
  "layerListExpandedType": 0,
  "name": "Path",
  "nameIsFixed": false,
  "pointRadiusBehaviour": 0,
  "points": [
    {
      "_class": "curvePoint",
      "cornerRadius": 0,
      "curveFrom": "{0.081779881330942439, 0.25455918749035233}",
      "curveMode": 4,
      "curveTo": "{-0.060530304607184567, 0.76630188399171351}",
      "hasCurveFrom": true,
      "hasCurveTo": true,
      "point": "{0.0055663694304338299, 0.53448681634582418}"
    },
    {
      "_class": "curvePoint",
      "cornerRadius": 0,
      "curveFrom": "{1.1467456803654927, 0.43738692008660629}",
      "curveMode": 4,
      "curveTo": "{0.75960801814520007, 0.25543396133055463}",
      "hasCurveFrom": true,
      "hasCurveTo": true,
      "point": "{0.88640571936019807, 0}"
    },
    {
      "_class": "curvePoint",
      "cornerRadius": 0,
      "curveFrom": "{0.48038329312918487, 1.2509265914476502}",
      "curveMode": 4,
      "curveTo": "{0.91270949780372801, 0.6438335463674757}",
      "hasCurveFrom": true,
      "hasCurveTo": true,
      "point": "{0.65439290437104225, 0.84065766040646839}"
    }
  ],
  "resizingConstraint": 63,
  "resizingType": 0,
  "rotation": 0,
  "shouldBreakMaskChain": false,
  "style": {
    "_class": "style",
    "do_objectID": "BD146490-85DB-41E9-ADBF-5BBD87E1632E",
    "endMarkerType": 0,
    "fills": [
      {
        "_class": "fill",
        "color": {
          "_class": "color",
          "alpha": 1,
          "blue": 0.1764705882352941,
          "green": 0.1764705882352941,
          "red": 0.1764705882352941
        },
        "fillType": 0,
        "isEnabled": true,
        "noiseIndex": 0,
        "noiseIntensity": 0,
        "patternFillType": 1,
        "patternTileScale": 1
      }
    ],
    "miterLimit": 10,
    "startMarkerType": 0,
    "windingRule": 1
  }
}