{
  "_class": "shapePath",
  "booleanOperation": -1,
  "clippingMaskMode": 0,
  "do_objectID": "BF8BAB16-8B7D-494B-B097-C3998A1A99FA",
  "edited": true,
  "exportOptions": {
    "_class": "exportOptions",
    "do_objectID": "79618482-4A9F-460A-B8C6-63ED6585BA19",
    "exportFormats": [
    ],
    "includedLayerIds": [
    ],
    "layerOptions": 0,
    "shouldTrim": false
  },
  "frame": {
    "_class": "rect",
    "constrainProportions": false,
    "do_objectID": "2CB8B2A9-174A-431C-9833-D9B169E9D9F3",
    "height": 0.1512317425703245,
    "width": 0.3172133195840487,
    "x": 29.69623037757674,
    "y": 27.09032034132205
  },
  "hasClippingMask": false,
  "isClosed": true,
  "isFixedToViewport": false,
  "isFlippedHorizontal": false,
  "isFlippedVertical": false,
  "isLocked": false,
  "isVisible": true,
  "layerListExpandedType": 0,
  "name": "Path",
  "nameIsFixed": false,
  "pointRadiusBehaviour": 0,
  "points": [
    {
      "_class": "curvePoint",
      "cornerRadius": 0,
      "curveFrom": "{0.95138123091510718, 0.53937801079521142}",
      "curveMode": 4,
      "curveTo": "{0.89866824969674475, 0.26749988399334734}",
      "hasCurveFrom": true,
      "hasCurveTo": true,
      "point": "{0.9273277346310036, 0.32970474140757217}"
    },
    {
      "_class": "curvePoint",
      "cornerRadius": 0,
      "curveFrom": "{0.87845307728777533, 1.0820617668573098}",
      "curveMode": 4,
      "curveTo": "{0.97543472719921087, 0.74797878264122097}",
      "hasCurveFrom": true,
      "hasCurveTo": true,
      "point": "{1, 0.95872454957045961}"
    },
    {
      "_class": "curvePoint",
      "cornerRadius": 0,
      "curveFrom": "{0.78889218686822915, 0.68094768628967717}",
      "curveMode": 4,
      "curveTo": "{0.84416405067000477, 0.90724466757247202}",
      "hasCurveFrom": true,
      "hasCurveTo": true,
      "point": "{0.81345745966901828, 0.72063009532979772}"
    },
    {
      "_class": "curvePoint",
      "cornerRadius": 0,
      "curveFrom": "{0.62000593636280377, 0.27768861063878492}",
      "curveMode": 4,
      "curveTo": "{0.80450137062705784, 0.4289107640078581}",
      "hasCurveFrom": true,
      "hasCurveTo": true,
      "point": "{0.77712132698452008, 0.40585206686292363}"
    },
    {
      "_class": "curvePoint",
      "cornerRadius": 0,
      "curveFrom": "{-0.33010716685934005, 0.688455169081025}",
      "curveMode": 4,
      "curveTo": "{0.34390250561229041, 0.78390745028562181}",
      "hasCurveFrom": true,
      "hasCurveTo": true,
      "point": "{0.17655158465692161, 0.71044136868436014}"
    },
    {
      "_class": "curvePoint",
      "cornerRadius": 0,
      "curveFrom": "{0.65403907472223888, 0.21816499707861947}",
      "curveMode": 4,
      "curveTo": "{0.39508015728059631, 0.16132262737251329}",
      "hasCurveFrom": true,
      "hasCurveTo": true,
      "point": "{0.59032289839518837, 0.16722136385143158}"
    },
    {
      "_class": "curvePoint",
      "cornerRadius": 0,
      "curveFrom": "{0.92195408120582734, 0.066406594938716132}",
      "curveMode": 4,
      "curveTo": "{0.83853450898649295, -0.067119348993571679}",
      "hasCurveFrom": true,
      "hasCurveTo": true,
      "point": "{0.8909916019465054, 0.01492671294072859}"
    }
  ],
  "resizingConstraint": 63,
  "resizingType": 0,
  "rotation": 0,
  "shouldBreakMaskChain": false,
  "style": {
    "_class": "style",
    "do_objectID": "439AA35A-F546-4AF8-877F-24B61EE04229",
    "endMarkerType": 0,
    "fills": [
      {
        "_class": "fill",
        "color": {
          "_class": "color",
          "alpha": 1,
          "blue": 0.1764705882352941,
          "green": 0.1764705882352941,
          "red": 0.1764705882352941
        },
        "fillType": 0,
        "isEnabled": true,
        "noiseIndex": 0,
        "noiseIntensity": 0,
        "patternFillType": 1,
        "patternTileScale": 1
      }
    ],
    "miterLimit": 10,
    "startMarkerType": 0,
    "windingRule": 1
  }
}