{
  "_class": "shapePath",
  "booleanOperation": -1,
  "clippingMaskMode": 0,
  "do_objectID": "C0BB6656-2F8E-4788-8382-DBDBF3A3C1FD",
  "edited": true,
  "exportOptions": {
    "_class": "exportOptions",
    "do_objectID": "7B891A4B-CA97-414E-9A58-518A21A524E3",
    "exportFormats": [
    ],
    "includedLayerIds": [
    ],
    "layerOptions": 0,
    "shouldTrim": false
  },
  "frame": {
    "_class": "rect",
    "constrainProportions": false,
    "do_objectID": "F612587D-4DA7-4F54-881C-721636A8B651",
    "height": 0.1058906030855589,
    "width": 0.1059863482545751,
    "x": 40.85536605071133,
    "y": 16.61909226760681
  },
  "hasClippingMask": false,
  "isClosed": true,
  "isFixedToViewport": false,
  "isFlippedHorizontal": false,
  "isFlippedVertical": false,
  "isLocked": false,
  "isVisible": true,
  "layerListExpandedType": 0,
  "name": "Path",
  "nameIsFixed": false,
  "pointRadiusBehaviour": 0,
  "points": [
    {
      "_class": "curvePoint",
      "cornerRadius": 0,
      "curveFrom": "{-0.28764478088208989, 0.57930001504951179}",
      "curveMode": 3,
      "curveTo": "{0.35635521911791557, 0.97530001504952679}",
      "hasCurveFrom": true,
      "hasCurveTo": true,
      "point": "{0.13235521911792603, 0.83830001504952634}"
    },
    {
      "_class": "curvePoint",
      "cornerRadius": 0,
      "curveFrom": "{1.0523552191179419, 0.27630001504951451}",
      "curveMode": 3,
      "curveTo": "{0.40635521911792694, -0.12169998495048162}",
      "hasCurveFrom": true,
      "hasCurveTo": true,
      "point": "{0.63035521911791648, 0.018300015049504736}"
    }
  ],
  "resizingConstraint": 63,
  "resizingType": 0,
  "rotation": 0,
  "shouldBreakMaskChain": false,
  "style": {
    "_class": "style",
    "do_objectID": "DDA7D163-66C2-4059-903E-9ECDBD0BEE02",
    "endMarkerType": 0,
    "fills": [
      {
        "_class": "fill",
        "color": {
          "_class": "color",
          "alpha": 1,
          "blue": 0.1764705882352941,
          "green": 0.1764705882352941,
          "red": 0.1764705882352941
        },
        "fillType": 0,
        "isEnabled": true,
        "noiseIndex": 0,
        "noiseIntensity": 0,
        "patternFillType": 1,
        "patternTileScale": 1
      }
    ],
    "miterLimit": 10,
    "startMarkerType": 0,
    "windingRule": 1
  }
}