{
  "_class": "shapePath",
  "booleanOperation": -1,
  "clippingMaskMode": 0,
  "do_objectID": "C5BAD4A7-0416-436A-BB81-DE4263789708",
  "edited": true,
  "exportOptions": {
    "_class": "exportOptions",
    "do_objectID": "7B176950-1A16-47CB-9961-4B6506F54C0C",
    "exportFormats": [
    ],
    "includedLayerIds": [
    ],
    "layerOptions": 0,
    "shouldTrim": false
  },
  "frame": {
    "_class": "rect",
    "constrainProportions": false,
    "do_objectID": "2C35D6FB-53FC-46AC-84E6-CA8B9F17F078",
    "height": 0.1058906030855553,
    "width": 0.1715300934101762,
    "x": 42.23043440023705,
    "y": 12.5126101865585
  },
  "hasClippingMask": false,
  "isClosed": true,
  "isFixedToViewport": false,
  "isFlippedHorizontal": false,
  "isFlippedVertical": false,
  "isLocked": false,
  "isVisible": true,
  "layerListExpandedType": 0,
  "name": "Path",
  "nameIsFixed": false,
  "pointRadiusBehaviour": 0,
  "points": [
    {
      "_class": "curvePoint",
      "cornerRadius": 0,
      "curveFrom": "{0.19496590277562972, -0.02533698756461485}",
      "curveMode": 4,
      "curveTo": "{0.0070982731592998567, 0.53282299004336076}",
      "hasCurveFrom": true,
      "hasCurveTo": true,
      "point": "{0, 0.026106328343955456}"
    },
    {
      "_class": "curvePoint",
      "cornerRadius": 0,
      "curveFrom": "{1.6079954796882014, -0.65037327585370752}",
      "curveMode": 4,
      "curveTo": "{0.37999422312819664, -0.05105864551887563}",
      "hasCurveFrom": true,
      "hasCurveTo": true,
      "point": "{0.38756571449810573, 0.4539432389835692}"
    },
    {
      "_class": "curvePoint",
      "cornerRadius": 0,
      "curveFrom": "{0.19401946635435746, 0.50538655489213946}",
      "curveMode": 4,
      "curveTo": "{0.67622882297656883, 2.1155623428303167}",
      "hasCurveFrom": true,
      "hasCurveTo": true,
      "point": "{0.38756571449810573, 0.4539432389835692}"
    }
  ],
  "resizingConstraint": 63,
  "resizingType": 0,
  "rotation": 0,
  "shouldBreakMaskChain": false,
  "style": {
    "_class": "style",
    "do_objectID": "0D1A6D1B-E944-46E6-93A8-6A69048D63CE",
    "endMarkerType": 0,
    "fills": [
      {
        "_class": "fill",
        "color": {
          "_class": "color",
          "alpha": 1,
          "blue": 0.1764705882352941,
          "green": 0.1764705882352941,
          "red": 0.1764705882352941
        },
        "fillType": 0,
        "isEnabled": true,
        "noiseIndex": 0,
        "noiseIntensity": 0,
        "patternFillType": 1,
        "patternTileScale": 1
      }
    ],
    "miterLimit": 10,
    "startMarkerType": 0,
    "windingRule": 1
  }
}