{
  "_class": "shapePath",
  "booleanOperation": -1,
  "clippingMaskMode": 0,
  "do_objectID": "CABF2493-2F0B-4686-B474-A10C62AA151C",
  "edited": true,
  "exportOptions": {
    "_class": "exportOptions",
    "do_objectID": "B945C6CB-5FBA-4EFD-B74C-FF9ECCC434C1",
    "exportFormats": [
    ],
    "includedLayerIds": [
    ],
    "layerOptions": 0,
    "shouldTrim": false
  },
  "frame": {
    "_class": "rect",
    "constrainProportions": false,
    "do_objectID": "C072900D-72A5-446B-8E44-6D899F54E9C1",
    "height": 0.1058906030855589,
    "width": 0.1059863482545467,
    "x": 45.00431259728025,
    "y": 19.74047583111323
  },
  "hasClippingMask": false,
  "isClosed": true,
  "isFixedToViewport": false,
  "isFlippedHorizontal": false,
  "isFlippedVertical": false,
  "isLocked": false,
  "isVisible": true,
  "layerListExpandedType": 0,
  "name": "Path",
  "nameIsFixed": false,
  "pointRadiusBehaviour": 0,
  "points": [
    {
      "_class": "curvePoint",
      "cornerRadius": 0,
      "curveFrom": "{1.0558027122553995, 0.27318963788835049}",
      "curveMode": 4,
      "curveTo": "{0.40980271225532761, -0.12081036211162655}",
      "hasCurveFrom": true,
      "hasCurveTo": true,
      "point": "{0.6318027122553076, 0.018189637888355037}"
    },
    {
      "_class": "curvePoint",
      "cornerRadius": 0,
      "curveFrom": "{-0.28919728774462783, 0.57418963788836663}",
      "curveMode": 3,
      "curveTo": "{0.35980271225537308, 0.97318963788836754}",
      "hasCurveFrom": true,
      "hasCurveTo": true,
      "point": "{0.13280271225539764, 0.83418963788835754}"
    }
  ],
  "resizingConstraint": 63,
  "resizingType": 0,
  "rotation": 0,
  "shouldBreakMaskChain": false,
  "style": {
    "_class": "style",
    "do_objectID": "430FB625-6221-40F5-8CE7-0FBBA5D95208",
    "endMarkerType": 0,
    "fills": [
      {
        "_class": "fill",
        "color": {
          "_class": "color",
          "alpha": 1,
          "blue": 0.1764705882352941,
          "green": 0.1764705882352941,
          "red": 0.1764705882352941
        },
        "fillType": 0,
        "isEnabled": true,
        "noiseIndex": 0,
        "noiseIntensity": 0,
        "patternFillType": 1,
        "patternTileScale": 1
      }
    ],
    "miterLimit": 10,
    "startMarkerType": 0,
    "windingRule": 1
  }
}