{
  "_class": "shapePath",
  "booleanOperation": -1,
  "clippingMaskMode": 0,
  "do_objectID": "CBE588E9-4E86-4314-96CC-DF43C1B4394D",
  "edited": true,
  "exportOptions": {
    "_class": "exportOptions",
    "do_objectID": "221D22BB-69B1-45E1-A99F-F9DA4B1543CA",
    "exportFormats": [
    ],
    "includedLayerIds": [
    ],
    "layerOptions": 0,
    "shouldTrim": false
  },
  "frame": {
    "_class": "rect",
    "constrainProportions": false,
    "do_objectID": "50B2E77D-3008-4B71-B0F6-AC98CEF5037C",
    "height": 0.1058906030855589,
    "width": 0.105986348254568,
    "x": 40.73548756115472,
    "y": 16.59177472507007
  },
  "hasClippingMask": false,
  "isClosed": true,
  "isFixedToViewport": false,
  "isFlippedHorizontal": false,
  "isFlippedVertical": false,
  "isLocked": false,
  "isVisible": true,
  "layerListExpandedType": 0,
  "name": "Path",
  "nameIsFixed": false,
  "pointRadiusBehaviour": 0,
  "points": [
    {
      "_class": "curvePoint",
      "cornerRadius": 0,
      "curveFrom": "{1.0532157671192408, 0.27714676538906247}",
      "curveMode": 3,
      "curveTo": "{0.4072157671192258, -0.12085323461093367}",
      "hasCurveFrom": true,
      "hasCurveTo": true,
      "point": "{0.6322157671191917, 0.018146765389076336}"
    },
    {
      "_class": "curvePoint",
      "cornerRadius": 0,
      "curveFrom": "{-0.28778423288076738, 0.57614676538906906}",
      "curveMode": 3,
      "curveTo": "{0.35921576711922398, 0.97214676538908407}",
      "hasCurveFrom": true,
      "hasCurveTo": true,
      "point": "{0.1322157671191917, 0.83314676538907406}"
    }
  ],
  "resizingConstraint": 63,
  "resizingType": 0,
  "rotation": 0,
  "shouldBreakMaskChain": false,
  "style": {
    "_class": "style",
    "do_objectID": "C7C5D9F3-29B3-425B-83BE-66E66A548895",
    "endMarkerType": 0,
    "fills": [
      {
        "_class": "fill",
        "color": {
          "_class": "color",
          "alpha": 1,
          "blue": 0.1764705882352941,
          "green": 0.1764705882352941,
          "red": 0.1764705882352941
        },
        "fillType": 0,
        "isEnabled": true,
        "noiseIndex": 0,
        "noiseIntensity": 0,
        "patternFillType": 1,
        "patternTileScale": 1
      }
    ],
    "miterLimit": 10,
    "startMarkerType": 0,
    "windingRule": 1
  }
}