{
  "_class": "shapePath",
  "booleanOperation": -1,
  "clippingMaskMode": 0,
  "do_objectID": "CD54B059-28EC-42AC-AE6A-2BA0AEA662CC",
  "edited": true,
  "exportOptions": {
    "_class": "exportOptions",
    "do_objectID": "9755D6AB-5E08-4EF9-B0B1-930D4107C536",
    "exportFormats": [
    ],
    "includedLayerIds": [
    ],
    "layerOptions": 0,
    "shouldTrim": false
  },
  "frame": {
    "_class": "rect",
    "constrainProportions": false,
    "do_objectID": "21DD8035-919D-4C0B-91D5-5A3CDE271441",
    "height": 0.105890603085566,
    "width": 0.1059863482545609,
    "x": 21.36846197229609,
    "y": 22.31527125438794
  },
  "hasClippingMask": false,
  "isClosed": true,
  "isFixedToViewport": false,
  "isFlippedHorizontal": false,
  "isFlippedVertical": false,
  "isLocked": false,
  "isVisible": true,
  "layerListExpandedType": 0,
  "name": "Path",
  "nameIsFixed": false,
  "pointRadiusBehaviour": 0,
  "points": [
    {
      "_class": "curvePoint",
      "cornerRadius": 0,
      "curveFrom": "{-0.25888593116218317, 0.51494023333754058}",
      "curveMode": 3,
      "curveTo": "{0.32011406883782456, 0.86694023333757286}",
      "hasCurveFrom": true,
      "hasCurveTo": true,
      "point": "{0.12011406883783593, 0.74394023333758241}"
    },
    {
      "_class": "curvePoint",
      "cornerRadius": 0,
      "curveFrom": "{0.93811406883781956, 0.24694023333756832}",
      "curveMode": 3,
      "curveTo": "{0.36211406883785457, -0.10705976666241668}",
      "hasCurveFrom": true,
      "hasCurveTo": true,
      "point": "{0.56411406883785276, 0.015940233337573773}"
    }
  ],
  "resizingConstraint": 63,
  "resizingType": 0,
  "rotation": 0,
  "shouldBreakMaskChain": false,
  "style": {
    "_class": "style",
    "do_objectID": "91010649-8F1A-4A5A-B1F6-316F7F4612F4",
    "endMarkerType": 0,
    "fills": [
      {
        "_class": "fill",
        "color": {
          "_class": "color",
          "alpha": 1,
          "blue": 0.1764705882352941,
          "green": 0.1764705882352941,
          "red": 0.1764705882352941
        },
        "fillType": 0,
        "isEnabled": true,
        "noiseIndex": 0,
        "noiseIntensity": 0,
        "patternFillType": 1,
        "patternTileScale": 1
      }
    ],
    "miterLimit": 10,
    "startMarkerType": 0,
    "windingRule": 1
  }
}