{
  "_class": "shapePath",
  "booleanOperation": -1,
  "clippingMaskMode": 0,
  "do_objectID": "D01031C8-515B-49F8-952E-66A59A6CC968",
  "edited": true,
  "exportOptions": {
    "_class": "exportOptions",
    "do_objectID": "1C5D207C-0AE7-4006-B1C1-C887137445FA",
    "exportFormats": [
    ],
    "includedLayerIds": [
    ],
    "layerOptions": 0,
    "shouldTrim": false
  },
  "frame": {
    "_class": "rect",
    "constrainProportions": false,
    "do_objectID": "538353FB-FDE6-4C50-A43D-E210A3A71B24",
    "height": 0.1058906030855695,
    "width": 0.1059863482545573,
    "x": 30.98245394572653,
    "y": 32.87893622824875
  },
  "hasClippingMask": false,
  "isClosed": true,
  "isFixedToViewport": false,
  "isFlippedHorizontal": false,
  "isFlippedVertical": false,
  "isLocked": false,
  "isVisible": true,
  "layerListExpandedType": 0,
  "name": "Path",
  "nameIsFixed": false,
  "pointRadiusBehaviour": 0,
  "points": [
    {
      "_class": "curvePoint",
      "cornerRadius": 0,
      "curveFrom": "{0.93913681863142529, 0.24665608015726548}",
      "curveMode": 3,
      "curveTo": "{0.36013681863141755, -0.10634391984268632}",
      "hasCurveFrom": true,
      "hasCurveTo": true,
      "point": "{0.56313681863144893, 0.015656080157270935}"
    },
    {
      "_class": "curvePoint",
      "cornerRadius": 0,
      "curveFrom": "{-0.25486318136859154, 0.51765608015728048}",
      "curveMode": 3,
      "curveTo": "{0.32113681863143029, 0.86865608015727958}",
      "hasCurveFrom": true,
      "hasCurveTo": true,
      "point": "{0.11713681863142256, 0.74465608015731277}"
    }
  ],
  "resizingConstraint": 63,
  "resizingType": 0,
  "rotation": 0,
  "shouldBreakMaskChain": false,
  "style": {
    "_class": "style",
    "do_objectID": "7B07309B-03DA-470B-B877-E1B0D5880F18",
    "endMarkerType": 0,
    "fills": [
      {
        "_class": "fill",
        "color": {
          "_class": "color",
          "alpha": 1,
          "blue": 0.1764705882352941,
          "green": 0.1764705882352941,
          "red": 0.1764705882352941
        },
        "fillType": 0,
        "isEnabled": true,
        "noiseIndex": 0,
        "noiseIntensity": 0,
        "patternFillType": 1,
        "patternTileScale": 1
      }
    ],
    "miterLimit": 10,
    "startMarkerType": 0,
    "windingRule": 1
  }
}