{
  "_class": "shapePath",
  "booleanOperation": -1,
  "clippingMaskMode": 0,
  "do_objectID": "D8276F0E-E43C-4F2A-B5E0-7588DC9FAA30",
  "edited": true,
  "exportOptions": {
    "_class": "exportOptions",
    "do_objectID": "583CAA4C-DC0E-4E3F-A505-47CA0F45F626",
    "exportFormats": [
    ],
    "includedLayerIds": [
    ],
    "layerOptions": 0,
    "shouldTrim": false
  },
  "frame": {
    "_class": "rect",
    "constrainProportions": false,
    "do_objectID": "B93334F1-A6CD-480F-A16C-11A8D7871D62",
    "height": 0.1058906030855553,
    "width": 0.105986348254568,
    "x": 22.59393161083069,
    "y": 18.43319409302994
  },
  "hasClippingMask": false,
  "isClosed": true,
  "isFixedToViewport": false,
  "isFlippedHorizontal": false,
  "isFlippedVertical": false,
  "isLocked": false,
  "isVisible": true,
  "layerListExpandedType": 0,
  "name": "Path",
  "nameIsFixed": false,
  "pointRadiusBehaviour": 0,
  "points": [
    {
      "_class": "curvePoint",
      "cornerRadius": 0,
      "curveFrom": "{0.13148487952027496, 0.044000000000011141}",
      "curveMode": 4,
      "curveTo": "{-0.082187309905404973, 0.48700000000002319}",
      "hasCurveFrom": true,
      "hasCurveTo": true,
      "point": "{0.013216139985745428, 0.28500000000002501}"
    },
    {
      "_class": "curvePoint",
      "cornerRadius": 0,
      "curveFrom": "{1.1194230837651424, 0.47400000000001796}",
      "curveMode": 4,
      "curveTo": "{0.77802065564221734, 0.20900000000000318}",
      "hasCurveFrom": true,
      "hasCurveTo": true,
      "point": "{0.93965459967269171, 0}"
    },
    {
      "_class": "curvePoint",
      "cornerRadius": 0,
      "curveFrom": "{0.36250315074434175, 1.0720000000000027}",
      "curveMode": 4,
      "curveTo": "{0.86632798116128606, 0.60699999999999932}",
      "hasCurveFrom": true,
      "hasCurveTo": true,
      "point": "{0.5903675889141401, 0.72800000000000864}"
    }
  ],
  "resizingConstraint": 63,
  "resizingType": 0,
  "rotation": 0,
  "shouldBreakMaskChain": false,
  "style": {
    "_class": "style",
    "do_objectID": "F66F6E66-5CD8-4337-836E-7135736849C8",
    "endMarkerType": 0,
    "fills": [
      {
        "_class": "fill",
        "color": {
          "_class": "color",
          "alpha": 1,
          "blue": 0.1764705882352941,
          "green": 0.1764705882352941,
          "red": 0.1764705882352941
        },
        "fillType": 0,
        "isEnabled": true,
        "noiseIndex": 0,
        "noiseIntensity": 0,
        "patternFillType": 1,
        "patternTileScale": 1
      }
    ],
    "miterLimit": 10,
    "startMarkerType": 0,
    "windingRule": 1
  }
}