{
  "_class": "shapePath",
  "booleanOperation": -1,
  "clippingMaskMode": 0,
  "do_objectID": "DC0B825D-BE0E-47DF-BD8C-663576681F96",
  "edited": true,
  "exportOptions": {
    "_class": "exportOptions",
    "do_objectID": "11DE16B4-527C-44F1-ADEE-A9ECF318C1CE",
    "exportFormats": [
    ],
    "includedLayerIds": [
    ],
    "layerOptions": 0,
    "shouldTrim": false
  },
  "frame": {
    "_class": "rect",
    "constrainProportions": false,
    "do_objectID": "C188F399-C26C-4FB5-AE92-DBA5EFFE1321",
    "height": 0.1058906030855553,
    "width": 0.1059863482545644,
    "x": 16.66833615860386,
    "y": 22.5485037839528
  },
  "hasClippingMask": false,
  "isClosed": true,
  "isFixedToViewport": false,
  "isFlippedHorizontal": false,
  "isFlippedVertical": false,
  "isLocked": false,
  "isVisible": true,
  "layerListExpandedType": 0,
  "name": "Path",
  "nameIsFixed": false,
  "pointRadiusBehaviour": 0,
  "points": [
    {
      "_class": "curvePoint",
      "cornerRadius": 0,
      "curveFrom": "{0.34799999999998477, 0.29700000000002547}",
      "curveMode": 4,
      "curveTo": "{0.22100000000000364, 0.1400000000000432}",
      "hasCurveFrom": true,
      "hasCurveTo": true,
      "point": "{0.32299999999997908, 0}"
    },
    {
      "_class": "curvePoint",
      "cornerRadius": 0,
      "curveFrom": "{0.29200000000000159, 0.83900000000005548}",
      "curveMode": 4,
      "curveTo": "{0.34000000000000341, 0.58600000000001273}",
      "hasCurveFrom": true,
      "hasCurveTo": true,
      "point": "{0.30099999999998772, 0.86900000000002819}"
    },
    {
      "_class": "curvePoint",
      "cornerRadius": 0,
      "curveFrom": "{0.24799999999999045, 0.80200000000002092}",
      "curveMode": 4,
      "curveTo": "{0.27499999999997726, 0.82600000000002183}",
      "hasCurveFrom": true,
      "hasCurveTo": true,
      "point": "{0.26599999999999113, 0.79100000000005366}"
    },
    {
      "_class": "curvePoint",
      "cornerRadius": 0,
      "curveFrom": "{0.21099999999998431, 0.74200000000007549}",
      "curveMode": 4,
      "curveTo": "{0.23300000000000409, 0.81300000000004502}",
      "hasCurveFrom": true,
      "hasCurveTo": true,
      "point": "{0.21500000000000341, 0.82500000000004547}"
    },
    {
      "_class": "curvePoint",
      "cornerRadius": 0,
      "curveFrom": "{0.093999999999994088, 0.39600000000007185}",
      "curveMode": 4,
      "curveTo": "{0.19599999999999795, 0.65200000000004366}",
      "hasCurveFrom": true,
      "hasCurveTo": true,
      "point": "{0.14099999999999113, 0.53800000000001091}"
    },
    {
      "_class": "curvePoint",
      "cornerRadius": 0,
      "curveFrom": "{0.090999999999979764, 0.23400000000003729}",
      "curveMode": 4,
      "curveTo": "{0.048999999999978172, 0.29000000000007731}",
      "hasCurveFrom": true,
      "hasCurveTo": true,
      "point": "{0, 0.20500000000004093}"
    }
  ],
  "resizingConstraint": 63,
  "resizingType": 0,
  "rotation": 0,
  "shouldBreakMaskChain": false,
  "style": {
    "_class": "style",
    "do_objectID": "FF90E9CE-4F4C-418F-B54D-30672F17705F",
    "endMarkerType": 0,
    "fills": [
      {
        "_class": "fill",
        "color": {
          "_class": "color",
          "alpha": 1,
          "blue": 0.1764705882352941,
          "green": 0.1764705882352941,
          "red": 0.1764705882352941
        },
        "fillType": 0,
        "isEnabled": true,
        "noiseIndex": 0,
        "noiseIntensity": 0,
        "patternFillType": 1,
        "patternTileScale": 1
      }
    ],
    "miterLimit": 10,
    "startMarkerType": 0,
    "windingRule": 1
  }
}