{
  "_class": "shapePath",
  "booleanOperation": -1,
  "clippingMaskMode": 0,
  "do_objectID": "DF564371-543A-4B57-BB4A-4DC8673F7020",
  "edited": true,
  "exportOptions": {
    "_class": "exportOptions",
    "do_objectID": "8E0FCF29-3F5E-4721-AC34-08223942DE72",
    "exportFormats": [
    ],
    "includedLayerIds": [
    ],
    "layerOptions": 0,
    "shouldTrim": false
  },
  "frame": {
    "_class": "rect",
    "constrainProportions": false,
    "do_objectID": "15BE4D64-CF90-4D02-B96C-0D069B2440B9",
    "height": 0.105890603085566,
    "width": 0.1059863482545573,
    "x": 22.71483099662089,
    "y": 22.49186202509401
  },
  "hasClippingMask": false,
  "isClosed": true,
  "isFixedToViewport": false,
  "isFlippedHorizontal": false,
  "isFlippedVertical": false,
  "isLocked": false,
  "isVisible": true,
  "layerListExpandedType": 0,
  "name": "Path",
  "nameIsFixed": false,
  "pointRadiusBehaviour": 0,
  "points": [
    {
      "_class": "curvePoint",
      "cornerRadius": 0,
      "curveFrom": "{-0.2716756248860861, 0.70343736417453329}",
      "curveMode": 3,
      "curveTo": "{0.41132437511390663, 0.94843736417453783}",
      "hasCurveFrom": true,
      "hasCurveTo": true,
      "point": "{0.17532437511391663, 0.86443736417459149}"
    },
    {
      "_class": "curvePoint",
      "cornerRadius": 0,
      "curveFrom": "{0.92932437511393573, 0.16843736417456512}",
      "curveMode": 3,
      "curveTo": "{0.24932437511392891, -0.078562635825392135}",
      "hasCurveFrom": true,
      "hasCurveTo": true,
      "point": "{0.4853243751139189, 0.0064373641745874011}"
    }
  ],
  "resizingConstraint": 63,
  "resizingType": 0,
  "rotation": 0,
  "shouldBreakMaskChain": false,
  "style": {
    "_class": "style",
    "do_objectID": "C53E9D45-2990-40B2-B921-AC9D000253F6",
    "endMarkerType": 0,
    "fills": [
      {
        "_class": "fill",
        "color": {
          "_class": "color",
          "alpha": 1,
          "blue": 0.1764705882352941,
          "green": 0.1764705882352941,
          "red": 0.1764705882352941
        },
        "fillType": 0,
        "isEnabled": true,
        "noiseIndex": 0,
        "noiseIntensity": 0,
        "patternFillType": 1,
        "patternTileScale": 1
      }
    ],
    "miterLimit": 10,
    "startMarkerType": 0,
    "windingRule": 1
  }
}