{
  "_class": "shapePath",
  "booleanOperation": -1,
  "clippingMaskMode": 0,
  "do_objectID": "E1423062-0F2D-4B52-8228-4F550419F94E",
  "edited": true,
  "exportOptions": {
    "_class": "exportOptions",
    "do_objectID": "A3C87A82-3785-4304-869E-2C76480E02BB",
    "exportFormats": [
    ],
    "includedLayerIds": [
    ],
    "layerOptions": 0,
    "shouldTrim": false
  },
  "frame": {
    "_class": "rect",
    "constrainProportions": false,
    "do_objectID": "FD06CCF2-8E11-46B6-A515-64D3E9D315C2",
    "height": 0.105890603085566,
    "width": 0.1073816069387235,
    "x": 5.494234907178903,
    "y": 24.68040369832821
  },
  "hasClippingMask": false,
  "isClosed": true,
  "isFixedToViewport": false,
  "isFlippedHorizontal": false,
  "isFlippedVertical": false,
  "isLocked": false,
  "isVisible": true,
  "layerListExpandedType": 0,
  "name": "Path",
  "nameIsFixed": false,
  "pointRadiusBehaviour": 0,
  "points": [
    {
      "_class": "curvePoint",
      "cornerRadius": 0,
      "curveFrom": "{0.083884579595448427, 0.25497713552907514}",
      "curveMode": 3,
      "curveTo": "{-0.058982997161847288, 0.76591208787781018}",
      "hasCurveFrom": true,
      "hasCurveTo": true,
      "point": "{0.0052696167237125651, 0.53545198461112464}"
    },
    {
      "_class": "curvePoint",
      "cornerRadius": 0,
      "curveFrom": "{1.1459424914684275, 0.43542249298045238}",
      "curveMode": 4,
      "curveTo": "{0.75967089505057173, 0.25791917940060649}",
      "hasCurveFrom": true,
      "hasCurveTo": true,
      "point": "{0.88817612282167002, 0}"
    },
    {
      "_class": "curvePoint",
      "cornerRadius": 0,
      "curveFrom": "{0.48225078568588303, 1.2503686453830418}",
      "curveMode": 4,
      "curveTo": "{0.91160942906228826, 0.64332692656575052}",
      "hasCurveFrom": true,
      "hasCurveTo": true,
      "point": "{0.65384306041554152, 0.84142454724603721}"
    }
  ],
  "resizingConstraint": 63,
  "resizingType": 0,
  "rotation": 0,
  "shouldBreakMaskChain": false,
  "style": {
    "_class": "style",
    "do_objectID": "2C3B9FF7-6EA2-45E4-A2B6-4C04CE9F7CEF",
    "endMarkerType": 0,
    "fills": [
      {
        "_class": "fill",
        "color": {
          "_class": "color",
          "alpha": 1,
          "blue": 0.1764705882352941,
          "green": 0.1764705882352941,
          "red": 0.1764705882352941
        },
        "fillType": 0,
        "isEnabled": true,
        "noiseIndex": 0,
        "noiseIntensity": 0,
        "patternFillType": 1,
        "patternTileScale": 1
      }
    ],
    "miterLimit": 10,
    "startMarkerType": 0,
    "windingRule": 1
  }
}