{
  "_class": "shapePath",
  "booleanOperation": -1,
  "clippingMaskMode": 0,
  "do_objectID": "E3C95B2B-D258-49EB-BB4C-AE7B7F898DE9",
  "edited": true,
  "exportOptions": {
    "_class": "exportOptions",
    "do_objectID": "325C8AAF-23B2-451C-BA5E-93C770D09D58",
    "exportFormats": [
    ],
    "includedLayerIds": [
    ],
    "layerOptions": 0,
    "shouldTrim": false
  },
  "frame": {
    "_class": "rect",
    "constrainProportions": false,
    "do_objectID": "E1DFE2AC-CF97-4B2C-81CC-0711CF343F49",
    "height": 0.1058906030855535,
    "width": 0.1059863482545502,
    "x": 23.83937226060082,
    "y": 6.513193961682481
  },
  "hasClippingMask": false,
  "isClosed": true,
  "isFixedToViewport": false,
  "isFlippedHorizontal": false,
  "isFlippedVertical": false,
  "isLocked": false,
  "isVisible": true,
  "layerListExpandedType": 0,
  "name": "Path",
  "nameIsFixed": false,
  "pointRadiusBehaviour": 0,
  "points": [
    {
      "_class": "curvePoint",
      "cornerRadius": 0,
      "curveFrom": "{-0.25662584993915516, 0.51396169530312363}",
      "curveMode": 3,
      "curveTo": "{0.31837415006089032, 0.86496169530312272}",
      "hasCurveFrom": true,
      "hasCurveTo": true,
      "point": "{0.11837415006084484, 0.74396169530308498}"
    },
    {
      "_class": "curvePoint",
      "cornerRadius": 0,
      "curveFrom": "{0.94037415006084757, 0.24596169530309453}",
      "curveMode": 3,
      "curveTo": "{0.36137415006089668, -0.10703830469691411}",
      "hasCurveFrom": true,
      "hasCurveTo": true,
      "point": "{0.56237415006086167, 0.01596169530307634}"
    }
  ],
  "resizingConstraint": 63,
  "resizingType": 0,
  "rotation": 0,
  "shouldBreakMaskChain": false,
  "style": {
    "_class": "style",
    "do_objectID": "806BE2E2-228E-4D76-9610-B8D04F00AE6E",
    "endMarkerType": 0,
    "fills": [
      {
        "_class": "fill",
        "color": {
          "_class": "color",
          "alpha": 1,
          "blue": 0.1764705882352941,
          "green": 0.1764705882352941,
          "red": 0.1764705882352941
        },
        "fillType": 0,
        "isEnabled": true,
        "noiseIndex": 0,
        "noiseIntensity": 0,
        "patternFillType": 1,
        "patternTileScale": 1
      }
    ],
    "miterLimit": 10,
    "startMarkerType": 0,
    "windingRule": 1
  }
}