{
  "_class": "shapePath",
  "booleanOperation": -1,
  "clippingMaskMode": 0,
  "do_objectID": "EBA1EE0B-4AD7-4B7C-83BF-0A0793323712",
  "edited": true,
  "exportOptions": {
    "_class": "exportOptions",
    "do_objectID": "C5770E11-6C52-4251-B5C4-DFFC2C4ED1E3",
    "exportFormats": [
    ],
    "includedLayerIds": [
    ],
    "layerOptions": 0,
    "shouldTrim": false
  },
  "frame": {
    "_class": "rect",
    "constrainProportions": false,
    "do_objectID": "7A8047FC-86DF-492B-AD3E-FE3BD2C469AE",
    "height": 0.1442592537971663,
    "width": 0.1633777264282434,
    "x": 5.746291541115641,
    "y": 28.90519546793362
  },
  "hasClippingMask": false,
  "isClosed": true,
  "isFixedToViewport": false,
  "isFlippedHorizontal": false,
  "isFlippedVertical": false,
  "isLocked": false,
  "isVisible": true,
  "layerListExpandedType": 0,
  "name": "Path",
  "nameIsFixed": false,
  "pointRadiusBehaviour": 0,
  "points": [
    {
      "_class": "curvePoint",
      "cornerRadius": 0,
      "curveFrom": "{0.83205461419798799, 1.210908376951308}",
      "curveMode": 3,
      "curveTo": "{1.0268124733817299, 0.85112130116262563}",
      "hasCurveFrom": true,
      "hasCurveTo": true,
      "point": "{0.99551210315577687, 0.90958670097827932}"
    },
    {
      "_class": "curvePoint",
      "cornerRadius": 0,
      "curveFrom": "{0.45148185875220709, 0.62456787687692361}",
      "curveMode": 4,
      "curveTo": "{0.64723338048280243, 0.66279525367946268}",
      "hasCurveFrom": true,
      "hasCurveTo": true,
      "point": "{0.63431576737367845, 0.65942224984395958}"
    },
    {
      "_class": "curvePoint",
      "cornerRadius": 0,
      "curveFrom": "{-0.11242163658848253, 0.50313973879823604}",
      "curveMode": 4,
      "curveTo": "{0.23536025481106157, 0.83200761276135604}",
      "hasCurveFrom": true,
      "hasCurveTo": true,
      "point": "{0.050539021095876081, 0.81907776472518623}"
    },
    {
      "_class": "curvePoint",
      "cornerRadius": 0,
      "curveFrom": "{0.25473667447475112, 0.42949582172275441}",
      "curveMode": 4,
      "curveTo": "{0.16133239507030131, 0.54417795213040376}",
      "hasCurveFrom": true,
      "hasCurveTo": true,
      "point": "{0.271132106497873, 0.40981996601554638}"
    },
    {
      "_class": "curvePoint",
      "cornerRadius": 0,
      "curveFrom": "{0.77939049921463133, 0.034292205661097509}",
      "curveMode": 4,
      "curveTo": "{0.74560597262153394, 0.0303570345196559}",
      "hasCurveFrom": true,
      "hasCurveTo": true,
      "point": "{0.49321568572014673, 0}"
    },
    {
      "_class": "curvePoint",
      "cornerRadius": 0,
      "curveFrom": "{0.8852155604547749, 0.31818669515064019}",
      "curveMode": 4,
      "curveTo": "{0.71629292748928097, -0.046097719085422338}",
      "hasCurveFrom": true,
      "hasCurveTo": true,
      "point": "{0.85441202150224516, 0.25016445113431973}"
    }
  ],
  "resizingConstraint": 63,
  "resizingType": 0,
  "rotation": 0,
  "shouldBreakMaskChain": false,
  "style": {
    "_class": "style",
    "do_objectID": "C484034E-3551-45E6-BF0D-6D5AE7E0AE0E",
    "endMarkerType": 0,
    "fills": [
      {
        "_class": "fill",
        "color": {
          "_class": "color",
          "alpha": 1,
          "blue": 0.1764705882352941,
          "green": 0.1764705882352941,
          "red": 0.1764705882352941
        },
        "fillType": 0,
        "isEnabled": true,
        "noiseIndex": 0,
        "noiseIntensity": 0,
        "patternFillType": 1,
        "patternTileScale": 1
      }
    ],
    "miterLimit": 10,
    "startMarkerType": 0,
    "windingRule": 1
  }
}