{
  "_class": "shapePath",
  "booleanOperation": -1,
  "clippingMaskMode": 0,
  "do_objectID": "F9563777-0583-4E40-9BC2-4F5EB6BA7B61",
  "edited": true,
  "exportOptions": {
    "_class": "exportOptions",
    "do_objectID": "7DDEC8D9-7F27-4B37-A160-E552DAB3E11E",
    "exportFormats": [
    ],
    "includedLayerIds": [
    ],
    "layerOptions": 0,
    "shouldTrim": false
  },
  "frame": {
    "_class": "rect",
    "constrainProportions": false,
    "do_objectID": "299F024E-2F1F-4281-894D-693BE4AC1876",
    "height": 0.1842542835309473,
    "width": 0.396525532664171,
    "x": 30.241997714075,
    "y": 33.92401615041373
  },
  "hasClippingMask": false,
  "isClosed": true,
  "isFixedToViewport": false,
  "isFlippedHorizontal": false,
  "isFlippedVertical": false,
  "isLocked": false,
  "isVisible": true,
  "layerListExpandedType": 0,
  "name": "Path",
  "nameIsFixed": false,
  "pointRadiusBehaviour": 0,
  "points": [
    {
      "_class": "curvePoint",
      "cornerRadius": 0,
      "curveFrom": "{0.6109032422468339, 0.7191901408450545}",
      "curveMode": 4,
      "curveTo": "{0.96074583150880422, 0.52024647887322362}",
      "hasCurveFrom": true,
      "hasCurveTo": true,
      "point": "{0.88029636539998957, 0.5792253521126669}"
    },
    {
      "_class": "curvePoint",
      "cornerRadius": 0,
      "curveFrom": "{0.093611128106990321, 0.88028169014084845}",
      "curveMode": 4,
      "curveTo": "{0.34151011909367823, 0.85959507042252725}",
      "hasCurveFrom": true,
      "hasCurveTo": true,
      "point": "{0.071707583899242824, 1}"
    },
    {
      "_class": "curvePoint",
      "cornerRadius": 0,
      "curveFrom": "{0.028514613545655904, 0.3600352112675998}",
      "curveMode": 3,
      "curveTo": "{-0.028803072231606795, 0.51980633802816356}",
      "hasCurveFrom": true,
      "hasCurveTo": true,
      "point": "{0.0064063633172917927, 0.42077464788730812}"
    },
    {
      "_class": "curvePoint",
      "cornerRadius": 0,
      "curveFrom": "{0.13987468877007095, 0.37103873239435037}",
      "curveMode": 4,
      "curveTo": "{0.11469584823220148, 0.40448943661971226}",
      "hasCurveFrom": true,
      "hasCurveTo": true,
      "point": "{0.14130763091450368, 0.34991197183096923}"
    },
    {
      "_class": "curvePoint",
      "cornerRadius": 0,
      "curveFrom": "{0.27129595401652096, 0.56690140845068615}",
      "curveMode": 4,
      "curveTo": "{0.17754059656655521, 0.6373239436619651}",
      "hasCurveFrom": true,
      "hasCurveTo": true,
      "point": "{0.17385588819516506, 0.6404049295774602}"
    },
    {
      "_class": "curvePoint",
      "cornerRadius": 0,
      "curveFrom": "{0.53270554236498824, 0.083186619718294566}",
      "curveMode": 3,
      "curveTo": "{0.29770303067819492, 0.32878521126758808}",
      "hasCurveFrom": true,
      "hasCurveTo": true,
      "point": "{0.41049604804703105, 0.20994718309858154}"
    },
    {
      "_class": "curvePoint",
      "cornerRadius": 0,
      "curveFrom": "{0.81786102910690395, 0.25924295774647926}",
      "curveMode": 4,
      "curveTo": "{0.69073859029374052, 0.11575704225351136}",
      "hasCurveFrom": true,
      "hasCurveTo": true,
      "point": "{0.81519985083866675, 0}"
    },
    {
      "_class": "curvePoint",
      "cornerRadius": 0,
      "curveFrom": "{1.0346447049573517, 0.45334507042252492}",
      "curveMode": 4,
      "curveTo": "{0.89790108317443884, 0.2455985915492935}",
      "hasCurveFrom": true,
      "hasCurveTo": true,
      "point": "{0.9826493757165401, 0.21963028169012708}"
    }
  ],
  "resizingConstraint": 63,
  "resizingType": 0,
  "rotation": 0,
  "shouldBreakMaskChain": false,
  "style": {
    "_class": "style",
    "do_objectID": "DEAB3CE6-A505-4E08-A4A7-6FF495B303D9",
    "endMarkerType": 0,
    "fills": [
      {
        "_class": "fill",
        "color": {
          "_class": "color",
          "alpha": 1,
          "blue": 0.1764705882352941,
          "green": 0.1764705882352941,
          "red": 0.1764705882352941
        },
        "fillType": 0,
        "isEnabled": true,
        "noiseIndex": 0,
        "noiseIntensity": 0,
        "patternFillType": 1,
        "patternTileScale": 1
      }
    ],
    "miterLimit": 10,
    "startMarkerType": 0,
    "windingRule": 1
  }
}