{
  "_class": "shapePath",
  "booleanOperation": -1,
  "clippingMaskMode": 0,
  "do_objectID": "FB15F23E-A5CE-4402-BF27-3A981EE4AFDF",
  "edited": true,
  "exportOptions": {
    "_class": "exportOptions",
    "do_objectID": "10E63A3F-952C-42C9-B462-C359841CD18D",
    "exportFormats": [
    ],
    "includedLayerIds": [
    ],
    "layerOptions": 0,
    "shouldTrim": false
  },
  "frame": {
    "_class": "rect",
    "constrainProportions": false,
    "do_objectID": "57981490-B13F-4908-8E51-DAD1BF87BF79",
    "height": 0.1058906030855589,
    "width": 0.1059863482545573,
    "x": 28.69178899887326,
    "y": 19.16519096945567
  },
  "hasClippingMask": false,
  "isClosed": true,
  "isFixedToViewport": false,
  "isFlippedHorizontal": false,
  "isFlippedVertical": false,
  "isLocked": false,
  "isVisible": true,
  "layerListExpandedType": 0,
  "name": "Path",
  "nameIsFixed": false,
  "pointRadiusBehaviour": 0,
  "points": [
    {
      "_class": "curvePoint",
      "cornerRadius": 0,
      "curveFrom": "{1.0543179471248436, 0.27690371952911619}",
      "curveMode": 3,
      "curveTo": "{0.4053179471248427, -0.12009628047087517}",
      "hasCurveFrom": true,
      "hasCurveTo": true,
      "point": "{0.63331794712485134, 0.017903719529130058}"
    },
    {
      "_class": "curvePoint",
      "cornerRadius": 0,
      "curveFrom": "{-0.28968205287515048, 0.57690371952912756}",
      "curveMode": 4,
      "curveTo": "{0.35731794712484088, 0.97190371952913779}",
      "hasCurveFrom": true,
      "hasCurveTo": true,
      "point": "{0.13431794712488454, 0.83290371952912778}"
    }
  ],
  "resizingConstraint": 63,
  "resizingType": 0,
  "rotation": 0,
  "shouldBreakMaskChain": false,
  "style": {
    "_class": "style",
    "do_objectID": "BB499E31-28FD-4E6E-B0C0-B29000C91ADC",
    "endMarkerType": 0,
    "fills": [
      {
        "_class": "fill",
        "color": {
          "_class": "color",
          "alpha": 1,
          "blue": 0.1764705882352941,
          "green": 0.1764705882352941,
          "red": 0.1764705882352941
        },
        "fillType": 0,
        "isEnabled": true,
        "noiseIndex": 0,
        "noiseIntensity": 0,
        "patternFillType": 1,
        "patternTileScale": 1
      }
    ],
    "miterLimit": 10,
    "startMarkerType": 0,
    "windingRule": 1
  }
}