{
  "_class": "bitmap",
  "booleanOperation": 0,
  "clippingMask": "{{0, 0}, {1, 1}}",
  "clippingMaskMode": 0,
  "do_objectID": "7DAB7B04-0703-47AF-8114-52FCE7EB9063",
  "exportOptions": {
    "_class": "exportOptions",
    "do_objectID": "931F8B4A-2D75-4ACD-8838-51A54E7BC1D9",
    "exportFormats": [
    ],
    "includedLayerIds": [
    ],
    "layerOptions": 0,
    "shouldTrim": false
  },
  "fillReplacesImage": false,
  "frame": {
    "_class": "rect",
    "constrainProportions": true,
    "do_objectID": "60992E5C-A991-4404-AAD4-6E81639AA5A5",
    "height": 120,
    "width": 108,
    "x": -2,
    "y": -42
  },
  "hasClippingMask": false,
  "image": {
    "_class": "MSJSONFileReference",
    "_ref": "images/95f49aa5c9b3987c1e38092be797f64c0833576a.png",
    "_ref_class": "MSImageData"
  },
  "intendedDPI": 0,
  "isFixedToViewport": false,
  "isFlippedHorizontal": false,
  "isFlippedVertical": false,
  "isLocked": false,
  "isVisible": true,
  "layerListExpandedType": 0,
  "name": "MP000000001346019_97Wx108H_20170412134948",
  "nameIsFixed": false,
  "resizingConstraint": 63,
  "resizingType": 0,
  "rotation": 0,
  "shouldBreakMaskChain": false,
  "style": {
    "_class": "style",
    "do_objectID": "9804DB3D-F666-4A53-8E2A-5CA689F1AC74",
    "endMarkerType": 0,
    "miterLimit": 10,
    "startMarkerType": 0,
    "windingRule": 1
  }
}