{
  "_class": "group",
  "booleanOperation": 0,
  "clippingMaskMode": 0,
  "do_objectID": "2EC76615-8789-491B-A5CB-6F04C40B918E",
  "exportOptions": {
    "_class": "exportOptions",
    "do_objectID": "306D21AD-C7C5-411C-A2C0-A16E78E5B421",
    "exportFormats": [
    ],
    "includedLayerIds": [
    ],
    "layerOptions": 0,
    "shouldTrim": false
  },
  "frame": {
    "_class": "rect",
    "constrainProportions": false,
    "do_objectID": "77F26D93-D3CD-4175-A1A5-4DF609CF87F6",
    "height": 19,
    "width": 159,
    "x": 3,
    "y": 0
  },
  "groupLayout": {
    "_class": "MSImmutableFreeformGroupLayout",
    "do_objectID": "408D6673-0359-476C-8F19-536A149FB64B"
  },
  "hasClickThrough": false,
  "hasClippingMask": false,
  "isFixedToViewport": false,
  "isFlippedHorizontal": false,
  "isFlippedVertical": false,
  "isLocked": false,
  "isVisible": true,
  "layerListExpandedType": 0,
  "layers": [
    {
      "class": "group",
      "id": "741AED59-9C89-4B8F-867A-9144FBAFE239"
    },
    {
      "class": "group",
      "id": "C9A449FD-6997-4C5C-BAA0-CE485366B18E"
    },
    {
      "class": "group",
      "id": "386597F3-0862-429C-8B16-62A73AC9FBC7"
    },
    {
      "class": "group",
      "id": "1E70BEAB-7B54-479D-A454-D67BBDA4B87C"
    },
    {
      "class": "group",
      "id": "426CD8DE-902A-4A85-80D6-42848B21F866"
    },
    {
      "class": "text",
      "id": "12BC6BC3-A636-45BE-89B4-49B9E77CBA8E"
    }
  ],
  "name": "rating",
  "nameIsFixed": true,
  "resizingConstraint": 63,
  "resizingType": 0,
  "rotation": 0,
  "shouldBreakMaskChain": false,
  "style": {
    "_class": "style",
    "do_objectID": "D340C332-A4C1-4CB7-BEBC-52CDCA8EFFEE",
    "endMarkerType": 0,
    "miterLimit": 10,
    "startMarkerType": 0,
    "windingRule": 1
  }
}