{
  "_class": "symbolInstance",
  "booleanOperation": -1,
  "clippingMaskMode": 0,
  "do_objectID": "21DF917A-2920-40EC-850D-B0AA87A0CE89",
  "exportOptions": {
    "_class": "exportOptions",
    "do_objectID": "690D971B-88B7-4FD2-BA40-642062D7E0A9",
    "exportFormats": [
    ],
    "includedLayerIds": [
    ],
    "layerOptions": 0,
    "shouldTrim": false
  },
  "frame": {
    "_class": "rect",
    "constrainProportions": false,
    "do_objectID": "C77234B3-3B70-42AC-9FEC-55A230497673",
    "height": 16,
    "width": 16,
    "x": 140,
    "y": 16
  },
  "hasClippingMask": false,
  "horizontalSpacing": 0,
  "isFixedToViewport": false,
  "isFlippedHorizontal": false,
  "isFlippedVertical": false,
  "isLocked": false,
  "isVisible": true,
  "layerListExpandedType": 0,
  "name": "icon",
  "nameIsFixed": true,
  "overrideValues": [
    {
      "_class": "overrideValue",
      "do_objectID": "D5AFFD93-0D53-4A2C-8837-2B9A26027141",
      "overrideName": "BE723698-E08A-461D-A0D5-CF91951155C8_layerStyle",
      "value": "FC717D83-632A-4578-A354-C7BB21CB3CFE"
    }
  ],
  "resizingConstraint": 12,
  "resizingType": 0,
  "rotation": 0,
  "scale": 1,
  "shouldBreakMaskChain": false,
  "style": {
    "_class": "style",
    "do_objectID": "BCA6D0B8-EDAA-4739-9E65-310E61544F1B",
    "endMarkerType": 0,
    "miterLimit": 10,
    "startMarkerType": 0,
    "windingRule": 1
  },
  "symbolID": "F2F8A963-BA8C-46DF-A551-3D51C49206A3",
  "verticalSpacing": 0
}