{
  "_class": "symbolInstance",
  "booleanOperation": -1,
  "clippingMaskMode": 0,
  "do_objectID": "BBF3F369-A586-43E9-B193-4689382FA6E4",
  "exportOptions": {
    "_class": "exportOptions",
    "do_objectID": "7A583560-AA7D-4EEB-AB1B-BC504CB17DD6",
    "exportFormats": [
    ],
    "includedLayerIds": [
    ],
    "layerOptions": 0,
    "shouldTrim": false
  },
  "frame": {
    "_class": "rect",
    "constrainProportions": false,
    "do_objectID": "80DBF4DE-BD3D-4288-ACD9-FF0BB3EDD03A",
    "height": 32,
    "width": 256,
    "x": 0,
    "y": 16
  },
  "hasClippingMask": false,
  "horizontalSpacing": 0,
  "isFixedToViewport": false,
  "isFlippedHorizontal": false,
  "isFlippedVertical": false,
  "isLocked": false,
  "isVisible": true,
  "layerListExpandedType": 0,
  "name": "Sub-menu 1",
  "nameIsFixed": true,
  "overrideValues": [
    {
      "_class": "overrideValue",
      "do_objectID": "F7FB3FB3-65E6-440E-82B4-F6C39739C05B",
      "overrideName": "F4899B64-336B-4625-91E2-24B9CFBAC1E1_stringValue",
      "value": "Sub-menu 1"
    }
  ],
  "resizingConstraint": 63,
  "resizingType": 0,
  "rotation": 0,
  "scale": 1,
  "shouldBreakMaskChain": false,
  "style": {
    "_class": "style",
    "do_objectID": "93463A81-B0F1-4775-A663-A9409FC40BAE",
    "endMarkerType": 0,
    "miterLimit": 10,
    "startMarkerType": 0,
    "windingRule": 1
  },
  "symbolID": "61A93371-E871-4533-9904-4D69AC647FAD",
  "verticalSpacing": 0
}