{
  "_class": "group",
  "booleanOperation": -1,
  "clippingMaskMode": 0,
  "do_objectID": "08256171-FE78-45B6-976F-9C2328C36177",
  "exportOptions": {
    "_class": "exportOptions",
    "do_objectID": "BBFE2CDF-35A9-4326-8C08-32C2A763FFAF",
    "exportFormats": [
    ],
    "includedLayerIds": [
    ],
    "layerOptions": 0,
    "shouldTrim": false
  },
  "frame": {
    "_class": "rect",
    "constrainProportions": false,
    "do_objectID": "64C95404-58E5-471B-AA61-64CA8EED3D2C",
    "height": 400,
    "width": 256,
    "x": 864,
    "y": 0
  },
  "groupLayout": {
    "_class": "MSImmutableFreeformGroupLayout",
    "do_objectID": "E1F4A0B3-1A54-4606-ABE8-3DC6AD6E19B4"
  },
  "hasClickThrough": false,
  "hasClippingMask": false,
  "isFixedToViewport": false,
  "isFlippedHorizontal": false,
  "isFlippedVertical": false,
  "isLocked": false,
  "isVisible": true,
  "layerListExpandedType": 0,
  "layers": [
    {
      "class": "symbolInstance",
      "id": "89D4E3B5-CE20-464B-A1AA-2517D2652B75"
    },
    {
      "class": "symbolInstance",
      "id": "BBF3F369-A586-43E9-B193-4689382FA6E4"
    },
    {
      "class": "symbolInstance",
      "id": "53F6BDFE-A21F-4029-ADDD-F1E2A621BD66"
    },
    {
      "class": "symbolInstance",
      "id": "1F4E432E-F6B4-48F7-A7EF-B9A7D427F785"
    },
    {
      "class": "symbolInstance",
      "id": "B4B5F39A-407D-4353-A8F4-72D6054702C3"
    },
    {
      "class": "symbolInstance",
      "id": "850D5247-EFA7-482D-9B17-67EE10BE2CF1"
    },
    {
      "class": "symbolInstance",
      "id": "738D6D13-D6B7-4A7D-957E-7831E90EC480"
    },
    {
      "class": "symbolInstance",
      "id": "AC43E7BB-E2C4-41C0-A357-F03B7E1486CC"
    }
  ],
  "name": "Active",
  "nameIsFixed": true,
  "resizingConstraint": 63,
  "resizingType": 0,
  "rotation": 0,
  "shouldBreakMaskChain": false,
  "style": {
    "_class": "style",
    "do_objectID": "32B333FB-8042-4117-832B-721BCCB6C84C",
    "endMarkerType": 0,
    "miterLimit": 10,
    "startMarkerType": 0,
    "windingRule": 1
  }
}