{
  "_class": "symbolInstance",
  "booleanOperation": -1,
  "clippingMaskMode": 0,
  "do_objectID": "D19B8218-19EA-4B23-8612-CB9579A7428D",
  "exportOptions": {
    "_class": "exportOptions",
    "do_objectID": "CFE62A52-E672-4389-9EF5-EF406C4D8995",
    "exportFormats": [
    ],
    "includedLayerIds": [
    ],
    "layerOptions": 0,
    "shouldTrim": false
  },
  "frame": {
    "_class": "rect",
    "constrainProportions": false,
    "do_objectID": "036E99AC-4AE2-42D4-A1DF-881998FCE61F",
    "height": 165,
    "width": 309,
    "x": 0,
    "y": 0
  },
  "hasClippingMask": false,
  "horizontalSpacing": 0,
  "isFixedToViewport": false,
  "isFlippedHorizontal": false,
  "isFlippedVertical": false,
  "isLocked": false,
  "isVisible": true,
  "layerListExpandedType": 0,
  "name": "Components/Tile/expandable/default",
  "nameIsFixed": false,
  "overrideValues": [
  ],
  "resizingConstraint": 63,
  "resizingType": 0,
  "rotation": 0,
  "scale": 1,
  "shouldBreakMaskChain": false,
  "style": {
    "_class": "style",
    "do_objectID": "A515945D-112C-45DA-A544-02BE11CD4A63",
    "endMarkerType": 0,
    "miterLimit": 10,
    "startMarkerType": 0,
    "windingRule": 1
  },
  "symbolID": "309AFB21-C8E5-4FD9-A7AF-ABCC9422045E",
  "verticalSpacing": 0
}