{
  "_class": "group",
  "booleanOperation": 0,
  "clippingMaskMode": 0,
  "do_objectID": "E7FC55AD-9CF6-441C-8C5D-522282DAEC5B",
  "exportOptions": {
    "_class": "exportOptions",
    "do_objectID": "C6BFD75B-B3BA-4D83-ADFF-53D7F7F87715",
    "exportFormats": [
    ],
    "includedLayerIds": [
    ],
    "layerOptions": 0,
    "shouldTrim": false
  },
  "frame": {
    "_class": "rect",
    "constrainProportions": true,
    "do_objectID": "0ED1928A-E626-441D-997D-48C1132BAAB2",
    "height": 483,
    "width": 435,
    "x": 30,
    "y": 0
  },
  "groupLayout": {
    "_class": "MSImmutableFreeformGroupLayout",
    "do_objectID": "D9B94BB2-D45A-4FD9-A468-4EDC21BC3A05"
  },
  "hasClickThrough": false,
  "hasClippingMask": false,
  "isFixedToViewport": false,
  "isFlippedHorizontal": false,
  "isFlippedVertical": false,
  "isLocked": false,
  "isVisible": true,
  "layerListExpandedType": 0,
  "layers": [
    {
      "class": "group",
      "id": "2B3554D7-B46F-458B-A968-D854F5267E75"
    }
  ],
  "name": "Group 3",
  "nameIsFixed": false,
  "resizingConstraint": 63,
  "resizingType": 0,
  "rotation": 0,
  "shouldBreakMaskChain": false,
  "style": {
    "_class": "style",
    "do_objectID": "F24D9B41-AF10-461D-BDA2-FB63D00BE63F",
    "endMarkerType": 0,
    "miterLimit": 10,
    "startMarkerType": 0,
    "windingRule": 1
  }
}