{
  "_class": "group",
  "booleanOperation": -1,
  "clippingMaskMode": 0,
  "do_objectID": "DBFB7665-6B80-4E17-8ED4-F783EBE87B95",
  "exportOptions": {
    "_class": "exportOptions",
    "exportFormats": [
    ],
    "includedLayerIds": [
    ],
    "layerOptions": 0,
    "shouldTrim": false
  },
  "frame": {
    "_class": "rect",
    "constrainProportions": false,
    "height": 235,
    "width": 375,
    "x": 0,
    "y": 432
  },
  "groupLayout": {
    "_class": "MSImmutableFreeformGroupLayout"
  },
  "hasClickThrough": false,
  "hasClippingMask": false,
  "isFixedToViewport": true,
  "isFlippedHorizontal": false,
  "isFlippedVertical": false,
  "isLocked": false,
  "isVisible": true,
  "layerListExpandedType": 0,
  "layers": [
    {
      "class": "rectangle",
      "id": "F57451A9-3247-441E-9B89-C8745EC4B745"
    },
    {
      "class": "symbolInstance",
      "id": "E85C3B46-7F59-42AE-A9C6-9AB6149CC4D8"
    },
    {
      "class": "symbolInstance",
      "id": "2CFE5C3E-2F60-4A50-B719-B4CC50DFBF5B"
    },
    {
      "class": "group",
      "id": "A5781DCA-FB65-48C6-A766-1D17B342C795"
    },
    {
      "class": "group",
      "id": "708C669E-A344-43D9-B6BD-C13D32C3C203"
    },
    {
      "class": "text",
      "id": "5C8425E3-F4FA-4713-AC89-2F0ADF6A7092"
    },
    {
      "class": "text",
      "id": "96B033FC-7E40-4567-A0F4-0C396BFC2223"
    },
    {
      "class": "text",
      "id": "1B23CFA0-612F-4373-8653-BF3E4D84EED3"
    },
    {
      "class": "group",
      "id": "063F6C6D-1E5C-4CC8-B499-2BA3BB88B9BC"
    },
    {
      "class": "rectangle",
      "id": "C930DAE5-844D-4DE3-AD2F-30C93CA8BF85"
    }
  ],
  "maintainScrollPosition": false,
  "name": "Group 7",
  "nameIsFixed": false,
  "resizingConstraint": 63,
  "resizingType": 0,
  "rotation": 0,
  "shouldBreakMaskChain": false,
  "style": {
    "_class": "style",
    "blur": {
      "_class": "blur",
      "center": "{0.5, 0.5}",
      "isEnabled": false,
      "motionAngle": 0,
      "radius": 10,
      "saturation": 1,
      "type": 0
    },
    "borderOptions": {
      "_class": "borderOptions",
      "dashPattern": [
      ],
      "isEnabled": true,
      "lineCapStyle": 0,
      "lineJoinStyle": 0
    },
    "borders": [
    ],
    "colorControls": {
      "_class": "colorControls",
      "brightness": 0,
      "contrast": 1,
      "hue": 0,
      "isEnabled": true,
      "saturation": 1
    },
    "contextSettings": {
      "_class": "graphicsContextSettings",
      "blendMode": 0,
      "opacity": 1
    },
    "do_objectID": "3CEE95DC-06C1-4822-A90C-9AA2D62D6C79",
    "endMarkerType": 0,
    "fills": [
    ],
    "innerShadows": [
    ],
    "miterLimit": 10,
    "shadows": [
    ],
    "startMarkerType": 0,
    "windingRule": 1
  }
}