{
  "_class": "symbolInstance",
  "booleanOperation": -1,
  "clippingMaskMode": 0,
  "do_objectID": "6F154A4F-2931-4D2A-91D3-BD3A5C99E53A",
  "exportOptions": {
    "_class": "exportOptions",
    "do_objectID": "6DBB5093-CEA8-441C-AF0A-67E40E4DE704",
    "exportFormats": [
    ],
    "includedLayerIds": [
    ],
    "layerOptions": 0,
    "shouldTrim": false
  },
  "frame": {
    "_class": "rect",
    "constrainProportions": false,
    "do_objectID": "0C43F615-AB90-4D61-8A53-0F731D88C8DA",
    "height": 20,
    "width": 20,
    "x": 524,
    "y": 14
  },
  "hasClippingMask": false,
  "horizontalSpacing": 0,
  "isFixedToViewport": false,
  "isFlippedHorizontal": false,
  "isFlippedVertical": false,
  "isLocked": true,
  "isVisible": true,
  "layerListExpandedType": 0,
  "name": "icon / navigation / close / 20",
  "nameIsFixed": false,
  "overrideValues": [
    {
      "_class": "overrideValue",
      "do_objectID": "6541CF42-AE12-45AB-A3EF-8EB27C018FA7",
      "overrideName": "8E4FAAE6-F0AF-4BAA-B2D1-78C5288BB957_layerStyle",
      "value": "D0DA068B-AED0-4F82-9D5A-7C3A267B1AB1"
    }
  ],
  "resizingConstraint": 12,
  "resizingType": 0,
  "rotation": 0,
  "scale": 1,
  "shouldBreakMaskChain": false,
  "style": {
    "_class": "style",
    "do_objectID": "7BA979C1-3EC6-4034-B033-38B85A003A47",
    "endMarkerType": 0,
    "miterLimit": 10,
    "startMarkerType": 0,
    "windingRule": 1
  },
  "symbolID": "E9CA1EF6-4803-4BC5-B058-719C20519785",
  "verticalSpacing": 0
}