{
  "_class": "symbolInstance",
  "booleanOperation": 0,
  "clippingMaskMode": 0,
  "do_objectID": "F9C29D54-E917-4E57-B2FB-2BD44C4DAEFB",
  "exportOptions": {
    "_class": "exportOptions",
    "do_objectID": "E9EE7E8B-D4F2-478B-A82E-6C19C5C4B976",
    "exportFormats": [
    ],
    "includedLayerIds": [
    ],
    "layerOptions": 0,
    "shouldTrim": false
  },
  "frame": {
    "_class": "rect",
    "constrainProportions": false,
    "do_objectID": "305BE444-8370-4B27-B399-945D32FA95A3",
    "height": 24,
    "width": 56,
    "x": 9,
    "y": 0
  },
  "hasClippingMask": false,
  "horizontalSpacing": 0,
  "isFixedToViewport": false,
  "isFlippedHorizontal": false,
  "isFlippedVertical": false,
  "isLocked": false,
  "isVisible": true,
  "layerListExpandedType": 0,
  "name": "Component/Select/Small/Enabled",
  "nameIsFixed": false,
  "overrideValues": [
  ],
  "resizingConstraint": 63,
  "resizingType": 0,
  "rotation": 0,
  "scale": 1,
  "shouldBreakMaskChain": false,
  "style": {
    "_class": "style",
    "do_objectID": "C36AB90C-4EAB-4152-918E-042F81B83EFB",
    "endMarkerType": 0,
    "miterLimit": 10,
    "startMarkerType": 0,
    "windingRule": 1
  },
  "symbolID": "5560E2D9-059C-4B82-AA99-6CF30D211AA1",
  "verticalSpacing": 0
}