{
  "_class": "symbolMaster",
  "allowsOverrides": true,
  "backgroundColor": {
    "_class": "color",
    "alpha": 1,
    "blue": 1,
    "do_objectID": "47A1F285-CB31-4D4E-B87D-5D0F8BAA21F7",
    "green": 1,
    "red": 1
  },
  "booleanOperation": -1,
  "changeIdentifier": 965,
  "clippingMaskMode": 0,
  "do_objectID": "3C5C5BCF-A39B-407C-9139-52C40DB92065",
  "exportOptions": {
    "_class": "exportOptions",
    "do_objectID": "A9BA3065-7CD4-4490-B04D-01D08BFA29F6",
    "exportFormats": [
    ],
    "includedLayerIds": [
    ],
    "layerOptions": 0,
    "shouldTrim": false
  },
  "frame": {
    "_class": "rect",
    "constrainProportions": false,
    "do_objectID": "3C91B2DE-4547-430C-8142-A11EB9CD3C8D",
    "height": 82,
    "width": 288,
    "x": 105775,
    "y": 528
  },
  "groupLayout": {
    "_class": "MSImmutableFreeformGroupLayout",
    "do_objectID": "D2082F54-85D4-4426-AE75-00E9FD7C3480"
  },
  "hasBackgroundColor": false,
  "hasClickThrough": true,
  "hasClippingMask": false,
  "horizontalRulerData": {
    "_class": "rulerData",
    "base": 0,
    "do_objectID": "F25F69BC-BA4B-4F30-A036-7E0AEAFD8CAF",
    "guides": [
    ]
  },
  "includeBackgroundColorInExport": true,
  "includeBackgroundColorInInstance": false,
  "includeInCloudUpload": true,
  "isFixedToViewport": false,
  "isFlippedHorizontal": false,
  "isFlippedVertical": false,
  "isFlowHome": false,
  "isLocked": false,
  "isVisible": true,
  "layerListExpandedType": 2,
  "layers": [
    {
      "class": "rectangle",
      "id": "F632417C-EDD2-4684-B2A1-794F22455B62"
    },
    {
      "class": "text",
      "id": "A516ED0F-09FE-4FCF-830C-F55423246261"
    },
    {
      "class": "text",
      "id": "5FF2F67E-1192-4504-8A15-07DA29AC1A86"
    },
    {
      "class": "text",
      "id": "58B2776B-537E-4E36-86B5-309E9B4A4267"
    }
  ],
  "name": "text input / 05 helper text / 05 disabled",
  "nameIsFixed": true,
  "overrideProperties": [
    {
      "_class": "MSImmutableOverrideProperty",
      "canOverride": true,
      "overrideName": "5FF2F67E-1192-4504-8A15-07DA29AC1A86_stringValue"
    },
    {
      "_class": "MSImmutableOverrideProperty",
      "canOverride": true,
      "overrideName": "58B2776B-537E-4E36-86B5-309E9B4A4267_stringValue"
    },
    {
      "_class": "MSImmutableOverrideProperty",
      "canOverride": false,
      "overrideName": "5FF2F67E-1192-4504-8A15-07DA29AC1A86_textStyle"
    },
    {
      "_class": "MSImmutableOverrideProperty",
      "canOverride": false,
      "overrideName": "A516ED0F-09FE-4FCF-830C-F55423246261_textStyle"
    },
    {
      "_class": "MSImmutableOverrideProperty",
      "canOverride": false,
      "overrideName": "58B2776B-537E-4E36-86B5-309E9B4A4267_textStyle"
    },
    {
      "_class": "MSImmutableOverrideProperty",
      "canOverride": true,
      "overrideName": "A516ED0F-09FE-4FCF-830C-F55423246261_stringValue"
    },
    {
      "_class": "MSImmutableOverrideProperty",
      "canOverride": true,
      "overrideName": "F632417C-EDD2-4684-B2A1-794F22455B62_layerStyle"
    }
  ],
  "resizesContent": true,
  "resizingConstraint": 63,
  "resizingType": 0,
  "rotation": 0,
  "shouldBreakMaskChain": true,
  "style": {
    "_class": "style",
    "do_objectID": "CD9498DF-9DD2-44DD-81D1-0FC11E39A729",
    "endMarkerType": 0,
    "miterLimit": 10,
    "startMarkerType": 0,
    "windingRule": 1
  },
  "symbolID": "D25DF3B1-B199-4A98-81F1-A18DEBCC9004",
  "verticalRulerData": {
    "_class": "rulerData",
    "base": 0,
    "do_objectID": "B508FE15-A957-4450-A662-5B64FCF37D63",
    "guides": [
    ]
  }
}