{
  "_class": "shapePath",
  "booleanOperation": -1,
  "clippingMaskMode": 0,
  "do_objectID": "E297339F-ABDE-41DF-AB9B-A77BED97DAE2",
  "edited": true,
  "exportOptions": {
    "_class": "exportOptions",
    "exportFormats": [
    ],
    "includedLayerIds": [
    ],
    "layerOptions": 0,
    "shouldTrim": false
  },
  "frame": {
    "_class": "rect",
    "constrainProportions": false,
    "height": 4.209526633725824,
    "width": 2.629485315498683,
    "x": 1.208141901715797,
    "y": 1.195983013822886
  },
  "hasClippingMask": false,
  "isClosed": true,
  "isFixedToViewport": false,
  "isFlippedHorizontal": false,
  "isFlippedVertical": false,
  "isLocked": false,
  "isVisible": true,
  "layerListExpandedType": 0,
  "maintainScrollPosition": false,
  "name": "Path",
  "nameIsFixed": false,
  "pointRadiusBehaviour": 0,
  "points": [
    {
      "_class": "curvePoint",
      "cornerRadius": 0,
      "curveFrom": "{0.5945945945945933, 0.96309391239627729}",
      "curveMode": 4,
      "curveTo": "{0.75675675675676213, 0.87889501923331781}",
      "hasCurveFrom": true,
      "hasCurveTo": false,
      "point": "{0.75675675675676213, 0.87889501923331781}"
    },
    {
      "_class": "curvePoint",
      "cornerRadius": 0,
      "curveFrom": "{0.13513513513513556, 0.99677346966146108}",
      "curveMode": 4,
      "curveTo": "{0.35135135135135548, 1.0136132482940532}",
      "hasCurveFrom": false,
      "hasCurveTo": true,
      "point": "{0.13513513513513556, 0.99677346966146108}"
    },
    {
      "_class": "curvePoint",
      "cornerRadius": 0,
      "curveFrom": "{0, 0.99677346966146108}",
      "curveMode": 1,
      "curveTo": "{0, 0.99677346966146108}",
      "hasCurveFrom": false,
      "hasCurveTo": false,
      "point": "{0, 0.99677346966146108}"
    },
    {
      "_class": "curvePoint",
      "cornerRadius": 0,
      "curveFrom": "{0, 0.0032265303385389729}",
      "curveMode": 1,
      "curveTo": "{0, 0.0032265303385389729}",
      "hasCurveFrom": false,
      "hasCurveTo": false,
      "point": "{0, 0.0032265303385389729}"
    },
    {
      "_class": "curvePoint",
      "cornerRadius": 0,
      "curveFrom": "{0.35135135135135548, -0.01361324829405287}",
      "curveMode": 4,
      "curveTo": "{0.13513513513513556, 0.0032265303385389729}",
      "hasCurveFrom": true,
      "hasCurveTo": false,
      "point": "{0.13513513513513556, 0.0032265303385389729}"
    },
    {
      "_class": "curvePoint",
      "cornerRadius": 0,
      "curveFrom": "{0.91891891891893096, 0.22214365256223353}",
      "curveMode": 4,
      "curveTo": "{0.5945945945945933, 0.036906087603722659}",
      "hasCurveFrom": true,
      "hasCurveTo": true,
      "point": "{0.75675675675676213, 0.12110498076668218}"
    },
    {
      "_class": "curvePoint",
      "cornerRadius": 0,
      "curveFrom": "{1, 0.64313811837703116}",
      "curveMode": 3,
      "curveTo": "{1, 0.35686188162296889}",
      "hasCurveFrom": true,
      "hasCurveTo": true,
      "point": "{1, 0.49158011068370394}"
    },
    {
      "_class": "curvePoint",
      "cornerRadius": 0,
      "curveFrom": "{0.75675675675676213, 0.87889501923331781}",
      "curveMode": 4,
      "curveTo": "{0.91891891891891564, 0.77785634743776622}",
      "hasCurveFrom": false,
      "hasCurveTo": true,
      "point": "{0.75675675675676213, 0.87889501923331781}"
    }
  ],
  "resizingConstraint": 63,
  "resizingType": 0,
  "rotation": 0,
  "shouldBreakMaskChain": false,
  "style": {
    "_class": "style",
    "blur": {
      "_class": "blur",
      "center": "{0.5, 0.5}",
      "isEnabled": false,
      "motionAngle": 0,
      "radius": 5.359940628349962,
      "saturation": 1,
      "type": 0
    },
    "borderOptions": {
      "_class": "borderOptions",
      "dashPattern": [
      ],
      "isEnabled": true,
      "lineCapStyle": 0,
      "lineJoinStyle": 0
    },
    "borders": [
    ],
    "colorControls": {
      "_class": "colorControls",
      "brightness": 0,
      "contrast": 1,
      "hue": 0,
      "isEnabled": true,
      "saturation": 1
    },
    "contextSettings": {
      "_class": "graphicsContextSettings",
      "blendMode": 0,
      "opacity": 1
    },
    "do_objectID": "87C86E4B-B999-40C5-9C94-7B13349D6E1D",
    "endMarkerType": 0,
    "fills": [
      {
        "_class": "fill",
        "color": {
          "_class": "color",
          "alpha": 1,
          "blue": 1,
          "green": 1,
          "red": 1
        },
        "contextSettings": {
          "_class": "graphicsContextSettings",
          "blendMode": 0,
          "opacity": 1
        },
        "fillType": 0,
        "gradient": {
          "_class": "gradient",
          "elipseLength": 0,
          "from": "{0.5, 0}",
          "gradientType": 0,
          "stops": [
            {
              "_class": "gradientStop",
              "color": {
                "_class": "color",
                "alpha": 1,
                "blue": 1,
                "green": 1,
                "red": 1
              },
              "position": 0
            },
            {
              "_class": "gradientStop",
              "color": {
                "_class": "color",
                "alpha": 1,
                "blue": 0,
                "green": 0,
                "red": 0
              },
              "position": 1
            }
          ],
          "to": "{0.5, 1}"
        },
        "isEnabled": true,
        "noiseIndex": 0,
        "noiseIntensity": 0,
        "patternFillType": 1,
        "patternTileScale": 1
      }
    ],
    "innerShadows": [
    ],
    "miterLimit": 10,
    "shadows": [
    ],
    "startMarkerType": 0,
    "windingRule": 1
  }
}