{
  "_class": "group",
  "booleanOperation": 0,
  "clippingMaskMode": 0,
  "do_objectID": "EFF9067D-EA75-4206-A17D-0BF56F1275A3",
  "exportOptions": {
    "_class": "exportOptions",
    "do_objectID": "9BF938DA-30C9-4985-B6A5-3A4F33D4B33D",
    "exportFormats": [
    ],
    "includedLayerIds": [
    ],
    "layerOptions": 0,
    "shouldTrim": false
  },
  "frame": {
    "_class": "rect",
    "constrainProportions": false,
    "do_objectID": "195E392C-7216-4270-BCE8-EFB03A912E4B",
    "height": 651,
    "width": 564,
    "x": 790,
    "y": 160
  },
  "groupLayout": {
    "_class": "MSImmutableFreeformGroupLayout",
    "do_objectID": "ED54C21D-297B-45CE-963F-4589AB3CE9F1"
  },
  "hasClickThrough": false,
  "hasClippingMask": false,
  "isFixedToViewport": false,
  "isFlippedHorizontal": false,
  "isFlippedVertical": false,
  "isLocked": false,
  "isVisible": true,
  "layerListExpandedType": 0,
  "layers": [
    {
      "class": "group",
      "id": "1FC63F6B-E4A7-47E3-96C4-51B8D04C45CB"
    },
    {
      "class": "group",
      "id": "6DF31C5A-BEE7-4356-9584-360AF399A60D"
    },
    {
      "class": "group",
      "id": "56B38018-3C84-4FD4-BEE1-5575C9A2E68A"
    },
    {
      "class": "group",
      "id": "167B9AA2-405A-413E-9103-7AB57E1AEBA3"
    },
    {
      "class": "group",
      "id": "13AE3B03-2F88-40F9-A943-939AC97CAF55"
    },
    {
      "class": "group",
      "id": "88362739-A1DD-48EF-A67D-46C9839E09AA"
    },
    {
      "class": "group",
      "id": "8042F7BB-5426-4468-8F0B-21D479AF66A8"
    },
    {
      "class": "rectangle",
      "id": "475D4172-A8EE-4343-9860-3DD276B3F4F9"
    },
    {
      "class": "group",
      "id": "53FA3BC8-D287-4E72-B237-0FC0D9E7CF14"
    },
    {
      "class": "text",
      "id": "0497039B-EB45-4695-8AAE-3E98ADE52216"
    },
    {
      "class": "text",
      "id": "ADBA4E5F-DC3D-42C0-A188-422A2F9762B4"
    },
    {
      "class": "text",
      "id": "D5990BDA-C8D2-4490-9898-67280F97F512"
    },
    {
      "class": "text",
      "id": "ECD7CEF1-A491-4CED-A0EB-59F774448C9F"
    },
    {
      "class": "text",
      "id": "D2E78F71-E34F-4B73-B611-6365F11708FF"
    },
    {
      "class": "group",
      "id": "8C2C7801-0738-4535-996D-35D16EF90131"
    }
  ],
  "name": "Group 14",
  "nameIsFixed": false,
  "resizingConstraint": 63,
  "resizingType": 0,
  "rotation": 0,
  "shouldBreakMaskChain": false,
  "style": {
    "_class": "style",
    "do_objectID": "19682C4D-504D-44F6-970B-0184FFA63BAB",
    "endMarkerType": 0,
    "miterLimit": 10,
    "startMarkerType": 0,
    "windingRule": 1
  }
}