{
  "_class": "group",
  "booleanOperation": 0,
  "clippingMaskMode": 0,
  "do_objectID": "446785CE-AD1B-466E-B9C9-483A867289EB",
  "exportOptions": {
    "_class": "exportOptions",
    "do_objectID": "61D2DC4E-6809-45B6-BCE3-A35058CD8CEE",
    "exportFormats": [
    ],
    "includedLayerIds": [
    ],
    "layerOptions": 0,
    "shouldTrim": false
  },
  "frame": {
    "_class": "rect",
    "constrainProportions": true,
    "do_objectID": "813231F9-78B5-4C28-830C-C66637545885",
    "height": 70,
    "width": 963,
    "x": 0,
    "y": 708
  },
  "groupLayout": {
    "_class": "MSImmutableFreeformGroupLayout",
    "do_objectID": "DF4CEED3-82D2-4572-AD13-CCFB3E44540D"
  },
  "hasClickThrough": false,
  "hasClippingMask": false,
  "isFixedToViewport": false,
  "isFlippedHorizontal": false,
  "isFlippedVertical": false,
  "isLocked": false,
  "isVisible": true,
  "layerListExpandedType": 0,
  "layers": [
    {
      "class": "rectangle",
      "id": "42C973C0-8D5D-40A9-9E6E-BE12E006C3F4"
    },
    {
      "class": "text",
      "id": "6DDB7B98-30AD-4904-8C4D-2030D7E3254C"
    },
    {
      "class": "shapePath",
      "id": "B026D627-A6D1-4BEF-A960-8D2FAFD3795E"
    },
    {
      "class": "group",
      "id": "95BCEDDC-E105-4F4E-9B70-A531FF72DD5D"
    }
  ],
  "name": "emi",
  "nameIsFixed": true,
  "resizingConstraint": 63,
  "resizingType": 0,
  "rotation": 0,
  "shouldBreakMaskChain": false,
  "style": {
    "_class": "style",
    "do_objectID": "5FF77CA2-B86C-437C-A7A2-77EE32C488FA",
    "endMarkerType": 0,
    "miterLimit": 10,
    "startMarkerType": 0,
    "windingRule": 1
  }
}