{
  "_class": "shapePath",
  "booleanOperation": -1,
  "clippingMaskMode": 0,
  "do_objectID": "AA65B8A9-82EC-41E0-B9BD-DD066A9C8CE4",
  "edited": true,
  "exportOptions": {
    "_class": "exportOptions",
    "exportFormats": [
    ],
    "includedLayerIds": [
    ],
    "layerOptions": 0,
    "shouldTrim": false
  },
  "frame": {
    "_class": "rect",
    "constrainProportions": true,
    "height": 19.01869558251422,
    "width": 20.0837068816428,
    "x": 0,
    "y": 0
  },
  "hasClippingMask": false,
  "isClosed": true,
  "isFixedToViewport": false,
  "isFlippedHorizontal": false,
  "isFlippedVertical": false,
  "isLocked": false,
  "isVisible": true,
  "layerListExpandedType": 2,
  "maintainScrollPosition": false,
  "name": "Shape",
  "nameIsFixed": false,
  "pointRadiusBehaviour": 0,
  "points": [
    {
      "_class": "curvePoint",
      "cornerRadius": 0,
      "curveFrom": "{0.19831983279903168, 0.99995446289381795}",
      "curveMode": 2,
      "curveTo": "{0.20487106020331231, 0.99995446289381795}",
      "hasCurveFrom": true,
      "hasCurveTo": true,
      "point": "{0.20202503518341991, 0.99995446289381795}"
    },
    {
      "_class": "curvePoint",
      "cornerRadius": 0,
      "curveFrom": "{0.18598705771283125, 0.99215860893464125}",
      "curveMode": 2,
      "curveTo": "{0.19461463041464344, 0.99875221071698106}",
      "hasCurveFrom": true,
      "hasCurveTo": true,
      "point": "{0.19150011246834611, 0.99636649155357027}"
    },
    {
      "_class": "curvePoint",
      "cornerRadius": 0,
      "curveFrom": "{0.18439399968282857, 0.97799457547628155}",
      "curveMode": 4,
      "curveTo": "{0.1832305303350738, 0.98503902182493519}",
      "hasCurveFrom": false,
      "hasCurveTo": true,
      "point": "{0.18439399968282857, 0.97799457547628155}"
    },
    {
      "_class": "curvePoint",
      "cornerRadius": 0,
      "curveFrom": "{0.23972144205067414, 0.63952301731617167}",
      "curveMode": 1,
      "curveTo": "{0.23972144205067414, 0.63952301731617167}",
      "hasCurveFrom": false,
      "hasCurveTo": false,
      "point": "{0.23972144205067414, 0.63952301731617167}"
    },
    {
      "_class": "curvePoint",
      "cornerRadius": 0,
      "curveFrom": "{0.00053004368072248349, 0.39484591413960207}",
      "curveMode": 4,
      "curveTo": "{0.0053987154128654789, 0.39984277474958041}",
      "hasCurveFrom": true,
      "hasCurveTo": false,
      "point": "{0.0053987154128654789, 0.39984277474958041}"
    },
    {
      "_class": "curvePoint",
      "cornerRadius": 0,
      "curveFrom": "{0.0029822790752209779, 0.37380650104495661}",
      "curveMode": 2,
      "curveTo": "{-0.0012241101051231539, 0.3873881936051608}",
      "hasCurveFrom": true,
      "hasCurveTo": true,
      "point": "{0.00087013472083541366, 0.38060673992019023}"
    },
    {
      "_class": "curvePoint",
      "cornerRadius": 0,
      "curveFrom": "{0.015332953689848428, 0.36781402535103519}",
      "curveMode": 4,
      "curveTo": "{0.0085848314728708217, 0.36884721081550437}",
      "hasCurveFrom": false,
      "hasCurveTo": true,
      "point": "{0.015332953689848428, 0.36781402535103519}"
    },
    {
      "_class": "curvePoint",
      "cornerRadius": 0,
      "curveFrom": "{0.33913542293421162, 0.31842776014940738}",
      "curveMode": 1,
      "curveTo": "{0.33913542293421162, 0.31842776014940738}",
      "hasCurveFrom": false,
      "hasCurveTo": false,
      "point": "{0.33913542293421162, 0.31842776014940738}"
    },
    {
      "_class": "curvePoint",
      "cornerRadius": 0,
      "curveFrom": "{0.48696762821277401, 0.0040576010968244938}",
      "curveMode": 4,
      "curveTo": "{0.48396050743703867, 0.010482136166796611}",
      "hasCurveFrom": true,
      "hasCurveTo": false,
      "point": "{0.48396050743703867, 0.010482136166796611}"
    },
    {
      "_class": "curvePoint",
      "cornerRadius": 0,
      "curveFrom": "{0.49999848490762738, 0}",
      "curveMode": 4,
      "curveTo": "{0.49319666410536872, 0}",
      "hasCurveFrom": false,
      "hasCurveTo": true,
      "point": "{0.49999848490762738, 0}"
    },
    {
      "_class": "curvePoint",
      "cornerRadius": 0,
      "curveFrom": "{0.506818205238313, 0}",
      "curveMode": 4,
      "curveTo": "{0.49999848490762738, 0}",
      "hasCurveFrom": true,
      "hasCurveTo": false,
      "point": "{0.49999848490762738, 0}"
    },
    {
      "_class": "curvePoint",
      "cornerRadius": 0,
      "curveFrom": "{0.5160364623782161, 0.010482136166796611}",
      "curveMode": 4,
      "curveTo": "{0.51304724113090761, 0.0040576010968244938}",
      "hasCurveFrom": false,
      "hasCurveTo": true,
      "point": "{0.5160364623782161, 0.010482136166796611}"
    },
    {
      "_class": "curvePoint",
      "cornerRadius": 0,
      "curveFrom": "{0.66084364735261636, 0.31842776014940738}",
      "curveMode": 1,
      "curveTo": "{0.66084364735261636, 0.31842776014940738}",
      "hasCurveFrom": false,
      "hasCurveTo": false,
      "point": "{0.66084364735261636, 0.31842776014940738}"
    },
    {
      "_class": "curvePoint",
      "cornerRadius": 0,
      "curveFrom": "{0.99141213834238417, 0.36884721081550437}",
      "curveMode": 4,
      "curveTo": "{0.98466401612540655, 0.36781402535103519}",
      "hasCurveFrom": true,
      "hasCurveTo": false,
      "point": "{0.98466401612540655, 0.36781402535103519}"
    },
    {
      "_class": "curvePoint",
      "cornerRadius": 0,
      "curveFrom": "{1.001221079920378, 0.3873881936051608}",
      "curveMode": 2,
      "curveTo": "{0.996996791211607, 0.3737877158546935}",
      "hasCurveFrom": true,
      "hasCurveTo": true,
      "point": "{0.99912683509441957, 0.38060673992019023}"
    },
    {
      "_class": "curvePoint",
      "cornerRadius": 0,
      "curveFrom": "{0.99459825440238947, 0.39984277474958041}",
      "curveMode": 4,
      "curveTo": "{0.99948482566295949, 0.39486469932986518}",
      "hasCurveFrom": false,
      "hasCurveTo": true,
      "point": "{0.99459825440238947, 0.39984277474958041}"
    },
    {
      "_class": "curvePoint",
      "cornerRadius": 0,
      "curveFrom": "{0.76027552776458074, 0.63956058769669788}",
      "curveMode": 1,
      "curveTo": "{0.76027552776458074, 0.63956058769669788}",
      "hasCurveFrom": false,
      "hasCurveTo": false,
      "point": "{0.76027552776458074, 0.63956058769669788}"
    },
    {
      "_class": "curvePoint",
      "cornerRadius": 0,
      "curveFrom": "{0.8167306404233271, 0.98505780701519829}",
      "curveMode": 4,
      "curveTo": "{0.81558507060399932, 0.97801336066654465}",
      "hasCurveFrom": true,
      "hasCurveTo": false,
      "point": "{0.81558507060399932, 0.97801336066654465}"
    },
    {
      "_class": "curvePoint",
      "cornerRadius": 0,
      "curveFrom": "{0.80296590306296689, 1.0006307297432886}",
      "curveMode": 2,
      "curveTo": "{0.81397411304556955, 0.99217739412490413}",
      "hasCurveFrom": true,
      "hasCurveTo": true,
      "point": "{0.80847895781848178, 0.99638527674383337}"
    },
    {
      "_class": "curvePoint",
      "cornerRadius": 0,
      "curveFrom": "{0.78961285485642763, 0.99781295120382718}",
      "curveMode": 4,
      "curveTo": "{0.79564499593632543, 1.0011755002609179}",
      "hasCurveFrom": false,
      "hasCurveTo": true,
      "point": "{0.78961285485642763, 0.99781295120382718}"
    },
    {
      "_class": "curvePoint",
      "cornerRadius": 0,
      "curveFrom": "{0.49999848490762738, 0.83802612282609967}",
      "curveMode": 1,
      "curveTo": "{0.49999848490762738, 0.83802612282609967}",
      "hasCurveFrom": false,
      "hasCurveTo": false,
      "point": "{0.49999848490762738, 0.83802612282609967}"
    },
    {
      "_class": "curvePoint",
      "cornerRadius": 0,
      "curveFrom": "{0.20773498475163171, 0.99924062566382099}",
      "curveMode": 4,
      "curveTo": "{0.21034831590197317, 0.99781295120382718}",
      "hasCurveFrom": true,
      "hasCurveTo": false,
      "point": "{0.21034831590197317, 0.99781295120382718}"
    }
  ],
  "resizingConstraint": 63,
  "resizingType": 0,
  "rotation": 0,
  "shouldBreakMaskChain": false,
  "style": {
    "_class": "style",
    "blur": {
      "_class": "blur",
      "center": "{0.5, 0.5}",
      "isEnabled": false,
      "motionAngle": 0,
      "radius": 10,
      "saturation": 1,
      "type": 0
    },
    "borderOptions": {
      "_class": "borderOptions",
      "dashPattern": [
      ],
      "isEnabled": true,
      "lineCapStyle": 0,
      "lineJoinStyle": 0
    },
    "borders": [
    ],
    "colorControls": {
      "_class": "colorControls",
      "brightness": 0,
      "contrast": 1,
      "hue": 0,
      "isEnabled": false,
      "saturation": 1
    },
    "contextSettings": {
      "_class": "graphicsContextSettings",
      "blendMode": 0,
      "opacity": 1
    },
    "do_objectID": "D84DCF74-94A6-4903-B13F-60055757C0D7",
    "endMarkerType": 0,
    "fills": [
      {
        "_class": "fill",
        "color": {
          "_class": "color",
          "alpha": 1,
          "blue": 0.2902374565601349,
          "green": 0.2901752889156342,
          "red": 0.290221631526947
        },
        "contextSettings": {
          "_class": "graphicsContextSettings",
          "blendMode": 0,
          "opacity": 1
        },
        "fillType": 0,
        "gradient": {
          "_class": "gradient",
          "elipseLength": 0,
          "from": "{0.5, 0}",
          "gradientType": 0,
          "stops": [
            {
              "_class": "gradientStop",
              "color": {
                "_class": "color",
                "alpha": 1,
                "blue": 1,
                "green": 1,
                "red": 1
              },
              "position": 0
            },
            {
              "_class": "gradientStop",
              "color": {
                "_class": "color",
                "alpha": 1,
                "blue": 0,
                "green": 0,
                "red": 0
              },
              "position": 1
            }
          ],
          "to": "{0.5, 1}"
        },
        "isEnabled": true,
        "noiseIndex": 0,
        "noiseIntensity": 0,
        "patternFillType": 1,
        "patternTileScale": 1
      }
    ],
    "innerShadows": [
    ],
    "miterLimit": 10,
    "shadows": [
    ],
    "startMarkerType": 0,
    "windingRule": 0
  }
}