{
  "_class": "group",
  "booleanOperation": -1,
  "clippingMaskMode": 0,
  "do_objectID": "D671EBE1-797D-418E-9B42-91900CCE1D3F",
  "exportOptions": {
    "_class": "exportOptions",
    "do_objectID": "55280665-917F-41AF-AF56-7C35E2F58074",
    "exportFormats": [
    ],
    "includedLayerIds": [
    ],
    "layerOptions": 0,
    "shouldTrim": false
  },
  "frame": {
    "_class": "rect",
    "constrainProportions": false,
    "do_objectID": "7A3392BD-B05E-4057-BDD9-585F50E46055",
    "height": 400,
    "width": 256,
    "x": 576,
    "y": 0
  },
  "groupLayout": {
    "_class": "MSImmutableFreeformGroupLayout",
    "do_objectID": "FEF0D79E-B487-4C79-A81E-C8925B69919E"
  },
  "hasClickThrough": false,
  "hasClippingMask": false,
  "isFixedToViewport": false,
  "isFlippedHorizontal": false,
  "isFlippedVertical": false,
  "isLocked": false,
  "isVisible": true,
  "layerListExpandedType": 0,
  "layers": [
    {
      "class": "symbolInstance",
      "id": "AEC553A7-0346-42B8-ACC0-20F742A7995C"
    },
    {
      "class": "symbolInstance",
      "id": "67C6FDAA-665E-4B3C-B6D2-19574FE5C0F8"
    },
    {
      "class": "symbolInstance",
      "id": "9B6E740F-9895-40FA-8E91-253E62B69340"
    },
    {
      "class": "symbolInstance",
      "id": "D9E38ED3-8009-4D60-A9DC-A8CBB4059F41"
    },
    {
      "class": "symbolInstance",
      "id": "4B300F27-7D2C-4115-9925-C71344596890"
    }
  ],
  "name": "Focus",
  "nameIsFixed": true,
  "resizingConstraint": 63,
  "resizingType": 0,
  "rotation": 0,
  "shouldBreakMaskChain": false,
  "style": {
    "_class": "style",
    "do_objectID": "B3A30A3A-C3A5-4429-B1D0-C337B5BD799F",
    "endMarkerType": 0,
    "miterLimit": 10,
    "startMarkerType": 0,
    "windingRule": 1
  }
}