{
  "_class": "group",
  "booleanOperation": 0,
  "clippingMaskMode": 0,
  "do_objectID": "A24A8763-AB10-419F-9691-2AA98AE10DC6",
  "exportOptions": {
    "_class": "exportOptions",
    "do_objectID": "8FEA90AE-96B8-4CCA-A7E9-B0C107C657FD",
    "exportFormats": [
    ],
    "includedLayerIds": [
    ],
    "layerOptions": 0,
    "shouldTrim": false
  },
  "frame": {
    "_class": "rect",
    "constrainProportions": true,
    "do_objectID": "4B413ADF-7747-41BC-9528-C304AE456A3E",
    "height": 12,
    "width": 13,
    "x": 14.47272727272728,
    "y": 0
  },
  "groupLayout": {
    "_class": "MSImmutableFreeformGroupLayout",
    "do_objectID": "0DE29FB6-6A9D-4379-8D28-80A2503BF7F8"
  },
  "hasClickThrough": false,
  "hasClippingMask": false,
  "isFixedToViewport": false,
  "isFlippedHorizontal": false,
  "isFlippedVertical": false,
  "isLocked": false,
  "isVisible": true,
  "layerListExpandedType": 0,
  "layers": [
    {
      "class": "shapePath",
      "id": "1FADBB87-391E-4BB8-8A7D-2D809FC23CFF"
    }
  ],
  "name": "star icon",
  "nameIsFixed": true,
  "resizingConstraint": 63,
  "resizingType": 0,
  "rotation": 0,
  "shouldBreakMaskChain": false,
  "style": {
    "_class": "style",
    "do_objectID": "0AB2763A-5369-48B5-8239-75F4A1A5C32A",
    "endMarkerType": 0,
    "miterLimit": 10,
    "startMarkerType": 0,
    "windingRule": 1
  }
}