{
  "_class": "shapePath",
  "booleanOperation": -1,
  "clippingMaskMode": 0,
  "do_objectID": "0DC0BDBF-60B1-455E-A5A1-81076D2908B1",
  "edited": true,
  "exportOptions": {
    "_class": "exportOptions",
    "exportFormats": [
    ],
    "includedLayerIds": [
    ],
    "layerOptions": 0,
    "shouldTrim": false
  },
  "frame": {
    "_class": "rect",
    "constrainProportions": false,
    "height": 1.620138974358973,
    "width": 4.46733471798441,
    "x": 15.32922773973263,
    "y": 21.45514120888311
  },
  "hasClippingMask": false,
  "isClosed": true,
  "isFixedToViewport": false,
  "isFlippedHorizontal": false,
  "isFlippedVertical": false,
  "isLocked": false,
  "isVisible": true,
  "layerListExpandedType": 0,
  "maintainScrollPosition": false,
  "name": "Rectangle",
  "nameIsFixed": false,
  "pointRadiusBehaviour": 0,
  "points": [
    {
      "_class": "curvePoint",
      "cornerRadius": 0,
      "curveFrom": "{-3.0922410247391548e-14, 0.22385765576924072}",
      "curveMode": 4,
      "curveTo": "{-3.0922410247391548e-14, 0.49999999999991962}",
      "hasCurveFrom": true,
      "hasCurveTo": false,
      "point": "{-3.0922410247391548e-14, 0.49999999999991962}"
    },
    {
      "_class": "curvePoint",
      "cornerRadius": 0,
      "curveFrom": "{0.18312447945761978, -8.0718777496506095e-14}",
      "curveMode": 4,
      "curveTo": "{0.081834196578678853, -8.0718777496506095e-14}",
      "hasCurveFrom": false,
      "hasCurveTo": true,
      "point": "{0.18312447945761978, -8.0718777496506095e-14}"
    },
    {
      "_class": "curvePoint",
      "cornerRadius": 0,
      "curveFrom": "{0.9999999999999688, -8.0718777496506095e-14}",
      "curveMode": 1,
      "curveTo": "{0.9999999999999688, -8.0718777496506095e-14}",
      "hasCurveFrom": false,
      "hasCurveTo": false,
      "point": "{0.9999999999999688, -8.0718777496506095e-14}"
    },
    {
      "_class": "curvePoint",
      "cornerRadius": 0,
      "curveFrom": "{0.9999999999999688, 0.99999999999991929}",
      "curveMode": 1,
      "curveTo": "{0.9999999999999688, 0.99999999999991929}",
      "hasCurveFrom": false,
      "hasCurveTo": false,
      "point": "{0.9999999999999688, 0.99999999999991929}"
    },
    {
      "_class": "curvePoint",
      "cornerRadius": 0,
      "curveFrom": "{0.081987619053035823, 0.99999999999991929}",
      "curveMode": 4,
      "curveTo": "{0.18312447945761978, 0.99999999999991929}",
      "hasCurveFrom": true,
      "hasCurveTo": false,
      "point": "{0.18312447945761978, 0.99999999999991929}"
    },
    {
      "_class": "curvePoint",
      "cornerRadius": 0,
      "curveFrom": "{-3.0922410247391548e-14, 0.49999999999991962}",
      "curveMode": 4,
      "curveTo": "{-3.0922410247391548e-14, 0.77620311774448825}",
      "hasCurveFrom": false,
      "hasCurveTo": true,
      "point": "{-3.0922410247391548e-14, 0.49999999999991962}"
    }
  ],
  "resizingConstraint": 63,
  "resizingType": 0,
  "rotation": 135,
  "shouldBreakMaskChain": false,
  "style": {
    "_class": "style",
    "blur": {
      "_class": "blur",
      "center": "{0.5, 0.5}",
      "isEnabled": false,
      "motionAngle": 0,
      "radius": 10,
      "saturation": 1,
      "type": 0
    },
    "borderOptions": {
      "_class": "borderOptions",
      "dashPattern": [
      ],
      "isEnabled": true,
      "lineCapStyle": 0,
      "lineJoinStyle": 0
    },
    "borders": [
    ],
    "colorControls": {
      "_class": "colorControls",
      "brightness": 0,
      "contrast": 1,
      "hue": 0,
      "isEnabled": false,
      "saturation": 1
    },
    "contextSettings": {
      "_class": "graphicsContextSettings",
      "blendMode": 0,
      "opacity": 1
    },
    "do_objectID": "514AA951-112E-414A-BA2A-FD0B4BF4836D",
    "endMarkerType": 0,
    "fills": [
      {
        "_class": "fill",
        "color": {
          "_class": "color",
          "alpha": 1,
          "blue": 0.1764705882352941,
          "green": 0.1764705882352941,
          "red": 0.1764705882352941
        },
        "contextSettings": {
          "_class": "graphicsContextSettings",
          "blendMode": 0,
          "opacity": 1
        },
        "fillType": 0,
        "gradient": {
          "_class": "gradient",
          "elipseLength": 0,
          "from": "{0.5, 0}",
          "gradientType": 0,
          "stops": [
            {
              "_class": "gradientStop",
              "color": {
                "_class": "color",
                "alpha": 1,
                "blue": 1,
                "green": 1,
                "red": 1
              },
              "position": 0
            },
            {
              "_class": "gradientStop",
              "color": {
                "_class": "color",
                "alpha": 1,
                "blue": 0,
                "green": 0,
                "red": 0
              },
              "position": 1
            }
          ],
          "to": "{0.5, 1}"
        },
        "isEnabled": true,
        "noiseIndex": 0,
        "noiseIntensity": 0,
        "patternFillType": 1,
        "patternTileScale": 1
      }
    ],
    "innerShadows": [
    ],
    "miterLimit": 10,
    "shadows": [
    ],
    "startMarkerType": 0,
    "windingRule": 0
  }
}