{
  "_class": "group",
  "booleanOperation": 0,
  "clippingMaskMode": 0,
  "do_objectID": "5B7B9EAD-F318-47E6-83BC-8C34D628BB2A",
  "exportOptions": {
    "_class": "exportOptions",
    "do_objectID": "AFBCB5BA-8EE1-40B3-906D-AE90EB9B2D4E",
    "exportFormats": [
    ],
    "includedLayerIds": [
    ],
    "layerOptions": 0,
    "shouldTrim": false
  },
  "frame": {
    "_class": "rect",
    "constrainProportions": true,
    "do_objectID": "DB84B955-9AF3-4E42-9A53-D562B983B31C",
    "height": 12,
    "width": 13,
    "x": 0,
    "y": 0
  },
  "groupLayout": {
    "_class": "MSImmutableFreeformGroupLayout",
    "do_objectID": "71B25BFC-BA7D-4C1F-A7C7-184FFAAF1B04"
  },
  "hasClickThrough": false,
  "hasClippingMask": false,
  "isFixedToViewport": false,
  "isFlippedHorizontal": false,
  "isFlippedVertical": false,
  "isLocked": false,
  "isVisible": true,
  "layerListExpandedType": 0,
  "layers": [
    {
      "class": "shapePath",
      "id": "C8B31513-5DB4-4D50-9F58-28BAE4901C9C"
    }
  ],
  "name": "star icon",
  "nameIsFixed": true,
  "resizingConstraint": 63,
  "resizingType": 0,
  "rotation": 0,
  "shouldBreakMaskChain": false,
  "style": {
    "_class": "style",
    "do_objectID": "E21DE441-860F-49F8-AE39-C80685351E93",
    "endMarkerType": 0,
    "miterLimit": 10,
    "startMarkerType": 0,
    "windingRule": 1
  }
}