{
  "_class": "group",
  "booleanOperation": -1,
  "clippingMaskMode": 0,
  "do_objectID": "9DD3E990-5483-4134-B604-558AB78D43EB",
  "exportOptions": {
    "_class": "exportOptions",
    "do_objectID": "B40B0EBA-F11F-425A-8292-0D35417E0FC3",
    "exportFormats": [
    ],
    "includedLayerIds": [
    ],
    "layerOptions": 0,
    "shouldTrim": false
  },
  "frame": {
    "_class": "rect",
    "constrainProportions": false,
    "do_objectID": "1C7389A9-B8FB-4B8A-A9AB-4151915359B3",
    "height": 32,
    "width": 512,
    "x": 1,
    "y": 1899
  },
  "groupLayout": {
    "_class": "MSImmutableFreeformGroupLayout",
    "do_objectID": "BFABBCB9-D217-4B00-9724-AB5ED29E8407"
  },
  "hasClickThrough": false,
  "hasClippingMask": false,
  "isFixedToViewport": false,
  "isFlippedHorizontal": false,
  "isFlippedVertical": false,
  "isLocked": false,
  "isVisible": true,
  "layerListExpandedType": 0,
  "layers": [
    {
      "class": "rectangle",
      "id": "95BD923F-A5D2-403E-AC9E-4F1A39644452"
    },
    {
      "class": "rectangle",
      "id": "5F9354A9-3ADF-4EE4-8E58-9AA108ADEDCA"
    },
    {
      "class": "rectangle",
      "id": "DBAC8C99-E23B-4D7A-BC2C-A52BEE5B4ABD"
    },
    {
      "class": "rectangle",
      "id": "272D146A-870F-4EEC-BF4F-06DF8E5214BD"
    },
    {
      "class": "text",
      "id": "1A893768-3B06-4B38-B43F-A4DFF04BD364"
    },
    {
      "class": "symbolInstance",
      "id": "C4351832-0C54-4675-A6EB-0AB51369AB11"
    },
    {
      "class": "symbolInstance",
      "id": "831A85AB-A4F1-422A-9053-F43A7F617A02"
    }
  ],
  "name": "Focus (icon)",
  "nameIsFixed": true,
  "resizingConstraint": 63,
  "resizingType": 0,
  "rotation": 0,
  "shouldBreakMaskChain": false,
  "style": {
    "_class": "style",
    "do_objectID": "897F5DB1-DEB2-4B6C-96AC-68EDA27702A5",
    "endMarkerType": 0,
    "miterLimit": 10,
    "startMarkerType": 0,
    "windingRule": 1
  }
}