{
  "_class": "shapePath",
  "booleanOperation": -1,
  "clippingMaskMode": 0,
  "do_objectID": "5B825EA9-4192-4ACA-A78B-BA89A74B8CEB",
  "edited": true,
  "exportOptions": {
    "_class": "exportOptions",
    "do_objectID": "0AB63954-2F06-4B0A-A3F7-D6A9BEDE24D8",
    "exportFormats": [
    ],
    "includedLayerIds": [
    ],
    "layerOptions": 0,
    "shouldTrim": false
  },
  "frame": {
    "_class": "rect",
    "constrainProportions": false,
    "do_objectID": "22A2EBDA-A3C5-40B5-A553-AFA263164B7F",
    "height": 9.804785156249991,
    "width": 4.654042968749997,
    "x": 0,
    "y": 5.671148437500001
  },
  "hasClippingMask": false,
  "isClosed": true,
  "isFixedToViewport": false,
  "isFlippedHorizontal": false,
  "isFlippedVertical": false,
  "isLocked": false,
  "isVisible": true,
  "layerListExpandedType": 0,
  "name": "Shape",
  "nameIsFixed": false,
  "pointRadiusBehaviour": 0,
  "points": [
    {
      "_class": "curvePoint",
      "cornerRadius": 0,
      "curveFrom": "{1, 0.71591717213971995}",
      "curveMode": 4,
      "curveTo": "{0.94496342645633202, 0.64642961723488834}",
      "hasCurveFrom": false,
      "hasCurveTo": true,
      "point": "{1, 0.71591717213971995}"
    },
    {
      "_class": "curvePoint",
      "cornerRadius": 0,
      "curveFrom": "{0.84293645897594072, 0.99423551558251444}",
      "curveMode": 1,
      "curveTo": "{0.84293645897594072, 0.99423551558251444}",
      "hasCurveFrom": false,
      "hasCurveTo": false,
      "point": "{0.84293645897594072, 0.99423551558251444}"
    },
    {
      "_class": "curvePoint",
      "cornerRadius": 0,
      "curveFrom": "{0.097312064862959374, 0.84895628529596356}",
      "curveMode": 4,
      "curveTo": "{0.26887282982286065, 1.0000000000000002}",
      "hasCurveFrom": true,
      "hasCurveTo": false,
      "point": "{0.26887282982286065, 1.0000000000000002}"
    },
    {
      "_class": "curvePoint",
      "cornerRadius": 0,
      "curveFrom": "{0, 0.31491738130098318}",
      "curveMode": 2,
      "curveTo": "{0, 0.67614306630412058}",
      "hasCurveFrom": true,
      "hasCurveTo": true,
      "point": "{0, 0.49249947709684183}"
    },
    {
      "_class": "curvePoint",
      "cornerRadius": 0,
      "curveFrom": "{0.25226050938574074, 0}",
      "curveMode": 4,
      "curveTo": "{0.090984401163303072, 0.14745450742522487}",
      "hasCurveFrom": false,
      "hasCurveTo": true,
      "point": "{0.25226050938574074, 0}"
    },
    {
      "_class": "curvePoint",
      "cornerRadius": 0,
      "curveFrom": "{0.2523838900149819, 0}",
      "curveMode": 1,
      "curveTo": "{0.2523838900149819, 0}",
      "hasCurveFrom": false,
      "hasCurveTo": false,
      "point": "{0.2523838900149819, 0}"
    },
    {
      "_class": "curvePoint",
      "cornerRadius": 0,
      "curveFrom": "{0.76346170794042478, 0.044476051035348282}",
      "curveMode": 1,
      "curveTo": "{0.76346170794042478, 0.044476051035348282}",
      "hasCurveFrom": false,
      "hasCurveTo": false,
      "point": "{0.76346170794042478, 0.044476051035348282}"
    },
    {
      "_class": "curvePoint",
      "cornerRadius": 0,
      "curveFrom": "{0.9404864721952938, 0.35045806316670169}",
      "curveMode": 4,
      "curveTo": "{0.98734467260068737, 0.28561388830788548}",
      "hasCurveFrom": true,
      "hasCurveTo": false,
      "point": "{0.98734467260068737, 0.28561388830788548}"
    },
    {
      "_class": "curvePoint",
      "cornerRadius": 0,
      "curveFrom": "{0.91496430774654092, 0.57111064630830377}",
      "curveMode": 2,
      "curveTo": "{0.9149466819423635, 0.42006693160426706}",
      "hasCurveFrom": true,
      "hasCurveTo": true,
      "point": "{0.9149466819423635, 0.49249947709684183}"
    }
  ],
  "resizingConstraint": 63,
  "resizingType": 0,
  "rotation": 0,
  "shouldBreakMaskChain": false,
  "style": {
    "_class": "style",
    "do_objectID": "D64A115A-27B3-4AF7-BECC-D0350DC4CE49",
    "endMarkerType": 0,
    "fills": [
      {
        "_class": "fill",
        "color": {
          "_class": "color",
          "alpha": 1,
          "blue": 0,
          "green": 0.6235294117647059,
          "red": 1
        },
        "fillType": 0,
        "isEnabled": true,
        "noiseIndex": 0,
        "noiseIntensity": 0,
        "patternFillType": 1,
        "patternTileScale": 1
      }
    ],
    "miterLimit": 10,
    "startMarkerType": 0,
    "windingRule": 0
  }
}