{
  "_class": "symbolMaster",
  "allowsOverrides": true,
  "backgroundColor": {
    "_class": "color",
    "alpha": 1,
    "blue": 1,
    "do_objectID": "06307A3D-202A-4BCF-B8FB-E569F3DE8DEA",
    "green": 1,
    "red": 1
  },
  "booleanOperation": -1,
  "changeIdentifier": 1764,
  "clippingMaskMode": 0,
  "do_objectID": "A85ABA79-530B-4B2F-A3A4-3A622036143D",
  "exportOptions": {
    "_class": "exportOptions",
    "do_objectID": "D8A2D2CD-A7FE-4553-994B-7A18D2805081",
    "exportFormats": [
    ],
    "includedLayerIds": [
    ],
    "layerOptions": 0,
    "shouldTrim": false
  },
  "frame": {
    "_class": "rect",
    "constrainProportions": false,
    "do_objectID": "C7E7828A-7D57-456C-AAE3-D67733F9A090",
    "height": 32,
    "width": 1200,
    "x": 34305,
    "y": 0
  },
  "groupLayout": {
    "_class": "MSImmutableFreeformGroupLayout"
  },
  "hasBackgroundColor": false,
  "hasClickThrough": true,
  "hasClippingMask": false,
  "horizontalRulerData": {
    "_class": "rulerData",
    "base": 0,
    "do_objectID": "000C7AA4-FEA3-4896-A0EB-E493D5A92199",
    "guides": [
    ]
  },
  "includeBackgroundColorInExport": true,
  "includeBackgroundColorInInstance": false,
  "includeInCloudUpload": true,
  "isFixedToViewport": false,
  "isFlippedHorizontal": false,
  "isFlippedVertical": false,
  "isFlowHome": false,
  "isLocked": false,
  "isVisible": true,
  "layerListExpandedType": 2,
  "layers": [
    {
      "class": "rectangle",
      "id": "1F92ABA6-317A-442A-9F50-35EC7E3F642B"
    },
    {
      "class": "symbolInstance",
      "id": "8AD099B5-ED9D-4F9B-A10D-FC73E72857F0"
    },
    {
      "class": "symbolInstance",
      "id": "939A145F-7C07-42DB-9667-1B9215EA618A"
    },
    {
      "class": "symbolInstance",
      "id": "9AAD482F-359C-463A-80C4-B4DB649ADCD7"
    },
    {
      "class": "symbolInstance",
      "id": "FCD110D7-1391-4FB7-9417-FFA73206083B"
    },
    {
      "class": "symbolInstance",
      "id": "DAC78EE6-908D-47F9-A48E-85D1B5C0DC39"
    },
    {
      "class": "symbolInstance",
      "id": "7D289DD3-00A3-4DD9-B8C5-3EE0A9D60FBD"
    }
  ],
  "name": "data table / row / 32 short / column header / default",
  "nameIsFixed": true,
  "overrideProperties": [
    {
      "_class": "MSImmutableOverrideProperty",
      "canOverride": true,
      "overrideName": "8AD099B5-ED9D-4F9B-A10D-FC73E72857F0_symbolID"
    },
    {
      "_class": "MSImmutableOverrideProperty",
      "canOverride": true,
      "overrideName": "FCD110D7-1391-4FB7-9417-FFA73206083B_symbolID"
    },
    {
      "_class": "MSImmutableOverrideProperty",
      "canOverride": false,
      "overrideName": "1F92ABA6-317A-442A-9F50-35EC7E3F642B_image"
    },
    {
      "_class": "MSImmutableOverrideProperty",
      "canOverride": true,
      "overrideName": "9AAD482F-359C-463A-80C4-B4DB649ADCD7_symbolID"
    },
    {
      "_class": "MSImmutableOverrideProperty",
      "canOverride": true,
      "overrideName": "DAC78EE6-908D-47F9-A48E-85D1B5C0DC39_symbolID"
    },
    {
      "_class": "MSImmutableOverrideProperty",
      "canOverride": true,
      "overrideName": "939A145F-7C07-42DB-9667-1B9215EA618A_symbolID"
    },
    {
      "_class": "MSImmutableOverrideProperty",
      "canOverride": false,
      "overrideName": "1F92ABA6-317A-442A-9F50-35EC7E3F642B_layerStyle"
    },
    {
      "_class": "MSImmutableOverrideProperty",
      "canOverride": true,
      "overrideName": "7D289DD3-00A3-4DD9-B8C5-3EE0A9D60FBD_symbolID"
    }
  ],
  "resizesContent": true,
  "resizingConstraint": 63,
  "resizingType": 0,
  "rotation": 0,
  "shouldBreakMaskChain": true,
  "style": {
    "_class": "style",
    "do_objectID": "C857CF02-C973-4FE6-AA8F-40263DFCB828",
    "endMarkerType": 0,
    "miterLimit": 10,
    "startMarkerType": 0,
    "windingRule": 1
  },
  "symbolID": "8A3A5C26-C5EC-4D78-9999-F08E2385EB41",
  "verticalRulerData": {
    "_class": "rulerData",
    "base": 0,
    "do_objectID": "CBFA5D3F-8128-40FA-8809-D618FDA62FEB",
    "guides": [
    ]
  }
}