{
  "_class": "symbolMaster",
  "allowsOverrides": true,
  "backgroundColor": {
    "_class": "color",
    "alpha": 1,
    "blue": 1,
    "do_objectID": "E28B7176-339C-43F7-941B-82B9D6CA4C09",
    "green": 1,
    "red": 1
  },
  "booleanOperation": 0,
  "changeIdentifier": 903,
  "clippingMaskMode": 0,
  "do_objectID": "109DF1CD-471B-4513-842C-BB2F46EA802C",
  "exportOptions": {
    "_class": "exportOptions",
    "do_objectID": "87373365-4938-4F65-8822-3F90F003C82D",
    "exportFormats": [
    ],
    "includedLayerIds": [
    ],
    "layerOptions": 0,
    "shouldTrim": false
  },
  "frame": {
    "_class": "rect",
    "constrainProportions": false,
    "do_objectID": "C2790192-B9B1-4EC2-9864-B56CC868DE0D",
    "height": 29,
    "width": 66,
    "x": 95660,
    "y": 158
  },
  "groupLayout": {
    "_class": "MSImmutableFreeformGroupLayout",
    "do_objectID": "21EA495D-4186-43EB-A975-AC7148CE2466"
  },
  "hasBackgroundColor": false,
  "hasClickThrough": true,
  "hasClippingMask": false,
  "horizontalRulerData": {
    "_class": "rulerData",
    "base": 0,
    "do_objectID": "DDD5CE76-6DF7-4504-80DE-73B871D3B6BA",
    "guides": [
    ]
  },
  "includeBackgroundColorInExport": true,
  "includeBackgroundColorInInstance": false,
  "includeInCloudUpload": true,
  "isFixedToViewport": false,
  "isFlippedHorizontal": false,
  "isFlippedVertical": false,
  "isFlowHome": false,
  "isLocked": false,
  "isVisible": true,
  "layerListExpandedType": 2,
  "layers": [
    {
      "class": "group",
      "id": "F010DA4F-D5CA-4019-8236-901771E4C9A8"
    },
    {
      "class": "symbolInstance",
      "id": "1B37A909-81B9-4752-A6CE-E9F37406204B"
    },
    {
      "class": "text",
      "id": "D8459610-972F-42F5-A8B3-D35C512979F5"
    }
  ],
  "name": "tooltip / icon tooltip / item / arrow top / right",
  "nameIsFixed": true,
  "overrideProperties": [
    {
      "_class": "MSImmutableOverrideProperty",
      "canOverride": false,
      "overrideName": "8ACCAB0C-6DA1-44F2-AC69-F8EDDE4CF2AD_layerStyle"
    },
    {
      "_class": "MSImmutableOverrideProperty",
      "canOverride": true,
      "overrideName": "1B37A909-81B9-4752-A6CE-E9F37406204B_symbolID"
    },
    {
      "_class": "MSImmutableOverrideProperty",
      "canOverride": true,
      "overrideName": "D8459610-972F-42F5-A8B3-D35C512979F5_stringValue"
    },
    {
      "_class": "MSImmutableOverrideProperty",
      "canOverride": false,
      "overrideName": "6412BC55-3A6D-4E8A-81E6-41D212ECA4F9_layerStyle"
    },
    {
      "_class": "MSImmutableOverrideProperty",
      "canOverride": false,
      "overrideName": "D8459610-972F-42F5-A8B3-D35C512979F5_textStyle"
    }
  ],
  "resizesContent": true,
  "resizingConstraint": 63,
  "resizingType": 0,
  "rotation": 0,
  "shouldBreakMaskChain": true,
  "style": {
    "_class": "style",
    "do_objectID": "2C96D282-5964-4137-B7CF-FC71C4592008",
    "endMarkerType": 0,
    "miterLimit": 10,
    "startMarkerType": 0,
    "windingRule": 1
  },
  "symbolID": "345E44CB-5D4E-409D-BA00-95C492278362",
  "verticalRulerData": {
    "_class": "rulerData",
    "base": 0,
    "do_objectID": "80C7786C-2641-4839-BAFD-A8212ACA593B",
    "guides": [
    ]
  }
}