{
  "_class": "group",
  "booleanOperation": -1,
  "clippingMaskMode": 0,
  "do_objectID": "D9654C29-B4BB-44F6-B16B-7E490A849CB9",
  "exportOptions": {
    "_class": "exportOptions",
    "do_objectID": "937DA7CF-C13C-4622-A32F-45D49865C405",
    "exportFormats": [
    ],
    "includedLayerIds": [
    ],
    "layerOptions": 0,
    "shouldTrim": false
  },
  "frame": {
    "_class": "rect",
    "constrainProportions": false,
    "do_objectID": "A07AD4E2-511D-4794-8FD9-14CE08BCB630",
    "height": 119,
    "width": 320,
    "x": 0,
    "y": 0
  },
  "groupLayout": {
    "_class": "MSImmutableFreeformGroupLayout",
    "do_objectID": "B31E3763-670F-4B24-B3E8-12A110E6FCD0"
  },
  "hasClickThrough": false,
  "hasClippingMask": false,
  "isFixedToViewport": false,
  "isFlippedHorizontal": false,
  "isFlippedVertical": false,
  "isLocked": false,
  "isVisible": true,
  "layerListExpandedType": 0,
  "layers": [
    {
      "class": "rectangle",
      "id": "D55A4DF0-5764-4688-A07C-F7EB5DD2672C"
    },
    {
      "class": "group",
      "id": "A6A12CBF-B162-42BE-A29D-20D05D7B68A1"
    }
  ],
  "name": "token",
  "nameIsFixed": true,
  "resizingConstraint": 63,
  "resizingType": 0,
  "rotation": 0,
  "shouldBreakMaskChain": false,
  "style": {
    "_class": "style",
    "blur": {
      "_class": "blur",
      "center": "{0.5, 0.5}",
      "do_objectID": "E7665C8F-C759-463D-A255-5013A962346E",
      "isEnabled": false,
      "motionAngle": 0,
      "radius": 7.999999523162842,
      "saturation": 1,
      "type": 0
    },
    "borders": [
      {
        "_class": "border",
        "color": {
          "_class": "color",
          "alpha": 1,
          "blue": 0.8352941176,
          "green": 0.7921568627,
          "red": 0.7294117647
        },
        "fillType": 0,
        "isEnabled": false,
        "position": 1,
        "thickness": 0.7999999523162842
      }
    ],
    "do_objectID": "0F79BBC9-0ADA-44D8-8E2B-62EB39E9CA30",
    "endMarkerType": 0,
    "fills": [
      {
        "_class": "fill",
        "color": {
          "_class": "color",
          "alpha": 1,
          "blue": 1,
          "green": 1,
          "red": 1
        },
        "fillType": 0,
        "isEnabled": true,
        "noiseIndex": 0,
        "noiseIntensity": 0,
        "patternFillType": 0,
        "patternTileScale": 1
      }
    ],
    "miterLimit": 10,
    "startMarkerType": 0,
    "windingRule": 1
  }
}