{
  "_class": "shapePath",
  "booleanOperation": -1,
  "clippingMaskMode": 0,
  "do_objectID": "02BE6A4E-C655-4204-B379-8CD43A445906",
  "edited": true,
  "exportOptions": {
    "_class": "exportOptions",
    "exportFormats": [
    ],
    "includedLayerIds": [
    ],
    "layerOptions": 0,
    "shouldTrim": false
  },
  "frame": {
    "_class": "rect",
    "constrainProportions": false,
    "height": 13.87180392156863,
    "width": 6.488039215686275,
    "x": 1.000027450980392,
    "y": 39.99994509803922
  },
  "hasClippingMask": false,
  "isClosed": true,
  "isFixedToViewport": false,
  "isFlippedHorizontal": false,
  "isFlippedVertical": false,
  "isLocked": false,
  "isVisible": true,
  "layerListExpandedType": 1,
  "maintainScrollPosition": false,
  "name": "Fill 1",
  "nameIsFixed": false,
  "pointRadiusBehaviour": 1,
  "points": [
    {
      "_class": "curvePoint",
      "cornerRadius": 0,
      "curveFrom": "{0.6600803892532261, 0.2995072526863633}",
      "curveMode": 1,
      "curveTo": "{0.6600803892532261, 0.2995072526863633}",
      "hasCurveFrom": false,
      "hasCurveTo": false,
      "point": "{0.6600803892532261, 0.2995072526863633}"
    },
    {
      "_class": "curvePoint",
      "cornerRadius": 0,
      "curveFrom": "{0.6600803892532261, 0.18069380404883936}",
      "curveMode": 4,
      "curveTo": "{0.6600803892532261, 0.21920329289771037}",
      "hasCurveFrom": true,
      "hasCurveTo": false,
      "point": "{0.6600803892532261, 0.21920329289771037}"
    },
    {
      "_class": "curvePoint",
      "cornerRadius": 0,
      "curveFrom": "{0.75409350539454201, 0.17147210733580034}",
      "curveMode": 4,
      "curveTo": "{0.71461815104717574, 0.17147210733580034}",
      "hasCurveFrom": false,
      "hasCurveTo": true,
      "point": "{0.75409350539454201, 0.17147210733580034}"
    },
    {
      "_class": "curvePoint",
      "cornerRadius": 0,
      "curveFrom": "{0.99420351174106192, 0.17147210733580034}",
      "curveMode": 1,
      "curveTo": "{0.99420351174106192, 0.17147210733580034}",
      "hasCurveFrom": false,
      "hasCurveTo": false,
      "point": "{0.99420351174106192, 0.17147210733580034}"
    },
    {
      "_class": "curvePoint",
      "cornerRadius": 0,
      "curveFrom": "{0.99420351174106192, 0}",
      "curveMode": 1,
      "curveTo": "{0.99420351174106192, 0}",
      "hasCurveFrom": false,
      "hasCurveTo": false,
      "point": "{0.99420351174106192, 0}"
    },
    {
      "_class": "curvePoint",
      "cornerRadius": 0,
      "curveFrom": "{0.2958324518722234, 0}",
      "curveMode": 4,
      "curveTo": "{0.66359213031521047, 0}",
      "hasCurveFrom": true,
      "hasCurveTo": false,
      "point": "{0.66359213031521047, 0}"
    },
    {
      "_class": "curvePoint",
      "cornerRadius": 0,
      "curveFrom": "{0.21345462238206048, 0.2094472918686798}",
      "curveMode": 4,
      "curveTo": "{0.21345462238206048, 0.12696653671857988}",
      "hasCurveFrom": false,
      "hasCurveTo": true,
      "point": "{0.21345462238206048, 0.2094472918686798}"
    },
    {
      "_class": "curvePoint",
      "cornerRadius": 0,
      "curveFrom": "{0.21345462238206048, 0.2995072526863633}",
      "curveMode": 1,
      "curveTo": "{0.21345462238206048, 0.2995072526863633}",
      "hasCurveFrom": false,
      "hasCurveTo": false,
      "point": "{0.21345462238206048, 0.2995072526863633}"
    },
    {
      "_class": "curvePoint",
      "cornerRadius": 0,
      "curveFrom": "{0, 0.2995072526863633}",
      "curveMode": 1,
      "curveTo": "{0, 0.2995072526863633}",
      "hasCurveFrom": false,
      "hasCurveTo": false,
      "point": "{0, 0.2995072526863633}"
    },
    {
      "_class": "curvePoint",
      "cornerRadius": 0,
      "curveFrom": "{0, 0.42049749668533432}",
      "curveMode": 1,
      "curveTo": "{0, 0.42049749668533432}",
      "hasCurveFrom": false,
      "hasCurveTo": false,
      "point": "{0, 0.42049749668533432}"
    },
    {
      "_class": "curvePoint",
      "cornerRadius": 0,
      "curveFrom": "{0, 0.49973284784200422}",
      "curveMode": 1,
      "curveTo": "{0, 0.49973284784200422}",
      "hasCurveFrom": false,
      "hasCurveTo": false,
      "point": "{0, 0.49973284784200422}"
    },
    {
      "_class": "curvePoint",
      "cornerRadius": 0,
      "curveFrom": "{0.21578167971229115, 0.49973284784200422}",
      "curveMode": 1,
      "curveTo": "{0.21578167971229115, 0.49973284784200422}",
      "hasCurveFrom": false,
      "hasCurveTo": false,
      "point": "{0.21578167971229115, 0.49973284784200422}"
    },
    {
      "_class": "curvePoint",
      "cornerRadius": 0,
      "curveFrom": "{0.21578167971229115, 1}",
      "curveMode": 1,
      "curveTo": "{0.21578167971229115, 1}",
      "hasCurveFrom": false,
      "hasCurveTo": false,
      "point": "{0.21578167971229115, 1}"
    },
    {
      "_class": "curvePoint",
      "cornerRadius": 0,
      "curveFrom": "{0.64387560820816581, 1}",
      "curveMode": 1,
      "curveTo": "{0.64387560820816581, 1}",
      "hasCurveFrom": false,
      "hasCurveTo": false,
      "point": "{0.64387560820816581, 1}"
    },
    {
      "_class": "curvePoint",
      "cornerRadius": 0,
      "curveFrom": "{0.64387560820816581, 0.49973284784200422}",
      "curveMode": 1,
      "curveTo": "{0.64387560820816581, 0.49973284784200422}",
      "hasCurveFrom": false,
      "hasCurveTo": false,
      "point": "{0.64387560820816581, 0.49973284784200422}"
    },
    {
      "_class": "curvePoint",
      "cornerRadius": 0,
      "curveFrom": "{0.96056695578591067, 0.49973284784200422}",
      "curveMode": 1,
      "curveTo": "{0.96056695578591067, 0.49973284784200422}",
      "hasCurveFrom": false,
      "hasCurveTo": false,
      "point": "{0.96056695578591067, 0.49973284784200422}"
    },
    {
      "_class": "curvePoint",
      "cornerRadius": 0,
      "curveFrom": "{0.97448698963401725, 0.42105159005006626}",
      "curveMode": 1,
      "curveTo": "{0.97448698963401725, 0.42105159005006626}",
      "hasCurveFrom": false,
      "hasCurveTo": false,
      "point": "{0.97448698963401725, 0.42105159005006626}"
    },
    {
      "_class": "curvePoint",
      "cornerRadius": 0,
      "curveFrom": "{1, 0.2995072526863633}",
      "curveMode": 1,
      "curveTo": "{1, 0.2995072526863633}",
      "hasCurveFrom": false,
      "hasCurveTo": false,
      "point": "{1, 0.2995072526863633}"
    }
  ],
  "resizingConstraint": 63,
  "resizingType": 0,
  "rotation": 0,
  "shouldBreakMaskChain": false,
  "style": {
    "_class": "style",
    "blur": {
      "_class": "blur",
      "center": "{0.5, 0.5}",
      "isEnabled": false,
      "motionAngle": 0,
      "radius": 10,
      "saturation": 1,
      "type": 0
    },
    "borderOptions": {
      "_class": "borderOptions",
      "dashPattern": [
      ],
      "isEnabled": true,
      "lineCapStyle": 0,
      "lineJoinStyle": 0
    },
    "borders": [
    ],
    "colorControls": {
      "_class": "colorControls",
      "brightness": 0,
      "contrast": 1,
      "hue": 0,
      "isEnabled": true,
      "saturation": 1
    },
    "contextSettings": {
      "_class": "graphicsContextSettings",
      "blendMode": 0,
      "opacity": 1
    },
    "do_objectID": "D2095107-E7BB-4FB0-A3D7-CAA1CCE58453",
    "endMarkerType": 0,
    "fills": [
      {
        "_class": "fill",
        "color": {
          "_class": "color",
          "alpha": 1,
          "blue": 0.4235294118,
          "green": 0.4235294118,
          "red": 0.4235294118
        },
        "contextSettings": {
          "_class": "graphicsContextSettings",
          "blendMode": 0,
          "opacity": 1
        },
        "fillType": 0,
        "gradient": {
          "_class": "gradient",
          "elipseLength": 0,
          "from": "{0.5, 0}",
          "gradientType": 0,
          "stops": [
            {
              "_class": "gradientStop",
              "color": {
                "_class": "color",
                "alpha": 1,
                "blue": 1,
                "green": 1,
                "red": 1
              },
              "position": 0
            },
            {
              "_class": "gradientStop",
              "color": {
                "_class": "color",
                "alpha": 1,
                "blue": 0,
                "green": 0,
                "red": 0
              },
              "position": 1
            }
          ],
          "to": "{0.5, 1}"
        },
        "isEnabled": true,
        "noiseIndex": 0,
        "noiseIntensity": 0,
        "patternFillType": 1,
        "patternTileScale": 1
      }
    ],
    "innerShadows": [
    ],
    "miterLimit": 10,
    "shadows": [
    ],
    "startMarkerType": 0,
    "windingRule": 1
  }
}