{
  "_class": "group",
  "booleanOperation": -1,
  "clippingMaskMode": 0,
  "do_objectID": "63D321F9-8DE6-4FD3-BE89-D9EDF13A7FAB",
  "exportOptions": {
    "_class": "exportOptions",
    "do_objectID": "3320F352-E994-4D34-866C-6108BFB1EEAF",
    "exportFormats": [
    ],
    "includedLayerIds": [
    ],
    "layerOptions": 0,
    "shouldTrim": false
  },
  "frame": {
    "_class": "rect",
    "constrainProportions": false,
    "do_objectID": "E2CE13B4-4561-4A85-8F3E-DBD3E862BB91",
    "height": 103,
    "width": 319,
    "x": 641,
    "y": 0
  },
  "groupLayout": {
    "_class": "MSImmutableFreeformGroupLayout",
    "do_objectID": "111727F2-A783-405B-9981-8E134CA1C3EE"
  },
  "hasClickThrough": false,
  "hasClippingMask": false,
  "isFixedToViewport": false,
  "isFlippedHorizontal": false,
  "isFlippedVertical": false,
  "isLocked": false,
  "isVisible": true,
  "layerListExpandedType": 0,
  "layers": [
    {
      "class": "rectangle",
      "id": "F751FD10-F55D-4438-A8A6-29ECEB05E73D"
    },
    {
      "class": "text",
      "id": "26DC4340-10CA-4357-9735-D42C75C1A5D0"
    },
    {
      "class": "rectangle",
      "id": "A1727ABB-6851-42A6-816E-0EDB27913493"
    }
  ],
  "name": "value",
  "nameIsFixed": true,
  "resizingConstraint": 63,
  "resizingType": 0,
  "rotation": 0,
  "shouldBreakMaskChain": false,
  "style": {
    "_class": "style",
    "do_objectID": "5786DF28-71C4-41CA-B42B-85D88A5C39E4",
    "endMarkerType": 0,
    "miterLimit": 10,
    "startMarkerType": 0,
    "windingRule": 1
  }
}