{
  "_class": "shapePath",
  "booleanOperation": -1,
  "clippingMaskMode": 0,
  "do_objectID": "87DC0F7C-A7A2-4A7C-9689-CE3B47C8B7D8",
  "edited": true,
  "exportOptions": {
    "_class": "exportOptions",
    "exportFormats": [
    ],
    "includedLayerIds": [
    ],
    "layerOptions": 0,
    "shouldTrim": false
  },
  "frame": {
    "_class": "rect",
    "constrainProportions": false,
    "height": 3.88460005788505,
    "width": 2.926746588667797,
    "x": 0,
    "y": 0
  },
  "hasClippingMask": false,
  "isClosed": true,
  "isFixedToViewport": false,
  "isFlippedHorizontal": false,
  "isFlippedVertical": false,
  "isLocked": false,
  "isVisible": true,
  "layerListExpandedType": 0,
  "maintainScrollPosition": false,
  "name": "Path",
  "nameIsFixed": false,
  "pointRadiusBehaviour": 1,
  "points": [
    {
      "_class": "curvePoint",
      "cornerRadius": 0,
      "curveFrom": "{0.8186564716536664, 0.58770529784276371}",
      "curveMode": 4,
      "curveTo": "{0.74861282528930806, 0.60613705400813478}",
      "hasCurveFrom": true,
      "hasCurveTo": false,
      "point": "{0.74861282528930806, 0.60613705400813478}"
    },
    {
      "_class": "curvePoint",
      "cornerRadius": 0,
      "curveFrom": "{0.9656797937540722, 0.47170879884672812}",
      "curveMode": 2,
      "curveTo": "{0.87609226167244025, 0.55709725583071612}",
      "hasCurveFrom": true,
      "hasCurveTo": true,
      "point": "{0.92085186008088371, 0.51444164135303494}"
    },
    {
      "_class": "curvePoint",
      "cornerRadius": 0,
      "curveFrom": "{1.0038108714821816, 0.2901714462235494}",
      "curveMode": 3,
      "curveTo": "{0.99144218856320643, 0.41569273541677387}",
      "hasCurveFrom": true,
      "hasCurveTo": true,
      "point": "{0.99837821793489656, 0.34621325232971217}"
    },
    {
      "_class": "curvePoint",
      "cornerRadius": 0,
      "curveFrom": "{0.95163689684882768, 0.16428975956340416}",
      "curveMode": 2,
      "curveTo": "{0.99561063971269548, 0.24257323791381341}",
      "hasCurveFrom": true,
      "hasCurveTo": true,
      "point": "{0.97353834919982907, 0.20344437007671315}"
    },
    {
      "_class": "curvePoint",
      "cornerRadius": 0,
      "curveFrom": "{0.83734616656161931, 0.082067651753076135}",
      "curveMode": 2,
      "curveTo": "{0.92020267506579922, 0.13224012768367402}",
      "hasCurveFrom": true,
      "hasCurveTo": true,
      "point": "{0.8786890017327772, 0.10719250373268792}"
    },
    {
      "_class": "curvePoint",
      "cornerRadius": 0,
      "curveFrom": "{0.67327319590715773, 0.037146681769036655}",
      "curveMode": 2,
      "curveTo": "{0.78804227304758645, 0.063018071358698288}",
      "hasCurveFrom": true,
      "hasCurveTo": true,
      "point": "{0.7307089859259307, 0.05009524790197184}"
    },
    {
      "_class": "curvePoint",
      "cornerRadius": 0,
      "curveFrom": "{0.54456372475860371, 0.025124851979611781}",
      "curveMode": 4,
      "curveTo": "{0.61119060788567547, 0.028909025382278682}",
      "hasCurveFrom": false,
      "hasCurveTo": true,
      "point": "{0.54456372475860371, 0.025124851979611781}"
    },
    {
      "_class": "curvePoint",
      "cornerRadius": 0,
      "curveFrom": "{0.092662618995190182, 0}",
      "curveMode": 1,
      "curveTo": "{0.092662618995190182, 0}",
      "hasCurveFrom": false,
      "hasCurveTo": false,
      "point": "{0.092662618995190182, 0}"
    },
    {
      "_class": "curvePoint",
      "cornerRadius": 0,
      "curveFrom": "{0, 0.94449879009421822}",
      "curveMode": 1,
      "curveTo": "{0, 0.94449879009421822}",
      "hasCurveFrom": false,
      "hasCurveTo": false,
      "point": "{0, 0.94449879009421822}"
    },
    {
      "_class": "curvePoint",
      "cornerRadius": 0,
      "curveFrom": "{0.28263465498827806, 0.96030479328631013}",
      "curveMode": 1,
      "curveTo": "{0.28263465498827806, 0.96030479328631013}",
      "hasCurveFrom": false,
      "hasCurveTo": false,
      "point": "{0.28263465498827806, 0.96030479328631013}"
    },
    {
      "_class": "curvePoint",
      "cornerRadius": 0,
      "curveFrom": "{0.31608476708130506, 0.61975492972249391}",
      "curveMode": 1,
      "curveTo": "{0.31608476708130506, 0.61975492972249391}",
      "hasCurveFrom": false,
      "hasCurveTo": false,
      "point": "{0.31608476708130506, 0.61975492972249391}"
    },
    {
      "_class": "curvePoint",
      "cornerRadius": 0,
      "curveFrom": "{0.47188917070153541, 0.62848169695721556}",
      "curveMode": 1,
      "curveTo": "{0.47188917070153541, 0.62848169695721556}",
      "hasCurveFrom": false,
      "hasCurveTo": false,
      "point": "{0.47188917070153541, 0.62848169695721556}"
    },
    {
      "_class": "curvePoint",
      "cornerRadius": 0,
      "curveFrom": "{0.67874001708681486, 0.98228903876847051}",
      "curveMode": 1,
      "curveTo": "{0.67874001708681486, 0.98228903876847051}",
      "hasCurveFrom": false,
      "hasCurveTo": false,
      "point": "{0.67874001708681486, 0.98228903876847051}"
    },
    {
      "_class": "curvePoint",
      "cornerRadius": 0,
      "curveFrom": "{0.99598648366879683, 1}",
      "curveMode": 1,
      "curveTo": "{0.99598648366879683, 1}",
      "hasCurveFrom": false,
      "hasCurveTo": false,
      "point": "{0.99598648366879683, 1}"
    }
  ],
  "resizingConstraint": 63,
  "resizingType": 0,
  "rotation": 0,
  "shouldBreakMaskChain": false,
  "style": {
    "_class": "style",
    "blur": {
      "_class": "blur",
      "center": "{0.5, 0.5}",
      "isEnabled": false,
      "motionAngle": 0,
      "radius": 1.000000014901161,
      "saturation": 1,
      "type": 0
    },
    "borderOptions": {
      "_class": "borderOptions",
      "dashPattern": [
      ],
      "isEnabled": true,
      "lineCapStyle": 0,
      "lineJoinStyle": 0
    },
    "borders": [
    ],
    "colorControls": {
      "_class": "colorControls",
      "brightness": 0,
      "contrast": 1,
      "hue": 0,
      "isEnabled": true,
      "saturation": 1
    },
    "contextSettings": {
      "_class": "graphicsContextSettings",
      "blendMode": 0,
      "opacity": 1
    },
    "do_objectID": "1556CDFE-5D7F-43DB-8A9B-6D402B73942A",
    "endMarkerType": 0,
    "fills": [
    ],
    "innerShadows": [
    ],
    "miterLimit": 10,
    "shadows": [
    ],
    "startMarkerType": 0,
    "windingRule": 1
  }
}