{
  "_class": "group",
  "booleanOperation": -1,
  "clippingMaskMode": 0,
  "do_objectID": "6B475D22-0D57-4799-BE46-52D8B7AF2893",
  "exportOptions": {
    "_class": "exportOptions",
    "do_objectID": "F88087D2-2133-447B-9C04-F53490FA340C",
    "exportFormats": [
    ],
    "includedLayerIds": [
    ],
    "layerOptions": 0,
    "shouldTrim": false
  },
  "frame": {
    "_class": "rect",
    "constrainProportions": false,
    "do_objectID": "0EBB3EDC-B964-4B36-9190-ED3AA5421CCA",
    "height": 584,
    "width": 944,
    "x": 80,
    "y": 528
  },
  "groupLayout": {
    "_class": "MSImmutableFreeformGroupLayout"
  },
  "hasClickThrough": false,
  "hasClippingMask": false,
  "isFixedToViewport": false,
  "isFlippedHorizontal": false,
  "isFlippedVertical": false,
  "isLocked": true,
  "isVisible": true,
  "layerListExpandedType": 1,
  "layers": [
    {
      "class": "text",
      "id": "385CFDDF-8CF3-45E9-86EB-5E17BA701947"
    },
    {
      "class": "text",
      "id": "597A94D5-EB9E-4C93-BBD5-10BB092A3B1E"
    },
    {
      "class": "group",
      "id": "BF721023-A5BF-4E7F-8476-7B29E278654F"
    },
    {
      "class": "group",
      "id": "7488EF26-D0C4-4C0E-818E-E8F0001D399E"
    }
  ],
  "name": "Document structure",
  "nameIsFixed": true,
  "resizingConstraint": 63,
  "resizingType": 0,
  "rotation": 0,
  "shouldBreakMaskChain": false,
  "style": {
    "_class": "style",
    "do_objectID": "143C5EF9-B55F-4FD5-99A1-2F6B969D62B0",
    "endMarkerType": 0,
    "miterLimit": 10,
    "startMarkerType": 0,
    "windingRule": 1
  }
}