{
  "_class": "group",
  "booleanOperation": -1,
  "clippingMaskMode": 0,
  "do_objectID": "53705D73-A82E-449E-918C-ECA5951C0AF0",
  "exportOptions": {
    "_class": "exportOptions",
    "exportFormats": [
    ],
    "includedLayerIds": [
    ],
    "layerOptions": 0,
    "shouldTrim": false
  },
  "frame": {
    "_class": "rect",
    "constrainProportions": false,
    "height": 341,
    "width": 378,
    "x": 0,
    "y": 1602
  },
  "groupLayout": {
    "_class": "MSImmutableFreeformGroupLayout"
  },
  "hasClickThrough": false,
  "hasClippingMask": false,
  "isFixedToViewport": false,
  "isFlippedHorizontal": false,
  "isFlippedVertical": false,
  "isLocked": false,
  "isVisible": true,
  "layerListExpandedType": 0,
  "layers": [
    {
      "class": "text",
      "id": "C4CD26DB-6814-4621-87EB-94E70D9E0919"
    },
    {
      "class": "text",
      "id": "01AF0EED-35A2-4400-BFC9-64E4F6C8A7C2"
    },
    {
      "class": "text",
      "id": "13179827-E0C7-4C76-86B2-DEE58BA28FB7"
    },
    {
      "class": "text",
      "id": "F9FD9F94-33E5-42F7-B921-B7C3B9E15740"
    },
    {
      "class": "text",
      "id": "B2690620-2B2B-474F-95AF-462F93205D17"
    },
    {
      "class": "text",
      "id": "6A469E48-66B3-4A41-8D5E-7BA2B53CCEFD"
    },
    {
      "class": "text",
      "id": "20A9BC62-6386-41A2-8581-FAD98E3E1B0E"
    },
    {
      "class": "text",
      "id": "24F522C2-ADA7-423E-80A0-0795B22E6D61"
    },
    {
      "class": "text",
      "id": "9DC52917-1C0A-4A4E-B72D-17A45BBC9AF1"
    },
    {
      "class": "text",
      "id": "0F0C2ED1-7CA2-4251-849F-4A973C84B1E9"
    },
    {
      "class": "text",
      "id": "CA444391-E02C-400D-A311-8753C78ED156"
    },
    {
      "class": "text",
      "id": "7E3DB34C-3E14-49A7-A99C-4F2A8D7DA120"
    },
    {
      "class": "text",
      "id": "C0FF24C0-4336-4515-BC2C-6D3EB7AC55FC"
    },
    {
      "class": "text",
      "id": "9E2FC3E1-5FF0-42E6-AC33-47F2814E3028"
    }
  ],
  "name": "Math",
  "nameIsFixed": true,
  "resizingConstraint": 63,
  "resizingType": 0,
  "rotation": 0,
  "shouldBreakMaskChain": false,
  "style": {
    "_class": "style",
    "endMarkerType": 0,
    "miterLimit": 10,
    "startMarkerType": 0,
    "windingRule": 1
  }
}