{
  "_class": "symbolInstance",
  "booleanOperation": -1,
  "clippingMaskMode": 0,
  "do_objectID": "159D37E1-C6AF-4F69-9E38-F19C94FFEC4E",
  "exportOptions": {
    "_class": "exportOptions",
    "do_objectID": "31EFD6CF-1358-4AD2-AA5F-173B8FDA3D07",
    "exportFormats": [
    ],
    "includedLayerIds": [
    ],
    "layerOptions": 0,
    "shouldTrim": false
  },
  "frame": {
    "_class": "rect",
    "constrainProportions": false,
    "do_objectID": "22D5D2A3-A9E5-42AA-889A-19C5356BA175",
    "height": 32,
    "width": 256,
    "x": 0,
    "y": 112
  },
  "hasClippingMask": false,
  "horizontalSpacing": 0,
  "isFixedToViewport": false,
  "isFlippedHorizontal": false,
  "isFlippedVertical": false,
  "isLocked": false,
  "isVisible": true,
  "layerListExpandedType": 0,
  "name": "Link",
  "nameIsFixed": true,
  "overrideValues": [
    {
      "_class": "overrideValue",
      "do_objectID": "76D3349E-82C6-4391-BB4F-E81D7A9610F2",
      "overrideName": "9FF658E8-917A-4393-9298-B7C1975EDA59_stringValue",
      "value": "Link 4"
    }
  ],
  "resizingConstraint": 63,
  "resizingType": 0,
  "rotation": 0,
  "scale": 1,
  "shouldBreakMaskChain": false,
  "style": {
    "_class": "style",
    "do_objectID": "BBC222C7-92A1-4071-BCBB-9556D8635B30",
    "endMarkerType": 0,
    "miterLimit": 10,
    "startMarkerType": 0,
    "windingRule": 1
  },
  "symbolID": "25406E0B-E452-4B6C-ACD7-CB826852CAE7",
  "verticalSpacing": 0
}