{
  "_class": "symbolInstance",
  "booleanOperation": -1,
  "clippingMaskMode": 0,
  "do_objectID": "0A3DF36C-5303-426F-A958-5A2BAAF197CD",
  "exportOptions": {
    "_class": "exportOptions",
    "do_objectID": "66222DD3-1B63-4028-8D3A-49EFF4F5679A",
    "exportFormats": [
    ],
    "includedLayerIds": [
    ],
    "layerOptions": 0,
    "shouldTrim": false
  },
  "frame": {
    "_class": "rect",
    "constrainProportions": false,
    "do_objectID": "B84EAB63-8117-4890-97A3-1E827AB6C5B0",
    "height": 154,
    "width": 226,
    "x": 0,
    "y": 1683
  },
  "hasClippingMask": false,
  "horizontalSpacing": 0,
  "isFixedToViewport": false,
  "isFlippedHorizontal": false,
  "isFlippedVertical": false,
  "isLocked": false,
  "isVisible": true,
  "layerListExpandedType": 0,
  "name": "component / dropdown / 01 default / 03 inline / open copy 3",
  "nameIsFixed": false,
  "overrideValues": [
    {
      "_class": "overrideValue",
      "do_objectID": "21229E1C-F37F-417D-82E4-F1BC737F5BCD",
      "overrideName": "1AED0937-D6D8-4BFB-A65F-E80169BDA169_symbolID",
      "value": "D0D92903-017A-489C-9E88-CDB31EBD1EF0"
    },
    {
      "_class": "overrideValue",
      "do_objectID": "B8AE53B1-F595-46EF-9D75-BD6A99D64A22",
      "overrideName": "1AED0937-D6D8-4BFB-A65F-E80169BDA169/7B24F110-FFAD-4208-A6A2-354EC5262046_stringValue",
      "value": "Option 2"
    }
  ],
  "resizingConstraint": 63,
  "resizingType": 0,
  "rotation": 0,
  "scale": 1,
  "shouldBreakMaskChain": false,
  "style": {
    "_class": "style",
    "do_objectID": "AFDD9B4B-7439-42EE-A6A2-3A3B18BE50F4",
    "endMarkerType": 0,
    "miterLimit": 10,
    "startMarkerType": 0,
    "windingRule": 1
  },
  "symbolID": "355D4EE0-AC67-46B6-9D0E-3C75473B13DD",
  "verticalSpacing": 0
}