{
  "_class": "symbolMaster",
  "allowsOverrides": true,
  "backgroundColor": {
    "_class": "color",
    "alpha": 1,
    "blue": 1,
    "green": 1,
    "red": 1
  },
  "booleanOperation": -1,
  "changeIdentifier": 5078,
  "clippingMaskMode": 0,
  "do_objectID": "4D124604-E25E-4899-BF1B-CE149B01587C",
  "exportOptions": {
    "_class": "exportOptions",
    "exportFormats": [
    ],
    "includedLayerIds": [
    ],
    "layerOptions": 0,
    "shouldTrim": false
  },
  "frame": {
    "_class": "rect",
    "constrainProportions": false,
    "height": 192,
    "width": 640,
    "x": 14821,
    "y": 0
  },
  "groupLayout": {
    "_class": "MSImmutableFreeformGroupLayout"
  },
  "hasBackgroundColor": false,
  "hasClickThrough": true,
  "hasClippingMask": false,
  "horizontalRulerData": {
    "_class": "rulerData",
    "base": 0,
    "guides": [
    ]
  },
  "includeBackgroundColorInExport": true,
  "includeBackgroundColorInInstance": false,
  "includeInCloudUpload": true,
  "isFixedToViewport": false,
  "isFlippedHorizontal": false,
  "isFlippedVertical": false,
  "isFlowHome": false,
  "isLocked": false,
  "isVisible": true,
  "layerListExpandedType": 2,
  "layers": [
    {
      "class": "rectangle",
      "id": "657D4119-14AD-40E8-A2FC-BEB98D4CD8F9"
    },
    {
      "class": "symbolInstance",
      "id": "74F25DF0-C079-403A-8844-99C0D799E885"
    },
    {
      "class": "symbolInstance",
      "id": "6F3B0D0F-B531-47F2-A4A5-84B4AA887987"
    },
    {
      "class": "text",
      "id": "84CF3BA1-D07C-405D-82B6-4D54741FB3D4"
    }
  ],
  "name": "code snippet / multi-line / closed",
  "nameIsFixed": true,
  "overrideProperties": [
    {
      "_class": "MSImmutableOverrideProperty",
      "canOverride": false,
      "overrideName": "6F3B0D0F-B531-47F2-A4A5-84B4AA887987/5DF12334-E162-495F-8204-8A896F6FD544/A8E43A70-B868-441B-9539-6C1C57C50D89_layerStyle"
    },
    {
      "_class": "MSImmutableOverrideProperty",
      "canOverride": false,
      "overrideName": "74F25DF0-C079-403A-8844-99C0D799E885/206BB389-5C27-46C0-A1B2-A7EF1F079703/91727CC7-E827-4EEC-9582-21DE23B309B4_layerStyle"
    },
    {
      "_class": "MSImmutableOverrideProperty",
      "canOverride": false,
      "overrideName": "74F25DF0-C079-403A-8844-99C0D799E885/206BB389-5C27-46C0-A1B2-A7EF1F079703_symbolID"
    },
    {
      "_class": "MSImmutableOverrideProperty",
      "canOverride": true,
      "overrideName": "74F25DF0-C079-403A-8844-99C0D799E885_symbolID"
    },
    {
      "_class": "MSImmutableOverrideProperty",
      "canOverride": false,
      "overrideName": "6F3B0D0F-B531-47F2-A4A5-84B4AA887987/5DF12334-E162-495F-8204-8A896F6FD544_symbolID"
    },
    {
      "_class": "MSImmutableOverrideProperty",
      "canOverride": true,
      "overrideName": "6F3B0D0F-B531-47F2-A4A5-84B4AA887987_symbolID"
    },
    {
      "_class": "MSImmutableOverrideProperty",
      "canOverride": false,
      "overrideName": "657D4119-14AD-40E8-A2FC-BEB98D4CD8F9_layerStyle"
    },
    {
      "_class": "MSImmutableOverrideProperty",
      "canOverride": false,
      "overrideName": "84CF3BA1-D07C-405D-82B6-4D54741FB3D4_textStyle"
    },
    {
      "_class": "MSImmutableOverrideProperty",
      "canOverride": true,
      "overrideName": "84CF3BA1-D07C-405D-82B6-4D54741FB3D4_stringValue"
    }
  ],
  "resizesContent": true,
  "resizingConstraint": 63,
  "resizingType": 0,
  "rotation": 0,
  "shouldBreakMaskChain": true,
  "style": {
    "_class": "style",
    "endMarkerType": 0,
    "miterLimit": 10,
    "startMarkerType": 0,
    "windingRule": 1
  },
  "symbolID": "40D482BB-A011-4B9D-BFDF-593B5622ED19",
  "verticalRulerData": {
    "_class": "rulerData",
    "base": 0,
    "guides": [
    ]
  }
}