{
  "_class": "group",
  "booleanOperation": -1,
  "clippingMaskMode": 0,
  "do_objectID": "B61A8817-8EAF-4403-B726-3F2C16E28869",
  "exportOptions": {
    "_class": "exportOptions",
    "do_objectID": "B17F9B25-E7B9-4ABF-83F9-C3EE109ECD18",
    "exportFormats": [
    ],
    "includedLayerIds": [
    ],
    "layerOptions": 0,
    "shouldTrim": false
  },
  "frame": {
    "_class": "rect",
    "constrainProportions": false,
    "do_objectID": "070914DC-FC22-45AE-B201-F73589556DDA",
    "height": 103,
    "width": 960,
    "x": 0,
    "y": 1656
  },
  "groupLayout": {
    "_class": "MSImmutableFreeformGroupLayout",
    "do_objectID": "A4EEAF8A-3C73-42E3-9F7B-E4D3ACB27716"
  },
  "hasClickThrough": false,
  "hasClippingMask": false,
  "isFixedToViewport": false,
  "isFlippedHorizontal": false,
  "isFlippedVertical": false,
  "isLocked": false,
  "isVisible": true,
  "layerListExpandedType": 0,
  "layers": [
    {
      "class": "group",
      "id": "42899411-75A8-4365-A921-FCCE51477735"
    },
    {
      "class": "group",
      "id": "660C6E41-04AB-4D51-BC13-6392F539CD38"
    },
    {
      "class": "group",
      "id": "C03010D6-FFD3-4F15-A1D3-47E923D34931"
    }
  ],
  "name": "$visited-link",
  "nameIsFixed": true,
  "resizingConstraint": 63,
  "resizingType": 0,
  "rotation": 0,
  "shouldBreakMaskChain": false,
  "style": {
    "_class": "style",
    "do_objectID": "E1EE930E-CA0E-4D15-9F81-D24A7FF32464",
    "endMarkerType": 0,
    "miterLimit": 10,
    "startMarkerType": 0,
    "windingRule": 1
  }
}