{
  "_class": "symbolMaster",
  "allowsOverrides": true,
  "backgroundColor": {
    "_class": "color",
    "alpha": 1,
    "blue": 1,
    "green": 1,
    "red": 1
  },
  "booleanOperation": -1,
  "changeIdentifier": 148,
  "clippingMaskMode": 0,
  "do_objectID": "CFADEA07-C11D-40FB-82AE-AFB82137D5FF",
  "exportOptions": {
    "_class": "exportOptions",
    "exportFormats": [
    ],
    "includedLayerIds": [
    ],
    "layerOptions": 0,
    "shouldTrim": false
  },
  "frame": {
    "_class": "rect",
    "constrainProportions": false,
    "height": 107,
    "width": 160,
    "x": 4117,
    "y": 148
  },
  "groupLayout": {
    "_class": "MSImmutableFreeformGroupLayout"
  },
  "hasBackgroundColor": false,
  "hasClickThrough": true,
  "hasClippingMask": false,
  "horizontalRulerData": {
    "_class": "rulerData",
    "base": 0,
    "guides": [
    ]
  },
  "includeBackgroundColorInExport": true,
  "includeBackgroundColorInInstance": false,
  "includeInCloudUpload": true,
  "isFixedToViewport": false,
  "isFlippedHorizontal": false,
  "isFlippedVertical": false,
  "isFlowHome": false,
  "isLocked": false,
  "isVisible": true,
  "layerListExpandedType": 2,
  "layers": [
    {
      "class": "shapeGroup",
      "id": "2A5B8D0D-1F9F-4B42-9A14-66B85C811805"
    },
    {
      "class": "group",
      "id": "0CAFC8B7-0DD9-480B-ADA4-B4239EB587DD"
    },
    {
      "class": "group",
      "id": "C5EC281D-2861-46C0-A3D4-4A56B9906E64"
    },
    {
      "class": "group",
      "id": "DB566A8D-7CDD-4651-ADBE-32B3792018FA"
    }
  ],
  "name": "breadcrumb / overflow / menu",
  "nameIsFixed": false,
  "overrideProperties": [
    {
      "_class": "MSImmutableOverrideProperty",
      "canOverride": true,
      "overrideName": "36DE9127-E267-4D01-AD86-4195C31048B9_symbolID"
    },
    {
      "_class": "MSImmutableOverrideProperty",
      "canOverride": true,
      "overrideName": "2A5B8D0D-1F9F-4B42-9A14-66B85C811805_image"
    },
    {
      "_class": "MSImmutableOverrideProperty",
      "canOverride": true,
      "overrideName": "07255EDE-DCED-4895-BED9-1D140FAE91F4_symbolID"
    },
    {
      "_class": "MSImmutableOverrideProperty",
      "canOverride": true,
      "overrideName": "988D5120-6F53-40DD-9483-3FC00CB202F7_symbolID"
    },
    {
      "_class": "MSImmutableOverrideProperty",
      "canOverride": true,
      "overrideName": "2A5B8D0D-1F9F-4B42-9A14-66B85C811805_layerStyle"
    }
  ],
  "resizesContent": true,
  "resizingConstraint": 63,
  "resizingType": 0,
  "rotation": 0,
  "shouldBreakMaskChain": true,
  "style": {
    "_class": "style",
    "endMarkerType": 0,
    "miterLimit": 10,
    "startMarkerType": 0,
    "windingRule": 1
  },
  "symbolID": "A18EC2ED-6A90-453E-9679-9FD4D9CE5F04",
  "verticalRulerData": {
    "_class": "rulerData",
    "base": 0,
    "guides": [
    ]
  }
}