{
  "_class": "shapePath",
  "booleanOperation": -1,
  "clippingMaskMode": 0,
  "do_objectID": "CCEC5281-0EEF-4A6D-8408-A63FC7017C13",
  "edited": true,
  "exportOptions": {
    "_class": "exportOptions",
    "exportFormats": [
    ],
    "includedLayerIds": [
    ],
    "layerOptions": 0,
    "shouldTrim": false
  },
  "frame": {
    "_class": "rect",
    "constrainProportions": false,
    "height": 14.046924211693,
    "width": 14.36607594769035,
    "x": 0.0006173164400603453,
    "y": 0.220914674244842
  },
  "hasClippingMask": false,
  "isClosed": true,
  "isFixedToViewport": false,
  "isFlippedHorizontal": false,
  "isFlippedVertical": false,
  "isLocked": false,
  "isVisible": true,
  "layerListExpandedType": 0,
  "maintainScrollPosition": false,
  "name": "Shape",
  "nameIsFixed": false,
  "pointRadiusBehaviour": 0,
  "points": [
    {
      "_class": "curvePoint",
      "cornerRadius": 0,
      "curveFrom": "{0.45217781944607754, 0.5001534140527244}",
      "curveMode": 1,
      "curveTo": "{0.45217781944607754, 0.5001534140527244}",
      "hasCurveFrom": false,
      "hasCurveTo": false,
      "point": "{0.45217781944607754, 0.5001534140527244}"
    },
    {
      "_class": "curvePoint",
      "cornerRadius": 0,
      "curveFrom": "{-0.002761826633847489, 0.95827137765819048}",
      "curveMode": 4,
      "curveTo": "{0.0095355287315964741, 0.94588811001754125}",
      "hasCurveFrom": true,
      "hasCurveTo": false,
      "point": "{0.0095355287315964741, 0.94588811001754125}"
    },
    {
      "_class": "curvePoint",
      "cornerRadius": 0,
      "curveFrom": "{0.015676393609130753, 0.99691598417081362}",
      "curveMode": 2,
      "curveTo": "{-0.002761826633847489, 0.97833321532252049}",
      "hasCurveFrom": true,
      "hasCurveTo": true,
      "point": "{0.0095355287315964741, 0.99071648296316972}"
    },
    {
      "_class": "curvePoint",
      "cornerRadius": 0,
      "curveFrom": "{0.039849212859882743, 0.999999999999997}",
      "curveMode": 2,
      "curveTo": "{0.023739208562839884, 0.999999999999997}",
      "hasCurveFrom": true,
      "hasCurveTo": true,
      "point": "{0.031786397906173609, 0.999999999999997}"
    },
    {
      "_class": "curvePoint",
      "cornerRadius": 0,
      "curveFrom": "{0.054037267080750746, 0.99071648296316972}",
      "curveMode": 4,
      "curveTo": "{0.047896402203216462, 0.99691598417081373}",
      "hasCurveFrom": false,
      "hasCurveTo": true,
      "point": "{0.054037267080750746, 0.99071648296316972}"
    },
    {
      "_class": "curvePoint",
      "cornerRadius": 0,
      "curveFrom": "{0.50000781280519324, 0.54163028000031177}",
      "curveMode": 1,
      "curveTo": "{0.50000781280519324, 0.54163028000031177}",
      "hasCurveFrom": false,
      "hasCurveTo": false,
      "point": "{0.50000781280519324, 0.54163028000031177}"
    },
    {
      "_class": "curvePoint",
      "cornerRadius": 0,
      "curveFrom": "{0.9521348490175453, 0.99691598417081362}",
      "curveMode": 4,
      "curveTo": "{0.94597835852963574, 0.99071648296316972}",
      "hasCurveFrom": true,
      "hasCurveTo": false,
      "point": "{0.94597835852963574, 0.99071648296316972}"
    },
    {
      "_class": "curvePoint",
      "cornerRadius": 0,
      "curveFrom": "{0.97627641704754653, 0.999999999999997}",
      "curveMode": 2,
      "curveTo": "{0.96018203836087912, 0.999999999999997}",
      "hasCurveFrom": true,
      "hasCurveTo": true,
      "point": "{0.96822922770421282, 0.999999999999997}"
    },
    {
      "_class": "curvePoint",
      "cornerRadius": 0,
      "curveFrom": "{1.0027774522442339, 0.97833321532252049}",
      "curveMode": 2,
      "curveTo": "{0.98433923200125562, 0.99691598417081373}",
      "hasCurveFrom": true,
      "hasCurveTo": true,
      "point": "{0.99048009687878991, 0.99071648296316972}"
    },
    {
      "_class": "curvePoint",
      "cornerRadius": 0,
      "curveFrom": "{0.99048009687878991, 0.94588811001754114}",
      "curveMode": 4,
      "curveTo": "{1.0027774522442339, 0.95827137765819048}",
      "hasCurveFrom": false,
      "hasCurveTo": true,
      "point": "{0.99048009687878991, 0.94588811001754114}"
    },
    {
      "_class": "curvePoint",
      "cornerRadius": 0,
      "curveFrom": "{0.54785343177468415, 0.5001534140527244}",
      "curveMode": 1,
      "curveTo": "{0.54785343177468415, 0.5001534140527244}",
      "hasCurveFrom": false,
      "hasCurveTo": false,
      "point": "{0.54785343177468415, 0.5001534140527244}"
    },
    {
      "_class": "curvePoint",
      "cornerRadius": 0,
      "curveFrom": "{1.0030743388413663, 0.0417207549544844}",
      "curveMode": 4,
      "curveTo": "{0.99077698347592247, 0.054104022595133611}",
      "hasCurveFrom": true,
      "hasCurveTo": false,
      "point": "{0.99077698347592247, 0.054104022595133611}"
    },
    {
      "_class": "curvePoint",
      "cornerRadius": 0,
      "curveFrom": "{0.97847962811047851, -0.0030918832165053893}",
      "curveMode": 2,
      "curveTo": "{1.0030743388413663, 0.021658917290154359}",
      "hasCurveFrom": true,
      "hasCurveTo": true,
      "point": "{0.99077698347592247, 0.0092756496495051358}"
    },
    {
      "_class": "curvePoint",
      "cornerRadius": 0,
      "curveFrom": "{0.94627524512676831, 0.0092756496495051358}",
      "curveMode": 4,
      "curveTo": "{0.95855697488183689, -0.0030918832165053893}",
      "hasCurveFrom": false,
      "hasCurveTo": true,
      "point": "{0.94627524512676831, 0.0092756496495051358}"
    },
    {
      "_class": "curvePoint",
      "cornerRadius": 0,
      "curveFrom": "{0.50002343841556862, 0.45867654810513686}",
      "curveMode": 1,
      "curveTo": "{0.50002343841556862, 0.45867654810513686}",
      "hasCurveFrom": false,
      "hasCurveTo": false,
      "point": "{0.50002343841556862, 0.45867654810513686}"
    },
    {
      "_class": "curvePoint",
      "cornerRadius": 0,
      "curveFrom": "{0.041427399507798675, -0.0030761484418666989}",
      "curveMode": 4,
      "curveTo": "{0.053724754873242637, 0.0092913844241438257}",
      "hasCurveFrom": true,
      "hasCurveTo": false,
      "point": "{0.053724754873242637, 0.0092913844241438257}"
    },
    {
      "_class": "curvePoint",
      "cornerRadius": 0,
      "curveFrom": "{-0.0030743388413555952, 0.021674652064793038}",
      "curveMode": 2,
      "curveTo": "{0.021520371889532333, -0.0030761484418666989}",
      "hasCurveFrom": true,
      "hasCurveTo": true,
      "point": "{0.0092230165240883687, 0.0092913844241438257}"
    },
    {
      "_class": "curvePoint",
      "cornerRadius": 0,
      "curveFrom": "{0.0092230165240883687, 0.054119757369772301}",
      "curveMode": 4,
      "curveTo": "{-0.0030743388413555952, 0.041736489729123083}",
      "hasCurveFrom": false,
      "hasCurveTo": true,
      "point": "{0.0092230165240883687, 0.054119757369772301}"
    }
  ],
  "resizingConstraint": 63,
  "resizingType": 0,
  "rotation": 0,
  "shouldBreakMaskChain": false,
  "style": {
    "_class": "style",
    "blur": {
      "_class": "blur",
      "center": "{0.5, 0.5}",
      "isEnabled": false,
      "motionAngle": 0,
      "radius": 10,
      "saturation": 1,
      "type": 0
    },
    "borderOptions": {
      "_class": "borderOptions",
      "dashPattern": [
      ],
      "isEnabled": true,
      "lineCapStyle": 0,
      "lineJoinStyle": 0
    },
    "borders": [
    ],
    "colorControls": {
      "_class": "colorControls",
      "brightness": 0,
      "contrast": 1,
      "hue": 0,
      "isEnabled": false,
      "saturation": 1
    },
    "contextSettings": {
      "_class": "graphicsContextSettings",
      "blendMode": 0,
      "opacity": 1
    },
    "do_objectID": "5E26D4FD-A805-4065-9888-BD7BD6E3A4A8",
    "endMarkerType": 0,
    "fills": [
      {
        "_class": "fill",
        "color": {
          "_class": "color",
          "alpha": 1,
          "blue": 0.1058823529411765,
          "green": 0.1137254901960784,
          "red": 0.1137254901960784
        },
        "contextSettings": {
          "_class": "graphicsContextSettings",
          "blendMode": 0,
          "opacity": 1
        },
        "fillType": 0,
        "gradient": {
          "_class": "gradient",
          "elipseLength": 0,
          "from": "{0.5, 0}",
          "gradientType": 0,
          "stops": [
            {
              "_class": "gradientStop",
              "color": {
                "_class": "color",
                "alpha": 1,
                "blue": 1,
                "green": 1,
                "red": 1
              },
              "position": 0
            },
            {
              "_class": "gradientStop",
              "color": {
                "_class": "color",
                "alpha": 1,
                "blue": 0,
                "green": 0,
                "red": 0
              },
              "position": 1
            }
          ],
          "to": "{0.5, 1}"
        },
        "isEnabled": true,
        "noiseIndex": 0,
        "noiseIntensity": 0,
        "patternFillType": 1,
        "patternTileScale": 1
      }
    ],
    "innerShadows": [
    ],
    "miterLimit": 10,
    "shadows": [
    ],
    "startMarkerType": 0,
    "windingRule": 0
  }
}