{
  "_class": "symbolInstance",
  "booleanOperation": -1,
  "clippingMaskMode": 0,
  "do_objectID": "EEA78E6A-504C-4BD6-A2FC-7AAE0075BD6C",
  "exportOptions": {
    "_class": "exportOptions",
    "do_objectID": "4B168DB2-9683-43EE-BD8F-62DD949F3916",
    "exportFormats": [
    ],
    "includedLayerIds": [
    ],
    "layerOptions": 0,
    "shouldTrim": false
  },
  "frame": {
    "_class": "rect",
    "constrainProportions": false,
    "do_objectID": "5A58B8B8-A8A3-4A18-B156-3E1500AC2A86",
    "height": 32,
    "width": 1024,
    "x": 0,
    "y": 0
  },
  "hasClippingMask": false,
  "horizontalSpacing": 0,
  "isFixedToViewport": false,
  "isFlippedHorizontal": false,
  "isFlippedVertical": false,
  "isLocked": false,
  "isVisible": true,
  "layerListExpandedType": 0,
  "name": "components/data table/row/32 short/expandable/01 enabled copy 18",
  "nameIsFixed": false,
  "overrideValues": [
    {
      "_class": "overrideValue",
      "do_objectID": "B2DAB9AE-45AD-4423-8E45-D0323E3261C3",
      "overrideName": "7F2C2EBC-4239-4194-AB3F-22572CD4DA86_symbolID",
      "value": "C2341679-4B84-4D51-9CA3-6074F034EE3F"
    }
  ],
  "resizingConstraint": 63,
  "resizingType": 0,
  "rotation": 0,
  "scale": 1,
  "shouldBreakMaskChain": false,
  "style": {
    "_class": "style",
    "do_objectID": "A0632E8A-9D53-4DAE-B5E6-DE0DDDC45C0D",
    "endMarkerType": 0,
    "miterLimit": 10,
    "startMarkerType": 0,
    "windingRule": 1
  },
  "symbolID": "CD744C4E-DF89-45AC-853A-7A49465E6895",
  "verticalSpacing": 0
}