{
  "_class": "group",
  "booleanOperation": 0,
  "clippingMaskMode": 0,
  "do_objectID": "8B8AEA58-6526-4587-BBC0-6D58159A6ED3",
  "exportOptions": {
    "_class": "exportOptions",
    "exportFormats": [
    ],
    "includedLayerIds": [
    ],
    "layerOptions": 0,
    "shouldTrim": false
  },
  "frame": {
    "_class": "rect",
    "constrainProportions": false,
    "height": 20,
    "width": 20,
    "x": 140,
    "y": 498
  },
  "groupLayout": {
    "_class": "MSImmutableFreeformGroupLayout"
  },
  "hasClickThrough": false,
  "hasClippingMask": false,
  "isFixedToViewport": false,
  "isFlippedHorizontal": false,
  "isFlippedVertical": false,
  "isLocked": false,
  "isVisible": true,
  "layerListExpandedType": 0,
  "layers": [
    {
      "class": "rectangle",
      "id": "CAC5F08A-748E-4E59-BA1A-15D4FC69002A"
    },
    {
      "class": "shapePath",
      "id": "527BC4E7-A2BA-4472-8A6D-E637AEBE06B1"
    },
    {
      "class": "shapePath",
      "id": "3CB0ABD1-8F75-4894-B17B-75DEE612C4D0"
    },
    {
      "class": "shapePath",
      "id": "DDCE7313-84FB-4FE9-9122-33DF13D59F62"
    },
    {
      "class": "shapePath",
      "id": "B19DA2DB-1C73-403B-B48E-BAE916A7B7EA"
    },
    {
      "class": "shapePath",
      "id": "99BADCC7-F34B-45F3-8466-EC0F6B884226"
    },
    {
      "class": "shapePath",
      "id": "07486994-E024-4095-A6CD-8DFBB3ECE4ED"
    },
    {
      "class": "shapePath",
      "id": "C8C5E477-E317-44CC-8E77-AF114559B9A7"
    }
  ],
  "name": "Cursor - Pointer",
  "nameIsFixed": true,
  "resizingConstraint": 63,
  "resizingType": 0,
  "rotation": 0,
  "shouldBreakMaskChain": false,
  "style": {
    "_class": "style",
    "endMarkerType": 0,
    "miterLimit": 10,
    "startMarkerType": 0,
    "windingRule": 1
  }
}