{
  "_class": "symbolMaster",
  "allowsOverrides": true,
  "backgroundColor": {
    "_class": "color",
    "alpha": 1,
    "blue": 1,
    "do_objectID": "4EFFA34F-6DDD-406D-B9F6-03B7B86948FD",
    "green": 1,
    "red": 1
  },
  "booleanOperation": -1,
  "changeIdentifier": 193,
  "clippingMaskMode": 0,
  "do_objectID": "1EC4124E-BBA5-435F-B2FF-2CFC61EF4E9F",
  "exportOptions": {
    "_class": "exportOptions",
    "do_objectID": "A6261C0A-E8A7-4D4E-8FBC-2D9F7E15ECDD",
    "exportFormats": [
    ],
    "includedLayerIds": [
    ],
    "layerOptions": 0,
    "shouldTrim": false
  },
  "frame": {
    "_class": "rect",
    "constrainProportions": false,
    "do_objectID": "38513118-50B4-49BB-A591-D51E7690F1BD",
    "height": 40,
    "width": 78,
    "x": 66591,
    "y": 270
  },
  "groupLayout": {
    "_class": "MSImmutableFreeformGroupLayout"
  },
  "hasBackgroundColor": false,
  "hasClickThrough": true,
  "hasClippingMask": false,
  "horizontalRulerData": {
    "_class": "rulerData",
    "base": 0,
    "do_objectID": "7685509A-EBFE-4449-A272-2C528695AE1F",
    "guides": [
    ]
  },
  "includeBackgroundColorInExport": true,
  "includeBackgroundColorInInstance": false,
  "includeInCloudUpload": true,
  "isFixedToViewport": false,
  "isFlippedHorizontal": false,
  "isFlippedVertical": false,
  "isFlowHome": false,
  "isLocked": false,
  "isVisible": true,
  "layerListExpandedType": 0,
  "layers": [
    {
      "class": "group",
      "id": "E016E028-EF2D-4E98-982B-F89FA46685D3"
    }
  ],
  "name": "date picker / pieces / hh:mm / 04 active",
  "nameIsFixed": true,
  "overrideProperties": [
    {
      "_class": "MSImmutableOverrideProperty",
      "canOverride": true,
      "overrideName": "3E1D0D47-2BB5-4806-B85F-9FBDD1BE3C98_stringValue"
    },
    {
      "_class": "MSImmutableOverrideProperty",
      "canOverride": true,
      "overrideName": "CE9A64AA-24C4-4CD3-8659-E03002353F9C_layerStyle"
    },
    {
      "_class": "MSImmutableOverrideProperty",
      "canOverride": false,
      "overrideName": "F6E25AAF-9C3A-4F1E-BD89-9031ADBCDD3E_image"
    },
    {
      "_class": "MSImmutableOverrideProperty",
      "canOverride": true,
      "overrideName": "CE9A64AA-24C4-4CD3-8659-E03002353F9C_image"
    },
    {
      "_class": "MSImmutableOverrideProperty",
      "canOverride": false,
      "overrideName": "F6E25AAF-9C3A-4F1E-BD89-9031ADBCDD3E_layerStyle"
    },
    {
      "_class": "MSImmutableOverrideProperty",
      "canOverride": true,
      "overrideName": "3E1D0D47-2BB5-4806-B85F-9FBDD1BE3C98_textStyle"
    }
  ],
  "resizesContent": false,
  "resizingConstraint": 63,
  "resizingType": 0,
  "rotation": 0,
  "shouldBreakMaskChain": true,
  "style": {
    "_class": "style",
    "do_objectID": "2E95E6FA-486C-4330-A7F9-A7B29F2FFCCE",
    "endMarkerType": 0,
    "miterLimit": 10,
    "startMarkerType": 0,
    "windingRule": 1
  },
  "symbolID": "5CAE0DE0-31CD-432D-8A32-66D353FEBE65",
  "verticalRulerData": {
    "_class": "rulerData",
    "base": 0,
    "do_objectID": "C30C1C16-CA56-46F6-A3C3-CDDFCDFDBA8F",
    "guides": [
    ]
  }
}