{
  "_class": "symbolMaster",
  "allowsOverrides": true,
  "backgroundColor": {
    "_class": "color",
    "alpha": 1,
    "blue": 1,
    "do_objectID": "46EB7074-3F6F-437B-BB13-CDA5EF4835A6",
    "green": 1,
    "red": 1
  },
  "booleanOperation": -1,
  "changeIdentifier": 1197,
  "clippingMaskMode": 0,
  "do_objectID": "E6AEBC1E-8510-4A86-A4CA-CE1E8E745F7C",
  "exportOptions": {
    "_class": "exportOptions",
    "do_objectID": "DEBE7FCC-4610-44AD-9BA8-872467D7D89F",
    "exportFormats": [
    ],
    "includedLayerIds": [
    ],
    "layerOptions": 0,
    "shouldTrim": false
  },
  "frame": {
    "_class": "rect",
    "constrainProportions": false,
    "do_objectID": "DD2ABDB3-D63B-4F88-BF48-786883C1EE7D",
    "height": 64,
    "width": 200,
    "x": 25629,
    "y": 0
  },
  "groupLayout": {
    "_class": "MSImmutableFreeformGroupLayout"
  },
  "hasBackgroundColor": false,
  "hasClickThrough": true,
  "hasClippingMask": false,
  "horizontalRulerData": {
    "_class": "rulerData",
    "base": 0,
    "do_objectID": "AE9B9B51-4D2D-4C01-B807-AFC0D3C080F6",
    "guides": [
    ]
  },
  "includeBackgroundColorInExport": true,
  "includeBackgroundColorInInstance": false,
  "includeInCloudUpload": true,
  "isFixedToViewport": false,
  "isFlippedHorizontal": false,
  "isFlippedVertical": false,
  "isFlowHome": false,
  "isLocked": false,
  "isVisible": true,
  "layerListExpandedType": 2,
  "layers": [
    {
      "class": "rectangle",
      "id": "D0F45063-00FD-4612-BC56-E8731C18ED91"
    },
    {
      "class": "rectangle",
      "id": "F5042E9E-E1EE-4371-B448-027C1716CF91"
    },
    {
      "class": "text",
      "id": "BC49D634-8638-44B2-B7DE-90955D8D107E"
    },
    {
      "class": "text",
      "id": "9F6DF7B1-D0D8-400D-8CAA-02C7164CA0B4"
    },
    {
      "class": "symbolInstance",
      "id": "E99716F6-71E9-42A7-93AF-3F52B9B88342"
    }
  ],
  "name": "data table / cell / 64 tall / 2 lines / selectable / 01 unselected - enabled ",
  "nameIsFixed": true,
  "overrideProperties": [
    {
      "_class": "MSImmutableOverrideProperty",
      "canOverride": false,
      "overrideName": "BC49D634-8638-44B2-B7DE-90955D8D107E_textStyle"
    },
    {
      "_class": "MSImmutableOverrideProperty",
      "canOverride": false,
      "overrideName": "D0F45063-00FD-4612-BC56-E8731C18ED91_layerStyle"
    },
    {
      "_class": "MSImmutableOverrideProperty",
      "canOverride": false,
      "overrideName": "F5042E9E-E1EE-4371-B448-027C1716CF91_layerStyle"
    },
    {
      "_class": "MSImmutableOverrideProperty",
      "canOverride": false,
      "overrideName": "E99716F6-71E9-42A7-93AF-3F52B9B88342/A19EB3DE-5561-4192-ABC4-C256708F5390_layerStyle"
    },
    {
      "_class": "MSImmutableOverrideProperty",
      "canOverride": false,
      "overrideName": "E99716F6-71E9-42A7-93AF-3F52B9B88342_symbolID"
    },
    {
      "_class": "MSImmutableOverrideProperty",
      "canOverride": false,
      "overrideName": "9F6DF7B1-D0D8-400D-8CAA-02C7164CA0B4_textStyle"
    },
    {
      "_class": "MSImmutableOverrideProperty",
      "canOverride": true,
      "overrideName": "BC49D634-8638-44B2-B7DE-90955D8D107E_stringValue"
    },
    {
      "_class": "MSImmutableOverrideProperty",
      "canOverride": true,
      "overrideName": "9F6DF7B1-D0D8-400D-8CAA-02C7164CA0B4_stringValue"
    }
  ],
  "resizesContent": true,
  "resizingConstraint": 63,
  "resizingType": 0,
  "rotation": 0,
  "shouldBreakMaskChain": true,
  "style": {
    "_class": "style",
    "do_objectID": "C31AEB63-D293-4A36-BE7F-466EEF9AF45E",
    "endMarkerType": 0,
    "miterLimit": 10,
    "startMarkerType": 0,
    "windingRule": 1
  },
  "symbolID": "B7A2B84E-E375-4CCE-B4A5-3AA306E16897",
  "verticalRulerData": {
    "_class": "rulerData",
    "base": 0,
    "do_objectID": "DC8FF2C2-4486-47EC-B06B-8C2A97273DEA",
    "guides": [
    ]
  }
}