{
  "_class": "symbolInstance",
  "booleanOperation": -1,
  "clippingMaskMode": 0,
  "do_objectID": "59B8FBA7-09B1-4D5C-B1F5-A8DC607C248C",
  "exportOptions": {
    "_class": "exportOptions",
    "do_objectID": "763F6C00-4E72-4373-82BB-271819607BA9",
    "exportFormats": [
    ],
    "includedLayerIds": [
    ],
    "layerOptions": 0,
    "shouldTrim": false
  },
  "frame": {
    "_class": "rect",
    "constrainProportions": false,
    "do_objectID": "2B1BB0EE-442D-4F64-AAFE-E23FCC717AD5",
    "height": 32,
    "width": 16,
    "x": 100,
    "y": 0
  },
  "hasClippingMask": false,
  "horizontalSpacing": 0,
  "isFixedToViewport": false,
  "isFlippedHorizontal": false,
  "isFlippedVertical": false,
  "isLocked": false,
  "isVisible": true,
  "layerListExpandedType": 0,
  "name": "Spacer",
  "nameIsFixed": true,
  "overrideValues": [
  ],
  "resizingConstraint": 12,
  "resizingType": 0,
  "rotation": 0,
  "scale": 1,
  "shouldBreakMaskChain": false,
  "style": {
    "_class": "style",
    "do_objectID": "04775723-949A-4FE6-912C-2E44C290A00B",
    "endMarkerType": 0,
    "miterLimit": 10,
    "startMarkerType": 0,
    "windingRule": 1
  },
  "symbolID": "63CC0620-45C1-458D-B7FB-1F12F00E7A4C",
  "verticalSpacing": 0
}