{
  "_class": "symbolMaster",
  "allowsOverrides": true,
  "backgroundColor": {
    "_class": "color",
    "alpha": 1,
    "blue": 1,
    "do_objectID": "1649FBF0-E3F2-4FD3-8291-26EE45CDCD34",
    "green": 1,
    "red": 1
  },
  "booleanOperation": -1,
  "changeIdentifier": 1628,
  "clippingMaskMode": 0,
  "do_objectID": "49CC6111-9078-442A-8DF2-2ED3CB6CC3D0",
  "exportOptions": {
    "_class": "exportOptions",
    "do_objectID": "9E0113B1-44AF-4EA4-8778-16CB37414769",
    "exportFormats": [
    ],
    "includedLayerIds": [
    ],
    "layerOptions": 0,
    "shouldTrim": false
  },
  "frame": {
    "_class": "rect",
    "constrainProportions": false,
    "do_objectID": "D297912E-5404-4C4E-BBBE-F64A636507EF",
    "height": 32,
    "width": 116,
    "x": 11174,
    "y": 246
  },
  "groupLayout": {
    "_class": "MSImmutableFreeformGroupLayout"
  },
  "hasBackgroundColor": false,
  "hasClickThrough": true,
  "hasClippingMask": false,
  "horizontalRulerData": {
    "_class": "rulerData",
    "base": 0,
    "do_objectID": "ADB24C2C-0151-48FE-A2BB-459FBD19971E",
    "guides": [
    ]
  },
  "includeBackgroundColorInExport": true,
  "includeBackgroundColorInInstance": false,
  "includeInCloudUpload": true,
  "isFixedToViewport": false,
  "isFlippedHorizontal": false,
  "isFlippedVertical": false,
  "isFlowHome": false,
  "isLocked": false,
  "isVisible": true,
  "layerListExpandedType": 2,
  "layers": [
    {
      "class": "rectangle",
      "id": "F13C605F-CFE1-4392-9146-5CB6251C7437"
    },
    {
      "class": "symbolInstance",
      "id": "59B8FBA7-09B1-4D5C-B1F5-A8DC607C248C"
    },
    {
      "class": "text",
      "id": "7571E33D-140D-4555-85FB-BB7382AC151A"
    }
  ],
  "name": "button / 04 ghost / small / 01 text / 04 focus",
  "nameIsFixed": true,
  "overrideProperties": [
    {
      "_class": "MSImmutableOverrideProperty",
      "canOverride": true,
      "overrideName": "7571E33D-140D-4555-85FB-BB7382AC151A_stringValue"
    },
    {
      "_class": "MSImmutableOverrideProperty",
      "canOverride": false,
      "overrideName": "F13C605F-CFE1-4392-9146-5CB6251C7437_layerStyle"
    },
    {
      "_class": "MSImmutableOverrideProperty",
      "canOverride": false,
      "overrideName": "7571E33D-140D-4555-85FB-BB7382AC151A_textStyle"
    },
    {
      "_class": "MSImmutableOverrideProperty",
      "canOverride": true,
      "overrideName": "59B8FBA7-09B1-4D5C-B1F5-A8DC607C248C_symbolID"
    }
  ],
  "resizesContent": true,
  "resizingConstraint": 63,
  "resizingType": 0,
  "rotation": 0,
  "shouldBreakMaskChain": true,
  "style": {
    "_class": "style",
    "do_objectID": "D0E3144C-6B42-4E98-AEF3-E28310C360FD",
    "endMarkerType": 0,
    "miterLimit": 10,
    "startMarkerType": 0,
    "windingRule": 1
  },
  "symbolID": "DC22B62A-CCC2-451F-8E3A-5EF7A62815E5",
  "userInfo": {
    "com.animaapp.stc-sketch-plugin": {
      "kModelPropertiesKey": {
      }
    }
  },
  "verticalRulerData": {
    "_class": "rulerData",
    "base": 0,
    "do_objectID": "9B03AFEF-85BB-4427-8F4A-E6FF56E65858",
    "guides": [
    ]
  }
}