{
  "_class": "symbolInstance",
  "booleanOperation": -1,
  "clippingMaskMode": 0,
  "do_objectID": "AE6B79DF-BA05-4E2D-A177-F844A1FC969B",
  "exportOptions": {
    "_class": "exportOptions",
    "do_objectID": "1EE1C97C-C8FA-4EF6-A14E-D2B332B0EE18",
    "exportFormats": [
    ],
    "includedLayerIds": [
    ],
    "layerOptions": 0,
    "shouldTrim": false
  },
  "frame": {
    "_class": "rect",
    "constrainProportions": false,
    "do_objectID": "8557BECF-C679-4ABF-8931-68CA76FEF645",
    "height": 16,
    "width": 16,
    "x": 50,
    "y": 0
  },
  "hasClippingMask": false,
  "horizontalSpacing": 0,
  "isFixedToViewport": false,
  "isFlippedHorizontal": false,
  "isFlippedVertical": false,
  "isLocked": false,
  "isVisible": true,
  "layerListExpandedType": 0,
  "name": "Icon",
  "nameIsFixed": true,
  "overrideValues": [
    {
      "_class": "overrideValue",
      "overrideName": "95E9FEE7-F8A2-49EE-B6F0-BD905FD6CDD7_layerStyle",
      "value": "A7E8A898-757B-4128-B3CE-E8002E0B16DA"
    }
  ],
  "resizingConstraint": 12,
  "resizingType": 0,
  "rotation": 0,
  "scale": 1,
  "shouldBreakMaskChain": false,
  "style": {
    "_class": "style",
    "do_objectID": "0C99064D-A9AA-46DC-A332-05A2A8719232",
    "endMarkerType": 0,
    "miterLimit": 10,
    "startMarkerType": 0,
    "windingRule": 1
  },
  "symbolID": "B5688EEC-C3A2-4D5B-BD6C-FB7B3B22F9AC",
  "verticalSpacing": 0
}