{
  "_class": "group",
  "booleanOperation": -1,
  "clippingMaskMode": 0,
  "do_objectID": "F6DBE7BB-A064-43BD-9526-F5E9871C918E",
  "exportOptions": {
    "_class": "exportOptions",
    "do_objectID": "3A265003-3AEE-45B9-8949-5B4F009F3291",
    "exportFormats": [
    ],
    "includedLayerIds": [
    ],
    "layerOptions": 0,
    "shouldTrim": false
  },
  "frame": {
    "_class": "rect",
    "constrainProportions": false,
    "do_objectID": "30E32C09-DEB9-43EF-9F27-C525A8678071",
    "height": 134,
    "width": 1024,
    "x": 0,
    "y": 0
  },
  "groupLayout": {
    "_class": "MSImmutableFreeformGroupLayout",
    "do_objectID": "1D4B13FD-8BB3-4859-8F52-764537D52E8A"
  },
  "hasClickThrough": false,
  "hasClippingMask": false,
  "isFixedToViewport": false,
  "isFlippedHorizontal": false,
  "isFlippedVertical": false,
  "isLocked": false,
  "isVisible": true,
  "layerListExpandedType": 0,
  "layers": [
    {
      "class": "symbolInstance",
      "id": "06D2C6FF-2E0F-4031-99FD-F51869D8358C"
    },
    {
      "class": "symbolInstance",
      "id": "A2E4173B-330C-4CB1-AE05-3A3CBF8ACF83"
    }
  ],
  "name": "toolbar / settings open",
  "nameIsFixed": true,
  "resizingConstraint": 63,
  "resizingType": 0,
  "rotation": 0,
  "shouldBreakMaskChain": false,
  "style": {
    "_class": "style",
    "do_objectID": "94134DCE-2853-44C8-959A-9BD69BEAFF65",
    "endMarkerType": 0,
    "miterLimit": 10,
    "startMarkerType": 0,
    "windingRule": 1
  }
}