{
  "_class": "symbolInstance",
  "booleanOperation": 0,
  "clippingMaskMode": 0,
  "do_objectID": "232688D8-3FCB-4E11-8150-814C66F0E0C4",
  "exportOptions": {
    "_class": "exportOptions",
    "do_objectID": "A38DAA76-D636-4D4A-8F48-C3641CBA2EBE",
    "exportFormats": [
    ],
    "includedLayerIds": [
    ],
    "layerOptions": 0,
    "shouldTrim": false
  },
  "frame": {
    "_class": "rect",
    "constrainProportions": false,
    "do_objectID": "28E9E70E-BD96-4021-B273-F14E8E8D0C49",
    "height": 660,
    "width": 1366,
    "x": 0,
    "y": 1559
  },
  "hasClippingMask": false,
  "horizontalSpacing": 0,
  "isFixedToViewport": false,
  "isFlippedHorizontal": false,
  "isFlippedVertical": false,
  "isLocked": false,
  "isVisible": true,
  "layerListExpandedType": 0,
  "name": "Lookbook Left",
  "nameIsFixed": false,
  "overrideValues": [
    {
      "_class": "overrideValue",
      "overrideName": "C0626D72-1B2C-4F35-9CD6-96BD499F2BF0_image",
      "value": {
        "_class": "MSJSONFileReference",
        "_ref": "images/e36dbe60c666a7a4177a01fa4669a9f1b5853981.png",
        "_ref_class": "MSImageData"
      }
    },
    {
      "_class": "overrideValue",
      "overrideName": "77361458-E4AF-4C28-8536-F82A45C2BD4F_image",
      "value": {
        "_class": "MSJSONFileReference",
        "_ref": "images/c41a6dcd48e891655625c69edb94431cee8e0212.png",
        "_ref_class": "MSImageData"
      }
    },
    {
      "_class": "overrideValue",
      "overrideName": "73FFEA96-531F-4CD9-A68A-0061A9174DA5_image",
      "value": {
        "_class": "MSJSONFileReference",
        "_ref": "images/6a2d89736cc61938edf146c65b3c0785a00c6cd1.png",
        "_ref_class": "MSImageData"
      }
    },
    {
      "_class": "overrideValue",
      "overrideName": "2518D8FF-BB44-4D4C-8D2D-4AA8A696E364_image",
      "value": {
        "_class": "MSJSONFileReference",
        "_ref": "images/c41a6dcd48e891655625c69edb94431cee8e0212.png",
        "_ref_class": "MSImageData"
      }
    },
    {
      "_class": "overrideValue",
      "overrideName": "4953453A-2A47-4C8D-805F-83AB2742746D_image",
      "value": {
        "_class": "MSJSONFileReference",
        "_ref": "images/97474b6ff01b402bb5580f9eef8f12160a6a5f87.png",
        "_ref_class": "MSImageData"
      }
    },
    {
      "_class": "overrideValue",
      "overrideName": "F5C304B4-3FC0-4BF5-946F-423E5E7640A6_stringValue",
      "value": "Arms-free bags are going everywhere this season. Shop our favorite backpacks for spring."
    },
    {
      "_class": "overrideValue",
      "overrideName": "7847FCF4-DAA6-4924-B312-6500F829B830_image",
      "value": {
        "_class": "MSJSONFileReference",
        "_ref": "images/72291750d1b88fbb2eee336b25ce6caaa2ec0320.png",
        "_ref_class": "MSImageData"
      }
    },
    {
      "_class": "overrideValue",
      "overrideName": "1C47241C-4507-4DFE-BCDF-D9E919B9D982_image",
      "value": {
        "_class": "MSJSONFileReference",
        "_ref": "images/fdffb8593322aa3316d1642a04f2d489a0906d03.png",
        "_ref_class": "MSImageData"
      }
    },
    {
      "_class": "overrideValue",
      "overrideName": "62D005AD-4AE3-463C-AE7D-888F30913135_image",
      "value": {
        "_class": "MSJSONFileReference",
        "_ref": "images/cdc9c90c2759aed2b443a890cc88ad20245e73e5.png",
        "_ref_class": "MSImageData"
      }
    },
    {
      "_class": "overrideValue",
      "overrideName": "BC7375C1-64BC-4392-961D-E8C16B87AB36_image",
      "value": {
        "_class": "MSJSONFileReference",
        "_ref": "images/75bd698d46c9b8425ec9e96f64bce6e158f99267.png",
        "_ref_class": "MSImageData"
      }
    },
    {
      "_class": "overrideValue",
      "overrideName": "DCCE69E7-EAD3-413F-825C-BF372658E14C_stringValue",
      "value": "Got your back"
    }
  ],
  "resizingConstraint": 63,
  "resizingType": 0,
  "rotation": 0,
  "scale": 1,
  "shouldBreakMaskChain": false,
  "style": {
    "_class": "style",
    "do_objectID": "F39D4BE7-B310-4452-BEC4-B8D6AA30B5F8",
    "endMarkerType": 0,
    "miterLimit": 10,
    "startMarkerType": 0,
    "windingRule": 1
  },
  "symbolID": "5AE91EBF-6C06-42FF-BE16-693855E80413",
  "verticalSpacing": 0
}