{
  "_class": "symbolInstance",
  "booleanOperation": 0,
  "clippingMaskMode": 0,
  "do_objectID": "8057B8FA-50F7-4F15-9895-FFCF27EC3F86",
  "exportOptions": {
    "_class": "exportOptions",
    "do_objectID": "6814FEBF-EE7E-4BB8-B9FE-DE227946DF59",
    "exportFormats": [
    ],
    "includedLayerIds": [
    ],
    "layerOptions": 0,
    "shouldTrim": false
  },
  "frame": {
    "_class": "rect",
    "constrainProportions": false,
    "do_objectID": "7FD215EE-99B0-4325-91F7-1A30CF66387F",
    "height": 108,
    "width": 1366,
    "x": 0,
    "y": 0
  },
  "hasClippingMask": false,
  "horizontalSpacing": 0,
  "isFixedToViewport": false,
  "isFlippedHorizontal": false,
  "isFlippedVertical": false,
  "isLocked": false,
  "isVisible": true,
  "layerListExpandedType": 0,
  "name": "Closed Navigation",
  "nameIsFixed": false,
  "overrideValues": [
  ],
  "resizingConstraint": 63,
  "resizingType": 0,
  "rotation": 0,
  "scale": 1,
  "shouldBreakMaskChain": false,
  "style": {
    "_class": "style",
    "do_objectID": "57217E01-9F2C-4C0B-AA27-D63E6EBC40E0",
    "endMarkerType": 0,
    "miterLimit": 10,
    "startMarkerType": 0,
    "windingRule": 1
  },
  "symbolID": "722B10AF-7414-4360-97FF-971D81AF7304",
  "verticalSpacing": 0
}