{
  "_class": "shapePath",
  "booleanOperation": -1,
  "clippingMaskMode": 0,
  "do_objectID": "F5779ED5-7030-4134-A134-345C76590E44",
  "edited": true,
  "exportOptions": {
    "_class": "exportOptions",
    "exportFormats": [
    ],
    "includedLayerIds": [
    ],
    "layerOptions": 0,
    "shouldTrim": false
  },
  "frame": {
    "_class": "rect",
    "constrainProportions": false,
    "height": 16.01847643244571,
    "width": 15.05721577979561,
    "x": 2.064697910492441,
    "y": 2.102146145620949
  },
  "hasClippingMask": false,
  "isClosed": true,
  "isFixedToViewport": false,
  "isFlippedHorizontal": false,
  "isFlippedVertical": false,
  "isLocked": false,
  "isVisible": true,
  "layerListExpandedType": 0,
  "name": "Outline",
  "nameIsFixed": true,
  "pointRadiusBehaviour": 1,
  "points": [
    {
      "_class": "curvePoint",
      "cornerRadius": 0,
      "curveFrom": "{0.8620239480612224, 0.31713802715720901}",
      "curveMode": 4,
      "curveTo": "{0.83625422499847069, 0.31763978897545742}",
      "hasCurveFrom": true,
      "hasCurveTo": true,
      "point": "{0.84075355317379652, 0.33519233641774332}"
    },
    {
      "_class": "curvePoint",
      "cornerRadius": 0,
      "curveFrom": "{0.96689376917902059, 0.31867814492329044}",
      "curveMode": 3,
      "curveTo": "{0.89370252821096685, 0.30805400041937381}",
      "hasCurveFrom": true,
      "hasCurveTo": true,
      "point": "{0.92325550033326986, 0.31234379032038956}"
    },
    {
      "_class": "curvePoint",
      "cornerRadius": 0,
      "curveFrom": "{0.99961168104991771, 0.42654828180630194}",
      "curveMode": 3,
      "curveTo": "{0.99650622876467809, 0.35151769822440593}",
      "hasCurveFrom": true,
      "hasCurveTo": true,
      "point": "{0.99862608233429007, 0.40231225991536429}"
    },
    {
      "_class": "curvePoint",
      "cornerRadius": 0,
      "curveFrom": "{1.0000061550261372, 0.44914803720852803}",
      "curveMode": 2,
      "curveTo": "{0.99990902599747111, 0.43605112350195419}",
      "hasCurveFrom": true,
      "hasCurveTo": true,
      "point": "{0.9999801301074861, 0.4456388276707034}"
    },
    {
      "_class": "curvePoint",
      "cornerRadius": 0,
      "curveFrom": "{0.99997589043107671, 0.46407882355651719}",
      "curveMode": 2,
      "curveTo": "{1.0000050029037653, 0.45198771101286528}",
      "hasCurveFrom": true,
      "hasCurveTo": true,
      "point": "{0.99998602058770591, 0.4594948235616334}"
    },
    {
      "_class": "curvePoint",
      "cornerRadius": 0,
      "curveFrom": "{0.99997252544600002, 0.50127585860246671}",
      "curveMode": 3,
      "curveTo": "{0.99997589043107671, 0.46407882355651719}",
      "hasCurveFrom": true,
      "hasCurveTo": true,
      "point": "{0.99997252544600002, 0.46962979819613693}"
    },
    {
      "_class": "curvePoint",
      "cornerRadius": 0,
      "curveFrom": "{0.99360428384855048, 0.59059291421013049}",
      "curveMode": 3,
      "curveTo": "{0.99923488413465533, 0.52145042842775757}",
      "hasCurveFrom": true,
      "hasCurveTo": true,
      "point": "{0.99724153422670914, 0.54647703258044511}"
    },
    {
      "_class": "curvePoint",
      "cornerRadius": 0,
      "curveFrom": "{0.97257809032114029, 0.68520675033296718}",
      "curveMode": 2,
      "curveTo": "{0.98768522772644363, 0.63547695222304379}",
      "hasCurveFrom": true,
      "hasCurveTo": true,
      "point": "{0.98028571720935043, 0.65984891396608125}"
    },
    {
      "_class": "curvePoint",
      "cornerRadius": 0,
      "curveFrom": "{0.92958147485483, 0.75764082808987843}",
      "curveMode": 4,
      "curveTo": "{0.95160048826384225, 0.72857957544763641}",
      "hasCurveFrom": true,
      "hasCurveTo": true,
      "point": "{0.93192753588321164, 0.7550741671319674}"
    },
    {
      "_class": "curvePoint",
      "cornerRadius": 0,
      "curveFrom": "{0.9108239852303468, 0.77923873042929948}",
      "curveMode": 2,
      "curveTo": "{0.92536914437962581, 0.76236811841586338}",
      "hasCurveFrom": true,
      "hasCurveTo": true,
      "point": "{0.91992021345433361, 0.76868821423504008}"
    },
    {
      "_class": "curvePoint",
      "cornerRadius": 0,
      "curveFrom": "{0.88882749029574781, 0.80693033901216393}",
      "curveMode": 2,
      "curveTo": "{0.9017310456597093, 0.79026443523534329}",
      "hasCurveFrom": true,
      "hasCurveTo": true,
      "point": "{0.89328280293845685, 0.80117597056837664}"
    },
    {
      "_class": "curvePoint",
      "cornerRadius": 0,
      "curveFrom": "{0.86809475479967646, 0.83576245187232112}",
      "curveMode": 3,
      "curveTo": "{0.88466949061800282, 0.81250411371339737}",
      "hasCurveFrom": true,
      "hasCurveTo": true,
      "point": "{0.88086577035842795, 0.81784164747736365}"
    },
    {
      "_class": "curvePoint",
      "cornerRadius": 0,
      "curveFrom": "{0.85441844092699382, 0.87524436211970247}",
      "curveMode": 3,
      "curveTo": "{0.85998567836579254, 0.8502431636576262}",
      "hasCurveFrom": true,
      "hasCurveTo": true,
      "point": "{0.85831271639909512, 0.85781006491857348}"
    },
    {
      "_class": "curvePoint",
      "cornerRadius": 0,
      "curveFrom": "{0.85277092991637882, 0.89423287604344215}",
      "curveMode": 2,
      "curveTo": "{0.85321506064585617, 0.88323959145215103}",
      "hasCurveFrom": true,
      "hasCurveTo": true,
      "point": "{0.85286374556032996, 0.89165993181432768}"
    },
    {
      "_class": "curvePoint",
      "cornerRadius": 0,
      "curveFrom": "{0.8525196591824572, 0.90507052303719515}",
      "curveMode": 2,
      "curveTo": "{0.85277092991637882, 0.89423287604344215}",
      "hasCurveFrom": true,
      "hasCurveTo": true,
      "point": "{0.85270147810808905, 0.89717285948081293}"
    },
    {
      "_class": "curvePoint",
      "cornerRadius": 0,
      "curveFrom": "{0.8518132261195841, 0.91809531704086389}",
      "curveMode": 2,
      "curveTo": "{0.85240287291153205, 0.90848887323348393}",
      "hasCurveFrom": true,
      "hasCurveTo": true,
      "point": "{0.85202853390834121, 0.91459313719594104}"
    },
    {
      "_class": "curvePoint",
      "cornerRadius": 0,
      "curveFrom": "{0.8527530009801092, 0.93367890565641753}",
      "curveMode": 2,
      "curveTo": "{0.85188000599829594, 0.92214652644254536}",
      "hasCurveFrom": true,
      "hasCurveTo": true,
      "point": "{0.85221873191439801, 0.92662114061036238}"
    },
    {
      "_class": "curvePoint",
      "cornerRadius": 0,
      "curveFrom": "{0.85695831621596452, 0.95620078600361169}",
      "curveMode": 2,
      "curveTo": "{0.85392855613835372, 0.94142636810653868}",
      "hasCurveFrom": true,
      "hasCurveTo": true,
      "point": "{0.8555551946190717, 0.94935855945699632}"
    },
    {
      "_class": "curvePoint",
      "cornerRadius": 0,
      "curveFrom": "{0.85921573668851281, 0.96459762542799088}",
      "curveMode": 4,
      "curveTo": "{0.85834978610832102, 0.96163562327410235}",
      "hasCurveFrom": false,
      "hasCurveTo": true,
      "point": "{0.85921573668851281, 0.96459762542799088}"
    },
    {
      "_class": "curvePoint",
      "cornerRadius": 0,
      "curveFrom": "{0.86680453141413516, 0.99055525723387428}",
      "curveMode": 1,
      "curveTo": "{0.86680453141413516, 0.99055525723387428}",
      "hasCurveFrom": false,
      "hasCurveTo": false,
      "point": "{0.86680453141413516, 0.99055525723387428}"
    },
    {
      "_class": "curvePoint",
      "cornerRadius": 0,
      "curveFrom": "{0.83434300170779929, 0.99451212393591326}",
      "curveMode": 4,
      "curveTo": "{0.83840378759388889, 0.99401713837601691}",
      "hasCurveFrom": true,
      "hasCurveTo": false,
      "point": "{0.83840378759388889, 0.99401713837601691}"
    },
    {
      "_class": "curvePoint",
      "cornerRadius": 0,
      "curveFrom": "{0.80769745427550188, 0.99689935047853429}",
      "curveMode": 2,
      "curveTo": "{0.82754468445746487, 0.99523243143247386}",
      "hasCurveFrom": true,
      "hasCurveTo": true,
      "point": "{0.81901228221311739, 0.99594904648048577}"
    },
    {
      "_class": "curvePoint",
      "cornerRadius": 0,
      "curveFrom": "{0.77168050280740386, 0.99809213699326871}",
      "curveMode": 2,
      "curveTo": "{0.79648534497231105, 0.99755578015928914}",
      "hasCurveFrom": true,
      "hasCurveTo": true,
      "point": "{0.7858907047431174, 0.99778486880467165}"
    },
    {
      "_class": "curvePoint",
      "cornerRadius": 0,
      "curveFrom": "{0.7173827534698457, 0.99126657710599964}",
      "curveMode": 3,
      "curveTo": "{0.75941986206122769, 0.99762001645063603}",
      "hasCurveFrom": true,
      "hasCurveTo": true,
      "point": "{0.74928523506763678, 0.9960984080017542}"
    },
    {
      "_class": "curvePoint",
      "cornerRadius": 0,
      "curveFrom": "{0.63613421773444456, 0.95905718890716984}",
      "curveMode": 3,
      "curveTo": "{0.68578943986040841, 0.95410478504704377}",
      "hasCurveFrom": true,
      "hasCurveTo": true,
      "point": "{0.66477725476576177, 0.9164983860470346}"
    },
    {
      "_class": "curvePoint",
      "cornerRadius": 0,
      "curveFrom": "{0.54659989316058033, 1.0002391111470124}",
      "curveMode": 2,
      "curveTo": "{0.6050395263516789, 0.99333190322681575}",
      "hasCurveFrom": true,
      "hasCurveTo": true,
      "point": "{0.57484660110923247, 0.99690028250199447}"
    },
    {
      "_class": "curvePoint",
      "cornerRadius": 0,
      "curveFrom": "{0.42306708496506118, 0.99921882917179705}",
      "curveMode": 3,
      "curveTo": "{0.50724233362653881, 1.0005812072471996}",
      "hasCurveFrom": true,
      "hasCurveTo": true,
      "point": "{0.43018349497644248, 0.99933515726040101}"
    },
    {
      "_class": "curvePoint",
      "cornerRadius": 0,
      "curveFrom": "{0.38762586205681887, 0.99862521748826405}",
      "curveMode": 3,
      "curveTo": "{0.42306708496506118, 0.99921882917179705}",
      "hasCurveFrom": true,
      "hasCurveTo": true,
      "point": "{0.41597423059550287, 0.9991001311089589}"
    },
    {
      "_class": "curvePoint",
      "cornerRadius": 0,
      "curveFrom": "{0.36301534901914284, 0.9983305622909433}",
      "curveMode": 4,
      "curveTo": "{0.37691546974366213, 0.99846302846307944}",
      "hasCurveFrom": false,
      "hasCurveTo": true,
      "point": "{0.36301534901914284, 0.9983305622909433}"
    },
    {
      "_class": "curvePoint",
      "cornerRadius": 0,
      "curveFrom": "{0.33344708946596502, 0.99804878098577621}",
      "curveMode": 1,
      "curveTo": "{0.33344708946596502, 0.99804878098577621}",
      "hasCurveFrom": false,
      "hasCurveTo": false,
      "point": "{0.33344708946596502, 0.99804878098577621}"
    },
    {
      "_class": "curvePoint",
      "cornerRadius": 0,
      "curveFrom": "{0.33901729144211751, 0.96943509295729124}",
      "curveMode": 4,
      "curveTo": "{0.33876960223863428, 0.97070745285139126}",
      "hasCurveFrom": true,
      "hasCurveTo": false,
      "point": "{0.33876960223863428, 0.97070745285139126}"
    },
    {
      "_class": "curvePoint",
      "cornerRadius": 0,
      "curveFrom": "{0.34119383186565416, 0.95235609012500588}",
      "curveMode": 2,
      "curveTo": "{0.33944957796254482, 0.96676438683325483}",
      "hasCurveFrom": true,
      "hasCurveTo": true,
      "point": "{0.33989779327942932, 0.96306193315759381}"
    },
    {
      "_class": "curvePoint",
      "cornerRadius": 0,
      "curveFrom": "{0.33919746591065708, 0.91917893733826295}",
      "curveMode": 2,
      "curveTo": "{0.341565902370283, 0.94124531798280109}",
      "hasCurveFrom": true,
      "hasCurveTo": true,
      "point": "{0.3404967889500104, 0.93128454255729332}"
    },
    {
      "_class": "curvePoint",
      "cornerRadius": 0,
      "curveFrom": "{0.32284771107285576, 0.90062626128040935}",
      "curveMode": 2,
      "curveTo": "{0.33591794002448655, 0.91103432959428998}",
      "hasCurveFrom": true,
      "hasCurveTo": true,
      "point": "{0.33207135066199184, 0.90798876821757402}"
    },
    {
      "_class": "curvePoint",
      "cornerRadius": 0,
      "curveFrom": "{0.27060756745652542, 0.85418819834928772}",
      "curveMode": 4,
      "curveTo": "{0.31276096770405309, 0.89182668392069542}",
      "hasCurveFrom": true,
      "hasCurveTo": true,
      "point": "{0.29240774827613025, 0.87365422915980107}"
    },
    {
      "_class": "curvePoint",
      "cornerRadius": 0,
      "curveFrom": "{0.25373435882276785, 0.83966366758226896}",
      "curveMode": 4,
      "curveTo": "{0.26371580337588957, 0.84811670743061274}",
      "hasCurveFrom": false,
      "hasCurveTo": true,
      "point": "{0.25373435882276785, 0.83966366758226896}"
    },
    {
      "_class": "curvePoint",
      "cornerRadius": 0,
      "curveFrom": "{0.18789435526333967, 0.76967188031267197}",
      "curveMode": 1,
      "curveTo": "{0.19847845944750539, 0.78216756276330524}",
      "hasCurveFrom": true,
      "hasCurveTo": false,
      "point": "{0.19847845944750539, 0.78216756276330524}"
    },
    {
      "_class": "curvePoint",
      "cornerRadius": 0,
      "curveFrom": "{0.1059440261891077, 0.64507017591020244}",
      "curveMode": 3,
      "curveTo": "{0.13545469296071819, 0.68530299559353536}",
      "hasCurveFrom": true,
      "hasCurveTo": true,
      "point": "{0.113913207917443, 0.6559191454689961}"
    },
    {
      "_class": "curvePoint",
      "cornerRadius": 0,
      "curveFrom": "{0.067107780175122866, 0.60000034153331494}",
      "curveMode": 3,
      "curveTo": "{0.10229291199590657, 0.64075725288274987}",
      "hasCurveFrom": true,
      "hasCurveTo": true,
      "point": "{0.068777727459222379, 0.60193536753739008}"
    },
    {
      "_class": "curvePoint",
      "cornerRadius": 0,
      "curveFrom": "{0.038132987268101215, 0.56635168176226613}",
      "curveMode": 3,
      "curveTo": "{0.067107780175122866, 0.60000034153331494}",
      "hasCurveFrom": true,
      "hasCurveTo": true,
      "point": "{0.065436851903006105, 0.59806083158667467}"
    },
    {
      "_class": "curvePoint",
      "cornerRadius": 0,
      "curveFrom": "{-0.00087285297794603733, 0.50444712653743828}",
      "curveMode": 3,
      "curveTo": "{0.023499145706267748, 0.54792958183018525}",
      "hasCurveFrom": true,
      "hasCurveTo": true,
      "point": "{0.014847996095164658, 0.53267669257357009}"
    },
    {
      "_class": "curvePoint",
      "cornerRadius": 0,
      "curveFrom": "{0.010881954629485548, 0.40569908330874194}",
      "curveMode": 3,
      "curveTo": "{-0.0025166222339430963, 0.48974308536652211}",
      "hasCurveFrom": true,
      "hasCurveTo": true,
      "point": "{0.0025857136504263607, 0.45779895048724489}"
    },
    {
      "_class": "curvePoint",
      "cornerRadius": 0,
      "curveFrom": "{0.1596403311903668, 0.37549144721031907}",
      "curveMode": 3,
      "curveTo": "{0.066056986804136283, 0.36709561789426592}",
      "hasCurveFrom": true,
      "hasCurveTo": true,
      "point": "{0.12419626545524555, 0.3723459035102305}"
    },
    {
      "_class": "curvePoint",
      "cornerRadius": 0,
      "curveFrom": "{0.23337253610976116, 0.42664713007671373}",
      "curveMode": 3,
      "curveTo": "{0.18545734911909492, 0.38980874477074284}",
      "hasCurveFrom": true,
      "hasCurveTo": true,
      "point": "{0.22758980616982433, 0.42221213554473103}"
    },
    {
      "_class": "curvePoint",
      "cornerRadius": 0,
      "curveFrom": "{0.24965450555486485, 0.4425485260221903}",
      "curveMode": 2,
      "curveTo": "{0.23946368303482835, 0.43220759066588049}",
      "hasCurveFrom": true,
      "hasCurveTo": true,
      "point": "{0.24608970010678147, 0.43893121028305609}"
    },
    {
      "_class": "curvePoint",
      "cornerRadius": 0,
      "curveFrom": "{0.25824786237173625, 0.45187468564363015}",
      "curveMode": 2,
      "curveTo": "{0.25334425541606753, 0.44647320184810557}",
      "hasCurveFrom": true,
      "hasCurveTo": true,
      "point": "{0.25726750316832953, 0.4507947878461786}"
    },
    {
      "_class": "curvePoint",
      "cornerRadius": 0,
      "curveFrom": "{0.25989571346959156, 0.44834612155754106}",
      "curveMode": 4,
      "curveTo": "{0.25960049866952312, 0.45339101127995707}",
      "hasCurveFrom": true,
      "hasCurveTo": true,
      "point": "{0.2611523876107727, 0.45514354112951771}"
    },
    {
      "_class": "curvePoint",
      "cornerRadius": 0,
      "curveFrom": "{0.25485465193882278, 0.42306642375027392}",
      "curveMode": 2,
      "curveTo": "{0.25857066307599375, 0.44154411820939155}",
      "hasCurveFrom": true,
      "hasCurveTo": true,
      "point": "{0.25701788737290787, 0.43382301244677385}"
    },
    {
      "_class": "curvePoint",
      "cornerRadius": 0,
      "curveFrom": "{0.24623525255201231, 0.38614638477334945}",
      "curveMode": 2,
      "curveTo": "{0.2526431056599393, 0.41291930912713021}",
      "hasCurveFrom": true,
      "hasCurveTo": true,
      "point": "{0.25037670262535722, 0.40342123392863499}"
    },
    {
      "_class": "curvePoint",
      "cornerRadius": 0,
      "curveFrom": "{0.24039440333692078, 0.36450695712088732}",
      "curveMode": 2,
      "curveTo": "{0.24358454549557731, 0.37579497620362001}",
      "hasCurveFrom": true,
      "hasCurveTo": true,
      "point": "{0.24087298422365958, 0.36619485292091053}"
    },
    {
      "_class": "curvePoint",
      "cornerRadius": 0,
      "curveFrom": "{0.23845841457650255, 0.35779224346066191}",
      "curveMode": 2,
      "curveTo": "{0.24039440333692078, 0.36450695712088732}",
      "hasCurveFrom": true,
      "hasCurveTo": true,
      "point": "{0.23991112238644963, 0.36282665552471521}"
    },
    {
      "_class": "curvePoint",
      "cornerRadius": 0,
      "curveFrom": "{0.22841925001443006, 0.32415307494690376}",
      "curveMode": 4,
      "curveTo": "{0.23163801978125911, 0.33504422461092431}",
      "hasCurveFrom": true,
      "hasCurveTo": true,
      "point": "{0.2320153502816428, 0.33631167380173516}"
    },
    {
      "_class": "curvePoint",
      "cornerRadius": 0,
      "curveFrom": "{0.22120186884138338, 0.29657886206457368}",
      "curveMode": 3,
      "curveTo": "{0.22540715910904191, 0.31307326321188383}",
      "hasCurveFrom": true,
      "hasCurveTo": true,
      "point": "{0.22197210415828028, 0.29960637905614873}"
    },
    {
      "_class": "curvePoint",
      "cornerRadius": 0,
      "curveFrom": "{0.21599817003844018, 0.27575862785979738}",
      "curveMode": 3,
      "curveTo": "{0.22120186884138338, 0.29657886206457368}",
      "hasCurveFrom": true,
      "hasCurveTo": true,
      "point": "{0.22043829956156519, 0.29355209828096573}"
    },
    {
      "_class": "curvePoint",
      "cornerRadius": 0,
      "curveFrom": "{0.20299954264083353, 0.22513262369747253}",
      "curveMode": 3,
      "curveTo": "{0.21357715305387104, 0.26612602477463709}",
      "hasCurveFrom": true,
      "hasCurveTo": true,
      "point": "{0.21081395841799414, 0.25556388409081554}"
    },
    {
      "_class": "curvePoint",
      "cornerRadius": 0,
      "curveFrom": "{0.18548416217599978, 0.10333523486818622}",
      "curveMode": 3,
      "curveTo": "{0.1943815809378048, 0.18396461257427812}",
      "hasCurveFrom": true,
      "hasCurveTo": true,
      "point": "{0.19192270952077051, 0.1614148636357137}"
    },
    {
      "_class": "curvePoint",
      "cornerRadius": 0,
      "curveFrom": "{0.24105759333982257, 8.121574200440238e-05}",
      "curveMode": 2,
      "curveTo": "{0.18974680412530273, 0.05640037772986338}",
      "hasCurveFrom": true,
      "hasCurveTo": true,
      "point": "{0.21531326216901941, 0.02832854678302954}"
    },
    {
      "_class": "curvePoint",
      "cornerRadius": 0,
      "curveFrom": "{0.35247232953470714, 0.018857067815664399}",
      "curveMode": 3,
      "curveTo": "{0.29537091015125033, -0.0083130366936195847}",
      "hasCurveFrom": true,
      "hasCurveTo": true,
      "point": "{0.33160671726095087, 0.0089354063683138082}"
    },
    {
      "_class": "curvePoint",
      "cornerRadius": 0,
      "curveFrom": "{0.38832249941736779, 0.067215941355617551}",
      "curveMode": 3,
      "curveTo": "{0.36910285123758579, 0.036321853739883912}",
      "hasCurveFrom": true,
      "hasCurveTo": true,
      "point": "{0.38361439359897931, 0.059648027921570111}"
    },
    {
      "_class": "curvePoint",
      "cornerRadius": 0,
      "curveFrom": "{0.39937489502531032, 0.088798292731078463}",
      "curveMode": 2,
      "curveTo": "{0.39260584807861476, 0.075084445376414843}",
      "hasCurveFrom": true,
      "hasCurveTo": true,
      "point": "{0.39689681506388275, 0.083777791234888002}"
    },
    {
      "_class": "curvePoint",
      "cornerRadius": 0,
      "curveFrom": "{0.4213271863141132, 0.13516317834511124}",
      "curveMode": 4,
      "curveTo": "{0.40618402826612898, 0.10335799887106048}",
      "hasCurveFrom": true,
      "hasCurveTo": true,
      "point": "{0.40525976832212135, 0.10141790770269446}"
    },
    {
      "_class": "curvePoint",
      "cornerRadius": 0,
      "curveFrom": "{0.44310930115786373, 0.2398685811448768}",
      "curveMode": 3,
      "curveTo": "{0.43192349382202833, 0.17383484187146017}",
      "hasCurveFrom": true,
      "hasCurveTo": true,
      "point": "{0.44139275601971983, 0.22972494849547151}"
    },
    {
      "_class": "curvePoint",
      "cornerRadius": 0,
      "curveFrom": "{0.45796216398870787, 0.25267991341068041}",
      "curveMode": 4,
      "curveTo": "{0.44511141032585727, 0.25098127195203934}",
      "hasCurveFrom": true,
      "hasCurveTo": true,
      "point": "{0.44748512224592496, 0.26360620118793876}"
    },
    {
      "_class": "curvePoint",
      "cornerRadius": 0,
      "curveFrom": "{0.50918484617824944, 0.23350031319545014}",
      "curveMode": 3,
      "curveTo": "{0.47102179419265416, 0.24418345800095284}",
      "hasCurveFrom": true,
      "hasCurveTo": true,
      "point": "{0.48528025079291548, 0.24017848760849642}"
    },
    {
      "_class": "curvePoint",
      "cornerRadius": 0,
      "curveFrom": "{0.58515741045879799, 0.24143085012221216}",
      "curveMode": 2,
      "curveTo": "{0.53535538511867142, 0.23180918209880469}",
      "hasCurveFrom": true,
      "hasCurveTo": true,
      "point": "{0.55819915148480537, 0.23624940449609355}"
    },
    {
      "_class": "curvePoint",
      "cornerRadius": 0,
      "curveFrom": "{0.62751832400940166, 0.28165721399827237}",
      "curveMode": 3,
      "curveTo": "{0.61346770075159618, 0.25898563586912415}",
      "hasCurveFrom": true,
      "hasCurveTo": true,
      "point": "{0.62562500753623751, 0.27858944467521907}"
    },
    {
      "_class": "curvePoint",
      "cornerRadius": 0,
      "curveFrom": "{0.64475629957708713, 0.27117756418023381}",
      "curveMode": 4,
      "curveTo": "{0.62929652172834361, 0.28490723975453403}",
      "hasCurveFrom": true,
      "hasCurveTo": true,
      "point": "{0.63096760171086674, 0.28833416422444863}"
    },
    {
      "_class": "curvePoint",
      "cornerRadius": 0,
      "curveFrom": "{0.71406336339911725, 0.24875615464909018}",
      "curveMode": 2,
      "curveTo": "{0.67043551528962642, 0.25604721121206131}",
      "hasCurveFrom": true,
      "hasCurveTo": true,
      "point": "{0.68973503749393894, 0.25280090485537071}"
    },
    {
      "_class": "curvePoint",
      "cornerRadius": 0,
      "curveFrom": "{0.78463236881121823, 0.25640350035251253}",
      "curveMode": 2,
      "curveTo": "{0.74055571199270342, 0.24830508948053526}",
      "hasCurveFrom": true,
      "hasCurveTo": true,
      "point": "{0.76290389782277679, 0.25238421012617746}"
    },
    {
      "_class": "curvePoint",
      "cornerRadius": 0,
      "curveFrom": "{0.8307914860112634, 0.30316027948975816}",
      "curveMode": 2,
      "curveTo": "{0.81305588774846216, 0.27703473026478076}",
      "hasCurveFrom": true,
      "hasCurveTo": true,
      "point": "{0.82409350550204263, 0.29322524690207719}"
    }
  ],
  "resizingConstraint": 63,
  "resizingType": 0,
  "rotation": 0,
  "shouldBreakMaskChain": false,
  "style": {
    "_class": "style",
    "endMarkerType": 0,
    "fills": [
      {
        "_class": "fill",
        "color": {
          "_class": "color",
          "alpha": 1,
          "blue": 0,
          "green": 0,
          "red": 0
        },
        "fillType": 0,
        "isEnabled": true,
        "noiseIndex": 0,
        "noiseIntensity": 0,
        "patternFillType": 1,
        "patternTileScale": 1
      }
    ],
    "miterLimit": 10,
    "startMarkerType": 0,
    "windingRule": 1
  }
}