{
  "_class": "symbolInstance",
  "booleanOperation": -1,
  "clippingMaskMode": 0,
  "do_objectID": "9B5B84D9-BB64-4890-AE29-44F2C99DBD9B",
  "exportOptions": {
    "_class": "exportOptions",
    "do_objectID": "F4A5DAC3-8E6C-413F-8097-7E4DE0494A9C",
    "exportFormats": [
    ],
    "includedLayerIds": [
    ],
    "layerOptions": 0,
    "shouldTrim": false
  },
  "frame": {
    "_class": "rect",
    "constrainProportions": false,
    "do_objectID": "E62A26FA-758F-4555-A60C-46BFCE2D376F",
    "height": 32,
    "width": 256,
    "x": 0,
    "y": 48
  },
  "hasClippingMask": false,
  "horizontalSpacing": 0,
  "isFixedToViewport": false,
  "isFlippedHorizontal": false,
  "isFlippedVertical": false,
  "isLocked": false,
  "isVisible": true,
  "layerListExpandedType": 0,
  "name": "link 2",
  "nameIsFixed": true,
  "overrideValues": [
  ],
  "resizingConstraint": 63,
  "resizingType": 0,
  "rotation": 0,
  "scale": 1,
  "shouldBreakMaskChain": false,
  "style": {
    "_class": "style",
    "do_objectID": "1FA39C7C-5ABC-4AE3-B225-7D27D645F574",
    "endMarkerType": 0,
    "miterLimit": 10,
    "startMarkerType": 0,
    "windingRule": 1
  },
  "symbolID": "0094B3AA-0E38-4AEF-B637-461CB6E4A9B2",
  "verticalSpacing": 0
}