{
  "_class": "group",
  "booleanOperation": 0,
  "clippingMaskMode": 0,
  "do_objectID": "8FCB9788-2C73-4888-984F-9156DE52D1DA",
  "exportOptions": {
    "_class": "exportOptions",
    "do_objectID": "83C12A97-2438-4012-9F9A-21ED8BCA8DBE",
    "exportFormats": [
    ],
    "includedLayerIds": [
    ],
    "layerOptions": 0,
    "shouldTrim": false
  },
  "frame": {
    "_class": "rect",
    "constrainProportions": true,
    "do_objectID": "6003278E-2882-4DA4-BFBC-953BC138A4E5",
    "height": 44,
    "width": 44,
    "x": 39,
    "y": 30
  },
  "groupLayout": {
    "_class": "MSImmutableFreeformGroupLayout",
    "do_objectID": "99DDE865-B922-4D29-9794-3FAEF32FF170"
  },
  "hasClickThrough": false,
  "hasClippingMask": false,
  "isFixedToViewport": false,
  "isFlippedHorizontal": false,
  "isFlippedVertical": false,
  "isLocked": false,
  "isVisible": true,
  "layerListExpandedType": 0,
  "layers": [
    {
      "class": "oval",
      "id": "A5E1CED2-8636-44B7-9A1B-9ECCF16530D9"
    },
    {
      "class": "text",
      "id": "A49AAD42-0BD2-4572-A8C0-030FF39CB256"
    }
  ],
  "name": "Small",
  "nameIsFixed": true,
  "resizingConstraint": 63,
  "resizingType": 0,
  "rotation": 0,
  "shouldBreakMaskChain": false,
  "style": {
    "_class": "style",
    "do_objectID": "D9990630-CFA4-4704-AE2D-DB5E242AAE49",
    "endMarkerType": 0,
    "miterLimit": 10,
    "startMarkerType": 0,
    "windingRule": 1
  }
}