{
  "_class": "symbolInstance",
  "booleanOperation": 0,
  "clippingMaskMode": 0,
  "do_objectID": "D9E24403-0079-41D6-8967-23765F87D91D",
  "exportOptions": {
    "_class": "exportOptions",
    "do_objectID": "1D416897-14FD-40CA-BBBB-8894A14E866F",
    "exportFormats": [
    ],
    "includedLayerIds": [
    ],
    "layerOptions": 0,
    "shouldTrim": false
  },
  "frame": {
    "_class": "rect",
    "constrainProportions": false,
    "do_objectID": "7ED50BB9-EEA9-460E-9682-19411C47E7DB",
    "height": 2100,
    "width": 263,
    "x": 112,
    "y": 492
  },
  "hasClippingMask": false,
  "horizontalSpacing": 0,
  "isFixedToViewport": false,
  "isFlippedHorizontal": false,
  "isFlippedVertical": false,
  "isLocked": false,
  "isVisible": true,
  "layerListExpandedType": 0,
  "name": "Filter Closed Card",
  "nameIsFixed": false,
  "overrideValues": [
  ],
  "resizingConstraint": 63,
  "resizingType": 0,
  "rotation": 0,
  "scale": 1,
  "shouldBreakMaskChain": false,
  "style": {
    "_class": "style",
    "do_objectID": "A8528293-685F-4FD1-BB76-7126285F4FAC",
    "endMarkerType": 0,
    "miterLimit": 10,
    "startMarkerType": 0,
    "windingRule": 1
  },
  "symbolID": "B8B73E8D-D637-43BF-A4D3-5329CFAE668A",
  "verticalSpacing": 0
}