{
  "_class": "symbolInstance",
  "booleanOperation": 0,
  "clippingMaskMode": 0,
  "do_objectID": "F71836CB-7637-45C2-8F83-424AF3DE873D",
  "exportOptions": {
    "_class": "exportOptions",
    "do_objectID": "3618FE52-6E32-4CAE-8A3F-8A809E889C98",
    "exportFormats": [
    ],
    "includedLayerIds": [
    ],
    "layerOptions": 0,
    "shouldTrim": false
  },
  "frame": {
    "_class": "rect",
    "constrainProportions": false,
    "do_objectID": "4990CF0F-8FC0-445C-814E-7CD806AB7D09",
    "height": 569,
    "width": 391,
    "x": 864,
    "y": 1690
  },
  "hasClippingMask": false,
  "horizontalSpacing": 0,
  "isFixedToViewport": false,
  "isFlippedHorizontal": false,
  "isFlippedVertical": false,
  "isLocked": false,
  "isVisible": true,
  "layerListExpandedType": 0,
  "name": "Product Cell PLP 2 col",
  "nameIsFixed": false,
  "overrideValues": [
    {
      "_class": "overrideValue",
      "overrideName": "E063B62F-3B29-4B8A-8E71-B710958D66C1_image",
      "value": {
        "_class": "MSJSONFileReference",
        "_ref": "images/3415f1e5b5eaa7548f953b6a3766d3464a7c26cd.png",
        "_ref_class": "MSImageData"
      }
    }
  ],
  "resizingConstraint": 63,
  "resizingType": 0,
  "rotation": 0,
  "scale": 1,
  "shouldBreakMaskChain": false,
  "style": {
    "_class": "style",
    "do_objectID": "ECAC12BE-8D7D-46F4-91B5-ED23C7C384A5",
    "endMarkerType": 0,
    "miterLimit": 10,
    "startMarkerType": 0,
    "windingRule": 1
  },
  "symbolID": "EF178F48-99C3-4DEC-993B-C14CA23A1281",
  "verticalSpacing": 0
}