{
  "_class": "shapePath",
  "booleanOperation": -1,
  "clippingMaskMode": 0,
  "do_objectID": "05AA85CF-E75B-4830-B48C-1914091E9583",
  "edited": true,
  "exportOptions": {
    "_class": "exportOptions",
    "do_objectID": "A4DAD5A5-AC8B-4EE4-B3D9-FEA5BB163339",
    "exportFormats": [
    ],
    "includedLayerIds": [
    ],
    "layerOptions": 0,
    "shouldTrim": false
  },
  "frame": {
    "_class": "rect",
    "constrainProportions": false,
    "do_objectID": "CB6BA4FC-7C69-4D97-B45E-CDAED92CECDB",
    "height": 0.1058906030855535,
    "width": 0.1183891894053026,
    "x": 16.73493791589268,
    "y": 5.383416901086617
  },
  "hasClippingMask": false,
  "isClosed": true,
  "isFixedToViewport": false,
  "isFlippedHorizontal": false,
  "isFlippedVertical": false,
  "isLocked": false,
  "isVisible": true,
  "layerListExpandedType": 0,
  "name": "Path",
  "nameIsFixed": false,
  "pointRadiusBehaviour": 0,
  "points": [
    {
      "_class": "curvePoint",
      "cornerRadius": 0,
      "curveFrom": "{0.34795025237486799, 1.0901436878853759}",
      "curveMode": 3,
      "curveTo": "{0.93279252665570034, 0.77945273683805061}",
      "hasCurveFrom": true,
      "hasCurveTo": true,
      "point": "{0.6880226650868122, 0.90949130532149647}"
    },
    {
      "_class": "curvePoint",
      "cornerRadius": 0,
      "curveFrom": "{-0.13199065266218016, 0.32003503980062864}",
      "curveMode": 4,
      "curveTo": "{0.26430340892554627, 0.9959241262895413}",
      "hasCurveFrom": true,
      "hasCurveTo": true,
      "point": "{0.10112350121295419, 0.66654499773565368}"
    },
    {
      "_class": "curvePoint",
      "cornerRadius": 0,
      "curveFrom": "{0.399372492200257, 0.42593471233808133}",
      "curveMode": 4,
      "curveTo": "{0.079868975418452809, 0.15651348661784215}",
      "hasCurveFrom": true,
      "hasCurveTo": true,
      "point": "{0.31366875915792902, 0}"
    },
    {
      "_class": "curvePoint",
      "cornerRadius": 0,
      "curveFrom": "{1.1254545185348577, 0.5684320658259463}",
      "curveMode": 4,
      "curveTo": "{0.64757050309083508, 0.34650995793502498}",
      "hasCurveFrom": true,
      "hasCurveTo": true,
      "point": "{0.89988229316744517, 0.24216763352313023}"
    }
  ],
  "resizingConstraint": 63,
  "resizingType": 0,
  "rotation": 0,
  "shouldBreakMaskChain": false,
  "style": {
    "_class": "style",
    "do_objectID": "3A302CA9-3CEA-4796-89AE-A4D7B80B5870",
    "endMarkerType": 0,
    "fills": [
      {
        "_class": "fill",
        "color": {
          "_class": "color",
          "alpha": 1,
          "blue": 0.1764705882352941,
          "green": 0.1764705882352941,
          "red": 0.1764705882352941
        },
        "fillType": 0,
        "isEnabled": true,
        "noiseIndex": 0,
        "noiseIntensity": 0,
        "patternFillType": 1,
        "patternTileScale": 1
      }
    ],
    "miterLimit": 10,
    "startMarkerType": 0,
    "windingRule": 1
  }
}