{
  "_class": "shapePath",
  "booleanOperation": -1,
  "clippingMaskMode": 0,
  "do_objectID": "119D8AD8-B9F2-4A3D-AC1D-79BFA5B4CF2A",
  "edited": true,
  "exportOptions": {
    "_class": "exportOptions",
    "do_objectID": "A7876D49-BB1C-4876-AA8B-8F4D113787FE",
    "exportFormats": [
    ],
    "includedLayerIds": [
    ],
    "layerOptions": 0,
    "shouldTrim": false
  },
  "frame": {
    "_class": "rect",
    "constrainProportions": false,
    "do_objectID": "BA457FEF-7FF3-4597-976C-95978F1590F3",
    "height": 0.1058906030855589,
    "width": 0.1059863482545751,
    "x": 25.78093301549859,
    "y": 13.69619502992784
  },
  "hasClippingMask": false,
  "isClosed": true,
  "isFixedToViewport": false,
  "isFlippedHorizontal": false,
  "isFlippedVertical": false,
  "isLocked": false,
  "isVisible": true,
  "layerListExpandedType": 0,
  "name": "Path",
  "nameIsFixed": false,
  "pointRadiusBehaviour": 0,
  "points": [
    {
      "_class": "curvePoint",
      "cornerRadius": 0,
      "curveFrom": "{0.94203306508148899, 0.24691813510867178}",
      "curveMode": 3,
      "curveTo": "{0.36303306508148125, -0.10708186489131322}",
      "hasCurveFrom": true,
      "hasCurveTo": true,
      "point": "{0.56603306508145579, 0.015918135108677234}"
    },
    {
      "_class": "curvePoint",
      "cornerRadius": 0,
      "curveFrom": "{-0.25796693491855649, 0.51591813510867723}",
      "curveMode": 3,
      "curveTo": "{0.32103306508145124, 0.86891813510868587}",
      "hasCurveFrom": true,
      "hasCurveTo": true,
      "point": "{0.11903306508145306, 0.74491813510871907}"
    }
  ],
  "resizingConstraint": 63,
  "resizingType": 0,
  "rotation": 0,
  "shouldBreakMaskChain": false,
  "style": {
    "_class": "style",
    "do_objectID": "0F7CB74E-0039-4035-B691-673AD0A3428C",
    "endMarkerType": 0,
    "fills": [
      {
        "_class": "fill",
        "color": {
          "_class": "color",
          "alpha": 1,
          "blue": 0.1764705882352941,
          "green": 0.1764705882352941,
          "red": 0.1764705882352941
        },
        "fillType": 0,
        "isEnabled": true,
        "noiseIndex": 0,
        "noiseIntensity": 0,
        "patternFillType": 1,
        "patternTileScale": 1
      }
    ],
    "miterLimit": 10,
    "startMarkerType": 0,
    "windingRule": 1
  }
}