{
  "_class": "shapePath",
  "booleanOperation": -1,
  "clippingMaskMode": 0,
  "do_objectID": "11B231F6-95AB-44E1-94A5-02387D0661FC",
  "edited": true,
  "exportOptions": {
    "_class": "exportOptions",
    "do_objectID": "B89AB3D9-6817-40CD-973E-FA91282EB6D3",
    "exportFormats": [
    ],
    "includedLayerIds": [
    ],
    "layerOptions": 0,
    "shouldTrim": false
  },
  "frame": {
    "_class": "rect",
    "constrainProportions": false,
    "do_objectID": "CF624476-0688-4178-B6C7-237C284441A2",
    "height": 0.1058906030855695,
    "width": 0.1059863482545467,
    "x": 40.4260037650006,
    "y": 22.3165701502579
  },
  "hasClippingMask": false,
  "isClosed": true,
  "isFixedToViewport": false,
  "isFlippedHorizontal": false,
  "isFlippedVertical": false,
  "isLocked": false,
  "isVisible": true,
  "layerListExpandedType": 0,
  "name": "Path",
  "nameIsFixed": false,
  "pointRadiusBehaviour": 0,
  "points": [
    {
      "_class": "curvePoint",
      "cornerRadius": 0,
      "curveFrom": "{-0.28905343791996074, 0.57592382731417047}",
      "curveMode": 3,
      "curveTo": "{0.35694656208005426, 0.97192382731418547}",
      "hasCurveFrom": true,
      "hasCurveTo": true,
      "point": "{0.13394656208004108, 0.83492382731418502}"
    },
    {
      "_class": "curvePoint",
      "cornerRadius": 0,
      "curveFrom": "{1.0519465620800474, 0.27592382731421594}",
      "curveMode": 3,
      "curveTo": "{0.40494656208005608, -0.12007617268579907}",
      "hasCurveFrom": true,
      "hasCurveTo": true,
      "point": "{0.62994656208002198, 0.017923827314177743}"
    }
  ],
  "resizingConstraint": 63,
  "resizingType": 0,
  "rotation": 0,
  "shouldBreakMaskChain": false,
  "style": {
    "_class": "style",
    "do_objectID": "521ABC2D-9611-4CB6-8B10-A39139E2782C",
    "endMarkerType": 0,
    "fills": [
      {
        "_class": "fill",
        "color": {
          "_class": "color",
          "alpha": 1,
          "blue": 0.1764705882352941,
          "green": 0.1764705882352941,
          "red": 0.1764705882352941
        },
        "fillType": 0,
        "isEnabled": true,
        "noiseIndex": 0,
        "noiseIntensity": 0,
        "patternFillType": 1,
        "patternTileScale": 1
      }
    ],
    "miterLimit": 10,
    "startMarkerType": 0,
    "windingRule": 1
  }
}