{
  "_class": "shapePath",
  "booleanOperation": -1,
  "clippingMaskMode": 0,
  "do_objectID": "139753B3-24CB-4145-A27E-562EA1C9EC01",
  "edited": true,
  "exportOptions": {
    "_class": "exportOptions",
    "do_objectID": "DBFBC5B4-CF69-478D-B41D-60EBDD582DF3",
    "exportFormats": [
    ],
    "includedLayerIds": [
    ],
    "layerOptions": 0,
    "shouldTrim": false
  },
  "frame": {
    "_class": "rect",
    "constrainProportions": false,
    "do_objectID": "3927F213-F99A-4307-B73E-B6864112E6F7",
    "height": 0.1058906030855624,
    "width": 0.1059863482545573,
    "x": 20.74466877890762,
    "y": 17.64049186891052
  },
  "hasClippingMask": false,
  "isClosed": true,
  "isFixedToViewport": false,
  "isFlippedHorizontal": false,
  "isFlippedVertical": false,
  "isLocked": false,
  "isVisible": true,
  "layerListExpandedType": 0,
  "name": "Path",
  "nameIsFixed": false,
  "pointRadiusBehaviour": 0,
  "points": [
    {
      "_class": "curvePoint",
      "cornerRadius": 0,
      "curveFrom": "{-0.28897464445225296, 0.57864088587686524}",
      "curveMode": 3,
      "curveTo": "{0.36002535554774795, 0.97064088587686115}",
      "hasCurveFrom": true,
      "hasCurveTo": true,
      "point": "{0.13302535554777251, 0.83264088587688434}"
    },
    {
      "_class": "curvePoint",
      "cornerRadius": 0,
      "curveFrom": "{1.0580253555477555, 0.27564088587686797}",
      "curveMode": 3,
      "curveTo": "{0.40802535554774977, -0.11935911412311384}",
      "hasCurveFrom": true,
      "hasCurveTo": true,
      "point": "{0.63302535554774408, 0.017640885876886614}"
    }
  ],
  "resizingConstraint": 63,
  "resizingType": 0,
  "rotation": 0,
  "shouldBreakMaskChain": false,
  "style": {
    "_class": "style",
    "do_objectID": "05FFDF4D-08BE-4476-8B22-EAC41A9A3845",
    "endMarkerType": 0,
    "fills": [
      {
        "_class": "fill",
        "color": {
          "_class": "color",
          "alpha": 1,
          "blue": 0.1764705882352941,
          "green": 0.1764705882352941,
          "red": 0.1764705882352941
        },
        "fillType": 0,
        "isEnabled": true,
        "noiseIndex": 0,
        "noiseIntensity": 0,
        "patternFillType": 1,
        "patternTileScale": 1
      }
    ],
    "miterLimit": 10,
    "startMarkerType": 0,
    "windingRule": 1
  }
}