{
  "_class": "shapePath",
  "booleanOperation": -1,
  "clippingMaskMode": 0,
  "do_objectID": "1A92FE17-8458-4267-8B9F-0462DC970886",
  "edited": true,
  "exportOptions": {
    "_class": "exportOptions",
    "do_objectID": "23BEB268-C49E-4A0D-9DAB-2349D0B197BB",
    "exportFormats": [
    ],
    "includedLayerIds": [
    ],
    "layerOptions": 0,
    "shouldTrim": false
  },
  "frame": {
    "_class": "rect",
    "constrainProportions": false,
    "do_objectID": "E3031DA8-D315-4BC3-A068-1C3296E7CAA8",
    "height": 0.1058906030855589,
    "width": 0.1475202516757363,
    "x": 22.13908887392536,
    "y": 16.1159045254187
  },
  "hasClippingMask": false,
  "isClosed": true,
  "isFixedToViewport": false,
  "isFlippedHorizontal": false,
  "isFlippedVertical": false,
  "isLocked": false,
  "isVisible": true,
  "layerListExpandedType": 0,
  "name": "Path",
  "nameIsFixed": false,
  "pointRadiusBehaviour": 0,
  "points": [
    {
      "_class": "curvePoint",
      "cornerRadius": 0,
      "curveFrom": "{0.56138715512695669, 0.61126811597601582}",
      "curveMode": 4,
      "curveTo": "{0.90528554767412295, 0.58812862893591389}",
      "hasCurveFrom": true,
      "hasCurveTo": true,
      "point": "{0.71490339756000965, 0.70093362825636951}"
    },
    {
      "_class": "curvePoint",
      "cornerRadius": 0,
      "curveFrom": "{-0.14016556566928132, 0.75396161938994088}",
      "curveMode": 3,
      "curveTo": "{0.20208211459366632, 1.1164802496848889}",
      "hasCurveFrom": true,
      "hasCurveTo": true,
      "point": "{0.068374419571330822, 0.97475089156422368}"
    },
    {
      "_class": "curvePoint",
      "cornerRadius": 0,
      "curveFrom": "{0.52727243458627127, 0.18318760573413084}",
      "curveMode": 4,
      "curveTo": "{0.18282380461104253, 0.21018367394760132}",
      "hasCurveFrom": true,
      "hasCurveTo": true,
      "point": "{0.31212960020875324, 0.27381726330785411}"
    },
    {
      "_class": "curvePoint",
      "cornerRadius": 0,
      "curveFrom": "{1.0841127117986431, 0.45411243316198591}",
      "curveMode": 4,
      "curveTo": "{0.74406598124800782, 0.090629657573723266}",
      "hasCurveFrom": true,
      "hasCurveTo": true,
      "point": "{0.95755810334127589, 0}"
    }
  ],
  "resizingConstraint": 63,
  "resizingType": 0,
  "rotation": 0,
  "shouldBreakMaskChain": false,
  "style": {
    "_class": "style",
    "do_objectID": "38C15F07-DF8D-4702-A449-37715FDF83DA",
    "endMarkerType": 0,
    "fills": [
      {
        "_class": "fill",
        "color": {
          "_class": "color",
          "alpha": 1,
          "blue": 0.1764705882352941,
          "green": 0.1764705882352941,
          "red": 0.1764705882352941
        },
        "fillType": 0,
        "isEnabled": true,
        "noiseIndex": 0,
        "noiseIntensity": 0,
        "patternFillType": 1,
        "patternTileScale": 1
      }
    ],
    "miterLimit": 10,
    "startMarkerType": 0,
    "windingRule": 1
  }
}