{
  "_class": "shapePath",
  "booleanOperation": -1,
  "clippingMaskMode": 0,
  "do_objectID": "1AA7371D-ED3B-4EC3-894F-51662F45D477",
  "edited": true,
  "exportOptions": {
    "_class": "exportOptions",
    "do_objectID": "02AA56BC-C6F3-435E-9AFC-CCAAAA0C492E",
    "exportFormats": [
    ],
    "includedLayerIds": [
    ],
    "layerOptions": 0,
    "shouldTrim": false
  },
  "frame": {
    "_class": "rect",
    "constrainProportions": false,
    "do_objectID": "5E67FA8B-13C8-4D35-8A36-53E99D34527B",
    "height": 0.1550255137747021,
    "width": 0.202634238748292,
    "x": 9.765266342614144,
    "y": 5.969796040551952
  },
  "hasClippingMask": false,
  "isClosed": true,
  "isFixedToViewport": false,
  "isFlippedHorizontal": false,
  "isFlippedVertical": false,
  "isLocked": false,
  "isVisible": true,
  "layerListExpandedType": 0,
  "name": "Path",
  "nameIsFixed": false,
  "pointRadiusBehaviour": 0,
  "points": [
    {
      "_class": "curvePoint",
      "cornerRadius": 0,
      "curveFrom": "{-0.12242673991591163, 0.55267436880036258}",
      "curveMode": 4,
      "curveTo": "{0.21285847436868496, 0.88381295996999887}",
      "hasCurveFrom": true,
      "hasCurveTo": true,
      "point": "{0.051424852676102688, 0.83934727237218976}"
    },
    {
      "_class": "curvePoint",
      "cornerRadius": 0,
      "curveFrom": "{0.23969731469971328, 0.42293918616202275}",
      "curveMode": 3,
      "curveTo": "{0.1976364455242241, 0.5741225239946034}",
      "hasCurveFrom": true,
      "hasCurveTo": true,
      "point": "{0.22968282203888063, 0.45903486197670262}"
    },
    {
      "_class": "curvePoint",
      "cornerRadius": 0,
      "curveFrom": "{0.20845209759792133, 0.12057251049683189}",
      "curveMode": 3,
      "curveTo": "{0.152370938697271, 0.17026945545911532}",
      "hasCurveFrom": true,
      "hasCurveTo": true,
      "point": "{0.17280050372536573, 0.15196005468352938}"
    },
    {
      "_class": "curvePoint",
      "cornerRadius": 0,
      "curveFrom": "{0.69195180326280925, 0.053089290495454571}",
      "curveMode": 4,
      "curveTo": "{0.61504049962763474, -0.023810192761976611}",
      "hasCurveFrom": true,
      "hasCurveTo": true,
      "point": "{0.64308107907795709, 0.0033923455331711354}"
    },
    {
      "_class": "curvePoint",
      "cornerRadius": 0,
      "curveFrom": "{0.70517093357510585, 0.58510816445995495}",
      "curveMode": 4,
      "curveTo": "{0.65549904997738917, 0.25083081887163394}",
      "hasCurveFrom": true,
      "hasCurveTo": true,
      "point": "{0.69996339739147773, 0.31046715282634435}"
    },
    {
      "_class": "curvePoint",
      "cornerRadius": 0,
      "curveFrom": "{1.0973384661732231, 1.3169610697464245}",
      "curveMode": 4,
      "curveTo": "{0.84497325112029942, 0.57046064383948614}",
      "hasCurveFrom": true,
      "hasCurveTo": true,
      "point": "{0.99118484396842088, 0.54221185407144357}"
    }
  ],
  "resizingConstraint": 63,
  "resizingType": 0,
  "rotation": 0,
  "shouldBreakMaskChain": false,
  "style": {
    "_class": "style",
    "do_objectID": "2DCCC133-1117-4511-A991-86B9265CE768",
    "endMarkerType": 0,
    "fills": [
      {
        "_class": "fill",
        "color": {
          "_class": "color",
          "alpha": 1,
          "blue": 0.1764705882352941,
          "green": 0.1764705882352941,
          "red": 0.1764705882352941
        },
        "fillType": 0,
        "isEnabled": true,
        "noiseIndex": 0,
        "noiseIntensity": 0,
        "patternFillType": 1,
        "patternTileScale": 1
      }
    ],
    "miterLimit": 10,
    "startMarkerType": 0,
    "windingRule": 1
  }
}