{
  "_class": "shapePath",
  "booleanOperation": -1,
  "clippingMaskMode": 0,
  "do_objectID": "281C1F69-659B-4777-B9A2-46544AF187E8",
  "edited": true,
  "exportOptions": {
    "_class": "exportOptions",
    "do_objectID": "448E3C2B-D403-44BE-B894-89F89AE4DEE1",
    "exportFormats": [
    ],
    "includedLayerIds": [
    ],
    "layerOptions": 0,
    "shouldTrim": false
  },
  "frame": {
    "_class": "rect",
    "constrainProportions": false,
    "do_objectID": "6E9518A8-657E-45B0-A742-62FF4BFC313A",
    "height": 0.1561133344176966,
    "width": 0.1560921481241397,
    "x": 14.95213424087708,
    "y": 21.02564861839661
  },
  "hasClippingMask": false,
  "isClosed": true,
  "isFixedToViewport": false,
  "isFlippedHorizontal": false,
  "isFlippedVertical": false,
  "isLocked": false,
  "isVisible": true,
  "layerListExpandedType": 0,
  "name": "Path",
  "nameIsFixed": false,
  "pointRadiusBehaviour": 0,
  "points": [
    {
      "_class": "curvePoint",
      "cornerRadius": 0,
      "curveFrom": "{0.21216848673946265, 0.77246753246753996}",
      "curveMode": 4,
      "curveTo": "{0.54706188247529464, 0.89246753246753641}",
      "hasCurveFrom": true,
      "hasCurveTo": true,
      "point": "{0.31877275091003587, 1}"
    },
    {
      "_class": "curvePoint",
      "cornerRadius": 0,
      "curveFrom": "{0.22880915236609325, 0.21194805194802921}",
      "curveMode": 4,
      "curveTo": "{0.10660426417055845, 0.54597402597401634}",
      "hasCurveFrom": true,
      "hasCurveTo": true,
      "point": "{0, 0.31948051948052231}"
    },
    {
      "_class": "curvePoint",
      "cornerRadius": 0,
      "curveFrom": "{0.78887155486219163, 0.2280519480519578}",
      "curveMode": 4,
      "curveTo": "{0.45397815912635964, 0.10753246753246359}",
      "hasCurveFrom": true,
      "hasCurveTo": true,
      "point": "{0.68122724908996413, 0}"
    },
    {
      "_class": "curvePoint",
      "cornerRadius": 0,
      "curveFrom": "{0.77223088923556105, 0.78753246753247308}",
      "curveMode": 4,
      "curveTo": "{0.89443577743109581, 0.45402597402595413}",
      "hasCurveFrom": true,
      "hasCurveTo": true,
      "point": "{1, 0.68051948051947764}"
    }
  ],
  "resizingConstraint": 63,
  "resizingType": 0,
  "rotation": 0,
  "shouldBreakMaskChain": false,
  "style": {
    "_class": "style",
    "do_objectID": "DAE27D5B-24D1-4AE6-BED3-B88FF37C9F23",
    "endMarkerType": 0,
    "fills": [
      {
        "_class": "fill",
        "color": {
          "_class": "color",
          "alpha": 1,
          "blue": 0.1764705882352941,
          "green": 0.1764705882352941,
          "red": 0.1764705882352941
        },
        "fillType": 0,
        "isEnabled": true,
        "noiseIndex": 0,
        "noiseIntensity": 0,
        "patternFillType": 1,
        "patternTileScale": 1
      }
    ],
    "miterLimit": 10,
    "startMarkerType": 0,
    "windingRule": 1
  }
}