{
  "_class": "shapePath",
  "booleanOperation": -1,
  "clippingMaskMode": 0,
  "do_objectID": "2A9288AA-9C7D-42D5-8269-E8E9B534AF3C",
  "edited": true,
  "exportOptions": {
    "_class": "exportOptions",
    "do_objectID": "D419639D-0505-40FD-BC6E-AE12834AF379",
    "exportFormats": [
    ],
    "includedLayerIds": [
    ],
    "layerOptions": 0,
    "shouldTrim": false
  },
  "frame": {
    "_class": "rect",
    "constrainProportions": false,
    "do_objectID": "379255ED-CAEA-45B0-880D-1FAABD74462C",
    "height": 0.1832811094982105,
    "width": 0.233935294276499,
    "x": 35.80257110444808,
    "y": 17.465129223968
  },
  "hasClippingMask": false,
  "isClosed": true,
  "isFixedToViewport": false,
  "isFlippedHorizontal": false,
  "isFlippedVertical": false,
  "isLocked": false,
  "isVisible": true,
  "layerListExpandedType": 0,
  "name": "Path",
  "nameIsFixed": false,
  "pointRadiusBehaviour": 0,
  "points": [
    {
      "_class": "curvePoint",
      "cornerRadius": 0,
      "curveFrom": "{0.1269951422623323, 0.82743362831858946}",
      "curveMode": 4,
      "curveTo": "{0.45975017349064651, 0.83938053097345089}",
      "hasCurveFrom": true,
      "hasCurveTo": true,
      "point": "{0.18945176960443835, 1}"
    },
    {
      "_class": "curvePoint",
      "cornerRadius": 0,
      "curveFrom": "{0.27029840388618842, 0.32168141592920657}",
      "curveMode": 4,
      "curveTo": "{0.063150589868152696, 0.65619469026549115}",
      "hasCurveFrom": true,
      "hasCurveTo": true,
      "point": "{0, 0.48318584070795972}"
    },
    {
      "_class": "curvePoint",
      "cornerRadius": 0,
      "curveFrom": "{0.87404580152671796, 0.17168141592920655}",
      "curveMode": 4,
      "curveTo": "{0.53990284524636967, 0.16194690265486147}",
      "hasCurveFrom": true,
      "hasCurveTo": true,
      "point": "{0.81054823039556168, 0}"
    },
    {
      "_class": "curvePoint",
      "cornerRadius": 0,
      "curveFrom": "{0.72970159611381158, 0.67876106194690178}",
      "curveMode": 4,
      "curveTo": "{0.93719639139487065, 0.34424778761061714}",
      "hasCurveFrom": true,
      "hasCurveTo": true,
      "point": "{1, 0.51681415929204033}"
    }
  ],
  "resizingConstraint": 63,
  "resizingType": 0,
  "rotation": 0,
  "shouldBreakMaskChain": false,
  "style": {
    "_class": "style",
    "do_objectID": "2FBDC260-7357-4E2C-918B-B33672ECF697",
    "endMarkerType": 0,
    "fills": [
      {
        "_class": "fill",
        "color": {
          "_class": "color",
          "alpha": 1,
          "blue": 0.1764705882352941,
          "green": 0.1764705882352941,
          "red": 0.1764705882352941
        },
        "fillType": 0,
        "isEnabled": true,
        "noiseIndex": 0,
        "noiseIntensity": 0,
        "patternFillType": 1,
        "patternTileScale": 1
      }
    ],
    "miterLimit": 10,
    "startMarkerType": 0,
    "windingRule": 1
  }
}