{
  "_class": "shapePath",
  "booleanOperation": -1,
  "clippingMaskMode": 0,
  "do_objectID": "2B41B8F1-3B40-45B5-8717-86B0AF35D338",
  "edited": true,
  "exportOptions": {
    "_class": "exportOptions",
    "do_objectID": "A2E7DF92-78D7-46F5-9A0C-26E101C1FA4B",
    "exportFormats": [
    ],
    "includedLayerIds": [
    ],
    "layerOptions": 0,
    "shouldTrim": false
  },
  "frame": {
    "_class": "rect",
    "constrainProportions": false,
    "do_objectID": "E06FC03B-107B-43F3-89D2-5B05FE8C2BF6",
    "height": 0.1600060305486419,
    "width": 0.1456210679847736,
    "x": 19.41468131701888,
    "y": 15.20760876153389
  },
  "hasClippingMask": false,
  "isClosed": true,
  "isFixedToViewport": false,
  "isFlippedHorizontal": false,
  "isFlippedVertical": false,
  "isLocked": false,
  "isVisible": true,
  "layerListExpandedType": 0,
  "name": "Path",
  "nameIsFixed": false,
  "pointRadiusBehaviour": 0,
  "points": [
    {
      "_class": "curvePoint",
      "cornerRadius": 0,
      "curveFrom": "{0.49052396878484056, 0.044602128737945966}",
      "curveMode": 4,
      "curveTo": "{0.088628762541802311, 0.33350228079066052}",
      "hasCurveFrom": true,
      "hasCurveTo": true,
      "point": "{0, 0}"
    },
    {
      "_class": "curvePoint",
      "cornerRadius": 0,
      "curveFrom": "{0.75696767001114196, 0.89204257475926496}",
      "curveMode": 4,
      "curveTo": "{0.8662207357859627, 0.26051697921947359}",
      "hasCurveFrom": true,
      "hasCurveTo": true,
      "point": "{1, 0.838824125696913}"
    },
    {
      "_class": "curvePoint",
      "cornerRadius": 0,
      "curveFrom": "{0.17725752508360462, 0.66599087683730041}",
      "curveMode": 4,
      "curveTo": "{0.51059085841694851, 0.94627470856563767}",
      "hasCurveFrom": true,
      "hasCurveTo": true,
      "point": "{0.26644370122630145, 1}"
    }
  ],
  "resizingConstraint": 63,
  "resizingType": 0,
  "rotation": 0,
  "shouldBreakMaskChain": false,
  "style": {
    "_class": "style",
    "do_objectID": "C402090E-3BD6-4EA2-854D-F09049F2A512",
    "endMarkerType": 0,
    "fills": [
      {
        "_class": "fill",
        "color": {
          "_class": "color",
          "alpha": 1,
          "blue": 0.1764705882352941,
          "green": 0.1764705882352941,
          "red": 0.1764705882352941
        },
        "fillType": 0,
        "isEnabled": true,
        "noiseIndex": 0,
        "noiseIntensity": 0,
        "patternFillType": 1,
        "patternTileScale": 1
      }
    ],
    "miterLimit": 10,
    "startMarkerType": 0,
    "windingRule": 1
  }
}