{
  "_class": "shapePath",
  "booleanOperation": -1,
  "clippingMaskMode": 0,
  "do_objectID": "38F1A94A-069A-4820-BBBA-29829E7F4D94",
  "edited": true,
  "exportOptions": {
    "_class": "exportOptions",
    "do_objectID": "216CFE84-576B-42C8-B6DF-208B8E3D1197",
    "exportFormats": [
    ],
    "includedLayerIds": [
    ],
    "layerOptions": 0,
    "shouldTrim": false
  },
  "frame": {
    "_class": "rect",
    "constrainProportions": false,
    "do_objectID": "E7938201-EA56-4421-AEF8-794A7C572CEB",
    "height": 0.1058906030855553,
    "width": 0.1059863482545538,
    "x": 13.53118722378446,
    "y": 32.3991774899179
  },
  "hasClippingMask": false,
  "isClosed": true,
  "isFixedToViewport": false,
  "isFlippedHorizontal": false,
  "isFlippedVertical": false,
  "isLocked": false,
  "isVisible": true,
  "layerListExpandedType": 0,
  "name": "Path",
  "nameIsFixed": false,
  "pointRadiusBehaviour": 0,
  "points": [
    {
      "_class": "curvePoint",
      "cornerRadius": 0,
      "curveFrom": "{1.0405641600629281, 0.18845805012745132}",
      "curveMode": 3,
      "curveTo": "{0.27856416006292761, -0.08954194987251185}",
      "hasCurveFrom": true,
      "hasCurveTo": true,
      "point": "{0.54556416006292352, 0.007458050127468141}"
    },
    {
      "_class": "curvePoint",
      "cornerRadius": 0,
      "curveFrom": "{-0.30343583993706602, 0.78845805012747405}",
      "curveMode": 3,
      "curveTo": "{0.46056416006291556, 1.0664580501274372}",
      "hasCurveFrom": true,
      "hasCurveTo": true,
      "point": "{0.1955641600629292, 0.96845805012748087}"
    }
  ],
  "resizingConstraint": 63,
  "resizingType": 0,
  "rotation": 0,
  "shouldBreakMaskChain": false,
  "style": {
    "_class": "style",
    "do_objectID": "FE5F50EA-89E1-490E-A940-F6A7B11A2723",
    "endMarkerType": 0,
    "fills": [
      {
        "_class": "fill",
        "color": {
          "_class": "color",
          "alpha": 1,
          "blue": 0.1764705882352941,
          "green": 0.1764705882352941,
          "red": 0.1764705882352941
        },
        "fillType": 0,
        "isEnabled": true,
        "noiseIndex": 0,
        "noiseIntensity": 0,
        "patternFillType": 1,
        "patternTileScale": 1
      }
    ],
    "miterLimit": 10,
    "startMarkerType": 0,
    "windingRule": 1
  }
}