{
  "_class": "shapePath",
  "booleanOperation": -1,
  "clippingMaskMode": 0,
  "do_objectID": "435CA7BE-3E64-43E8-BAF0-40EF0F98F137",
  "edited": true,
  "exportOptions": {
    "_class": "exportOptions",
    "do_objectID": "F8B418B2-D844-4E5C-9E73-41F3CA68313C",
    "exportFormats": [
    ],
    "includedLayerIds": [
    ],
    "layerOptions": 0,
    "shouldTrim": false
  },
  "frame": {
    "_class": "rect",
    "constrainProportions": false,
    "do_objectID": "729BEC71-8A94-4B13-8E4D-78DD1CC9538B",
    "height": 0.1058906030855535,
    "width": 0.1059863482545573,
    "x": 18.92813338378025,
    "y": 15.26069054803128
  },
  "hasClippingMask": false,
  "isClosed": true,
  "isFixedToViewport": false,
  "isFlippedHorizontal": false,
  "isFlippedVertical": false,
  "isLocked": false,
  "isVisible": true,
  "layerListExpandedType": 0,
  "name": "Path",
  "nameIsFixed": false,
  "pointRadiusBehaviour": 0,
  "points": [
    {
      "_class": "curvePoint",
      "cornerRadius": 0,
      "curveFrom": "{0.92809827375691611, 0.16945989047877674}",
      "curveMode": 3,
      "curveTo": "{0.24709827375690452, -0.078540109521213708}",
      "hasCurveFrom": true,
      "hasCurveTo": true,
      "point": "{0.48509827375690406, 0.0064598904788226719}"
    },
    {
      "_class": "curvePoint",
      "cornerRadius": 0,
      "curveFrom": "{-0.26890172624308661, 0.70045989047878265}",
      "curveMode": 4,
      "curveTo": "{0.41209827375692498, 0.94845989047882995}",
      "hasCurveFrom": true,
      "hasCurveTo": true,
      "point": "{0.17309827375692066, 0.86445989047882676}"
    }
  ],
  "resizingConstraint": 63,
  "resizingType": 0,
  "rotation": 0,
  "shouldBreakMaskChain": false,
  "style": {
    "_class": "style",
    "do_objectID": "BBAF92F7-FCCA-4D9A-93F5-90D4CE01C4A0",
    "endMarkerType": 0,
    "fills": [
      {
        "_class": "fill",
        "color": {
          "_class": "color",
          "alpha": 1,
          "blue": 0.1764705882352941,
          "green": 0.1764705882352941,
          "red": 0.1764705882352941
        },
        "fillType": 0,
        "isEnabled": true,
        "noiseIndex": 0,
        "noiseIntensity": 0,
        "patternFillType": 1,
        "patternTileScale": 1
      }
    ],
    "miterLimit": 10,
    "startMarkerType": 0,
    "windingRule": 1
  }
}