{
  "_class": "shapePath",
  "booleanOperation": -1,
  "clippingMaskMode": 0,
  "do_objectID": "44C98D3F-0633-4E8B-9CF0-DF610AADCE5D",
  "edited": true,
  "exportOptions": {
    "_class": "exportOptions",
    "do_objectID": "1E9F7F92-A78E-400F-A9E8-9A46E5A1AF40",
    "exportFormats": [
    ],
    "includedLayerIds": [
    ],
    "layerOptions": 0,
    "shouldTrim": false
  },
  "frame": {
    "_class": "rect",
    "constrainProportions": false,
    "do_objectID": "46ADA5CF-6AB0-4170-89D5-CF79CE8F5C87",
    "height": 0.2056641122510676,
    "width": 0.1628293547254405,
    "x": 9.846630375712248,
    "y": 29.20955564667112
  },
  "hasClippingMask": false,
  "isClosed": true,
  "isFixedToViewport": false,
  "isFlippedHorizontal": false,
  "isFlippedVertical": false,
  "isLocked": false,
  "isVisible": true,
  "layerListExpandedType": 0,
  "name": "Path",
  "nameIsFixed": false,
  "pointRadiusBehaviour": 0,
  "points": [
    {
      "_class": "curvePoint",
      "cornerRadius": 0,
      "curveFrom": "{0.43369890329013183, 0.83832807570979184}",
      "curveMode": 4,
      "curveTo": "{0.98604187437686652, 0.56703470031547487}",
      "hasCurveFrom": true,
      "hasCurveTo": true,
      "point": "{0.6530408773678974, 0.75828075709779208}"
    },
    {
      "_class": "curvePoint",
      "cornerRadius": 0,
      "curveFrom": "{0.0084745762711843989, 0.71569400630914703}",
      "curveMode": 4,
      "curveTo": "{0.21784646061814436, 0.91837539432176907}",
      "hasCurveFrom": true,
      "hasCurveTo": true,
      "point": "{0, 1}"
    },
    {
      "_class": "curvePoint",
      "cornerRadius": 0,
      "curveFrom": "{0.56580259222333251, 0.16088328075710381}",
      "curveMode": 4,
      "curveTo": "{0.013958125623133496, 0.43138801261829396}",
      "hasCurveFrom": true,
      "hasCurveTo": true,
      "point": "{0.34745762711864536, 0.24132492113565571}"
    },
    {
      "_class": "curvePoint",
      "cornerRadius": 0,
      "curveFrom": "{0.99202392821535124, 0.28272870662462185}",
      "curveMode": 4,
      "curveTo": "{0.78215353938185561, 0.079652996845425109}",
      "hasCurveFrom": true,
      "hasCurveTo": true,
      "point": "{1, 0}"
    }
  ],
  "resizingConstraint": 63,
  "resizingType": 0,
  "rotation": 0,
  "shouldBreakMaskChain": false,
  "style": {
    "_class": "style",
    "do_objectID": "41F3FD8A-98D0-43C4-93A4-E72BF808E7AE",
    "endMarkerType": 0,
    "fills": [
      {
        "_class": "fill",
        "color": {
          "_class": "color",
          "alpha": 1,
          "blue": 0.1764705882352941,
          "green": 0.1764705882352941,
          "red": 0.1764705882352941
        },
        "fillType": 0,
        "isEnabled": true,
        "noiseIndex": 0,
        "noiseIntensity": 0,
        "patternFillType": 1,
        "patternTileScale": 1
      }
    ],
    "miterLimit": 10,
    "startMarkerType": 0,
    "windingRule": 1
  }
}