{
  "_class": "shapePath",
  "booleanOperation": -1,
  "clippingMaskMode": 0,
  "do_objectID": "46919A79-7DEE-406E-84DC-74966E62B475",
  "edited": true,
  "exportOptions": {
    "_class": "exportOptions",
    "do_objectID": "E844601D-AEB0-4F0A-BE59-AAB60CFC92F4",
    "exportFormats": [
    ],
    "includedLayerIds": [
    ],
    "layerOptions": 0,
    "shouldTrim": false
  },
  "frame": {
    "_class": "rect",
    "constrainProportions": false,
    "do_objectID": "61FAD29E-0BDD-4161-AF98-0452E765F3CE",
    "height": 0.1527717733722262,
    "width": 0.1059863482545564,
    "x": 4.030200001275277,
    "y": 23.07677508805509
  },
  "hasClippingMask": false,
  "isClosed": true,
  "isFixedToViewport": false,
  "isFlippedHorizontal": false,
  "isFlippedVertical": false,
  "isLocked": false,
  "isVisible": true,
  "layerListExpandedType": 0,
  "name": "Path",
  "nameIsFixed": false,
  "pointRadiusBehaviour": 0,
  "points": [
    {
      "_class": "curvePoint",
      "cornerRadius": 0,
      "curveFrom": "{1.025565369612591, 0.1948194039871961}",
      "curveMode": 4,
      "curveTo": "{0.46731710548809013, 0.0069009598142778655}",
      "hasCurveFrom": true,
      "hasCurveTo": true,
      "point": "{0.97464082916749495, 0}"
    },
    {
      "_class": "curvePoint",
      "cornerRadius": 0,
      "curveFrom": "{1.6520333011257982, 1.6089853228478845}",
      "curveMode": 4,
      "curveTo": "{1.0486255388707468, 0.38008363284693986}",
      "hasCurveFrom": true,
      "hasCurveTo": true,
      "point": "{0.54610601712011975, 0.38698459266121771}"
    },
    {
      "_class": "curvePoint",
      "cornerRadius": 0,
      "curveFrom": "{0.49614231706078471, 0.19322687479929743}",
      "curveMode": 4,
      "curveTo": "{-1.1161478502385374, 0.67523237567223504}",
      "hasCurveFrom": true,
      "hasCurveTo": true,
      "point": "{0.54610601712011975, 0.38698459266121771}"
    }
  ],
  "resizingConstraint": 63,
  "resizingType": 0,
  "rotation": 0,
  "shouldBreakMaskChain": false,
  "style": {
    "_class": "style",
    "do_objectID": "87376BE0-EE7A-4D6E-891F-AB9670DE5610",
    "endMarkerType": 0,
    "fills": [
      {
        "_class": "fill",
        "color": {
          "_class": "color",
          "alpha": 1,
          "blue": 0.1764705882352941,
          "green": 0.1764705882352941,
          "red": 0.1764705882352941
        },
        "fillType": 0,
        "isEnabled": true,
        "noiseIndex": 0,
        "noiseIntensity": 0,
        "patternFillType": 1,
        "patternTileScale": 1
      }
    ],
    "miterLimit": 10,
    "startMarkerType": 0,
    "windingRule": 1
  }
}