{
  "_class": "shapePath",
  "booleanOperation": -1,
  "clippingMaskMode": 0,
  "do_objectID": "477A9378-C9C1-44B6-8FA0-BF63ABD8C558",
  "edited": true,
  "exportOptions": {
    "_class": "exportOptions",
    "do_objectID": "4CC70115-44CB-4F3B-9B44-5FF8166735E6",
    "exportFormats": [
    ],
    "includedLayerIds": [
    ],
    "layerOptions": 0,
    "shouldTrim": false
  },
  "frame": {
    "_class": "rect",
    "constrainProportions": false,
    "do_objectID": "8033C410-F8AC-44AB-AB4A-32DB77EAF8B0",
    "height": 0.1058906030855553,
    "width": 0.1059863482545751,
    "x": 23.14939043806616,
    "y": 14.03968332232482
  },
  "hasClippingMask": false,
  "isClosed": true,
  "isFixedToViewport": false,
  "isFlippedHorizontal": false,
  "isFlippedVertical": false,
  "isLocked": false,
  "isVisible": true,
  "layerListExpandedType": 0,
  "name": "Path",
  "nameIsFixed": false,
  "pointRadiusBehaviour": 0,
  "points": [
    {
      "_class": "curvePoint",
      "cornerRadius": 0,
      "curveFrom": "{0.92770591357111698, 0.16943776867816496}",
      "curveMode": 4,
      "curveTo": "{0.24670591357113381, -0.078562231321825493}",
      "hasCurveFrom": true,
      "hasCurveTo": true,
      "point": "{0.4857059135711097, 0.0064377686781540433}"
    },
    {
      "_class": "curvePoint",
      "cornerRadius": 0,
      "curveFrom": "{-0.26929408642888575, 0.70343776867815677}",
      "curveMode": 3,
      "curveTo": "{0.41170591357109743, 0.94843776867816132}",
      "hasCurveFrom": true,
      "hasCurveTo": true,
      "point": "{0.17370591357109788, 0.86143776867817223}"
    }
  ],
  "resizingConstraint": 63,
  "resizingType": 0,
  "rotation": 0,
  "shouldBreakMaskChain": false,
  "style": {
    "_class": "style",
    "do_objectID": "C1B9F499-A039-4FC2-9553-1D1396BB7079",
    "endMarkerType": 0,
    "fills": [
      {
        "_class": "fill",
        "color": {
          "_class": "color",
          "alpha": 1,
          "blue": 0.1764705882352941,
          "green": 0.1764705882352941,
          "red": 0.1764705882352941
        },
        "fillType": 0,
        "isEnabled": true,
        "noiseIndex": 0,
        "noiseIntensity": 0,
        "patternFillType": 1,
        "patternTileScale": 1
      }
    ],
    "miterLimit": 10,
    "startMarkerType": 0,
    "windingRule": 1
  }
}