{
  "_class": "shapePath",
  "booleanOperation": -1,
  "clippingMaskMode": 0,
  "do_objectID": "4DB041E4-C4E6-4DF9-801C-F17C732DCC06",
  "edited": true,
  "exportOptions": {
    "_class": "exportOptions",
    "do_objectID": "38E00BB2-9217-4708-B85D-ECC155E82879",
    "exportFormats": [
    ],
    "includedLayerIds": [
    ],
    "layerOptions": 0,
    "shouldTrim": false
  },
  "frame": {
    "_class": "rect",
    "constrainProportions": false,
    "do_objectID": "7DF38FD4-8E34-4F4D-BDCC-E576039945EB",
    "height": 0.1392449845170027,
    "width": 0.1392897172028125,
    "x": 13.84455370985586,
    "y": 31.91522275117912
  },
  "hasClippingMask": false,
  "isClosed": true,
  "isFixedToViewport": false,
  "isFlippedHorizontal": false,
  "isFlippedVertical": false,
  "isLocked": false,
  "isVisible": true,
  "layerListExpandedType": 0,
  "name": "Path",
  "nameIsFixed": false,
  "pointRadiusBehaviour": 0,
  "points": [
    {
      "_class": "curvePoint",
      "cornerRadius": 0,
      "curveFrom": "{0.22610722610722808, 0.2119976703552918}",
      "curveMode": 4,
      "curveTo": "{0.10722610722610526, 0.54571927781014573}",
      "hasCurveFrom": true,
      "hasCurveTo": true,
      "point": "{0, 0.31857891671521865}"
    },
    {
      "_class": "curvePoint",
      "cornerRadius": 0,
      "curveFrom": "{0.7878787878787864, 0.22888759464183614}",
      "curveMode": 4,
      "curveTo": "{0.45454545454545303, 0.10658124635992683}",
      "hasCurveFrom": true,
      "hasCurveTo": true,
      "point": "{0.68123543123543451, 0}"
    },
    {
      "_class": "curvePoint",
      "cornerRadius": 0,
      "curveFrom": "{0.77272727272726516, 0.78683750728014634}",
      "curveMode": 4,
      "curveTo": "{0.89335664335664811, 0.45428072218988735}",
      "hasCurveFrom": true,
      "hasCurveTo": true,
      "point": "{1, 0.68142108328481443}"
    },
    {
      "_class": "curvePoint",
      "cornerRadius": 0,
      "curveFrom": "{0.21270396270396699, 0.77111240535819692}",
      "curveMode": 4,
      "curveTo": "{0.54545454545454697, 0.89341875364007317}",
      "hasCurveFrom": true,
      "hasCurveTo": true,
      "point": "{0.31818181818181218, 1}"
    }
  ],
  "resizingConstraint": 63,
  "resizingType": 0,
  "rotation": 0,
  "shouldBreakMaskChain": false,
  "style": {
    "_class": "style",
    "do_objectID": "B4922DDD-B0C5-4F13-B38E-7A42A1D4DE19",
    "endMarkerType": 0,
    "fills": [
      {
        "_class": "fill",
        "color": {
          "_class": "color",
          "alpha": 1,
          "blue": 0.1764705882352941,
          "green": 0.1764705882352941,
          "red": 0.1764705882352941
        },
        "fillType": 0,
        "isEnabled": true,
        "noiseIndex": 0,
        "noiseIntensity": 0,
        "patternFillType": 1,
        "patternTileScale": 1
      }
    ],
    "miterLimit": 10,
    "startMarkerType": 0,
    "windingRule": 1
  }
}