{
  "_class": "shapePath",
  "booleanOperation": -1,
  "clippingMaskMode": 0,
  "do_objectID": "503C65B7-FF77-44D1-94DB-D14D8D257686",
  "edited": true,
  "exportOptions": {
    "_class": "exportOptions",
    "do_objectID": "B7E513EB-A741-4D66-AB3D-B4260F774922",
    "exportFormats": [
    ],
    "includedLayerIds": [
    ],
    "layerOptions": 0,
    "shouldTrim": false
  },
  "frame": {
    "_class": "rect",
    "constrainProportions": false,
    "do_objectID": "8A27F9D9-931B-4CA7-B8F2-6DCE91D7FF60",
    "height": 0.4466771824070719,
    "width": 0.2078713423533607,
    "x": 27.20052978733649,
    "y": 35.89056727567818
  },
  "hasClippingMask": false,
  "isClosed": true,
  "isFixedToViewport": false,
  "isFlippedHorizontal": false,
  "isFlippedVertical": false,
  "isLocked": false,
  "isVisible": true,
  "layerListExpandedType": 0,
  "name": "Path",
  "nameIsFixed": false,
  "pointRadiusBehaviour": 0,
  "points": [
    {
      "_class": "curvePoint",
      "cornerRadius": 0,
      "curveFrom": "{0.49752148918622546, 0.76470077345597554}",
      "curveMode": 4,
      "curveTo": "{0.48190198859472066, 0.64632492800327868}",
      "hasCurveFrom": true,
      "hasCurveTo": true,
      "point": "{0.32765942025369671, 0.67047214801126465}"
    },
    {
      "_class": "curvePoint",
      "cornerRadius": 0,
      "curveFrom": "{1.0664617982314943, 0.94861907321608019}",
      "curveMode": 4,
      "curveTo": "{0.66465014551524026, 0.85856628281033898}",
      "hasCurveFrom": true,
      "hasCurveTo": true,
      "point": "{0.96688748196070395, 0.8520301931841161}"
    },
    {
      "_class": "curvePoint",
      "cornerRadius": 0,
      "curveFrom": "{0.42840519906884389, 0.98402289202478499}",
      "curveMode": 4,
      "curveTo": "{0.92393385533408234, 0.97567122194683531}",
      "hasCurveFrom": true,
      "hasCurveTo": true,
      "point": "{0.77164372456699382, 1}"
    },
    {
      "_class": "curvePoint",
      "cornerRadius": 0,
      "curveFrom": "{-0.24557625145424319, 0.33785780925460179}",
      "curveMode": 4,
      "curveTo": "{0.16404515155777438, 0.90649760673597357}",
      "hasCurveFrom": true,
      "hasCurveTo": true,
      "point": "{0.0714996105531467, 0.69915831914857796}"
    },
    {
      "_class": "curvePoint",
      "cornerRadius": 0,
      "curveFrom": "{0.73845228581007105, -0.030886580491460727}",
      "curveMode": 4,
      "curveTo": "{0.59865775551617295, 0.30626670939452955}",
      "hasCurveFrom": true,
      "hasCurveTo": true,
      "point": "{0.53149390297272681, 0.015592279072794464}"
    },
    {
      "_class": "curvePoint",
      "cornerRadius": 0,
      "curveFrom": "{0.85208415261320913, 0.20804380695601749}",
      "curveMode": 4,
      "curveTo": "{0.79741590054297562, 0.034655873815947175}",
      "hasCurveFrom": true,
      "hasCurveTo": true,
      "point": "{0.85013171503927376, 0.10564506947852535}"
    },
    {
      "_class": "curvePoint",
      "cornerRadius": 0,
      "curveFrom": "{0.48736881380174846, 0.37652967287642319}",
      "curveMode": 4,
      "curveTo": "{0.6541069826159851, 0.25415955042992522}",
      "hasCurveFrom": true,
      "hasCurveTo": true,
      "point": "{0.71775644752633883, 0.37416941828918032}"
    },
    {
      "_class": "curvePoint",
      "cornerRadius": 0,
      "curveFrom": "{0.62286798143299771, 0.61854654709183909}",
      "curveMode": 4,
      "curveTo": "{0.49986441427496114, 0.44770042658418024}",
      "hasCurveFrom": true,
      "hasCurveTo": true,
      "point": "{0.52251269013262869, 0.52213922510505395}"
    }
  ],
  "resizingConstraint": 63,
  "resizingType": 0,
  "rotation": 0,
  "shouldBreakMaskChain": false,
  "style": {
    "_class": "style",
    "do_objectID": "16141FCC-9AC2-48BB-B96F-8E2B4CF9873C",
    "endMarkerType": 0,
    "fills": [
      {
        "_class": "fill",
        "color": {
          "_class": "color",
          "alpha": 1,
          "blue": 0.1764705882352941,
          "green": 0.1764705882352941,
          "red": 0.1764705882352941
        },
        "fillType": 0,
        "isEnabled": true,
        "noiseIndex": 0,
        "noiseIntensity": 0,
        "patternFillType": 1,
        "patternTileScale": 1
      }
    ],
    "miterLimit": 10,
    "startMarkerType": 0,
    "windingRule": 1
  }
}