{
  "_class": "shapePath",
  "booleanOperation": -1,
  "clippingMaskMode": 0,
  "do_objectID": "54F2F077-08EF-40B4-9477-1E21C057B8CC",
  "edited": true,
  "exportOptions": {
    "_class": "exportOptions",
    "do_objectID": "4282D6D8-B727-4FBA-B1E0-07A84275AECA",
    "exportFormats": [
    ],
    "includedLayerIds": [
    ],
    "layerOptions": 0,
    "shouldTrim": false
  },
  "frame": {
    "_class": "rect",
    "constrainProportions": false,
    "do_objectID": "8B5E7D40-73C4-490F-88CB-D7B5BD13868C",
    "height": 0.1058906030855606,
    "width": 0.1072577257344882,
    "x": 16.02834683518501,
    "y": 15.72387758589914
  },
  "hasClippingMask": false,
  "isClosed": true,
  "isFixedToViewport": false,
  "isFlippedHorizontal": false,
  "isFlippedVertical": false,
  "isLocked": false,
  "isVisible": true,
  "layerListExpandedType": 0,
  "name": "Path",
  "nameIsFixed": false,
  "pointRadiusBehaviour": 0,
  "points": [
    {
      "_class": "curvePoint",
      "cornerRadius": 0,
      "curveFrom": "{0.082824097380278419, 0.25609425456038815}",
      "curveMode": 4,
      "curveTo": "{-0.060965275645279454, 0.76533915155968313}",
      "hasCurveFrom": true,
      "hasCurveTo": true,
      "point": "{0.005631907650764551, 0.53573740609178933}"
    },
    {
      "_class": "curvePoint",
      "cornerRadius": 0,
      "curveFrom": "{1.1453518854217792, 0.43761700204565041}",
      "curveMode": 4,
      "curveTo": "{0.75787736442658671, 0.25609425456038815}",
      "hasCurveFrom": true,
      "hasCurveTo": true,
      "point": "{0.88955815867105148, 0}"
    },
    {
      "_class": "curvePoint",
      "cornerRadius": 0,
      "curveFrom": "{0.48165041098276312, 1.2510351515879652}",
      "curveMode": 4,
      "curveTo": "{0.91074817153796972, 0.64366985054253112}",
      "hasCurveFrom": true,
      "hasCurveTo": true,
      "point": "{0.65268408626577501, 0.84089186267519123}"
    }
  ],
  "resizingConstraint": 63,
  "resizingType": 0,
  "rotation": 0,
  "shouldBreakMaskChain": false,
  "style": {
    "_class": "style",
    "do_objectID": "E44B8901-AE73-46C2-AE62-4C2590CA2207",
    "endMarkerType": 0,
    "fills": [
      {
        "_class": "fill",
        "color": {
          "_class": "color",
          "alpha": 1,
          "blue": 0.1764705882352941,
          "green": 0.1764705882352941,
          "red": 0.1764705882352941
        },
        "fillType": 0,
        "isEnabled": true,
        "noiseIndex": 0,
        "noiseIntensity": 0,
        "patternFillType": 1,
        "patternTileScale": 1
      }
    ],
    "miterLimit": 10,
    "startMarkerType": 0,
    "windingRule": 1
  }
}