{
  "_class": "shapePath",
  "booleanOperation": -1,
  "clippingMaskMode": 0,
  "do_objectID": "599E9A46-6462-44A4-8B7B-07F4D84AF749",
  "edited": true,
  "exportOptions": {
    "_class": "exportOptions",
    "do_objectID": "1967BD44-7A81-4061-B503-92312CA7BE63",
    "exportFormats": [
    ],
    "includedLayerIds": [
    ],
    "layerOptions": 0,
    "shouldTrim": false
  },
  "frame": {
    "_class": "rect",
    "constrainProportions": false,
    "do_objectID": "A03129ED-583D-4DC3-A831-975F2946EDCC",
    "height": 0.128435436732083,
    "width": 0.1977918461560932,
    "x": 33.5626645447831,
    "y": 18.79018430229192
  },
  "hasClippingMask": false,
  "isClosed": true,
  "isFixedToViewport": false,
  "isFlippedHorizontal": false,
  "isFlippedVertical": false,
  "isLocked": false,
  "isVisible": true,
  "layerListExpandedType": 0,
  "name": "Path",
  "nameIsFixed": false,
  "pointRadiusBehaviour": 0,
  "points": [
    {
      "_class": "curvePoint",
      "cornerRadius": 0,
      "curveFrom": "{0.26464029916256021, 0.32457360581525069}",
      "curveMode": 4,
      "curveTo": "{0.063550764534043416, 0.57146227382407733}",
      "hasCurveFrom": true,
      "hasCurveTo": true,
      "point": "{0.21005885404911431, 0.38834791647739147}"
    },
    {
      "_class": "curvePoint",
      "cornerRadius": 0,
      "curveFrom": "{0.77844457947868317, 0.019593486510260095}",
      "curveMode": 4,
      "curveTo": "{0.69267373715754066, -0.029026532509377385}",
      "hasCurveFrom": true,
      "hasCurveTo": true,
      "point": "{0.74807595588171905, 0.001913479594015232}"
    },
    {
      "_class": "curvePoint",
      "cornerRadius": 0,
      "curveFrom": "{0.89335288498067944, 1.2773996928364897}",
      "curveMode": 3,
      "curveTo": "{1.0103131245095187, 0.78299092800043224}",
      "hasCurveFrom": true,
      "hasCurveTo": true,
      "point": "{0.9996430675700424, 0.82971666056475013}"
    },
    {
      "_class": "curvePoint",
      "cornerRadius": 0,
      "curveFrom": "{0.54903835528002198, 0.61187371820403225}",
      "curveMode": 4,
      "curveTo": "{0.61757295177587446, 0.60871657411185087}",
      "hasCurveFrom": true,
      "hasCurveTo": true,
      "point": "{0.605261347614933, 0.60808514529341096}"
    },
    {
      "_class": "curvePoint",
      "cornerRadius": 0,
      "curveFrom": "{-0.092396221504393417, 0.64407658794430467}",
      "curveMode": 4,
      "curveTo": "{0.085301265218350852, 1.0349310265567422}",
      "hasCurveFrom": true,
      "hasCurveTo": true,
      "point": "{0.067244245782328196, 0.99767672626895065}"
    }
  ],
  "resizingConstraint": 63,
  "resizingType": 0,
  "rotation": 0,
  "shouldBreakMaskChain": false,
  "style": {
    "_class": "style",
    "do_objectID": "0FBB8737-821A-4402-B811-8E2E5236C8E5",
    "endMarkerType": 0,
    "fills": [
      {
        "_class": "fill",
        "color": {
          "_class": "color",
          "alpha": 1,
          "blue": 0.1764705882352941,
          "green": 0.1764705882352941,
          "red": 0.1764705882352941
        },
        "fillType": 0,
        "isEnabled": true,
        "noiseIndex": 0,
        "noiseIntensity": 0,
        "patternFillType": 1,
        "patternTileScale": 1
      }
    ],
    "miterLimit": 10,
    "startMarkerType": 0,
    "windingRule": 1
  }
}