{
  "_class": "shapePath",
  "booleanOperation": -1,
  "clippingMaskMode": 0,
  "do_objectID": "5F4AF4B9-9691-49BE-841F-3748B42FD8E0",
  "edited": true,
  "exportOptions": {
    "_class": "exportOptions",
    "do_objectID": "31F6003D-2FAE-499B-9ABE-E5EB2F8FBDD0",
    "exportFormats": [
    ],
    "includedLayerIds": [
    ],
    "layerOptions": 0,
    "shouldTrim": false
  },
  "frame": {
    "_class": "rect",
    "constrainProportions": false,
    "do_objectID": "6D2C43D3-5A56-4A23-B4C3-A144E8833BF8",
    "height": 0.105890603085566,
    "width": 0.1059863482545396,
    "x": 39.69530681745262,
    "y": 22.66645012015717
  },
  "hasClippingMask": false,
  "isClosed": true,
  "isFixedToViewport": false,
  "isFlippedHorizontal": false,
  "isFlippedVertical": false,
  "isLocked": false,
  "isVisible": true,
  "layerListExpandedType": 0,
  "name": "Path",
  "nameIsFixed": false,
  "pointRadiusBehaviour": 0,
  "points": [
    {
      "_class": "curvePoint",
      "cornerRadius": 0,
      "curveFrom": "{-0.25712574955701939, 0.51462905827190752}",
      "curveMode": 3,
      "curveTo": "{0.3218742504429315, 0.86662905827188297}",
      "hasCurveFrom": true,
      "hasCurveTo": true,
      "point": "{0.11887425044295696, 0.74462905827192571}"
    },
    {
      "_class": "curvePoint",
      "cornerRadius": 0,
      "curveFrom": "{0.93887425044295014, 0.24762905827185477}",
      "curveMode": 3,
      "curveTo": "{0.36087425044297561, -0.10937094172811612}",
      "hasCurveFrom": true,
      "hasCurveTo": true,
      "point": "{0.56487425044298334, 0.016629058271860231}"
    }
  ],
  "resizingConstraint": 63,
  "resizingType": 0,
  "rotation": 0,
  "shouldBreakMaskChain": false,
  "style": {
    "_class": "style",
    "do_objectID": "391188E3-FA82-4654-921B-58E66DCB29C2",
    "endMarkerType": 0,
    "fills": [
      {
        "_class": "fill",
        "color": {
          "_class": "color",
          "alpha": 1,
          "blue": 0.1764705882352941,
          "green": 0.1764705882352941,
          "red": 0.1764705882352941
        },
        "fillType": 0,
        "isEnabled": true,
        "noiseIndex": 0,
        "noiseIntensity": 0,
        "patternFillType": 1,
        "patternTileScale": 1
      }
    ],
    "miterLimit": 10,
    "startMarkerType": 0,
    "windingRule": 1
  }
}