{
  "_class": "shapePath",
  "booleanOperation": -1,
  "clippingMaskMode": 0,
  "do_objectID": "65AB3C68-9707-4AB0-973F-A9267ED1A7E1",
  "edited": true,
  "exportOptions": {
    "_class": "exportOptions",
    "do_objectID": "DD6A0B2F-9B1B-470D-84D7-944755AC1525",
    "exportFormats": [
    ],
    "includedLayerIds": [
    ],
    "layerOptions": 0,
    "shouldTrim": false
  },
  "frame": {
    "_class": "rect",
    "constrainProportions": false,
    "do_objectID": "0EB923D4-F269-4BC9-8BDB-DD38663E282A",
    "height": 0.1947781083454236,
    "width": 0.2541621250910637,
    "x": 13.10142614556757,
    "y": 2.874736440371116
  },
  "hasClippingMask": false,
  "isClosed": true,
  "isFixedToViewport": false,
  "isFlippedHorizontal": false,
  "isFlippedVertical": false,
  "isLocked": false,
  "isVisible": true,
  "layerListExpandedType": 0,
  "name": "Path",
  "nameIsFixed": false,
  "pointRadiusBehaviour": 0,
  "points": [
    {
      "_class": "curvePoint",
      "cornerRadius": 0,
      "curveFrom": "{0.13064324615509754, 1.0625510196505958}",
      "curveMode": 4,
      "curveTo": "{0.099025847534595646, 0.34016621593046897}",
      "hasCurveFrom": true,
      "hasCurveTo": true,
      "point": "{0.2785104740469625, 0.96803727299673126}"
    },
    {
      "_class": "curvePoint",
      "cornerRadius": 0,
      "curveFrom": "{0.031958638339581992, 0.72571568465948644}",
      "curveMode": 4,
      "curveTo": "{0.07954442010175683, 0.93139758266394224}",
      "hasCurveFrom": true,
      "hasCurveTo": true,
      "point": "{0.046010815504254544, 0.78400610109799385}"
    },
    {
      "_class": "curvePoint",
      "cornerRadius": 0,
      "curveFrom": "{0.0035349163474110582, 0.50962478371956765}",
      "curveMode": 3,
      "curveTo": "{-0.0054073782119210692, 0.59914220896441661}",
      "hasCurveFrom": true,
      "hasCurveTo": true,
      "point": "{0.00066060738191501167, 0.53960271217366118}"
    },
    {
      "_class": "curvePoint",
      "cornerRadius": 0,
      "curveFrom": "{0.23539583956444915, 0.37930406696775387}",
      "curveMode": 4,
      "curveTo": "{0.17407724830044577, 0.51004114383697574}",
      "hasCurveFrom": true,
      "hasCurveTo": true,
      "point": "{0.18812942546510925, 0.48089593561772198}"
    },
    {
      "_class": "curvePoint",
      "cornerRadius": 0,
      "curveFrom": "{0.51739748584633227, 0.11824627334669466}",
      "curveMode": 4,
      "curveTo": "{0.12617209887543601, 0.15405324344464374}",
      "hasCurveFrom": true,
      "hasCurveTo": true,
      "point": "{0.32992866776313806, 0.177369410020042}"
    },
    {
      "_class": "curvePoint",
      "cornerRadius": 0,
      "curveFrom": "{1.3704285132743044, 0.86644540434676309}",
      "curveMode": 4,
      "curveTo": "{0.70454693626669163, 0.059123136673347329}",
      "hasCurveFrom": true,
      "hasCurveTo": true,
      "point": "{0.89137701902422506, 0}"
    }
  ],
  "resizingConstraint": 63,
  "resizingType": 0,
  "rotation": 0,
  "shouldBreakMaskChain": false,
  "style": {
    "_class": "style",
    "do_objectID": "6B50537F-2DA8-44C8-ACDA-DBEAD28F0169",
    "endMarkerType": 0,
    "fills": [
      {
        "_class": "fill",
        "color": {
          "_class": "color",
          "alpha": 1,
          "blue": 0.1764705882352941,
          "green": 0.1764705882352941,
          "red": 0.1764705882352941
        },
        "fillType": 0,
        "isEnabled": true,
        "noiseIndex": 0,
        "noiseIntensity": 0,
        "patternFillType": 1,
        "patternTileScale": 1
      }
    ],
    "miterLimit": 10,
    "startMarkerType": 0,
    "windingRule": 1
  }
}