{
  "_class": "shapePath",
  "booleanOperation": -1,
  "clippingMaskMode": 0,
  "do_objectID": "6B9924F1-15DF-4BD6-9C66-6A5D8D279DBC",
  "edited": true,
  "exportOptions": {
    "_class": "exportOptions",
    "do_objectID": "D9EFEB20-CF86-427E-900E-7CBC523B9F3C",
    "exportFormats": [
    ],
    "includedLayerIds": [
    ],
    "layerOptions": 0,
    "shouldTrim": false
  },
  "frame": {
    "_class": "rect",
    "constrainProportions": false,
    "do_objectID": "63FDFB1F-F1EE-40DD-8B8A-9B6A26811934",
    "height": 0.1058906030855802,
    "width": 0.1388838613834515,
    "x": 21.17747548280768,
    "y": 22.8162098526217
  },
  "hasClippingMask": false,
  "isClosed": true,
  "isFixedToViewport": false,
  "isFlippedHorizontal": false,
  "isFlippedVertical": false,
  "isLocked": false,
  "isVisible": true,
  "layerListExpandedType": 0,
  "name": "Path",
  "nameIsFixed": false,
  "pointRadiusBehaviour": 0,
  "points": [
    {
      "_class": "curvePoint",
      "cornerRadius": 0,
      "curveFrom": "{0.71770894213909964, 0.28397395946456072}",
      "curveMode": 4,
      "curveTo": "{0.42781998831094231, -0.13002604053542655}",
      "hasCurveFrom": true,
      "hasCurveTo": true,
      "point": "{0.50029222676796503, 0.41697395946459892}"
    },
    {
      "_class": "curvePoint",
      "cornerRadius": 0,
      "curveFrom": "{0.78375219170075872, 0.86197395946453526}",
      "curveMode": 4,
      "curveTo": "{0.92752776154294403, 0.18097395946455208}",
      "hasCurveFrom": true,
      "hasCurveTo": true,
      "point": "{1, 0.7279739594645207}"
    },
    {
      "_class": "curvePoint",
      "cornerRadius": 0,
      "curveFrom": "{0.28229105786090036, 0.54897395946454708}",
      "curveMode": 4,
      "curveTo": "{0.572764465225021, 0.96397395946456754}",
      "hasCurveFrom": true,
      "hasCurveTo": true,
      "point": "{0.50029222676796503, 0.41697395946459892}"
    },
    {
      "_class": "curvePoint",
      "cornerRadius": 0,
      "curveFrom": "{0.21683226183517132, -0.027026040535474749}",
      "curveMode": 4,
      "curveTo": "{0.072472238457055943, 0.65397395946456527}",
      "hasCurveFrom": true,
      "hasCurveTo": true,
      "point": "{0, 0.1049739594645871}"
    }
  ],
  "resizingConstraint": 63,
  "resizingType": 0,
  "rotation": 0,
  "shouldBreakMaskChain": false,
  "style": {
    "_class": "style",
    "do_objectID": "BB7322F6-BD1B-40F4-BEEC-ED3B81E251A6",
    "endMarkerType": 0,
    "fills": [
      {
        "_class": "fill",
        "color": {
          "_class": "color",
          "alpha": 1,
          "blue": 0.1764705882352941,
          "green": 0.1764705882352941,
          "red": 0.1764705882352941
        },
        "fillType": 0,
        "isEnabled": true,
        "noiseIndex": 0,
        "noiseIntensity": 0,
        "patternFillType": 1,
        "patternTileScale": 1
      }
    ],
    "miterLimit": 10,
    "startMarkerType": 0,
    "windingRule": 1
  }
}