{
  "_class": "shapePath",
  "booleanOperation": -1,
  "clippingMaskMode": 0,
  "do_objectID": "6C5ED578-BB75-43E9-B4AA-E01BD7FCD7F2",
  "edited": true,
  "exportOptions": {
    "_class": "exportOptions",
    "do_objectID": "3B7277C3-F6B6-4914-B3E9-2C27B135D59A",
    "exportFormats": [
    ],
    "includedLayerIds": [
    ],
    "layerOptions": 0,
    "shouldTrim": false
  },
  "frame": {
    "_class": "rect",
    "constrainProportions": false,
    "do_objectID": "FDFAC6CA-A99B-40E1-B5CD-049529B52DFA",
    "height": 0.2103307766877442,
    "width": 0.1556038408278013,
    "x": 8.971384166875145,
    "y": 18.41429829722768
  },
  "hasClippingMask": false,
  "isClosed": true,
  "isFixedToViewport": false,
  "isFlippedHorizontal": false,
  "isFlippedVertical": false,
  "isLocked": false,
  "isVisible": true,
  "layerListExpandedType": 0,
  "name": "Path",
  "nameIsFixed": false,
  "pointRadiusBehaviour": 0,
  "points": [
    {
      "_class": "curvePoint",
      "cornerRadius": 0,
      "curveFrom": "{1.0483776449736155, 0.20281131672655789}",
      "curveMode": 4,
      "curveTo": "{-0.053352859773305311, 0.10063451267230521}",
      "hasCurveFrom": true,
      "hasCurveTo": true,
      "point": "{0.98995254244915321, 0}"
    },
    {
      "_class": "curvePoint",
      "cornerRadius": 0,
      "curveFrom": "{0.76772849177577596, 0.62655587391761947}",
      "curveMode": 4,
      "curveTo": "{0.82667524700134465, 0.33043592858301502}",
      "hasCurveFrom": true,
      "hasCurveTo": true,
      "point": "{0.97012973980692818, 0.55638161603883973}"
    },
    {
      "_class": "curvePoint",
      "cornerRadius": 0,
      "curveFrom": "{0.39422515778013151, 0.77885714788527993}",
      "curveMode": 4,
      "curveTo": "{0.56428393834239621, 0.69634455895089853}",
      "hasCurveFrom": true,
      "hasCurveTo": true,
      "point": "{0.36188269031123654, 0.76651881682967826}"
    },
    {
      "_class": "curvePoint",
      "cornerRadius": 0,
      "curveFrom": "{-0.36269291153225869, 1.1008104738675675}",
      "curveMode": 4,
      "curveTo": "{0.4745596737512589, 0.99477794135842967}",
      "hasCurveFrom": true,
      "hasCurveTo": true,
      "point": "{0.50325057231238013, 0.99169335859452379}"
    }
  ],
  "resizingConstraint": 63,
  "resizingType": 0,
  "rotation": 0,
  "shouldBreakMaskChain": false,
  "style": {
    "_class": "style",
    "do_objectID": "D1EE8B02-C335-467C-B466-8F8A633EB7A2",
    "endMarkerType": 0,
    "fills": [
      {
        "_class": "fill",
        "color": {
          "_class": "color",
          "alpha": 1,
          "blue": 0.1764705882352941,
          "green": 0.1764705882352941,
          "red": 0.1764705882352941
        },
        "fillType": 0,
        "isEnabled": true,
        "noiseIndex": 0,
        "noiseIntensity": 0,
        "patternFillType": 1,
        "patternTileScale": 1
      }
    ],
    "miterLimit": 10,
    "startMarkerType": 0,
    "windingRule": 1
  }
}