{
  "_class": "shapePath",
  "booleanOperation": -1,
  "clippingMaskMode": 0,
  "do_objectID": "6EFAECC5-C884-462C-96E6-4A34D42BFEE5",
  "edited": true,
  "exportOptions": {
    "_class": "exportOptions",
    "do_objectID": "8D3EEF43-99D6-4FF0-B5C6-B3C2AEC94E4A",
    "exportFormats": [
    ],
    "includedLayerIds": [
    ],
    "layerOptions": 0,
    "shouldTrim": false
  },
  "frame": {
    "_class": "rect",
    "constrainProportions": false,
    "do_objectID": "F8621D4D-73A4-4B06-9BF6-9E4320B4C3F1",
    "height": 0.1058906030855543,
    "width": 0.1204266124523805,
    "x": 18.6425994358858,
    "y": 0.6583325808199878
  },
  "hasClippingMask": false,
  "isClosed": true,
  "isFixedToViewport": false,
  "isFlippedHorizontal": false,
  "isFlippedVertical": false,
  "isLocked": false,
  "isVisible": true,
  "layerListExpandedType": 0,
  "name": "Path",
  "nameIsFixed": false,
  "pointRadiusBehaviour": 0,
  "points": [
    {
      "_class": "curvePoint",
      "cornerRadius": 0,
      "curveFrom": "{0.48178015952995173, 1.2511164066350011}",
      "curveMode": 4,
      "curveTo": "{0.91248540530062128, 0.64348125456558991}",
      "hasCurveFrom": true,
      "hasCurveTo": true,
      "point": "{0.6536578397670868, 0.84019767070314111}"
    },
    {
      "_class": "curvePoint",
      "cornerRadius": 0,
      "curveFrom": "{0.082080299213835334, 0.25441989820460209}",
      "curveMode": 3,
      "curveTo": "{-0.058791995568746633, 0.76675687534510806}",
      "hasCurveFrom": true,
      "hasCurveTo": true,
      "point": "{0.0052408656960616111, 0.53506865189419117}"
    },
    {
      "_class": "curvePoint",
      "cornerRadius": 0,
      "curveFrom": "{1.1450257962096637, 0.43627329623398414}",
      "curveMode": 4,
      "curveTo": "{0.7601545985022341, 0.25704278375309086}",
      "hasCurveFrom": true,
      "hasCurveTo": true,
      "point": "{0.88889435115043069, 0}"
    }
  ],
  "resizingConstraint": 63,
  "resizingType": 0,
  "rotation": 0,
  "shouldBreakMaskChain": false,
  "style": {
    "_class": "style",
    "do_objectID": "F67C8F1B-AFA9-4EF0-A7FD-FFED72D09B37",
    "endMarkerType": 0,
    "fills": [
      {
        "_class": "fill",
        "color": {
          "_class": "color",
          "alpha": 1,
          "blue": 0.1764705882352941,
          "green": 0.1764705882352941,
          "red": 0.1764705882352941
        },
        "fillType": 0,
        "isEnabled": true,
        "noiseIndex": 0,
        "noiseIntensity": 0,
        "patternFillType": 1,
        "patternTileScale": 1
      }
    ],
    "miterLimit": 10,
    "startMarkerType": 0,
    "windingRule": 1
  }
}