{
  "_class": "shapePath",
  "booleanOperation": -1,
  "clippingMaskMode": 0,
  "do_objectID": "75998BF4-2277-4636-B279-AFE97C472D95",
  "edited": true,
  "exportOptions": {
    "_class": "exportOptions",
    "do_objectID": "554E1B67-D2A9-419B-B51C-77CD6CA23A2C",
    "exportFormats": [
    ],
    "includedLayerIds": [
    ],
    "layerOptions": 0,
    "shouldTrim": false
  },
  "frame": {
    "_class": "rect",
    "constrainProportions": false,
    "do_objectID": "5E16F5C9-E33A-40CD-8A15-6125EEE44E4C",
    "height": 0.1058906030855731,
    "width": 0.1059863482545609,
    "x": 6.903806782931387,
    "y": 18.14935166681589
  },
  "hasClippingMask": false,
  "isClosed": true,
  "isFixedToViewport": false,
  "isFlippedHorizontal": false,
  "isFlippedVertical": false,
  "isLocked": false,
  "isVisible": true,
  "layerListExpandedType": 0,
  "name": "Path",
  "nameIsFixed": false,
  "pointRadiusBehaviour": 0,
  "points": [
    {
      "_class": "curvePoint",
      "cornerRadius": 0,
      "curveFrom": "{0.13152058612693854, 0.042000000000001592}",
      "curveMode": 3,
      "curveTo": "{-0.08406783996989764, 0.48500000000001364}",
      "hasCurveFrom": true,
      "hasCurveTo": true,
      "point": "{0.013855108147350375, 0.28400000000002024}"
    },
    {
      "_class": "curvePoint",
      "cornerRadius": 0,
      "curveFrom": "{1.1186470792442829, 0.47300000000001319}",
      "curveMode": 4,
      "curveTo": "{0.77907556561191105, 0.20799999999999841}",
      "hasCurveFrom": true,
      "hasCurveTo": true,
      "point": "{0.94096431048315421, 0}"
    },
    {
      "_class": "curvePoint",
      "cornerRadius": 0,
      "curveFrom": "{0.36132363372465381, 1.0720000000000027}",
      "curveMode": 4,
      "curveTo": "{0.86436329461725292, 0.60699999999999932}",
      "hasCurveFrom": true,
      "hasCurveTo": true,
      "point": "{0.58796787654438976, 0.72900000000001342}"
    }
  ],
  "resizingConstraint": 63,
  "resizingType": 0,
  "rotation": 0,
  "shouldBreakMaskChain": false,
  "style": {
    "_class": "style",
    "do_objectID": "1E85D549-76AB-4666-8666-34FCA5B278A7",
    "endMarkerType": 0,
    "fills": [
      {
        "_class": "fill",
        "color": {
          "_class": "color",
          "alpha": 1,
          "blue": 0.1764705882352941,
          "green": 0.1764705882352941,
          "red": 0.1764705882352941
        },
        "fillType": 0,
        "isEnabled": true,
        "noiseIndex": 0,
        "noiseIntensity": 0,
        "patternFillType": 1,
        "patternTileScale": 1
      }
    ],
    "miterLimit": 10,
    "startMarkerType": 0,
    "windingRule": 1
  }
}