{
  "_class": "shapePath",
  "booleanOperation": -1,
  "clippingMaskMode": 0,
  "do_objectID": "770D7082-7375-4977-B6EA-0BBA0F60FDCD",
  "edited": true,
  "exportOptions": {
    "_class": "exportOptions",
    "do_objectID": "EC86DD8C-E019-4CEE-9A83-4D2EA41D748D",
    "exportFormats": [
    ],
    "includedLayerIds": [
    ],
    "layerOptions": 0,
    "shouldTrim": false
  },
  "frame": {
    "_class": "rect",
    "constrainProportions": false,
    "do_objectID": "BFD99941-703F-4277-B797-055F03D11B2A",
    "height": 0.1182406449771634,
    "width": 0.1184287280879275,
    "x": 21.17999178888771,
    "y": 15.50288598263252
  },
  "hasClippingMask": false,
  "isClosed": true,
  "isFixedToViewport": false,
  "isFlippedHorizontal": false,
  "isFlippedVertical": false,
  "isLocked": false,
  "isVisible": true,
  "layerListExpandedType": 0,
  "name": "Path",
  "nameIsFixed": false,
  "pointRadiusBehaviour": 0,
  "points": [
    {
      "_class": "curvePoint",
      "cornerRadius": 0,
      "curveFrom": "{0.26936257710758837, 0.12962962962964189}",
      "curveMode": 4,
      "curveTo": "{0.064427690198762086, 0.4643347050754516}",
      "hasCurveFrom": true,
      "hasCurveTo": true,
      "point": "{0, 0.19478737997255596}"
    },
    {
      "_class": "curvePoint",
      "cornerRadius": 0,
      "curveFrom": "{0.87045921864289177, 0.26954732510289564}",
      "curveMode": 4,
      "curveTo": "{0.53598355037695722, 0.065157750342953041}",
      "hasCurveFrom": true,
      "hasCurveTo": true,
      "point": "{0.80466072652500042, 0}"
    },
    {
      "_class": "curvePoint",
      "cornerRadius": 0,
      "curveFrom": "{0.73132282385195679, 0.86968449931413294}",
      "curveMode": 4,
      "curveTo": "{0.93488690884165382, 0.53703703703703776}",
      "hasCurveFrom": true,
      "hasCurveTo": true,
      "point": "{1, 0.80452674897117982}"
    },
    {
      "_class": "curvePoint",
      "cornerRadius": 0,
      "curveFrom": "{0.12954078135710825, 0.73182441700959366}",
      "curveMode": 4,
      "curveTo": "{0.46401644962304278, 0.93415637860082179}",
      "hasCurveFrom": true,
      "hasCurveTo": true,
      "point": "{0.19396847155587035, 1}"
    }
  ],
  "resizingConstraint": 63,
  "resizingType": 0,
  "rotation": 0,
  "shouldBreakMaskChain": false,
  "style": {
    "_class": "style",
    "do_objectID": "C80FFF80-5540-41F4-9898-C0931A06D63D",
    "endMarkerType": 0,
    "fills": [
      {
        "_class": "fill",
        "color": {
          "_class": "color",
          "alpha": 1,
          "blue": 0.1764705882352941,
          "green": 0.1764705882352941,
          "red": 0.1764705882352941
        },
        "fillType": 0,
        "isEnabled": true,
        "noiseIndex": 0,
        "noiseIntensity": 0,
        "patternFillType": 1,
        "patternTileScale": 1
      }
    ],
    "miterLimit": 10,
    "startMarkerType": 0,
    "windingRule": 1
  }
}