{
  "_class": "shapePath",
  "booleanOperation": -1,
  "clippingMaskMode": 0,
  "do_objectID": "7879A29D-F7C9-4836-8070-FAAB5D44EF66",
  "edited": true,
  "exportOptions": {
    "_class": "exportOptions",
    "do_objectID": "E4BAC713-D96D-42A7-8B06-D5F63089CFC7",
    "exportFormats": [
    ],
    "includedLayerIds": [
    ],
    "layerOptions": 0,
    "shouldTrim": false
  },
  "frame": {
    "_class": "rect",
    "constrainProportions": false,
    "do_objectID": "7705887D-8CC8-4F36-8943-B78603FDD8BF",
    "height": 0.1058906030855695,
    "width": 0.10598634825456,
    "x": 4.577015402316946,
    "y": 19.98168275779498
  },
  "hasClippingMask": false,
  "isClosed": true,
  "isFixedToViewport": false,
  "isFlippedHorizontal": false,
  "isFlippedVertical": false,
  "isLocked": false,
  "isVisible": true,
  "layerListExpandedType": 0,
  "name": "Path",
  "nameIsFixed": false,
  "pointRadiusBehaviour": 0,
  "points": [
    {
      "_class": "curvePoint",
      "cornerRadius": 0,
      "curveFrom": "{0.93879074937350993, 0.24691882627385553}",
      "curveMode": 3,
      "curveTo": "{0.36179074937351174, -0.10708117372612946}",
      "hasCurveFrom": true,
      "hasCurveTo": true,
      "point": "{0.56179074937350748, 0.015918826273860986}"
    },
    {
      "_class": "curvePoint",
      "cornerRadius": 0,
      "curveFrom": "{-0.25720925062648803, 0.51591882627386099}",
      "curveMode": 4,
      "curveTo": "{0.31879074937351248, 0.86891882627386963}",
      "hasCurveFrom": true,
      "hasCurveTo": true,
      "point": "{0.11879074937350964, 0.74391882627386963}"
    }
  ],
  "resizingConstraint": 63,
  "resizingType": 0,
  "rotation": 0,
  "shouldBreakMaskChain": false,
  "style": {
    "_class": "style",
    "do_objectID": "51DD6545-4B85-4D40-935B-7A86E2EEBE80",
    "endMarkerType": 0,
    "fills": [
      {
        "_class": "fill",
        "color": {
          "_class": "color",
          "alpha": 1,
          "blue": 0.1764705882352941,
          "green": 0.1764705882352941,
          "red": 0.1764705882352941
        },
        "fillType": 0,
        "isEnabled": true,
        "noiseIndex": 0,
        "noiseIntensity": 0,
        "patternFillType": 1,
        "patternTileScale": 1
      }
    ],
    "miterLimit": 10,
    "startMarkerType": 0,
    "windingRule": 1
  }
}