{
  "_class": "shapePath",
  "booleanOperation": -1,
  "clippingMaskMode": 0,
  "do_objectID": "7F1418D8-FB08-4107-832F-6B0A42ABE816",
  "edited": true,
  "exportOptions": {
    "_class": "exportOptions",
    "do_objectID": "9F96C06D-9FA5-4E57-81CD-5F09E88B1AEC",
    "exportFormats": [
    ],
    "includedLayerIds": [
    ],
    "layerOptions": 0,
    "shouldTrim": false
  },
  "frame": {
    "_class": "rect",
    "constrainProportions": false,
    "do_objectID": "31B89708-CC30-4883-9DEE-87B4C8635FE1",
    "height": 0.1137802639937853,
    "width": 0.1438490547329945,
    "x": 13.30960534547461,
    "y": 17.14909095683771
  },
  "hasClippingMask": false,
  "isClosed": true,
  "isFixedToViewport": false,
  "isFlippedHorizontal": false,
  "isFlippedVertical": false,
  "isLocked": false,
  "isVisible": true,
  "layerListExpandedType": 0,
  "name": "Path",
  "nameIsFixed": false,
  "pointRadiusBehaviour": 0,
  "points": [
    {
      "_class": "curvePoint",
      "cornerRadius": 0,
      "curveFrom": "{0.47759228750664334, 0.25873129009267481}",
      "curveMode": 4,
      "curveTo": "{0.066232069868305224, 0.53314326443336291}",
      "hasCurveFrom": true,
      "hasCurveTo": true,
      "point": "{0.25865159554000328, 0.38916607270136344}"
    },
    {
      "_class": "curvePoint",
      "cornerRadius": 0,
      "curveFrom": "{1.1084574772455589, 0.31931575196008632}",
      "curveMode": 4,
      "curveTo": "{0.69766153974115808, 0.12972202423379456}",
      "hasCurveFrom": true,
      "hasCurveTo": true,
      "point": "{0.91716651184171949, 0}"
    },
    {
      "_class": "curvePoint",
      "cornerRadius": 0,
      "curveFrom": "{0.52160613795354627, 0.74198146828225975}",
      "curveMode": 4,
      "curveTo": "{0.93409491585975912, 0.46828225231646564}",
      "hasCurveFrom": true,
      "hasCurveTo": true,
      "point": "{0.74111111005412367, 0.61154668567355086}"
    },
    {
      "_class": "curvePoint",
      "cornerRadius": 0,
      "curveFrom": "{-0.10925905178536925, 0.68139700641482792}",
      "curveMode": 4,
      "curveTo": "{0.30322972612084353, 0.87027797576620547}",
      "hasCurveFrom": true,
      "hasCurveTo": true,
      "point": "{0.083724754020266107, 1}"
    }
  ],
  "resizingConstraint": 63,
  "resizingType": 0,
  "rotation": 0,
  "shouldBreakMaskChain": false,
  "style": {
    "_class": "style",
    "do_objectID": "AD05D34B-554A-4929-9464-22B8FA95BBB4",
    "endMarkerType": 0,
    "fills": [
      {
        "_class": "fill",
        "color": {
          "_class": "color",
          "alpha": 1,
          "blue": 0.1764705882352941,
          "green": 0.1764705882352941,
          "red": 0.1764705882352941
        },
        "fillType": 0,
        "isEnabled": true,
        "noiseIndex": 0,
        "noiseIntensity": 0,
        "patternFillType": 1,
        "patternTileScale": 1
      }
    ],
    "miterLimit": 10,
    "startMarkerType": 0,
    "windingRule": 1
  }
}