{
  "_class": "shapePath",
  "booleanOperation": -1,
  "clippingMaskMode": 0,
  "do_objectID": "9488E351-609F-4AD9-819A-F4109FC649AF",
  "edited": true,
  "exportOptions": {
    "_class": "exportOptions",
    "do_objectID": "322C869C-2AEE-4431-BFE3-A56FD09B969D",
    "exportFormats": [
    ],
    "includedLayerIds": [
    ],
    "layerOptions": 0,
    "shouldTrim": false
  },
  "frame": {
    "_class": "rect",
    "constrainProportions": false,
    "do_objectID": "273E8245-FB4A-463E-A656-277DA660BB75",
    "height": 1.512020414482217,
    "width": 2.184219601979612,
    "x": 10.1527105111416,
    "y": 10.41201506342094
  },
  "hasClippingMask": false,
  "isClosed": true,
  "isFixedToViewport": false,
  "isFlippedHorizontal": false,
  "isFlippedVertical": false,
  "isLocked": false,
  "isVisible": true,
  "layerListExpandedType": 0,
  "name": "Path",
  "nameIsFixed": false,
  "pointRadiusBehaviour": 0,
  "points": [
    {
      "_class": "curvePoint",
      "cornerRadius": 0,
      "curveFrom": "{0.96229446842342792, 0.99909018168743735}",
      "curveMode": 2,
      "curveTo": "{1.0069266875102099, 0.89873832809003518}",
      "hasCurveFrom": true,
      "hasCurveTo": true,
      "point": "{0.98500078471154073, 0.94792199978902825}"
    },
    {
      "_class": "curvePoint",
      "cornerRadius": 0,
      "curveFrom": "{0.91167907925090752, 0.98830946411764875}",
      "curveMode": 4,
      "curveTo": "{0.93784151242084401, 1.0125526697969787}",
      "hasCurveFrom": false,
      "hasCurveTo": true,
      "point": "{0.91167907925090752, 0.98830946411764875}"
    },
    {
      "_class": "curvePoint",
      "cornerRadius": 0,
      "curveFrom": "{0.15910033759693226, 0.29233637364201837}",
      "curveMode": 4,
      "curveTo": "{0.16010372636907427, 0.29169274871247863}",
      "hasCurveFrom": true,
      "hasCurveTo": false,
      "point": "{0.16010372636907427, 0.29169274871247863}"
    },
    {
      "_class": "curvePoint",
      "cornerRadius": 0,
      "curveFrom": "{0.14549884535233373, 0.29083458213975794}",
      "curveMode": 4,
      "curveTo": "{0.15813411137190581, 0.29292636316076137}",
      "hasCurveFrom": true,
      "hasCurveTo": true,
      "point": "{0.15716788514688038, 0.29362362350109789}"
    },
    {
      "_class": "curvePoint",
      "cornerRadius": 0,
      "curveFrom": "{0.10714709672822134, 0.32575123456728899}",
      "curveMode": 4,
      "curveTo": "{0.11866748633430227, 0.33358200454335346}",
      "hasCurveFrom": true,
      "hasCurveTo": true,
      "point": "{0.10848494842441136, 0.32660940114000658}"
    },
    {
      "_class": "curvePoint",
      "cornerRadius": 0,
      "curveFrom": "{0.10168420230211261, 0.27801571895975652}",
      "curveMode": 3,
      "curveTo": "{0.096555770800050872, 0.29292636316076137}",
      "hasCurveFrom": true,
      "hasCurveTo": true,
      "point": "{0.09707604645968014, 0.29137093624770721}"
    },
    {
      "_class": "curvePoint",
      "cornerRadius": 0,
      "curveFrom": "{0.13490751942416324, 0.2683613450166632}",
      "curveMode": 4,
      "curveTo": "{0.12145467736803095, 0.27538758383080375}",
      "hasCurveFrom": false,
      "hasCurveTo": true,
      "point": "{0.13490751942416324, 0.2683613450166632}"
    },
    {
      "_class": "curvePoint",
      "cornerRadius": 0,
      "curveFrom": "{0.075373118943709919, 0.21730043393984455}",
      "curveMode": 4,
      "curveTo": "{0.078606260542835274, 0.21612045490235246}",
      "hasCurveFrom": true,
      "hasCurveTo": false,
      "point": "{0.078606260542835274, 0.21612045490235246}"
    },
    {
      "_class": "curvePoint",
      "cornerRadius": 0,
      "curveFrom": "{0.068795348104108978, 0.21317050730863138}",
      "curveMode": 4,
      "curveTo": "{0.072177139891700062, 0.21837314215574313}",
      "hasCurveFrom": true,
      "hasCurveTo": true,
      "point": "{0.068906835745458139, 0.21955312119323217}"
    },
    {
      "_class": "curvePoint",
      "cornerRadius": 0,
      "curveFrom": "{0.066639920371358741, 0.20501792486779241}",
      "curveMode": 4,
      "curveTo": "{0.067754796784849899, 0.20898694526662143}",
      "hasCurveFrom": false,
      "hasCurveTo": true,
      "point": "{0.066639920371358741, 0.20501792486779241}"
    },
    {
      "_class": "curvePoint",
      "cornerRadius": 0,
      "curveFrom": "{0.047947159171815523, 0.1913945305258701}",
      "curveMode": 4,
      "curveTo": "{0.052220852090199964, 0.19166270757984477}",
      "hasCurveFrom": true,
      "hasCurveTo": false,
      "point": "{0.052220852090199964, 0.19166270757984477}"
    },
    {
      "_class": "curvePoint",
      "cornerRadius": 0,
      "curveFrom": "{0.036724069942666075, 0.18721096848386018}",
      "curveMode": 4,
      "curveTo": "{0.043376165876499617, 0.19176997840143523}",
      "hasCurveFrom": true,
      "hasCurveTo": true,
      "point": "{0.038545034751369334, 0.19278905120653705}"
    },
    {
      "_class": "curvePoint",
      "cornerRadius": 0,
      "curveFrom": "{0.03646393211285117, 0.17707387584361128}",
      "curveMode": 4,
      "curveTo": "{0.036278119377269401, 0.1820083336367484}",
      "hasCurveFrom": false,
      "hasCurveTo": true,
      "point": "{0.03646393211285117, 0.17707387584361128}"
    },
    {
      "_class": "curvePoint",
      "cornerRadius": 0,
      "curveFrom": "{0.01929483534508028, 0.16119779424829525}",
      "curveMode": 4,
      "curveTo": "{0.020781337229735509, 0.16253867951817152}",
      "hasCurveFrom": true,
      "hasCurveTo": false,
      "point": "{0.020781337229735509, 0.16253867951817152}"
    },
    {
      "_class": "curvePoint",
      "cornerRadius": 0,
      "curveFrom": "{0.014240728937251134, 0.16119779424829525}",
      "curveMode": 4,
      "curveTo": "{0.018179958931588597, 0.15964236733524112}",
      "hasCurveFrom": true,
      "hasCurveTo": true,
      "point": "{0.016879269782514611, 0.15819421124377742}"
    },
    {
      "_class": "curvePoint",
      "cornerRadius": 0,
      "curveFrom": "{0.0024230389542398037, 0.15797966960059648}",
      "curveMode": 2,
      "curveTo": "{0.011602188091987656, 0.16286049198293989}",
      "hasCurveFrom": true,
      "hasCurveTo": true,
      "point": "{0.0095210854534700205, 0.16173414835624761}"
    },
    {
      "_class": "curvePoint",
      "cornerRadius": 0,
      "curveFrom": "{-0.004080406791128006, 0.11560769507256606}",
      "curveMode": 4,
      "curveTo": "{0.0021257385773088638, 0.14811075401432225}",
      "hasCurveFrom": true,
      "hasCurveTo": true,
      "point": "{0.0046156292341066078, 0.13840274466043218}"
    },
    {
      "_class": "curvePoint",
      "cornerRadius": 0,
      "curveFrom": "{0.037615971073459424, 0.00029156186336221551}",
      "curveMode": 3,
      "curveTo": "{-0.00054996481507117983, 0.08605458372453402}",
      "hasCurveFrom": true,
      "hasCurveTo": true,
      "point": "{0.015727230821906892, 0.04952886897315207}"
    },
    {
      "_class": "curvePoint",
      "cornerRadius": 0,
      "curveFrom": "{0.087785409680583126, 0.011984081416668301}",
      "curveMode": 4,
      "curveTo": "{0.061660139057762721, -0.012259124262661514}",
      "hasCurveFrom": false,
      "hasCurveTo": true,
      "point": "{0.087785409680583126, 0.011984081416668301}"
    },
    {
      "_class": "curvePoint",
      "cornerRadius": 0,
      "curveFrom": "{0.27471302167601525, 0.17154942853172814}",
      "curveMode": 4,
      "curveTo": "{0.26616563583924635, 0.17734205289758595}",
      "hasCurveFrom": true,
      "hasCurveTo": false,
      "point": "{0.26616563583924635, 0.17734205289758595}"
    },
    {
      "_class": "curvePoint",
      "cornerRadius": 0,
      "curveFrom": "{0.30173019342962953, 0.17879020898904963}",
      "curveMode": 4,
      "curveTo": "{0.2832604075127852, 0.16581043957666403}",
      "hasCurveFrom": true,
      "hasCurveTo": true,
      "point": "{0.29180779334955403, 0.16007145062160297}"
    },
    {
      "_class": "curvePoint",
      "cornerRadius": 0,
      "curveFrom": "{0.29069291693606236, 0.2000834670746553}",
      "curveMode": 4,
      "curveTo": "{0.29834840164203791, 0.19053636395314943}",
      "hasCurveFrom": false,
      "hasCurveTo": true,
      "point": "{0.29069291693606236, 0.2000834670746553}"
    },
    {
      "_class": "curvePoint",
      "cornerRadius": 0,
      "curveFrom": "{0.88681733523004358, 0.7520454795657705}",
      "curveMode": 4,
      "curveTo": "{0.88625989702329822, 0.75209911497656723}",
      "hasCurveFrom": true,
      "hasCurveTo": false,
      "point": "{0.88625989702329822, 0.75209911497656723}"
    },
    {
      "_class": "curvePoint",
      "cornerRadius": 0,
      "curveFrom": "{0.89053358994168208, 0.75327909401405624}",
      "curveMode": 4,
      "curveTo": "{0.88744909853102194, 0.75167003169020541}",
      "hasCurveFrom": true,
      "hasCurveTo": true,
      "point": "{0.8879322116435352, 0.75193820874418005}"
    },
    {
      "_class": "curvePoint",
      "cornerRadius": 0,
      "curveFrom": "{0.89298631805136386, 0.75832082262878386}",
      "curveMode": 4,
      "curveTo": "{0.89202009182633846, 0.7556926874998281}",
      "hasCurveFrom": false,
      "hasCurveTo": true,
      "point": "{0.89298631805136386, 0.75832082262878386}"
    },
    {
      "_class": "curvePoint",
      "cornerRadius": 0,
      "curveFrom": "{1.0048084223245761, 0.86199807169547538}",
      "curveMode": 4,
      "curveTo": "{0.97868315170175524, 0.83775486601614546}",
      "hasCurveFrom": true,
      "hasCurveTo": false,
      "point": "{0.97868315170175524, 0.83775486601614546}"
    }
  ],
  "resizingConstraint": 63,
  "resizingType": 0,
  "rotation": 0,
  "shouldBreakMaskChain": false,
  "style": {
    "_class": "style",
    "do_objectID": "ED2D553F-B301-4013-B5B2-0EA952CC31ED",
    "endMarkerType": 0,
    "fills": [
      {
        "_class": "fill",
        "color": {
          "_class": "color",
          "alpha": 1,
          "blue": 0.1764705882352941,
          "green": 0.1764705882352941,
          "red": 0.1764705882352941
        },
        "fillType": 0,
        "isEnabled": true,
        "noiseIndex": 0,
        "noiseIntensity": 0,
        "patternFillType": 1,
        "patternTileScale": 1
      }
    ],
    "miterLimit": 10,
    "startMarkerType": 0,
    "windingRule": 1
  }
}