{
  "_class": "shapePath",
  "booleanOperation": -1,
  "clippingMaskMode": 0,
  "do_objectID": "966667C0-5F65-4AA5-85A6-04A2B9C30BC1",
  "edited": true,
  "exportOptions": {
    "_class": "exportOptions",
    "do_objectID": "0AC69EE6-2F68-476F-876D-E78D06CF2CF3",
    "exportFormats": [
    ],
    "includedLayerIds": [
    ],
    "layerOptions": 0,
    "shouldTrim": false
  },
  "frame": {
    "_class": "rect",
    "constrainProportions": false,
    "do_objectID": "CBB8F42C-9375-49A5-BEA7-5CFED89F2AA7",
    "height": 0.1058906030855837,
    "width": 0.1059863482545609,
    "x": 21.48586142985863,
    "y": 18.36518981168919
  },
  "hasClippingMask": false,
  "isClosed": true,
  "isFixedToViewport": false,
  "isFlippedHorizontal": false,
  "isFlippedVertical": false,
  "isLocked": false,
  "isVisible": true,
  "layerListExpandedType": 0,
  "name": "Path",
  "nameIsFixed": false,
  "pointRadiusBehaviour": 0,
  "points": [
    {
      "_class": "curvePoint",
      "cornerRadius": 0,
      "curveFrom": "{-0.28920568270609692, 0.57854618869811247}",
      "curveMode": 3,
      "curveTo": "{0.35879431729392763, 0.97154618869811316}",
      "hasCurveFrom": true,
      "hasCurveTo": true,
      "point": "{0.1337943172939049, 0.83654618869812225}"
    },
    {
      "_class": "curvePoint",
      "cornerRadius": 0,
      "curveFrom": "{1.0557943172939304, 0.27254618869810088}",
      "curveMode": 4,
      "curveTo": "{0.40579431729389626, -0.12245381130188093}",
      "hasCurveFrom": true,
      "hasCurveTo": true,
      "point": "{0.63279431729392854, 0.0185461886981102}"
    }
  ],
  "resizingConstraint": 63,
  "resizingType": 0,
  "rotation": 0,
  "shouldBreakMaskChain": false,
  "style": {
    "_class": "style",
    "do_objectID": "71BBC0CD-A62A-484E-B08D-24C4DF1D73EE",
    "endMarkerType": 0,
    "fills": [
      {
        "_class": "fill",
        "color": {
          "_class": "color",
          "alpha": 1,
          "blue": 0.1764705882352941,
          "green": 0.1764705882352941,
          "red": 0.1764705882352941
        },
        "fillType": 0,
        "isEnabled": true,
        "noiseIndex": 0,
        "noiseIntensity": 0,
        "patternFillType": 1,
        "patternTileScale": 1
      }
    ],
    "miterLimit": 10,
    "startMarkerType": 0,
    "windingRule": 1
  }
}