{
  "_class": "shapePath",
  "booleanOperation": -1,
  "clippingMaskMode": 0,
  "do_objectID": "9A157E58-8ED4-4325-A97D-3FD72F6D42D7",
  "edited": true,
  "exportOptions": {
    "_class": "exportOptions",
    "do_objectID": "F95C0E11-1E6F-4F68-A84A-2E363F848B85",
    "exportFormats": [
    ],
    "includedLayerIds": [
    ],
    "layerOptions": 0,
    "shouldTrim": false
  },
  "frame": {
    "_class": "rect",
    "constrainProportions": false,
    "do_objectID": "0D8FB3C8-8BA1-4EA5-B020-31AC39D39303",
    "height": 0.1431683475802465,
    "width": 0.3405640697517356,
    "x": 27.33236015449817,
    "y": 21.00450320235711
  },
  "hasClippingMask": false,
  "isClosed": true,
  "isFixedToViewport": false,
  "isFlippedHorizontal": false,
  "isFlippedVertical": false,
  "isLocked": false,
  "isVisible": true,
  "layerListExpandedType": 0,
  "name": "Path",
  "nameIsFixed": false,
  "pointRadiusBehaviour": 0,
  "points": [
    {
      "_class": "curvePoint",
      "cornerRadius": 0,
      "curveFrom": "{0.036466524731543173, 0.3114004695498474}",
      "curveMode": 4,
      "curveTo": "{0.10129590203209148, 0.84159849052420699}",
      "hasCurveFrom": true,
      "hasCurveTo": true,
      "point": "{0, 0.29780564849922198}"
    },
    {
      "_class": "curvePoint",
      "cornerRadius": 0,
      "curveFrom": "{0.16016669686014229, 0.1612909871158717}",
      "curveMode": 4,
      "curveTo": "{0.10463270821666676, 0.1137091134386827}",
      "hasCurveFrom": true,
      "hasCurveTo": true,
      "point": "{0.13919248655703567, 0.14146520641702953}"
    },
    {
      "_class": "curvePoint",
      "cornerRadius": 0,
      "curveFrom": "{0.34559778340359426, 0.4632093046151432}",
      "curveMode": 4,
      "curveTo": "{0.18280931025555686, 0.47510477303448073}",
      "hasCurveFrom": true,
      "hasCurveTo": true,
      "point": "{0.20426020715646381, 0.47397187128022439}"
    },
    {
      "_class": "curvePoint",
      "cornerRadius": 0,
      "curveFrom": "{0.7460145255539703, -0.051694542677270743}",
      "curveMode": 4,
      "curveTo": "{0.48097677717824072, 0.049700164325323995}",
      "hasCurveFrom": true,
      "hasCurveTo": true,
      "point": "{0.62231435342537111, 0.010615053804767837}"
    },
    {
      "_class": "curvePoint",
      "cornerRadius": 0,
      "curveFrom": "{1.0458503955689484, 0.28477727832572475}",
      "curveMode": 4,
      "curveTo": "{0.82538284408734086, 0.18734772746289841}",
      "hasCurveFrom": true,
      "hasCurveTo": true,
      "point": "{0.96505201724217693, 0.03214018713493013}"
    },
    {
      "_class": "curvePoint",
      "cornerRadius": 0,
      "curveFrom": "{0.74649121215177061, 0.60142331862984577}",
      "curveMode": 4,
      "curveTo": "{0.97196397291024794, 0.40373196251868115}",
      "hasCurveFrom": true,
      "hasCurveTo": true,
      "point": "{0.89092725128458294, 0.51702213794054896}"
    },
    {
      "_class": "curvePoint",
      "cornerRadius": 0,
      "curveFrom": "{0.27719325661957728, 1.0721439975077434}",
      "curveMode": 3,
      "curveTo": "{0.61945423383858267, 0.91353775191713471}",
      "hasCurveFrom": true,
      "hasCurveTo": true,
      "point": "{0.4733497916134759, 0.9803789554160055}"
    }
  ],
  "resizingConstraint": 63,
  "resizingType": 0,
  "rotation": 0,
  "shouldBreakMaskChain": false,
  "style": {
    "_class": "style",
    "do_objectID": "C2D71B14-F148-4B8E-9EB5-50BD2CE6CDE2",
    "endMarkerType": 0,
    "fills": [
      {
        "_class": "fill",
        "color": {
          "_class": "color",
          "alpha": 1,
          "blue": 0.1764705882352941,
          "green": 0.1764705882352941,
          "red": 0.1764705882352941
        },
        "fillType": 0,
        "isEnabled": true,
        "noiseIndex": 0,
        "noiseIntensity": 0,
        "patternFillType": 1,
        "patternTileScale": 1
      }
    ],
    "miterLimit": 10,
    "startMarkerType": 0,
    "windingRule": 1
  }
}