{
  "_class": "shapePath",
  "booleanOperation": -1,
  "clippingMaskMode": 0,
  "do_objectID": "AA2F6036-7EBD-4C1A-AD8B-E46E66DEB705",
  "edited": true,
  "exportOptions": {
    "_class": "exportOptions",
    "do_objectID": "B3FAA543-F2C9-4F30-8E34-D781BA866963",
    "exportFormats": [
    ],
    "includedLayerIds": [
    ],
    "layerOptions": 0,
    "shouldTrim": false
  },
  "frame": {
    "_class": "rect",
    "constrainProportions": false,
    "do_objectID": "37411930-F906-4899-A628-1720257ADCA3",
    "height": 0.3552350357182199,
    "width": 0.3903693985719094,
    "x": 18.44298131431787,
    "y": 20.74405041782188
  },
  "hasClippingMask": false,
  "isClosed": true,
  "isFixedToViewport": false,
  "isFlippedHorizontal": false,
  "isFlippedVertical": false,
  "isLocked": false,
  "isVisible": true,
  "layerListExpandedType": 0,
  "name": "Path",
  "nameIsFixed": false,
  "pointRadiusBehaviour": 0,
  "points": [
    {
      "_class": "curvePoint",
      "cornerRadius": 0,
      "curveFrom": "{0.32209013641005407, 0.8664483248397904}",
      "curveMode": 4,
      "curveTo": "{0.40630350325709996, 1.0018263476945075}",
      "hasCurveFrom": true,
      "hasCurveTo": true,
      "point": "{0.34787398206199394, 0.99086826152751417}"
    },
    {
      "_class": "curvePoint",
      "cornerRadius": 0,
      "curveFrom": "{0.11353209456416366, 0.78631731974364127}",
      "curveMode": 4,
      "curveTo": "{0.24702587608466481, 0.88996255140645186}",
      "hasCurveFrom": true,
      "hasCurveTo": true,
      "point": "{0.16988227336798647, 0.9196407014420569}"
    },
    {
      "_class": "curvePoint",
      "cornerRadius": 0,
      "curveFrom": "{0.08026261630360311, 0.47880602668240474}",
      "curveMode": 4,
      "curveTo": "{0.056350178803822829, 0.65299393804522576}",
      "hasCurveFrom": true,
      "hasCurveTo": true,
      "point": "{0, 0.52012714327043708}"
    },
    {
      "_class": "curvePoint",
      "cornerRadius": 0,
      "curveFrom": "{0.24931315271507751, 0.36831199116522978}",
      "curveMode": 4,
      "curveTo": "{0.16156490380284783, 0.43702832317074558}",
      "hasCurveFrom": true,
      "hasCurveTo": true,
      "point": "{0.24286719130209253, 0.39547891312089339}"
    },
    {
      "_class": "curvePoint",
      "cornerRadius": 0,
      "curveFrom": "{0.24723381032379432, 0.15188978936712275}",
      "curveMode": 4,
      "curveTo": "{0.17279335271578766, 0.28544146452733232}",
      "hasCurveFrom": true,
      "hasCurveTo": true,
      "point": "{0.1863090782591402, 0.26192723796067086}"
    },
    {
      "_class": "curvePoint",
      "cornerRadius": 0,
      "curveFrom": "{0.55123366792967043, -0.029831806235522427}",
      "curveMode": 4,
      "curveTo": "{0.46099020814789859, 0.16924009246485366}",
      "hasCurveFrom": true,
      "hasCurveTo": true,
      "point": "{0.37178641956176833, 0.0046405064981454467}"
    },
    {
      "_class": "curvePoint",
      "cornerRadius": 0,
      "curveFrom": "{0.8398463918400404, 0.14800880051630069}",
      "curveMode": 4,
      "curveTo": "{0.6624784858634214, 0.14093170320012932}",
      "hasCurveFrom": true,
      "hasCurveTo": true,
      "point": "{0.84961930107907968, 0.084314924670654684}"
    },
    {
      "_class": "curvePoint",
      "cornerRadius": 0,
      "curveFrom": "{0.9556657630346227, 0.36717052385616905}",
      "curveMode": 3,
      "curveTo": "{0.98727176738215305, 0.29502978992345807}",
      "hasCurveFrom": true,
      "hasCurveTo": true,
      "point": "{0.96294346140411968, 0.35050510114385897}"
    },
    {
      "_class": "curvePoint",
      "cornerRadius": 0,
      "curveFrom": "{0.84462887933999531, 0.44479030087236376}",
      "curveMode": 4,
      "curveTo": "{0.84047019455742888, 0.39730526081538797}",
      "hasCurveFrom": true,
      "hasCurveTo": true,
      "point": "{0.84150986575307052, 0.41282921621863727}"
    },
    {
      "_class": "curvePoint",
      "cornerRadius": 0,
      "curveFrom": "{0.88455225325267028, 0.44570347471960459}",
      "curveMode": 4,
      "curveTo": "{0.8525303804268809, 0.47401186398434186}",
      "hasCurveFrom": true,
      "hasCurveTo": true,
      "point": "{0.86126361847027855, 0.50117878594001852}"
    },
    {
      "_class": "curvePoint",
      "cornerRadius": 0,
      "curveFrom": "{1.0563059347728163, 0.44684494202866532}",
      "curveMode": 4,
      "curveTo": "{0.93050572010007127, 0.39639208696814715}",
      "hasCurveFrom": true,
      "hasCurveTo": true,
      "point": "{0.9592006450998064, 0.40826334698238137}"
    },
    {
      "_class": "curvePoint",
      "cornerRadius": 0,
      "curveFrom": "{0.90430600596987831, 0.66920277383390891}",
      "curveMode": 4,
      "curveTo": "{0.95712130270851736, 0.62217432070056}",
      "hasCurveFrom": true,
      "hasCurveTo": true,
      "point": "{0.89869178151341134, 0.62674018993680292}"
    },
    {
      "_class": "curvePoint",
      "cornerRadius": 0,
      "curveFrom": "{0.74586011575395528, 0.81759352401193397}",
      "curveMode": 4,
      "curveTo": "{0.89203788586129684, 0.70618631464751813}",
      "hasCurveFrom": true,
      "hasCurveTo": true,
      "point": "{0.83340043042705547, 0.74202838815204075}"
    },
    {
      "_class": "curvePoint",
      "cornerRadius": 0,
      "curveFrom": "{0.6190202298855686, 0.97739894728059229}",
      "curveMode": 4,
      "curveTo": "{0.76998048749286507, 0.93767588492523468}",
      "hasCurveFrom": true,
      "hasCurveTo": true,
      "point": "{0.64792308912442731, 1}"
    },
    {
      "_class": "curvePoint",
      "cornerRadius": 0,
      "curveFrom": "{0.53958935053847756, 0.83928140288411379}",
      "curveMode": 4,
      "curveTo": "{0.62213924347249339, 0.88242886716664071}",
      "hasCurveFrom": true,
      "hasCurveTo": true,
      "point": "{0.59136497608147498, 0.86599173791615058}"
    }
  ],
  "resizingConstraint": 63,
  "resizingType": 0,
  "rotation": 0,
  "shouldBreakMaskChain": false,
  "style": {
    "_class": "style",
    "do_objectID": "80DB9759-4036-4E2A-BD57-26CFDE0DB0E8",
    "endMarkerType": 0,
    "fills": [
      {
        "_class": "fill",
        "color": {
          "_class": "color",
          "alpha": 1,
          "blue": 0.1764705882352941,
          "green": 0.1764705882352941,
          "red": 0.1764705882352941
        },
        "fillType": 0,
        "isEnabled": true,
        "noiseIndex": 0,
        "noiseIntensity": 0,
        "patternFillType": 1,
        "patternTileScale": 1
      }
    ],
    "miterLimit": 10,
    "startMarkerType": 0,
    "windingRule": 1
  }
}