{
  "_class": "shapePath",
  "booleanOperation": -1,
  "clippingMaskMode": 0,
  "do_objectID": "AAFF2374-C625-461F-A585-4381B3BBB6E5",
  "edited": true,
  "exportOptions": {
    "_class": "exportOptions",
    "do_objectID": "A3C687E5-D1F0-467B-A6F3-8D6237186C09",
    "exportFormats": [
    ],
    "includedLayerIds": [
    ],
    "layerOptions": 0,
    "shouldTrim": false
  },
  "frame": {
    "_class": "rect",
    "constrainProportions": false,
    "do_objectID": "3837922A-A8DF-4AF3-8958-0DF626F2693B",
    "height": 0.1769148319058269,
    "width": 0.2394549334197364,
    "x": 33.55737671177329,
    "y": 4.67364863987947
  },
  "hasClippingMask": false,
  "isClosed": true,
  "isFixedToViewport": false,
  "isFlippedHorizontal": false,
  "isFlippedVertical": false,
  "isLocked": false,
  "isVisible": true,
  "layerListExpandedType": 0,
  "name": "Path",
  "nameIsFixed": false,
  "pointRadiusBehaviour": 0,
  "points": [
    {
      "_class": "curvePoint",
      "cornerRadius": 0,
      "curveFrom": "{0.29762711864406416, 0.1948201852534853}",
      "curveMode": 4,
      "curveTo": "{0.035932203389828797, 0.49232206814648688}",
      "hasCurveFrom": true,
      "hasCurveTo": true,
      "point": "{0, 0.29200107766231415}"
    },
    {
      "_class": "curvePoint",
      "cornerRadius": 0,
      "curveFrom": "{0.92813559322034245, 0.19986259004829299}",
      "curveMode": 4,
      "curveTo": "{0.59559322033898709, 0.097180892408802774}",
      "hasCurveFrom": true,
      "hasCurveTo": true,
      "point": "{0.89220338983051362, 0}"
    },
    {
      "_class": "curvePoint",
      "cornerRadius": 0,
      "curveFrom": "{0.95491525423729429, 0.61792378758051247}",
      "curveMode": 4,
      "curveTo": "{0.96440677966101063, 0.40247558271194273}",
      "hasCurveFrom": true,
      "hasCurveTo": true,
      "point": "{1, 0.60279657319614155}"
    },
    {
      "_class": "curvePoint",
      "cornerRadius": 0,
      "curveFrom": "{0.92644067796610663, 0.76644552880907335}",
      "curveMode": 4,
      "curveTo": "{0.90983050847456926, 0.63259260152902963}",
      "hasCurveFrom": true,
      "hasCurveTo": true,
      "point": "{0.86474576271186354, 0.64726141547752081}"
    },
    {
      "_class": "curvePoint",
      "cornerRadius": 0,
      "curveFrom": "{0.62474576271185356, 0.95163930490887516}",
      "curveMode": 4,
      "curveTo": "{0.7864406779661024, 1.0309425803179502}",
      "hasCurveFrom": true,
      "hasCurveTo": true,
      "point": "{0.71627118644068055, 0.99702094806204}"
    },
    {
      "_class": "curvePoint",
      "cornerRadius": 0,
      "curveFrom": "{0.51016949152542412, 0.76323672575783685}",
      "curveMode": 4,
      "curveTo": "{0.65559322033897505, 0.79945036019319793}",
      "hasCurveFrom": true,
      "hasCurveTo": true,
      "point": "{0.71118644067797332, 0.69768546342549331}"
    },
    {
      "_class": "curvePoint",
      "cornerRadius": 0,
      "curveFrom": "{0.072203389830497039, 0.69447666037425682}",
      "curveMode": 4,
      "curveTo": "{0.30915254237287498, 0.82924638852608612}",
      "hasCurveFrom": true,
      "hasCurveTo": true,
      "point": "{0.1077966101694864, 0.89479765085845564}"
    }
  ],
  "resizingConstraint": 63,
  "resizingType": 0,
  "rotation": 0,
  "shouldBreakMaskChain": false,
  "style": {
    "_class": "style",
    "do_objectID": "3C73503C-2221-45A5-AE80-B70EAD14CFF5",
    "endMarkerType": 0,
    "fills": [
      {
        "_class": "fill",
        "color": {
          "_class": "color",
          "alpha": 1,
          "blue": 0.1764705882352941,
          "green": 0.1764705882352941,
          "red": 0.1764705882352941
        },
        "fillType": 0,
        "isEnabled": true,
        "noiseIndex": 0,
        "noiseIntensity": 0,
        "patternFillType": 1,
        "patternTileScale": 1
      }
    ],
    "miterLimit": 10,
    "startMarkerType": 0,
    "windingRule": 1
  }
}