{
  "_class": "shapePath",
  "booleanOperation": -1,
  "clippingMaskMode": 0,
  "do_objectID": "ACE99409-8C74-44B2-98D6-1A6591285099",
  "edited": true,
  "exportOptions": {
    "_class": "exportOptions",
    "do_objectID": "CB87F361-35B5-4C88-A458-404392F359D9",
    "exportFormats": [
    ],
    "includedLayerIds": [
    ],
    "layerOptions": 0,
    "shouldTrim": false
  },
  "frame": {
    "_class": "rect",
    "constrainProportions": false,
    "do_objectID": "AA42FA8E-FBC0-4AA6-8BE7-BA76C1493A52",
    "height": 0.1166997860919849,
    "width": 0.1059863482545582,
    "x": 2.686521308390159,
    "y": 22.89819765304844
  },
  "hasClippingMask": false,
  "isClosed": true,
  "isFixedToViewport": false,
  "isFlippedHorizontal": false,
  "isFlippedVertical": false,
  "isLocked": false,
  "isVisible": true,
  "layerListExpandedType": 0,
  "name": "Path",
  "nameIsFixed": false,
  "pointRadiusBehaviour": 0,
  "points": [
    {
      "_class": "curvePoint",
      "cornerRadius": 0,
      "curveFrom": "{0.076915298190289319, 0.085476025017404769}",
      "curveMode": 4,
      "curveTo": "{-0.089862338607471601, 0.35927727588606329}",
      "hasCurveFrom": true,
      "hasCurveTo": true,
      "point": "{0.011241202870962603, 0.18693537178596348}"
    },
    {
      "_class": "curvePoint",
      "cornerRadius": 0,
      "curveFrom": "{0.47528053427199091, 0.19318971507992763}",
      "curveMode": 4,
      "curveTo": "{0.43380215828084201, 0.095205003474673561}",
      "hasCurveFrom": true,
      "hasCurveTo": true,
      "point": "{0.51675891026314591, 0}"
    },
    {
      "_class": "curvePoint",
      "cornerRadius": 0,
      "curveFrom": "{0.92549374034263621, 0.91452397498263471}",
      "curveMode": 3,
      "curveTo": "{1.0905431114741031, 0.64002779708133106}",
      "hasCurveFrom": true,
      "hasCurveTo": true,
      "point": "{0.98857543716251572, 0.81028492008341646}"
    },
    {
      "_class": "curvePoint",
      "cornerRadius": 0,
      "curveFrom": "{0.52540023859463447, 0.80542043085474258}",
      "curveMode": 4,
      "curveTo": "{0.56687861458578948, 0.90410006949272081}",
      "hasCurveFrom": true,
      "hasCurveTo": true,
      "point": "{0.48392186260348563, 1}"
    }
  ],
  "resizingConstraint": 63,
  "resizingType": 0,
  "rotation": 0,
  "shouldBreakMaskChain": false,
  "style": {
    "_class": "style",
    "do_objectID": "BD03A6A1-0ED1-4548-9650-7C6EDC699067",
    "endMarkerType": 0,
    "fills": [
      {
        "_class": "fill",
        "color": {
          "_class": "color",
          "alpha": 1,
          "blue": 0.1764705882352941,
          "green": 0.1764705882352941,
          "red": 0.1764705882352941
        },
        "fillType": 0,
        "isEnabled": true,
        "noiseIndex": 0,
        "noiseIntensity": 0,
        "patternFillType": 1,
        "patternTileScale": 1
      }
    ],
    "miterLimit": 10,
    "startMarkerType": 0,
    "windingRule": 1
  }
}