{
  "_class": "shapePath",
  "booleanOperation": -1,
  "clippingMaskMode": 0,
  "do_objectID": "B431FD68-73BB-4822-9D36-5B60C82CE693",
  "edited": true,
  "exportOptions": {
    "_class": "exportOptions",
    "do_objectID": "D598BD2A-8043-4B94-9974-6A5492EFD9AC",
    "exportFormats": [
    ],
    "includedLayerIds": [
    ],
    "layerOptions": 0,
    "shouldTrim": false
  },
  "frame": {
    "_class": "rect",
    "constrainProportions": false,
    "do_objectID": "58668B3F-5735-4149-B7EA-EA8329A0239C",
    "height": 0.1058906030855624,
    "width": 0.1059863482545609,
    "x": 35.59452966451374,
    "y": 9.902512717757938
  },
  "hasClippingMask": false,
  "isClosed": true,
  "isFixedToViewport": false,
  "isFlippedHorizontal": false,
  "isFlippedVertical": false,
  "isLocked": false,
  "isVisible": true,
  "layerListExpandedType": 0,
  "name": "Path",
  "nameIsFixed": false,
  "pointRadiusBehaviour": 0,
  "points": [
    {
      "_class": "curvePoint",
      "cornerRadius": 0,
      "curveFrom": "{0.3632307032830619, 1.0699999999999932}",
      "curveMode": 4,
      "curveTo": "{0.86307112400130837, 0.60800000000000409}",
      "hasCurveFrom": true,
      "hasCurveTo": true,
      "point": "{0.58985661283460977, 0.7279999999999518}"
    },
    {
      "_class": "curvePoint",
      "cornerRadius": 0,
      "curveFrom": "{0.1318669698384273, 0.040999999999996817}",
      "curveMode": 3,
      "curveTo": "{-0.08291437998051604, 0.48300000000000409}",
      "hasCurveFrom": true,
      "hasCurveTo": true,
      "point": "{0.013421372511798197, 0.28399999999999181}"
    },
    {
      "_class": "curvePoint",
      "cornerRadius": 0,
      "curveFrom": "{1.1212825261732997, 0.47199999999997999}",
      "curveMode": 4,
      "curveTo": "{0.7785799312416436, 0.20699999999999363}",
      "hasCurveFrom": true,
      "hasCurveTo": true,
      "point": "{0.93887630629033658, 0}"
    }
  ],
  "resizingConstraint": 63,
  "resizingType": 0,
  "rotation": 0,
  "shouldBreakMaskChain": false,
  "style": {
    "_class": "style",
    "do_objectID": "B8BB1EE5-FCCE-4049-8855-1E0C0BC48061",
    "endMarkerType": 0,
    "fills": [
      {
        "_class": "fill",
        "color": {
          "_class": "color",
          "alpha": 1,
          "blue": 0.1764705882352941,
          "green": 0.1764705882352941,
          "red": 0.1764705882352941
        },
        "fillType": 0,
        "isEnabled": true,
        "noiseIndex": 0,
        "noiseIntensity": 0,
        "patternFillType": 1,
        "patternTileScale": 1
      }
    ],
    "miterLimit": 10,
    "startMarkerType": 0,
    "windingRule": 1
  }
}