{
  "_class": "shapePath",
  "booleanOperation": -1,
  "clippingMaskMode": 0,
  "do_objectID": "B88CB885-A20D-411C-82D2-1047BEC47930",
  "edited": true,
  "exportOptions": {
    "_class": "exportOptions",
    "do_objectID": "8884B3CA-631E-491E-A845-03713A508BCE",
    "exportFormats": [
    ],
    "includedLayerIds": [
    ],
    "layerOptions": 0,
    "shouldTrim": false
  },
  "frame": {
    "_class": "rect",
    "constrainProportions": false,
    "do_objectID": "A2055490-2E40-4EC7-8B01-F4030D7A0750",
    "height": 0.1446270392479114,
    "width": 0.1610435891202697,
    "x": 3.610087513167442,
    "y": 27.80917577162577
  },
  "hasClippingMask": false,
  "isClosed": true,
  "isFixedToViewport": false,
  "isFlippedHorizontal": false,
  "isFlippedVertical": false,
  "isLocked": false,
  "isVisible": true,
  "layerListExpandedType": 0,
  "name": "Path",
  "nameIsFixed": false,
  "pointRadiusBehaviour": 0,
  "points": [
    {
      "_class": "curvePoint",
      "cornerRadius": 0,
      "curveFrom": "{0.73588709677419328, 1.0523832958187167}",
      "curveMode": 4,
      "curveTo": "{0.90927419354838734, 0.77201443643092504}",
      "hasCurveFrom": true,
      "hasCurveTo": true,
      "point": "{1, 0.98901993359710783}"
    },
    {
      "_class": "curvePoint",
      "cornerRadius": 0,
      "curveFrom": "{0.18296370967741896, 0.75014566539868444}",
      "curveMode": 4,
      "curveTo": "{0.56905241935483708, 0.81406976533911934}",
      "hasCurveFrom": true,
      "hasCurveTo": true,
      "point": "{0.27520161290322526, 0.96771190028362963}"
    },
    {
      "_class": "curvePoint",
      "cornerRadius": 0,
      "curveFrom": "{0.14012096774193469, 0.34192860613008702}",
      "curveMode": 4,
      "curveTo": "{0.091733870967742936, 0.53145795507621474}",
      "hasCurveFrom": true,
      "hasCurveTo": true,
      "point": "{0, 0.31277024475374493}"
    },
    {
      "_class": "curvePoint",
      "cornerRadius": 0,
      "curveFrom": "{0.66330645161290391, 0.047541303772886734}",
      "curveMode": 3,
      "curveTo": "{0.46522177419354888, -0.057877387356916263}",
      "hasCurveFrom": true,
      "hasCurveTo": true,
      "point": "{0.58770161290322365, 0.0071681880210432199}"
    },
    {
      "_class": "curvePoint",
      "cornerRadius": 0,
      "curveFrom": "{0.81703629032258107, 0.55276598838969304}",
      "curveMode": 4,
      "curveTo": "{0.655241935483869, 0.279686719345971}",
      "hasCurveFrom": true,
      "hasCurveTo": true,
      "point": "{0.7247983870967748, 0.33407827806722323}"
    }
  ],
  "resizingConstraint": 63,
  "resizingType": 0,
  "rotation": 0,
  "shouldBreakMaskChain": false,
  "style": {
    "_class": "style",
    "do_objectID": "7BB8885A-D7CF-48A7-834D-C8AB0C3AAC84",
    "endMarkerType": 0,
    "fills": [
      {
        "_class": "fill",
        "color": {
          "_class": "color",
          "alpha": 1,
          "blue": 0.1764705882352941,
          "green": 0.1764705882352941,
          "red": 0.1764705882352941
        },
        "fillType": 0,
        "isEnabled": true,
        "noiseIndex": 0,
        "noiseIntensity": 0,
        "patternFillType": 1,
        "patternTileScale": 1
      }
    ],
    "miterLimit": 10,
    "startMarkerType": 0,
    "windingRule": 1
  }
}