{
  "_class": "shapePath",
  "booleanOperation": -1,
  "clippingMaskMode": 0,
  "do_objectID": "C09CAEC0-655F-4702-8AE5-FF3AE297305B",
  "edited": true,
  "exportOptions": {
    "_class": "exportOptions",
    "do_objectID": "D3B44D95-7AF3-402E-AC10-0E96C36AB485",
    "exportFormats": [
    ],
    "includedLayerIds": [
    ],
    "layerOptions": 0,
    "shouldTrim": false
  },
  "frame": {
    "_class": "rect",
    "constrainProportions": false,
    "do_objectID": "0D502B4B-6EF5-4517-9C1E-184F9A2C39D5",
    "height": 0.1196193081901988,
    "width": 0.1059863482545529,
    "x": 7.100646925313852,
    "y": 10.82686585318288
  },
  "hasClippingMask": false,
  "isClosed": true,
  "isFixedToViewport": false,
  "isFlippedHorizontal": false,
  "isFlippedVertical": false,
  "isLocked": false,
  "isVisible": true,
  "layerListExpandedType": 0,
  "name": "Path",
  "nameIsFixed": false,
  "pointRadiusBehaviour": 0,
  "points": [
    {
      "_class": "curvePoint",
      "cornerRadius": 0,
      "curveFrom": "{0.86778771338187521, 0.98644067796607571}",
      "curveMode": 4,
      "curveTo": "{1.1379666503090669, 0.73830508474575041}",
      "hasCurveFrom": true,
      "hasCurveTo": true,
      "point": "{0.96874425565004463, 0.89220338983051573}"
    },
    {
      "_class": "curvePoint",
      "cornerRadius": 0,
      "curveFrom": "{0.44088576321935791, 0.81152542372880287}",
      "curveMode": 4,
      "curveTo": "{0.45915408991549372, 0.91661016949153318}",
      "hasCurveFrom": true,
      "hasCurveTo": true,
      "point": "{0.33704474831495512, 1}"
    },
    {
      "_class": "curvePoint",
      "cornerRadius": 0,
      "curveFrom": "{0.13320868202113206, 0.014237288135603175}",
      "curveMode": 3,
      "curveTo": "{-0.13600876402731044, 0.26169491525424959}",
      "hasCurveFrom": true,
      "hasCurveTo": true,
      "point": "{0.030329157995478324, 0.10779661016948432}"
    },
    {
      "_class": "curvePoint",
      "cornerRadius": 0,
      "curveFrom": "{0.56011063218366308, 0.18915254237287599}",
      "curveMode": 4,
      "curveTo": "{0.54088081460877824, 0.082033898305109071}",
      "hasCurveFrom": true,
      "hasCurveTo": true,
      "point": "{0.66202866533056781, 0}"
    }
  ],
  "resizingConstraint": 63,
  "resizingType": 0,
  "rotation": 0,
  "shouldBreakMaskChain": false,
  "style": {
    "_class": "style",
    "do_objectID": "B0AF6B43-E30F-4B12-A83A-EA94596068BD",
    "endMarkerType": 0,
    "fills": [
      {
        "_class": "fill",
        "color": {
          "_class": "color",
          "alpha": 1,
          "blue": 0.1764705882352941,
          "green": 0.1764705882352941,
          "red": 0.1764705882352941
        },
        "fillType": 0,
        "isEnabled": true,
        "noiseIndex": 0,
        "noiseIntensity": 0,
        "patternFillType": 1,
        "patternTileScale": 1
      }
    ],
    "miterLimit": 10,
    "startMarkerType": 0,
    "windingRule": 1
  }
}