{
  "_class": "shapePath",
  "booleanOperation": -1,
  "clippingMaskMode": 0,
  "do_objectID": "D895A31C-BF59-4BDF-9A4B-2283B241C669",
  "edited": true,
  "exportOptions": {
    "_class": "exportOptions",
    "do_objectID": "17E1DD91-C69C-4380-B463-2E967B6EA4A9",
    "exportFormats": [
    ],
    "includedLayerIds": [
    ],
    "layerOptions": 0,
    "shouldTrim": false
  },
  "frame": {
    "_class": "rect",
    "constrainProportions": false,
    "do_objectID": "3904A1AF-F6B6-4B2E-AB64-4A81004E1C38",
    "height": 0.1058906030855642,
    "width": 0.1153605655806338,
    "x": 31.66293451936874,
    "y": 15.32690367837982
  },
  "hasClippingMask": false,
  "isClosed": true,
  "isFixedToViewport": false,
  "isFlippedHorizontal": false,
  "isFlippedVertical": false,
  "isLocked": false,
  "isVisible": true,
  "layerListExpandedType": 0,
  "name": "Path",
  "nameIsFixed": false,
  "pointRadiusBehaviour": 0,
  "points": [
    {
      "_class": "curvePoint",
      "cornerRadius": 0,
      "curveFrom": "{0.12936736998449327, 0.044999999999959073}",
      "curveMode": 4,
      "curveTo": "{-0.084536174026602753, 0.54399999999998272}",
      "hasCurveFrom": true,
      "hasCurveTo": true,
      "point": "{0.013972037031137785, 0.31799999999998363}"
    },
    {
      "_class": "curvePoint",
      "cornerRadius": 0,
      "curveFrom": "{1.1200785211938769, 0.52999999999997272}",
      "curveMode": 4,
      "curveTo": "{0.77670704264971968, 0.2319999999999709}",
      "hasCurveFrom": true,
      "hasCurveTo": true,
      "point": "{0.93994922097401079, 0}"
    },
    {
      "_class": "curvePoint",
      "cornerRadius": 0,
      "curveFrom": "{0.36226892612818612, 1.1979999999999791}",
      "curveMode": 4,
      "curveTo": "{0.86325354236473628, 0.67899999999997362}",
      "hasCurveFrom": true,
      "hasCurveTo": true,
      "point": "{0.58883781156101334, 0.81499999999999773}"
    }
  ],
  "resizingConstraint": 63,
  "resizingType": 0,
  "rotation": 0,
  "shouldBreakMaskChain": false,
  "style": {
    "_class": "style",
    "do_objectID": "CD172005-03C6-4F44-9212-9D4DCEA8690A",
    "endMarkerType": 0,
    "fills": [
      {
        "_class": "fill",
        "color": {
          "_class": "color",
          "alpha": 1,
          "blue": 0.1764705882352941,
          "green": 0.1764705882352941,
          "red": 0.1764705882352941
        },
        "fillType": 0,
        "isEnabled": true,
        "noiseIndex": 0,
        "noiseIntensity": 0,
        "patternFillType": 1,
        "patternTileScale": 1
      }
    ],
    "miterLimit": 10,
    "startMarkerType": 0,
    "windingRule": 1
  }
}