{
  "_class": "shapePath",
  "booleanOperation": -1,
  "clippingMaskMode": 0,
  "do_objectID": "DC09FEE1-1C0C-4F77-A39E-834C7F5D5004",
  "edited": true,
  "exportOptions": {
    "_class": "exportOptions",
    "do_objectID": "1480CA5E-3BC5-4B2B-80D5-B895489E5460",
    "exportFormats": [
    ],
    "includedLayerIds": [
    ],
    "layerOptions": 0,
    "shouldTrim": false
  },
  "frame": {
    "_class": "rect",
    "constrainProportions": false,
    "do_objectID": "93B7EABA-CEE2-48C2-91CB-8A5EDD079DDD",
    "height": 0.1058906030855589,
    "width": 0.1876314568867912,
    "x": 33.25935247202183,
    "y": 16.76911928490174
  },
  "hasClippingMask": false,
  "isClosed": true,
  "isFixedToViewport": false,
  "isFlippedHorizontal": false,
  "isFlippedVertical": false,
  "isLocked": false,
  "isVisible": true,
  "layerListExpandedType": 0,
  "name": "Path",
  "nameIsFixed": false,
  "pointRadiusBehaviour": 0,
  "points": [
    {
      "_class": "curvePoint",
      "cornerRadius": 0,
      "curveFrom": "{0.8208996380446012, 0.95417387043622526}",
      "curveMode": 4,
      "curveTo": "{0.94029987934820858, 0.25880545941694671}",
      "hasCurveFrom": true,
      "hasCurveTo": true,
      "point": "{1, 0.81673849077143323}"
    },
    {
      "_class": "curvePoint",
      "cornerRadius": 0,
      "curveFrom": "{-0.46611383252866395, 2.2311396828185357}",
      "curveMode": 4,
      "curveTo": "{0.64612537178860441, 1.0579330312427733}",
      "hasCurveFrom": true,
      "hasCurveTo": true,
      "point": "{0.5851274224269728, 0.50091016796554144}"
    },
    {
      "_class": "curvePoint",
      "cornerRadius": 0,
      "curveFrom": "{0.76509300352225684, 0.3643849563779783}",
      "curveMode": 4,
      "curveTo": "{0.1313199835593033, -1.232960019196446}",
      "hasCurveFrom": true,
      "hasCurveTo": true,
      "point": "{0.5851274224269728, 0.50091016796554144}"
    }
  ],
  "resizingConstraint": 63,
  "resizingType": 0,
  "rotation": 0,
  "shouldBreakMaskChain": false,
  "style": {
    "_class": "style",
    "do_objectID": "814F1FD4-6D6D-438A-A91B-323118293515",
    "endMarkerType": 0,
    "fills": [
      {
        "_class": "fill",
        "color": {
          "_class": "color",
          "alpha": 1,
          "blue": 0.1764705882352941,
          "green": 0.1764705882352941,
          "red": 0.1764705882352941
        },
        "fillType": 0,
        "isEnabled": true,
        "noiseIndex": 0,
        "noiseIntensity": 0,
        "patternFillType": 1,
        "patternTileScale": 1
      }
    ],
    "miterLimit": 10,
    "startMarkerType": 0,
    "windingRule": 1
  }
}