{
  "_class": "shapePath",
  "booleanOperation": -1,
  "clippingMaskMode": 0,
  "do_objectID": "DD4B56CB-7C1A-40DC-B021-BB256A3FFB9B",
  "edited": true,
  "exportOptions": {
    "_class": "exportOptions",
    "do_objectID": "3E37DDFF-3337-4C64-A4A7-80CCE2B41920",
    "exportFormats": [
    ],
    "includedLayerIds": [
    ],
    "layerOptions": 0,
    "shouldTrim": false
  },
  "frame": {
    "_class": "rect",
    "constrainProportions": false,
    "do_objectID": "00619CA9-46D8-4BDB-B934-8F640E1097AD",
    "height": 0.1166186882559455,
    "width": 0.1059863482545609,
    "x": 5.842988440537789,
    "y": 15.94405821080515
  },
  "hasClippingMask": false,
  "isClosed": true,
  "isFixedToViewport": false,
  "isFlippedHorizontal": false,
  "isFlippedVertical": false,
  "isLocked": false,
  "isVisible": true,
  "layerListExpandedType": 0,
  "name": "Path",
  "nameIsFixed": false,
  "pointRadiusBehaviour": 0,
  "points": [
    {
      "_class": "curvePoint",
      "cornerRadius": 0,
      "curveFrom": "{0.926090281790098, 0.9158553546592253}",
      "curveMode": 3,
      "curveTo": "{1.0907746056217043, 0.64186369958273504}",
      "hasCurveFrom": true,
      "hasCurveTo": true,
      "point": "{0.98849697292627636, 0.811543810848396}"
    },
    {
      "_class": "curvePoint",
      "cornerRadius": 0,
      "curveFrom": "{0.52478058740043487, 0.80806675938803763}",
      "curveMode": 4,
      "curveTo": "{0.56465152895967197, 0.90611961057020618}",
      "hasCurveFrom": true,
      "hasCurveTo": true,
      "point": "{0.48404288624209224, 1}"
    },
    {
      "_class": "curvePoint",
      "cornerRadius": 0,
      "curveFrom": "{0.072332076663076353, 0.085535465924925905}",
      "curveMode": 3,
      "curveTo": "{-0.091485487569424456, 0.36161335187762333}",
      "hasCurveFrom": true,
      "hasCurveTo": true,
      "point": "{0.011658904725108984, 0.18915159944369936}"
    },
    {
      "_class": "curvePoint",
      "cornerRadius": 0,
      "curveFrom": "{0.47624204985006841, 0.19332406119611356}",
      "curveMode": 4,
      "curveTo": "{0.43117055069614874, 0.095966620306000922}",
      "hasCurveFrom": true,
      "hasCurveTo": true,
      "point": "{0.51784651060752895, 0}"
    }
  ],
  "resizingConstraint": 63,
  "resizingType": 0,
  "rotation": 0,
  "shouldBreakMaskChain": false,
  "style": {
    "_class": "style",
    "do_objectID": "DD3B5E61-63A2-4B26-BFE3-54EC83F97B2C",
    "endMarkerType": 0,
    "fills": [
      {
        "_class": "fill",
        "color": {
          "_class": "color",
          "alpha": 1,
          "blue": 0.1764705882352941,
          "green": 0.1764705882352941,
          "red": 0.1764705882352941
        },
        "fillType": 0,
        "isEnabled": true,
        "noiseIndex": 0,
        "noiseIntensity": 0,
        "patternFillType": 1,
        "patternTileScale": 1
      }
    ],
    "miterLimit": 10,
    "startMarkerType": 0,
    "windingRule": 1
  }
}