{
  "_class": "shapePath",
  "booleanOperation": -1,
  "clippingMaskMode": 0,
  "do_objectID": "E82F05C2-38BD-4429-832E-F76E8EEF4675",
  "edited": true,
  "exportOptions": {
    "_class": "exportOptions",
    "do_objectID": "D0E65FCC-991A-4663-B0CD-D992F19D1071",
    "exportFormats": [
    ],
    "includedLayerIds": [
    ],
    "layerOptions": 0,
    "shouldTrim": false
  },
  "frame": {
    "_class": "rect",
    "constrainProportions": false,
    "do_objectID": "2F775BBF-9B65-4F15-B736-16AB3C9FD828",
    "height": 1.527526461221611,
    "width": 9.345966636955279,
    "x": 18.55085779110256,
    "y": 7.98993373091801
  },
  "hasClippingMask": false,
  "isClosed": true,
  "isFixedToViewport": false,
  "isFlippedHorizontal": false,
  "isFlippedVertical": false,
  "isLocked": false,
  "isVisible": true,
  "layerListExpandedType": 0,
  "name": "Path",
  "nameIsFixed": false,
  "pointRadiusBehaviour": 0,
  "points": [
    {
      "_class": "curvePoint",
      "cornerRadius": 0,
      "curveFrom": "{0.011203849260459271, 0.59369493417507879}",
      "curveMode": 4,
      "curveTo": "{0.007521343767099016, 0.56560981986417025}",
      "hasCurveFrom": true,
      "hasCurveTo": true,
      "point": "{0.0076255656206846859, 0.59698657328146187}"
    },
    {
      "_class": "curvePoint",
      "cornerRadius": 0,
      "curveFrom": "{0.016067535761123703, 0.62634587047226042}",
      "curveMode": 4,
      "curveTo": "{0.014634485274320619, 0.59220838748187277}",
      "hasCurveFrom": true,
      "hasCurveTo": true,
      "point": "{0.014730021973441022, 0.62331968613252087}"
    },
    {
      "_class": "curvePoint",
      "cornerRadius": 0,
      "curveFrom": "{0.02054039031084175, 0.61524986122655156}",
      "curveMode": 4,
      "curveTo": "{0.019272357758882929, 0.61063094828694786}",
      "hasCurveFrom": true,
      "hasCurveTo": true,
      "point": "{0.020444853611721592, 0.61487822455325003}"
    },
    {
      "_class": "curvePoint",
      "cornerRadius": 0,
      "curveFrom": "{0.024283691885460354, 0.60749858204055329}",
      "curveMode": 4,
      "curveTo": "{0.020601186392100099, 0.61604622552648214}",
      "hasCurveFrom": true,
      "hasCurveTo": true,
      "point": "{0.020679352782289228, 0.61657713505976908}"
    },
    {
      "_class": "curvePoint",
      "cornerRadius": 0,
      "curveFrom": "{0.030623854645254946, 0.56943236850384038}",
      "curveMode": 4,
      "curveTo": "{0.027931456760958557, 0.59889784760129694}",
      "hasCurveFrom": true,
      "hasCurveTo": true,
      "point": "{0.031553166173060462, 0.59003165839539418}"
    },
    {
      "_class": "curvePoint",
      "cornerRadius": 0,
      "curveFrom": "{0.039743266834000819, 0.54947017005222865}",
      "curveMode": 2,
      "curveTo": "{0.03313386428577654, 0.55923890546471999}",
      "hasCurveFrom": true,
      "hasCurveTo": true,
      "point": "{0.036217094121019068, 0.5546730834784469}"
    },
    {
      "_class": "curvePoint",
      "cornerRadius": 0,
      "curveFrom": "{0.087320542995857175, 0.45719809316686133}",
      "curveMode": 4,
      "curveTo": "{0.041150261857407118, 0.55244326343864081}",
      "hasCurveFrom": true,
      "hasCurveTo": true,
      "point": "{0.042183795238798304, 0.56407018221763672}"
    },
    {
      "_class": "curvePoint",
      "cornerRadius": 0,
      "curveFrom": "{0.18637472967456722, 0.28932449874135524}",
      "curveMode": 3,
      "curveTo": "{0.13408141463795945, 0.36667801774134356}",
      "hasCurveFrom": true,
      "hasCurveTo": true,
      "point": "{0.18242298439277754, 0.29516450360751845}"
    },
    {
      "_class": "curvePoint",
      "cornerRadius": 0,
      "curveFrom": "{0.19444323817299089, 0.26240738540367875}",
      "curveMode": 4,
      "curveTo": "{0.19032647495635718, 0.28459940389509658}",
      "hasCurveFrom": true,
      "hasCurveTo": true,
      "point": "{0.19427822023814686, 0.2790248537955769}"
    },
    {
      "_class": "curvePoint",
      "cornerRadius": 0,
      "curveFrom": "{0.20080945639618203, 0.24876301039818979}",
      "curveMode": 2,
      "curveTo": "{0.19730933914659682, 0.24095864025886399}",
      "hasCurveFrom": true,
      "hasCurveTo": true,
      "point": "{0.19890740756824365, 0.24451573413189062}"
    },
    {
      "_class": "curvePoint",
      "cornerRadius": 0,
      "curveFrom": "{0.2888248117492771, 0.14911129100012566}",
      "curveMode": 4,
      "curveTo": "{0.20085288216850933, 0.26012447441054221}",
      "hasCurveFrom": true,
      "hasCurveTo": true,
      "point": "{0.20015806981127171, 0.27106121079626561}"
    },
    {
      "_class": "curvePoint",
      "cornerRadius": 0,
      "curveFrom": "{0.46697470014504211, 0.10217888825750995}",
      "curveMode": 4,
      "curveTo": "{0.37745681306942036, 0.095648700998074224}",
      "hasCurveFrom": true,
      "hasCurveTo": true,
      "point": "{0.4645428568947097, 0.10578907308386711}"
    },
    {
      "_class": "curvePoint",
      "cornerRadius": 0,
      "curveFrom": "{0.47197734911715378, 0.098781067244471846}",
      "curveMode": 4,
      "curveTo": "{0.46939785824090885, 0.098621794384486344}",
      "hasCurveFrom": true,
      "hasCurveTo": true,
      "point": "{0.47182970149124082, 0.095011609558129206}"
    },
    {
      "_class": "curvePoint",
      "cornerRadius": 0,
      "curveFrom": "{0.59599266972963127, 0.12591054439546132}",
      "curveMode": 4,
      "curveTo": "{0.47211631158860151, 0.10244434302415649}",
      "hasCurveFrom": true,
      "hasCurveTo": true,
      "point": "{0.47227264436898025, 0.10616070975716863}"
    },
    {
      "_class": "curvePoint",
      "cornerRadius": 0,
      "curveFrom": "{0.82950173268831562, 0.53041051780720849}",
      "curveMode": 4,
      "curveTo": "{0.71650787309252284, 0.27281321225611216}",
      "hasCurveFrom": true,
      "hasCurveTo": true,
      "point": "{0.82950173268831562, 0.53062288162052451}"
    },
    {
      "_class": "curvePoint",
      "cornerRadius": 0,
      "curveFrom": "{0.83219413057261205, 0.52759669728078484}",
      "curveMode": 4,
      "curveTo": "{0.82947567722491933, 0.53030433590055048}",
      "hasCurveFrom": true,
      "hasCurveTo": true,
      "point": "{0.82947567722491933, 0.53009197208723446}"
    },
    {
      "_class": "curvePoint",
      "cornerRadius": 0,
      "curveFrom": "{0.83666698512233006, 0.54734653191908056}",
      "curveMode": 4,
      "curveTo": "{0.83470414021313344, 0.52727815156081081}",
      "hasCurveFrom": true,
      "hasCurveTo": true,
      "point": "{0.83547711896056043, 0.54453271139265702}"
    },
    {
      "_class": "curvePoint",
      "cornerRadius": 0,
      "curveFrom": "{0.83967204856738353, 0.55339890059855679}",
      "curveMode": 4,
      "curveTo": "{0.83787422159303082, 0.5501072614921737}",
      "hasCurveFrom": true,
      "hasCurveTo": true,
      "point": "{0.83906408775480057, 0.55297417297192786}"
    },
    {
      "_class": "curvePoint",
      "cornerRadius": 0,
      "curveFrom": "{0.89327682192827795, 0.68065791572756995}",
      "curveMode": 4,
      "curveTo": "{0.84018447268084662, 0.5546730834784469}",
      "hasCurveFrom": true,
      "hasCurveTo": true,
      "point": "{0.84063610071305084, 0.55658435779828197}"
    },
    {
      "_class": "curvePoint",
      "cornerRadius": 0,
      "curveFrom": "{0.99642171636022514, 0.97515343384214714}",
      "curveMode": 4,
      "curveTo": "{0.94418051225041022, 0.82931258504807037}",
      "hasCurveFrom": true,
      "hasCurveTo": true,
      "point": "{0.99299108034636385, 1}"
    },
    {
      "_class": "curvePoint",
      "cornerRadius": 0,
      "curveFrom": "{0.98773656189475301, 0.92769012156624442}",
      "curveMode": 4,
      "curveTo": "{0.99860169013105893, 0.95853596545024899}",
      "hasCurveFrom": true,
      "hasCurveTo": true,
      "point": "{0.98995996143791409, 0.95593450873713837}"
    },
    {
      "_class": "curvePoint",
      "cornerRadius": 0,
      "curveFrom": "{0.99619590234412281, 0.90979847029445626}",
      "curveMode": 4,
      "curveTo": "{0.99088927296571938, 0.91972647856693013}",
      "hasCurveFrom": true,
      "hasCurveTo": true,
      "point": "{0.99429385351618449, 0.9126122908208798}"
    },
    {
      "_class": "curvePoint",
      "cornerRadius": 0,
      "curveFrom": "{0.92310164236270908, 0.63632696969806479}",
      "curveMode": 4,
      "curveTo": "{0.99808926601759584, 0.90698464976803261}",
      "hasCurveFrom": true,
      "hasCurveTo": true,
      "point": "{1, 0.90417082924160908}"
    },
    {
      "_class": "curvePoint",
      "cornerRadius": 0,
      "curveFrom": "{0.75460964573254929, 0.27897176284224939}",
      "curveMode": 4,
      "curveTo": "{0.84109641389972079, 0.42274206445650259}",
      "hasCurveFrom": true,
      "hasCurveTo": true,
      "point": "{0.75552158695142402, 0.27090193793628009}"
    },
    {
      "_class": "curvePoint",
      "cornerRadius": 0,
      "curveFrom": "{0.75110952848296386, 0.27971503618885241}",
      "curveMode": 2,
      "curveTo": "{0.75338503895291753, 0.2848117677084126}",
      "hasCurveFrom": true,
      "hasCurveTo": true,
      "point": "{0.75255126412423212, 0.28295358434190504}"
    },
    {
      "_class": "curvePoint",
      "cornerRadius": 0,
      "curveFrom": "{0.7397754019055226, 0.24350700601864408}",
      "curveMode": 4,
      "curveTo": "{0.75084028869453412, 0.27185757509619612}",
      "hasCurveFrom": true,
      "hasCurveTo": true,
      "point": "{0.7511790097186879, 0.26346920447025279}"
    },
    {
      "_class": "curvePoint",
      "cornerRadius": 0,
      "curveFrom": "{0.7154482842477351, 0.21653680172764012}",
      "curveMode": 4,
      "curveTo": "{0.72828494254770304, 0.22513753616689641}",
      "hasCurveFrom": true,
      "hasCurveTo": true,
      "point": "{0.71674237226309045, 0.20740515775509377}"
    },
    {
      "_class": "curvePoint",
      "cornerRadius": 0,
      "curveFrom": "{0.71142705773022186, 0.21478480026779057}",
      "curveMode": 2,
      "curveTo": "{0.71364177211891722, 0.22306698898707586}",
      "hasCurveFrom": true,
      "hasCurveTo": true,
      "point": "{0.71271246059111149, 0.21956298606737673}"
    },
    {
      "_class": "curvePoint",
      "cornerRadius": 0,
      "curveFrom": "{0.62025899130616036, 0.061139581334387981}",
      "curveMode": 4,
      "curveTo": "{0.71137494680342872, 0.20713970298845027}",
      "hasCurveFrom": true,
      "hasCurveTo": true,
      "point": "{0.7118873709168918, 0.19949460570910998}"
    },
    {
      "_class": "curvePoint",
      "cornerRadius": 0,
      "curveFrom": "{0.42717932238424872, 0.019144637251346963}",
      "curveMode": 4,
      "curveTo": "{0.52506969836458517, -0.0076132032263440145}",
      "hasCurveFrom": true,
      "hasCurveTo": true,
      "point": "{0.42826496669243275, 0.00066898549294128792}"
    },
    {
      "_class": "curvePoint",
      "cornerRadius": 0,
      "curveFrom": "{0.41751274546417821, 0.045796295822379929}",
      "curveMode": 4,
      "curveTo": "{0.42552914303580902, 0.035496650876601553}",
      "hasCurveFrom": true,
      "hasCurveTo": true,
      "point": "{0.42207245155855089, 0.045053022475776902}"
    },
    {
      "_class": "curvePoint",
      "cornerRadius": 0,
      "curveFrom": "{0.41480297727095078, 0.088799968018667491}",
      "curveMode": 4,
      "curveTo": "{0.41772987432581482, 0.064378129487440594}",
      "hasCurveFrom": true,
      "hasCurveTo": true,
      "point": "{0.41818150235801954, 0.083809418405765307}"
    },
    {
      "_class": "curvePoint",
      "cornerRadius": 0,
      "curveFrom": "{0.4067518390814579, 0.067032677153878686}",
      "curveMode": 4,
      "curveTo": "{0.4114331373383473, 0.093843608584897167}",
      "hasCurveFrom": true,
      "hasCurveTo": true,
      "point": "{0.40801987163341696, 0.098887249151129855}"
    },
    {
      "_class": "curvePoint",
      "cornerRadius": 0,
      "curveFrom": "{0.35081075916935189, 0.015215906705018815}",
      "curveMode": 4,
      "curveTo": "{0.4055011768384299, 0.035337378016616051}",
      "hasCurveFrom": true,
      "hasCurveTo": true,
      "point": "{0.40424182944093656, 0.003588987926022896}"
    },
    {
      "_class": "curvePoint",
      "cornerRadius": 0,
      "curveFrom": "{0.24203788464377851, 0.11927417522936758}",
      "curveMode": 4,
      "curveTo": "{0.29693674602002779, 0.051052300201925617}",
      "hasCurveFrom": true,
      "hasCurveTo": true,
      "point": "{0.24295851101711852, 0.11099198651008529}"
    },
    {
      "_class": "curvePoint",
      "cornerRadius": 0,
      "curveFrom": "{0.23924126490589645, 0.12192872289580568}",
      "curveMode": 2,
      "curveTo": "{0.24078722240075048, 0.12537963486217429}",
      "hasCurveFrom": true,
      "hasCurveTo": true,
      "point": "{0.2399360772631341, 0.12346836054233923}"
    },
    {
      "_class": "curvePoint",
      "cornerRadius": 0,
      "curveFrom": "{0.2382858979146944, 0.11640726374961649}",
      "curveMode": 4,
      "curveTo": "{0.23889385872727739, 0.11911490236938208}",
      "hasCurveFrom": true,
      "hasCurveTo": true,
      "point": "{0.23868541502010604, 0.11592944516965696}"
    },
    {
      "_class": "curvePoint",
      "cornerRadius": 0,
      "curveFrom": "{0.23740001215921619, 0.13037018447507648}",
      "curveMode": 4,
      "curveTo": "{0.23787769565481723, 0.1169381732829035}",
      "hasCurveFrom": true,
      "hasCurveTo": true,
      "point": "{0.23747817854940559, 0.11741599186286303}"
    },
    {
      "_class": "curvePoint",
      "cornerRadius": 0,
      "curveFrom": "{0.23105116424495609, 0.16955130803169391}",
      "curveMode": 4,
      "curveTo": "{0.23532426024196856, 0.13886473700767779}",
      "hasCurveFrom": true,
      "hasCurveTo": true,
      "point": "{0.23307480523541113, 0.14688147096031959}"
    },
    {
      "_class": "curvePoint",
      "cornerRadius": 0,
      "curveFrom": "{0.20928616715448284, 0.15123492913327674}",
      "curveMode": 4,
      "curveTo": "{0.22518868498076253, 0.14762474430692263}",
      "hasCurveFrom": true,
      "hasCurveTo": true,
      "point": "{0.22471968663962702, 0.13275927737487109}"
    },
    {
      "_class": "curvePoint",
      "cornerRadius": 0,
      "curveFrom": "{0.11636369952839629, 0.28550195010168511}",
      "curveMode": 3,
      "curveTo": "{0.1938439625148734, 0.17087858186491447}",
      "hasCurveFrom": true,
      "hasCurveTo": true,
      "point": "{0.17841044302972925, 0.19370769179627728}"
    },
    {
      "_class": "curvePoint",
      "cornerRadius": 0,
      "curveFrom": "{0.00027792494289520211, 0.55966363309134903}",
      "curveMode": 4,
      "curveTo": "{0.056800910204188142, 0.40734568799116705}",
      "hasCurveFrom": true,
      "hasCurveTo": true,
      "point": "{0, 0.55573490254502089}"
    },
    {
      "_class": "curvePoint",
      "cornerRadius": 0,
      "curveFrom": "{0.0041167632166339624, 0.56714945751070378}",
      "curveMode": 4,
      "curveTo": "{0.00052110926792859648, 0.56396400031097871}",
      "hasCurveFrom": true,
      "hasCurveTo": true,
      "point": "{0.00054716473132489056, 0.57044109661708697}"
    }
  ],
  "resizingConstraint": 63,
  "resizingType": 0,
  "rotation": 0,
  "shouldBreakMaskChain": false,
  "style": {
    "_class": "style",
    "do_objectID": "1E5228A6-A338-4AB4-A3BA-3625F2CC3BD6",
    "endMarkerType": 0,
    "fills": [
      {
        "_class": "fill",
        "color": {
          "_class": "color",
          "alpha": 1,
          "blue": 0.1764705882352941,
          "green": 0.1764705882352941,
          "red": 0.1764705882352941
        },
        "fillType": 0,
        "isEnabled": true,
        "noiseIndex": 0,
        "noiseIntensity": 0,
        "patternFillType": 1,
        "patternTileScale": 1
      }
    ],
    "miterLimit": 10,
    "startMarkerType": 0,
    "windingRule": 1
  }
}