{
  "_class": "shapePath",
  "booleanOperation": -1,
  "clippingMaskMode": 0,
  "do_objectID": "FA04FA4E-4FEC-4294-AD0F-00EB80BB985D",
  "edited": true,
  "exportOptions": {
    "_class": "exportOptions",
    "do_objectID": "D393B1C8-A5D7-46DC-BC0D-5CA96B8A4BFD",
    "exportFormats": [
    ],
    "includedLayerIds": [
    ],
    "layerOptions": 0,
    "shouldTrim": false
  },
  "frame": {
    "_class": "rect",
    "constrainProportions": false,
    "do_objectID": "494083A0-41FF-4DB1-A1CC-BE20A00BF22E",
    "height": 0.1106017881087791,
    "width": 0.120525810673449,
    "x": 29.03016077671332,
    "y": 11.91041404079585
  },
  "hasClippingMask": false,
  "isClosed": true,
  "isFixedToViewport": false,
  "isFlippedHorizontal": false,
  "isFlippedVertical": false,
  "isLocked": false,
  "isVisible": true,
  "layerListExpandedType": 0,
  "name": "Path",
  "nameIsFixed": false,
  "pointRadiusBehaviour": 0,
  "points": [
    {
      "_class": "curvePoint",
      "cornerRadius": 0,
      "curveFrom": "{0.23281871207110677, 1.0639336138851323}",
      "curveMode": 3,
      "curveTo": "{0.8766611573297034, 0.89455479596131693}",
      "hasCurveFrom": true,
      "hasCurveTo": true,
      "point": "{0.60794448823117697, 0.96567923465658567}"
    },
    {
      "_class": "curvePoint",
      "cornerRadius": 0,
      "curveFrom": "{-0.11267414819844908, 0.27569885514875192}",
      "curveMode": 4,
      "curveTo": "{0.1627772745115631, 0.95394736848007144}",
      "hasCurveFrom": true,
      "hasCurveTo": true,
      "point": "{0.0570416428111526, 0.60052489991173541}"
    },
    {
      "_class": "curvePoint",
      "cornerRadius": 0,
      "curveFrom": "{0.38839152049656539, 0}",
      "curveMode": 4,
      "curveTo": "{0.12506265428721991, 0.010998624540539426}",
      "hasCurveFrom": true,
      "hasCurveTo": true,
      "point": "{0.39310584802461307, 0}"
    },
    {
      "_class": "curvePoint",
      "cornerRadius": 0,
      "curveFrom": "{1.1117040583708011, 0.73324163603384995}",
      "curveMode": 4,
      "curveTo": "{0.67865940115185386, 0.73984081075816521}",
      "hasCurveFrom": true,
      "hasCurveTo": true,
      "point": "{0.94333521808350418, 0.36662081801692498}"
    }
  ],
  "resizingConstraint": 63,
  "resizingType": 0,
  "rotation": 0,
  "shouldBreakMaskChain": false,
  "style": {
    "_class": "style",
    "do_objectID": "E67A5830-6887-4B05-8804-02A90F7F6A69",
    "endMarkerType": 0,
    "fills": [
      {
        "_class": "fill",
        "color": {
          "_class": "color",
          "alpha": 1,
          "blue": 0.1764705882352941,
          "green": 0.1764705882352941,
          "red": 0.1764705882352941
        },
        "fillType": 0,
        "isEnabled": true,
        "noiseIndex": 0,
        "noiseIntensity": 0,
        "patternFillType": 1,
        "patternTileScale": 1
      }
    ],
    "miterLimit": 10,
    "startMarkerType": 0,
    "windingRule": 1
  }
}