{
  "_class": "shapePath",
  "booleanOperation": -1,
  "clippingMaskMode": 0,
  "do_objectID": "FC97F20C-6875-4E9D-8E9C-203B73C4B3EE",
  "edited": true,
  "exportOptions": {
    "_class": "exportOptions",
    "do_objectID": "E5598C3A-A696-4502-9D05-76EC8591A84C",
    "exportFormats": [
    ],
    "includedLayerIds": [
    ],
    "layerOptions": 0,
    "shouldTrim": false
  },
  "frame": {
    "_class": "rect",
    "constrainProportions": false,
    "do_objectID": "92029F92-120C-460E-83CF-B0ED75740C9D",
    "height": 0.1198626016983688,
    "width": 0.1059863482545591,
    "x": 14.42009082843232,
    "y": 19.56548208011566
  },
  "hasClippingMask": false,
  "isClosed": true,
  "isFixedToViewport": false,
  "isFlippedHorizontal": false,
  "isFlippedVertical": false,
  "isLocked": false,
  "isVisible": true,
  "layerListExpandedType": 0,
  "name": "Path",
  "nameIsFixed": false,
  "pointRadiusBehaviour": 0,
  "points": [
    {
      "_class": "curvePoint",
      "cornerRadius": 0,
      "curveFrom": "{0.55957111127522896, 0.19012178619757081}",
      "curveMode": 4,
      "curveTo": "{0.53940072636828185, 0.085250338294997605}",
      "hasCurveFrom": true,
      "hasCurveTo": true,
      "point": "{0.66330451936816981, 0}"
    },
    {
      "_class": "curvePoint",
      "cornerRadius": 0,
      "curveFrom": "{0.86981084103466777, 0.98579161028417672}",
      "curveMode": 3,
      "curveTo": "{1.1358678229026506, 0.73680649526387898}",
      "hasCurveFrom": true,
      "hasCurveTo": true,
      "point": "{0.96970227105007412, 0.8917456021650888}"
    },
    {
      "_class": "curvePoint",
      "cornerRadius": 0,
      "curveFrom": "{0.4395092963528483, 0.81258457374831494}",
      "curveMode": 4,
      "curveTo": "{0.46256116481794624, 0.91745602165088813}",
      "hasCurveFrom": true,
      "hasCurveTo": true,
      "point": "{0.33673638277929108, 1}"
    },
    {
      "_class": "curvePoint",
      "cornerRadius": 0,
      "curveFrom": "{0.13311154467094397, 0.01353179972935188}",
      "curveMode": 3,
      "curveTo": "{-0.13582692075518979, 0.2618403247631973}",
      "hasCurveFrom": true,
      "hasCurveTo": true,
      "point": "{0.030338631097386784, 0.10757780784843975}"
    }
  ],
  "resizingConstraint": 63,
  "resizingType": 0,
  "rotation": 0,
  "shouldBreakMaskChain": false,
  "style": {
    "_class": "style",
    "do_objectID": "2EB46799-F3D1-4DF6-94A0-3EE886FB91C2",
    "endMarkerType": 0,
    "fills": [
      {
        "_class": "fill",
        "color": {
          "_class": "color",
          "alpha": 1,
          "blue": 0.1764705882352941,
          "green": 0.1764705882352941,
          "red": 0.1764705882352941
        },
        "fillType": 0,
        "isEnabled": true,
        "noiseIndex": 0,
        "noiseIntensity": 0,
        "patternFillType": 1,
        "patternTileScale": 1
      }
    ],
    "miterLimit": 10,
    "startMarkerType": 0,
    "windingRule": 1
  }
}