{
  "_class": "shapePath",
  "booleanOperation": -1,
  "clippingMaskMode": 0,
  "do_objectID": "0E2639B1-091E-4AB4-A92C-115246065A16",
  "edited": true,
  "exportOptions": {
    "_class": "exportOptions",
    "exportFormats": [
    ],
    "includedLayerIds": [
    ],
    "layerOptions": 0,
    "shouldTrim": false
  },
  "frame": {
    "_class": "rect",
    "constrainProportions": false,
    "height": 41.74320205479452,
    "width": 30.22899212598425,
    "x": 7.197035433070863,
    "y": 1.55527397260274
  },
  "hasClippingMask": false,
  "isClosed": true,
  "isFixedToViewport": false,
  "isFlippedHorizontal": false,
  "isFlippedVertical": false,
  "isLocked": false,
  "isVisible": true,
  "layerListExpandedType": 0,
  "maintainScrollPosition": false,
  "name": "Path",
  "nameIsFixed": false,
  "pointRadiusBehaviour": 1,
  "points": [
    {
      "_class": "curvePoint",
      "cornerRadius": 0,
      "curveFrom": "{0.70240659095064917, 0.91975397519815993}",
      "curveMode": 4,
      "curveTo": "{0.88597899185273976, 0.84698394414971179}",
      "hasCurveFrom": false,
      "hasCurveTo": true,
      "point": "{0.70240659095064917, 0.91975397519815993}"
    },
    {
      "_class": "curvePoint",
      "cornerRadius": 0,
      "curveFrom": "{0.50000507933927951, 1}",
      "curveMode": 1,
      "curveTo": "{0.50000507933927951, 1}",
      "hasCurveFrom": false,
      "hasCurveTo": false,
      "point": "{0.50000507933927951, 1}"
    },
    {
      "_class": "curvePoint",
      "cornerRadius": 0,
      "curveFrom": "{0.21476970275706533, 0.88690759671720809}",
      "curveMode": 4,
      "curveTo": "{0.29760356772791002, 0.91975397519815993}",
      "hasCurveFrom": true,
      "hasCurveTo": false,
      "point": "{0.29760356772791002, 0.91975397519815993}"
    },
    {
      "_class": "curvePoint",
      "cornerRadius": 0,
      "curveFrom": "{0.10774802413702025, 0.77357153141578716}",
      "curveMode": 4,
      "curveTo": "{0.1447713281456349, 0.8396113221617989}",
      "hasCurveFrom": true,
      "hasCurveTo": true,
      "point": "{0.093297303886710425, 0.78239874181794022}"
    },
    {
      "_class": "curvePoint",
      "cornerRadius": 0,
      "curveFrom": "{0.16662772506552354, 0.80646959577947852}",
      "curveMode": 4,
      "curveTo": "{0.11725146792905183, 0.76076819989145961}",
      "hasCurveFrom": true,
      "hasCurveTo": true,
      "point": "{0.11858225482029303, 0.7462296994465919}"
    },
    {
      "_class": "curvePoint",
      "cornerRadius": 0,
      "curveFrom": "{0.32041488043235333, 0.88936267614733433}",
      "curveMode": 4,
      "curveTo": "{0.23581848473150613, 0.85582592194693341}",
      "hasCurveFrom": false,
      "hasCurveTo": true,
      "point": "{0.32041488043235333, 0.88936267614733433}"
    },
    {
      "_class": "curvePoint",
      "cornerRadius": 0,
      "curveFrom": "{0.50001015867855902, 0.96057474701606338}",
      "curveMode": 1,
      "curveTo": "{0.50001015867855902, 0.96057474701606338}",
      "hasCurveFrom": false,
      "hasCurveTo": false,
      "point": "{0.50001015867855902, 0.96057474701606338}"
    },
    {
      "_class": "curvePoint",
      "cornerRadius": 0,
      "curveFrom": "{0.84786870923830226, 0.82266573632077744}",
      "curveMode": 4,
      "curveTo": "{0.67960543692476483, 0.88936267614733433}",
      "hasCurveFrom": true,
      "hasCurveTo": false,
      "point": "{0.67960543692476483, 0.88936267614733433}"
    },
    {
      "_class": "curvePoint",
      "cornerRadius": 0,
      "curveFrom": "{0.95239135293281052, 0.55538326927975734}",
      "curveMode": 4,
      "curveTo": "{0.95239135293281052, 0.6946914906577768}",
      "hasCurveFrom": false,
      "hasCurveTo": true,
      "point": "{0.95239135293281052, 0.55538326927975734}"
    },
    {
      "_class": "curvePoint",
      "cornerRadius": 0,
      "curveFrom": "{0.95238119425425183, 0.15443741762562446}",
      "curveMode": 1,
      "curveTo": "{0.95238119425425183, 0.15443741762562446}",
      "hasCurveFrom": false,
      "hasCurveTo": false,
      "point": "{0.95238119425425183, 0.15443741762562446}"
    },
    {
      "_class": "curvePoint",
      "cornerRadius": 0,
      "curveFrom": "{0.90477254718706213, 0.15443741762562446}",
      "curveMode": 1,
      "curveTo": "{0.90477254718706213, 0.15443741762562446}",
      "hasCurveFrom": false,
      "hasCurveTo": false,
      "point": "{0.90477254718706213, 0.15443741762562446}"
    },
    {
      "_class": "curvePoint",
      "cornerRadius": 0,
      "curveFrom": "{0.9047725471870619, 0.68200999014276376}",
      "curveMode": 4,
      "curveTo": "{0.9047725471870619, 0.55538696112852437}",
      "hasCurveFrom": true,
      "hasCurveTo": false,
      "point": "{0.9047725471870619, 0.55538696112852437}"
    },
    {
      "_class": "curvePoint",
      "cornerRadius": 0,
      "curveFrom": "{0.65681952091671925, 0.85897876079404278}",
      "curveMode": 4,
      "curveTo": "{0.80977366464170342, 0.79835860403814407}",
      "hasCurveFrom": false,
      "hasCurveTo": true,
      "point": "{0.65681952091671925, 0.85897876079404278}"
    },
    {
      "_class": "curvePoint",
      "cornerRadius": 0,
      "curveFrom": "{0.50001015867855925, 0.92114211033459237}",
      "curveMode": 1,
      "curveTo": "{0.50001015867855925, 0.92114211033459237}",
      "hasCurveFrom": false,
      "hasCurveTo": false,
      "point": "{0.50001015867855925, 0.92114211033459237}"
    },
    {
      "_class": "curvePoint",
      "cornerRadius": 0,
      "curveFrom": "{0.27610780389686918, 0.83237899042703622}",
      "curveMode": 4,
      "curveTo": "{0.34320079644039908, 0.85897876079404289}",
      "hasCurveFrom": true,
      "hasCurveTo": false,
      "point": "{0.34320079644039908, 0.85897876079404289}"
    },
    {
      "_class": "curvePoint",
      "cornerRadius": 0,
      "curveFrom": "{0.18403462077652957, 0.75233970915615411}",
      "curveMode": 4,
      "curveTo": "{0.21974745525102102, 0.79479227812911879}",
      "hasCurveFrom": true,
      "hasCurveTo": true,
      "point": "{0.17739084499888261, 0.74931239316712639}"
    },
    {
      "_class": "curvePoint",
      "cornerRadius": 0,
      "curveFrom": "{0.2138198663117902, 0.78215877164807823}",
      "curveMode": 3,
      "curveTo": "{0.18998760641215806, 0.75618292372271267}",
      "hasCurveFrom": true,
      "hasCurveTo": true,
      "point": "{0.19448790101383626, 0.76108200703666373}"
    },
    {
      "_class": "curvePoint",
      "cornerRadius": 0,
      "curveFrom": "{0.28103476299802926, 0.79474059224637916}",
      "curveMode": 4,
      "curveTo": "{0.24618033686178112, 0.79474059224637916}",
      "hasCurveFrom": false,
      "hasCurveTo": true,
      "point": "{0.28103476299802926, 0.79474059224637916}"
    },
    {
      "_class": "curvePoint",
      "cornerRadius": 0,
      "curveFrom": "{0.7035799183242244, 0.79474059224637916}",
      "curveMode": 4,
      "curveTo": "{0.63184440967918898, 0.79474059224637916}",
      "hasCurveFrom": true,
      "hasCurveTo": false,
      "point": "{0.63184440967918898, 0.79474059224637916}"
    },
    {
      "_class": "curvePoint",
      "cornerRadius": 0,
      "curveFrom": "{0.76191612994981617, 0.70019972901830041}",
      "curveMode": 4,
      "curveTo": "{0.76191612994981617, 0.75232494176108566}",
      "hasCurveFrom": false,
      "hasCurveTo": true,
      "point": "{0.76191612994981617, 0.70019972901830041}"
    },
    {
      "_class": "curvePoint",
      "cornerRadius": 0,
      "curveFrom": "{0.76191612994981617, 0.45643433862375266}",
      "curveMode": 4,
      "curveTo": "{0.76191612994981617, 0.50855955136653785}",
      "hasCurveFrom": true,
      "hasCurveTo": false,
      "point": "{0.76191612994981617, 0.50855955136653785}"
    },
    {
      "_class": "curvePoint",
      "cornerRadius": 0,
      "curveFrom": "{0.63184440967918898, 0.41401868813845916}",
      "curveMode": 4,
      "curveTo": "{0.70358499766350391, 0.41401868813845916}",
      "hasCurveFrom": false,
      "hasCurveTo": true,
      "point": "{0.63184440967918898, 0.41401868813845916}"
    },
    {
      "_class": "curvePoint",
      "cornerRadius": 0,
      "curveFrom": "{0.44146569414250603, 0.41401868813845916}",
      "curveMode": 4,
      "curveTo": "{0.45729799467685245, 0.41401868813845916}",
      "hasCurveFrom": true,
      "hasCurveTo": false,
      "point": "{0.45729799467685245, 0.41401868813845916}"
    },
    {
      "_class": "curvePoint",
      "cornerRadius": 0,
      "curveFrom": "{0.42858448972957602, 0.39314866705800267}",
      "curveMode": 4,
      "curveTo": "{0.42858448972957602, 0.40465615966507551}",
      "hasCurveFrom": false,
      "hasCurveTo": true,
      "point": "{0.42858448972957602, 0.39314866705800267}"
    },
    {
      "_class": "curvePoint",
      "cornerRadius": 0,
      "curveFrom": "{0.42858448972957602, 0.24129185172058612}",
      "curveMode": 4,
      "curveTo": "{0.42858448972957602, 0.28422805288204173}",
      "hasCurveFrom": true,
      "hasCurveTo": false,
      "point": "{0.42858448972957602, 0.28422805288204173}"
    },
    {
      "_class": "curvePoint",
      "cornerRadius": 0,
      "curveFrom": "{0.26236819114569593, 0.20635219498868443}",
      "curveMode": 2,
      "curveTo": "{0.38051362278794781, 0.20635219498868443}",
      "hasCurveFrom": true,
      "hasCurveTo": true,
      "point": "{0.32144090696682187, 0.20635219498868443}"
    },
    {
      "_class": "curvePoint",
      "cornerRadius": 0,
      "curveFrom": "{0.21429732420406769, 0.28422805288204167}",
      "curveMode": 4,
      "curveTo": "{0.21429732420406769, 0.24129185172058606}",
      "hasCurveFrom": false,
      "hasCurveTo": true,
      "point": "{0.21429732420406769, 0.28422805288204167}"
    },
    {
      "_class": "curvePoint",
      "cornerRadius": 0,
      "curveFrom": "{0.21429732420406769, 0.41284468023051896}",
      "curveMode": 4,
      "curveTo": "{0.21429732420406769, 0.37338620060767824}",
      "hasCurveFrom": true,
      "hasCurveTo": false,
      "point": "{0.21429732420406769, 0.37338620060767824}"
    },
    {
      "_class": "curvePoint",
      "cornerRadius": 0,
      "curveFrom": "{0.11872447632012043, 0.43298740710385536}",
      "curveMode": 4,
      "curveTo": "{0.17217944289806797, 0.44492684601667976}",
      "hasCurveFrom": true,
      "hasCurveTo": true,
      "point": "{0.1189632052662591, 0.44802430713228264}"
    },
    {
      "_class": "curvePoint",
      "cornerRadius": 0,
      "curveFrom": "{0.095247770170056506, 0.41021239205957166}",
      "curveMode": 4,
      "curveTo": "{0.10955626892053894, 0.4195896879280237}",
      "hasCurveFrom": false,
      "hasCurveTo": true,
      "point": "{0.095247770170056506, 0.41021239205957166}"
    },
    {
      "_class": "curvePoint",
      "cornerRadius": 0,
      "curveFrom": "{0.23353278205571038, 0.12896366113258537}",
      "curveMode": 4,
      "curveTo": "{0.095247770170056506, 0.13514012411995555}",
      "hasCurveFrom": true,
      "hasCurveTo": false,
      "point": "{0.095247770170056506, 0.13514012411995555}"
    },
    {
      "_class": "curvePoint",
      "cornerRadius": 0,
      "curveFrom": "{0.63045775005587279, 0.10841852274363432}",
      "curveMode": 4,
      "curveTo": "{0.36955748796196608, 0.10842221459240142}",
      "hasCurveFrom": true,
      "hasCurveTo": true,
      "point": "{0.50000507933927962, 0.073980957444059262}"
    },
    {
      "_class": "curvePoint",
      "cornerRadius": 0,
      "curveFrom": "{0.90476238850850277, 0.13514012411995555}",
      "curveMode": 4,
      "curveTo": "{0.76645705926573082, 0.12895996928381823}",
      "hasCurveFrom": false,
      "hasCurveTo": true,
      "point": "{0.90476238850850277, 0.13514012411995555}"
    },
    {
      "_class": "curvePoint",
      "cornerRadius": 0,
      "curveFrom": "{0.90476238850850277, 0.15443741762562441}",
      "curveMode": 1,
      "curveTo": "{0.90476238850850277, 0.15443741762562441}",
      "hasCurveFrom": false,
      "hasCurveTo": false,
      "point": "{0.90476238850850277, 0.15443741762562441}"
    },
    {
      "_class": "curvePoint",
      "cornerRadius": 0,
      "curveFrom": "{0.95238119425425138, 0.15443741762562441}",
      "curveMode": 1,
      "curveTo": "{0.95238119425425138, 0.15443741762562441}",
      "hasCurveFrom": false,
      "hasCurveTo": false,
      "point": "{0.95238119425425138, 0.15443741762562441}"
    },
    {
      "_class": "curvePoint",
      "cornerRadius": 0,
      "curveFrom": "{0.95238119425425138, 0.10220883311736016}",
      "curveMode": 1,
      "curveTo": "{0.95238119425425138, 0.10220883311736016}",
      "hasCurveFrom": false,
      "hasCurveTo": false,
      "point": "{0.95238119425425138, 0.10220883311736016}"
    },
    {
      "_class": "curvePoint",
      "cornerRadius": 0,
      "curveFrom": "{0.78552489892114818, 0.096656292571631067}",
      "curveMode": 4,
      "curveTo": "{0.92966638899611931, 0.10144831227133609}",
      "hasCurveFrom": true,
      "hasCurveTo": false,
      "point": "{0.92966638899611931, 0.10144831227133609}"
    },
    {
      "_class": "curvePoint",
      "cornerRadius": 0,
      "curveFrom": "{0.50826408500782216, 0.039321881218457748}",
      "curveMode": 4,
      "curveTo": "{0.64374022227188687, 0.07574935300350355}",
      "hasCurveFrom": false,
      "hasCurveTo": true,
      "point": "{0.50826408500782216, 0.039321881218457748}"
    },
    {
      "_class": "curvePoint",
      "cornerRadius": 0,
      "curveFrom": "{0.49999999999999994, 0.037088312714357953}",
      "curveMode": 1,
      "curveTo": "{0.49999999999999994, 0.037088312714357953}",
      "hasCurveFrom": false,
      "hasCurveTo": false,
      "point": "{0.49999999999999994, 0.037088312714357953}"
    },
    {
      "_class": "curvePoint",
      "cornerRadius": 0,
      "curveFrom": "{0.35623438103171534, 0.075730893759668017}",
      "curveMode": 4,
      "curveTo": "{0.49173591499217767, 0.039303421974622221}",
      "hasCurveFrom": true,
      "hasCurveTo": false,
      "point": "{0.49173591499217767, 0.039303421974622221}"
    },
    {
      "_class": "curvePoint",
      "cornerRadius": 0,
      "curveFrom": "{0.070333611003880581, 0.10142985302750057}",
      "curveMode": 4,
      "curveTo": "{0.21444970438245381, 0.096637833327795547}",
      "hasCurveFrom": false,
      "hasCurveTo": true,
      "point": "{0.070333611003880581, 0.10142985302750057}"
    },
    {
      "_class": "curvePoint",
      "cornerRadius": 0,
      "curveFrom": "{0.047618805745748595, 0.10220883311736016}",
      "curveMode": 1,
      "curveTo": "{0.047618805745748595, 0.10220883311736016}",
      "hasCurveFrom": false,
      "hasCurveTo": false,
      "point": "{0.047618805745748595, 0.10220883311736016}"
    },
    {
      "_class": "curvePoint",
      "cornerRadius": 0,
      "curveFrom": "{0.047618805745748595, 0.39671499296702811}",
      "curveMode": 1,
      "curveTo": "{0.047618805745748595, 0.39671499296702811}",
      "hasCurveFrom": false,
      "hasCurveTo": false,
      "point": "{0.047618805745748595, 0.39671499296702811}"
    },
    {
      "_class": "curvePoint",
      "cornerRadius": 0,
      "curveFrom": "{0, 0.39671499296702811}",
      "curveMode": 1,
      "curveTo": "{0, 0.39671499296702811}",
      "hasCurveFrom": false,
      "hasCurveTo": false,
      "point": "{0, 0.39671499296702811}"
    },
    {
      "_class": "curvePoint",
      "cornerRadius": 0,
      "curveFrom": "{0, 0.067907866222168059}",
      "curveMode": 1,
      "curveTo": "{0, 0.067907866222168059}",
      "hasCurveFrom": false,
      "hasCurveTo": false,
      "point": "{0, 0.067907866222168059}"
    },
    {
      "_class": "curvePoint",
      "cornerRadius": 0,
      "curveFrom": "{0.17552164814400936, 0.067907866222168059}",
      "curveMode": 4,
      "curveTo": "{0.0054501310469533782, 0.067907866222168059}",
      "hasCurveFrom": true,
      "hasCurveTo": false,
      "point": "{0.0054501310469533782, 0.067907866222168059}"
    },
    {
      "_class": "curvePoint",
      "cornerRadius": 0,
      "curveFrom": "{0.65816046648651938, 0.045062706051309312}",
      "curveMode": 4,
      "curveTo": "{0.34182937483492132, 0.045062706051309312}",
      "hasCurveFrom": true,
      "hasCurveTo": true,
      "point": "{0.49999492066072038, 0}"
    },
    {
      "_class": "curvePoint",
      "cornerRadius": 0,
      "curveFrom": "{0.99453971027448751, 0.067907866222168059}",
      "curveMode": 4,
      "curveTo": "{0.82446819317743136, 0.067907866222168059}",
      "hasCurveFrom": false,
      "hasCurveTo": true,
      "point": "{0.99453971027448751, 0.067907866222168059}"
    },
    {
      "_class": "curvePoint",
      "cornerRadius": 0,
      "curveFrom": "{0.99998984132144086, 0.067907866222168059}",
      "curveMode": 1,
      "curveTo": "{0.99998984132144086, 0.067907866222168059}",
      "hasCurveFrom": false,
      "hasCurveTo": false,
      "point": "{0.99998984132144086, 0.067907866222168059}"
    },
    {
      "_class": "curvePoint",
      "cornerRadius": 0,
      "curveFrom": "{1, 0.70734714823141975}",
      "curveMode": 1,
      "curveTo": "{0.99998984132144086, 0.55536850188468867}",
      "hasCurveFrom": true,
      "hasCurveTo": false,
      "point": "{0.99998984132144086, 0.55536850188468867}"
    }
  ],
  "resizingConstraint": 63,
  "resizingType": 0,
  "rotation": 0,
  "shouldBreakMaskChain": false,
  "style": {
    "_class": "style",
    "blur": {
      "_class": "blur",
      "center": "{0.5, 0.5}",
      "isEnabled": false,
      "motionAngle": 0,
      "radius": 10,
      "saturation": 1,
      "type": 0
    },
    "borderOptions": {
      "_class": "borderOptions",
      "dashPattern": [
      ],
      "isEnabled": true,
      "lineCapStyle": 0,
      "lineJoinStyle": 0
    },
    "borders": [
    ],
    "colorControls": {
      "_class": "colorControls",
      "brightness": 0,
      "contrast": 1,
      "hue": 0,
      "isEnabled": true,
      "saturation": 1
    },
    "contextSettings": {
      "_class": "graphicsContextSettings",
      "blendMode": 0,
      "opacity": 1
    },
    "do_objectID": "8B93763E-FE3F-4F7A-AC15-433BEA180C4C",
    "endMarkerType": 0,
    "fills": [
      {
        "_class": "fill",
        "color": {
          "_class": "color",
          "alpha": 1,
          "blue": 0.2,
          "green": 0.2,
          "red": 0.2
        },
        "contextSettings": {
          "_class": "graphicsContextSettings",
          "blendMode": 0,
          "opacity": 1
        },
        "fillType": 0,
        "gradient": {
          "_class": "gradient",
          "elipseLength": 0,
          "from": "{0.5, 0}",
          "gradientType": 0,
          "stops": [
            {
              "_class": "gradientStop",
              "color": {
                "_class": "color",
                "alpha": 1,
                "blue": 1,
                "green": 1,
                "red": 1
              },
              "position": 0
            },
            {
              "_class": "gradientStop",
              "color": {
                "_class": "color",
                "alpha": 1,
                "blue": 0,
                "green": 0,
                "red": 0
              },
              "position": 1
            }
          ],
          "to": "{0.5, 1}"
        },
        "isEnabled": true,
        "noiseIndex": 0,
        "noiseIntensity": 0,
        "patternFillType": 1,
        "patternTileScale": 1
      }
    ],
    "innerShadows": [
    ],
    "miterLimit": 10,
    "shadows": [
    ],
    "startMarkerType": 0,
    "windingRule": 0
  }
}