{
  "_class": "shapePath",
  "booleanOperation": -1,
  "clippingMaskMode": 0,
  "do_objectID": "EF310BF9-4B88-4D38-9D6C-90942E7408BC",
  "edited": true,
  "exportOptions": {
    "_class": "exportOptions",
    "exportFormats": [
    ],
    "includedLayerIds": [
    ],
    "layerOptions": 0,
    "shouldTrim": false
  },
  "frame": {
    "_class": "rect",
    "constrainProportions": false,
    "height": 13.72546232876712,
    "width": 7.916846456692909,
    "x": 1.439314960629921,
    "y": 19.56005136986302
  },
  "hasClippingMask": false,
  "isClosed": true,
  "isFixedToViewport": false,
  "isFlippedHorizontal": false,
  "isFlippedVertical": false,
  "isLocked": false,
  "isVisible": true,
  "layerListExpandedType": 0,
  "maintainScrollPosition": false,
  "name": "Path",
  "nameIsFixed": false,
  "pointRadiusBehaviour": 1,
  "points": [
    {
      "_class": "curvePoint",
      "cornerRadius": 0,
      "curveFrom": "{0, 0.94736310252293332}",
      "curveMode": 4,
      "curveTo": "{0, 0.97636504496816867}",
      "hasCurveFrom": false,
      "hasCurveTo": true,
      "point": "{0, 0.94736310252293332}"
    },
    {
      "_class": "curvePoint",
      "cornerRadius": 0,
      "curveFrom": "{0, 0.023623727024690386}",
      "curveMode": 4,
      "curveTo": "{0, 0.052625669469925772}",
      "hasCurveFrom": true,
      "hasCurveTo": false,
      "point": "{0, 0.052625669469925772}"
    },
    {
      "_class": "curvePoint",
      "cornerRadius": 0,
      "curveFrom": "{0.090902038362328158, 0}",
      "curveMode": 4,
      "curveTo": "{0.040728457555128911, 0}",
      "hasCurveFrom": false,
      "hasCurveTo": true,
      "point": "{0.090902038362328158, 0}"
    },
    {
      "_class": "curvePoint",
      "cornerRadius": 0,
      "curveFrom": "{0.95927154244487123, 0}",
      "curveMode": 4,
      "curveTo": "{0.90909796163767187, 0}",
      "hasCurveFrom": true,
      "hasCurveTo": false,
      "point": "{0.90909796163767187, 0}"
    },
    {
      "_class": "curvePoint",
      "cornerRadius": 0,
      "curveFrom": "{1, 0.052625669469925772}",
      "curveMode": 4,
      "curveTo": "{1, 0.023634955031831453}",
      "hasCurveFrom": false,
      "hasCurveTo": true,
      "point": "{1, 0.052625669469925772}"
    },
    {
      "_class": "curvePoint",
      "cornerRadius": 0,
      "curveFrom": "{1, 0.97636504496816867}",
      "curveMode": 4,
      "curveTo": "{1, 0.94736310252293332}",
      "hasCurveFrom": true,
      "hasCurveTo": false,
      "point": "{1, 0.94736310252293332}"
    },
    {
      "_class": "curvePoint",
      "cornerRadius": 0,
      "curveFrom": "{0.90909796163767187, 1}",
      "curveMode": 4,
      "curveTo": "{0.95927154244487123, 1}",
      "hasCurveFrom": false,
      "hasCurveTo": true,
      "point": "{0.90909796163767187, 1}"
    },
    {
      "_class": "curvePoint",
      "cornerRadius": 0,
      "curveFrom": "{0.040728457555128841, 1}",
      "curveMode": 4,
      "curveTo": "{0.090921432865925786, 1}",
      "hasCurveFrom": true,
      "hasCurveTo": false,
      "point": "{0.090921432865925786, 1}"
    }
  ],
  "resizingConstraint": 63,
  "resizingType": 0,
  "rotation": 0,
  "shouldBreakMaskChain": false,
  "style": {
    "_class": "style",
    "blur": {
      "_class": "blur",
      "center": "{0.5, 0.5}",
      "isEnabled": false,
      "motionAngle": 0,
      "radius": 10,
      "saturation": 1,
      "type": 0
    },
    "borderOptions": {
      "_class": "borderOptions",
      "dashPattern": [
      ],
      "isEnabled": true,
      "lineCapStyle": 0,
      "lineJoinStyle": 0
    },
    "borders": [
    ],
    "colorControls": {
      "_class": "colorControls",
      "brightness": 0,
      "contrast": 1,
      "hue": 0,
      "isEnabled": true,
      "saturation": 1
    },
    "contextSettings": {
      "_class": "graphicsContextSettings",
      "blendMode": 0,
      "opacity": 1
    },
    "do_objectID": "3CCAD3A6-0F8B-4D3F-BEB8-02E671EFDC3E",
    "endMarkerType": 0,
    "fills": [
      {
        "_class": "fill",
        "color": {
          "_class": "color",
          "alpha": 1,
          "blue": 0.2,
          "green": 0.2,
          "red": 0.2
        },
        "contextSettings": {
          "_class": "graphicsContextSettings",
          "blendMode": 0,
          "opacity": 1
        },
        "fillType": 0,
        "gradient": {
          "_class": "gradient",
          "elipseLength": 0,
          "from": "{0.5, 0}",
          "gradientType": 0,
          "stops": [
            {
              "_class": "gradientStop",
              "color": {
                "_class": "color",
                "alpha": 1,
                "blue": 1,
                "green": 1,
                "red": 1
              },
              "position": 0
            },
            {
              "_class": "gradientStop",
              "color": {
                "_class": "color",
                "alpha": 1,
                "blue": 0,
                "green": 0,
                "red": 0
              },
              "position": 1
            }
          ],
          "to": "{0.5, 1}"
        },
        "isEnabled": true,
        "noiseIndex": 0,
        "noiseIntensity": 0,
        "patternFillType": 1,
        "patternTileScale": 1
      }
    ],
    "innerShadows": [
    ],
    "miterLimit": 10,
    "shadows": [
    ],
    "startMarkerType": 0,
    "windingRule": 0
  }
}