{
  "_class": "bitmap",
  "booleanOperation": 0,
  "clippingMask": "{{0, 0}, {1, 1}}",
  "clippingMaskMode": 0,
  "do_objectID": "AD28A3CE-0673-4AB5-8C24-D61C7207DA3B",
  "exportOptions": {
    "_class": "exportOptions",
    "do_objectID": "C76CE5CA-B4B1-45B4-87E4-54665FDDC012",
    "exportFormats": [
    ],
    "includedLayerIds": [
    ],
    "layerOptions": 0,
    "shouldTrim": false
  },
  "fillReplacesImage": false,
  "frame": {
    "_class": "rect",
    "constrainProportions": true,
    "do_objectID": "2C5ED7EA-4EA5-4B96-81D3-AA685B4E3B24",
    "height": 105.2114062499994,
    "width": 61.20000000000002,
    "x": -0.5999999999999998,
    "y": 0
  },
  "hasClippingMask": false,
  "image": {
    "_class": "MSJSONFileReference",
    "_ref": "images/601bdf4aa72e35b17f830395fe7e0c683267fe55.png",
    "_ref_class": "MSImageData"
  },
  "intendedDPI": 0,
  "isFixedToViewport": false,
  "isFlippedHorizontal": true,
  "isFlippedVertical": false,
  "isLocked": false,
  "isVisible": true,
  "layerListExpandedType": 0,
  "name": "211199857_blk_fr",
  "nameIsFixed": false,
  "resizingConstraint": 63,
  "resizingType": 0,
  "rotation": 0,
  "shouldBreakMaskChain": false,
  "style": {
    "_class": "style",
    "do_objectID": "E0F1C08B-8889-4182-A5A3-BC7518731523",
    "endMarkerType": 0,
    "miterLimit": 10,
    "startMarkerType": 0,
    "windingRule": 1
  }
}