{
  "_class": "group",
  "booleanOperation": 0,
  "clippingMaskMode": 0,
  "do_objectID": "B3F767A8-2974-409D-8E35-FE62D1E23638",
  "exportOptions": {
    "_class": "exportOptions",
    "do_objectID": "BAC8EA28-2413-488F-B126-CB766F3ED7F7",
    "exportFormats": [
    ],
    "includedLayerIds": [
    ],
    "layerOptions": 0,
    "shouldTrim": false
  },
  "frame": {
    "_class": "rect",
    "constrainProportions": false,
    "do_objectID": "D5092C74-14E7-4252-AD62-061F8A246916",
    "height": 50,
    "width": 362,
    "x": 33,
    "y": 240
  },
  "groupLayout": {
    "_class": "MSImmutableFreeformGroupLayout",
    "do_objectID": "42EB7B68-1BC0-42CD-AA59-9D8D9BD0C2CF"
  },
  "hasClickThrough": false,
  "hasClippingMask": false,
  "isFixedToViewport": false,
  "isFlippedHorizontal": false,
  "isFlippedVertical": false,
  "isLocked": false,
  "isVisible": true,
  "layerListExpandedType": 0,
  "layers": [
    {
      "class": "rectangle",
      "id": "C47D383F-FC51-49E2-8CA8-A24230BBFD69"
    },
    {
      "class": "text",
      "id": "795A5B9F-B5CF-4804-A5BA-564866D45BBD"
    }
  ],
  "name": "Group 4",
  "nameIsFixed": false,
  "resizingConstraint": 63,
  "resizingType": 0,
  "rotation": 0,
  "shouldBreakMaskChain": false,
  "style": {
    "_class": "style",
    "do_objectID": "79E6628E-4BCB-41C3-B5A8-40D02BFAF8F3",
    "endMarkerType": 0,
    "miterLimit": 10,
    "startMarkerType": 0,
    "windingRule": 1
  }
}