{
  "_class": "symbolInstance",
  "booleanOperation": -1,
  "clippingMaskMode": 0,
  "do_objectID": "57257DA2-BCE1-4CD3-B138-16334616B0E1",
  "exportOptions": {
    "_class": "exportOptions",
    "do_objectID": "3DA2A84E-E825-4889-A0E8-B8CBB73D135F",
    "exportFormats": [
    ],
    "includedLayerIds": [
    ],
    "layerOptions": 0,
    "shouldTrim": false
  },
  "frame": {
    "_class": "rect",
    "constrainProportions": false,
    "do_objectID": "7FD8A6F7-7B53-464F-9A02-24D19E8B7314",
    "height": 16,
    "width": 16,
    "x": 84,
    "y": 4
  },
  "hasClippingMask": false,
  "horizontalSpacing": 0,
  "isFixedToViewport": false,
  "isFlippedHorizontal": false,
  "isFlippedVertical": false,
  "isLocked": true,
  "isVisible": true,
  "layerListExpandedType": 0,
  "name": "icon/navigation/close/16",
  "nameIsFixed": false,
  "overrideValues": [
    {
      "_class": "overrideValue",
      "overrideName": "0102D184-77A7-423A-9B10-676DDC10DDDA_layerStyle",
      "value": "3D0F099F-D6F7-4142-85D0-74052495B55D"
    }
  ],
  "resizingConstraint": 12,
  "resizingType": 0,
  "rotation": 0,
  "scale": 1,
  "shouldBreakMaskChain": false,
  "style": {
    "_class": "style",
    "do_objectID": "7CAE6C1A-AB08-4142-86A3-CA41B35B473C",
    "endMarkerType": 0,
    "miterLimit": 10,
    "startMarkerType": 0,
    "windingRule": 1
  },
  "symbolID": "4CA331EF-386E-44F2-B4FB-265D74D3A575",
  "verticalSpacing": 0
}