{
  "_class": "symbolMaster",
  "allowsOverrides": true,
  "backgroundColor": {
    "_class": "color",
    "alpha": 1,
    "blue": 1,
    "do_objectID": "22BE5A66-D8BC-4FAE-809E-7ECE8CA29E31",
    "green": 1,
    "red": 1
  },
  "booleanOperation": -1,
  "changeIdentifier": 1843,
  "clippingMaskMode": 0,
  "do_objectID": "6DA7DF33-6609-4A7F-8E0A-0803B33076C2",
  "exportOptions": {
    "_class": "exportOptions",
    "do_objectID": "B7A0AC15-9CB6-479F-BD7E-B4F8FB722119",
    "exportFormats": [
    ],
    "includedLayerIds": [
    ],
    "layerOptions": 0,
    "shouldTrim": false
  },
  "frame": {
    "_class": "rect",
    "constrainProportions": false,
    "do_objectID": "BEF6E9FA-63AD-47C8-A233-3963032CCCD6",
    "height": 24,
    "width": 1200,
    "x": 27805,
    "y": 0
  },
  "groupLayout": {
    "_class": "MSImmutableFreeformGroupLayout"
  },
  "hasBackgroundColor": false,
  "hasClickThrough": true,
  "hasClippingMask": false,
  "horizontalRulerData": {
    "_class": "rulerData",
    "base": 0,
    "do_objectID": "1B0609A2-7B43-4623-AD73-BB3DDADDAE3C",
    "guides": [
    ]
  },
  "includeBackgroundColorInExport": true,
  "includeBackgroundColorInInstance": false,
  "includeInCloudUpload": true,
  "isFixedToViewport": false,
  "isFlippedHorizontal": false,
  "isFlippedVertical": false,
  "isFlowHome": false,
  "isLocked": false,
  "isVisible": true,
  "layerListExpandedType": 2,
  "layers": [
    {
      "class": "rectangle",
      "id": "1D758E1D-B979-4051-84E5-A3B2E755CD2A"
    },
    {
      "class": "symbolInstance",
      "id": "7A080FC6-D389-4B89-9577-7568C4A93551"
    },
    {
      "class": "symbolInstance",
      "id": "9B7ED7C9-A124-492B-9E56-A84F304249B8"
    },
    {
      "class": "symbolInstance",
      "id": "1FC320FE-84A9-4645-A83B-C50A04ABC840"
    },
    {
      "class": "symbolInstance",
      "id": "F367F835-6C24-4122-AFB1-0860712069C0"
    },
    {
      "class": "symbolInstance",
      "id": "9094716D-7E3D-4143-AB02-B3561AC2C81A"
    },
    {
      "class": "symbolInstance",
      "id": "D59FB8FF-A6CA-4D25-84DB-C69A48E00634"
    }
  ],
  "name": "data table / row / 24 compact / column header / default",
  "nameIsFixed": true,
  "overrideProperties": [
    {
      "_class": "MSImmutableOverrideProperty",
      "canOverride": true,
      "overrideName": "9B7ED7C9-A124-492B-9E56-A84F304249B8_symbolID"
    },
    {
      "_class": "MSImmutableOverrideProperty",
      "canOverride": true,
      "overrideName": "F367F835-6C24-4122-AFB1-0860712069C0_symbolID"
    },
    {
      "_class": "MSImmutableOverrideProperty",
      "canOverride": true,
      "overrideName": "7A080FC6-D389-4B89-9577-7568C4A93551_symbolID"
    },
    {
      "_class": "MSImmutableOverrideProperty",
      "canOverride": true,
      "overrideName": "1FC320FE-84A9-4645-A83B-C50A04ABC840_symbolID"
    },
    {
      "_class": "MSImmutableOverrideProperty",
      "canOverride": true,
      "overrideName": "9094716D-7E3D-4143-AB02-B3561AC2C81A_symbolID"
    },
    {
      "_class": "MSImmutableOverrideProperty",
      "canOverride": true,
      "overrideName": "D59FB8FF-A6CA-4D25-84DB-C69A48E00634_symbolID"
    },
    {
      "_class": "MSImmutableOverrideProperty",
      "canOverride": false,
      "overrideName": "1D758E1D-B979-4051-84E5-A3B2E755CD2A_layerStyle"
    }
  ],
  "resizesContent": true,
  "resizingConstraint": 63,
  "resizingType": 0,
  "rotation": 0,
  "shouldBreakMaskChain": true,
  "style": {
    "_class": "style",
    "do_objectID": "589B2FCB-28B6-47AD-96C4-F5F86489D8B0",
    "endMarkerType": 0,
    "miterLimit": 10,
    "startMarkerType": 0,
    "windingRule": 1
  },
  "symbolID": "E956AC24-DC76-447A-B348-8C141174D4F1",
  "verticalRulerData": {
    "_class": "rulerData",
    "base": 0,
    "do_objectID": "4EF487A1-E508-4A2A-B297-8FFC6934C670",
    "guides": [
    ]
  }
}