{
  "_class": "shapePath",
  "booleanOperation": -1,
  "clippingMaskMode": 0,
  "do_objectID": "3F300D35-7DFE-4404-AF8D-636FAD48D5D7",
  "edited": true,
  "exportOptions": {
    "_class": "exportOptions",
    "exportFormats": [
    ],
    "includedLayerIds": [
    ],
    "layerOptions": 0,
    "shouldTrim": false
  },
  "frame": {
    "_class": "rect",
    "constrainProportions": false,
    "height": 22.68558120697531,
    "width": 22.69437079631271,
    "x": 0,
    "y": 0
  },
  "hasClippingMask": false,
  "isClosed": true,
  "isFixedToViewport": false,
  "isFlippedHorizontal": false,
  "isFlippedVertical": false,
  "isLocked": false,
  "isVisible": true,
  "layerListExpandedType": 0,
  "maintainScrollPosition": false,
  "name": "Path",
  "nameIsFixed": false,
  "pointRadiusBehaviour": 1,
  "points": [
    {
      "_class": "curvePoint",
      "cornerRadius": 0,
      "curveFrom": "{0.95255044848841341, 0.99994937535249251}",
      "curveMode": 2,
      "curveTo": "{0.97253295424804032, 1.0000245459847548}",
      "hasCurveFrom": true,
      "hasCurveTo": true,
      "point": "{0.96259899924137504, 0.99999988582915378}"
    },
    {
      "_class": "curvePoint",
      "cornerRadius": 0,
      "curveFrom": "{0.93572008704438614, 0.98897967004895915}",
      "curveMode": 4,
      "curveTo": "{0.94291389984197571, 0.99599843996188608}",
      "hasCurveFrom": false,
      "hasCurveTo": true,
      "point": "{0.93572008704438614, 0.98897967004895915}"
    },
    {
      "_class": "curvePoint",
      "cornerRadius": 0,
      "curveFrom": "{0.5441581488960201, 0.93005809682295437}",
      "curveMode": 4,
      "curveTo": "{0.72465453061229246, 0.77783233570042654}",
      "hasCurveFrom": true,
      "hasCurveTo": false,
      "point": "{0.72465453061229246, 0.77783233570042654}"
    },
    {
      "_class": "curvePoint",
      "cornerRadius": 0,
      "curveFrom": "{-0.043583878384055579, 0.565051383832188}",
      "curveMode": 2,
      "curveTo": "{0.27580466365252065, 0.91292981540514051}",
      "hasCurveFrom": true,
      "hasCurveTo": true,
      "point": "{0.11611039263423252, 0.73899059961866431}"
    },
    {
      "_class": "curvePoint",
      "cornerRadius": 0,
      "curveFrom": "{0.29599405049763444, -0.037887902476252837}",
      "curveMode": 2,
      "curveTo": "{-0.037873228392242775, 0.296108734187087}",
      "hasCurveFrom": true,
      "hasCurveTo": true,
      "point": "{0.12906041105269586, 0.12911041585541708}"
    },
    {
      "_class": "curvePoint",
      "cornerRadius": 0,
      "curveFrom": "{0.91257623529299292, 0.27591152490984194}",
      "curveMode": 2,
      "curveTo": "{0.56483253794908361, -0.043600765074735134}",
      "hasCurveFrom": true,
      "hasCurveTo": true,
      "point": "{0.73870438662103821, 0.1161553799175534}"
    },
    {
      "_class": "curvePoint",
      "cornerRadius": 0,
      "curveFrom": "{0.7775310791965333, 0.72493529995549122}",
      "curveMode": 4,
      "curveTo": "{0.92969788288248567, 0.54436898443158566}",
      "hasCurveFrom": false,
      "hasCurveTo": true,
      "point": "{0.7775310791965333, 0.72493529995549122}"
    },
    {
      "_class": "curvePoint",
      "cornerRadius": 0,
      "curveFrom": "{1.0036542421555017, 0.95041449846638637}",
      "curveMode": 4,
      "curveTo": "{0.98903727353349535, 0.93564182567281606}",
      "hasCurveFrom": true,
      "hasCurveTo": false,
      "point": "{0.98903727353349535, 0.93564182567281606}"
    },
    {
      "_class": "curvePoint",
      "cornerRadius": 0,
      "curveFrom": "{0.98205986185755323, 0.99605346313665455}",
      "curveMode": 3,
      "curveTo": "{1.0036542421555017, 0.97420699725538862}",
      "hasCurveFrom": true,
      "hasCurveTo": true,
      "point": "{0.98903727353349535, 0.98897967004895893}"
    }
  ],
  "resizingConstraint": 63,
  "resizingType": 0,
  "rotation": 0,
  "shouldBreakMaskChain": false,
  "style": {
    "_class": "style",
    "blur": {
      "_class": "blur",
      "center": "{0.5, 0.5}",
      "isEnabled": false,
      "motionAngle": 0,
      "radius": 10,
      "saturation": 1,
      "type": 0
    },
    "borderOptions": {
      "_class": "borderOptions",
      "dashPattern": [
      ],
      "isEnabled": true,
      "lineCapStyle": 0,
      "lineJoinStyle": 0
    },
    "borders": [
    ],
    "colorControls": {
      "_class": "colorControls",
      "brightness": 0,
      "contrast": 1,
      "hue": 0,
      "isEnabled": false,
      "saturation": 1
    },
    "contextSettings": {
      "_class": "graphicsContextSettings",
      "blendMode": 0,
      "opacity": 1
    },
    "do_objectID": "66E70CFF-AB51-4007-B36D-E7BA268433D7",
    "endMarkerType": 0,
    "fills": [
    ],
    "innerShadows": [
    ],
    "miterLimit": 10,
    "shadows": [
    ],
    "startMarkerType": 0,
    "windingRule": 1
  }
}