{
  "_class": "group",
  "booleanOperation": -1,
  "clippingMaskMode": 0,
  "do_objectID": "48574A88-2794-458C-8A10-DC0D8AF899A9",
  "exportOptions": {
    "_class": "exportOptions",
    "do_objectID": "1127C242-3896-4F6E-90F6-BCA10FB199AE",
    "exportFormats": [
    ],
    "includedLayerIds": [
    ],
    "layerOptions": 0,
    "shouldTrim": false
  },
  "frame": {
    "_class": "rect",
    "constrainProportions": false,
    "do_objectID": "EF94EB89-C894-469F-88A5-D9F9256B1356",
    "height": 17,
    "width": 99,
    "x": 16,
    "y": 15.85576923076923
  },
  "groupLayout": {
    "_class": "MSImmutableFreeformGroupLayout",
    "do_objectID": "1635057A-B38F-47B3-9915-A5DF54CAE71E"
  },
  "hasClickThrough": false,
  "hasClippingMask": false,
  "isFixedToViewport": false,
  "isFlippedHorizontal": false,
  "isFlippedVertical": false,
  "isLocked": false,
  "isVisible": true,
  "layerListExpandedType": 0,
  "layers": [
    {
      "class": "rectangle",
      "id": "65AE5F48-C8E6-48FF-9B1C-A181830D1B62"
    },
    {
      "class": "text",
      "id": "A9947C96-91E8-47B1-A8DF-2C3084895A0C"
    }
  ],
  "name": "snippet",
  "nameIsFixed": true,
  "resizingConstraint": 63,
  "resizingType": 0,
  "rotation": 0,
  "shouldBreakMaskChain": false,
  "style": {
    "_class": "style",
    "do_objectID": "DAC65D72-94CF-4098-9D6C-7DBA9AEF9F13",
    "endMarkerType": 0,
    "miterLimit": 10,
    "startMarkerType": 0,
    "windingRule": 1
  }
}