{
  "_class": "group",
  "booleanOperation": 0,
  "clippingMaskMode": 0,
  "do_objectID": "64FE6522-D889-40FA-B6A4-3B5560C2A597",
  "exportOptions": {
    "_class": "exportOptions",
    "do_objectID": "A6A95625-FDF1-4491-87B2-3C39ACD12929",
    "exportFormats": [
    ],
    "includedLayerIds": [
    ],
    "layerOptions": 0,
    "shouldTrim": false
  },
  "frame": {
    "_class": "rect",
    "constrainProportions": false,
    "do_objectID": "B4FED969-43E9-4AAB-94C2-70B16EED5B3A",
    "height": 17,
    "width": 8,
    "x": 6,
    "y": 1
  },
  "groupLayout": {
    "_class": "MSImmutableFreeformGroupLayout",
    "do_objectID": "68BCF4CE-37A9-4068-9874-944C98606772"
  },
  "hasClickThrough": false,
  "hasClippingMask": false,
  "isFixedToViewport": false,
  "isFlippedHorizontal": false,
  "isFlippedVertical": false,
  "isLocked": false,
  "isVisible": true,
  "layerListExpandedType": 2,
  "layers": [
    {
      "class": "shapeGroup",
      "id": "3E7ACA84-5531-4F5C-9D23-8BC0DCF1A360"
    }
  ],
  "name": "cursor - text",
  "nameIsFixed": true,
  "resizingConstraint": 63,
  "resizingType": 0,
  "rotation": 0,
  "shouldBreakMaskChain": false,
  "style": {
    "_class": "style",
    "do_objectID": "23D82B74-49D6-472A-A060-DEE62AA03F2A",
    "endMarkerType": 0,
    "miterLimit": 10,
    "startMarkerType": 0,
    "windingRule": 1
  }
}