{
  "_class": "group",
  "booleanOperation": -1,
  "clippingMaskMode": 0,
  "do_objectID": "9E637D6F-55DE-4D62-8DD3-F96F4A5D52B2",
  "exportOptions": {
    "_class": "exportOptions",
    "exportFormats": [
    ],
    "includedLayerIds": [
    ],
    "layerOptions": 0,
    "shouldTrim": false
  },
  "frame": {
    "_class": "rect",
    "constrainProportions": false,
    "height": 114,
    "width": 380,
    "x": 22,
    "y": 513
  },
  "groupLayout": {
    "_class": "MSImmutableFreeformGroupLayout"
  },
  "hasClickThrough": false,
  "hasClippingMask": false,
  "isFixedToViewport": false,
  "isFlippedHorizontal": false,
  "isFlippedVertical": false,
  "isLocked": false,
  "isVisible": true,
  "layerListExpandedType": 2,
  "layers": [
    {
      "class": "group",
      "id": "78D96B02-1313-40C0-ABFD-63CBA678739D"
    },
    {
      "class": "group",
      "id": "B9BF798D-4F6E-415E-B096-4F91CA46B599"
    },
    {
      "class": "text",
      "id": "3CE91826-4B18-40B0-801F-C56194B50C44"
    },
    {
      "class": "group",
      "id": "AEF1FDA3-8C76-4009-B6B6-C4C49953F368"
    },
    {
      "class": "group",
      "id": "06BC17EE-3AFC-40C3-83A3-B7F25BA51D08"
    },
    {
      "class": "group",
      "id": "4F2FB815-75FC-4E60-B18B-DF3F7C5C4CCD"
    },
    {
      "class": "group",
      "id": "068254B7-4985-4D7C-A323-29FDCFC60592"
    },
    {
      "class": "symbolInstance",
      "id": "4599088D-AFB6-478D-90D0-098F7FE32251"
    }
  ],
  "maintainScrollPosition": false,
  "name": "Group 7",
  "nameIsFixed": false,
  "resizingConstraint": 63,
  "resizingType": 0,
  "rotation": 0,
  "shouldBreakMaskChain": false,
  "style": {
    "_class": "style",
    "blur": {
      "_class": "blur",
      "center": "{0.5, 0.5}",
      "isEnabled": false,
      "motionAngle": 0,
      "radius": 10,
      "saturation": 1,
      "type": 0
    },
    "borderOptions": {
      "_class": "borderOptions",
      "dashPattern": [
      ],
      "isEnabled": true,
      "lineCapStyle": 0,
      "lineJoinStyle": 0
    },
    "borders": [
    ],
    "colorControls": {
      "_class": "colorControls",
      "brightness": 0,
      "contrast": 1,
      "hue": 0,
      "isEnabled": true,
      "saturation": 1
    },
    "contextSettings": {
      "_class": "graphicsContextSettings",
      "blendMode": 0,
      "opacity": 1
    },
    "do_objectID": "F123AD75-1654-4323-9021-71F46B7216C7",
    "endMarkerType": 0,
    "fills": [
    ],
    "innerShadows": [
    ],
    "miterLimit": 10,
    "shadows": [
    ],
    "startMarkerType": 0,
    "windingRule": 1
  }
}