{
  "_class": "group",
  "booleanOperation": -1,
  "clippingMaskMode": 0,
  "do_objectID": "CB0E205F-6BDF-4BFD-AB5D-8DA950106615",
  "exportOptions": {
    "_class": "exportOptions",
    "do_objectID": "0FCB0E27-B289-4313-B4DE-E12EB9D8BE31",
    "exportFormats": [
    ],
    "includedLayerIds": [
    ],
    "layerOptions": 0,
    "shouldTrim": false
  },
  "frame": {
    "_class": "rect",
    "constrainProportions": false,
    "do_objectID": "87F46F70-2DFE-4E2F-9768-2C18189F2F61",
    "height": 103,
    "width": 960,
    "x": 0,
    "y": 1760
  },
  "groupLayout": {
    "_class": "MSImmutableFreeformGroupLayout"
  },
  "hasClickThrough": false,
  "hasClippingMask": false,
  "isFixedToViewport": false,
  "isFlippedHorizontal": false,
  "isFlippedVertical": false,
  "isLocked": false,
  "isVisible": true,
  "layerListExpandedType": 0,
  "layers": [
    {
      "class": "group",
      "id": "E17D4BFB-FFC6-4479-84A0-D90D70B121E1"
    },
    {
      "class": "group",
      "id": "CD0EA14F-90CF-46DA-A407-8FD7B263F4DC"
    },
    {
      "class": "group",
      "id": "5EE01675-5634-45C4-BEA5-8461F52D77A8"
    }
  ],
  "name": "$disabled-01",
  "nameIsFixed": true,
  "resizingConstraint": 63,
  "resizingType": 0,
  "rotation": 0,
  "shouldBreakMaskChain": false,
  "style": {
    "_class": "style",
    "do_objectID": "41C6147C-0977-4BE1-BD7B-2F0DF0A09002",
    "endMarkerType": 0,
    "miterLimit": 10,
    "startMarkerType": 0,
    "windingRule": 1
  }
}