{
  "_class": "group",
  "booleanOperation": 0,
  "clippingMaskMode": 0,
  "do_objectID": "FBFF5881-FD2C-4326-8BE3-6E0211A87791",
  "exportOptions": {
    "_class": "exportOptions",
    "do_objectID": "C1AEB6D4-59A2-4D84-908A-826EC6A5CA1A",
    "exportFormats": [
    ],
    "includedLayerIds": [
    ],
    "layerOptions": 0,
    "shouldTrim": false
  },
  "frame": {
    "_class": "rect",
    "constrainProportions": false,
    "do_objectID": "B571BA1A-FA2C-4BE0-AA46-3BD362FAFF67",
    "height": 24,
    "width": 95,
    "x": 656,
    "y": 120
  },
  "groupLayout": {
    "_class": "MSImmutableFreeformGroupLayout"
  },
  "hasClickThrough": false,
  "hasClippingMask": false,
  "isFixedToViewport": false,
  "isFlippedHorizontal": false,
  "isFlippedVertical": false,
  "isLocked": false,
  "isVisible": true,
  "layerListExpandedType": 1,
  "layers": [
    {
      "class": "rectangle",
      "id": "FDDBE4FD-7DF9-4EF3-9686-535C1F759266"
    },
    {
      "class": "text",
      "id": "18A78868-70AE-425F-A066-7B845B5DE287"
    }
  ],
  "name": "token",
  "nameIsFixed": true,
  "resizingConstraint": 63,
  "resizingType": 0,
  "rotation": 0,
  "shouldBreakMaskChain": false,
  "style": {
    "_class": "style",
    "do_objectID": "AEF7C54C-71B4-4E7A-98C2-244A91F90EE2",
    "endMarkerType": 0,
    "miterLimit": 10,
    "startMarkerType": 0,
    "windingRule": 1
  }
}