{
  "_class": "shapePath",
  "booleanOperation": -1,
  "clippingMaskMode": 0,
  "do_objectID": "C4F974BC-3DE8-4443-A9F7-0B39F0A9EB15",
  "edited": true,
  "exportOptions": {
    "_class": "exportOptions",
    "do_objectID": "5F625096-73D8-4A77-A222-F66478C1CDBC",
    "exportFormats": [
    ],
    "includedLayerIds": [
    ],
    "layerOptions": 0,
    "shouldTrim": false
  },
  "frame": {
    "_class": "rect",
    "constrainProportions": false,
    "do_objectID": "B2824A03-AFAF-42EE-8A44-2213E7D8314D",
    "height": 19,
    "width": 20,
    "x": 0,
    "y": 0
  },
  "hasClippingMask": false,
  "isClosed": true,
  "isFixedToViewport": false,
  "isFlippedHorizontal": false,
  "isFlippedVertical": false,
  "isLocked": false,
  "isVisible": true,
  "layerListExpandedType": 0,
  "name": "Path",
  "nameIsFixed": false,
  "pointRadiusBehaviour": 0,
  "points": [
    {
      "_class": "curvePoint",
      "cornerRadius": 0,
      "curveFrom": "{1, 0.38105263157894737}",
      "curveMode": 1,
      "curveTo": "{1, 0.38105263157894737}",
      "hasCurveFrom": false,
      "hasCurveTo": false,
      "point": "{1, 0.38105263157894737}"
    },
    {
      "_class": "curvePoint",
      "cornerRadius": 0,
      "curveFrom": "{0.64049999999999996, 0.34842105263157902}",
      "curveMode": 1,
      "curveTo": "{0.64049999999999996, 0.34842105263157902}",
      "hasCurveFrom": false,
      "hasCurveTo": false,
      "point": "{0.64049999999999996, 0.34842105263157902}"
    },
    {
      "_class": "curvePoint",
      "cornerRadius": 0,
      "curveFrom": "{0.5, 0}",
      "curveMode": 1,
      "curveTo": "{0.5, 0}",
      "hasCurveFrom": false,
      "hasCurveTo": false,
      "point": "{0.5, 0}"
    },
    {
      "_class": "curvePoint",
      "cornerRadius": 0,
      "curveFrom": "{0.35949999999999999, 0.34894736842105267}",
      "curveMode": 1,
      "curveTo": "{0.35949999999999999, 0.34894736842105267}",
      "hasCurveFrom": false,
      "hasCurveTo": false,
      "point": "{0.35949999999999999, 0.34894736842105267}"
    },
    {
      "_class": "curvePoint",
      "cornerRadius": 0,
      "curveFrom": "{0, 0.38105263157894737}",
      "curveMode": 1,
      "curveTo": "{0, 0.38105263157894737}",
      "hasCurveFrom": false,
      "hasCurveTo": false,
      "point": "{0, 0.38105263157894737}"
    },
    {
      "_class": "curvePoint",
      "cornerRadius": 0,
      "curveFrom": "{0.27300000000000002, 0.63}",
      "curveMode": 1,
      "curveTo": "{0.27300000000000002, 0.63}",
      "hasCurveFrom": false,
      "hasCurveTo": false,
      "point": "{0.27300000000000002, 0.63}"
    },
    {
      "_class": "curvePoint",
      "cornerRadius": 0,
      "curveFrom": "{0.191, 1}",
      "curveMode": 1,
      "curveTo": "{0.191, 1}",
      "hasCurveFrom": false,
      "hasCurveTo": false,
      "point": "{0.191, 1}"
    },
    {
      "_class": "curvePoint",
      "cornerRadius": 0,
      "curveFrom": "{0.5, 0.80368421052631578}",
      "curveMode": 1,
      "curveTo": "{0.5, 0.80368421052631578}",
      "hasCurveFrom": false,
      "hasCurveTo": false,
      "point": "{0.5, 0.80368421052631578}"
    },
    {
      "_class": "curvePoint",
      "cornerRadius": 0,
      "curveFrom": "{0.80899999999999994, 1}",
      "curveMode": 1,
      "curveTo": "{0.80899999999999994, 1}",
      "hasCurveFrom": false,
      "hasCurveTo": false,
      "point": "{0.80899999999999994, 1}"
    },
    {
      "_class": "curvePoint",
      "cornerRadius": 0,
      "curveFrom": "{0.72750000000000004, 0.62999999999999989}",
      "curveMode": 1,
      "curveTo": "{0.72750000000000004, 0.62999999999999989}",
      "hasCurveFrom": false,
      "hasCurveTo": false,
      "point": "{0.72750000000000004, 0.62999999999999989}"
    },
    {
      "_class": "curvePoint",
      "cornerRadius": 0,
      "curveFrom": "{1, 0.38105263157894737}",
      "curveMode": 1,
      "curveTo": "{1, 0.38105263157894737}",
      "hasCurveFrom": false,
      "hasCurveTo": false,
      "point": "{1, 0.38105263157894737}"
    }
  ],
  "resizingConstraint": 63,
  "resizingType": 0,
  "rotation": 0,
  "shouldBreakMaskChain": false,
  "style": {
    "_class": "style",
    "do_objectID": "0E4DF00D-3FB7-4777-A8C9-2B0504C1C78C",
    "endMarkerType": 0,
    "fills": [
      {
        "_class": "fill",
        "color": {
          "_class": "color",
          "alpha": 1,
          "blue": 0,
          "green": 0.6235294117647059,
          "red": 1
        },
        "fillType": 0,
        "isEnabled": true,
        "noiseIndex": 0,
        "noiseIntensity": 0,
        "patternFillType": 0,
        "patternTileScale": 1
      }
    ],
    "miterLimit": 10,
    "startMarkerType": 0,
    "windingRule": 1
  }
}