{
  "_class": "text",
  "attributedString": {
    "_class": "attributedString",
    "attributes": [
      {
        "_class": "stringAttribute",
        "attributes": {
          "MSAttributedStringColorAttribute": {
            "_class": "color",
            "alpha": 1,
            "blue": 0.09019607843137255,
            "green": 0.09019607843137255,
            "red": 0.09019607843137255
          },
          "MSAttributedStringFontAttribute": {
            "_class": "UIFontDescriptor",
            "attributes": {
              "name": "IBMPlexSans",
              "size": 14
            }
          },
          "kerning": 0.1599999964237213,
          "paragraphStyle": {
            "_class": "paragraphStyle",
            "alignment": 0,
            "allowsDefaultTighteningForTruncation": 0,
            "baseWritingDirection": 0,
            "maximumLineHeight": 18,
            "minimumLineHeight": 18
          },
          "textStyleVerticalAlignmentKey": 0
        },
        "length": 22,
        "location": 0
      }
    ],
    "string": "$interactive-01 active"
  },
  "automaticallyDrawOnUnderlyingPath": false,
  "booleanOperation": 0,
  "clippingMaskMode": 0,
  "do_objectID": "90C9C399-A846-4706-BADB-DEA3EA405D5F",
  "dontSynchroniseWithSymbol": false,
  "exportOptions": {
    "_class": "exportOptions",
    "do_objectID": "DCC53AE8-D460-4AFE-9E54-DD6C958E4552",
    "exportFormats": [
    ],
    "includedLayerIds": [
    ],
    "layerOptions": 0,
    "shouldTrim": false
  },
  "frame": {
    "_class": "rect",
    "constrainProportions": false,
    "do_objectID": "AF8A9640-4FA3-4F78-A13A-B5AD272D0217",
    "height": 18,
    "width": 288,
    "x": 15,
    "y": 16
  },
  "glyphBounds": "{{0, 3}, {141, 13}}",
  "hasClippingMask": false,
  "isFixedToViewport": false,
  "isFlippedHorizontal": false,
  "isFlippedVertical": false,
  "isLocked": false,
  "isVisible": true,
  "layerListExpandedType": 0,
  "lineSpacingBehaviour": 2,
  "name": "$interactive-01 acti",
  "nameIsFixed": false,
  "resizingConstraint": 63,
  "resizingType": 0,
  "rotation": 0,
  "sharedStyleID": "B368C533-5A6D-47D0-B1A8-F13E811C742E",
  "shouldBreakMaskChain": false,
  "style": {
    "_class": "style",
    "do_objectID": "B4941739-989D-46F1-9B68-F5CA42170921",
    "endMarkerType": 0,
    "miterLimit": 10,
    "startMarkerType": 0,
    "textStyle": {
      "_class": "textStyle",
      "do_objectID": "CFEA8774-BD98-4150-8C18-45322B8D477D",
      "encodedAttributes": {
        "MSAttributedStringColorAttribute": {
          "_class": "color",
          "alpha": 1,
          "blue": 0.09019607843137255,
          "green": 0.09019607843137255,
          "red": 0.09019607843137255
        },
        "MSAttributedStringFontAttribute": {
          "_class": "UIFontDescriptor",
          "attributes": {
            "name": "IBMPlexSans",
            "size": 14
          }
        },
        "kerning": 0.1599999964237213,
        "paragraphStyle": {
          "_class": "paragraphStyle",
          "alignment": 0,
          "allowsDefaultTighteningForTruncation": 0,
          "baseWritingDirection": 0,
          "maximumLineHeight": 18,
          "minimumLineHeight": 18
        },
        "textStyleVerticalAlignmentKey": 0
      },
      "verticalAlignment": 0
    },
    "windingRule": 1
  },
  "textBehaviour": 1
}