{
  "_class": "group",
  "booleanOperation": -1,
  "clippingMaskMode": 0,
  "do_objectID": "ACAE12DF-F6EF-4D81-A423-1847AFB4E628",
  "exportOptions": {
    "_class": "exportOptions",
    "exportFormats": [
    ],
    "includedLayerIds": [
    ],
    "layerOptions": 0,
    "shouldTrim": false
  },
  "frame": {
    "_class": "rect",
    "constrainProportions": false,
    "height": 56,
    "width": 640,
    "x": 0,
    "y": 450
  },
  "groupLayout": {
    "_class": "MSImmutableFreeformGroupLayout"
  },
  "hasClickThrough": false,
  "hasClippingMask": false,
  "isFixedToViewport": false,
  "isFlippedHorizontal": false,
  "isFlippedVertical": false,
  "isLocked": false,
  "isVisible": true,
  "layerListExpandedType": 0,
  "layers": [
    {
      "class": "rectangle",
      "id": "E8E99D71-46A7-4CE8-AE88-131B77E50493"
    },
    {
      "class": "rectangle",
      "id": "EA0717B4-3480-4031-9CAC-FB5C65FFB38C"
    },
    {
      "class": "group",
      "id": "663A40C6-C434-4436-AA1B-818A258DF506"
    },
    {
      "class": "text",
      "id": "80AAD10A-DC42-475C-BE63-CAE78C44D0D0"
    },
    {
      "class": "text",
      "id": "253FE8FA-C98C-4588-81ED-026B74CD758F"
    }
  ],
  "name": "component / structured list / row / 2 column offset / 01 enabled copy 6",
  "nameIsFixed": false,
  "resizingConstraint": 63,
  "resizingType": 0,
  "rotation": 0,
  "shouldBreakMaskChain": false,
  "style": {
    "_class": "style",
    "endMarkerType": 0,
    "miterLimit": 10,
    "startMarkerType": 0,
    "windingRule": 1
  }
}