{
  "_class": "symbolMaster",
  "allowsOverrides": true,
  "backgroundColor": {
    "_class": "color",
    "alpha": 1,
    "blue": 1,
    "green": 1,
    "red": 1
  },
  "booleanOperation": -1,
  "changeIdentifier": 524,
  "clippingMaskMode": 0,
  "do_objectID": "F42225E0-E84C-4EC2-BF94-5637E827538A",
  "exportOptions": {
    "_class": "exportOptions",
    "exportFormats": [
    ],
    "includedLayerIds": [
    ],
    "layerOptions": 0,
    "shouldTrim": false
  },
  "frame": {
    "_class": "rect",
    "constrainProportions": false,
    "height": 224,
    "width": 256,
    "x": 103129,
    "y": 0
  },
  "groupLayout": {
    "_class": "MSImmutableFreeformGroupLayout"
  },
  "hasBackgroundColor": false,
  "hasClickThrough": true,
  "hasClippingMask": false,
  "horizontalRulerData": {
    "_class": "rulerData",
    "base": 0,
    "guides": [
    ]
  },
  "includeBackgroundColorInExport": true,
  "includeBackgroundColorInInstance": false,
  "includeInCloudUpload": true,
  "isFixedToViewport": false,
  "isFlippedHorizontal": false,
  "isFlippedVertical": false,
  "isFlowHome": false,
  "isLocked": false,
  "isVisible": true,
  "layerListExpandedType": 2,
  "layers": [
    {
      "class": "symbolInstance",
      "id": "2DDEA718-8AF4-4355-89D7-A176A3A9A9FF"
    },
    {
      "class": "symbolInstance",
      "id": "A823E2CC-F39B-48D6-9BF4-5A09C9A9B3AF"
    },
    {
      "class": "symbolInstance",
      "id": "728D714B-A36E-42DD-804D-20CD7749F911"
    },
    {
      "class": "symbolInstance",
      "id": "BDBF2ED5-491C-4858-87CD-2640BFBBE4B5"
    },
    {
      "class": "symbolInstance",
      "id": "65E50188-0C65-45C9-94AB-1CF33C78D19D"
    },
    {
      "class": "symbolInstance",
      "id": "AFC7A90F-FECC-4846-B668-82667A060119"
    },
    {
      "class": "symbolInstance",
      "id": "24E584B1-308C-48CD-B111-288596D5016A"
    }
  ],
  "name": "ui shell / side-nav / item / sub-menu / with icon / 03 group",
  "nameIsFixed": true,
  "overrideProperties": [
    {
      "_class": "MSImmutableOverrideProperty",
      "canOverride": true,
      "overrideName": "BDBF2ED5-491C-4858-87CD-2640BFBBE4B5_symbolID"
    },
    {
      "_class": "MSImmutableOverrideProperty",
      "canOverride": true,
      "overrideName": "24E584B1-308C-48CD-B111-288596D5016A_symbolID"
    },
    {
      "_class": "MSImmutableOverrideProperty",
      "canOverride": true,
      "overrideName": "728D714B-A36E-42DD-804D-20CD7749F911_symbolID"
    },
    {
      "_class": "MSImmutableOverrideProperty",
      "canOverride": true,
      "overrideName": "AFC7A90F-FECC-4846-B668-82667A060119_symbolID"
    },
    {
      "_class": "MSImmutableOverrideProperty",
      "canOverride": true,
      "overrideName": "2DDEA718-8AF4-4355-89D7-A176A3A9A9FF_symbolID"
    },
    {
      "_class": "MSImmutableOverrideProperty",
      "canOverride": true,
      "overrideName": "65E50188-0C65-45C9-94AB-1CF33C78D19D_symbolID"
    },
    {
      "_class": "MSImmutableOverrideProperty",
      "canOverride": true,
      "overrideName": "A823E2CC-F39B-48D6-9BF4-5A09C9A9B3AF_symbolID"
    }
  ],
  "resizesContent": false,
  "resizingConstraint": 63,
  "resizingType": 0,
  "rotation": 0,
  "shouldBreakMaskChain": true,
  "style": {
    "_class": "style",
    "endMarkerType": 0,
    "miterLimit": 10,
    "startMarkerType": 0,
    "windingRule": 1
  },
  "symbolID": "AD36253F-029C-4609-BABB-9EA37D0D6AFA",
  "verticalRulerData": {
    "_class": "rulerData",
    "base": 0,
    "guides": [
    ]
  }
}