{
  "_class": "group",
  "booleanOperation": 0,
  "clippingMaskMode": 0,
  "do_objectID": "5E6F3B5E-1E95-4F66-964D-D20391572711",
  "exportOptions": {
    "_class": "exportOptions",
    "do_objectID": "56CEE8B1-3C50-40FD-9459-27306DA44517",
    "exportFormats": [
    ],
    "includedLayerIds": [
    ],
    "layerOptions": 0,
    "shouldTrim": false
  },
  "frame": {
    "_class": "rect",
    "constrainProportions": true,
    "do_objectID": "08A5A56C-4A9C-4A61-B8A1-07CBEF0C4440",
    "height": 24,
    "width": 25,
    "x": 5.8125,
    "y": 0
  },
  "groupLayout": {
    "_class": "MSImmutableFreeformGroupLayout",
    "do_objectID": "255E02B1-6F9D-48FD-9228-E0327896A702"
  },
  "hasClickThrough": false,
  "hasClippingMask": false,
  "isFixedToViewport": false,
  "isFlippedHorizontal": false,
  "isFlippedVertical": false,
  "isLocked": false,
  "isVisible": true,
  "layerListExpandedType": 0,
  "layers": [
    {
      "class": "shapePath",
      "id": "A6526A12-069A-49B3-8606-7946AFEC2B48"
    },
    {
      "class": "shapePath",
      "id": "75C14F7C-9D08-4279-BA8E-C382B7FD7F91"
    }
  ],
  "name": "upload",
  "nameIsFixed": false,
  "resizingConstraint": 63,
  "resizingType": 0,
  "rotation": 0,
  "shouldBreakMaskChain": false,
  "style": {
    "_class": "style",
    "do_objectID": "FF756282-91E6-4738-A178-E10D1C84C63A",
    "endMarkerType": 0,
    "miterLimit": 10,
    "startMarkerType": 0,
    "windingRule": 1
  }
}