{
  "_class": "text",
  "attributedString": {
    "_class": "attributedString",
    "attributes": [
      {
        "_class": "stringAttribute",
        "attributes": {
          "MSAttributedStringColorAttribute": {
            "_class": "color",
            "alpha": 1,
            "blue": 0.1772959184,
            "green": 0.1772959184,
            "red": 0.1772959184
          },
          "MSAttributedStringFontAttribute": {
            "_class": "UIFontDescriptor",
            "attributes": {
              "name": "Lato-Regular",
              "size": 14
            }
          },
          "kerning": 0,
          "paragraphStyle": {
            "_class": "paragraphStyle",
            "alignment": 0,
            "headIndent": 36,
            "maximumLineHeight": 20,
            "minimumLineHeight": 20,
            "tabStops": [
              {
                "_class": "textTab",
                "alignment": 0,
                "location": 11,
                "options": {
                }
              },
              {
                "_class": "textTab",
                "alignment": 0,
                "location": 36,
                "options": {
                }
              },
              {
                "_class": "textTab",
                "alignment": 0,
                "location": 56,
                "options": {
                }
              },
              {
                "_class": "textTab",
                "alignment": 0,
                "location": 85,
                "options": {
                }
              },
              {
                "_class": "textTab",
                "alignment": 0,
                "location": 113,
                "options": {
                }
              },
              {
                "_class": "textTab",
                "alignment": 0,
                "location": 141,
                "options": {
                }
              },
              {
                "_class": "textTab",
                "alignment": 0,
                "location": 170,
                "options": {
                }
              },
              {
                "_class": "textTab",
                "alignment": 0,
                "location": 198,
                "options": {
                }
              },
              {
                "_class": "textTab",
                "alignment": 0,
                "location": 226,
                "options": {
                }
              },
              {
                "_class": "textTab",
                "alignment": 0,
                "location": 255,
                "options": {
                }
              },
              {
                "_class": "textTab",
                "alignment": 0,
                "location": 283,
                "options": {
                }
              },
              {
                "_class": "textTab",
                "alignment": 0,
                "location": 311,
                "options": {
                }
              },
              {
                "_class": "textTab",
                "alignment": 0,
                "location": 340,
                "options": {
                }
              }
            ],
            "textLists": [
              {
                "_class": "textList",
                "listOptions": 0,
                "markerFormat": "{disc}"
              }
            ]
          }
        },
        "length": 110,
        "location": 0
      }
    ],
    "string": "\t• \tMachine wash up to 40ºc/104ºf  Do not bleach  \n\t• \tIron up to150ºc/302ºf  \n\t• \tDry clean Do not tumble dry"
  },
  "automaticallyDrawOnUnderlyingPath": false,
  "booleanOperation": 0,
  "clippingMaskMode": 0,
  "do_objectID": "2D8C9EC7-C826-41D0-AB6E-A9357EB0BEA0",
  "dontSynchroniseWithSymbol": false,
  "exportOptions": {
    "_class": "exportOptions",
    "do_objectID": "0E80315D-1C93-49C9-BA2A-1A4A1E73D3B1",
    "exportFormats": [
    ],
    "includedLayerIds": [
    ],
    "layerOptions": 0,
    "shouldTrim": false
  },
  "frame": {
    "_class": "rect",
    "constrainProportions": false,
    "do_objectID": "B8E8E1C9-22D0-4845-8210-0550341BF9A1",
    "height": 60,
    "width": 857,
    "x": 0,
    "y": 0
  },
  "glyphBounds": "{{0, 0}, {327, 60}}",
  "hasClippingMask": false,
  "isFixedToViewport": false,
  "isFlippedHorizontal": false,
  "isFlippedVertical": false,
  "isLocked": false,
  "isVisible": true,
  "layerListExpandedType": 0,
  "lineSpacingBehaviour": 2,
  "name": "• Machine wash up to",
  "nameIsFixed": false,
  "resizingConstraint": 63,
  "resizingType": 0,
  "rotation": 0,
  "sharedStyleID": "C05CA241-D7D0-425D-9207-72E0C4A08B69",
  "shouldBreakMaskChain": false,
  "style": {
    "_class": "style",
    "do_objectID": "58C42887-5CF4-436A-867D-CF15CBA37D4D",
    "endMarkerType": 0,
    "miterLimit": 10,
    "startMarkerType": 0,
    "textStyle": {
      "_class": "textStyle",
      "do_objectID": "AEE22BAE-2F4F-46AD-AF3D-2EEB35986BE0",
      "encodedAttributes": {
        "MSAttributedStringColorAttribute": {
          "_class": "color",
          "alpha": 1,
          "blue": 0.1772959184,
          "green": 0.1772959184,
          "red": 0.1772959184
        },
        "MSAttributedStringFontAttribute": {
          "_class": "UIFontDescriptor",
          "attributes": {
            "name": "Lato-Regular",
            "size": 14
          }
        },
        "kerning": 0,
        "paragraphStyle": {
          "_class": "paragraphStyle",
          "alignment": 0,
          "headIndent": 36,
          "maximumLineHeight": 20,
          "minimumLineHeight": 20,
          "tabStops": [
            {
              "_class": "textTab",
              "alignment": 0,
              "location": 11,
              "options": {
              }
            },
            {
              "_class": "textTab",
              "alignment": 0,
              "location": 36,
              "options": {
              }
            },
            {
              "_class": "textTab",
              "alignment": 0,
              "location": 56,
              "options": {
              }
            },
            {
              "_class": "textTab",
              "alignment": 0,
              "location": 85,
              "options": {
              }
            },
            {
              "_class": "textTab",
              "alignment": 0,
              "location": 113,
              "options": {
              }
            },
            {
              "_class": "textTab",
              "alignment": 0,
              "location": 141,
              "options": {
              }
            },
            {
              "_class": "textTab",
              "alignment": 0,
              "location": 170,
              "options": {
              }
            },
            {
              "_class": "textTab",
              "alignment": 0,
              "location": 198,
              "options": {
              }
            },
            {
              "_class": "textTab",
              "alignment": 0,
              "location": 226,
              "options": {
              }
            },
            {
              "_class": "textTab",
              "alignment": 0,
              "location": 255,
              "options": {
              }
            },
            {
              "_class": "textTab",
              "alignment": 0,
              "location": 283,
              "options": {
              }
            },
            {
              "_class": "textTab",
              "alignment": 0,
              "location": 311,
              "options": {
              }
            },
            {
              "_class": "textTab",
              "alignment": 0,
              "location": 340,
              "options": {
              }
            }
          ],
          "textLists": [
            {
              "_class": "textList",
              "listOptions": 0,
              "markerFormat": "{disc}"
            }
          ]
        }
      },
      "verticalAlignment": 0
    },
    "windingRule": 1
  },
  "textBehaviour": 1,
  "userInfo": {
    "com.invisionlabs.duplicate": {
      "type-duplicate": {
        "action": "article",
        "options": {
          "section": "cooking",
          "type": "body"
        },
        "title": "Cooking"
      }
    }
  }
}