{
  "_class": "shapePath",
  "booleanOperation": -1,
  "clippingMaskMode": 0,
  "do_objectID": "AC4630C5-343F-4533-A09B-0950C53E035B",
  "edited": true,
  "exportOptions": {
    "_class": "exportOptions",
    "exportFormats": [
    ],
    "includedLayerIds": [
    ],
    "layerOptions": 0,
    "shouldTrim": false
  },
  "frame": {
    "_class": "rect",
    "constrainProportions": false,
    "height": 15,
    "width": 15,
    "x": 1.249999999999998,
    "y": 1.249999999999998
  },
  "hasClippingMask": false,
  "isClosed": true,
  "isFixedToViewport": false,
  "isFlippedHorizontal": false,
  "isFlippedVertical": false,
  "isLocked": false,
  "isVisible": true,
  "layerListExpandedType": 0,
  "name": "Path",
  "nameIsFixed": false,
  "pointRadiusBehaviour": 1,
  "points": [
    {
      "_class": "curvePoint",
      "cornerRadius": 0,
      "curveFrom": "{0.22385762508460338, 0.99999999999999989}",
      "curveMode": 3,
      "curveTo": "{0.63260824491977197, 0.99999999999999989}",
      "hasCurveFrom": true,
      "hasCurveTo": true,
      "point": "{0.50000000000000011, 1}"
    },
    {
      "_class": "curvePoint",
      "cornerRadius": 0,
      "curveFrom": "{-3.7007434154171883e-17, 0.22385762508460336}",
      "curveMode": 2,
      "curveTo": "{3.7007434154171883e-17, 0.77614237491539662}",
      "hasCurveFrom": true,
      "hasCurveTo": true,
      "point": "{0, 0.50000000000000011}"
    },
    {
      "_class": "curvePoint",
      "cornerRadius": 0,
      "curveFrom": "{0.77614237491539662, -5.5511151231257821e-17}",
      "curveMode": 2,
      "curveTo": "{0.22385762508460316, 5.5511151231257821e-17}",
      "hasCurveFrom": true,
      "hasCurveTo": true,
      "point": "{0.49999999999999983, 0}"
    },
    {
      "_class": "curvePoint",
      "cornerRadius": 0,
      "curveFrom": "{1, 0.63260824491977163}",
      "curveMode": 3,
      "curveTo": "{1, 0.22385762508460313}",
      "hasCurveFrom": true,
      "hasCurveTo": true,
      "point": "{1, 0.49999999999999978}"
    },
    {
      "_class": "curvePoint",
      "cornerRadius": 0,
      "curveFrom": "{0.75978520136925665, 0.9473215798172907}",
      "curveMode": 2,
      "curveTo": "{0.94732157981729115, 0.75978520136925609}",
      "hasCurveFrom": true,
      "hasCurveTo": true,
      "point": "{0.85355339059327395, 0.8535533905932734}"
    }
  ],
  "resizingConstraint": 63,
  "resizingType": 0,
  "rotation": 0,
  "shouldBreakMaskChain": false,
  "style": {
    "_class": "style",
    "borders": [
      {
        "_class": "border",
        "color": {
          "_class": "color",
          "alpha": 1,
          "blue": 1,
          "green": 0.4069551527500153,
          "red": 0
        },
        "fillType": 0,
        "isEnabled": true,
        "position": 0,
        "thickness": 2
      }
    ],
    "endMarkerType": 0,
    "fills": [
      {
        "_class": "fill",
        "color": {
          "_class": "color",
          "alpha": 1,
          "blue": 0,
          "green": 0,
          "red": 0
        },
        "fillType": 0,
        "isEnabled": true,
        "noiseIndex": 0,
        "noiseIntensity": 0,
        "patternFillType": 1,
        "patternTileScale": 1
      }
    ],
    "miterLimit": 10,
    "startMarkerType": 0,
    "windingRule": 0
  }
}