{
  "_class": "shapePath",
  "booleanOperation": -1,
  "clippingMaskMode": 0,
  "do_objectID": "6E814405-9B75-4DA2-911E-0A78CD0B3022",
  "edited": true,
  "exportOptions": {
    "_class": "exportOptions",
    "do_objectID": "91548DA7-763A-4555-A518-0519A105D228",
    "exportFormats": [
    ],
    "includedLayerIds": [
    ],
    "layerOptions": 0,
    "shouldTrim": false
  },
  "frame": {
    "_class": "rect",
    "constrainProportions": false,
    "do_objectID": "76810F85-E609-493D-AF79-D8502BC44B96",
    "height": 67.21378744357813,
    "width": 16.7074271645466,
    "x": 56.1501846532621,
    "y": 0.0960196963479725
  },
  "hasClippingMask": false,
  "isClosed": true,
  "isFixedToViewport": false,
  "isFlippedHorizontal": false,
  "isFlippedVertical": false,
  "isLocked": false,
  "isVisible": true,
  "layerListExpandedType": 0,
  "name": "Path",
  "nameIsFixed": false,
  "pointRadiusBehaviour": 0,
  "points": [
    {
      "_class": "curvePoint",
      "cornerRadius": 0,
      "curveFrom": "{1, 0.67142857142857126}",
      "curveMode": 1,
      "curveTo": "{1, 0.67142857142857126}",
      "hasCurveFrom": false,
      "hasCurveTo": false,
      "point": "{1, 0.67142857142857126}"
    },
    {
      "_class": "curvePoint",
      "cornerRadius": 0,
      "curveFrom": "{1, 1}",
      "curveMode": 1,
      "curveTo": "{1, 1}",
      "hasCurveFrom": false,
      "hasCurveTo": false,
      "point": "{1, 1}"
    },
    {
      "_class": "curvePoint",
      "cornerRadius": 0,
      "curveFrom": "{0, 1}",
      "curveMode": 1,
      "curveTo": "{0, 1}",
      "hasCurveFrom": false,
      "hasCurveTo": false,
      "point": "{0, 1}"
    },
    {
      "_class": "curvePoint",
      "cornerRadius": 0,
      "curveFrom": "{0, 0}",
      "curveMode": 1,
      "curveTo": "{0, 0}",
      "hasCurveFrom": false,
      "hasCurveTo": false,
      "point": "{0, 0}"
    },
    {
      "_class": "curvePoint",
      "cornerRadius": 0,
      "curveFrom": "{1, 0}",
      "curveMode": 1,
      "curveTo": "{1, 0}",
      "hasCurveFrom": false,
      "hasCurveTo": false,
      "point": "{1, 0}"
    },
    {
      "_class": "curvePoint",
      "cornerRadius": 0,
      "curveFrom": "{1, 0.32999999999999913}",
      "curveMode": 1,
      "curveTo": "{1, 0.32999999999999913}",
      "hasCurveFrom": false,
      "hasCurveTo": false,
      "point": "{1, 0.32999999999999913}"
    },
    {
      "_class": "curvePoint",
      "cornerRadius": 0,
      "curveFrom": "{0.78735632183908177, 0.32999999999999913}",
      "curveMode": 1,
      "curveTo": "{0.78735632183908177, 0.32999999999999913}",
      "hasCurveFrom": false,
      "hasCurveTo": false,
      "point": "{0.78735632183908177, 0.32999999999999913}"
    },
    {
      "_class": "curvePoint",
      "cornerRadius": 0,
      "curveFrom": "{0.78735632183908177, 0.05285714285714263}",
      "curveMode": 1,
      "curveTo": "{0.78735632183908177, 0.05285714285714263}",
      "hasCurveFrom": false,
      "hasCurveTo": false,
      "point": "{0.78735632183908177, 0.05285714285714263}"
    },
    {
      "_class": "curvePoint",
      "cornerRadius": 0,
      "curveFrom": "{0.20689655172413637, 0.05285714285714263}",
      "curveMode": 1,
      "curveTo": "{0.20689655172413637, 0.05285714285714263}",
      "hasCurveFrom": false,
      "hasCurveTo": false,
      "point": "{0.20689655172413637, 0.05285714285714263}"
    },
    {
      "_class": "curvePoint",
      "cornerRadius": 0,
      "curveFrom": "{0.20689655172413637, 0.9471428571428574}",
      "curveMode": 1,
      "curveTo": "{0.20689655172413637, 0.9471428571428574}",
      "hasCurveFrom": false,
      "hasCurveTo": false,
      "point": "{0.20689655172413637, 0.9471428571428574}"
    },
    {
      "_class": "curvePoint",
      "cornerRadius": 0,
      "curveFrom": "{0.78735632183908177, 0.9471428571428574}",
      "curveMode": 1,
      "curveTo": "{0.78735632183908177, 0.9471428571428574}",
      "hasCurveFrom": false,
      "hasCurveTo": false,
      "point": "{0.78735632183908177, 0.9471428571428574}"
    },
    {
      "_class": "curvePoint",
      "cornerRadius": 0,
      "curveFrom": "{0.78735632183908177, 0.67142857142857126}",
      "curveMode": 1,
      "curveTo": "{0.78735632183908177, 0.67142857142857126}",
      "hasCurveFrom": false,
      "hasCurveTo": false,
      "point": "{0.78735632183908177, 0.67142857142857126}"
    }
  ],
  "resizingConstraint": 63,
  "resizingType": 0,
  "rotation": 0,
  "shouldBreakMaskChain": false,
  "style": {
    "_class": "style",
    "do_objectID": "8ED53180-DE49-45B2-9A68-7728440C06BD",
    "endMarkerType": 0,
    "fills": [
      {
        "_class": "fill",
        "color": {
          "_class": "color",
          "alpha": 1,
          "blue": 0.419607843137255,
          "green": 0.615686274509804,
          "red": 0.7254901960784313
        },
        "fillType": 1,
        "gradient": {
          "_class": "gradient",
          "elipseLength": 0,
          "from": "{2.7755575615628914e-16, 0.075306725971607924}",
          "gradientType": 0,
          "stops": [
            {
              "_class": "gradientStop",
              "color": {
                "_class": "color",
                "alpha": 1,
                "blue": 0.9265252976190477,
                "green": 0.5401791888111952,
                "red": 0.1870671538792877
              },
              "position": 0
            },
            {
              "_class": "gradientStop",
              "color": {
                "_class": "color",
                "alpha": 1,
                "blue": 0.9598121951227108,
                "green": 0.583983142381141,
                "red": 0.7261670768607007
              },
              "position": 0.3686598617851218
            },
            {
              "_class": "gradientStop",
              "color": {
                "_class": "color",
                "alpha": 1,
                "blue": 0.9678996598639455,
                "green": 0.5946258563794835,
                "red": 0.8571480917971271
              },
              "position": 0.6586645592181204
            },
            {
              "_class": "gradientStop",
              "color": {
                "_class": "color",
                "alpha": 1,
                "blue": 0.9143597368024587,
                "green": 0.6776316662260651,
                "red": 0.5366447696147074
              },
              "position": 0.7729254689422581
            },
            {
              "_class": "gradientStop",
              "color": {
                "_class": "color",
                "alpha": 1,
                "blue": 0.8784313725490196,
                "green": 0.7333333333333334,
                "red": 0.3215686274509803
              },
              "position": 1
            }
          ],
          "to": "{0.96123888685135161, 1}"
        },
        "isEnabled": true,
        "noiseIndex": 0,
        "noiseIntensity": 0,
        "patternFillType": 1,
        "patternTileScale": 1
      }
    ],
    "miterLimit": 10,
    "shadows": [
      {
        "_class": "shadow",
        "blurRadius": 2,
        "color": {
          "_class": "color",
          "alpha": 0.5,
          "blue": 0.7906303146258503,
          "green": 0.7906303146258503,
          "red": 0.7906303146258503
        },
        "contextSettings": {
          "_class": "graphicsContextSettings",
          "blendMode": 0,
          "opacity": 1
        },
        "isEnabled": true,
        "offsetX": 0,
        "offsetY": 10,
        "spread": 0
      }
    ],
    "startMarkerType": 0,
    "textStyle": {
      "_class": "textStyle",
      "do_objectID": "556F6275-1568-4341-8707-804CB1A6265D",
      "encodedAttributes": {
        "MSAttributedStringColorAttribute": {
          "_class": "color",
          "alpha": 1,
          "blue": 0.1764705882,
          "green": 0.1764705882,
          "red": 0.1764705882
        },
        "MSAttributedStringFontAttribute": {
          "_class": "UIFontDescriptor",
          "attributes": {
            "name": "ArgonPERSONAL-Regular",
            "size": 72
          }
        },
        "kerning": 2,
        "paragraphStyle": {
          "_class": "paragraphStyle",
          "alignment": 2
        }
      },
      "verticalAlignment": 0
    },
    "windingRule": 1
  }
}