{
  "_class": "symbolInstance",
  "booleanOperation": -1,
  "clippingMaskMode": 0,
  "do_objectID": "82C9409E-1725-481F-B735-E353AEBAB69C",
  "exportOptions": {
    "_class": "exportOptions",
    "exportFormats": [
    ],
    "includedLayerIds": [
    ],
    "layerOptions": 0,
    "shouldTrim": false
  },
  "frame": {
    "_class": "rect",
    "constrainProportions": false,
    "height": 65,
    "width": 304,
    "x": 352,
    "y": 222
  },
  "hasClippingMask": false,
  "horizontalSpacing": 0,
  "isFixedToViewport": false,
  "isFlippedHorizontal": false,
  "isFlippedVertical": false,
  "isLocked": false,
  "isVisible": true,
  "layerListExpandedType": 0,
  "name": "Text input",
  "nameIsFixed": true,
  "overrideValues": [
    {
      "_class": "overrideValue",
      "overrideName": "C3398458-07A2-4E15-BB5F-2E2EC96E3428_stringValue",
      "value": "Label"
    },
    {
      "_class": "overrideValue",
      "overrideName": "E2123813-553B-4189-98EF-F5B29FB9784C_stringValue",
      "value": "Input text"
    }
  ],
  "resizingConstraint": 15,
  "resizingType": 0,
  "rotation": 0,
  "scale": 1,
  "shouldBreakMaskChain": false,
  "style": {
    "_class": "style",
    "endMarkerType": 0,
    "miterLimit": 10,
    "startMarkerType": 0,
    "windingRule": 1
  },
  "symbolID": "BCCA25FB-136E-49AC-A7EB-E87EEE48BC99",
  "verticalSpacing": 0
}