{
  "_class": "symbolInstance",
  "booleanOperation": -1,
  "clippingMaskMode": 0,
  "do_objectID": "17270092-D905-4036-B9EF-2BC1B5765EDB",
  "exportOptions": {
    "_class": "exportOptions",
    "do_objectID": "A2CC14A9-31FA-4AD0-9E24-7D53D1CFAF07",
    "exportFormats": [
    ],
    "includedLayerIds": [
    ],
    "layerOptions": 0,
    "shouldTrim": false
  },
  "frame": {
    "_class": "rect",
    "constrainProportions": false,
    "do_objectID": "298A9E76-F229-4953-A23A-653881175493",
    "height": 239,
    "width": 544,
    "x": 96,
    "y": 56
  },
  "hasClippingMask": false,
  "horizontalSpacing": 0,
  "isFixedToViewport": false,
  "isFlippedHorizontal": false,
  "isFlippedVertical": false,
  "isLocked": false,
  "isVisible": true,
  "layerListExpandedType": 0,
  "name": "Modal / transactional-label",
  "nameIsFixed": false,
  "overrideValues": [
  ],
  "resizingConstraint": 63,
  "resizingType": 0,
  "rotation": 0,
  "scale": 1,
  "shouldBreakMaskChain": false,
  "style": {
    "_class": "style",
    "do_objectID": "20773553-C878-4DE4-AE64-D5FDC85BD233",
    "endMarkerType": 0,
    "miterLimit": 10,
    "startMarkerType": 0,
    "windingRule": 1
  },
  "symbolID": "30ABEBFD-F42D-46CD-B54E-D933BAACE4AD",
  "verticalSpacing": 0
}