{
  "_class": "symbolInstance",
  "booleanOperation": 0,
  "clippingMaskMode": 0,
  "do_objectID": "9F2D59DB-1931-45AC-9D33-7AD62581C7D3",
  "exportOptions": {
    "_class": "exportOptions",
    "do_objectID": "B6647EB0-5772-4FEE-BDAD-8337C7CB3CC6",
    "exportFormats": [
    ],
    "includedLayerIds": [
    ],
    "layerOptions": 0,
    "shouldTrim": false
  },
  "frame": {
    "_class": "rect",
    "constrainProportions": false,
    "do_objectID": "8C8B5D6E-FCA5-4059-858D-A500671F9B40",
    "height": 40,
    "width": 470,
    "x": 0,
    "y": 0
  },
  "hasClippingMask": false,
  "horizontalSpacing": 0,
  "isFixedToViewport": false,
  "isFlippedHorizontal": false,
  "isFlippedVertical": false,
  "isLocked": false,
  "isVisible": true,
  "layerListExpandedType": 0,
  "name": "Item 1",
  "nameIsFixed": true,
  "overrideValues": [
    {
      "_class": "overrideValue",
      "overrideName": "7C0FD95F-06F2-40E9-A225-931039EF3AE1/C2891ED0-9CED-4950-AF45-3EBE98B3099E_stringValue",
      "value": "Title 2"
    }
  ],
  "resizingConstraint": 11,
  "resizingType": 0,
  "rotation": 0,
  "scale": 1,
  "shouldBreakMaskChain": false,
  "style": {
    "_class": "style",
    "do_objectID": "0992128C-7943-4A8C-81B1-86943417B3FC",
    "endMarkerType": 0,
    "miterLimit": 10,
    "startMarkerType": 0,
    "windingRule": 1
  },
  "symbolID": "815FD594-3385-4648-AC6D-4A5421F6CE66",
  "verticalSpacing": 0
}