{
  "_class": "symbolInstance",
  "booleanOperation": 0,
  "clippingMaskMode": 0,
  "do_objectID": "CC6E05C0-CE39-4EA7-98C9-4DF247F80E15",
  "exportOptions": {
    "_class": "exportOptions",
    "do_objectID": "7F8908E5-DD5C-4239-8FD5-FBC1CB85D528",
    "exportFormats": [
    ],
    "includedLayerIds": [
    ],
    "layerOptions": 0,
    "shouldTrim": false
  },
  "frame": {
    "_class": "rect",
    "constrainProportions": false,
    "do_objectID": "EDF2BBCF-0918-4357-97AD-D794CCE93D51",
    "height": 500,
    "width": 1366,
    "x": 0,
    "y": 67
  },
  "hasClippingMask": false,
  "horizontalSpacing": 0,
  "isFixedToViewport": false,
  "isFlippedHorizontal": false,
  "isFlippedVertical": false,
  "isLocked": false,
  "isVisible": true,
  "layerListExpandedType": 0,
  "name": "Hero Banner",
  "nameIsFixed": false,
  "overrideValues": [
    {
      "_class": "overrideValue",
      "overrideName": "4B9DBD45-4CDE-4B96-B432-692138E8C3E4_image",
      "value": {
        "_class": "MSJSONFileReference",
        "_ref": "images/e7415bac5b6011aff718d52fb2bf1340a0fbbec3.png",
        "_ref_class": "MSImageData"
      }
    }
  ],
  "resizingConstraint": 63,
  "resizingType": 0,
  "rotation": 0,
  "scale": 1,
  "shouldBreakMaskChain": false,
  "style": {
    "_class": "style",
    "do_objectID": "7F618974-5497-432D-B2A0-0BB7417DDEB3",
    "endMarkerType": 0,
    "miterLimit": 10,
    "startMarkerType": 0,
    "windingRule": 1
  },
  "symbolID": "19F22830-6CB2-4F7E-95EC-BA79C0B1FF8E",
  "verticalSpacing": 0
}