{
  "_class": "oval",
  "booleanOperation": -1,
  "clippingMaskMode": 0,
  "do_objectID": "93CC94E3-0AB0-4536-A9D8-979237836E05",
  "edited": false,
  "exportOptions": {
    "_class": "exportOptions",
    "do_objectID": "EEDDD1BB-4AE0-4954-ABB4-46247C6EADDC",
    "exportFormats": [
    ],
    "includedLayerIds": [
    ],
    "layerOptions": 0,
    "shouldTrim": false
  },
  "frame": {
    "_class": "rect",
    "constrainProportions": true,
    "do_objectID": "CCE2B482-821F-4B48-91A3-7EF556178169",
    "height": 37.54079986572265,
    "width": 37.54079986572265,
    "x": 0.3608300781251654,
    "y": 0.3607763671875004
  },
  "hasClippingMask": false,
  "isClosed": true,
  "isFixedToViewport": false,
  "isFlippedHorizontal": false,
  "isFlippedVertical": false,
  "isLocked": false,
  "isVisible": true,
  "layerListExpandedType": 0,
  "name": "pink icon",
  "nameIsFixed": true,
  "pointRadiusBehaviour": 0,
  "points": [
    {
      "_class": "curvePoint",
      "cornerRadius": 0,
      "curveFrom": "{0.77614237489999882, 0.99999999999999845}",
      "curveMode": 2,
      "curveTo": "{0.22385762509999965, 0.99999999999999845}",
      "hasCurveFrom": true,
      "hasCurveTo": true,
      "point": "{0.49999999999999922, 0.99999999999999845}"
    },
    {
      "_class": "curvePoint",
      "cornerRadius": 0,
      "curveFrom": "{0.99999999999999845, 0.22385762509999965}",
      "curveMode": 2,
      "curveTo": "{0.99999999999999845, 0.77614237489999882}",
      "hasCurveFrom": true,
      "hasCurveTo": true,
      "point": "{0.99999999999999845, 0.49999999999999922}"
    },
    {
      "_class": "curvePoint",
      "cornerRadius": 0,
      "curveFrom": "{0.22385762509999965, 0}",
      "curveMode": 2,
      "curveTo": "{0.77614237489999882, 0}",
      "hasCurveFrom": true,
      "hasCurveTo": true,
      "point": "{0.49999999999999922, 0}"
    },
    {
      "_class": "curvePoint",
      "cornerRadius": 0,
      "curveFrom": "{0, 0.77614237489999882}",
      "curveMode": 2,
      "curveTo": "{0, 0.22385762509999965}",
      "hasCurveFrom": true,
      "hasCurveTo": true,
      "point": "{0, 0.49999999999999922}"
    }
  ],
  "resizingConstraint": 63,
  "resizingType": 0,
  "rotation": 0,
  "shouldBreakMaskChain": false,
  "style": {
    "_class": "style",
    "do_objectID": "5CEDC7C2-DCBA-4040-A624-232D15413220",
    "endMarkerType": 0,
    "fills": [
      {
        "_class": "fill",
        "color": {
          "_class": "color",
          "alpha": 1,
          "blue": 0,
          "green": 0.6235294117647059,
          "red": 1
        },
        "fillType": 0,
        "gradient": {
          "_class": "gradient",
          "elipseLength": 0,
          "from": "{0.5, 0.014992203924964738}",
          "gradientType": 0,
          "stops": [
            {
              "_class": "gradientStop",
              "color": {
                "_class": "color",
                "alpha": 1,
                "blue": 0.5647058823529413,
                "green": 0.1647058823529411,
                "red": 0.8470588235294118
              },
              "position": 0
            },
            {
              "_class": "gradientStop",
              "color": {
                "_class": "color",
                "alpha": 1,
                "blue": 0.5023573170124894,
                "green": 0.1346651034151034,
                "red": 0.7619047619047619
              },
              "position": 1
            }
          ],
          "to": "{0.5, 0.98076769770408168}"
        },
        "isEnabled": true,
        "noiseIndex": 0,
        "noiseIntensity": 0,
        "patternFillType": 0,
        "patternTileScale": 1
      }
    ],
    "miterLimit": 10,
    "shadows": [
      {
        "_class": "shadow",
        "blurRadius": 2,
        "color": {
          "_class": "color",
          "alpha": 1,
          "blue": 0.8658854166666666,
          "green": 0.8658854166666666,
          "red": 0.8658854166666666
        },
        "contextSettings": {
          "_class": "graphicsContextSettings",
          "blendMode": 0,
          "opacity": 1
        },
        "isEnabled": true,
        "offsetX": 0,
        "offsetY": 2,
        "spread": 0
      }
    ],
    "startMarkerType": 0,
    "windingRule": 1
  }
}