{
  "_class": "symbolInstance",
  "booleanOperation": -1,
  "clippingMaskMode": 0,
  "do_objectID": "8433265B-366D-40CD-B2D8-12AEC8554861",
  "exportOptions": {
    "_class": "exportOptions",
    "do_objectID": "50E7D387-8936-4DC8-A8A6-98B3E99DA9FE",
    "exportFormats": [
    ],
    "includedLayerIds": [
    ],
    "layerOptions": 0,
    "shouldTrim": false
  },
  "frame": {
    "_class": "rect",
    "constrainProportions": false,
    "do_objectID": "1FCCFB26-8770-4A44-9A5D-7F30FB4F5549",
    "height": 20,
    "width": 20,
    "x": 140,
    "y": 406
  },
  "hasClippingMask": false,
  "horizontalSpacing": 0,
  "isFixedToViewport": false,
  "isFlippedHorizontal": false,
  "isFlippedVertical": false,
  "isLocked": false,
  "isVisible": true,
  "layerListExpandedType": 0,
  "name": "cursor/Pointer/default",
  "nameIsFixed": true,
  "overrideValues": [
  ],
  "resizingConstraint": 63,
  "resizingType": 0,
  "rotation": 0,
  "scale": 1,
  "shouldBreakMaskChain": false,
  "style": {
    "_class": "style",
    "do_objectID": "20800CC4-DA39-4BAD-815F-36A4C1246CE5",
    "endMarkerType": 0,
    "miterLimit": 10,
    "startMarkerType": 0,
    "windingRule": 1
  },
  "symbolID": "E9DD5BC7-8CE9-4C26-B880-0CB069706D1F",
  "verticalSpacing": 0
}