{
  "_class": "symbolInstance",
  "booleanOperation": -1,
  "clippingMaskMode": 0,
  "do_objectID": "31181BFC-E2DC-42AB-8D5F-9E79BEC3E773",
  "exportOptions": {
    "_class": "exportOptions",
    "do_objectID": "6002CB9D-26E3-48A8-9C1F-2A21F68B57CF",
    "exportFormats": [
    ],
    "includedLayerIds": [
    ],
    "layerOptions": 0,
    "shouldTrim": false
  },
  "frame": {
    "_class": "rect",
    "constrainProportions": false,
    "do_objectID": "464DC83C-3577-49E1-8A34-CD2561C433E3",
    "height": 20,
    "width": 20,
    "x": 16,
    "y": 16
  },
  "hasClippingMask": false,
  "horizontalSpacing": 0,
  "isFixedToViewport": false,
  "isFlippedHorizontal": false,
  "isFlippedVertical": false,
  "isLocked": true,
  "isVisible": true,
  "layerListExpandedType": 0,
  "name": "icon",
  "nameIsFixed": true,
  "overrideValues": [
    {
      "_class": "overrideValue",
      "do_objectID": "91A6AA19-082B-491D-B572-3EDEE464AAC5",
      "overrideName": "58DA7DB0-3AC1-4EE5-9617-89163527FD30_layerStyle",
      "value": "4924B3FB-A922-4416-8B87-FEC904FA9809"
    }
  ],
  "resizingConstraint": 9,
  "resizingType": 0,
  "rotation": 0,
  "scale": 1,
  "shouldBreakMaskChain": false,
  "style": {
    "_class": "style",
    "do_objectID": "0FAB05A2-BADD-4412-85ED-96150F40B19C",
    "endMarkerType": 0,
    "miterLimit": 10,
    "startMarkerType": 0,
    "windingRule": 1
  },
  "symbolID": "5F1605F1-5852-404A-9DC4-D27CA57E5A79",
  "verticalSpacing": 0
}