{
  "_class": "group",
  "booleanOperation": -1,
  "clippingMaskMode": 0,
  "do_objectID": "8E984555-4D08-463B-806B-AC5EC1849107",
  "exportOptions": {
    "_class": "exportOptions",
    "exportFormats": [
    ],
    "includedLayerIds": [
    ],
    "layerOptions": 0,
    "shouldTrim": false
  },
  "frame": {
    "_class": "rect",
    "constrainProportions": false,
    "height": 2434,
    "width": 226,
    "x": 480,
    "y": 262
  },
  "groupLayout": {
    "_class": "MSImmutableFreeformGroupLayout"
  },
  "hasClickThrough": false,
  "hasClippingMask": false,
  "isFixedToViewport": false,
  "isFlippedHorizontal": false,
  "isFlippedVertical": false,
  "isLocked": false,
  "isVisible": true,
  "layerListExpandedType": 0,
  "layers": [
    {
      "class": "symbolInstance",
      "id": "370947BC-9BC7-42FC-9A65-8164408EF571"
    },
    {
      "class": "symbolInstance",
      "id": "CD33617A-E787-439A-815D-DF4D4251B030"
    },
    {
      "class": "symbolInstance",
      "id": "6B9DCCA7-C983-4698-814B-4F483B4B62AF"
    },
    {
      "class": "symbolInstance",
      "id": "7ECBD597-861D-4D71-B8BD-1E2D193EA2EB"
    },
    {
      "class": "symbolInstance",
      "id": "6F6D98A4-4995-4257-8915-02C688167C9E"
    },
    {
      "class": "symbolInstance",
      "id": "E153240D-7C07-4EC3-9070-1262FFE193C3"
    },
    {
      "class": "symbolInstance",
      "id": "531498D4-24A4-4B5C-9DD0-161F0667DB17"
    },
    {
      "class": "symbolInstance",
      "id": "CF35A189-84B6-4025-A812-AE84588509FC"
    },
    {
      "class": "symbolInstance",
      "id": "D9DCB8C8-6F07-4D46-8A07-8D85114CFD53"
    },
    {
      "class": "symbolInstance",
      "id": "774083ED-0D4E-49DF-A321-1D86DF989384"
    },
    {
      "class": "symbolInstance",
      "id": "F5707411-0857-4DC3-BB93-C1EF9F75ADCA"
    },
    {
      "class": "symbolInstance",
      "id": "851FBA25-DB2A-41EB-93A5-1A790E03832B"
    },
    {
      "class": "symbolInstance",
      "id": "E86B3FF3-EF13-43FC-AB40-66A2424CD4FF"
    }
  ],
  "name": "Combo box no label",
  "nameIsFixed": true,
  "resizingConstraint": 63,
  "resizingType": 0,
  "rotation": 0,
  "shouldBreakMaskChain": false,
  "style": {
    "_class": "style",
    "endMarkerType": 0,
    "miterLimit": 10,
    "startMarkerType": 0,
    "windingRule": 1
  }
}