{
  "_class": "bitmap",
  "booleanOperation": 0,
  "clippingMask": "{{0, 0}, {1, 1}}",
  "clippingMaskMode": 0,
  "do_objectID": "0EBD11B2-575A-4DF0-ADA4-9058F7A4FAF4",
  "exportOptions": {
    "_class": "exportOptions",
    "do_objectID": "BDCFD303-2E24-4EC8-A3F5-9E073AF866D2",
    "exportFormats": [
    ],
    "includedLayerIds": [
    ],
    "layerOptions": 0,
    "shouldTrim": false
  },
  "fillReplacesImage": false,
  "frame": {
    "_class": "rect",
    "constrainProportions": true,
    "do_objectID": "DE216B59-898A-452B-9B3F-7F65BE199D92",
    "height": 47.65077138849922,
    "width": 112.2449612403097,
    "x": 501.925581395349,
    "y": 85.77138849929882
  },
  "hasClippingMask": false,
  "image": {
    "_class": "MSJSONFileReference",
    "_ref": "images/7db64b44b442ab2aa092e6d7e2bbd56ea1fdbf6a.png",
    "_ref_class": "MSImageData"
  },
  "intendedDPI": 0,
  "isFixedToViewport": false,
  "isFlippedHorizontal": false,
  "isFlippedVertical": false,
  "isLocked": false,
  "isVisible": true,
  "layerListExpandedType": 0,
  "name": "Screen Shot 2017-04-05 at 5.14.17 PM",
  "nameIsFixed": false,
  "resizingConstraint": 63,
  "resizingType": 0,
  "rotation": 0,
  "shouldBreakMaskChain": false,
  "style": {
    "_class": "style",
    "do_objectID": "2F502110-95BC-4F73-9C9B-9DCAFAFA29A7",
    "endMarkerType": 0,
    "miterLimit": 10,
    "startMarkerType": 0,
    "windingRule": 1
  }
}