{
  "_class": "symbolInstance",
  "booleanOperation": -1,
  "clippingMaskMode": 0,
  "do_objectID": "02158E4C-C2E3-4DD7-93A4-EC514650DEF4",
  "exportOptions": {
    "_class": "exportOptions",
    "do_objectID": "1B5F373F-FCBE-447F-BB9F-57F609C97F12",
    "exportFormats": [
    ],
    "includedLayerIds": [
    ],
    "layerOptions": 0,
    "shouldTrim": false
  },
  "frame": {
    "_class": "rect",
    "constrainProportions": false,
    "do_objectID": "2E74E625-70D6-48D4-9EE8-B27D986F36BD",
    "height": 40,
    "width": 226,
    "x": 0,
    "y": 492
  },
  "hasClippingMask": false,
  "horizontalSpacing": 0,
  "isFixedToViewport": false,
  "isFlippedHorizontal": false,
  "isFlippedVertical": false,
  "isLocked": false,
  "isVisible": true,
  "layerListExpandedType": 0,
  "name": "component / dropdown / no label / multi-select / closed / 04 selected",
  "nameIsFixed": false,
  "overrideValues": [
  ],
  "resizingConstraint": 63,
  "resizingType": 0,
  "rotation": 0,
  "scale": 1,
  "shouldBreakMaskChain": false,
  "style": {
    "_class": "style",
    "do_objectID": "C2098E8A-048D-4051-B04D-3F4E148305E1",
    "endMarkerType": 0,
    "miterLimit": 10,
    "startMarkerType": 0,
    "windingRule": 1
  },
  "symbolID": "5D5E6FA9-049A-4103-92D8-A186B05B09C2",
  "verticalSpacing": 0
}