{
  "_class": "symbolInstance",
  "booleanOperation": -1,
  "clippingMaskMode": 0,
  "do_objectID": "E4CF21CA-4052-4AEC-83EE-02A89A07D9FE",
  "exportOptions": {
    "_class": "exportOptions",
    "do_objectID": "175031FD-02F1-4BC9-8B6F-C7171D06B047",
    "exportFormats": [
    ],
    "includedLayerIds": [
    ],
    "layerOptions": 0,
    "shouldTrim": false
  },
  "frame": {
    "_class": "rect",
    "constrainProportions": false,
    "do_objectID": "67BF2657-3598-4934-BAF6-5BB0DD243573",
    "height": 184,
    "width": 226,
    "x": 0,
    "y": 1671
  },
  "hasClippingMask": false,
  "horizontalSpacing": 0,
  "isFixedToViewport": false,
  "isFlippedHorizontal": false,
  "isFlippedVertical": false,
  "isLocked": false,
  "isVisible": true,
  "layerListExpandedType": 0,
  "name": "component / dropdown / 02 combo box / 01 label / open / 04 item hover",
  "nameIsFixed": false,
  "overrideValues": [
  ],
  "resizingConstraint": 63,
  "resizingType": 0,
  "rotation": 0,
  "scale": 1,
  "shouldBreakMaskChain": false,
  "style": {
    "_class": "style",
    "do_objectID": "013BF5AB-8287-456F-A31B-14E43CFD39BA",
    "endMarkerType": 0,
    "miterLimit": 10,
    "startMarkerType": 0,
    "windingRule": 1
  },
  "symbolID": "DF46C2BD-161F-4BAE-BFC2-FFDC3D856EB2",
  "verticalSpacing": 0
}