{
  "_class": "group",
  "booleanOperation": 0,
  "clippingMaskMode": 0,
  "do_objectID": "FC56B156-2326-4F96-8915-DEA8BA4CD2C2",
  "exportOptions": {
    "_class": "exportOptions",
    "do_objectID": "753BC83A-3412-4970-96CA-ED20C70DC65C",
    "exportFormats": [
    ],
    "includedLayerIds": [
    ],
    "layerOptions": 0,
    "shouldTrim": false
  },
  "frame": {
    "_class": "rect",
    "constrainProportions": true,
    "do_objectID": "210783AE-D5D3-48DA-A116-B683B1765EF0",
    "height": 19,
    "width": 20,
    "x": 115,
    "y": 0
  },
  "groupLayout": {
    "_class": "MSImmutableFreeformGroupLayout",
    "do_objectID": "98CFA9E4-D591-4B36-84C1-9119C4E1D025"
  },
  "hasClickThrough": false,
  "hasClippingMask": false,
  "isFixedToViewport": false,
  "isFlippedHorizontal": false,
  "isFlippedVertical": false,
  "isLocked": false,
  "isVisible": true,
  "layerListExpandedType": 0,
  "layers": [
    {
      "class": "shapeGroup",
      "id": "E509C40A-8B60-4423-9732-3DB92488E4E3"
    }
  ],
  "name": "star half icon",
  "nameIsFixed": true,
  "resizingConstraint": 63,
  "resizingType": 0,
  "rotation": 0,
  "shouldBreakMaskChain": false,
  "style": {
    "_class": "style",
    "do_objectID": "84276AD0-1059-4540-8764-2CFAB6CB8B92",
    "endMarkerType": 0,
    "miterLimit": 10,
    "startMarkerType": 0,
    "windingRule": 1
  }
}