{
  "_class": "shapePath",
  "booleanOperation": -1,
  "clippingMaskMode": 0,
  "do_objectID": "96EC5C2C-6786-4CC7-A300-B3F2536D5162",
  "edited": true,
  "exportOptions": {
    "_class": "exportOptions",
    "exportFormats": [
    ],
    "includedLayerIds": [
    ],
    "layerOptions": 0,
    "shouldTrim": false
  },
  "frame": {
    "_class": "rect",
    "constrainProportions": false,
    "height": 6.879907390000002,
    "width": 6.344838000000001,
    "x": 0,
    "y": 0
  },
  "hasClippingMask": false,
  "isClosed": true,
  "isFixedToViewport": false,
  "isFlippedHorizontal": false,
  "isFlippedVertical": false,
  "isLocked": false,
  "isVisible": true,
  "layerListExpandedType": 0,
  "maintainScrollPosition": false,
  "name": "Shape-path",
  "nameIsFixed": false,
  "pointRadiusBehaviour": 1,
  "points": [
    {
      "_class": "curvePoint",
      "cornerRadius": 0,
      "curveFrom": "{0.80493766743926332, 0.66478809971306896}",
      "curveMode": 4,
      "curveTo": "{0.74333902615007696, 0.74819657565187081}",
      "hasCurveFrom": false,
      "hasCurveTo": true,
      "point": "{0.80493766743926332, 0.66478809971306896}"
    },
    {
      "_class": "curvePoint",
      "cornerRadius": 0,
      "curveFrom": "{0.93009044517763828, 0.8597835922323368}",
      "curveMode": 4,
      "curveTo": "{0.98973355978513544, 0.77840397063833144}",
      "hasCurveFrom": true,
      "hasCurveTo": false,
      "point": "{0.98973355978513544, 0.77840397063833144}"
    },
    {
      "_class": "curvePoint",
      "cornerRadius": 0,
      "curveFrom": "{0.23001710997191763, 1}",
      "curveMode": 3,
      "curveTo": "{0.78636029793038043, 1}",
      "hasCurveFrom": true,
      "hasCurveTo": true,
      "point": "{0.53801026913531957, 1}"
    },
    {
      "_class": "curvePoint",
      "cornerRadius": 0,
      "curveFrom": "{0, 0.20266005499239725}",
      "curveMode": 3,
      "curveTo": "{0, 0.78043282498312827}",
      "hasCurveFrom": true,
      "hasCurveTo": true,
      "point": "{0, 0.50000000218026186}"
    },
    {
      "_class": "curvePoint",
      "cornerRadius": 0,
      "curveFrom": "{0.79271571630355242, 0}",
      "curveMode": 2,
      "curveTo": "{0.23197262089276394, 0}",
      "hasCurveFrom": true,
      "hasCurveTo": true,
      "point": "{0.51136640525731303, 0}"
    },
    {
      "_class": "curvePoint",
      "cornerRadius": 0,
      "curveFrom": "{0.97531164704283979, 0.31807935280942784}",
      "curveMode": 4,
      "curveTo": "{0.93033488010253396, 0.20649233622896201}",
      "hasCurveFrom": false,
      "hasCurveTo": true,
      "point": "{0.97531164704283979, 0.31807935280942784}"
    },
    {
      "_class": "curvePoint",
      "cornerRadius": 0,
      "curveFrom": "{1, 0.37488728754530526}",
      "curveMode": 1,
      "curveTo": "{1, 0.37488728754530526}",
      "hasCurveFrom": false,
      "hasCurveTo": false,
      "point": "{1, 0.37488728754530526}"
    },
    {
      "_class": "curvePoint",
      "cornerRadius": 0,
      "curveFrom": "{0.33072598543887194, 0.75202885688843568}",
      "curveMode": 4,
      "curveTo": "{0.27523832759796196, 0.65171325801814339}",
      "hasCurveFrom": true,
      "hasCurveTo": false,
      "point": "{0.27523832759796196, 0.65171325801814339}"
    },
    {
      "_class": "curvePoint",
      "cornerRadius": 0,
      "curveFrom": "{0.65925200927115912, 0.80320108494948805}",
      "curveMode": 2,
      "curveTo": "{0.41701294816353063, 0.80320108494948805}",
      "hasCurveFrom": true,
      "hasCurveTo": true,
      "point": "{0.53801026913531957, 0.80320108494948805}"
    }
  ],
  "resizingConstraint": 63,
  "resizingType": 0,
  "rotation": 0,
  "shouldBreakMaskChain": false,
  "style": {
    "_class": "style",
    "blur": {
      "_class": "blur",
      "center": "{0.5, 0.5}",
      "isEnabled": false,
      "motionAngle": 0,
      "radius": 10,
      "saturation": 1,
      "type": 0
    },
    "borderOptions": {
      "_class": "borderOptions",
      "dashPattern": [
      ],
      "isEnabled": true,
      "lineCapStyle": 0,
      "lineJoinStyle": 0
    },
    "borders": [
    ],
    "colorControls": {
      "_class": "colorControls",
      "brightness": 0,
      "contrast": 1,
      "hue": 0,
      "isEnabled": true,
      "saturation": 1
    },
    "contextSettings": {
      "_class": "graphicsContextSettings",
      "blendMode": 0,
      "opacity": 1
    },
    "do_objectID": "5633BB27-E9A2-4FEF-BD94-4254E2ED3E44",
    "endMarkerType": 0,
    "fills": [
      {
        "_class": "fill",
        "color": {
          "_class": "color",
          "alpha": 1,
          "blue": 1,
          "green": 1,
          "red": 1
        },
        "contextSettings": {
          "_class": "graphicsContextSettings",
          "blendMode": 0,
          "opacity": 1
        },
        "fillType": 0,
        "gradient": {
          "_class": "gradient",
          "elipseLength": 0,
          "from": "{0.5, 0}",
          "gradientType": 0,
          "stops": [
            {
              "_class": "gradientStop",
              "color": {
                "_class": "color",
                "alpha": 1,
                "blue": 1,
                "green": 1,
                "red": 1
              },
              "position": 0
            },
            {
              "_class": "gradientStop",
              "color": {
                "_class": "color",
                "alpha": 1,
                "blue": 0,
                "green": 0,
                "red": 0
              },
              "position": 1
            }
          ],
          "to": "{0.5, 1}"
        },
        "isEnabled": true,
        "noiseIndex": 0,
        "noiseIntensity": 0,
        "patternFillType": 1,
        "patternTileScale": 1
      }
    ],
    "innerShadows": [
    ],
    "miterLimit": 10,
    "shadows": [
    ],
    "startMarkerType": 0,
    "windingRule": 0
  }
}