{
  "_class": "group",
  "booleanOperation": 0,
  "clippingMaskMode": 0,
  "do_objectID": "01003201-4CE6-43F1-A3A4-E807751D520A",
  "exportOptions": {
    "_class": "exportOptions",
    "do_objectID": "CC62D10A-0D96-45B8-A513-A98B8D320F9E",
    "exportFormats": [
    ],
    "includedLayerIds": [
    ],
    "layerOptions": 0,
    "shouldTrim": false
  },
  "frame": {
    "_class": "rect",
    "constrainProportions": false,
    "do_objectID": "5BF85983-7501-4B4E-AC87-9AEC575A8CBA",
    "height": 12,
    "width": 71,
    "x": 17.48787878787877,
    "y": 3.019390581717573
  },
  "groupLayout": {
    "_class": "MSImmutableFreeformGroupLayout",
    "do_objectID": "1BBFF5C5-E313-4421-972F-0CB51C404C52"
  },
  "hasClickThrough": false,
  "hasClippingMask": false,
  "isFixedToViewport": false,
  "isFlippedHorizontal": false,
  "isFlippedVertical": false,
  "isLocked": false,
  "isVisible": true,
  "layerListExpandedType": 0,
  "layers": [
    {
      "class": "group",
      "id": "0838D3BA-B4D7-4340-8C4E-41C6CF684901"
    },
    {
      "class": "group",
      "id": "5A352AA8-152F-47BD-A64E-9844F4EC2375"
    },
    {
      "class": "group",
      "id": "CCDE0D2A-C1BC-4C27-8380-76BAB5E61878"
    },
    {
      "class": "group",
      "id": "67299A7F-E8C4-4915-B3D0-3EC57F97F8BD"
    },
    {
      "class": "group",
      "id": "021558DD-F1E8-4EFE-924C-462E44A09A1F"
    }
  ],
  "name": "stars",
  "nameIsFixed": true,
  "resizingConstraint": 63,
  "resizingType": 0,
  "rotation": 0,
  "shouldBreakMaskChain": false,
  "style": {
    "_class": "style",
    "do_objectID": "310895AF-F2D2-4A55-8B39-F59190E18849",
    "endMarkerType": 0,
    "miterLimit": 10,
    "startMarkerType": 0,
    "windingRule": 1
  }
}