{
  "_class": "shapePath",
  "booleanOperation": -1,
  "clippingMaskMode": 0,
  "do_objectID": "008A9FBA-F388-48FD-ADDE-42837DE5F2ED",
  "edited": true,
  "exportOptions": {
    "_class": "exportOptions",
    "do_objectID": "A03262AB-056F-4455-BF5C-F5F559563188",
    "exportFormats": [
    ],
    "includedLayerIds": [
    ],
    "layerOptions": 0,
    "shouldTrim": false
  },
  "frame": {
    "_class": "rect",
    "constrainProportions": false,
    "do_objectID": "EB817E9D-0B24-4E99-9EA3-F49BF92DAFCA",
    "height": 0.1058906030855553,
    "width": 0.1059863482545396,
    "x": 24.50282698904507,
    "y": 14.24571187153806
  },
  "hasClippingMask": false,
  "isClosed": true,
  "isFixedToViewport": false,
  "isFlippedHorizontal": false,
  "isFlippedVertical": false,
  "isLocked": false,
  "isVisible": true,
  "layerListExpandedType": 0,
  "name": "Path",
  "nameIsFixed": false,
  "pointRadiusBehaviour": 0,
  "points": [
    {
      "_class": "curvePoint",
      "cornerRadius": 0,
      "curveFrom": "{1.0578467937479559, 0.2759439747638055}",
      "curveMode": 3,
      "curveTo": "{0.40884679374801181, -0.12005602523615266}",
      "hasCurveFrom": true,
      "hasCurveTo": true,
      "point": "{0.63284679374800135, 0.017943974763824144}"
    },
    {
      "_class": "curvePoint",
      "cornerRadius": 0,
      "curveFrom": "{-0.29015320625200047, 0.57494397476384052}",
      "curveMode": 4,
      "curveTo": "{0.36184679374798634, 0.97294397476380823}",
      "hasCurveFrom": true,
      "hasCurveTo": true,
      "point": "{0.1338467937479777, 0.83694397476384097}"
    }
  ],
  "resizingConstraint": 63,
  "resizingType": 0,
  "rotation": 0,
  "shouldBreakMaskChain": false,
  "style": {
    "_class": "style",
    "do_objectID": "0D9A72AE-14F5-4FF2-B966-D488C23FA760",
    "endMarkerType": 0,
    "fills": [
      {
        "_class": "fill",
        "color": {
          "_class": "color",
          "alpha": 1,
          "blue": 0.1764705882352941,
          "green": 0.1764705882352941,
          "red": 0.1764705882352941
        },
        "fillType": 0,
        "isEnabled": true,
        "noiseIndex": 0,
        "noiseIntensity": 0,
        "patternFillType": 1,
        "patternTileScale": 1
      }
    ],
    "miterLimit": 10,
    "startMarkerType": 0,
    "windingRule": 1
  }
}