{
  "_class": "shapePath",
  "booleanOperation": -1,
  "clippingMaskMode": 0,
  "do_objectID": "166FB1A0-4B65-40C1-9D17-A2F20B23BBBF",
  "edited": true,
  "exportOptions": {
    "_class": "exportOptions",
    "do_objectID": "8A99E721-A095-445E-89DC-C498D75D4A55",
    "exportFormats": [
    ],
    "includedLayerIds": [
    ],
    "layerOptions": 0,
    "shouldTrim": false
  },
  "frame": {
    "_class": "rect",
    "constrainProportions": false,
    "do_objectID": "7064F87F-A778-4022-9F33-EC28D5413F61",
    "height": 0.1058906030855553,
    "width": 0.1059863482545964,
    "x": 35.43858460916754,
    "y": 15.28796356940857
  },
  "hasClippingMask": false,
  "isClosed": true,
  "isFixedToViewport": false,
  "isFlippedHorizontal": false,
  "isFlippedVertical": false,
  "isLocked": false,
  "isVisible": true,
  "layerListExpandedType": 0,
  "name": "Path",
  "nameIsFixed": false,
  "pointRadiusBehaviour": 0,
  "points": [
    {
      "_class": "curvePoint",
      "cornerRadius": 0,
      "curveFrom": "{0.94118475135428525, 0.24516212099547374}",
      "curveMode": 3,
      "curveTo": "{0.36218475135433437, -0.1078378790045349}",
      "hasCurveFrom": true,
      "hasCurveTo": true,
      "point": "{0.56318475135429935, 0.016162120995488749}"
    },
    {
      "_class": "curvePoint",
      "cornerRadius": 0,
      "curveFrom": "{-0.25781524864567018, 0.51516212099545555}",
      "curveMode": 3,
      "curveTo": "{0.32118475135433755, 0.86716212099548784}",
      "hasCurveFrom": true,
      "hasCurveTo": true,
      "point": "{0.11918475135433937, 0.74316212099546419}"
    }
  ],
  "resizingConstraint": 63,
  "resizingType": 0,
  "rotation": 0,
  "shouldBreakMaskChain": false,
  "style": {
    "_class": "style",
    "do_objectID": "9AC6023F-7AF9-4686-9896-93EEFCF37117",
    "endMarkerType": 0,
    "fills": [
      {
        "_class": "fill",
        "color": {
          "_class": "color",
          "alpha": 1,
          "blue": 0.1764705882352941,
          "green": 0.1764705882352941,
          "red": 0.1764705882352941
        },
        "fillType": 0,
        "isEnabled": true,
        "noiseIndex": 0,
        "noiseIntensity": 0,
        "patternFillType": 1,
        "patternTileScale": 1
      }
    ],
    "miterLimit": 10,
    "startMarkerType": 0,
    "windingRule": 1
  }
}