{
  "_class": "shapePath",
  "booleanOperation": -1,
  "clippingMaskMode": 0,
  "do_objectID": "1BDC75EF-4B51-4AFD-A8D2-0D799C28E185",
  "edited": true,
  "exportOptions": {
    "_class": "exportOptions",
    "do_objectID": "678890F8-0464-46D3-A44E-F13DCBFE6A4D",
    "exportFormats": [
    ],
    "includedLayerIds": [
    ],
    "layerOptions": 0,
    "shouldTrim": false
  },
  "frame": {
    "_class": "rect",
    "constrainProportions": false,
    "do_objectID": "EAA6C1DA-7A1D-44E8-8ED7-8AFD91A6CFBD",
    "height": 0.2009290368036183,
    "width": 0.4392983388704383,
    "x": 11.09747801096599,
    "y": 24.35774240413756
  },
  "hasClippingMask": false,
  "isClosed": true,
  "isFixedToViewport": false,
  "isFlippedHorizontal": false,
  "isFlippedVertical": false,
  "isLocked": false,
  "isVisible": true,
  "layerListExpandedType": 0,
  "name": "Path",
  "nameIsFixed": false,
  "pointRadiusBehaviour": 0,
  "points": [
    {
      "_class": "curvePoint",
      "cornerRadius": 0,
      "curveFrom": "{0.54360679970435899, 0.32679324381096919}",
      "curveMode": 4,
      "curveTo": "{0.34183296378418365, 0.10238368326514408}",
      "hasCurveFrom": true,
      "hasCurveTo": true,
      "point": "{0.47468588322246841, 0.37926310508966904}"
    },
    {
      "_class": "curvePoint",
      "cornerRadius": 0,
      "curveFrom": "{0.6690687361419061, 0.46886548358098229}",
      "curveMode": 4,
      "curveTo": "{0.61049519586105239, 0.28602819774059357}",
      "hasCurveFrom": true,
      "hasCurveTo": true,
      "point": "{0.63322246858832343, 0.50599800079361867}"
    },
    {
      "_class": "curvePoint",
      "cornerRadius": 0,
      "curveFrom": "{0.80949741315595314, 0.34172697355953668}",
      "curveMode": 4,
      "curveTo": "{0.70509977827051329, 0.43294380932097154}",
      "hasCurveFrom": true,
      "hasCurveTo": true,
      "point": "{0.74094604582409596, 0.39540767779081626}"
    },
    {
      "_class": "curvePoint",
      "cornerRadius": 0,
      "curveFrom": "{0.93311160384331182, 0.67874492869580472}",
      "curveMode": 4,
      "curveTo": "{0.87601626016260259, 0.30055831317161924}",
      "hasCurveFrom": true,
      "hasCurveTo": true,
      "point": "{0.89929785661493167, 0.52173895917722402}"
    },
    {
      "_class": "curvePoint",
      "cornerRadius": 0,
      "curveFrom": "{0.84386548410938611, 1.0335219138033187}",
      "curveMode": 4,
      "curveTo": "{0.96637102734663916, 0.83494366957932453}",
      "hasCurveFrom": true,
      "hasCurveTo": true,
      "point": "{1, 0.99235325341542413}"
    },
    {
      "_class": "curvePoint",
      "cornerRadius": 0,
      "curveFrom": "{0.56467110125646636, 0.55887147638983747}",
      "curveMode": 4,
      "curveTo": "{0.71470805617147282, 0.91364846149737433}",
      "hasCurveFrom": true,
      "hasCurveTo": true,
      "point": "{0.63322246858832343, 0.50599800079361867}"
    },
    {
      "_class": "curvePoint",
      "cornerRadius": 0,
      "curveFrom": "{0.40225424981522567, 0.40186550687127975}",
      "curveMode": 4,
      "curveTo": "{0.49815225424981691, 0.60165459404787647}",
      "hasCurveFrom": true,
      "hasCurveTo": true,
      "point": "{0.47468588322246841, 0.37926310508966904}"
    },
    {
      "_class": "curvePoint",
      "cornerRadius": 0,
      "curveFrom": "{0.22431633407243232, 0.60286543700043327}",
      "curveMode": 3,
      "curveTo": "{0.33185513673318545, 0.59519676496741303}",
      "hasCurveFrom": true,
      "hasCurveTo": true,
      "point": "{0.25905395417590404, 0.60044375109527381}"
    },
    {
      "_class": "curvePoint",
      "cornerRadius": 0,
      "curveFrom": "{0.06725794530672162, 0.31831734314288807}",
      "curveMode": 4,
      "curveTo": "{0.18163340724316485, 0.23032942192165051}",
      "hasCurveFrom": true,
      "hasCurveTo": true,
      "point": "{0.10088691796008768, 0.47491969834392689}"
    },
    {
      "_class": "curvePoint",
      "cornerRadius": 0,
      "curveFrom": "{0.18385070214338142, -0.023140369486202898}",
      "curveMode": 4,
      "curveTo": "{0.03362897265336081, 0.16090775930676554}",
      "hasCurveFrom": true,
      "hasCurveTo": true,
      "point": "{0, 0.003498175470665965}"
    }
  ],
  "resizingConstraint": 63,
  "resizingType": 0,
  "rotation": 0,
  "shouldBreakMaskChain": false,
  "style": {
    "_class": "style",
    "do_objectID": "22C3A77B-6FF6-45C9-9930-7B9C1737069D",
    "endMarkerType": 0,
    "fills": [
      {
        "_class": "fill",
        "color": {
          "_class": "color",
          "alpha": 1,
          "blue": 0.1764705882352941,
          "green": 0.1764705882352941,
          "red": 0.1764705882352941
        },
        "fillType": 0,
        "isEnabled": true,
        "noiseIndex": 0,
        "noiseIntensity": 0,
        "patternFillType": 1,
        "patternTileScale": 1
      }
    ],
    "miterLimit": 10,
    "startMarkerType": 0,
    "windingRule": 1
  }
}