{
  "_class": "shapePath",
  "booleanOperation": -1,
  "clippingMaskMode": 0,
  "do_objectID": "1C7F70DC-37DA-4476-90D9-366B05FCAFC4",
  "edited": true,
  "exportOptions": {
    "_class": "exportOptions",
    "do_objectID": "3BB4DD3A-C0ED-4D87-8AE5-510EA661A4D0",
    "exportFormats": [
    ],
    "includedLayerIds": [
    ],
    "layerOptions": 0,
    "shouldTrim": false
  },
  "frame": {
    "_class": "rect",
    "constrainProportions": false,
    "do_objectID": "9DFDB4D9-0ECA-49A3-BEBC-E7C4D62A6BA0",
    "height": 0.1058906030855518,
    "width": 0.1059863482545644,
    "x": 11.18076397153119,
    "y": 10.63144459475151
  },
  "hasClippingMask": false,
  "isClosed": true,
  "isFixedToViewport": false,
  "isFlippedHorizontal": false,
  "isFlippedVertical": false,
  "isLocked": false,
  "isVisible": true,
  "layerListExpandedType": 0,
  "name": "Path",
  "nameIsFixed": false,
  "pointRadiusBehaviour": 0,
  "points": [
    {
      "_class": "curvePoint",
      "cornerRadius": 0,
      "curveFrom": "{0.94194645347880623, 0.24669756929185382}",
      "curveMode": 3,
      "curveTo": "{0.36094645347881738, -0.10630243070809797}",
      "hasCurveFrom": true,
      "hasCurveTo": true,
      "point": "{0.56394645347882033, 0.015697569291859281}"
    },
    {
      "_class": "curvePoint",
      "cornerRadius": 0,
      "curveFrom": "{-0.25605354652120127, 0.51569756929185928}",
      "curveMode": 4,
      "curveTo": "{0.32194645347880169, 0.86769756929189157}",
      "hasCurveFrom": true,
      "hasCurveTo": true,
      "point": "{0.11794645347879396, 0.74569756929187747}"
    }
  ],
  "resizingConstraint": 63,
  "resizingType": 0,
  "rotation": 0,
  "shouldBreakMaskChain": false,
  "style": {
    "_class": "style",
    "do_objectID": "B6110FB9-D05B-42FE-9FC1-0BF830B05241",
    "endMarkerType": 0,
    "fills": [
      {
        "_class": "fill",
        "color": {
          "_class": "color",
          "alpha": 1,
          "blue": 0.1764705882352941,
          "green": 0.1764705882352941,
          "red": 0.1764705882352941
        },
        "fillType": 0,
        "isEnabled": true,
        "noiseIndex": 0,
        "noiseIntensity": 0,
        "patternFillType": 1,
        "patternTileScale": 1
      }
    ],
    "miterLimit": 10,
    "startMarkerType": 0,
    "windingRule": 1
  }
}