{
  "_class": "shapePath",
  "booleanOperation": -1,
  "clippingMaskMode": 0,
  "do_objectID": "2891CA3D-F25E-43C6-92BD-E3EB16B3CF99",
  "edited": true,
  "exportOptions": {
    "_class": "exportOptions",
    "do_objectID": "F386EB96-51C0-4D98-AE47-2F2A41993D92",
    "exportFormats": [
    ],
    "includedLayerIds": [
    ],
    "layerOptions": 0,
    "shouldTrim": false
  },
  "frame": {
    "_class": "rect",
    "constrainProportions": false,
    "do_objectID": "DBDFE608-1E7C-4F16-9545-2FE0C60A2850",
    "height": 0.1835232399388946,
    "width": 0.1507687031636316,
    "x": 15.87825638190169,
    "y": 14.6226982301559
  },
  "hasClippingMask": false,
  "isClosed": true,
  "isFixedToViewport": false,
  "isFlippedHorizontal": false,
  "isFlippedVertical": false,
  "isLocked": false,
  "isVisible": true,
  "layerListExpandedType": 0,
  "name": "Path",
  "nameIsFixed": false,
  "pointRadiusBehaviour": 0,
  "points": [
    {
      "_class": "curvePoint",
      "cornerRadius": 0,
      "curveFrom": "{0.16232386799372406, 0.97897489517004022}",
      "curveMode": 4,
      "curveTo": "{0.53326910220788803, 1.089890313065472}",
      "hasCurveFrom": true,
      "hasCurveTo": true,
      "point": "{0.185474296253827, 0.98560330659804873}"
    },
    {
      "_class": "curvePoint",
      "cornerRadius": 0,
      "curveFrom": "{0.041726288220188104, 0.39081385445754813}",
      "curveMode": 3,
      "curveTo": "{0.018575859960085175, 0.72135063766786578}",
      "hasCurveFrom": true,
      "hasCurveTo": true,
      "point": "{0.02019100611777425, 0.69660456833661921}"
    },
    {
      "_class": "curvePoint",
      "cornerRadius": 0,
      "curveFrom": "{0.27699924518909735, 0.22554546285240185}",
      "curveMode": 3,
      "curveTo": "{-0.11709641728515426, 0.48979813178255965}",
      "hasCurveFrom": true,
      "hasCurveTo": true,
      "point": "{0.2080863424613669, 0.27194434284848606}"
    },
    {
      "_class": "curvePoint",
      "cornerRadius": 0,
      "curveFrom": "{1.2724676603733855, 0.108443527624127}",
      "curveMode": 4,
      "curveTo": "{0.84068525421990592, -0.021473336364949094}",
      "hasCurveFrom": true,
      "hasCurveTo": true,
      "point": "{0.91444359542068832, 0.0015051565855103346}"
    },
    {
      "_class": "curvePoint",
      "cornerRadius": 0,
      "curveFrom": "{0.35775655307316845, 0.59452703234519866}",
      "curveMode": 4,
      "curveTo": "{0.39221300443704898, 0.51763745978024034}",
      "hasCurveFrom": true,
      "hasCurveTo": true,
      "point": "{0.37390801464998269, 0.56138497520513131}"
    }
  ],
  "resizingConstraint": 63,
  "resizingType": 0,
  "rotation": 0,
  "shouldBreakMaskChain": false,
  "style": {
    "_class": "style",
    "do_objectID": "129EEAA9-7F89-4BC0-ABEB-07DD43A4311E",
    "endMarkerType": 0,
    "fills": [
      {
        "_class": "fill",
        "color": {
          "_class": "color",
          "alpha": 1,
          "blue": 0.1764705882352941,
          "green": 0.1764705882352941,
          "red": 0.1764705882352941
        },
        "fillType": 0,
        "isEnabled": true,
        "noiseIndex": 0,
        "noiseIntensity": 0,
        "patternFillType": 1,
        "patternTileScale": 1
      }
    ],
    "miterLimit": 10,
    "startMarkerType": 0,
    "windingRule": 1
  }
}