{
  "_class": "shapePath",
  "booleanOperation": -1,
  "clippingMaskMode": 0,
  "do_objectID": "2C3C3E0C-3840-4F7E-85CB-4078B8F61EFE",
  "edited": true,
  "exportOptions": {
    "_class": "exportOptions",
    "do_objectID": "B85CC86C-FB1B-4C9F-91A9-FB99224C1F3F",
    "exportFormats": [
    ],
    "includedLayerIds": [
    ],
    "layerOptions": 0,
    "shouldTrim": false
  },
  "frame": {
    "_class": "rect",
    "constrainProportions": false,
    "do_objectID": "B0FE88DC-2872-4CAF-BDC1-D5C4664A1472",
    "height": 0.1058906030855553,
    "width": 0.1059863482545431,
    "x": 22.9293032143354,
    "y": 29.59042296622353
  },
  "hasClippingMask": false,
  "isClosed": true,
  "isFixedToViewport": false,
  "isFlippedHorizontal": false,
  "isFlippedVertical": false,
  "isLocked": false,
  "isVisible": true,
  "layerListExpandedType": 0,
  "name": "Path",
  "nameIsFixed": false,
  "pointRadiusBehaviour": 0,
  "points": [
    {
      "_class": "curvePoint",
      "cornerRadius": 0,
      "curveFrom": "{0.94210258739803976, 0.24660687718920826}",
      "curveMode": 3,
      "curveTo": "{0.36210258739805568, -0.10939312281078628}",
      "hasCurveFrom": true,
      "hasCurveTo": true,
      "point": "{0.56510258739803021, 0.016606877189190072}"
    },
    {
      "_class": "curvePoint",
      "cornerRadius": 0,
      "curveFrom": "{-0.25889741260198207, 0.51560687718921372}",
      "curveMode": 3,
      "curveTo": "{0.32010258739802566, 0.86660687718921281}",
      "hasCurveFrom": true,
      "hasCurveTo": true,
      "point": "{0.12010258739803703, 0.74460687718919871}"
    }
  ],
  "resizingConstraint": 63,
  "resizingType": 0,
  "rotation": 0,
  "shouldBreakMaskChain": false,
  "style": {
    "_class": "style",
    "do_objectID": "8EBDE161-BF29-48B2-A0C4-68B94D76972D",
    "endMarkerType": 0,
    "fills": [
      {
        "_class": "fill",
        "color": {
          "_class": "color",
          "alpha": 1,
          "blue": 0.1764705882352941,
          "green": 0.1764705882352941,
          "red": 0.1764705882352941
        },
        "fillType": 0,
        "isEnabled": true,
        "noiseIndex": 0,
        "noiseIntensity": 0,
        "patternFillType": 1,
        "patternTileScale": 1
      }
    ],
    "miterLimit": 10,
    "startMarkerType": 0,
    "windingRule": 1
  }
}