{
  "_class": "shapePath",
  "booleanOperation": -1,
  "clippingMaskMode": 0,
  "do_objectID": "35F3C6B6-2AE9-47B4-AE73-DD709369CDF7",
  "edited": true,
  "exportOptions": {
    "_class": "exportOptions",
    "do_objectID": "B7011FF9-983F-443C-B9D4-B78324E93DF3",
    "exportFormats": [
    ],
    "includedLayerIds": [
    ],
    "layerOptions": 0,
    "shouldTrim": false
  },
  "frame": {
    "_class": "rect",
    "constrainProportions": false,
    "do_objectID": "9C553A55-2739-419E-AD14-24CA35C839E4",
    "height": 0.1058906030855624,
    "width": 0.1059863482545618,
    "x": 5.713735347090606,
    "y": 23.16688221550008
  },
  "hasClippingMask": false,
  "isClosed": true,
  "isFixedToViewport": false,
  "isFlippedHorizontal": false,
  "isFlippedVertical": false,
  "isLocked": false,
  "isVisible": true,
  "layerListExpandedType": 0,
  "name": "Path",
  "nameIsFixed": false,
  "pointRadiusBehaviour": 0,
  "points": [
    {
      "_class": "curvePoint",
      "cornerRadius": 0,
      "curveFrom": "{1.041803488839804, 0.1849083627699315}",
      "curveMode": 4,
      "curveTo": "{0.277803488839794, -0.092091637230112156}",
      "hasCurveFrom": true,
      "hasCurveTo": true,
      "point": "{0.54280348883979457, 0.0079083627699105818}"
    },
    {
      "_class": "curvePoint",
      "cornerRadius": 0,
      "curveFrom": "{-0.30319651116019486, 0.78590836276993059}",
      "curveMode": 4,
      "curveTo": "{0.4618034888397915, 1.0629083627699174}",
      "hasCurveFrom": true,
      "hasCurveTo": true,
      "point": "{0.19580348883980037, 0.96890836276992331}"
    }
  ],
  "resizingConstraint": 63,
  "resizingType": 0,
  "rotation": 0,
  "shouldBreakMaskChain": false,
  "style": {
    "_class": "style",
    "do_objectID": "6296D0FC-D251-4357-A375-550ED09AEC44",
    "endMarkerType": 0,
    "fills": [
      {
        "_class": "fill",
        "color": {
          "_class": "color",
          "alpha": 1,
          "blue": 0.1764705882352941,
          "green": 0.1764705882352941,
          "red": 0.1764705882352941
        },
        "fillType": 0,
        "isEnabled": true,
        "noiseIndex": 0,
        "noiseIntensity": 0,
        "patternFillType": 1,
        "patternTileScale": 1
      }
    ],
    "miterLimit": 10,
    "startMarkerType": 0,
    "windingRule": 1
  }
}