{
  "_class": "shapePath",
  "booleanOperation": -1,
  "clippingMaskMode": 0,
  "do_objectID": "396DA323-77F6-4C2A-B569-A9A2805543AC",
  "edited": true,
  "exportOptions": {
    "_class": "exportOptions",
    "do_objectID": "FD3F9123-238E-4E47-95B4-D05F05D48EDC",
    "exportFormats": [
    ],
    "includedLayerIds": [
    ],
    "layerOptions": 0,
    "shouldTrim": false
  },
  "frame": {
    "_class": "rect",
    "constrainProportions": false,
    "do_objectID": "779A32BC-A67D-4BC1-8F7D-0A594D9E1F72",
    "height": 0.1223039745368837,
    "width": 0.1802866178776554,
    "x": 35.52339557670643,
    "y": 18.84473111629244
  },
  "hasClippingMask": false,
  "isClosed": true,
  "isFixedToViewport": false,
  "isFlippedHorizontal": false,
  "isFlippedVertical": false,
  "isLocked": false,
  "isVisible": true,
  "layerListExpandedType": 0,
  "name": "Path",
  "nameIsFixed": false,
  "pointRadiusBehaviour": 0,
  "points": [
    {
      "_class": "curvePoint",
      "cornerRadius": 0,
      "curveFrom": "{0.83128667817540536, 1.2813607620793861}",
      "curveMode": 4,
      "curveTo": "{1.0163328493430888, 0.83974666882334725}",
      "hasCurveFrom": true,
      "hasCurveTo": true,
      "point": "{0.99832348961873085, 0.87886863804572757}"
    },
    {
      "_class": "curvePoint",
      "cornerRadius": 0,
      "curveFrom": "{0.573752834117218, 0.53472792573358396}",
      "curveMode": 4,
      "curveTo": "{0.64398933704218053, 0.55196811556040326}",
      "hasCurveFrom": true,
      "hasCurveTo": true,
      "point": "{0.63048231724890569, 0.55064194711218062}"
    },
    {
      "_class": "curvePoint",
      "cornerRadius": 0,
      "curveFrom": "{-0.076385051931777206, 0.37293537505119068}",
      "curveMode": 4,
      "curveTo": "{0.05058093412487305, 0.80592937339383874}",
      "hasCurveFrom": true,
      "hasCurveTo": true,
      "point": "{0.037073914331623818, 0.76216581460269783}"
    },
    {
      "_class": "curvePoint",
      "cornerRadius": 0,
      "curveFrom": "{0.3247734359280986, 0.1733470235946398}",
      "curveMode": 4,
      "curveTo": "{0.091101993504671921, 0.34840125875920319}",
      "hasCurveFrom": true,
      "hasCurveTo": true,
      "point": "{0.26264114487908047, 0.21711058238578063}"
    },
    {
      "_class": "curvePoint",
      "cornerRadius": 0,
      "curveFrom": "{0.88396405536910816, 0.032110083859603726}",
      "curveMode": 3,
      "curveTo": "{0.80247170261643785, -0.038839928119969974}",
      "hasCurveFrom": true,
      "hasCurveTo": true,
      "point": "{0.8542486118239444, 0.0062497991193747049}"
    }
  ],
  "resizingConstraint": 63,
  "resizingType": 0,
  "rotation": 0,
  "shouldBreakMaskChain": false,
  "style": {
    "_class": "style",
    "do_objectID": "F031FD84-5719-41B1-B557-B4A8DDEEA5CC",
    "endMarkerType": 0,
    "fills": [
      {
        "_class": "fill",
        "color": {
          "_class": "color",
          "alpha": 1,
          "blue": 0.1764705882352941,
          "green": 0.1764705882352941,
          "red": 0.1764705882352941
        },
        "fillType": 0,
        "isEnabled": true,
        "noiseIndex": 0,
        "noiseIntensity": 0,
        "patternFillType": 1,
        "patternTileScale": 1
      }
    ],
    "miterLimit": 10,
    "startMarkerType": 0,
    "windingRule": 1
  }
}