{
  "_class": "shapePath",
  "booleanOperation": -1,
  "clippingMaskMode": 0,
  "do_objectID": "3F7A2188-079B-4E5E-B43D-05068EC26430",
  "edited": true,
  "exportOptions": {
    "_class": "exportOptions",
    "do_objectID": "227A5F02-1DB3-42B8-9151-E3057E2218D2",
    "exportFormats": [
    ],
    "includedLayerIds": [
    ],
    "layerOptions": 0,
    "shouldTrim": false
  },
  "frame": {
    "_class": "rect",
    "constrainProportions": false,
    "do_objectID": "75EB969C-3F1C-4494-A451-1BA997F9F76C",
    "height": 0.1058906030855589,
    "width": 0.1059863482545573,
    "x": 19.25978234283963,
    "y": 28.30024958477524
  },
  "hasClippingMask": false,
  "isClosed": true,
  "isFixedToViewport": false,
  "isFlippedHorizontal": false,
  "isFlippedVertical": false,
  "isLocked": false,
  "isVisible": true,
  "layerListExpandedType": 0,
  "name": "Path",
  "nameIsFixed": false,
  "pointRadiusBehaviour": 0,
  "points": [
    {
      "_class": "curvePoint",
      "cornerRadius": 0,
      "curveFrom": "{-0.30169948055433338, 0.78845776780383403}",
      "curveMode": 4,
      "curveTo": "{0.4593005194456623, 1.0644577678038445}",
      "hasCurveFrom": true,
      "hasCurveTo": true,
      "point": "{0.19430051944567595, 0.97045776780379356}"
    },
    {
      "_class": "curvePoint",
      "cornerRadius": 0,
      "curveFrom": "{1.0413005194456559, 0.18945776780384449}",
      "curveMode": 3,
      "curveTo": "{0.27730051944567435, -0.089542232196151872}",
      "hasCurveFrom": true,
      "hasCurveTo": true,
      "point": "{0.54230051944566071, 0.0074577678038281192}"
    }
  ],
  "resizingConstraint": 63,
  "resizingType": 0,
  "rotation": 0,
  "shouldBreakMaskChain": false,
  "style": {
    "_class": "style",
    "do_objectID": "4C1C019D-6F8F-4B53-A6AF-F3B8BB38D59A",
    "endMarkerType": 0,
    "fills": [
      {
        "_class": "fill",
        "color": {
          "_class": "color",
          "alpha": 1,
          "blue": 0.1764705882352941,
          "green": 0.1764705882352941,
          "red": 0.1764705882352941
        },
        "fillType": 0,
        "isEnabled": true,
        "noiseIndex": 0,
        "noiseIntensity": 0,
        "patternFillType": 1,
        "patternTileScale": 1
      }
    ],
    "miterLimit": 10,
    "startMarkerType": 0,
    "windingRule": 1
  }
}