{
  "_class": "shapePath",
  "booleanOperation": -1,
  "clippingMaskMode": 0,
  "do_objectID": "47D07120-3D0E-4287-B713-DD0689868D0F",
  "edited": true,
  "exportOptions": {
    "_class": "exportOptions",
    "do_objectID": "B5389DBA-4DDC-4A31-BCE5-775129DD892E",
    "exportFormats": [
    ],
    "includedLayerIds": [
    ],
    "layerOptions": 0,
    "shouldTrim": false
  },
  "frame": {
    "_class": "rect",
    "constrainProportions": false,
    "do_objectID": "29967EB5-3820-4EE1-814B-7B6067DE34B9",
    "height": 0.1058906030855553,
    "width": 0.1390462037111995,
    "x": 27.32294429948909,
    "y": 21.38891026507584
  },
  "hasClippingMask": false,
  "isClosed": true,
  "isFixedToViewport": false,
  "isFlippedHorizontal": false,
  "isFlippedVertical": false,
  "isLocked": false,
  "isVisible": true,
  "layerListExpandedType": 0,
  "name": "Path",
  "nameIsFixed": false,
  "pointRadiusBehaviour": 0,
  "points": [
    {
      "_class": "curvePoint",
      "cornerRadius": 0,
      "curveFrom": "{0.71745475773498302, 0.28269864841576009}",
      "curveMode": 4,
      "curveTo": "{0.42732049036778647, -0.12930135158427447}",
      "hasCurveFrom": true,
      "hasCurveTo": true,
      "point": "{0.50204319906596762, 0.41669864841577464}"
    },
    {
      "_class": "curvePoint",
      "cornerRadius": 0,
      "curveFrom": "{0.78342089900760303, 0.86069864841573462}",
      "curveMode": 4,
      "curveTo": "{0.92877991827206319, 0.181698648415761}",
      "hasCurveFrom": true,
      "hasCurveTo": true,
      "point": "{1, 0.73069864841573917}"
    },
    {
      "_class": "curvePoint",
      "cornerRadius": 0,
      "curveFrom": "{0.28429655575015578, 0.5526986484157419}",
      "curveMode": 4,
      "curveTo": "{0.57326328079393751, 0.96569864841575281}",
      "hasCurveFrom": true,
      "hasCurveTo": true,
      "point": "{0.50204319906596762, 0.41669864841577464}"
    },
    {
      "_class": "curvePoint",
      "cornerRadius": 0,
      "curveFrom": "{0.21657910099243019, -0.02830135158427538}",
      "curveMode": 4,
      "curveTo": "{0.072387624051384727, 0.65269864841576464}",
      "hasCurveFrom": true,
      "hasCurveTo": true,
      "point": "{0, 0.10669864841577237}"
    }
  ],
  "resizingConstraint": 63,
  "resizingType": 0,
  "rotation": 0,
  "shouldBreakMaskChain": false,
  "style": {
    "_class": "style",
    "do_objectID": "E17124D7-E3C6-4110-897D-3D97BF7E9CAB",
    "endMarkerType": 0,
    "fills": [
      {
        "_class": "fill",
        "color": {
          "_class": "color",
          "alpha": 1,
          "blue": 0.1764705882352941,
          "green": 0.1764705882352941,
          "red": 0.1764705882352941
        },
        "fillType": 0,
        "isEnabled": true,
        "noiseIndex": 0,
        "noiseIntensity": 0,
        "patternFillType": 1,
        "patternTileScale": 1
      }
    ],
    "miterLimit": 10,
    "startMarkerType": 0,
    "windingRule": 1
  }
}