{
  "_class": "shapePath",
  "booleanOperation": -1,
  "clippingMaskMode": 0,
  "do_objectID": "4BE35047-4C50-42E8-9E39-21070EF12E7B",
  "edited": true,
  "exportOptions": {
    "_class": "exportOptions",
    "do_objectID": "6C97E91A-6009-4407-BDD3-E348FA212BF7",
    "exportFormats": [
    ],
    "includedLayerIds": [
    ],
    "layerOptions": 0,
    "shouldTrim": false
  },
  "frame": {
    "_class": "rect",
    "constrainProportions": false,
    "do_objectID": "881B7411-825E-441E-99DC-2ABDFA9ADDCF",
    "height": 0.1058906030855589,
    "width": 0.1059863482545573,
    "x": 23.31893312805519,
    "y": 10.99279202576399
  },
  "hasClippingMask": false,
  "isClosed": true,
  "isFixedToViewport": false,
  "isFlippedHorizontal": false,
  "isFlippedVertical": false,
  "isLocked": false,
  "isVisible": true,
  "layerListExpandedType": 0,
  "name": "Path",
  "nameIsFixed": false,
  "pointRadiusBehaviour": 0,
  "points": [
    {
      "_class": "curvePoint",
      "cornerRadius": 0,
      "curveFrom": "{0.16899999999998272, 0.14600000000001501}",
      "curveMode": 4,
      "curveTo": "{0.15899999999999181, 0.10099999999999909}",
      "hasCurveFrom": false,
      "hasCurveTo": true,
      "point": "{0.16899999999998272, 0.14600000000001501}"
    },
    {
      "_class": "curvePoint",
      "cornerRadius": 0,
      "curveFrom": "{0, 0.045999999999992269}",
      "curveMode": 1,
      "curveTo": "{0, 0.045999999999992269}",
      "hasCurveFrom": false,
      "hasCurveTo": false,
      "point": "{0, 0.045999999999992269}"
    },
    {
      "_class": "curvePoint",
      "cornerRadius": 0,
      "curveFrom": "{0.14199999999999591, 0.052999999999997272}",
      "curveMode": 4,
      "curveTo": "{0.11500000000000909, 0}",
      "hasCurveFrom": true,
      "hasCurveTo": false,
      "point": "{0.11500000000000909, 0}"
    }
  ],
  "resizingConstraint": 63,
  "resizingType": 0,
  "rotation": 0,
  "shouldBreakMaskChain": false,
  "style": {
    "_class": "style",
    "do_objectID": "6472DDC6-6837-4607-B6A1-DC8DE6E37398",
    "endMarkerType": 0,
    "fills": [
      {
        "_class": "fill",
        "color": {
          "_class": "color",
          "alpha": 1,
          "blue": 0.1764705882352941,
          "green": 0.1764705882352941,
          "red": 0.1764705882352941
        },
        "fillType": 0,
        "isEnabled": true,
        "noiseIndex": 0,
        "noiseIntensity": 0,
        "patternFillType": 1,
        "patternTileScale": 1
      }
    ],
    "miterLimit": 10,
    "startMarkerType": 0,
    "windingRule": 1
  }
}