{
  "_class": "shapePath",
  "booleanOperation": -1,
  "clippingMaskMode": 0,
  "do_objectID": "59540921-01DC-48D1-BD0E-0FB517074771",
  "edited": true,
  "exportOptions": {
    "_class": "exportOptions",
    "do_objectID": "5FBF05C9-0E33-46C5-869B-260AB82247D2",
    "exportFormats": [
    ],
    "includedLayerIds": [
    ],
    "layerOptions": 0,
    "shouldTrim": false
  },
  "frame": {
    "_class": "rect",
    "constrainProportions": false,
    "do_objectID": "7B4E98A8-3B12-48F5-B0BD-A28DE5F949F5",
    "height": 0.1058906030855695,
    "width": 0.1059863482545538,
    "x": 36.93244821724289,
    "y": 28.31879407484635
  },
  "hasClippingMask": false,
  "isClosed": true,
  "isFixedToViewport": false,
  "isFlippedHorizontal": false,
  "isFlippedVertical": false,
  "isLocked": false,
  "isVisible": true,
  "layerListExpandedType": 0,
  "name": "Path",
  "nameIsFixed": false,
  "pointRadiusBehaviour": 0,
  "points": [
    {
      "_class": "curvePoint",
      "cornerRadius": 0,
      "curveFrom": "{-0.25768599327915354, 0.51678964332825217}",
      "curveMode": 4,
      "curveTo": "{0.320314006720821, 0.86878964332828446}",
      "hasCurveFrom": true,
      "hasCurveTo": true,
      "point": "{0.11931400672085601, 0.74278964332825126}"
    },
    {
      "_class": "curvePoint",
      "cornerRadius": 0,
      "curveFrom": "{0.94131400672085874, 0.24578964332823716}",
      "curveMode": 4,
      "curveTo": "{0.36131400672081782, -0.10321035667175238}",
      "hasCurveFrom": true,
      "hasCurveTo": true,
      "point": "{0.56231400672083964, 0.014789643328242619}"
    }
  ],
  "resizingConstraint": 63,
  "resizingType": 0,
  "rotation": 0,
  "shouldBreakMaskChain": false,
  "style": {
    "_class": "style",
    "do_objectID": "56C28852-DF67-48A2-8730-D3E906FE72AC",
    "endMarkerType": 0,
    "fills": [
      {
        "_class": "fill",
        "color": {
          "_class": "color",
          "alpha": 1,
          "blue": 0.1764705882352941,
          "green": 0.1764705882352941,
          "red": 0.1764705882352941
        },
        "fillType": 0,
        "isEnabled": true,
        "noiseIndex": 0,
        "noiseIntensity": 0,
        "patternFillType": 1,
        "patternTileScale": 1
      }
    ],
    "miterLimit": 10,
    "startMarkerType": 0,
    "windingRule": 1
  }
}