{
  "_class": "shapePath",
  "booleanOperation": -1,
  "clippingMaskMode": 0,
  "do_objectID": "5AF198D6-5EC1-490D-BB3C-2B4DA731A843",
  "edited": true,
  "exportOptions": {
    "_class": "exportOptions",
    "do_objectID": "93358055-A20B-4363-BF5C-67F9601A34A1",
    "exportFormats": [
    ],
    "includedLayerIds": [
    ],
    "layerOptions": 0,
    "shouldTrim": false
  },
  "frame": {
    "_class": "rect",
    "constrainProportions": false,
    "do_objectID": "F4BAAF0A-344D-4DA2-8765-DB867A5C5EAC",
    "height": 0.105890603085566,
    "width": 0.1059863482545573,
    "x": 15.11942619481991,
    "y": 18.78069832055194
  },
  "hasClippingMask": false,
  "isClosed": true,
  "isFixedToViewport": false,
  "isFlippedHorizontal": false,
  "isFlippedVertical": false,
  "isLocked": false,
  "isVisible": true,
  "layerListExpandedType": 0,
  "name": "Path",
  "nameIsFixed": false,
  "pointRadiusBehaviour": 0,
  "points": [
    {
      "_class": "curvePoint",
      "cornerRadius": 0,
      "curveFrom": "{0.13099399977271547, 0.038999999999987267}",
      "curveMode": 3,
      "curveTo": "{-0.082828851820249572, 0.48399999999998045}",
      "hasCurveFrom": true,
      "hasCurveTo": true,
      "point": "{0.013430882107216505, 0.28299999999998704}"
    },
    {
      "_class": "curvePoint",
      "cornerRadius": 0,
      "curveFrom": "{1.1212068364854657, 0.47299999999998477}",
      "curveMode": 4,
      "curveTo": "{0.77956368246423602, 0.20899999999997476}",
      "hasCurveFrom": true,
      "hasCurveTo": true,
      "point": "{0.93894455339332172, 0}"
    },
    {
      "_class": "curvePoint",
      "cornerRadius": 0,
      "curveFrom": "{0.36217516404109401, 1.070999999999998}",
      "curveMode": 4,
      "curveTo": "{0.86319918899138703, 0.60899999999998045}",
      "hasCurveFrom": true,
      "hasCurveTo": true,
      "point": "{0.58862224303437405, 0.72899999999998499}"
    }
  ],
  "resizingConstraint": 63,
  "resizingType": 0,
  "rotation": 0,
  "shouldBreakMaskChain": false,
  "style": {
    "_class": "style",
    "do_objectID": "4887F863-1D51-4E37-B059-903EED504307",
    "endMarkerType": 0,
    "fills": [
      {
        "_class": "fill",
        "color": {
          "_class": "color",
          "alpha": 1,
          "blue": 0.1764705882352941,
          "green": 0.1764705882352941,
          "red": 0.1764705882352941
        },
        "fillType": 0,
        "isEnabled": true,
        "noiseIndex": 0,
        "noiseIntensity": 0,
        "patternFillType": 1,
        "patternTileScale": 1
      }
    ],
    "miterLimit": 10,
    "startMarkerType": 0,
    "windingRule": 1
  }
}