{
  "_class": "shapePath",
  "booleanOperation": -1,
  "clippingMaskMode": 0,
  "do_objectID": "5D984E46-DC5F-48F4-82DA-74FBAC8C4284",
  "edited": true,
  "exportOptions": {
    "_class": "exportOptions",
    "do_objectID": "273D1206-48BC-4681-90E7-99FD74C7A890",
    "exportFormats": [
    ],
    "includedLayerIds": [
    ],
    "layerOptions": 0,
    "shouldTrim": false
  },
  "frame": {
    "_class": "rect",
    "constrainProportions": false,
    "do_objectID": "0C3DEDD1-94AD-4C6E-8A8D-7732115ACC0F",
    "height": 0.1243226183207025,
    "width": 0.1059863482545538,
    "x": 14.6698175716694,
    "y": 6.350057831581845
  },
  "hasClippingMask": false,
  "isClosed": true,
  "isFixedToViewport": false,
  "isFlippedHorizontal": false,
  "isFlippedVertical": false,
  "isLocked": false,
  "isVisible": true,
  "layerListExpandedType": 0,
  "name": "Path",
  "nameIsFixed": false,
  "pointRadiusBehaviour": 0,
  "points": [
    {
      "_class": "curvePoint",
      "cornerRadius": 0,
      "curveFrom": "{0.6183595438039351, 0.79227778229204759}",
      "curveMode": 4,
      "curveTo": "{0.89242038554447423, 0.5091719297452284}",
      "hasCurveFrom": true,
      "hasCurveTo": true,
      "point": "{0.62605247971245104, 0.60897652753245424}"
    },
    {
      "_class": "curvePoint",
      "cornerRadius": 0,
      "curveFrom": "{-0.16728153585229347, 0.91360886195500191}",
      "curveMode": 3,
      "curveTo": "{0.32698959626925583, 1.034939941617919}",
      "hasCurveFrom": true,
      "hasCurveTo": true,
      "point": "{0.16832279315631785, 0.99580088366213337}"
    },
    {
      "_class": "curvePoint",
      "cornerRadius": 0,
      "curveFrom": "{0.26159964104693939, 0.26520513515415794}",
      "curveMode": 4,
      "curveTo": "{0.065429775380044686, 0.58484077512640176}",
      "hasCurveFrom": true,
      "hasCurveTo": true,
      "point": "{0.29140976769240756, 0.47264214231980373}"
    },
    {
      "_class": "curvePoint",
      "cornerRadius": 0,
      "curveFrom": "{1.2097539917703775, 0.10212572700505693}",
      "curveMode": 3,
      "curveTo": "{0.62124439476961146, -0.042688787431331698}",
      "hasCurveFrom": true,
      "hasCurveTo": true,
      "point": "{0.81260617549372138, 0.0049303997481921439}"
    }
  ],
  "resizingConstraint": 63,
  "resizingType": 0,
  "rotation": 0,
  "shouldBreakMaskChain": false,
  "style": {
    "_class": "style",
    "do_objectID": "79AD85CC-8677-4C86-8E39-3C9117EA0FD8",
    "endMarkerType": 0,
    "fills": [
      {
        "_class": "fill",
        "color": {
          "_class": "color",
          "alpha": 1,
          "blue": 0.1764705882352941,
          "green": 0.1764705882352941,
          "red": 0.1764705882352941
        },
        "fillType": 0,
        "isEnabled": true,
        "noiseIndex": 0,
        "noiseIntensity": 0,
        "patternFillType": 1,
        "patternTileScale": 1
      }
    ],
    "miterLimit": 10,
    "startMarkerType": 0,
    "windingRule": 1
  }
}