{
  "_class": "shapePath",
  "booleanOperation": -1,
  "clippingMaskMode": 0,
  "do_objectID": "5DFD7590-3AF2-460C-BDB9-CE88495E5345",
  "edited": true,
  "exportOptions": {
    "_class": "exportOptions",
    "do_objectID": "C3ED07CC-D6FB-4D29-8C90-C60D26BFB359",
    "exportFormats": [
    ],
    "includedLayerIds": [
    ],
    "layerOptions": 0,
    "shouldTrim": false
  },
  "frame": {
    "_class": "rect",
    "constrainProportions": false,
    "do_objectID": "4616F2B2-9379-45E2-AD2E-C5EC16306259",
    "height": 0.1058906030855526,
    "width": 0.1059863482545573,
    "x": 19.57982443902053,
    "y": 7.695972967360001
  },
  "hasClippingMask": false,
  "isClosed": true,
  "isFixedToViewport": false,
  "isFlippedHorizontal": false,
  "isFlippedVertical": false,
  "isLocked": false,
  "isVisible": true,
  "layerListExpandedType": 0,
  "name": "Path",
  "nameIsFixed": false,
  "pointRadiusBehaviour": 0,
  "points": [
    {
      "_class": "curvePoint",
      "cornerRadius": 0,
      "curveFrom": "{1.0554952063531573, 0.27436778843578224}",
      "curveMode": 3,
      "curveTo": "{0.40449520635317526, -0.12163221156423276}",
      "hasCurveFrom": true,
      "hasCurveTo": true,
      "point": "{0.63349520635316026, 0.018367788435810439}"
    },
    {
      "_class": "curvePoint",
      "cornerRadius": 0,
      "curveFrom": "{-0.28850479364683679, 0.57636778843580316}",
      "curveMode": 3,
      "curveTo": "{0.36049520635316412, 0.97336778843579452}",
      "hasCurveFrom": true,
      "hasCurveTo": true,
      "point": "{0.13349520635316026, 0.83536778843576087}"
    }
  ],
  "resizingConstraint": 63,
  "resizingType": 0,
  "rotation": 0,
  "shouldBreakMaskChain": false,
  "style": {
    "_class": "style",
    "do_objectID": "27400C61-73D3-4536-AB2A-A1E8A812FE82",
    "endMarkerType": 0,
    "fills": [
      {
        "_class": "fill",
        "color": {
          "_class": "color",
          "alpha": 1,
          "blue": 0.1764705882352941,
          "green": 0.1764705882352941,
          "red": 0.1764705882352941
        },
        "fillType": 0,
        "isEnabled": true,
        "noiseIndex": 0,
        "noiseIntensity": 0,
        "patternFillType": 1,
        "patternTileScale": 1
      }
    ],
    "miterLimit": 10,
    "startMarkerType": 0,
    "windingRule": 1
  }
}