{
  "_class": "shapePath",
  "booleanOperation": -1,
  "clippingMaskMode": 0,
  "do_objectID": "65FDA527-FB83-49EF-9F63-359D02957EF7",
  "edited": true,
  "exportOptions": {
    "_class": "exportOptions",
    "do_objectID": "0A6A4029-DA0C-406F-89C7-1430EA3E1301",
    "exportFormats": [
    ],
    "includedLayerIds": [
    ],
    "layerOptions": 0,
    "shouldTrim": false
  },
  "frame": {
    "_class": "rect",
    "constrainProportions": false,
    "do_objectID": "1C707FA6-3FA3-43AE-A119-BF584480D3DE",
    "height": 0.1058906030855553,
    "width": 0.1059863482545502,
    "x": 25.48421611115577,
    "y": 16.83921917515794
  },
  "hasClippingMask": false,
  "isClosed": true,
  "isFixedToViewport": false,
  "isFlippedHorizontal": false,
  "isFlippedVertical": false,
  "isLocked": false,
  "isVisible": true,
  "layerListExpandedType": 0,
  "name": "Path",
  "nameIsFixed": false,
  "pointRadiusBehaviour": 0,
  "points": [
    {
      "_class": "curvePoint",
      "cornerRadius": 0,
      "curveFrom": "{-0.25651972691781566, 0.51396239221662654}",
      "curveMode": 3,
      "curveTo": "{0.32048027308212568, 0.86696239221663518}",
      "hasCurveFrom": true,
      "hasCurveTo": true,
      "point": "{0.1184802730821275, 0.74296239221663996}"
    },
    {
      "_class": "curvePoint",
      "cornerRadius": 0,
      "curveFrom": "{0.93848027308212068, 0.24496239221662108}",
      "curveMode": 3,
      "curveTo": "{0.36048027308214614, -0.10703760778338278}",
      "hasCurveFrom": true,
      "hasCurveTo": true,
      "point": "{0.56348027308212068, 0.01596239221663609}"
    }
  ],
  "resizingConstraint": 63,
  "resizingType": 0,
  "rotation": 0,
  "shouldBreakMaskChain": false,
  "style": {
    "_class": "style",
    "do_objectID": "F26B7ED9-67B4-420B-BDFA-8218DD448800",
    "endMarkerType": 0,
    "fills": [
      {
        "_class": "fill",
        "color": {
          "_class": "color",
          "alpha": 1,
          "blue": 0.1764705882352941,
          "green": 0.1764705882352941,
          "red": 0.1764705882352941
        },
        "fillType": 0,
        "isEnabled": true,
        "noiseIndex": 0,
        "noiseIntensity": 0,
        "patternFillType": 1,
        "patternTileScale": 1
      }
    ],
    "miterLimit": 10,
    "startMarkerType": 0,
    "windingRule": 1
  }
}