{
  "_class": "shapePath",
  "booleanOperation": -1,
  "clippingMaskMode": 0,
  "do_objectID": "66DF2579-BF4F-4422-B506-E76B179A80E1",
  "edited": true,
  "exportOptions": {
    "_class": "exportOptions",
    "do_objectID": "87364A93-067D-4C19-B97F-71BD88382836",
    "exportFormats": [
    ],
    "includedLayerIds": [
    ],
    "layerOptions": 0,
    "shouldTrim": false
  },
  "frame": {
    "_class": "rect",
    "constrainProportions": false,
    "do_objectID": "F01F3F09-CCD4-4D58-9523-92177BE499DD",
    "height": 0.1058906030855553,
    "width": 0.2266870825059151,
    "x": 28.54882605210971,
    "y": 19.02707354650569
  },
  "hasClippingMask": false,
  "isClosed": true,
  "isFixedToViewport": false,
  "isFlippedHorizontal": false,
  "isFlippedVertical": false,
  "isLocked": false,
  "isVisible": true,
  "layerListExpandedType": 0,
  "name": "Path",
  "nameIsFixed": false,
  "pointRadiusBehaviour": 0,
  "points": [
    {
      "_class": "curvePoint",
      "cornerRadius": 0,
      "curveFrom": "{-0.14875514066742648, -0.73356613018418959}",
      "curveMode": 4,
      "curveTo": "{0.20072686361101422, 0.95753791674043154}",
      "hasCurveFrom": true,
      "hasCurveTo": true,
      "point": "{0.024911633999631581, 0.95753791674043154}"
    },
    {
      "_class": "curvePoint",
      "cornerRadius": 0,
      "curveFrom": "{1.2001164885506943, 1.3071524128282221}",
      "curveMode": 4,
      "curveTo": "{0.63077592830201346, 0.93412623173455223}",
      "hasCurveFrom": true,
      "hasCurveTo": true,
      "point": "{0.96414452049793842, 0}"
    }
  ],
  "resizingConstraint": 63,
  "resizingType": 0,
  "rotation": 0,
  "shouldBreakMaskChain": false,
  "style": {
    "_class": "style",
    "do_objectID": "72EF7536-4543-4CCB-995B-AF07ADC816E3",
    "endMarkerType": 0,
    "fills": [
      {
        "_class": "fill",
        "color": {
          "_class": "color",
          "alpha": 1,
          "blue": 0.1764705882352941,
          "green": 0.1764705882352941,
          "red": 0.1764705882352941
        },
        "fillType": 0,
        "isEnabled": true,
        "noiseIndex": 0,
        "noiseIntensity": 0,
        "patternFillType": 1,
        "patternTileScale": 1
      }
    ],
    "miterLimit": 10,
    "startMarkerType": 0,
    "windingRule": 1
  }
}