{
  "_class": "shapePath",
  "booleanOperation": -1,
  "clippingMaskMode": 0,
  "do_objectID": "6F939900-354E-458F-B997-F5CD526AEE71",
  "edited": true,
  "exportOptions": {
    "_class": "exportOptions",
    "do_objectID": "88A5D05F-ACB3-4C40-926E-0F87A5958824",
    "exportFormats": [
    ],
    "includedLayerIds": [
    ],
    "layerOptions": 0,
    "shouldTrim": false
  },
  "frame": {
    "_class": "rect",
    "constrainProportions": false,
    "do_objectID": "0F4332B1-B4FB-40D2-9FC7-F5EFEAEB89DA",
    "height": 0.1606723070011888,
    "width": 0.382228378131181,
    "x": 29.75767335980293,
    "y": 14.30891521661388
  },
  "hasClippingMask": false,
  "isClosed": true,
  "isFixedToViewport": false,
  "isFlippedHorizontal": false,
  "isFlippedVertical": false,
  "isLocked": false,
  "isVisible": true,
  "layerListExpandedType": 0,
  "name": "Path",
  "nameIsFixed": false,
  "pointRadiusBehaviour": 0,
  "points": [
    {
      "_class": "curvePoint",
      "cornerRadius": 0,
      "curveFrom": "{0.7460312080264222, -0.051182160169810816}",
      "curveMode": 4,
      "curveTo": "{0.48100218792481136, 0.04976595911068029}",
      "hasCurveFrom": true,
      "hasCurveTo": true,
      "point": "{0.62222358084753804, 0.010396192591270684}"
    },
    {
      "_class": "curvePoint",
      "cornerRadius": 0,
      "curveFrom": "{1.0458877596157423, 0.28447033643782282}",
      "curveMode": 4,
      "curveTo": "{0.82545496885814851, 0.1875601419285422}",
      "hasCurveFrom": true,
      "hasCurveTo": true,
      "point": "{0.96497745780588084, 0.031595297640190173}"
    },
    {
      "_class": "curvePoint",
      "cornerRadius": 0,
      "curveFrom": "{0.74645593402017685, 0.60144743097857578}",
      "curveMode": 4,
      "curveTo": "{0.9719854367027897, 0.40358911718880408}",
      "hasCurveFrom": true,
      "hasCurveTo": true,
      "point": "{0.89107513489292833, 0.51715575137937453}"
    },
    {
      "_class": "curvePoint",
      "cornerRadius": 0,
      "curveFrom": "{0.27692134792669171, 1.0718656668256994}",
      "curveMode": 4,
      "curveTo": "{0.61946286188815114, 0.91438660074811839}",
      "hasCurveFrom": true,
      "hasCurveTo": true,
      "point": "{0.47335712003726454, 0.98050761887685822}"
    },
    {
      "_class": "curvePoint",
      "cornerRadius": 0,
      "curveFrom": "{0.036314072465856426, 0.31122158804715311}",
      "curveMode": 4,
      "curveTo": "{0.10150951250686958, 0.8417039548661579}",
      "hasCurveFrom": true,
      "hasCurveTo": true,
      "point": "{0, 0.29809833254068324}"
    },
    {
      "_class": "curvePoint",
      "cornerRadius": 0,
      "curveFrom": "{0.1601216996447285, 0.16131363091563114}",
      "curveMode": 4,
      "curveTo": "{0.10469495746001108, 0.11386801485380062}",
      "hasCurveFrom": true,
      "hasCurveTo": true,
      "point": "{0.13909776295397777, 0.14263822884872179}"
    },
    {
      "_class": "curvePoint",
      "cornerRadius": 0,
      "curveFrom": "{0.34530223292085843, 0.46314850756429471}",
      "curveMode": 3,
      "curveTo": "{0.18284454031049766, 0.47576702247437402}",
      "hasCurveFrom": true,
      "hasCurveTo": true,
      "point": "{0.20408083999811966, 0.47425280068517367}"
    }
  ],
  "resizingConstraint": 63,
  "resizingType": 0,
  "rotation": 0,
  "shouldBreakMaskChain": false,
  "style": {
    "_class": "style",
    "do_objectID": "F75BDA4E-C510-45BB-A2A6-AEC389CA9A1C",
    "endMarkerType": 0,
    "fills": [
      {
        "_class": "fill",
        "color": {
          "_class": "color",
          "alpha": 1,
          "blue": 0.1764705882352941,
          "green": 0.1764705882352941,
          "red": 0.1764705882352941
        },
        "fillType": 0,
        "isEnabled": true,
        "noiseIndex": 0,
        "noiseIntensity": 0,
        "patternFillType": 1,
        "patternTileScale": 1
      }
    ],
    "miterLimit": 10,
    "startMarkerType": 0,
    "windingRule": 1
  }
}