{
  "_class": "shapePath",
  "booleanOperation": -1,
  "clippingMaskMode": 0,
  "do_objectID": "7A46DE3D-739E-4EED-9C3D-3AFBF7A6D2BA",
  "edited": true,
  "exportOptions": {
    "_class": "exportOptions",
    "do_objectID": "585CC321-1519-4AFA-9859-85348A17A8F9",
    "exportFormats": [
    ],
    "includedLayerIds": [
    ],
    "layerOptions": 0,
    "shouldTrim": false
  },
  "frame": {
    "_class": "rect",
    "constrainProportions": false,
    "do_objectID": "855F7879-F64D-4BC6-B463-376902473E55",
    "height": 0.1058906030855589,
    "width": 0.1059863482545254,
    "x": 34.67113035107788,
    "y": 31.38876934201532
  },
  "hasClippingMask": false,
  "isClosed": true,
  "isFixedToViewport": false,
  "isFlippedHorizontal": false,
  "isFlippedVertical": false,
  "isLocked": false,
  "isVisible": true,
  "layerListExpandedType": 0,
  "name": "Path",
  "nameIsFixed": false,
  "pointRadiusBehaviour": 0,
  "points": [
    {
      "_class": "curvePoint",
      "cornerRadius": 0,
      "curveFrom": "{-0.26905050844351308, 0.70258392792243285}",
      "curveMode": 4,
      "curveTo": "{0.41194949155647009, 0.94958392792244695}",
      "hasCurveFrom": true,
      "hasCurveTo": true,
      "point": "{0.17294949155649419, 0.86558392792244376}"
    },
    {
      "_class": "curvePoint",
      "cornerRadius": 0,
      "curveFrom": "{0.92794949155648965, 0.16658392792243149}",
      "curveMode": 3,
      "curveTo": "{0.24794949155648283, -0.079416072077549416}",
      "hasCurveFrom": true,
      "hasCurveTo": true,
      "point": "{0.48394949155647282, 0.006583927922406474}"
    }
  ],
  "resizingConstraint": 63,
  "resizingType": 0,
  "rotation": 0,
  "shouldBreakMaskChain": false,
  "style": {
    "_class": "style",
    "do_objectID": "39020AE9-94FD-418A-A920-07F5507009FD",
    "endMarkerType": 0,
    "fills": [
      {
        "_class": "fill",
        "color": {
          "_class": "color",
          "alpha": 1,
          "blue": 0.1764705882352941,
          "green": 0.1764705882352941,
          "red": 0.1764705882352941
        },
        "fillType": 0,
        "isEnabled": true,
        "noiseIndex": 0,
        "noiseIntensity": 0,
        "patternFillType": 1,
        "patternTileScale": 1
      }
    ],
    "miterLimit": 10,
    "startMarkerType": 0,
    "windingRule": 1
  }
}