{
  "_class": "shapePath",
  "booleanOperation": -1,
  "clippingMaskMode": 0,
  "do_objectID": "7A899730-1C7A-498B-A011-63E231E8DAEA",
  "edited": true,
  "exportOptions": {
    "_class": "exportOptions",
    "do_objectID": "9EBDE6B7-4528-4CE0-BB37-9306BB47F4AD",
    "exportFormats": [
    ],
    "includedLayerIds": [
    ],
    "layerOptions": 0,
    "shouldTrim": false
  },
  "frame": {
    "_class": "rect",
    "constrainProportions": false,
    "do_objectID": "0792468F-DC1C-4BA4-879F-9F14F70FF51E",
    "height": 0.1058906030855589,
    "width": 0.1059863482545644,
    "x": 4.91927265480741,
    "y": 18.69058377436075
  },
  "hasClippingMask": false,
  "isClosed": true,
  "isFixedToViewport": false,
  "isFlippedHorizontal": false,
  "isFlippedVertical": false,
  "isLocked": false,
  "isVisible": true,
  "layerListExpandedType": 0,
  "name": "Path",
  "nameIsFixed": false,
  "pointRadiusBehaviour": 0,
  "points": [
    {
      "_class": "curvePoint",
      "cornerRadius": 0,
      "curveFrom": "{0.9403025758893051, 0.24618311619636302}",
      "curveMode": 3,
      "curveTo": "{0.36130257588930448, -0.1078168838036504}",
      "hasCurveFrom": true,
      "hasCurveTo": true,
      "point": "{0.56330257588930266, 0.016183116196344827}"
    },
    {
      "_class": "curvePoint",
      "cornerRadius": 0,
      "curveFrom": "{-0.25769742411069529, 0.5141831161963637}",
      "curveMode": 3,
      "curveTo": "{0.322302575889303, 0.86818311619634869}",
      "hasCurveFrom": true,
      "hasCurveTo": true,
      "point": "{0.11930257588930004, 0.74418311619635347}"
    }
  ],
  "resizingConstraint": 63,
  "resizingType": 0,
  "rotation": 0,
  "shouldBreakMaskChain": false,
  "style": {
    "_class": "style",
    "do_objectID": "EF2398B4-9CB6-48C8-92B9-B5C874FBD0A7",
    "endMarkerType": 0,
    "fills": [
      {
        "_class": "fill",
        "color": {
          "_class": "color",
          "alpha": 1,
          "blue": 0.1764705882352941,
          "green": 0.1764705882352941,
          "red": 0.1764705882352941
        },
        "fillType": 0,
        "isEnabled": true,
        "noiseIndex": 0,
        "noiseIntensity": 0,
        "patternFillType": 1,
        "patternTileScale": 1
      }
    ],
    "miterLimit": 10,
    "startMarkerType": 0,
    "windingRule": 1
  }
}