{
  "_class": "shapePath",
  "booleanOperation": -1,
  "clippingMaskMode": 0,
  "do_objectID": "7E463D6F-BFDD-4899-8A59-E47FE98D394E",
  "edited": true,
  "exportOptions": {
    "_class": "exportOptions",
    "do_objectID": "11CCF260-448C-4A37-8633-24F828B93AB4",
    "exportFormats": [
    ],
    "includedLayerIds": [
    ],
    "layerOptions": 0,
    "shouldTrim": false
  },
  "frame": {
    "_class": "rect",
    "constrainProportions": false,
    "do_objectID": "47700902-3637-4320-8C48-BA959AB508D5",
    "height": 0.1461965445540754,
    "width": 0.1191762016275675,
    "x": 26.58219862045536,
    "y": 5.613919805036568
  },
  "hasClippingMask": false,
  "isClosed": true,
  "isFixedToViewport": false,
  "isFlippedHorizontal": false,
  "isFlippedVertical": false,
  "isLocked": false,
  "isVisible": true,
  "layerListExpandedType": 0,
  "name": "Path",
  "nameIsFixed": false,
  "pointRadiusBehaviour": 0,
  "points": [
    {
      "_class": "curvePoint",
      "cornerRadius": 0,
      "curveFrom": "{0.37441852539159015, 0.73096183217169064}",
      "curveMode": 4,
      "curveTo": "{2.1125911418208676, 0.20564400756673706}",
      "hasCurveFrom": true,
      "hasCurveTo": true,
      "point": "{0.28246973886418419, 0.52405206598621856}"
    },
    {
      "_class": "curvePoint",
      "cornerRadius": 0,
      "curveFrom": "{-0.018577399247792368, 0.79364495168632565}",
      "curveMode": 4,
      "curveTo": "{0.44457204400139938, 0.93010554815180424}",
      "hasCurveFrom": true,
      "hasCurveTo": true,
      "point": "{0.07269028515720441, 1}"
    },
    {
      "_class": "curvePoint",
      "cornerRadius": 0,
      "curveFrom": "{-0.1929395425886436, -0.47610425688888941}",
      "curveMode": 4,
      "curveTo": "{-0.088730917857601593, 0.59450123570621216}",
      "hasCurveFrom": true,
      "hasCurveTo": true,
      "point": "{0.28246973886418419, 0.52405206598621856}"
    }
  ],
  "resizingConstraint": 63,
  "resizingType": 0,
  "rotation": 0,
  "shouldBreakMaskChain": false,
  "style": {
    "_class": "style",
    "do_objectID": "4003A3BD-BF7C-49AB-A4AD-9ECEDEA1CDBF",
    "endMarkerType": 0,
    "fills": [
      {
        "_class": "fill",
        "color": {
          "_class": "color",
          "alpha": 1,
          "blue": 0.1764705882352941,
          "green": 0.1764705882352941,
          "red": 0.1764705882352941
        },
        "fillType": 0,
        "isEnabled": true,
        "noiseIndex": 0,
        "noiseIntensity": 0,
        "patternFillType": 1,
        "patternTileScale": 1
      }
    ],
    "miterLimit": 10,
    "startMarkerType": 0,
    "windingRule": 1
  }
}