{
  "_class": "shapePath",
  "booleanOperation": -1,
  "clippingMaskMode": 0,
  "do_objectID": "82FAB854-D086-4EEE-A4EB-4F9CDD36D4CE",
  "edited": true,
  "exportOptions": {
    "_class": "exportOptions",
    "do_objectID": "D6BBC247-8CBE-4E62-954E-81926FF68AC6",
    "exportFormats": [
    ],
    "includedLayerIds": [
    ],
    "layerOptions": 0,
    "shouldTrim": false
  },
  "frame": {
    "_class": "rect",
    "constrainProportions": false,
    "do_objectID": "646E1F7D-8874-42DE-B3C8-84885F146401",
    "height": 0.1058906030855695,
    "width": 0.1059863482545573,
    "x": 21.06712582024389,
    "y": 20.20390718478528
  },
  "hasClippingMask": false,
  "isClosed": true,
  "isFixedToViewport": false,
  "isFlippedHorizontal": false,
  "isFlippedVertical": false,
  "isLocked": false,
  "isVisible": true,
  "layerListExpandedType": 0,
  "name": "Path",
  "nameIsFixed": false,
  "pointRadiusBehaviour": 0,
  "points": [
    {
      "_class": "curvePoint",
      "cornerRadius": 0,
      "curveFrom": "{-0.26853122684036634, 0.70371714169681354}",
      "curveMode": 3,
      "curveTo": "{0.41246877315961683, 0.94871714169681809}",
      "hasCurveFrom": true,
      "hasCurveTo": true,
      "point": "{0.17246877315960774, 0.86171714169680058}"
    },
    {
      "_class": "curvePoint",
      "cornerRadius": 0,
      "curveFrom": "{0.92846877315963638, 0.1667171416968074}",
      "curveMode": 3,
      "curveTo": "{0.24746877315959637, -0.080282858303178273}",
      "hasCurveFrom": true,
      "hasCurveTo": true,
      "point": "{0.48546877315959591, 0.0067171416968108133}"
    }
  ],
  "resizingConstraint": 63,
  "resizingType": 0,
  "rotation": 0,
  "shouldBreakMaskChain": false,
  "style": {
    "_class": "style",
    "do_objectID": "F68784C6-59FA-4F2B-B2F8-440BA8A8A150",
    "endMarkerType": 0,
    "fills": [
      {
        "_class": "fill",
        "color": {
          "_class": "color",
          "alpha": 1,
          "blue": 0.1764705882352941,
          "green": 0.1764705882352941,
          "red": 0.1764705882352941
        },
        "fillType": 0,
        "isEnabled": true,
        "noiseIndex": 0,
        "noiseIntensity": 0,
        "patternFillType": 1,
        "patternTileScale": 1
      }
    ],
    "miterLimit": 10,
    "startMarkerType": 0,
    "windingRule": 1
  }
}