{
  "_class": "shapePath",
  "booleanOperation": -1,
  "clippingMaskMode": 0,
  "do_objectID": "87206C1E-ED75-4E5D-9AAD-AF44B4A32BA9",
  "edited": true,
  "exportOptions": {
    "_class": "exportOptions",
    "do_objectID": "7081A764-DD2D-4AB1-983C-62E2F4160B6B",
    "exportFormats": [
    ],
    "includedLayerIds": [
    ],
    "layerOptions": 0,
    "shouldTrim": false
  },
  "frame": {
    "_class": "rect",
    "constrainProportions": false,
    "do_objectID": "F021512C-DE3A-48A3-9CC6-0547A7AC1784",
    "height": 0.1058906030855589,
    "width": 0.1059863482545538,
    "x": 13.23808445619947,
    "y": 23.34014354135916
  },
  "hasClippingMask": false,
  "isClosed": true,
  "isFixedToViewport": false,
  "isFlippedHorizontal": false,
  "isFlippedVertical": false,
  "isLocked": false,
  "isVisible": true,
  "layerListExpandedType": 0,
  "name": "Path",
  "nameIsFixed": false,
  "pointRadiusBehaviour": 0,
  "points": [
    {
      "_class": "curvePoint",
      "cornerRadius": 0,
      "curveFrom": "{0.92948648280324164, 0.16746016298776567}",
      "curveMode": 3,
      "curveTo": "{0.24548648280324414, -0.07853983701221523}",
      "hasCurveFrom": true,
      "hasCurveTo": true,
      "point": "{0.48348648280324369, 0.0064601629877643063}"
    },
    {
      "_class": "curvePoint",
      "cornerRadius": 0,
      "curveFrom": "{-0.26851351719676586, 0.70046016298778113}",
      "curveMode": 3,
      "curveTo": "{0.40948648280323141, 0.94846016298777158}",
      "hasCurveFrom": true,
      "hasCurveTo": true,
      "point": "{0.17348648280324142, 0.86246016298775885}"
    }
  ],
  "resizingConstraint": 63,
  "resizingType": 0,
  "rotation": 0,
  "shouldBreakMaskChain": false,
  "style": {
    "_class": "style",
    "do_objectID": "040805C5-7F35-497B-A2C1-D525D8790658",
    "endMarkerType": 0,
    "fills": [
      {
        "_class": "fill",
        "color": {
          "_class": "color",
          "alpha": 1,
          "blue": 0.1764705882352941,
          "green": 0.1764705882352941,
          "red": 0.1764705882352941
        },
        "fillType": 0,
        "isEnabled": true,
        "noiseIndex": 0,
        "noiseIntensity": 0,
        "patternFillType": 1,
        "patternTileScale": 1
      }
    ],
    "miterLimit": 10,
    "startMarkerType": 0,
    "windingRule": 1
  }
}