{
  "_class": "shapePath",
  "booleanOperation": -1,
  "clippingMaskMode": 0,
  "do_objectID": "95EF2CA5-FF33-4729-8EDD-CB4CC4CD1BBE",
  "edited": true,
  "exportOptions": {
    "_class": "exportOptions",
    "do_objectID": "31AC39B9-C3B2-4AE4-8C09-468E5A49977C",
    "exportFormats": [
    ],
    "includedLayerIds": [
    ],
    "layerOptions": 0,
    "shouldTrim": false
  },
  "frame": {
    "_class": "rect",
    "constrainProportions": false,
    "do_objectID": "A2EA4354-C4FF-454A-B898-1E634D7F6706",
    "height": 0.1206005963899806,
    "width": 0.1362322266063316,
    "x": 20.25028613097929,
    "y": 17.6327584511064
  },
  "hasClippingMask": false,
  "isClosed": true,
  "isFixedToViewport": false,
  "isFlippedHorizontal": false,
  "isFlippedVertical": false,
  "isLocked": false,
  "isVisible": true,
  "layerListExpandedType": 0,
  "name": "Path",
  "nameIsFixed": false,
  "pointRadiusBehaviour": 0,
  "points": [
    {
      "_class": "curvePoint",
      "cornerRadius": 0,
      "curveFrom": "{0.61945076768471841, 0.58166899909891767}",
      "curveMode": 4,
      "curveTo": "{0.89770309073705834, 0.40817697393416247}",
      "hasCurveFrom": true,
      "hasCurveTo": true,
      "point": "{0.68797114702309259, 0.48752603970719244}"
    },
    {
      "_class": "curvePoint",
      "cornerRadius": 0,
      "curveFrom": "{0.45261853973044558, 0.73095283470581651}",
      "curveMode": 4,
      "curveTo": "{0.52352223661101827, 0.57023735402992415}",
      "hasCurveFrom": true,
      "hasCurveTo": true,
      "point": "{0.43831863447722025, 0.51711382694458308}"
    },
    {
      "_class": "curvePoint",
      "cornerRadius": 0,
      "curveFrom": "{-0.15691492168827537, 0.88158156973258461}",
      "curveMode": 4,
      "curveTo": "{0.23335332584765164, 1.042297050408477}",
      "hasCurveFrom": true,
      "hasCurveTo": true,
      "point": "{0.1159749368940966, 0.99522557071261442}"
    },
    {
      "_class": "curvePoint",
      "cornerRadius": 0,
      "curveFrom": "{0.25003654864309249, 0.28982582498454262}",
      "curveMode": 4,
      "curveTo": "{0.11537910750855966, 0.37522693814705099}",
      "hasCurveFrom": true,
      "hasCurveTo": true,
      "point": "{0.28340299423394028, 0.3503462988792313}"
    },
    {
      "_class": "curvePoint",
      "cornerRadius": 0,
      "curveFrom": "{0.3429859327890401, 0.024880639267800549}",
      "curveMode": 3,
      "curveTo": "{0.23514081400431328, 0.22997780079979804}",
      "hasCurveFrom": true,
      "hasCurveTo": true,
      "point": "{0.25599484249859739, 0.19097571762322724}"
    },
    {
      "_class": "curvePoint",
      "cornerRadius": 0,
      "curveFrom": "{1.0901559822700464, 0.31672381338217565}",
      "curveMode": 4,
      "curveTo": "{0.83216185832645351, 0.13919708995777452}",
      "hasCurveFrom": true,
      "hasCurveTo": true,
      "point": "{0.95490271174995967, 0}"
    }
  ],
  "resizingConstraint": 63,
  "resizingType": 0,
  "rotation": 0,
  "shouldBreakMaskChain": false,
  "style": {
    "_class": "style",
    "do_objectID": "61CA9D90-3DF6-4AAB-816C-1C6A9F654E2F",
    "endMarkerType": 0,
    "fills": [
      {
        "_class": "fill",
        "color": {
          "_class": "color",
          "alpha": 1,
          "blue": 0.1764705882352941,
          "green": 0.1764705882352941,
          "red": 0.1764705882352941
        },
        "fillType": 0,
        "isEnabled": true,
        "noiseIndex": 0,
        "noiseIntensity": 0,
        "patternFillType": 1,
        "patternTileScale": 1
      }
    ],
    "miterLimit": 10,
    "startMarkerType": 0,
    "windingRule": 1
  }
}