{
  "_class": "shapePath",
  "booleanOperation": -1,
  "clippingMaskMode": 0,
  "do_objectID": "98DA47FB-747A-4A88-B863-77234DEBF0DA",
  "edited": true,
  "exportOptions": {
    "_class": "exportOptions",
    "do_objectID": "7D849C47-B3C5-44EA-A75C-014744EDA0ED",
    "exportFormats": [
    ],
    "includedLayerIds": [
    ],
    "layerOptions": 0,
    "shouldTrim": false
  },
  "frame": {
    "_class": "rect",
    "constrainProportions": false,
    "do_objectID": "23F02DC6-562F-4D53-8C21-9E3116137F33",
    "height": 0.1065570569296526,
    "width": 0.1184078309209227,
    "x": 36.02734296894289,
    "y": 16.50849914979075
  },
  "hasClippingMask": false,
  "isClosed": true,
  "isFixedToViewport": false,
  "isFlippedHorizontal": false,
  "isFlippedVertical": false,
  "isLocked": false,
  "isVisible": true,
  "layerListExpandedType": 0,
  "name": "Path",
  "nameIsFixed": false,
  "pointRadiusBehaviour": 0,
  "points": [
    {
      "_class": "curvePoint",
      "cornerRadius": 0,
      "curveFrom": "{1.1317214306964882, 0.57689430907345907}",
      "curveMode": 4,
      "curveTo": "{0.71423858000129048, 0.65528496057025687}",
      "hasCurveFrom": true,
      "hasCurveTo": true,
      "point": "{0.89932949902871151, 0.23745517734949087}"
    },
    {
      "_class": "curvePoint",
      "cornerRadius": 0,
      "curveFrom": "{0.38176044767422462, 1.1469389495695392}",
      "curveMode": 4,
      "curveTo": "{0.91989515669844657, 0.7382420577853146}",
      "hasCurveFrom": true,
      "hasCurveTo": true,
      "point": "{0.68681770310832335, 0.88741261791512926}"
    },
    {
      "_class": "curvePoint",
      "cornerRadius": 0,
      "curveFrom": "{-0.12141264331145157, 0.37825392032916616}",
      "curveMode": 4,
      "curveTo": "{0.2364298001415806, 0.91100592079278719}",
      "hasCurveFrom": true,
      "hasCurveTo": true,
      "point": "{0.097954371832168638, 0.65147958913837734}"
    },
    {
      "_class": "curvePoint",
      "cornerRadius": 0,
      "curveFrom": "{0.30635303621859422, 0}",
      "curveMode": 4,
      "curveTo": "{0.06162170994900764, 0.067735611487517597}",
      "hasCurveFrom": true,
      "hasCurveTo": true,
      "point": "{0.31320825544182623, 0}"
    }
  ],
  "resizingConstraint": 63,
  "resizingType": 0,
  "rotation": 0,
  "shouldBreakMaskChain": false,
  "style": {
    "_class": "style",
    "do_objectID": "E53C92BC-64D5-4243-B4C9-C1664C375A2A",
    "endMarkerType": 0,
    "fills": [
      {
        "_class": "fill",
        "color": {
          "_class": "color",
          "alpha": 1,
          "blue": 0.1764705882352941,
          "green": 0.1764705882352941,
          "red": 0.1764705882352941
        },
        "fillType": 0,
        "isEnabled": true,
        "noiseIndex": 0,
        "noiseIntensity": 0,
        "patternFillType": 1,
        "patternTileScale": 1
      }
    ],
    "miterLimit": 10,
    "startMarkerType": 0,
    "windingRule": 1
  }
}