{
  "_class": "shapePath",
  "booleanOperation": -1,
  "clippingMaskMode": 0,
  "do_objectID": "A0DCC073-8CAA-4442-A4D6-E88C51113A2A",
  "edited": true,
  "exportOptions": {
    "_class": "exportOptions",
    "do_objectID": "E1544D61-89B3-4725-BC53-3ABF793ED744",
    "exportFormats": [
    ],
    "includedLayerIds": [
    ],
    "layerOptions": 0,
    "shouldTrim": false
  },
  "frame": {
    "_class": "rect",
    "constrainProportions": false,
    "do_objectID": "BCF42B07-C9CC-48C7-BD79-8421D9A33350",
    "height": 0.1828756203178852,
    "width": 0.1370169246144215,
    "x": 13.3038725873104,
    "y": 13.58784168188462
  },
  "hasClippingMask": false,
  "isClosed": true,
  "isFixedToViewport": false,
  "isFlippedHorizontal": false,
  "isFlippedVertical": false,
  "isLocked": false,
  "isVisible": true,
  "layerListExpandedType": 0,
  "name": "Path",
  "nameIsFixed": false,
  "pointRadiusBehaviour": 0,
  "points": [
    {
      "_class": "curvePoint",
      "cornerRadius": 0,
      "curveFrom": "{0.22571090047393155, 0.66518847006652015}",
      "curveMode": 4,
      "curveTo": "{0.20260663507109572, 0.81552106430155313}",
      "hasCurveFrom": true,
      "hasCurveTo": true,
      "point": "{0, 1}"
    },
    {
      "_class": "curvePoint",
      "cornerRadius": 0,
      "curveFrom": "{0.82049763033174006, 0.1073170731707402}",
      "curveMode": 4,
      "curveTo": "{0.4555687203791457, 0.33170731707316714}",
      "hasCurveFrom": true,
      "hasCurveTo": true,
      "point": "{0.68957345971564232, 0}"
    },
    {
      "_class": "curvePoint",
      "cornerRadius": 0,
      "curveFrom": "{0.51421800947866492, 0.66075388026608073}",
      "curveMode": 4,
      "curveTo": "{0.85663507109003778, 0.48913525498891836}",
      "hasCurveFrom": true,
      "hasCurveTo": true,
      "point": "{1, 0.55254988913524761}"
    }
  ],
  "resizingConstraint": 63,
  "resizingType": 0,
  "rotation": 0,
  "shouldBreakMaskChain": false,
  "style": {
    "_class": "style",
    "do_objectID": "BF424FB3-17A4-4CE5-A1D9-3DAD57BF2927",
    "endMarkerType": 0,
    "fills": [
      {
        "_class": "fill",
        "color": {
          "_class": "color",
          "alpha": 1,
          "blue": 0.1764705882352941,
          "green": 0.1764705882352941,
          "red": 0.1764705882352941
        },
        "fillType": 0,
        "isEnabled": true,
        "noiseIndex": 0,
        "noiseIntensity": 0,
        "patternFillType": 1,
        "patternTileScale": 1
      }
    ],
    "miterLimit": 10,
    "startMarkerType": 0,
    "windingRule": 1
  }
}