{
  "_class": "shapePath",
  "booleanOperation": -1,
  "clippingMaskMode": 0,
  "do_objectID": "AC6BAA43-5A8A-4D25-AD27-7EAEC7D9EEDF",
  "edited": true,
  "exportOptions": {
    "_class": "exportOptions",
    "do_objectID": "47D19707-9CD9-472A-BF74-411CDB11BCA7",
    "exportFormats": [
    ],
    "includedLayerIds": [
    ],
    "layerOptions": 0,
    "shouldTrim": false
  },
  "frame": {
    "_class": "rect",
    "constrainProportions": false,
    "do_objectID": "52AC8345-E356-4B3D-A70E-993B4D405845",
    "height": 0.1058906030855624,
    "width": 0.1549606436739523,
    "x": 18.36100393735426,
    "y": 16.75138703260585
  },
  "hasClippingMask": false,
  "isClosed": true,
  "isFixedToViewport": false,
  "isFlippedHorizontal": false,
  "isFlippedVertical": false,
  "isLocked": false,
  "isVisible": true,
  "layerListExpandedType": 0,
  "name": "Path",
  "nameIsFixed": false,
  "pointRadiusBehaviour": 0,
  "points": [
    {
      "_class": "curvePoint",
      "cornerRadius": 0,
      "curveFrom": "{0.53530644274174544, -0.00085180824608864329}",
      "curveMode": 4,
      "curveTo": "{0.084299203509518986, 0.1040968468385338}",
      "hasCurveFrom": true,
      "hasCurveTo": true,
      "point": "{0.27182602307413622, 1.4328521402094616e-06}"
    },
    {
      "_class": "curvePoint",
      "cornerRadius": 0,
      "curveFrom": "{1.0779818200292914, 0.65187763191440706}",
      "curveMode": 4,
      "curveTo": "{0.65211784152081331, 0.37969372157297665}",
      "hasCurveFrom": true,
      "hasCurveTo": true,
      "point": "{0.96064660331846152, 0.25768024452336491}"
    },
    {
      "_class": "curvePoint",
      "cornerRadius": 0,
      "curveFrom": "{0.62592694493358547, 0.92747450664885001}",
      "curveMode": 4,
      "curveTo": "{0.91297917152970121, 0.78924944873250202}",
      "hasCurveFrom": true,
      "hasCurveTo": true,
      "point": "{0.72807144162380522, 0.87969300514689441}"
    },
    {
      "_class": "curvePoint",
      "cornerRadius": 0,
      "curveFrom": "{0.54159225792268251, 0.45563217931713912}",
      "curveMode": 4,
      "curveTo": "{0.52168717651637686, 0.95392498069457488}",
      "hasCurveFrom": true,
      "hasCurveTo": true,
      "point": "{0.42059031568963667, 1}"
    },
    {
      "_class": "curvePoint",
      "cornerRadius": 0,
      "curveFrom": "{-0.077036719467855563, 0.21501818961090374}",
      "curveMode": 3,
      "curveTo": "{0.062298850376239279, 0.70307209780935076}",
      "hasCurveFrom": true,
      "hasCurveTo": true,
      "point": "{0.039250861379479994, 0.62116095237744084}"
    }
  ],
  "resizingConstraint": 63,
  "resizingType": 0,
  "rotation": 0,
  "shouldBreakMaskChain": false,
  "style": {
    "_class": "style",
    "do_objectID": "B3B4B91A-4D6D-48F8-ABC9-9B4A2059963A",
    "endMarkerType": 0,
    "fills": [
      {
        "_class": "fill",
        "color": {
          "_class": "color",
          "alpha": 1,
          "blue": 0.1764705882352941,
          "green": 0.1764705882352941,
          "red": 0.1764705882352941
        },
        "fillType": 0,
        "isEnabled": true,
        "noiseIndex": 0,
        "noiseIntensity": 0,
        "patternFillType": 1,
        "patternTileScale": 1
      }
    ],
    "miterLimit": 10,
    "startMarkerType": 0,
    "windingRule": 1
  }
}