{
  "_class": "shapePath",
  "booleanOperation": -1,
  "clippingMaskMode": 0,
  "do_objectID": "B4F7E97C-8974-4420-A7A4-43D4051E7E73",
  "edited": true,
  "exportOptions": {
    "_class": "exportOptions",
    "do_objectID": "271A592A-7EEE-4AB9-9D83-2D841B3E63C3",
    "exportFormats": [
    ],
    "includedLayerIds": [
    ],
    "layerOptions": 0,
    "shouldTrim": false
  },
  "frame": {
    "_class": "rect",
    "constrainProportions": false,
    "do_objectID": "949BF5E2-8B50-4FA2-9F10-2BCBB18C5B22",
    "height": 0.1058906030855624,
    "width": 0.1059863482545627,
    "x": 4.913326738028744,
    "y": 21.34314389603032
  },
  "hasClippingMask": false,
  "isClosed": true,
  "isFixedToViewport": false,
  "isFlippedHorizontal": false,
  "isFlippedVertical": false,
  "isLocked": false,
  "isVisible": true,
  "layerListExpandedType": 0,
  "name": "Path",
  "nameIsFixed": false,
  "pointRadiusBehaviour": 0,
  "points": [
    {
      "_class": "curvePoint",
      "cornerRadius": 0,
      "curveFrom": "{0.92855416543296343, 0.16703391638753828}",
      "curveMode": 4,
      "curveTo": "{0.2455541654329636, -0.08196608361242852}",
      "hasCurveFrom": true,
      "hasCurveTo": true,
      "point": "{0.48355416543296315, 0.0070339163875132726}"
    },
    {
      "_class": "curvePoint",
      "cornerRadius": 0,
      "curveFrom": "{-0.26944583456703697, 0.70003391638755375}",
      "curveMode": 3,
      "curveTo": "{0.40955416543295797, 0.94703391638756784}",
      "hasCurveFrom": true,
      "hasCurveTo": true,
      "point": "{0.17455416543295854, 0.86103391638755511}"
    }
  ],
  "resizingConstraint": 63,
  "resizingType": 0,
  "rotation": 0,
  "shouldBreakMaskChain": false,
  "style": {
    "_class": "style",
    "do_objectID": "16441C48-F284-48F5-8F7A-E5FB3F9DCA3B",
    "endMarkerType": 0,
    "fills": [
      {
        "_class": "fill",
        "color": {
          "_class": "color",
          "alpha": 1,
          "blue": 0.1764705882352941,
          "green": 0.1764705882352941,
          "red": 0.1764705882352941
        },
        "fillType": 0,
        "isEnabled": true,
        "noiseIndex": 0,
        "noiseIntensity": 0,
        "patternFillType": 1,
        "patternTileScale": 1
      }
    ],
    "miterLimit": 10,
    "startMarkerType": 0,
    "windingRule": 1
  }
}