{
  "_class": "shapePath",
  "booleanOperation": -1,
  "clippingMaskMode": 0,
  "do_objectID": "BAD47289-621F-4758-B8D2-60A95E856592",
  "edited": true,
  "exportOptions": {
    "_class": "exportOptions",
    "do_objectID": "8916F9FC-551E-4BAB-9B0D-3EF6A5448A97",
    "exportFormats": [
    ],
    "includedLayerIds": [
    ],
    "layerOptions": 0,
    "shouldTrim": false
  },
  "frame": {
    "_class": "rect",
    "constrainProportions": false,
    "do_objectID": "F118681F-9A15-4CFC-AAA4-BF50CD2C88CB",
    "height": 0.1195382103541203,
    "width": 0.1059863482545857,
    "x": 24.1000557039405,
    "y": 10.50166353057769
  },
  "hasClippingMask": false,
  "isClosed": true,
  "isFixedToViewport": false,
  "isFlippedHorizontal": false,
  "isFlippedVertical": false,
  "isLocked": false,
  "isVisible": true,
  "layerListExpandedType": 0,
  "name": "Path",
  "nameIsFixed": false,
  "pointRadiusBehaviour": 0,
  "points": [
    {
      "_class": "curvePoint",
      "cornerRadius": 0,
      "curveFrom": "{0.86868985592086612, 0.98643147896880468}",
      "curveMode": 3,
      "curveTo": "{1.1358020780661235, 0.73812754409771375}",
      "hasCurveFrom": true,
      "hasCurveTo": true,
      "point": "{0.96994178128280917, 0.89213025780190436}"
    },
    {
      "_class": "curvePoint",
      "cornerRadius": 0,
      "curveFrom": "{0.43571733699223947, 0.81275440976932667}",
      "curveMode": 4,
      "curveTo": "{0.45693202611568218, 0.91791044776120645}",
      "hasCurveFrom": true,
      "hasCurveTo": true,
      "point": "{0.33735832378353553, 1}"
    },
    {
      "_class": "curvePoint",
      "cornerRadius": 0,
      "curveFrom": "{0.12906864875328086, 0.014246947082778261}",
      "curveMode": 4,
      "curveTo": "{-0.13611496528983541, 0.26119402985074197}",
      "hasCurveFrom": true,
      "hasCurveTo": true,
      "point": "{0.030709635544522107, 0.10786974219809561}"
    },
    {
      "_class": "curvePoint",
      "cornerRadius": 0,
      "curveFrom": "{0.5562553433754841, 0.18792401628221764}",
      "curveMode": 4,
      "curveTo": "{0.53793356640522572, 0.082767978290376507}",
      "hasCurveFrom": true,
      "hasCurveTo": true,
      "point": "{0.66329309304379569, 0}"
    }
  ],
  "resizingConstraint": 63,
  "resizingType": 0,
  "rotation": 0,
  "shouldBreakMaskChain": false,
  "style": {
    "_class": "style",
    "do_objectID": "7D7587A1-8DDD-454E-AE43-F5C0D5E7E2A8",
    "endMarkerType": 0,
    "fills": [
      {
        "_class": "fill",
        "color": {
          "_class": "color",
          "alpha": 1,
          "blue": 0.1764705882352941,
          "green": 0.1764705882352941,
          "red": 0.1764705882352941
        },
        "fillType": 0,
        "isEnabled": true,
        "noiseIndex": 0,
        "noiseIntensity": 0,
        "patternFillType": 1,
        "patternTileScale": 1
      }
    ],
    "miterLimit": 10,
    "startMarkerType": 0,
    "windingRule": 1
  }
}