{
  "_class": "shapePath",
  "booleanOperation": -1,
  "clippingMaskMode": 0,
  "do_objectID": "C450B678-D6E2-4993-9EAA-CF55B04C4780",
  "edited": true,
  "exportOptions": {
    "_class": "exportOptions",
    "do_objectID": "5C3CD9A2-221A-4314-A733-39AD562DCFD9",
    "exportFormats": [
    ],
    "includedLayerIds": [
    ],
    "layerOptions": 0,
    "shouldTrim": false
  },
  "frame": {
    "_class": "rect",
    "constrainProportions": false,
    "do_objectID": "E8EA14C5-B148-4631-8452-7A34B8A01DD6",
    "height": 0.1058906030855553,
    "width": 0.1059863482545715,
    "x": 27.8064433033984,
    "y": 14.5768412450996
  },
  "hasClippingMask": false,
  "isClosed": true,
  "isFixedToViewport": false,
  "isFlippedHorizontal": false,
  "isFlippedVertical": false,
  "isLocked": false,
  "isVisible": true,
  "layerListExpandedType": 0,
  "name": "Path",
  "nameIsFixed": false,
  "pointRadiusBehaviour": 0,
  "points": [
    {
      "_class": "curvePoint",
      "cornerRadius": 0,
      "curveFrom": "{-0.29153654390171369, 0.57885878230712251}",
      "curveMode": 3,
      "curveTo": "{0.35946345609829677, 0.97185878230709477}",
      "hasCurveFrom": true,
      "hasCurveTo": true,
      "point": "{0.13546345609830723, 0.83585878230712751}"
    },
    {
      "_class": "curvePoint",
      "cornerRadius": 0,
      "curveFrom": "{1.05446345609829, 0.27685878230710159}",
      "curveMode": 3,
      "curveTo": "{0.40746345609829859, -0.12014121769288977}",
      "hasCurveFrom": true,
      "hasCurveTo": true,
      "point": "{0.63046345609831178, 0.017858782307143883}"
    }
  ],
  "resizingConstraint": 63,
  "resizingType": 0,
  "rotation": 0,
  "shouldBreakMaskChain": false,
  "style": {
    "_class": "style",
    "do_objectID": "31773605-01F8-4C60-A6E7-D6B899CEB986",
    "endMarkerType": 0,
    "fills": [
      {
        "_class": "fill",
        "color": {
          "_class": "color",
          "alpha": 1,
          "blue": 0.1764705882352941,
          "green": 0.1764705882352941,
          "red": 0.1764705882352941
        },
        "fillType": 0,
        "isEnabled": true,
        "noiseIndex": 0,
        "noiseIntensity": 0,
        "patternFillType": 1,
        "patternTileScale": 1
      }
    ],
    "miterLimit": 10,
    "startMarkerType": 0,
    "windingRule": 1
  }
}