{
  "_class": "shapePath",
  "booleanOperation": -1,
  "clippingMaskMode": 0,
  "do_objectID": "C8E747FE-A947-42B0-A8DE-77C2B81F3A11",
  "edited": true,
  "exportOptions": {
    "_class": "exportOptions",
    "do_objectID": "47346E4C-53C6-4B9E-94BE-BF05C9417A9F",
    "exportFormats": [
    ],
    "includedLayerIds": [
    ],
    "layerOptions": 0,
    "shouldTrim": false
  },
  "frame": {
    "_class": "rect",
    "constrainProportions": false,
    "do_objectID": "BE019CFB-92F1-43F1-B367-2E0395F8AB58",
    "height": 0.1058906030855624,
    "width": 0.1059863482545325,
    "x": 34.6311917400872,
    "y": 19.05167807826897
  },
  "hasClippingMask": false,
  "isClosed": true,
  "isFixedToViewport": false,
  "isFlippedHorizontal": false,
  "isFlippedVertical": false,
  "isLocked": false,
  "isVisible": true,
  "layerListExpandedType": 0,
  "name": "Path",
  "nameIsFixed": false,
  "pointRadiusBehaviour": 0,
  "points": [
    {
      "_class": "curvePoint",
      "cornerRadius": 0,
      "curveFrom": "{-0.30302096142224855, 0.78760680286580964}",
      "curveMode": 3,
      "curveTo": "{0.46097903857776146, 1.0636068028657917}",
      "hasCurveFrom": true,
      "hasCurveTo": true,
      "point": "{0.1949790385777419, 0.96860680286579282}"
    },
    {
      "_class": "curvePoint",
      "cornerRadius": 0,
      "curveFrom": "{1.0439790385777314, 0.18760680286581533}",
      "curveMode": 3,
      "curveTo": "{0.27897903857774509, -0.090393197134204684}",
      "hasCurveFrom": true,
      "hasCurveTo": true,
      "point": "{0.54397903857773144, 0.0076068028658085041}"
    }
  ],
  "resizingConstraint": 63,
  "resizingType": 0,
  "rotation": 0,
  "shouldBreakMaskChain": false,
  "style": {
    "_class": "style",
    "do_objectID": "8E2C04E6-FA25-416E-BE4D-1B915B808E53",
    "endMarkerType": 0,
    "fills": [
      {
        "_class": "fill",
        "color": {
          "_class": "color",
          "alpha": 1,
          "blue": 0.1764705882352941,
          "green": 0.1764705882352941,
          "red": 0.1764705882352941
        },
        "fillType": 0,
        "isEnabled": true,
        "noiseIndex": 0,
        "noiseIntensity": 0,
        "patternFillType": 1,
        "patternTileScale": 1
      }
    ],
    "miterLimit": 10,
    "startMarkerType": 0,
    "windingRule": 1
  }
}