{
  "_class": "shapePath",
  "booleanOperation": -1,
  "clippingMaskMode": 0,
  "do_objectID": "D81C0998-87E5-41A6-9F93-0728ADECC023",
  "edited": true,
  "exportOptions": {
    "_class": "exportOptions",
    "do_objectID": "B4001821-63DE-4EF1-B399-A9FDFB39E660",
    "exportFormats": [
    ],
    "includedLayerIds": [
    ],
    "layerOptions": 0,
    "shouldTrim": false
  },
  "frame": {
    "_class": "rect",
    "constrainProportions": false,
    "do_objectID": "A12859E2-DABE-4A7F-BE90-8CC27C6EEC64",
    "height": 0.1411102347464102,
    "width": 0.2133989898171755,
    "x": 30.71825291305362,
    "y": 12.4183297880468
  },
  "hasClippingMask": false,
  "isClosed": true,
  "isFixedToViewport": false,
  "isFlippedHorizontal": false,
  "isFlippedVertical": false,
  "isLocked": false,
  "isVisible": true,
  "layerListExpandedType": 0,
  "name": "Path",
  "nameIsFixed": false,
  "pointRadiusBehaviour": 0,
  "points": [
    {
      "_class": "curvePoint",
      "cornerRadius": 0,
      "curveFrom": "{0.29821224800303769, 0.2172413793103356}",
      "curveMode": 4,
      "curveTo": "{0.035755039939137846, 0.54999999999999349}",
      "hasCurveFrom": true,
      "hasCurveTo": true,
      "point": "{0, 0.32643678160918427}"
    },
    {
      "_class": "curvePoint",
      "cornerRadius": 0,
      "curveFrom": "{0.92810954735640172, 0.22413793103447374}",
      "curveMode": 4,
      "curveTo": "{0.59566375047547337, 0.10862068965515147}",
      "hasCurveFrom": true,
      "hasCurveTo": true,
      "point": "{0.89197413465196285, 0}"
    },
    {
      "_class": "curvePoint",
      "cornerRadius": 0,
      "curveFrom": "{0.70368961582351053, 0.78218390804596716}",
      "curveMode": 4,
      "curveTo": "{0.96424496006086213, 0.45000000000000656}",
      "hasCurveFrom": true,
      "hasCurveTo": true,
      "point": "{1, 0.67413793103448028}"
    },
    {
      "_class": "curvePoint",
      "cornerRadius": 0,
      "curveFrom": "{0.072270825408899328, 0.77586206896549359}",
      "curveMode": 4,
      "curveTo": "{0.4058577405857739, 0.89137931034481588}",
      "hasCurveFrom": true,
      "hasCurveTo": true,
      "point": "{0.10802586534803718, 1}"
    }
  ],
  "resizingConstraint": 63,
  "resizingType": 0,
  "rotation": 0,
  "shouldBreakMaskChain": false,
  "style": {
    "_class": "style",
    "do_objectID": "781508F9-16AE-4E20-80C7-9E27CC5E5EAE",
    "endMarkerType": 0,
    "fills": [
      {
        "_class": "fill",
        "color": {
          "_class": "color",
          "alpha": 1,
          "blue": 0.1764705882352941,
          "green": 0.1764705882352941,
          "red": 0.1764705882352941
        },
        "fillType": 0,
        "isEnabled": true,
        "noiseIndex": 0,
        "noiseIntensity": 0,
        "patternFillType": 1,
        "patternTileScale": 1
      }
    ],
    "miterLimit": 10,
    "startMarkerType": 0,
    "windingRule": 1
  }
}