{
  "_class": "shapePath",
  "booleanOperation": -1,
  "clippingMaskMode": 0,
  "do_objectID": "DB8EADC5-9378-4535-A045-39B7FB9A18E1",
  "edited": true,
  "exportOptions": {
    "_class": "exportOptions",
    "do_objectID": "FB72285C-CCF8-4F24-BBA0-130703EC7E79",
    "exportFormats": [
    ],
    "includedLayerIds": [
    ],
    "layerOptions": 0,
    "shouldTrim": false
  },
  "frame": {
    "_class": "rect",
    "constrainProportions": false,
    "do_objectID": "082E847A-C134-45B8-B029-49DD6C3A1DDF",
    "height": 0.1196193081901944,
    "width": 0.1059863482545644,
    "x": 29.33639134852544,
    "y": 5.506442318391372
  },
  "hasClippingMask": false,
  "isClosed": true,
  "isFixedToViewport": false,
  "isFlippedHorizontal": false,
  "isFlippedVertical": false,
  "isLocked": false,
  "isVisible": true,
  "layerListExpandedType": 0,
  "name": "Path",
  "nameIsFixed": false,
  "pointRadiusBehaviour": 0,
  "points": [
    {
      "_class": "curvePoint",
      "cornerRadius": 0,
      "curveFrom": "{0.13275076393003066, 0.014237288135603175}",
      "curveMode": 4,
      "curveTo": "{-0.1345870810664791, 0.26101694915257073}",
      "hasCurveFrom": true,
      "hasCurveTo": true,
      "point": "{0.029854543014088575, 0.10779661016952286}"
    },
    {
      "_class": "curvePoint",
      "cornerRadius": 0,
      "curveFrom": "{0.55876035146039371, 0.18779661016951824}",
      "curveMode": 4,
      "curveTo": "{0.54048905989588014, 0.083389830508505361}",
      "hasCurveFrom": true,
      "hasCurveTo": true,
      "point": "{0.66357986622518594, 0}"
    },
    {
      "_class": "curvePoint",
      "cornerRadius": 0,
      "curveFrom": "{0.86648736728368558, 0.98576271186439679}",
      "curveMode": 4,
      "curveTo": "{1.1367101530535253, 0.73694915254239268}",
      "hasCurveFrom": true,
      "hasCurveTo": true,
      "point": "{0.96938358819962767, 0.89220338983051573}"
    },
    {
      "_class": "curvePoint",
      "cornerRadius": 0,
      "curveFrom": "{0.43855448590441776, 0.81355932203391657}",
      "curveMode": 4,
      "curveTo": "{0.46067236516674093, 0.9172881355932121}",
      "hasCurveFrom": true,
      "hasCurveTo": true,
      "point": "{0.33758155883738045, 1}"
    }
  ],
  "resizingConstraint": 63,
  "resizingType": 0,
  "rotation": 0,
  "shouldBreakMaskChain": false,
  "style": {
    "_class": "style",
    "do_objectID": "9B510470-217B-497E-8CB3-678297A25227",
    "endMarkerType": 0,
    "fills": [
      {
        "_class": "fill",
        "color": {
          "_class": "color",
          "alpha": 1,
          "blue": 0.1764705882352941,
          "green": 0.1764705882352941,
          "red": 0.1764705882352941
        },
        "fillType": 0,
        "isEnabled": true,
        "noiseIndex": 0,
        "noiseIntensity": 0,
        "patternFillType": 1,
        "patternTileScale": 1
      }
    ],
    "miterLimit": 10,
    "startMarkerType": 0,
    "windingRule": 1
  }
}