{
  "_class": "shapePath",
  "booleanOperation": -1,
  "clippingMaskMode": 0,
  "do_objectID": "E17F479B-EA50-47AF-AF92-27222858D6B3",
  "edited": true,
  "exportOptions": {
    "_class": "exportOptions",
    "do_objectID": "ADC69EA5-62FF-4BDF-87B1-5C6781121298",
    "exportFormats": [
    ],
    "includedLayerIds": [
    ],
    "layerOptions": 0,
    "shouldTrim": false
  },
  "frame": {
    "_class": "rect",
    "constrainProportions": false,
    "do_objectID": "88E55B73-48B8-450C-8AA6-BF72BEF44E58",
    "height": 0.1559511387455927,
    "width": 0.1559298057964078,
    "x": 9.900122172703309,
    "y": 10.50206901975799
  },
  "hasClippingMask": false,
  "isClosed": true,
  "isFixedToViewport": false,
  "isFlippedHorizontal": false,
  "isFlippedVertical": false,
  "isLocked": false,
  "isVisible": true,
  "layerListExpandedType": 0,
  "name": "Path",
  "nameIsFixed": false,
  "pointRadiusBehaviour": 0,
  "points": [
    {
      "_class": "curvePoint",
      "cornerRadius": 0,
      "curveFrom": "{0.21290994273815381, 0.77327093083724485}",
      "curveMode": 4,
      "curveTo": "{0.54554919312857464, 0.89443577743111058}",
      "hasCurveFrom": true,
      "hasCurveTo": true,
      "point": "{0.31858407079645873, 1}"
    },
    {
      "_class": "curvePoint",
      "cornerRadius": 0,
      "curveFrom": "{0.22644456012492964, 0.21164846593862813}",
      "curveMode": 4,
      "curveTo": "{0.10619469026548378, 0.54602184087364036}",
      "hasCurveFrom": true,
      "hasCurveTo": true,
      "point": "{0, 0.31825273010921612}"
    },
    {
      "_class": "curvePoint",
      "cornerRadius": 0,
      "curveFrom": "{0.78813118167621132, 0.22776911076442422}",
      "curveMode": 4,
      "curveTo": "{0.45340968245705288, 0.10660426417055845}",
      "hasCurveFrom": true,
      "hasCurveTo": true,
      "point": "{0.680895366996355, 0}"
    },
    {
      "_class": "curvePoint",
      "cornerRadius": 0,
      "curveFrom": "{0.77199375325351161, 0.78835153406137193}",
      "curveMode": 4,
      "curveTo": "{0.89484643414888132, 0.45501820072802868}",
      "hasCurveFrom": true,
      "hasCurveTo": true,
      "point": "{1, 0.68174726989078382}"
    }
  ],
  "resizingConstraint": 63,
  "resizingType": 0,
  "rotation": 0,
  "shouldBreakMaskChain": false,
  "style": {
    "_class": "style",
    "do_objectID": "4BB3411B-CE40-4BEF-8F4F-4CC856CE87BE",
    "endMarkerType": 0,
    "fills": [
      {
        "_class": "fill",
        "color": {
          "_class": "color",
          "alpha": 1,
          "blue": 0.1764705882352941,
          "green": 0.1764705882352941,
          "red": 0.1764705882352941
        },
        "fillType": 0,
        "isEnabled": true,
        "noiseIndex": 0,
        "noiseIntensity": 0,
        "patternFillType": 1,
        "patternTileScale": 1
      }
    ],
    "miterLimit": 10,
    "startMarkerType": 0,
    "windingRule": 1
  }
}