{
  "_class": "shapePath",
  "booleanOperation": -1,
  "clippingMaskMode": 0,
  "do_objectID": "E56E9B03-025B-43E9-9933-3CEA404A7670",
  "edited": true,
  "exportOptions": {
    "_class": "exportOptions",
    "do_objectID": "23A9BDE0-F75B-47B4-A94A-B80F639CF183",
    "exportFormats": [
    ],
    "includedLayerIds": [
    ],
    "layerOptions": 0,
    "shouldTrim": false
  },
  "frame": {
    "_class": "rect",
    "constrainProportions": false,
    "do_objectID": "C7848243-1F03-4097-91F7-4197A05126BC",
    "height": 0.1167808839280493,
    "width": 0.1059863482545467,
    "x": 33.49098956474135,
    "y": 4.938595270291233
  },
  "hasClippingMask": false,
  "isClosed": true,
  "isFixedToViewport": false,
  "isFlippedHorizontal": false,
  "isFlippedVertical": false,
  "isLocked": false,
  "isVisible": true,
  "layerListExpandedType": 0,
  "name": "Path",
  "nameIsFixed": false,
  "pointRadiusBehaviour": 0,
  "points": [
    {
      "_class": "curvePoint",
      "cornerRadius": 0,
      "curveFrom": "{0.072679087797025241, 0.084722222222192667}",
      "curveMode": 4,
      "curveTo": "{-0.092843072071903912, 0.35972222222220351}",
      "hasCurveFrom": true,
      "hasCurveTo": true,
      "point": "{0.012016516117310668, 0.18888888888888319}"
    },
    {
      "_class": "curvePoint",
      "cornerRadius": 0,
      "curveFrom": "{0.47565188538376751, 0.19305555555553028}",
      "curveMode": 4,
      "curveTo": "{0.43492130154164743, 0.095138888888889356}",
      "hasCurveFrom": true,
      "hasCurveTo": true,
      "point": "{0.51638246922583841, 0}"
    },
    {
      "_class": "curvePoint",
      "cornerRadius": 0,
      "curveFrom": "{0.92715474031427159, 0.91388888888887232}",
      "curveMode": 3,
      "curveTo": "{1.0900770756826534, 0.64027777777775696}",
      "hasCurveFrom": true,
      "hasCurveTo": true,
      "point": "{0.98868392016081885, 0.81041666666664935}"
    },
    {
      "_class": "curvePoint",
      "cornerRadius": 0,
      "curveFrom": "{0.52418194272752938, 0.80625000000000224}",
      "curveMode": 4,
      "curveTo": "{0.56751235107019671, 0.90486111111111067}",
      "hasCurveFrom": true,
      "hasCurveTo": true,
      "point": "{0.48345135888545848, 1}"
    }
  ],
  "resizingConstraint": 63,
  "resizingType": 0,
  "rotation": 0,
  "shouldBreakMaskChain": false,
  "style": {
    "_class": "style",
    "do_objectID": "F25B973D-47FC-4C57-B890-0309EDCA5DE3",
    "endMarkerType": 0,
    "fills": [
      {
        "_class": "fill",
        "color": {
          "_class": "color",
          "alpha": 1,
          "blue": 0.1764705882352941,
          "green": 0.1764705882352941,
          "red": 0.1764705882352941
        },
        "fillType": 0,
        "isEnabled": true,
        "noiseIndex": 0,
        "noiseIntensity": 0,
        "patternFillType": 1,
        "patternTileScale": 1
      }
    ],
    "miterLimit": 10,
    "startMarkerType": 0,
    "windingRule": 1
  }
}