{
  "_class": "shapePath",
  "booleanOperation": -1,
  "clippingMaskMode": 0,
  "do_objectID": "E728FCE0-A8B8-41E3-8CF3-EB579ED2D249",
  "edited": true,
  "exportOptions": {
    "_class": "exportOptions",
    "do_objectID": "D8CBF82B-963A-41DA-A324-E411DFD1FF80",
    "exportFormats": [
    ],
    "includedLayerIds": [
    ],
    "layerOptions": 0,
    "shouldTrim": false
  },
  "frame": {
    "_class": "rect",
    "constrainProportions": false,
    "do_objectID": "F567335A-4D64-4EAA-B853-EB4BC2AC07E8",
    "height": 0.1058906030855766,
    "width": 0.105986348254568,
    "x": 31.19573666747556,
    "y": 16.68419840217197
  },
  "hasClippingMask": false,
  "isClosed": true,
  "isFixedToViewport": false,
  "isFlippedHorizontal": false,
  "isFlippedVertical": false,
  "isLocked": false,
  "isVisible": true,
  "layerListExpandedType": 0,
  "name": "Path",
  "nameIsFixed": false,
  "pointRadiusBehaviour": 0,
  "points": [
    {
      "_class": "curvePoint",
      "cornerRadius": 0,
      "curveFrom": "{0.019404329781585773, 0.48903747921141466}",
      "curveMode": 4,
      "curveTo": "{-0.084057207209663434, 0.68374616498428276}",
      "hasCurveFrom": true,
      "hasCurveTo": true,
      "point": "{0.013875850705714753, 0.49904586960160496}"
    },
    {
      "_class": "curvePoint",
      "cornerRadius": 0,
      "curveFrom": "{0.088905209592458775, 0.23336859742553881}",
      "curveMode": 4,
      "curveTo": "{0.038359115184559298, 0.48721777186776016}",
      "hasCurveFrom": true,
      "hasCurveTo": true,
      "point": "{0.047836507886046063, 0.47902908882122441}"
    },
    {
      "_class": "curvePoint",
      "cornerRadius": 0,
      "curveFrom": "{0.5548770174155655, 0.063225960792252178}",
      "curveMode": 4,
      "curveTo": "{0.29898741447542287, -0.044136772484372158}",
      "hasCurveFrom": true,
      "hasCurveTo": true,
      "point": "{0.42061395414449548, 0.005905179466579283}"
    },
    {
      "_class": "curvePoint",
      "cornerRadius": 0,
      "curveFrom": "{0.70967443153981935, 0.33891162335850866}",
      "curveMode": 4,
      "curveTo": "{0.57778071644415474, 0.20334342625496793}",
      "hasCurveFrom": true,
      "hasCurveTo": true,
      "point": "{0.54303027653867331, 0.34982986742053912}"
    },
    {
      "_class": "curvePoint",
      "cornerRadius": 0,
      "curveFrom": "{1.1195716658791106, 0.67009835990675759}",
      "curveMode": 4,
      "curveTo": "{0.8715798901902444, 0.32071454992178255}",
      "hasCurveFrom": true,
      "hasCurveTo": true,
      "point": "{0.94029098727601224, 0.24155728047207459}"
    },
    {
      "_class": "curvePoint",
      "cornerRadius": 0,
      "curveFrom": "{0.36059046703506437, 1.2160105630082554}",
      "curveMode": 4,
      "curveTo": "{0.8636820629389681, 0.79474831294826787}",
      "hasCurveFrom": true,
      "hasCurveTo": true,
      "point": "{0.58883767459589675, 0.90393075356857255}"
    }
  ],
  "resizingConstraint": 63,
  "resizingType": 0,
  "rotation": 0,
  "shouldBreakMaskChain": false,
  "style": {
    "_class": "style",
    "do_objectID": "5241F88F-2532-4319-871A-0FF3DEFB6149",
    "endMarkerType": 0,
    "fills": [
      {
        "_class": "fill",
        "color": {
          "_class": "color",
          "alpha": 1,
          "blue": 0.1764705882352941,
          "green": 0.1764705882352941,
          "red": 0.1764705882352941
        },
        "fillType": 0,
        "isEnabled": true,
        "noiseIndex": 0,
        "noiseIntensity": 0,
        "patternFillType": 1,
        "patternTileScale": 1
      }
    ],
    "miterLimit": 10,
    "startMarkerType": 0,
    "windingRule": 1
  }
}