{
  "_class": "shapePath",
  "booleanOperation": -1,
  "clippingMaskMode": 0,
  "do_objectID": "E86EA68A-963E-4746-8F6F-10C47E25A219",
  "edited": true,
  "exportOptions": {
    "_class": "exportOptions",
    "do_objectID": "494E90DA-ACEB-4273-AC5D-8C77D8876098",
    "exportFormats": [
    ],
    "includedLayerIds": [
    ],
    "layerOptions": 0,
    "shouldTrim": false
  },
  "frame": {
    "_class": "rect",
    "constrainProportions": false,
    "do_objectID": "789CEAFD-6AE0-407E-9567-AFF19AFFC299",
    "height": 0.1058906030855553,
    "width": 0.1182663857602222,
    "x": 27.77888272695309,
    "y": 8.4405009439117
  },
  "hasClippingMask": false,
  "isClosed": true,
  "isFixedToViewport": false,
  "isFlippedHorizontal": false,
  "isFlippedVertical": false,
  "isLocked": false,
  "isVisible": true,
  "layerListExpandedType": 0,
  "name": "Path",
  "nameIsFixed": false,
  "pointRadiusBehaviour": 0,
  "points": [
    {
      "_class": "curvePoint",
      "cornerRadius": 0,
      "curveFrom": "{0.24914207275223138, -0.025246796524797332}",
      "curveMode": 4,
      "curveTo": "{0.0075497597803871998, 0.55175320347520085}",
      "hasCurveFrom": true,
      "hasCurveTo": true,
      "point": "{0, 0.027753203475199939}"
    },
    {
      "_class": "curvePoint",
      "cornerRadius": 0,
      "curveFrom": "{0.75085792724776856, 0.4167532034751531}",
      "curveMode": 4,
      "curveTo": "{0.49142072752231386, -0.057246796524836441}",
      "hasCurveFrom": true,
      "hasCurveTo": true,
      "point": "{0.4975978037062635, 0.47075320347518357}"
    },
    {
      "_class": "curvePoint",
      "cornerRadius": 0,
      "curveFrom": "{0.74879890185313169, 0.96975320347515037}",
      "curveMode": 4,
      "curveTo": "{0.98970487302677668, 0.39175320347517584}",
      "hasCurveFrom": true,
      "hasCurveTo": true,
      "point": "{1, 0.91475320347520039}"
    },
    {
      "_class": "curvePoint",
      "cornerRadius": 0,
      "curveFrom": "{0.24914207275223138, 0.52175320347517129}",
      "curveMode": 4,
      "curveTo": "{0.50926561427592443, 0.99575320347516083}",
      "hasCurveFrom": true,
      "hasCurveTo": true,
      "point": "{0.4975978037062635, 0.47075320347518357}"
    }
  ],
  "resizingConstraint": 63,
  "resizingType": 0,
  "rotation": 0,
  "shouldBreakMaskChain": false,
  "style": {
    "_class": "style",
    "do_objectID": "4AFA0657-E14A-49A3-B565-FB784172597B",
    "endMarkerType": 0,
    "fills": [
      {
        "_class": "fill",
        "color": {
          "_class": "color",
          "alpha": 1,
          "blue": 0.1764705882352941,
          "green": 0.1764705882352941,
          "red": 0.1764705882352941
        },
        "fillType": 0,
        "isEnabled": true,
        "noiseIndex": 0,
        "noiseIntensity": 0,
        "patternFillType": 1,
        "patternTileScale": 1
      }
    ],
    "miterLimit": 10,
    "startMarkerType": 0,
    "windingRule": 1
  }
}