{
  "_class": "shapePath",
  "booleanOperation": -1,
  "clippingMaskMode": 0,
  "do_objectID": "F0940CFD-77E5-467F-9FA2-319A0F510EF2",
  "edited": true,
  "exportOptions": {
    "_class": "exportOptions",
    "do_objectID": "E8743495-55E6-4B4D-A1DA-3B02AE7A8F31",
    "exportFormats": [
    ],
    "includedLayerIds": [
    ],
    "layerOptions": 0,
    "shouldTrim": false
  },
  "frame": {
    "_class": "rect",
    "constrainProportions": false,
    "do_objectID": "B1B7CEC5-92BC-4DE7-81CE-106EFCCC185B",
    "height": 0.1058906030855589,
    "width": 0.1059863482545715,
    "x": 21.31041643581147,
    "y": 14.55213995169424
  },
  "hasClippingMask": false,
  "isClosed": true,
  "isFixedToViewport": false,
  "isFlippedHorizontal": false,
  "isFlippedVertical": false,
  "isLocked": false,
  "isVisible": true,
  "layerListExpandedType": 0,
  "name": "Path",
  "nameIsFixed": false,
  "pointRadiusBehaviour": 0,
  "points": [
    {
      "_class": "curvePoint",
      "cornerRadius": 0,
      "curveFrom": "{0.92821452713303643, 0.16644512646968224}",
      "curveMode": 3,
      "curveTo": "{0.24921452713300596, -0.078554873530322311}",
      "hasCurveFrom": true,
      "hasCurveTo": true,
      "point": "{0.4842145271330196, 0.0064451264696572252}"
    },
    {
      "_class": "curvePoint",
      "cornerRadius": 0,
      "curveFrom": "{-0.2697854728669995, 0.7024451264696836}",
      "curveMode": 3,
      "curveTo": "{0.41021452713300732, 0.94944512646964085}",
      "hasCurveFrom": true,
      "hasCurveTo": true,
      "point": "{0.17321452713298413, 0.86244512646965177}"
    }
  ],
  "resizingConstraint": 63,
  "resizingType": 0,
  "rotation": 0,
  "shouldBreakMaskChain": false,
  "style": {
    "_class": "style",
    "do_objectID": "EB2FFDB0-4BBF-41B7-AE2F-A217A595A788",
    "endMarkerType": 0,
    "fills": [
      {
        "_class": "fill",
        "color": {
          "_class": "color",
          "alpha": 1,
          "blue": 0.1764705882352941,
          "green": 0.1764705882352941,
          "red": 0.1764705882352941
        },
        "fillType": 0,
        "isEnabled": true,
        "noiseIndex": 0,
        "noiseIntensity": 0,
        "patternFillType": 1,
        "patternTileScale": 1
      }
    ],
    "miterLimit": 10,
    "startMarkerType": 0,
    "windingRule": 1
  }
}