{
  "_class": "shapePath",
  "booleanOperation": -1,
  "clippingMaskMode": 0,
  "do_objectID": "F3FDE469-B5EE-4B2D-B206-310F062DF01E",
  "edited": true,
  "exportOptions": {
    "_class": "exportOptions",
    "do_objectID": "B9E937FE-6974-4474-BBD9-2C3E4593BC70",
    "exportFormats": [
    ],
    "includedLayerIds": [
    ],
    "layerOptions": 0,
    "shouldTrim": false
  },
  "frame": {
    "_class": "rect",
    "constrainProportions": false,
    "do_objectID": "5AB9BA78-48E0-47FB-8A3D-D58731C16C82",
    "height": 0.1058906030855589,
    "width": 0.1059863482545609,
    "x": 22.09420185695405,
    "y": 23.41657002244273
  },
  "hasClippingMask": false,
  "isClosed": true,
  "isFixedToViewport": false,
  "isFlippedHorizontal": false,
  "isFlippedVertical": false,
  "isLocked": false,
  "isVisible": true,
  "layerListExpandedType": 0,
  "name": "Path",
  "nameIsFixed": false,
  "pointRadiusBehaviour": 0,
  "points": [
    {
      "_class": "curvePoint",
      "cornerRadius": 0,
      "curveFrom": "{1.037255640216074, 0.18506163800168451}",
      "curveMode": 4,
      "curveTo": "{0.27725564021608307, -0.092938361998278651}",
      "hasCurveFrom": true,
      "hasCurveTo": true,
      "point": "{0.54425564021607897, 0.0080616380017204392}"
    },
    {
      "_class": "curvePoint",
      "cornerRadius": 0,
      "curveFrom": "{-0.30174435978392466, 0.78506163800170725}",
      "curveMode": 3,
      "curveTo": "{0.45725564021603304, 1.0630616380017273}",
      "hasCurveFrom": true,
      "hasCurveTo": true,
      "point": "{0.19425564021605624, 0.96606163800174727}"
    }
  ],
  "resizingConstraint": 63,
  "resizingType": 0,
  "rotation": 0,
  "shouldBreakMaskChain": false,
  "style": {
    "_class": "style",
    "do_objectID": "0F7DCD96-A637-4AD8-9480-8EEC0FF9ADC6",
    "endMarkerType": 0,
    "fills": [
      {
        "_class": "fill",
        "color": {
          "_class": "color",
          "alpha": 1,
          "blue": 0.1764705882352941,
          "green": 0.1764705882352941,
          "red": 0.1764705882352941
        },
        "fillType": 0,
        "isEnabled": true,
        "noiseIndex": 0,
        "noiseIntensity": 0,
        "patternFillType": 1,
        "patternTileScale": 1
      }
    ],
    "miterLimit": 10,
    "startMarkerType": 0,
    "windingRule": 1
  }
}