{
  "_class": "shapePath",
  "booleanOperation": -1,
  "clippingMaskMode": 0,
  "do_objectID": "F46EF183-0144-45AE-8ACD-457890B0707C",
  "edited": true,
  "exportOptions": {
    "_class": "exportOptions",
    "do_objectID": "A0E1CB50-886F-4ABD-BD63-24B7C574082A",
    "exportFormats": [
    ],
    "includedLayerIds": [
    ],
    "layerOptions": 0,
    "shouldTrim": false
  },
  "frame": {
    "_class": "rect",
    "constrainProportions": false,
    "do_objectID": "3272B904-51FC-452D-8C7E-0DE746329726",
    "height": 0.1160055003569909,
    "width": 0.1064849983242064,
    "x": 6.103109037815407,
    "y": 25.97145603461515
  },
  "hasClippingMask": false,
  "isClosed": true,
  "isFixedToViewport": false,
  "isFlippedHorizontal": false,
  "isFlippedVertical": false,
  "isLocked": false,
  "isVisible": true,
  "layerListExpandedType": 0,
  "name": "Path",
  "nameIsFixed": false,
  "pointRadiusBehaviour": 0,
  "points": [
    {
      "_class": "curvePoint",
      "cornerRadius": 0,
      "curveFrom": "{0.4244801644631544, 1.1348341356973224}",
      "curveMode": 4,
      "curveTo": "{0.66307315588439297, 0.63778389875142782}",
      "hasCurveFrom": true,
      "hasCurveTo": true,
      "point": "{0.76445612029021859, 0.89644576607910709}"
    },
    {
      "_class": "curvePoint",
      "cornerRadius": 0,
      "curveFrom": "{-0.13960550215575099, 0.38681197883080448}",
      "curveMode": 4,
      "curveTo": "{0.26363952168398314, 0.91881652217233878}",
      "hasCurveFrom": true,
      "hasCurveTo": true,
      "point": "{0.11042165818343869, 0.67972906642622744}"
    },
    {
      "_class": "curvePoint",
      "cornerRadius": 0,
      "curveFrom": "{0.72710450182490816, -0.080876640742738273}",
      "curveMode": 3,
      "curveTo": "{0.07611915142958546, 0.19805872429440494}",
      "hasCurveFrom": true,
      "hasCurveTo": true,
      "point": "{0.34901464960467726, 0.081311340933013135}"
    },
    {
      "_class": "curvePoint",
      "cornerRadius": 0,
      "curveFrom": "{0.58455852931445862, 0.38611289270290838}",
      "curveMode": 4,
      "curveTo": "{0.82086468695210701, 0.0037127807347173158}",
      "hasCurveFrom": true,
      "hasCurveTo": true,
      "point": "{1, 0.29802804058589277}"
    }
  ],
  "resizingConstraint": 63,
  "resizingType": 0,
  "rotation": 0,
  "shouldBreakMaskChain": false,
  "style": {
    "_class": "style",
    "do_objectID": "BA9AA94E-6328-459D-9A12-A928A469A527",
    "endMarkerType": 0,
    "fills": [
      {
        "_class": "fill",
        "color": {
          "_class": "color",
          "alpha": 1,
          "blue": 0.1764705882352941,
          "green": 0.1764705882352941,
          "red": 0.1764705882352941
        },
        "fillType": 0,
        "isEnabled": true,
        "noiseIndex": 0,
        "noiseIntensity": 0,
        "patternFillType": 1,
        "patternTileScale": 1
      }
    ],
    "miterLimit": 10,
    "startMarkerType": 0,
    "windingRule": 1
  }
}