{
  "_class": "shapePath",
  "booleanOperation": -1,
  "clippingMaskMode": 0,
  "do_objectID": "F78C01A4-BE5F-43BD-B6FA-FA10ACF42BDA",
  "edited": true,
  "exportOptions": {
    "_class": "exportOptions",
    "do_objectID": "84097BBE-6878-4710-854E-D502B65F2141",
    "exportFormats": [
    ],
    "includedLayerIds": [
    ],
    "layerOptions": 0,
    "shouldTrim": false
  },
  "frame": {
    "_class": "rect",
    "constrainProportions": false,
    "do_objectID": "0FEB8850-5D96-4F84-9486-A2BC3B3E8A0D",
    "height": 0.161842703869258,
    "width": 0.1833336448174894,
    "x": 5.533912967730447,
    "y": 23.17514676319729
  },
  "hasClippingMask": false,
  "isClosed": true,
  "isFixedToViewport": false,
  "isFlippedHorizontal": false,
  "isFlippedVertical": false,
  "isLocked": false,
  "isVisible": true,
  "layerListExpandedType": 0,
  "name": "Path",
  "nameIsFixed": false,
  "pointRadiusBehaviour": 0,
  "points": [
    {
      "_class": "curvePoint",
      "cornerRadius": 0,
      "curveFrom": "{-0.11239167419434777, 0.50309482886022761}",
      "curveMode": 4,
      "curveTo": "{0.23516790060304146, 0.83231126567417335}",
      "hasCurveFrom": true,
      "hasCurveTo": true,
      "point": "{0.050540712462264561, 0.81878182306538849}"
    },
    {
      "_class": "curvePoint",
      "cornerRadius": 0,
      "curveFrom": "{0.25464894683372152, 0.42843234927837776}",
      "curveMode": 4,
      "curveTo": "{0.1612284751365908, 0.54418424715361957}",
      "hasCurveFrom": true,
      "hasCurveTo": true,
      "point": "{0.27103073570951824, 0.40939091153269425}"
    },
    {
      "_class": "curvePoint",
      "cornerRadius": 0,
      "curveFrom": "{0.77930894191002897, 0.034074151755495143}",
      "curveMode": 4,
      "curveTo": "{0.74521711100633103, 0.029564337552557354}",
      "hasCurveFrom": true,
      "hasCurveTo": true,
      "point": "{0.49329176315956957, 0}"
    },
    {
      "_class": "curvePoint",
      "cornerRadius": 0,
      "curveFrom": "{0.88512644302668053, 0.31869353700710046}",
      "curveMode": 4,
      "curveTo": "{0.71643829271100723, -0.046601413430290679}",
      "hasCurveFrom": true,
      "hasCurveTo": true,
      "point": "{0.85413386947787218, 0.25004414302912975}"
    },
    {
      "_class": "curvePoint",
      "cornerRadius": 0,
      "curveFrom": "{0.83243906799370126, 1.211135658720321}",
      "curveMode": 3,
      "curveTo": "{1.0272495303005145, 0.85135270341988534}",
      "hasCurveFrom": true,
      "hasCurveTo": true,
      "point": "{0.99537145465031363, 0.90947919759098228}"
    },
    {
      "_class": "curvePoint",
      "cornerRadius": 0,
      "curveFrom": "{0.45123041334332609, 0.62485981233937693}",
      "curveMode": 4,
      "curveTo": "{0.6473691288022313, 0.66244159736379205}",
      "hasCurveFrom": true,
      "hasCurveTo": true,
      "point": "{0.63452934833200481, 0.65943505456182405}"
    }
  ],
  "resizingConstraint": 63,
  "resizingType": 0,
  "rotation": 0,
  "shouldBreakMaskChain": false,
  "style": {
    "_class": "style",
    "do_objectID": "0776DDB3-B6A9-4B66-BD64-AFEB04C07390",
    "endMarkerType": 0,
    "fills": [
      {
        "_class": "fill",
        "color": {
          "_class": "color",
          "alpha": 1,
          "blue": 0.1764705882352941,
          "green": 0.1764705882352941,
          "red": 0.1764705882352941
        },
        "fillType": 0,
        "isEnabled": true,
        "noiseIndex": 0,
        "noiseIntensity": 0,
        "patternFillType": 1,
        "patternTileScale": 1
      }
    ],
    "miterLimit": 10,
    "startMarkerType": 0,
    "windingRule": 1
  }
}