{
  "_class": "group",
  "booleanOperation": 0,
  "clippingMaskMode": 0,
  "do_objectID": "052D2849-DD13-4951-BB9D-ACA0782B289E",
  "exportOptions": {
    "_class": "exportOptions",
    "do_objectID": "858AC5BB-A79E-41B4-9658-9CBD3C5C64D7",
    "exportFormats": [
    ],
    "includedLayerIds": [
    ],
    "layerOptions": 0,
    "shouldTrim": false
  },
  "frame": {
    "_class": "rect",
    "constrainProportions": false,
    "do_objectID": "AAC4C4EA-F78C-42A9-99BF-25C4DF4BBDA8",
    "height": 630,
    "width": 360,
    "x": 210,
    "y": 174
  },
  "groupLayout": {
    "_class": "MSImmutableFreeformGroupLayout",
    "do_objectID": "E664B7C7-8D87-404C-9C54-13ABE02BB323"
  },
  "hasClickThrough": false,
  "hasClippingMask": false,
  "isFixedToViewport": false,
  "isFlippedHorizontal": false,
  "isFlippedVertical": false,
  "isLocked": false,
  "isVisible": true,
  "layerListExpandedType": 0,
  "layers": [
    {
      "class": "shapePath",
      "id": "87B53D92-E173-4C7C-A5EE-5C4756E48337"
    },
    {
      "class": "group",
      "id": "FBFE6354-D9B8-41BE-AE71-51FDFDB2947D"
    },
    {
      "class": "symbolInstance",
      "id": "538F8BDC-A53F-4879-A1C6-624B07996F50"
    },
    {
      "class": "symbolInstance",
      "id": "BA7BD2CF-BA41-464A-A3F5-68E63B09F4F1"
    },
    {
      "class": "symbolInstance",
      "id": "57362FB8-ED93-4FF3-81E9-261EE76BECEE"
    },
    {
      "class": "symbolInstance",
      "id": "957192AF-53E4-4D19-8170-C817AD387461"
    },
    {
      "class": "symbolInstance",
      "id": "6D317195-CF51-4BDC-B6DE-A57F33EB5266"
    },
    {
      "class": "symbolInstance",
      "id": "352E5856-2AB9-4E1E-9520-5528B6B564F2"
    },
    {
      "class": "symbolInstance",
      "id": "59F9779D-681F-4E08-A7FB-15D8CEE4A501"
    }
  ],
  "name": "Group 4",
  "nameIsFixed": false,
  "resizingConstraint": 63,
  "resizingType": 0,
  "rotation": 0,
  "shouldBreakMaskChain": false,
  "style": {
    "_class": "style",
    "do_objectID": "5B28AFA7-9722-48B0-AE6F-7DF6640B9586",
    "endMarkerType": 0,
    "miterLimit": 10,
    "startMarkerType": 0,
    "windingRule": 1
  }
}