{
  "_class": "shapePath",
  "booleanOperation": -1,
  "clippingMaskMode": 0,
  "do_objectID": "6B8EFDB5-237E-4301-B065-5890A9BE0566",
  "edited": true,
  "exportOptions": {
    "_class": "exportOptions",
    "exportFormats": [
    ],
    "includedLayerIds": [
    ],
    "layerOptions": 0,
    "shouldTrim": false
  },
  "frame": {
    "_class": "rect",
    "constrainProportions": false,
    "height": 241,
    "width": 209,
    "x": 15,
    "y": 0
  },
  "hasClippingMask": false,
  "isClosed": false,
  "isFixedToViewport": false,
  "isFlippedHorizontal": false,
  "isFlippedVertical": false,
  "isLocked": false,
  "isVisible": true,
  "layerListExpandedType": 1,
  "maintainScrollPosition": false,
  "name": "Shape",
  "nameIsFixed": false,
  "pointRadiusBehaviour": 1,
  "points": [
    {
      "_class": "curvePoint",
      "cornerRadius": 0,
      "curveFrom": "{0.95300751879699253, 1}",
      "curveMode": 1,
      "curveTo": "{0.95300751879699253, 1}",
      "hasCurveFrom": false,
      "hasCurveTo": false,
      "point": "{0.95300751879699253, 1}"
    },
    {
      "_class": "curvePoint",
      "cornerRadius": 0,
      "curveFrom": "{0.97932330827067648, 1}",
      "curveMode": 4,
      "curveTo": "{0.95300751879699253, 1}",
      "hasCurveFrom": true,
      "hasCurveTo": false,
      "point": "{0.95300751879699253, 1}"
    },
    {
      "_class": "curvePoint",
      "cornerRadius": 0,
      "curveFrom": "{1, 0.94951140065146589}",
      "curveMode": 3,
      "curveTo": "{1, 0.97882736156351791}",
      "hasCurveFrom": true,
      "hasCurveTo": true,
      "point": "{1, 0.95439739413680791}"
    },
    {
      "_class": "curvePoint",
      "cornerRadius": 0,
      "curveFrom": "{0.99812030075187952, 0.94299674267100975}",
      "curveMode": 4,
      "curveTo": "{1, 0.94625407166123787}",
      "hasCurveFrom": false,
      "hasCurveTo": true,
      "point": "{0.99812030075187952, 0.94299674267100975}"
    },
    {
      "_class": "curvePoint",
      "cornerRadius": 0,
      "curveFrom": "{0.92481203007518797, 0.016286644951140065}",
      "curveMode": 4,
      "curveTo": "{0.92857142857142838, 0.039087947882736132}",
      "hasCurveFrom": true,
      "hasCurveTo": false,
      "point": "{0.92857142857142838, 0.039087947882736132}"
    },
    {
      "_class": "curvePoint",
      "cornerRadius": 0,
      "curveFrom": "{0.88157894736842113, 0}",
      "curveMode": 4,
      "curveTo": "{0.90601503759398494, 0}",
      "hasCurveFrom": false,
      "hasCurveTo": true,
      "point": "{0.88157894736842113, 0}"
    },
    {
      "_class": "curvePoint",
      "cornerRadius": 0,
      "curveFrom": "{0.022556390977443611, 0}",
      "curveMode": 4,
      "curveTo": "{0.046992481203007516, 0}",
      "hasCurveFrom": true,
      "hasCurveTo": false,
      "point": "{0.046992481203007516, 0}"
    },
    {
      "_class": "curvePoint",
      "cornerRadius": 0,
      "curveFrom": "{0, 0.039087947882736153}",
      "curveMode": 4,
      "curveTo": "{0.0037593984962406048, 0.016286644951140065}",
      "hasCurveFrom": false,
      "hasCurveTo": true,
      "point": "{0, 0.039087947882736153}"
    }
  ],
  "resizingConstraint": 63,
  "resizingType": 0,
  "rotation": 0,
  "shouldBreakMaskChain": false,
  "style": {
    "_class": "style",
    "blur": {
      "_class": "blur",
      "center": "{0.5, 0.5}",
      "isEnabled": false,
      "motionAngle": 0,
      "radius": 10,
      "saturation": 1,
      "type": 0
    },
    "borderOptions": {
      "_class": "borderOptions",
      "dashPattern": [
      ],
      "isEnabled": true,
      "lineCapStyle": 0,
      "lineJoinStyle": 0
    },
    "borders": [
    ],
    "colorControls": {
      "_class": "colorControls",
      "brightness": 0,
      "contrast": 1,
      "hue": 0,
      "isEnabled": false,
      "saturation": 1
    },
    "contextSettings": {
      "_class": "graphicsContextSettings",
      "blendMode": 0,
      "opacity": 1
    },
    "do_objectID": "7FB621B2-0F95-4F17-A595-78F65171344C",
    "endMarkerType": 0,
    "fills": [
      {
        "_class": "fill",
        "color": {
          "_class": "color",
          "alpha": 1,
          "blue": 0,
          "green": 0.5215686274509804,
          "red": 1
        },
        "contextSettings": {
          "_class": "graphicsContextSettings",
          "blendMode": 0,
          "opacity": 1
        },
        "fillType": 0,
        "gradient": {
          "_class": "gradient",
          "elipseLength": 0,
          "from": "{0.5, 0}",
          "gradientType": 0,
          "stops": [
            {
              "_class": "gradientStop",
              "color": {
                "_class": "color",
                "alpha": 1,
                "blue": 1,
                "green": 1,
                "red": 1
              },
              "position": 0
            },
            {
              "_class": "gradientStop",
              "color": {
                "_class": "color",
                "alpha": 1,
                "blue": 0,
                "green": 0,
                "red": 0
              },
              "position": 1
            }
          ],
          "to": "{0.5, 1}"
        },
        "isEnabled": true,
        "noiseIndex": 0,
        "noiseIntensity": 0,
        "patternFillType": 1,
        "patternTileScale": 1
      }
    ],
    "innerShadows": [
    ],
    "miterLimit": 10,
    "shadows": [
    ],
    "startMarkerType": 0,
    "windingRule": 0
  }
}