{
  "_class": "group",
  "booleanOperation": 0,
  "clippingMaskMode": 0,
  "do_objectID": "59C52EB1-ABB4-46F3-96B1-15FEEB08B5E3",
  "exportOptions": {
    "_class": "exportOptions",
    "do_objectID": "D911DEA5-3C92-4689-8DBC-17425D256359",
    "exportFormats": [
    ],
    "includedLayerIds": [
    ],
    "layerOptions": 0,
    "shouldTrim": false
  },
  "frame": {
    "_class": "rect",
    "constrainProportions": false,
    "do_objectID": "67E9970F-FBD7-445B-B9D9-8E1947D61738",
    "height": 16,
    "width": 31.25,
    "x": 115.3515625,
    "y": 27
  },
  "groupLayout": {
    "_class": "MSImmutableFreeformGroupLayout",
    "do_objectID": "2C8DC810-2FFF-47A1-BD29-432D7EC046E0"
  },
  "hasClickThrough": false,
  "hasClippingMask": false,
  "isFixedToViewport": false,
  "isFlippedHorizontal": false,
  "isFlippedVertical": false,
  "isLocked": false,
  "isVisible": true,
  "layerListExpandedType": 0,
  "layers": [
  ],
  "name": "Group 9",
  "nameIsFixed": false,
  "resizingConstraint": 63,
  "resizingType": 0,
  "rotation": 0,
  "shouldBreakMaskChain": false,
  "style": {
    "_class": "style",
    "do_objectID": "6119F6F5-0A99-44A6-B6B9-901FADE098F6",
    "endMarkerType": 0,
    "miterLimit": 10,
    "startMarkerType": 0,
    "windingRule": 1
  }
}