{
  "_class": "group",
  "booleanOperation": -1,
  "clippingMaskMode": 0,
  "do_objectID": "61EC8A0C-084D-441F-894E-6733C9181FFE",
  "exportOptions": {
    "_class": "exportOptions",
    "do_objectID": "99CFE2BF-52E8-4679-9C0A-91B35E5B8012",
    "exportFormats": [
    ],
    "includedLayerIds": [
    ],
    "layerOptions": 0,
    "shouldTrim": false
  },
  "frame": {
    "_class": "rect",
    "constrainProportions": false,
    "do_objectID": "F840561A-EBB5-4510-8A61-AC70D8A33CC6",
    "height": 103,
    "width": 319,
    "x": 641,
    "y": 0
  },
  "groupLayout": {
    "_class": "MSImmutableFreeformGroupLayout",
    "do_objectID": "6093A100-AED8-400F-8536-41DF9DAD302B"
  },
  "hasClickThrough": false,
  "hasClippingMask": false,
  "isFixedToViewport": false,
  "isFlippedHorizontal": false,
  "isFlippedVertical": false,
  "isLocked": false,
  "isVisible": true,
  "layerListExpandedType": 0,
  "layers": [
    {
      "class": "rectangle",
      "id": "22FE0DCE-4835-45CF-BEC0-7AD7DA28D244"
    },
    {
      "class": "text",
      "id": "2C326F25-3203-4FC7-BAF7-7BDCF184F65F"
    },
    {
      "class": "rectangle",
      "id": "DF79D56F-FC0B-402C-BA68-4DF0C366AD52"
    },
    {
      "class": "rectangle",
      "id": "BEA78C98-A136-4DED-8863-2271786E8193"
    }
  ],
  "name": "value",
  "nameIsFixed": true,
  "resizingConstraint": 63,
  "resizingType": 0,
  "rotation": 0,
  "shouldBreakMaskChain": false,
  "style": {
    "_class": "style",
    "do_objectID": "485114ED-CA0F-42BE-856B-1A565661442C",
    "endMarkerType": 0,
    "miterLimit": 10,
    "startMarkerType": 0,
    "windingRule": 1
  }
}