{
  "_class": "group",
  "booleanOperation": -1,
  "clippingMaskMode": 0,
  "do_objectID": "557B71B5-3207-47A2-9E4D-9654DA266CB6",
  "exportOptions": {
    "_class": "exportOptions",
    "exportFormats": [
    ],
    "includedLayerIds": [
    ],
    "layerOptions": 0,
    "shouldTrim": false
  },
  "frame": {
    "_class": "rect",
    "constrainProportions": false,
    "height": 216,
    "width": 962,
    "x": 16,
    "y": 1760
  },
  "groupLayout": {
    "_class": "MSImmutableFreeformGroupLayout"
  },
  "hasClickThrough": false,
  "hasClippingMask": false,
  "isFixedToViewport": false,
  "isFlippedHorizontal": false,
  "isFlippedVertical": false,
  "isLocked": false,
  "isVisible": true,
  "layerListExpandedType": 0,
  "layers": [
    {
      "class": "rectangle",
      "id": "FCA15CA7-19A3-4549-8E8C-D90DE2E9491F"
    },
    {
      "class": "text",
      "id": "58140ABB-2907-4C38-8195-BE40FE61F823"
    },
    {
      "class": "rectangle",
      "id": "24E8D2DB-140C-4BC8-9244-503B1282465B"
    },
    {
      "class": "text",
      "id": "61A4C21C-A6E6-4AFE-87EA-913FC0FCC0F2"
    },
    {
      "class": "group",
      "id": "26CE4E0C-2FF9-481C-87AD-CA96315706D0"
    }
  ],
  "name": "body-long-02",
  "nameIsFixed": true,
  "resizingConstraint": 63,
  "resizingType": 0,
  "rotation": 0,
  "shouldBreakMaskChain": false,
  "style": {
    "_class": "style",
    "endMarkerType": 0,
    "miterLimit": 10,
    "startMarkerType": 0,
    "windingRule": 1
  }
}