{
  "_class": "symbolMaster",
  "allowsOverrides": true,
  "backgroundColor": {
    "_class": "color",
    "alpha": 1,
    "blue": 1,
    "do_objectID": "9ED9882E-3349-425B-AC45-3B72569A39B4",
    "green": 1,
    "red": 1
  },
  "booleanOperation": -1,
  "changeIdentifier": 654,
  "clippingMaskMode": 0,
  "do_objectID": "A2486855-5B32-45FF-8ACC-0FF11FF37D2C",
  "exportOptions": {
    "_class": "exportOptions",
    "do_objectID": "9E5719EF-3101-41AD-8173-46810B4785CC",
    "exportFormats": [
    ],
    "includedLayerIds": [
    ],
    "layerOptions": 0,
    "shouldTrim": false
  },
  "frame": {
    "_class": "rect",
    "constrainProportions": false,
    "do_objectID": "981BB25E-1AAF-4B0C-8884-860E90236205",
    "height": 8,
    "width": 16,
    "x": 121850,
    "y": 58
  },
  "groupLayout": {
    "_class": "MSImmutableFreeformGroupLayout"
  },
  "hasBackgroundColor": false,
  "hasClickThrough": true,
  "hasClippingMask": false,
  "horizontalRulerData": {
    "_class": "rulerData",
    "base": 0,
    "do_objectID": "A5C3BA9F-8708-4626-BD75-DCE88FFAD710",
    "guides": [
    ]
  },
  "includeBackgroundColorInExport": true,
  "includeBackgroundColorInInstance": false,
  "includeInCloudUpload": true,
  "isFixedToViewport": false,
  "isFlippedHorizontal": false,
  "isFlippedVertical": false,
  "isFlowHome": false,
  "isLocked": false,
  "isVisible": true,
  "layerListExpandedType": 0,
  "layers": [
    {
      "class": "rectangle",
      "id": "FA06FAF3-9BCB-4AD1-9157-D51411A65413"
    }
  ],
  "name": "utilities / spacer / vertical / 8 / on",
  "nameIsFixed": true,
  "overrideProperties": [
  ],
  "resizesContent": true,
  "resizingConstraint": 63,
  "resizingType": 0,
  "rotation": 0,
  "shouldBreakMaskChain": true,
  "style": {
    "_class": "style",
    "do_objectID": "4AF800D9-AD8A-41D0-96AF-BAB5213319A5",
    "endMarkerType": 0,
    "miterLimit": 10,
    "startMarkerType": 0,
    "windingRule": 1
  },
  "symbolID": "B5A33E71-EAB5-49BB-8679-195F2301A35E",
  "verticalRulerData": {
    "_class": "rulerData",
    "base": 0,
    "do_objectID": "5767E749-058A-4763-A36E-AF13F00FA1E3",
    "guides": [
    ]
  }
}