{
  "_class": "symbolMaster",
  "allowsOverrides": true,
  "backgroundColor": {
    "_class": "color",
    "alpha": 1,
    "blue": 1,
    "green": 1,
    "red": 1
  },
  "booleanOperation": -1,
  "changeIdentifier": 8884,
  "clippingMaskMode": 0,
  "do_objectID": "DFF1279F-D432-4C00-AC73-7FC1AAA6D0DE",
  "exportOptions": {
    "_class": "exportOptions",
    "exportFormats": [
    ],
    "includedLayerIds": [
    ],
    "layerOptions": 0,
    "shouldTrim": false
  },
  "frame": {
    "_class": "rect",
    "constrainProportions": false,
    "height": 454,
    "width": 1440,
    "x": 100,
    "y": 3988
  },
  "groupLayout": {
    "_class": "MSImmutableFreeformGroupLayout"
  },
  "hasBackgroundColor": false,
  "hasClickThrough": true,
  "hasClippingMask": false,
  "horizontalRulerData": {
    "_class": "rulerData",
    "base": 0,
    "guides": [
    ]
  },
  "includeBackgroundColorInExport": true,
  "includeBackgroundColorInInstance": false,
  "includeInCloudUpload": true,
  "isFixedToViewport": false,
  "isFlippedHorizontal": false,
  "isFlippedVertical": false,
  "isFlowHome": false,
  "isLocked": false,
  "isVisible": true,
  "layerListExpandedType": 2,
  "layers": [
    {
      "class": "text",
      "id": "DF475E04-1011-487A-BF5F-156A82871113"
    },
    {
      "class": "group",
      "id": "C0F5E7F5-D07D-4BFB-AD5A-A847113BF18E"
    },
    {
      "class": "text",
      "id": "109309E7-CC35-4A99-838D-4F04E4716291"
    },
    {
      "class": "text",
      "id": "DA5632FE-7B64-4997-B6BB-B44A6DBD56D9"
    },
    {
      "class": "text",
      "id": "AFA6A563-5AD1-4B9F-9401-00ED5051050C"
    },
    {
      "class": "text",
      "id": "C328F92D-9468-474F-B7CB-C22E3816CDD1"
    },
    {
      "class": "text",
      "id": "6D7B4FC6-FAD1-4605-8407-D54B729E62E8"
    },
    {
      "class": "text",
      "id": "A6E5C871-1C76-4FD9-892B-E806E863B782"
    },
    {
      "class": "text",
      "id": "42E67F6F-6734-49FC-8185-7B66C9A54AFE"
    },
    {
      "class": "group",
      "id": "C77D5E7A-16A1-42F1-AA84-63C35E2DF8DB"
    },
    {
      "class": "group",
      "id": "24DD777A-4C61-4779-AD5A-15EE9E3FFF07"
    },
    {
      "class": "group",
      "id": "2FE9376E-E081-4AE1-AE72-79A09D67E197"
    },
    {
      "class": "group",
      "id": "9F61F335-4ECF-4D11-BA74-CA2972D42C8E"
    },
    {
      "class": "group",
      "id": "780C8330-B201-45EF-9E2C-C4441D133A55"
    },
    {
      "class": "text",
      "id": "D38849E3-338D-40A1-94AF-40AC8B9628B1"
    },
    {
      "class": "text",
      "id": "A2724ED8-9E7C-4C59-80B7-3DA978CDC7F6"
    },
    {
      "class": "text",
      "id": "7232AF1A-1FB0-4BD2-9D86-FC6EC0ED2A0E"
    },
    {
      "class": "text",
      "id": "E73BAF7C-5F62-4E9B-B254-9796C6131182"
    },
    {
      "class": "text",
      "id": "41199996-5166-43F7-A117-CBDC3C1073C6"
    },
    {
      "class": "group",
      "id": "F8C41DF2-B7B2-4C08-AE18-18464FC3AF61"
    },
    {
      "class": "text",
      "id": "AEEFC5A6-C4CB-4A67-B2AF-4464E11E1256"
    },
    {
      "class": "text",
      "id": "AD543E4F-074C-4101-AE25-FFAF42B963BB"
    },
    {
      "class": "text",
      "id": "781D9ED6-F890-4F3A-B9B7-331BE1BEF861"
    },
    {
      "class": "text",
      "id": "9A2933AB-9715-465E-B43D-CB1676F429D8"
    },
    {
      "class": "group",
      "id": "4BCD7670-C103-4A63-9B3F-4C874FC64DAB"
    },
    {
      "class": "text",
      "id": "3764A50C-5C43-423A-AF19-C3D7ACBF6CE1"
    },
    {
      "class": "text",
      "id": "8982D433-9D19-4A14-BE85-879381C59827"
    },
    {
      "class": "group",
      "id": "EF54C1D7-2C98-4526-B15D-66F407F13502"
    },
    {
      "class": "text",
      "id": "3244DF06-8181-4DBC-AB81-D69080740CB1"
    },
    {
      "class": "text",
      "id": "CB6F91F8-09B4-4787-B70B-497C5543EFD9"
    },
    {
      "class": "group",
      "id": "E533A166-A656-4C37-B1FE-493FC66BAA61"
    }
  ],
  "layout": {
    "_class": "layoutGrid",
    "columnWidth": 75,
    "drawHorizontal": true,
    "drawHorizontalLines": false,
    "drawVertical": true,
    "gutterHeight": 4,
    "gutterWidth": 20,
    "guttersOutside": false,
    "horizontalOffset": 160,
    "isEnabled": true,
    "numberOfColumns": 12,
    "rowHeightMultiplication": 1,
    "totalWidth": 1120
  },
  "maintainScrollPosition": false,
  "name": "o-widget/productcarousel",
  "nameIsFixed": true,
  "overrideProperties": [
    {
      "_class": "MSImmutableOverrideProperty",
      "canOverride": true,
      "overrideName": "3764A50C-5C43-423A-AF19-C3D7ACBF6CE1_textStyle"
    },
    {
      "_class": "MSImmutableOverrideProperty",
      "canOverride": true,
      "overrideName": "8982D433-9D19-4A14-BE85-879381C59827_textStyle"
    },
    {
      "_class": "MSImmutableOverrideProperty",
      "canOverride": true,
      "overrideName": "109309E7-CC35-4A99-838D-4F04E4716291_textStyle"
    },
    {
      "_class": "MSImmutableOverrideProperty",
      "canOverride": true,
      "overrideName": "DA5632FE-7B64-4997-B6BB-B44A6DBD56D9_textStyle"
    },
    {
      "_class": "MSImmutableOverrideProperty",
      "canOverride": true,
      "overrideName": "AD543E4F-074C-4101-AE25-FFAF42B963BB_stringValue"
    },
    {
      "_class": "MSImmutableOverrideProperty",
      "canOverride": true,
      "overrideName": "781D9ED6-F890-4F3A-B9B7-331BE1BEF861_textStyle"
    },
    {
      "_class": "MSImmutableOverrideProperty",
      "canOverride": true,
      "overrideName": "9A2933AB-9715-465E-B43D-CB1676F429D8_textStyle"
    },
    {
      "_class": "MSImmutableOverrideProperty",
      "canOverride": true,
      "overrideName": "3244DF06-8181-4DBC-AB81-D69080740CB1_textStyle"
    },
    {
      "_class": "MSImmutableOverrideProperty",
      "canOverride": true,
      "overrideName": "AD543E4F-074C-4101-AE25-FFAF42B963BB_textStyle"
    },
    {
      "_class": "MSImmutableOverrideProperty",
      "canOverride": true,
      "overrideName": "AEEFC5A6-C4CB-4A67-B2AF-4464E11E1256_textStyle"
    },
    {
      "_class": "MSImmutableOverrideProperty",
      "canOverride": true,
      "overrideName": "CB6F91F8-09B4-4787-B70B-497C5543EFD9_textStyle"
    },
    {
      "_class": "MSImmutableOverrideProperty",
      "canOverride": true,
      "overrideName": "A6E5C871-1C76-4FD9-892B-E806E863B782_stringValue"
    },
    {
      "_class": "MSImmutableOverrideProperty",
      "canOverride": true,
      "overrideName": "AE54D511-0B58-43B2-89B2-05A47DD1A28D_stringValue"
    },
    {
      "_class": "MSImmutableOverrideProperty",
      "canOverride": true,
      "overrideName": "A2724ED8-9E7C-4C59-80B7-3DA978CDC7F6_stringValue"
    },
    {
      "_class": "MSImmutableOverrideProperty",
      "canOverride": true,
      "overrideName": "7232AF1A-1FB0-4BD2-9D86-FC6EC0ED2A0E_stringValue"
    },
    {
      "_class": "MSImmutableOverrideProperty",
      "canOverride": true,
      "overrideName": "DF475E04-1011-487A-BF5F-156A82871113_textStyle"
    },
    {
      "_class": "MSImmutableOverrideProperty",
      "canOverride": true,
      "overrideName": "3B31CC02-594A-4598-908A-DF83875B8FF3_stringValue"
    },
    {
      "_class": "MSImmutableOverrideProperty",
      "canOverride": true,
      "overrideName": "E73BAF7C-5F62-4E9B-B254-9796C6131182_stringValue"
    },
    {
      "_class": "MSImmutableOverrideProperty",
      "canOverride": true,
      "overrideName": "23BBFDC7-557A-4F58-B014-E81AE69D25EC_stringValue"
    },
    {
      "_class": "MSImmutableOverrideProperty",
      "canOverride": true,
      "overrideName": "6133DC68-70A3-4606-82A0-81A6C46AAB19_stringValue"
    },
    {
      "_class": "MSImmutableOverrideProperty",
      "canOverride": true,
      "overrideName": "C328F92D-9468-474F-B7CB-C22E3816CDD1_stringValue"
    },
    {
      "_class": "MSImmutableOverrideProperty",
      "canOverride": true,
      "overrideName": "42E67F6F-6734-49FC-8185-7B66C9A54AFE_stringValue"
    },
    {
      "_class": "MSImmutableOverrideProperty",
      "canOverride": true,
      "overrideName": "6D7B4FC6-FAD1-4605-8407-D54B729E62E8_stringValue"
    },
    {
      "_class": "MSImmutableOverrideProperty",
      "canOverride": true,
      "overrideName": "41199996-5166-43F7-A117-CBDC3C1073C6_stringValue"
    },
    {
      "_class": "MSImmutableOverrideProperty",
      "canOverride": true,
      "overrideName": "109309E7-CC35-4A99-838D-4F04E4716291_stringValue"
    },
    {
      "_class": "MSImmutableOverrideProperty",
      "canOverride": true,
      "overrideName": "CB6F91F8-09B4-4787-B70B-497C5543EFD9_stringValue"
    },
    {
      "_class": "MSImmutableOverrideProperty",
      "canOverride": true,
      "overrideName": "8A1C6519-0CAF-41E2-9F78-AB5E9989EB36_image"
    },
    {
      "_class": "MSImmutableOverrideProperty",
      "canOverride": true,
      "overrideName": "AFA6A563-5AD1-4B9F-9401-00ED5051050C_stringValue"
    },
    {
      "_class": "MSImmutableOverrideProperty",
      "canOverride": true,
      "overrideName": "3244DF06-8181-4DBC-AB81-D69080740CB1_stringValue"
    },
    {
      "_class": "MSImmutableOverrideProperty",
      "canOverride": true,
      "overrideName": "D38849E3-338D-40A1-94AF-40AC8B9628B1_stringValue"
    },
    {
      "_class": "MSImmutableOverrideProperty",
      "canOverride": true,
      "overrideName": "DF475E04-1011-487A-BF5F-156A82871113_stringValue"
    },
    {
      "_class": "MSImmutableOverrideProperty",
      "canOverride": true,
      "overrideName": "64D792C0-8F3F-4578-919C-FA79A74AD09A_image"
    },
    {
      "_class": "MSImmutableOverrideProperty",
      "canOverride": true,
      "overrideName": "DA5632FE-7B64-4997-B6BB-B44A6DBD56D9_stringValue"
    },
    {
      "_class": "MSImmutableOverrideProperty",
      "canOverride": true,
      "overrideName": "87878CB6-D8DE-499C-AA39-759F6E9D6FC3_image"
    },
    {
      "_class": "MSImmutableOverrideProperty",
      "canOverride": true,
      "overrideName": "4D6D0F92-D33C-4A4E-B6C2-115AC6C7EAE8_image"
    },
    {
      "_class": "MSImmutableOverrideProperty",
      "canOverride": true,
      "overrideName": "874D518C-D881-474B-B16F-20E0E5442BD5_image"
    },
    {
      "_class": "MSImmutableOverrideProperty",
      "canOverride": true,
      "overrideName": "AEEFC5A6-C4CB-4A67-B2AF-4464E11E1256_stringValue"
    },
    {
      "_class": "MSImmutableOverrideProperty",
      "canOverride": true,
      "overrideName": "3764A50C-5C43-423A-AF19-C3D7ACBF6CE1_stringValue"
    },
    {
      "_class": "MSImmutableOverrideProperty",
      "canOverride": true,
      "overrideName": "781D9ED6-F890-4F3A-B9B7-331BE1BEF861_stringValue"
    },
    {
      "_class": "MSImmutableOverrideProperty",
      "canOverride": true,
      "overrideName": "9A2933AB-9715-465E-B43D-CB1676F429D8_stringValue"
    },
    {
      "_class": "MSImmutableOverrideProperty",
      "canOverride": true,
      "overrideName": "8982D433-9D19-4A14-BE85-879381C59827_stringValue"
    },
    {
      "_class": "MSImmutableOverrideProperty",
      "canOverride": true,
      "overrideName": "EEA74CDF-0B2D-4125-B980-D476168A2E8C_stringValue"
    }
  ],
  "presetDictionary": {
  },
  "resizesContent": false,
  "resizingConstraint": 63,
  "resizingType": 0,
  "rotation": 0,
  "shouldBreakMaskChain": true,
  "style": {
    "_class": "style",
    "blur": {
      "_class": "blur",
      "center": "{0.5, 0.5}",
      "isEnabled": false,
      "motionAngle": 0,
      "radius": 10,
      "saturation": 1,
      "type": 0
    },
    "borderOptions": {
      "_class": "borderOptions",
      "dashPattern": [
      ],
      "isEnabled": true,
      "lineCapStyle": 0,
      "lineJoinStyle": 0
    },
    "borders": [
    ],
    "colorControls": {
      "_class": "colorControls",
      "brightness": 0,
      "contrast": 1,
      "hue": 0,
      "isEnabled": true,
      "saturation": 1
    },
    "contextSettings": {
      "_class": "graphicsContextSettings",
      "blendMode": 0,
      "opacity": 1
    },
    "do_objectID": "F3A87CCE-AE8B-4E7A-8E8F-C145E7FCCF88",
    "endMarkerType": 0,
    "fills": [
    ],
    "innerShadows": [
    ],
    "miterLimit": 10,
    "shadows": [
    ],
    "startMarkerType": 0,
    "windingRule": 1
  },
  "symbolID": "4099FF0D-8F06-487B-B6F8-C9D5E9E61DE4",
  "verticalRulerData": {
    "_class": "rulerData",
    "base": 0,
    "guides": [
    ]
  }
}