{
  "_class": "symbolInstance",
  "booleanOperation": -1,
  "clippingMaskMode": 0,
  "do_objectID": "E070A627-E845-46D1-B85C-51D60BD5C6D8",
  "exportOptions": {
    "_class": "exportOptions",
    "do_objectID": "05DC4B72-CBB6-4BA9-B7FD-9B2193D88E47",
    "exportFormats": [
    ],
    "includedLayerIds": [
    ],
    "layerOptions": 0,
    "shouldTrim": false
  },
  "frame": {
    "_class": "rect",
    "constrainProportions": false,
    "do_objectID": "A59B642E-1FB6-4792-93A3-5390D909FEEC",
    "height": 64,
    "width": 200,
    "x": 600,
    "y": 0
  },
  "hasClippingMask": false,
  "horizontalSpacing": 0,
  "isFixedToViewport": false,
  "isFlippedHorizontal": false,
  "isFlippedVertical": false,
  "isLocked": false,
  "isVisible": true,
  "layerListExpandedType": 0,
  "name": "column 4",
  "nameIsFixed": true,
  "overrideValues": [
  ],
  "resizingConstraint": 63,
  "resizingType": 0,
  "rotation": 0,
  "scale": 1,
  "shouldBreakMaskChain": false,
  "style": {
    "_class": "style",
    "do_objectID": "1E13917C-AAB8-4047-A6F8-8A0E360C4ABD",
    "endMarkerType": 0,
    "miterLimit": 10,
    "startMarkerType": 0,
    "windingRule": 1
  },
  "symbolID": "20912472-901F-4E43-B0C5-F8F42420E2B4",
  "verticalSpacing": 0
}