{
  "_class": "shapePath",
  "booleanOperation": -1,
  "clippingMaskMode": 0,
  "do_objectID": "240CBC5A-682C-43C1-A2F2-8702BAE9E941",
  "edited": true,
  "exportOptions": {
    "_class": "exportOptions",
    "exportFormats": [
    ],
    "includedLayerIds": [
    ],
    "layerOptions": 0,
    "shouldTrim": false
  },
  "frame": {
    "_class": "rect",
    "constrainProportions": false,
    "height": 15.99252941176469,
    "width": 16.03339705882352,
    "x": 0,
    "y": 0
  },
  "hasClippingMask": false,
  "isClosed": false,
  "isFixedToViewport": false,
  "isFlippedHorizontal": false,
  "isFlippedVertical": false,
  "isLocked": false,
  "isVisible": true,
  "layerListExpandedType": 0,
  "maintainScrollPosition": false,
  "name": "Path",
  "nameIsFixed": false,
  "pointRadiusBehaviour": 1,
  "points": [
    {
      "_class": "curvePoint",
      "cornerRadius": 0,
      "curveFrom": "{0.89893613606158473, 1}",
      "curveMode": 4,
      "curveTo": "{0.92020057398573396, 1}",
      "hasCurveFrom": true,
      "hasCurveTo": false,
      "point": "{0.92020057398573396, 1}"
    },
    {
      "_class": "curvePoint",
      "cornerRadius": 0,
      "curveFrom": "{0.86400903995428702, 0.97677592111022427}",
      "curveMode": 4,
      "curveTo": "{0.87898146424145962, 0.99170936429877177}",
      "hasCurveFrom": false,
      "hasCurveTo": true,
      "point": "{0.86400903995428702, 0.97677592111022427}"
    },
    {
      "_class": "curvePoint",
      "cornerRadius": 0,
      "curveFrom": "{0.75665958280097356, 0.86915214088931225}",
      "curveMode": 1,
      "curveTo": "{0.75665958280097356, 0.86915214088931225}",
      "hasCurveFrom": false,
      "hasCurveTo": false,
      "point": "{0.75665958280097356, 0.86915214088931225}"
    },
    {
      "_class": "curvePoint",
      "cornerRadius": 0,
      "curveFrom": "{0.71836818552451631, 0.89240196709493025}",
      "curveMode": 4,
      "curveTo": "{0.72550769487586153, 0.88805067071757771}",
      "hasCurveFrom": true,
      "hasCurveTo": false,
      "point": "{0.72550769487586153, 0.88805067071757771}"
    },
    {
      "_class": "curvePoint",
      "cornerRadius": 0,
      "curveFrom": "{0.70601529344539116, 0.89935374237235766}",
      "curveMode": 4,
      "curveTo": "{0.71192208175765526, 0.89616107520790955}",
      "hasCurveFrom": false,
      "hasCurveTo": true,
      "point": "{0.70601529344539116, 0.89935374237235766}"
    },
    {
      "_class": "curvePoint",
      "cornerRadius": 0,
      "curveFrom": "{0.69124832266473235, 0.90689770591415841}",
      "curveMode": 4,
      "curveTo": "{0.70339576123734371, 0.90061536084863159}",
      "hasCurveFrom": true,
      "hasCurveTo": false,
      "point": "{0.70339576123734371, 0.90061536084863159}"
    },
    {
      "_class": "curvePoint",
      "cornerRadius": 0,
      "curveFrom": "{0.62976636084056181, 0.93315996807332824}",
      "curveMode": 3,
      "curveTo": "{0.67879270383234991, 0.91263935734699653}",
      "hasCurveFrom": true,
      "hasCurveTo": true,
      "point": "{0.66633708499996824, 0.91791755709467282}"
    },
    {
      "_class": "curvePoint",
      "cornerRadius": 0,
      "curveFrom": "{0.52850346381771129, 0.95411828316897973}",
      "curveMode": 3,
      "curveTo": "{0.59132087343421935, 0.94410257730631586}",
      "hasCurveFrom": true,
      "hasCurveTo": true,
      "point": "{0.55210493537845196, 0.95041066968768506}"
    },
    {
      "_class": "curvePoint",
      "cornerRadius": 0,
      "curveFrom": "{0.44098027004295282, 0.95604933185715391}",
      "curveMode": 3,
      "curveTo": "{0.5042342683608021, 0.95604933185715391}",
      "hasCurveFrom": true,
      "hasCurveTo": true,
      "point": "{0.47996507290389295, 0.95604933185715391}"
    },
    {
      "_class": "curvePoint",
      "cornerRadius": 0,
      "curveFrom": "{0.30106643210724671, 0.92559025721568522}",
      "curveMode": 4,
      "curveTo": "{0.40086547289618807, 0.95113159453127005}",
      "hasCurveFrom": true,
      "hasCurveTo": true,
      "point": "{0.36090476587930925, 0.94137336182702946}"
    },
    {
      "_class": "curvePoint",
      "cornerRadius": 0,
      "curveFrom": "{0.14404858975429033, 0.82509848348309689}",
      "curveMode": 2,
      "curveTo": "{0.2451830783355701, 0.89899327995056511}",
      "hasCurveFrom": true,
      "hasCurveTo": true,
      "point": "{0.19474424248650105, 0.86212312366435784}"
    },
    {
      "_class": "curvePoint",
      "cornerRadius": 0,
      "curveFrom": "{0.061610370265741302, 0.71332938541157087}",
      "curveMode": 4,
      "curveTo": "{0.10213607442553284, 0.77968021833723833}",
      "hasCurveFrom": true,
      "hasCurveTo": true,
      "point": "{0.07016237247436645, 0.72707845207137156}"
    },
    {
      "_class": "curvePoint",
      "cornerRadius": 0,
      "curveFrom": "{0.027813268444267854, 0.64548520816704857}",
      "curveMode": 4,
      "curveTo": "{0.053751773641599297, 0.69921985632997752}",
      "hasCurveFrom": true,
      "hasCurveTo": true,
      "point": "{0.046792036108453845, 0.68513607456422665}"
    },
    {
      "_class": "curvePoint",
      "cornerRadius": 0,
      "curveFrom": "{0.0069854192214597625, 0.55889698498931473}",
      "curveMode": 4,
      "curveTo": "{0.014433108832574593, 0.60307937897474195}",
      "hasCurveFrom": false,
      "hasCurveTo": true,
      "point": "{0.0069854192214597625, 0.55889698498931473}"
    },
    {
      "_class": "curvePoint",
      "cornerRadius": 0,
      "curveFrom": "{0.0058297432473211784, 0.55230567213367987}",
      "curveMode": 4,
      "curveTo": "{0.0062149685720340403, 0.55439120471690817}",
      "hasCurveFrom": true,
      "hasCurveTo": false,
      "point": "{0.0062149685720340403, 0.55439120471690817}"
    },
    {
      "_class": "curvePoint",
      "cornerRadius": 0,
      "curveFrom": "{0.0053417911693517976, 0.54919024691675888}",
      "curveMode": 4,
      "curveTo": "{0.005547244675864837, 0.55078658049898288}",
      "hasCurveFrom": false,
      "hasCurveTo": true,
      "point": "{0.0053417911693517976, 0.54919024691675888}"
    },
    {
      "_class": "curvePoint",
      "cornerRadius": 0,
      "curveFrom": "{0.0015152196105374977, 0.51988980148819475}",
      "curveMode": 4,
      "curveTo": "{0.0043402053250979934, 0.54138881021653495}",
      "hasCurveFrom": true,
      "hasCurveTo": false,
      "point": "{0.0043402053250979934, 0.54138881021653495}"
    },
    {
      "_class": "curvePoint",
      "cornerRadius": 0,
      "curveFrom": "{0, 0.4484152527099049}",
      "curveMode": 2,
      "curveTo": "{0, 0.49859677128659324}",
      "hasCurveFrom": true,
      "hasCurveTo": true,
      "point": "{0, 0.47820489713947306}"
    },
    {
      "_class": "curvePoint",
      "cornerRadius": 0,
      "curveFrom": "{0.010734945715331125, 0.3777131234068849}",
      "curveMode": 4,
      "curveTo": "{0.002902030779503433, 0.41826514585854419}",
      "hasCurveFrom": true,
      "hasCurveTo": true,
      "point": "{0.008577683896939468, 0.3883982594814489}"
    },
    {
      "_class": "curvePoint",
      "cornerRadius": 0,
      "curveFrom": "{0.030278710522429801, 0.30175854167203064}",
      "curveMode": 3,
      "curveTo": "{0.012635390650581484, 0.3691135199155488}",
      "hasCurveFrom": true,
      "hasCurveTo": true,
      "point": "{0.014741289092344883, 0.36105461005690148}"
    },
    {
      "_class": "curvePoint",
      "cornerRadius": 0,
      "curveFrom": "{0.13328796235064488, 0.14495738819228085}",
      "curveMode": 2,
      "curveTo": "{0.057424255070528452, 0.24601560287340027}",
      "hasCurveFrom": true,
      "hasCurveTo": true,
      "point": "{0.095381790398901156, 0.1953706326115501}"
    },
    {
      "_class": "curvePoint",
      "cornerRadius": 0,
      "curveFrom": "{0.25281053976488438, 0.058085944540281681}",
      "curveMode": 4,
      "curveTo": "{0.17930954780967301, 0.10311799994850525}",
      "hasCurveFrom": true,
      "hasCurveTo": true,
      "point": "{0.23234223417847522, 0.071036844408970373}"
    },
    {
      "_class": "curvePoint",
      "cornerRadius": 0,
      "curveFrom": "{0.33355376782469681, 0.02219418625608267}",
      "curveMode": 3,
      "curveTo": "{0.27494815509171583, 0.046679883622132455}",
      "hasCurveFrom": true,
      "hasCurveTo": true,
      "point": "{0.29808735626280075, 0.037024640181261163}"
    },
    {
      "_class": "curvePoint",
      "cornerRadius": 0,
      "curveFrom": "{0.43458552965271968, 0.0017508174772779383}",
      "curveMode": 4,
      "curveTo": "{0.37158834821801212, 0.011509050181518281}",
      "hasCurveFrom": true,
      "hasCurveTo": true,
      "point": "{0.41118951159849276, 0.0052009578001492879}"
    },
    {
      "_class": "curvePoint",
      "cornerRadius": 0,
      "curveFrom": "{0.52349553459644438, 0}",
      "curveMode": 3,
      "curveTo": "{0.45852086316154428, 0}",
      "hasCurveFrom": true,
      "hasCurveTo": true,
      "point": "{0.4822507431638558, 0}"
    },
    {
      "_class": "curvePoint",
      "cornerRadius": 0,
      "curveFrom": "{0.60405899083805781, 0.015911841190555755}",
      "curveMode": 4,
      "curveTo": "{0.56445782745757711, 0.0053811890110453146}",
      "hasCurveFrom": false,
      "hasCurveTo": true,
      "point": "{0.60405899083805781, 0.015911841190555755}"
    },
    {
      "_class": "curvePoint",
      "cornerRadius": 0,
      "curveFrom": "{0.61037668616334873, 0.017662658667833696}",
      "curveMode": 4,
      "curveTo": "{0.60544580200702403, 0.016246556296506096}",
      "hasCurveFrom": true,
      "hasCurveTo": false,
      "point": "{0.60544580200702403, 0.016246556296506096}"
    },
    {
      "_class": "curvePoint",
      "cornerRadius": 0,
      "curveFrom": "{0.61969913902139961, 0.020417621462962283}",
      "curveMode": 4,
      "curveTo": "{0.61515348018978744, 0.018872782512422821}",
      "hasCurveFrom": false,
      "hasCurveTo": true,
      "point": "{0.61969913902139961, 0.020417621462962283}"
    },
    {
      "_class": "curvePoint",
      "cornerRadius": 0,
      "curveFrom": "{0.71988340513505344, 0.051726357527227797}",
      "curveMode": 4,
      "curveTo": "{0.62126572200856456, 0.020855325832281679}",
      "hasCurveFrom": true,
      "hasCurveTo": false,
      "point": "{0.62126572200856456, 0.020855325832281679}"
    },
    {
      "_class": "curvePoint",
      "cornerRadius": 0,
      "curveFrom": "{0.87528330112421615, 0.21177167280311013}",
      "curveMode": 3,
      "curveTo": "{0.80743228059812688, 0.11581142665877095}",
      "hasCurveFrom": true,
      "hasCurveTo": true,
      "point": "{0.86788697488972921, 0.20129251525528458}"
    },
    {
      "_class": "curvePoint",
      "cornerRadius": 0,
      "curveFrom": "{0.91134039151733859, 0.2711964777671928}",
      "curveMode": 4,
      "curveTo": "{0.88144690631962197, 0.22134967429645444}",
      "hasCurveFrom": true,
      "hasCurveTo": true,
      "point": "{0.8866859707357162, 0.23041272947295241}"
    },
    {
      "_class": "curvePoint",
      "cornerRadius": 0,
      "curveFrom": "{0.94593362567655237, 0.37817657509204672}",
      "curveMode": 3,
      "curveTo": "{0.92972848035029865, 0.31473518885656182}",
      "hasCurveFrom": true,
      "hasCurveTo": true,
      "point": "{0.94128524009168368, 0.35994747547568157}"
    },
    {
      "_class": "curvePoint",
      "cornerRadius": 0,
      "curveFrom": "{0.95869742476870434, 0.4783078864028425}",
      "curveMode": 4,
      "curveTo": "{0.94963178879379517, 0.39766729318468536}",
      "hasCurveFrom": true,
      "hasCurveTo": true,
      "point": "{0.95209723087195741, 0.41800767270012101}"
    },
    {
      "_class": "curvePoint",
      "cornerRadius": 0,
      "curveFrom": "{0.93060165775298087, 0.63928010504904864}",
      "curveMode": 3,
      "curveTo": "{0.95517903346966038, 0.53765544941939802}",
      "hasCurveFrom": true,
      "hasCurveTo": true,
      "point": "{0.94161910203976829, 0.59437678622003665}"
    },
    {
      "_class": "curvePoint",
      "cornerRadius": 0,
      "curveFrom": "{0.88745642138514191, 0.72507016143567038}",
      "curveMode": 4,
      "curveTo": "{0.91236765904990591, 0.68328226782357937}",
      "hasCurveFrom": false,
      "hasCurveTo": true,
      "point": "{0.88745642138514191, 0.72507016143567038}"
    },
    {
      "_class": "curvePoint",
      "cornerRadius": 0,
      "curveFrom": "{0.86881151566904014, 0.75625016092072406}",
      "curveMode": 1,
      "curveTo": "{0.86881151566904014, 0.75625016092072406}",
      "hasCurveFrom": false,
      "hasCurveTo": false,
      "point": "{0.86881151566904014, 0.75625016092072406}"
    },
    {
      "_class": "curvePoint",
      "cornerRadius": 0,
      "curveFrom": "{1.0078778578903775, 0.89569762352274773}",
      "curveMode": 4,
      "curveTo": "{0.97636642632886728, 0.86405417235253223}",
      "hasCurveFrom": true,
      "hasCurveTo": false,
      "point": "{0.97636642632886728, 0.86405417235253223}"
    },
    {
      "_class": "curvePoint",
      "cornerRadius": 0,
      "curveFrom": "{0.96136832035338038, 0.99170936429877177}",
      "curveMode": 3,
      "curveTo": "{1.0078778578903775, 0.94515821725585103}",
      "hasCurveFrom": true,
      "hasCurveTo": true,
      "point": "{0.97636642632886728, 0.97677592111022427}"
    },
    {
      "_class": "curvePoint",
      "cornerRadius": 0,
      "curveFrom": "{0.92020057398573396, 1}",
      "curveMode": 4,
      "curveTo": "{0.94146501190988319, 1}",
      "hasCurveFrom": false,
      "hasCurveTo": true,
      "point": "{0.92020057398573396, 1}"
    }
  ],
  "resizingConstraint": 63,
  "resizingType": 0,
  "rotation": 0,
  "shouldBreakMaskChain": false,
  "style": {
    "_class": "style",
    "blur": {
      "_class": "blur",
      "center": "{0.5, 0.5}",
      "isEnabled": false,
      "motionAngle": 0,
      "radius": 10,
      "saturation": 1,
      "type": 0
    },
    "borderOptions": {
      "_class": "borderOptions",
      "dashPattern": [
      ],
      "isEnabled": true,
      "lineCapStyle": 0,
      "lineJoinStyle": 0
    },
    "borders": [
    ],
    "colorControls": {
      "_class": "colorControls",
      "brightness": 0,
      "contrast": 1,
      "hue": 0,
      "isEnabled": true,
      "saturation": 1
    },
    "contextSettings": {
      "_class": "graphicsContextSettings",
      "blendMode": 0,
      "opacity": 1
    },
    "do_objectID": "22DA118D-DC68-410D-A28A-82D413D4A38B",
    "endMarkerType": 0,
    "fills": [
      {
        "_class": "fill",
        "color": {
          "_class": "color",
          "alpha": 1,
          "blue": 0.1764705882352941,
          "green": 0.1764705882352941,
          "red": 0.1764705882352941
        },
        "contextSettings": {
          "_class": "graphicsContextSettings",
          "blendMode": 0,
          "opacity": 1
        },
        "fillType": 0,
        "gradient": {
          "_class": "gradient",
          "elipseLength": 0,
          "from": "{0.5, 0}",
          "gradientType": 0,
          "stops": [
            {
              "_class": "gradientStop",
              "color": {
                "_class": "color",
                "alpha": 1,
                "blue": 1,
                "green": 1,
                "red": 1
              },
              "position": 0
            },
            {
              "_class": "gradientStop",
              "color": {
                "_class": "color",
                "alpha": 1,
                "blue": 0,
                "green": 0,
                "red": 0
              },
              "position": 1
            }
          ],
          "to": "{0.5, 1}"
        },
        "isEnabled": true,
        "noiseIndex": 0,
        "noiseIntensity": 0,
        "patternFillType": 1,
        "patternTileScale": 1
      }
    ],
    "innerShadows": [
    ],
    "miterLimit": 10,
    "shadows": [
    ],
    "startMarkerType": 0,
    "windingRule": 1
  }
}