{
  "_class": "shapeGroup",
  "booleanOperation": 0,
  "clippingMaskMode": 0,
  "do_objectID": "3857A0DA-9D62-42D2-B635-8F08802CE3DC",
  "exportOptions": {
    "_class": "exportOptions",
    "do_objectID": "554B04CD-E233-44D1-980E-0C0001174168",
    "exportFormats": [
    ],
    "includedLayerIds": [
    ],
    "layerOptions": 0,
    "shouldTrim": false
  },
  "frame": {
    "_class": "rect",
    "constrainProportions": false,
    "do_objectID": "A21E53A5-C83E-4DB8-A854-C49BF1B6901E",
    "height": 21.22081185250956,
    "width": 23.57171182184647,
    "x": -0.00002601908170163371,
    "y": 0.01535135080132477
  },
  "groupLayout": {
    "_class": "MSImmutableFreeformGroupLayout",
    "do_objectID": "A1353CE6-CF28-4DEF-BB65-4400FB1CDCC4"
  },
  "hasClickThrough": false,
  "hasClippingMask": false,
  "isFixedToViewport": false,
  "isFlippedHorizontal": false,
  "isFlippedVertical": false,
  "isLocked": false,
  "isVisible": true,
  "layerListExpandedType": 0,
  "layers": [
    {
      "class": "shapePath",
      "id": "D3075BD4-88B5-489D-B718-B4A115C3623C"
    },
    {
      "class": "shapePath",
      "id": "7EA6ECC4-A096-4750-A910-06DD1FBB84FC"
    }
  ],
  "name": "Fill 1",
  "nameIsFixed": false,
  "resizingConstraint": 63,
  "resizingType": 0,
  "rotation": 0,
  "shouldBreakMaskChain": false,
  "style": {
    "_class": "style",
    "do_objectID": "4B849221-7ECD-4466-8254-F8641A47C6E7",
    "endMarkerType": 0,
    "fills": [
      {
        "_class": "fill",
        "color": {
          "_class": "color",
          "alpha": 1,
          "blue": 0.1764705882352941,
          "green": 0.1764705882352941,
          "red": 0.1764705882352941
        },
        "fillType": 0,
        "isEnabled": true,
        "noiseIndex": 0,
        "noiseIntensity": 0,
        "patternFillType": 1,
        "patternTileScale": 1
      }
    ],
    "miterLimit": 10,
    "startMarkerType": 0,
    "windingRule": 1
  },
  "windingRule": 1
}