{
  "_class": "group",
  "booleanOperation": 0,
  "clippingMaskMode": 0,
  "do_objectID": "B20C7EAA-6F07-4510-B35E-E5AA83301F2C",
  "exportOptions": {
    "_class": "exportOptions",
    "exportFormats": [
    ],
    "includedLayerIds": [
    ],
    "layerOptions": 0,
    "shouldTrim": false
  },
  "frame": {
    "_class": "rect",
    "constrainProportions": false,
    "height": 20,
    "width": 549,
    "x": 447,
    "y": 82
  },
  "groupLayout": {
    "_class": "MSImmutableFreeformGroupLayout"
  },
  "hasClickThrough": false,
  "hasClippingMask": false,
  "isFixedToViewport": false,
  "isFlippedHorizontal": false,
  "isFlippedVertical": false,
  "isLocked": false,
  "isVisible": true,
  "layerListExpandedType": 0,
  "layers": [
    {
      "class": "text",
      "id": "A8CB9621-FBB0-4041-B694-E2465B616653"
    },
    {
      "class": "text",
      "id": "12102AB6-189F-4A7D-B6BA-EBF2150875C4"
    },
    {
      "class": "text",
      "id": "6EEAC00C-ABF2-44E5-B115-FD16EA1DBFB3"
    },
    {
      "class": "text",
      "id": "BC66D67C-9B8E-45A2-8A8F-ACFA23991AA9"
    },
    {
      "class": "text",
      "id": "049BE0C7-D3A8-43A7-BA1D-F840F095F0FF"
    },
    {
      "class": "text",
      "id": "A196AFED-3350-4744-8BB3-03BFFF2D24FE"
    },
    {
      "class": "text",
      "id": "D0CF271D-CEC8-48AA-9A19-1DF2C34BEAA0"
    }
  ],
  "maintainScrollPosition": false,
  "name": "Nav",
  "nameIsFixed": true,
  "resizingConstraint": 63,
  "resizingType": 0,
  "rotation": 0,
  "shouldBreakMaskChain": false,
  "style": {
    "_class": "style",
    "blur": {
      "_class": "blur",
      "center": "{0.5, 0.5}",
      "isEnabled": false,
      "motionAngle": 0,
      "radius": 10,
      "saturation": 1,
      "type": 0
    },
    "borderOptions": {
      "_class": "borderOptions",
      "dashPattern": [
      ],
      "isEnabled": true,
      "lineCapStyle": 0,
      "lineJoinStyle": 0
    },
    "borders": [
    ],
    "colorControls": {
      "_class": "colorControls",
      "brightness": 0,
      "contrast": 1,
      "hue": 0,
      "isEnabled": true,
      "saturation": 1
    },
    "contextSettings": {
      "_class": "graphicsContextSettings",
      "blendMode": 0,
      "opacity": 1
    },
    "do_objectID": "2789B14B-DEFF-44E0-A575-BC6380F5EAA3",
    "endMarkerType": 0,
    "fills": [
    ],
    "innerShadows": [
    ],
    "miterLimit": 10,
    "shadows": [
    ],
    "startMarkerType": 0,
    "windingRule": 1
  }
}