{
  "_class": "symbolMaster",
  "allowsOverrides": true,
  "backgroundColor": {
    "_class": "color",
    "alpha": 1,
    "blue": 1,
    "do_objectID": "44C36A80-ABE2-4036-A174-42DD3950F451",
    "green": 1,
    "red": 1
  },
  "booleanOperation": -1,
  "changeIdentifier": 631,
  "clippingMaskMode": 0,
  "do_objectID": "4C4359CF-756A-4823-B302-DA992E4DEFC8",
  "exportOptions": {
    "_class": "exportOptions",
    "do_objectID": "6338179B-9C92-486A-AE27-9C8D93D4039A",
    "exportFormats": [
    ],
    "includedLayerIds": [
    ],
    "layerOptions": 0,
    "shouldTrim": false
  },
  "frame": {
    "_class": "rect",
    "constrainProportions": false,
    "do_objectID": "5F50B28A-BA31-4591-ACC4-31185FCE92C5",
    "height": 24,
    "width": 90,
    "x": 104027,
    "y": 74
  },
  "groupLayout": {
    "_class": "MSImmutableFreeformGroupLayout",
    "do_objectID": "7783F184-FA2F-4719-ADC6-D7E3C505B689"
  },
  "hasBackgroundColor": false,
  "hasClickThrough": true,
  "hasClippingMask": false,
  "horizontalRulerData": {
    "_class": "rulerData",
    "base": 0,
    "do_objectID": "13CB37FB-61F0-4B28-8874-51ED53AE4E14",
    "guides": [
    ]
  },
  "includeBackgroundColorInExport": true,
  "includeBackgroundColorInInstance": false,
  "includeInCloudUpload": true,
  "isFixedToViewport": false,
  "isFlippedHorizontal": false,
  "isFlippedVertical": false,
  "isFlowHome": false,
  "isLocked": false,
  "isVisible": true,
  "layerListExpandedType": 0,
  "layers": [
    {
      "class": "rectangle",
      "id": "58E8880C-1378-4228-99D8-8EFD7DE35AC4"
    },
    {
      "class": "symbolInstance",
      "id": "8AE39616-3531-4937-89E1-84496DEF6385"
    },
    {
      "class": "oval",
      "id": "805E9649-6AA6-43B1-A9D8-8183E777E60C"
    },
    {
      "class": "text",
      "id": "09C64C7E-B8FD-43D1-B45C-B877899FC133"
    },
    {
      "class": "symbolInstance",
      "id": "E9022AA2-A9D7-4921-A378-7255CBC98249"
    }
  ],
  "name": "tag / 02 filterable / green / 02 hover",
  "nameIsFixed": true,
  "overrideProperties": [
    {
      "_class": "MSImmutableOverrideProperty",
      "canOverride": true,
      "overrideName": "E9022AA2-A9D7-4921-A378-7255CBC98249_symbolID"
    },
    {
      "_class": "MSImmutableOverrideProperty",
      "canOverride": false,
      "overrideName": "58E8880C-1378-4228-99D8-8EFD7DE35AC4_layerStyle"
    },
    {
      "_class": "MSImmutableOverrideProperty",
      "canOverride": true,
      "overrideName": "805E9649-6AA6-43B1-A9D8-8183E777E60C_layerStyle"
    },
    {
      "_class": "MSImmutableOverrideProperty",
      "canOverride": true,
      "overrideName": "8AE39616-3531-4937-89E1-84496DEF6385_symbolID"
    },
    {
      "_class": "MSImmutableOverrideProperty",
      "canOverride": true,
      "overrideName": "09C64C7E-B8FD-43D1-B45C-B877899FC133_stringValue"
    },
    {
      "_class": "MSImmutableOverrideProperty",
      "canOverride": false,
      "overrideName": "09C64C7E-B8FD-43D1-B45C-B877899FC133_textStyle"
    },
    {
      "_class": "MSImmutableOverrideProperty",
      "canOverride": false,
      "overrideName": "E9022AA2-A9D7-4921-A378-7255CBC98249/0102D184-77A7-423A-9B10-676DDC10DDDA_layerStyle"
    }
  ],
  "resizesContent": true,
  "resizingConstraint": 63,
  "resizingType": 0,
  "rotation": 0,
  "shouldBreakMaskChain": true,
  "style": {
    "_class": "style",
    "do_objectID": "1B71E693-F5C5-4BF5-8653-0EC6349BF403",
    "endMarkerType": 0,
    "miterLimit": 10,
    "startMarkerType": 0,
    "windingRule": 1
  },
  "symbolID": "17D48437-5CC3-47DE-8FFF-976B352B012C",
  "verticalRulerData": {
    "_class": "rulerData",
    "base": 0,
    "do_objectID": "E718F379-C438-4ABA-966C-5ED41804D732",
    "guides": [
    ]
  }
}