{
  "_class": "shapePath",
  "booleanOperation": -1,
  "clippingMaskMode": 0,
  "do_objectID": "07F00C9A-499F-4A62-B38D-D2BA08817E9A",
  "edited": true,
  "exportOptions": {
    "_class": "exportOptions",
    "do_objectID": "304329AD-ADDF-4789-843F-D30180179BF6",
    "exportFormats": [
    ],
    "includedLayerIds": [
    ],
    "layerOptions": 0,
    "shouldTrim": false
  },
  "frame": {
    "_class": "rect",
    "constrainProportions": false,
    "do_objectID": "9ECC505D-3787-43F8-AE82-7EE98F003116",
    "height": 0.1058906030855589,
    "width": 0.1059863482545556,
    "x": 13.2275489445864,
    "y": 15.78789811783035
  },
  "hasClippingMask": false,
  "isClosed": true,
  "isFixedToViewport": false,
  "isFlippedHorizontal": false,
  "isFlippedVertical": false,
  "isLocked": false,
  "isVisible": true,
  "layerListExpandedType": 0,
  "name": "Path",
  "nameIsFixed": false,
  "pointRadiusBehaviour": 0,
  "points": [
    {
      "_class": "curvePoint",
      "cornerRadius": 0,
      "curveFrom": "{-0.27071974425302869, 0.70357656972569771}",
      "curveMode": 3,
      "curveTo": "{0.41028025574695448, 0.94857656972570226}",
      "hasCurveFrom": true,
      "hasCurveTo": true,
      "point": "{0.17428025574696449, 0.86357656972572272}"
    },
    {
      "_class": "curvePoint",
      "cornerRadius": 0,
      "curveFrom": "{0.92928025574695994, 0.16657656972571999}",
      "curveMode": 3,
      "curveTo": "{0.24928025574695312, -0.079423430274317752}",
      "hasCurveFrom": true,
      "hasCurveTo": true,
      "point": "{0.48428025574696676, 0.0065765697256949807}"
    }
  ],
  "resizingConstraint": 63,
  "resizingType": 0,
  "rotation": 0,
  "shouldBreakMaskChain": false,
  "style": {
    "_class": "style",
    "do_objectID": "E362E05E-CC94-4B53-BF75-0AA041AD1EB1",
    "endMarkerType": 0,
    "fills": [
      {
        "_class": "fill",
        "color": {
          "_class": "color",
          "alpha": 1,
          "blue": 0.1764705882352941,
          "green": 0.1764705882352941,
          "red": 0.1764705882352941
        },
        "fillType": 0,
        "isEnabled": true,
        "noiseIndex": 0,
        "noiseIntensity": 0,
        "patternFillType": 1,
        "patternTileScale": 1
      }
    ],
    "miterLimit": 10,
    "startMarkerType": 0,
    "windingRule": 1
  }
}