{
  "_class": "shapePath",
  "booleanOperation": -1,
  "clippingMaskMode": 0,
  "do_objectID": "0C111ED0-E272-460F-9267-079E100A9437",
  "edited": true,
  "exportOptions": {
    "_class": "exportOptions",
    "do_objectID": "02893207-2A7B-4526-9746-301D3509E972",
    "exportFormats": [
    ],
    "includedLayerIds": [
    ],
    "layerOptions": 0,
    "shouldTrim": false
  },
  "frame": {
    "_class": "rect",
    "constrainProportions": false,
    "do_objectID": "E67CADC7-AE77-4424-8D2D-66AB6CE66DBF",
    "height": 0.1058906030855553,
    "width": 0.1059863482545573,
    "x": 27.91791177646396,
    "y": 28.10947142157123
  },
  "hasClippingMask": false,
  "isClosed": true,
  "isFixedToViewport": false,
  "isFlippedHorizontal": false,
  "isFlippedVertical": false,
  "isLocked": false,
  "isVisible": true,
  "layerListExpandedType": 0,
  "name": "Path",
  "nameIsFixed": false,
  "pointRadiusBehaviour": 0,
  "points": [
    {
      "_class": "curvePoint",
      "cornerRadius": 0,
      "curveFrom": "{-0.28978866632479594, 0.57690232699246735}",
      "curveMode": 3,
      "curveTo": "{0.36021133367523817, 0.97090232699247281}",
      "hasCurveFrom": true,
      "hasCurveTo": true,
      "point": "{0.13421133367518223, 0.83490232699250555}"
    },
    {
      "_class": "curvePoint",
      "cornerRadius": 0,
      "curveFrom": "{1.0572113336751841, 0.27590232699247963}",
      "curveMode": 3,
      "curveTo": "{0.40621133367523043, -0.12009767300753538}",
      "hasCurveFrom": true,
      "hasCurveTo": true,
      "point": "{0.63221133367522953, 0.017902326992498274}"
    }
  ],
  "resizingConstraint": 63,
  "resizingType": 0,
  "rotation": 0,
  "shouldBreakMaskChain": false,
  "style": {
    "_class": "style",
    "do_objectID": "E5828F87-0238-4B51-BCF7-4C869C81B1F6",
    "endMarkerType": 0,
    "fills": [
      {
        "_class": "fill",
        "color": {
          "_class": "color",
          "alpha": 1,
          "blue": 0.1764705882352941,
          "green": 0.1764705882352941,
          "red": 0.1764705882352941
        },
        "fillType": 0,
        "isEnabled": true,
        "noiseIndex": 0,
        "noiseIntensity": 0,
        "patternFillType": 1,
        "patternTileScale": 1
      }
    ],
    "miterLimit": 10,
    "startMarkerType": 0,
    "windingRule": 1
  }
}