{
  "_class": "shapePath",
  "booleanOperation": -1,
  "clippingMaskMode": 0,
  "do_objectID": "0FB2FACC-6C58-49E7-ACFF-7EDC621AB453",
  "edited": true,
  "exportOptions": {
    "_class": "exportOptions",
    "do_objectID": "D766C6A3-7F0A-4CCC-BF59-08D3A3EDA02A",
    "exportFormats": [
    ],
    "includedLayerIds": [
    ],
    "layerOptions": 0,
    "shouldTrim": false
  },
  "frame": {
    "_class": "rect",
    "constrainProportions": false,
    "do_objectID": "1DD56D83-45A8-4F0A-BD25-D39ACD829960",
    "height": 0.1058906030855571,
    "width": 0.1059863482545111,
    "x": 40.18715643668302,
    "y": 10.96783653662319
  },
  "hasClippingMask": false,
  "isClosed": true,
  "isFixedToViewport": false,
  "isFlippedHorizontal": false,
  "isFlippedVertical": false,
  "isLocked": false,
  "isVisible": true,
  "layerListExpandedType": 0,
  "name": "Path",
  "nameIsFixed": false,
  "pointRadiusBehaviour": 0,
  "points": [
    {
      "_class": "curvePoint",
      "cornerRadius": 0,
      "curveFrom": "{0.94146108234576786, 0.24672077718540208}",
      "curveMode": 3,
      "curveTo": "{0.36346108234573649, -0.10627922281460656}",
      "hasCurveFrom": true,
      "hasCurveTo": true,
      "point": "{0.56446108234575831, 0.015720777185407542}"
    },
    {
      "_class": "curvePoint",
      "cornerRadius": 0,
      "curveFrom": "{-0.25853891765422077, 0.51472077718537435}",
      "curveMode": 4,
      "curveTo": "{0.32146108234576332, 0.86872077718541618}",
      "hasCurveFrom": true,
      "hasCurveTo": true,
      "point": "{0.11946108234576513, 0.74272077718538299}"
    }
  ],
  "resizingConstraint": 63,
  "resizingType": 0,
  "rotation": 0,
  "shouldBreakMaskChain": false,
  "style": {
    "_class": "style",
    "do_objectID": "D45CFCD7-D567-4D31-8847-E434DF5A4C81",
    "endMarkerType": 0,
    "fills": [
      {
        "_class": "fill",
        "color": {
          "_class": "color",
          "alpha": 1,
          "blue": 0.1764705882352941,
          "green": 0.1764705882352941,
          "red": 0.1764705882352941
        },
        "fillType": 0,
        "isEnabled": true,
        "noiseIndex": 0,
        "noiseIntensity": 0,
        "patternFillType": 1,
        "patternTileScale": 1
      }
    ],
    "miterLimit": 10,
    "startMarkerType": 0,
    "windingRule": 1
  }
}