{
  "_class": "shapePath",
  "booleanOperation": -1,
  "clippingMaskMode": 0,
  "do_objectID": "0FDEC392-D7A8-4658-BF28-FD53812450CB",
  "edited": true,
  "exportOptions": {
    "_class": "exportOptions",
    "do_objectID": "1DC1E55D-196C-4DD4-9204-D249D9A55CB4",
    "exportFormats": [
    ],
    "includedLayerIds": [
    ],
    "layerOptions": 0,
    "shouldTrim": false
  },
  "frame": {
    "_class": "rect",
    "constrainProportions": false,
    "do_objectID": "1A173BE1-4ED5-4D3D-8C55-EEA97B8C8A2A",
    "height": 0.1058906030855624,
    "width": 0.1154397061320154,
    "x": 29.7953096701424,
    "y": 10.18505757859497
  },
  "hasClippingMask": false,
  "isClosed": true,
  "isFixedToViewport": false,
  "isFlippedHorizontal": false,
  "isFlippedVertical": false,
  "isLocked": false,
  "isVisible": true,
  "layerListExpandedType": 0,
  "name": "Path",
  "nameIsFixed": false,
  "pointRadiusBehaviour": 0,
  "points": [
    {
      "_class": "curvePoint",
      "cornerRadius": 0,
      "curveFrom": "{0.36305905185074544, 1.2019999999999982}",
      "curveMode": 4,
      "curveTo": "{0.86580965744794647, 0.68400000000002592}",
      "hasCurveFrom": true,
      "hasCurveTo": true,
      "point": "{0.58876946359439242, 0.81799999999998363}"
    },
    {
      "_class": "curvePoint",
      "cornerRadius": 0,
      "curveFrom": "{0.12961401540562639, 0.045999999999992269}",
      "curveMode": 3,
      "curveTo": "{-0.083439737735553687, 0.54300000000000637}",
      "hasCurveFrom": true,
      "hasCurveTo": true,
      "point": "{0.013594644883186159, 0.31900000000001683}"
    },
    {
      "_class": "curvePoint",
      "cornerRadius": 0,
      "curveFrom": "{1.1196459771970044, 0.53399999999999181}",
      "curveMode": 4,
      "curveTo": "{0.77791619493095721, 0.23099999999999454}",
      "hasCurveFrom": true,
      "hasCurveTo": true,
      "point": "{0.93964016596219024, 0}"
    }
  ],
  "resizingConstraint": 63,
  "resizingType": 0,
  "rotation": 0,
  "shouldBreakMaskChain": false,
  "style": {
    "_class": "style",
    "do_objectID": "FC3305A6-E31F-4E36-BB2A-51E3BB012AF7",
    "endMarkerType": 0,
    "fills": [
      {
        "_class": "fill",
        "color": {
          "_class": "color",
          "alpha": 1,
          "blue": 0.1764705882352941,
          "green": 0.1764705882352941,
          "red": 0.1764705882352941
        },
        "fillType": 0,
        "isEnabled": true,
        "noiseIndex": 0,
        "noiseIntensity": 0,
        "patternFillType": 1,
        "patternTileScale": 1
      }
    ],
    "miterLimit": 10,
    "startMarkerType": 0,
    "windingRule": 1
  }
}