{
  "_class": "shapePath",
  "booleanOperation": -1,
  "clippingMaskMode": 0,
  "do_objectID": "1D4460C4-6E65-41A4-A5D3-4C79D8CF6727",
  "edited": true,
  "exportOptions": {
    "_class": "exportOptions",
    "do_objectID": "C22F4635-9DC8-4EE1-AB48-84CD86C274D0",
    "exportFormats": [
    ],
    "includedLayerIds": [
    ],
    "layerOptions": 0,
    "shouldTrim": false
  },
  "frame": {
    "_class": "rect",
    "constrainProportions": false,
    "do_objectID": "17200A94-F2E2-410C-9CBB-3D5191C43F20",
    "height": 0.1058906030855518,
    "width": 0.1059863482545733,
    "x": 10.103606069843,
    "y": 16.06761354017237
  },
  "hasClippingMask": false,
  "isClosed": true,
  "isFixedToViewport": false,
  "isFlippedHorizontal": false,
  "isFlippedVertical": false,
  "isLocked": false,
  "isVisible": true,
  "layerListExpandedType": 0,
  "name": "Path",
  "nameIsFixed": false,
  "pointRadiusBehaviour": 0,
  "points": [
    {
      "_class": "curvePoint",
      "cornerRadius": 0,
      "curveFrom": "{1.0421504313180492, 0.18646576816132665}",
      "curveMode": 3,
      "curveTo": "{0.27815043131805339, -0.089534231838683809}",
      "hasCurveFrom": true,
      "hasCurveTo": true,
      "point": "{0.54415043131804453, 0.0074657681612961824}"
    },
    {
      "_class": "curvePoint",
      "cornerRadius": 0,
      "curveFrom": "{-0.30284956868194968, 0.78746576816132574}",
      "curveMode": 3,
      "curveTo": "{0.46115043131804612, 1.0634657681613362}",
      "hasCurveFrom": true,
      "hasCurveTo": true,
      "point": "{0.19515043131805498, 0.96846576816130892}"
    }
  ],
  "resizingConstraint": 63,
  "resizingType": 0,
  "rotation": 0,
  "shouldBreakMaskChain": false,
  "style": {
    "_class": "style",
    "do_objectID": "F1BA6008-9F46-49E7-9AC5-3C607505FDE1",
    "endMarkerType": 0,
    "fills": [
      {
        "_class": "fill",
        "color": {
          "_class": "color",
          "alpha": 1,
          "blue": 0.1764705882352941,
          "green": 0.1764705882352941,
          "red": 0.1764705882352941
        },
        "fillType": 0,
        "isEnabled": true,
        "noiseIndex": 0,
        "noiseIntensity": 0,
        "patternFillType": 1,
        "patternTileScale": 1
      }
    ],
    "miterLimit": 10,
    "startMarkerType": 0,
    "windingRule": 1
  }
}