{
  "_class": "shapePath",
  "booleanOperation": -1,
  "clippingMaskMode": 0,
  "do_objectID": "29B830E6-C2DA-4682-AE89-B0789D45A496",
  "edited": true,
  "exportOptions": {
    "_class": "exportOptions",
    "do_objectID": "86847B39-46D4-445F-8BB9-E408EBC963C9",
    "exportFormats": [
    ],
    "includedLayerIds": [
    ],
    "layerOptions": 0,
    "shouldTrim": false
  },
  "frame": {
    "_class": "rect",
    "constrainProportions": false,
    "do_objectID": "D281BBC0-C8B5-4075-A977-0FE25A801762",
    "height": 0.1058906030855624,
    "width": 0.1059863482545538,
    "x": 33.19488972581907,
    "y": 18.75108428201582
  },
  "hasClippingMask": false,
  "isClosed": true,
  "isFixedToViewport": false,
  "isFlippedHorizontal": false,
  "isFlippedVertical": false,
  "isLocked": false,
  "isVisible": true,
  "layerListExpandedType": 0,
  "name": "Path",
  "nameIsFixed": false,
  "pointRadiusBehaviour": 0,
  "points": [
    {
      "_class": "curvePoint",
      "cornerRadius": 0,
      "curveFrom": "{-0.30228867263957682, 0.79016434931517665}",
      "curveMode": 3,
      "curveTo": "{0.45971132736042364, 1.0661643493151871}",
      "hasCurveFrom": true,
      "hasCurveTo": true,
      "point": "{0.19571132736041363, 0.97016434931518347}"
    },
    {
      "_class": "curvePoint",
      "cornerRadius": 0,
      "curveFrom": "{1.0387113273604314, 0.18816434931517279}",
      "curveMode": 3,
      "curveTo": "{0.27571132736045456, -0.087835650684809252}",
      "hasCurveFrom": true,
      "hasCurveTo": true,
      "point": "{0.54271132736045047, 0.0071643493151896109}"
    }
  ],
  "resizingConstraint": 63,
  "resizingType": 0,
  "rotation": 0,
  "shouldBreakMaskChain": false,
  "style": {
    "_class": "style",
    "do_objectID": "9F0495C5-04E1-4395-A741-CFFAD1CCF022",
    "endMarkerType": 0,
    "fills": [
      {
        "_class": "fill",
        "color": {
          "_class": "color",
          "alpha": 1,
          "blue": 0.1764705882352941,
          "green": 0.1764705882352941,
          "red": 0.1764705882352941
        },
        "fillType": 0,
        "isEnabled": true,
        "noiseIndex": 0,
        "noiseIntensity": 0,
        "patternFillType": 1,
        "patternTileScale": 1
      }
    ],
    "miterLimit": 10,
    "startMarkerType": 0,
    "windingRule": 1
  }
}