{
  "_class": "shapePath",
  "booleanOperation": -1,
  "clippingMaskMode": 0,
  "do_objectID": "2D631745-8FBE-47E2-84F1-8D45F01776EC",
  "edited": true,
  "exportOptions": {
    "_class": "exportOptions",
    "do_objectID": "FD9E142B-3881-4521-912B-D99EB2542728",
    "exportFormats": [
    ],
    "includedLayerIds": [
    ],
    "layerOptions": 0,
    "shouldTrim": false
  },
  "frame": {
    "_class": "rect",
    "constrainProportions": false,
    "do_objectID": "F0631485-C5EC-4B0D-866F-C7003C2D0220",
    "height": 0.1058906030855553,
    "width": 0.1203080337937052,
    "x": 18.35244474668863,
    "y": 14.58274993468276
  },
  "hasClippingMask": false,
  "isClosed": true,
  "isFixedToViewport": false,
  "isFlippedHorizontal": false,
  "isFlippedVertical": false,
  "isLocked": false,
  "isVisible": true,
  "layerListExpandedType": 0,
  "name": "Path",
  "nameIsFixed": false,
  "pointRadiusBehaviour": 0,
  "points": [
    {
      "_class": "curvePoint",
      "cornerRadius": 0,
      "curveFrom": "{0.48266188258351911, 1.2511335080317831}",
      "curveMode": 4,
      "curveTo": "{0.91041817010223203, 0.64396577619284279}",
      "hasCurveFrom": true,
      "hasCurveTo": true,
      "point": "{0.65268488645532052, 0.84022201274683916}"
    },
    {
      "_class": "curvePoint",
      "cornerRadius": 0,
      "curveFrom": "{0.082568067916961072, 0.25320559091123335}",
      "curveMode": 4,
      "curveTo": "{-0.061141852022309262, 0.76662592403908425}",
      "hasCurveFrom": true,
      "hasCurveTo": true,
      "point": "{0.0056528994987651788, 0.53532393095761877}"
    },
    {
      "_class": "curvePoint",
      "cornerRadius": 0,
      "curveFrom": "{1.1465612310352959, 0.43631966876742884}",
      "curveMode": 4,
      "curveTo": "{0.75793722218546411, 0.25495787873756698}",
      "hasCurveFrom": true,
      "hasCurveTo": true,
      "point": "{0.8881532529285534, 0}"
    }
  ],
  "resizingConstraint": 63,
  "resizingType": 0,
  "rotation": 0,
  "shouldBreakMaskChain": false,
  "style": {
    "_class": "style",
    "do_objectID": "80E50B12-EA7D-4F70-82B3-0D375CC031C8",
    "endMarkerType": 0,
    "fills": [
      {
        "_class": "fill",
        "color": {
          "_class": "color",
          "alpha": 1,
          "blue": 0.1764705882352941,
          "green": 0.1764705882352941,
          "red": 0.1764705882352941
        },
        "fillType": 0,
        "isEnabled": true,
        "noiseIndex": 0,
        "noiseIntensity": 0,
        "patternFillType": 1,
        "patternTileScale": 1
      }
    ],
    "miterLimit": 10,
    "startMarkerType": 0,
    "windingRule": 1
  }
}