{
  "_class": "shapePath",
  "booleanOperation": -1,
  "clippingMaskMode": 0,
  "do_objectID": "32EF9E89-18DE-452D-AD94-BA80799623ED",
  "edited": true,
  "exportOptions": {
    "_class": "exportOptions",
    "do_objectID": "EB67F8E6-C038-4CF0-8318-970A05E26BB9",
    "exportFormats": [
    ],
    "includedLayerIds": [
    ],
    "layerOptions": 0,
    "shouldTrim": false
  },
  "frame": {
    "_class": "rect",
    "constrainProportions": false,
    "do_objectID": "73E777F4-4EAF-4404-8CCE-D3DD88CF9204",
    "height": 0.105890603085566,
    "width": 0.1059863482545715,
    "x": 18.51931817791823,
    "y": 24.50851001712433
  },
  "hasClippingMask": false,
  "isClosed": true,
  "isFixedToViewport": false,
  "isFlippedHorizontal": false,
  "isFlippedVertical": false,
  "isLocked": false,
  "isVisible": true,
  "layerListExpandedType": 0,
  "name": "Path",
  "nameIsFixed": false,
  "pointRadiusBehaviour": 0,
  "points": [
    {
      "_class": "curvePoint",
      "cornerRadius": 0,
      "curveFrom": "{0.9275568677372803, 0.16658406725298391}",
      "curveMode": 3,
      "curveTo": "{0.24755686773727348, -0.079415932746996987}",
      "hasCurveFrom": true,
      "hasCurveTo": true,
      "point": "{0.48455686773726825, 0.0065840672530157462}"
    },
    {
      "_class": "curvePoint",
      "cornerRadius": 0,
      "curveFrom": "{-0.26944313226272243, 0.70258406725298528}",
      "curveMode": 3,
      "curveTo": "{0.40955686773727962, 0.94858406725302302}",
      "hasCurveFrom": true,
      "hasCurveTo": true,
      "point": "{0.17355686773728962, 0.864584067252963}"
    }
  ],
  "resizingConstraint": 63,
  "resizingType": 0,
  "rotation": 0,
  "shouldBreakMaskChain": false,
  "style": {
    "_class": "style",
    "do_objectID": "0192232A-1AC6-44C6-AD05-D17BA1F941B2",
    "endMarkerType": 0,
    "fills": [
      {
        "_class": "fill",
        "color": {
          "_class": "color",
          "alpha": 1,
          "blue": 0.1764705882352941,
          "green": 0.1764705882352941,
          "red": 0.1764705882352941
        },
        "fillType": 0,
        "isEnabled": true,
        "noiseIndex": 0,
        "noiseIntensity": 0,
        "patternFillType": 1,
        "patternTileScale": 1
      }
    ],
    "miterLimit": 10,
    "startMarkerType": 0,
    "windingRule": 1
  }
}