{
  "_class": "shapePath",
  "booleanOperation": -1,
  "clippingMaskMode": 0,
  "do_objectID": "39AC59C3-E541-4A83-90B6-289181FCB9C4",
  "edited": true,
  "exportOptions": {
    "_class": "exportOptions",
    "do_objectID": "92F3AA52-8525-48B8-8DE1-A549ECB92A50",
    "exportFormats": [
    ],
    "includedLayerIds": [
    ],
    "layerOptions": 0,
    "shouldTrim": false
  },
  "frame": {
    "_class": "rect",
    "constrainProportions": false,
    "do_objectID": "9BF6F8DF-7751-417A-92C7-688295F6B9F7",
    "height": 0.1058906030855589,
    "width": 0.1059863482545556,
    "x": 4.054849923921156,
    "y": 17.53254448812188
  },
  "hasClippingMask": false,
  "isClosed": true,
  "isFixedToViewport": false,
  "isFlippedHorizontal": false,
  "isFlippedVertical": false,
  "isLocked": false,
  "isVisible": true,
  "layerListExpandedType": 0,
  "name": "Path",
  "nameIsFixed": false,
  "pointRadiusBehaviour": 0,
  "points": [
    {
      "_class": "curvePoint",
      "cornerRadius": 0,
      "curveFrom": "{-0.2683154310311906, 0.70371685573664422}",
      "curveMode": 3,
      "curveTo": "{0.40968456896881378, 0.95171685573663467}",
      "hasCurveFrom": true,
      "hasCurveTo": true,
      "point": "{0.1726845689688119, 0.86371685573664081}"
    },
    {
      "_class": "curvePoint",
      "cornerRadius": 0,
      "curveFrom": "{0.92768456896880735, 0.16871685573664763}",
      "curveMode": 3,
      "curveTo": "{0.24668456896880997, -0.080283144263347594}",
      "hasCurveFrom": true,
      "hasCurveTo": true,
      "point": "{0.48368456896881185, 0.0067168557366414916}"
    }
  ],
  "resizingConstraint": 63,
  "resizingType": 0,
  "rotation": 0,
  "shouldBreakMaskChain": false,
  "style": {
    "_class": "style",
    "do_objectID": "620BAA64-4314-4A17-B0F8-25E4DB4DF42B",
    "endMarkerType": 0,
    "fills": [
      {
        "_class": "fill",
        "color": {
          "_class": "color",
          "alpha": 1,
          "blue": 0.1764705882352941,
          "green": 0.1764705882352941,
          "red": 0.1764705882352941
        },
        "fillType": 0,
        "isEnabled": true,
        "noiseIndex": 0,
        "noiseIntensity": 0,
        "patternFillType": 1,
        "patternTileScale": 1
      }
    ],
    "miterLimit": 10,
    "startMarkerType": 0,
    "windingRule": 1
  }
}