{
  "_class": "shapePath",
  "booleanOperation": -1,
  "clippingMaskMode": 0,
  "do_objectID": "39E7EB52-3973-4213-AA27-326631595D80",
  "edited": true,
  "exportOptions": {
    "_class": "exportOptions",
    "do_objectID": "ECEF44AD-DB53-4C81-81E4-7C3650C3AA07",
    "exportFormats": [
    ],
    "includedLayerIds": [
    ],
    "layerOptions": 0,
    "shouldTrim": false
  },
  "frame": {
    "_class": "rect",
    "constrainProportions": false,
    "do_objectID": "88B07E7F-6BC1-4E5E-9BFB-1A062A607D47",
    "height": 0.1058906030855589,
    "width": 0.1059863482545396,
    "x": 17.69269909245686,
    "y": 24.64974050412896
  },
  "hasClippingMask": false,
  "isClosed": true,
  "isFixedToViewport": false,
  "isFlippedHorizontal": false,
  "isFlippedVertical": false,
  "isLocked": false,
  "isVisible": true,
  "layerListExpandedType": 0,
  "name": "Path",
  "nameIsFixed": false,
  "pointRadiusBehaviour": 0,
  "points": [
    {
      "_class": "curvePoint",
      "cornerRadius": 0,
      "curveFrom": "{1.0552113336752029, 0.27810126248169809}",
      "curveMode": 3,
      "curveTo": "{0.40621133367520201, -0.12089873751830282}",
      "hasCurveFrom": true,
      "hasCurveTo": true,
      "point": "{0.63221133367522953, 0.018101262481650338}"
    },
    {
      "_class": "curvePoint",
      "cornerRadius": 0,
      "curveFrom": "{-0.28978866632479594, 0.57810126248170945}",
      "curveMode": 3,
      "curveTo": "{0.35821133367520019, 0.97510126248170081}",
      "hasCurveFrom": true,
      "hasCurveTo": true,
      "point": "{0.13421133367521065, 0.83610126248169081}"
    }
  ],
  "resizingConstraint": 63,
  "resizingType": 0,
  "rotation": 0,
  "shouldBreakMaskChain": false,
  "style": {
    "_class": "style",
    "do_objectID": "126AD52C-2DD0-453C-8685-933511C685D3",
    "endMarkerType": 0,
    "fills": [
      {
        "_class": "fill",
        "color": {
          "_class": "color",
          "alpha": 1,
          "blue": 0.1764705882352941,
          "green": 0.1764705882352941,
          "red": 0.1764705882352941
        },
        "fillType": 0,
        "isEnabled": true,
        "noiseIndex": 0,
        "noiseIntensity": 0,
        "patternFillType": 1,
        "patternTileScale": 1
      }
    ],
    "miterLimit": 10,
    "startMarkerType": 0,
    "windingRule": 1
  }
}