{
  "_class": "shapePath",
  "booleanOperation": -1,
  "clippingMaskMode": 0,
  "do_objectID": "440D6A0E-53FC-41B5-A0E8-CF2B00AFE083",
  "edited": true,
  "exportOptions": {
    "_class": "exportOptions",
    "do_objectID": "C894D0CD-D0F5-4565-ABE7-925C86103D0E",
    "exportFormats": [
    ],
    "includedLayerIds": [
    ],
    "layerOptions": 0,
    "shouldTrim": false
  },
  "frame": {
    "_class": "rect",
    "constrainProportions": false,
    "do_objectID": "EFC85826-6053-4C9F-9042-D7BCC63E3988",
    "height": 0.1065625565843291,
    "width": 0.1059863482545467,
    "x": 21.47566071220375,
    "y": 29.64026625399187
  },
  "hasClippingMask": false,
  "isClosed": true,
  "isFixedToViewport": false,
  "isFlippedHorizontal": false,
  "isFlippedVertical": false,
  "isLocked": false,
  "isVisible": true,
  "layerListExpandedType": 0,
  "name": "Path",
  "nameIsFixed": false,
  "pointRadiusBehaviour": 0,
  "points": [
    {
      "_class": "curvePoint",
      "cornerRadius": 0,
      "curveFrom": "{0.11946354720771524, 0.012176560121780285}",
      "curveMode": 4,
      "curveTo": "{-0.12653645279226566, 0.26255707762558728}",
      "hasCurveFrom": true,
      "hasCurveTo": true,
      "point": "{0.028463547207707052, 0.10882800608830044}"
    },
    {
      "_class": "curvePoint",
      "cornerRadius": 0,
      "curveFrom": "{0.51546354720773024, 0.1849315068493515}",
      "curveMode": 4,
      "curveTo": "{0.49846354720773434, 0.082952815829555188}",
      "hasCurveFrom": true,
      "hasCurveTo": true,
      "point": "{0.61446354720771978, 0}"
    },
    {
      "_class": "curvePoint",
      "cornerRadius": 0,
      "curveFrom": "{0.80246354720770796, 0.98858447488585532}",
      "curveMode": 3,
      "curveTo": "{1.0494635472077221, 0.73820395738204836}",
      "hasCurveFrom": true,
      "hasCurveTo": true,
      "point": "{0.8984635472077116, 0.89193302891933512}"
    },
    {
      "_class": "curvePoint",
      "cornerRadius": 0,
      "curveFrom": "{0.40646354720769295, 0.81126331811264352}",
      "curveMode": 4,
      "curveTo": "{0.42546354720769841, 0.91780821917808042}",
      "hasCurveFrom": true,
      "hasCurveTo": true,
      "point": "{0.31146354720772251, 1}"
    }
  ],
  "resizingConstraint": 63,
  "resizingType": 0,
  "rotation": 0,
  "shouldBreakMaskChain": false,
  "style": {
    "_class": "style",
    "do_objectID": "767D0BE7-F8C7-44CC-B97A-E785AA30AEA2",
    "endMarkerType": 0,
    "fills": [
      {
        "_class": "fill",
        "color": {
          "_class": "color",
          "alpha": 1,
          "blue": 0.1764705882352941,
          "green": 0.1764705882352941,
          "red": 0.1764705882352941
        },
        "fillType": 0,
        "isEnabled": true,
        "noiseIndex": 0,
        "noiseIntensity": 0,
        "patternFillType": 1,
        "patternTileScale": 1
      }
    ],
    "miterLimit": 10,
    "startMarkerType": 0,
    "windingRule": 1
  }
}