{
  "_class": "shapePath",
  "booleanOperation": -1,
  "clippingMaskMode": 0,
  "do_objectID": "45E80E72-B973-4F94-9F29-33174B5C42ED",
  "edited": true,
  "exportOptions": {
    "_class": "exportOptions",
    "do_objectID": "920D78A1-1950-4BD5-A0EC-9B32C2770099",
    "exportFormats": [
    ],
    "includedLayerIds": [
    ],
    "layerOptions": 0,
    "shouldTrim": false
  },
  "frame": {
    "_class": "rect",
    "constrainProportions": false,
    "do_objectID": "FE3DF021-5E86-4972-877A-948431EB0F3B",
    "height": 0.1988518940219297,
    "width": 0.1731380925370605,
    "x": 14.65561597925594,
    "y": 2.7065395283803
  },
  "hasClippingMask": false,
  "isClosed": true,
  "isFixedToViewport": false,
  "isFlippedHorizontal": false,
  "isFlippedVertical": false,
  "isLocked": false,
  "isVisible": true,
  "layerListExpandedType": 0,
  "name": "Path",
  "nameIsFixed": false,
  "pointRadiusBehaviour": 0,
  "points": [
    {
      "_class": "curvePoint",
      "cornerRadius": 0,
      "curveFrom": "{0.72339428035630537, 0.54323001631321155}",
      "curveMode": 4,
      "curveTo": "{0.95030473511486446, 0.35807504078302876}",
      "hasCurveFrom": true,
      "hasCurveTo": true,
      "point": "{1, 0.53670473083198689}"
    },
    {
      "_class": "curvePoint",
      "cornerRadius": 0,
      "curveFrom": "{0.56118143459915482, 0.91313213703098595}",
      "curveMode": 4,
      "curveTo": "{0.73792780121894286, 0.70309951060358511}",
      "hasCurveFrom": true,
      "hasCurveTo": true,
      "point": "{0.76652601969058221, 0.8699021207177744}"
    },
    {
      "_class": "curvePoint",
      "cornerRadius": 0,
      "curveFrom": "{0.099859353023919975, 0.82177814029363294}",
      "curveMode": 4,
      "curveTo": "{0.35583684950774075, 0.9563621533442207}",
      "hasCurveFrom": true,
      "hasCurveTo": true,
      "point": "{0.1495546179090555, 1}"
    },
    {
      "_class": "curvePoint",
      "cornerRadius": 0,
      "curveFrom": "{0.27566807313643676, 0.45758564437194738}",
      "curveMode": 4,
      "curveTo": "{0.050164088138771136, 0.64192495921697124}",
      "hasCurveFrom": true,
      "hasCurveTo": true,
      "point": "{0, 0.46288743882544525}"
    },
    {
      "_class": "curvePoint",
      "cornerRadius": 0,
      "curveFrom": "{0.43881856540084518, 0.086460032626423017}",
      "curveMode": 4,
      "curveTo": "{0.26113455227379928, 0.29812398042414157}",
      "hasCurveFrom": true,
      "hasCurveTo": true,
      "point": "{0.23394280356306674, 0.12969004893963454}"
    },
    {
      "_class": "curvePoint",
      "cornerRadius": 0,
      "curveFrom": "{0.90060947022972893, 0.17862969004893495}",
      "curveMode": 4,
      "curveTo": "{0.64463197374589487, 0.043230016313211508}",
      "hasCurveFrom": true,
      "hasCurveTo": true,
      "point": "{0.85044538209095788, 0}"
    }
  ],
  "resizingConstraint": 63,
  "resizingType": 0,
  "rotation": 0,
  "shouldBreakMaskChain": false,
  "style": {
    "_class": "style",
    "do_objectID": "DF4AE8C5-1DA3-4B0C-82C0-8779521A2159",
    "endMarkerType": 0,
    "fills": [
      {
        "_class": "fill",
        "color": {
          "_class": "color",
          "alpha": 1,
          "blue": 0.1764705882352941,
          "green": 0.1764705882352941,
          "red": 0.1764705882352941
        },
        "fillType": 0,
        "isEnabled": true,
        "noiseIndex": 0,
        "noiseIntensity": 0,
        "patternFillType": 1,
        "patternTileScale": 1
      }
    ],
    "miterLimit": 10,
    "startMarkerType": 0,
    "windingRule": 1
  }
}