{
  "_class": "shapePath",
  "booleanOperation": -1,
  "clippingMaskMode": 0,
  "do_objectID": "47534686-8056-45C9-AF96-D652A18361D7",
  "edited": true,
  "exportOptions": {
    "_class": "exportOptions",
    "do_objectID": "15F71F4E-A957-4EDE-B366-94497FC9D12F",
    "exportFormats": [
    ],
    "includedLayerIds": [
    ],
    "layerOptions": 0,
    "shouldTrim": false
  },
  "frame": {
    "_class": "rect",
    "constrainProportions": false,
    "do_objectID": "5E25CE97-8536-48FC-ACF3-A57373DE8CCA",
    "height": 0.156113334417693,
    "width": 0.1059863482545627,
    "x": 6.971936230034553,
    "y": 10.52850691431393
  },
  "hasClippingMask": false,
  "isClosed": true,
  "isFixedToViewport": false,
  "isFlippedHorizontal": false,
  "isFlippedVertical": false,
  "isLocked": false,
  "isVisible": true,
  "layerListExpandedType": 0,
  "name": "Path",
  "nameIsFixed": false,
  "pointRadiusBehaviour": 0,
  "points": [
    {
      "_class": "curvePoint",
      "cornerRadius": 0,
      "curveFrom": "{-0.030785919264260997, 0.78233766233764312}",
      "curveMode": 4,
      "curveTo": "{0.73121408073573946, 0.92519480519480279}",
      "hasCurveFrom": true,
      "hasCurveTo": true,
      "point": "{0.11921408073573048, 1}"
    },
    {
      "_class": "curvePoint",
      "cornerRadius": 0,
      "curveFrom": "{0.31821408073574275, 0.28259740259739197}",
      "curveMode": 4,
      "curveTo": "{-0.14578591926427009, 0.57350649350648231}",
      "hasCurveFrom": true,
      "hasCurveTo": true,
      "point": "{0.46621408073573889, 0.49922077922075336}"
    },
    {
      "_class": "curvePoint",
      "cornerRadius": 0,
      "curveFrom": "{0.96721408073574366, 0.21610389610389316}",
      "curveMode": 4,
      "curveTo": "{0.20121408073573832, 0.073246753246733437}",
      "hasCurveFrom": true,
      "hasCurveTo": true,
      "point": "{0.81721408073573798, 0}"
    },
    {
      "_class": "curvePoint",
      "cornerRadius": 0,
      "curveFrom": "{0.61721408073573514, 0.71480519480517835}",
      "curveMode": 4,
      "curveTo": "{1.0802140807357432, 0.42649350649348816}",
      "hasCurveFrom": true,
      "hasCurveTo": true,
      "point": "{0.46621408073573889, 0.49922077922075336}"
    }
  ],
  "resizingConstraint": 63,
  "resizingType": 0,
  "rotation": 0,
  "shouldBreakMaskChain": false,
  "style": {
    "_class": "style",
    "do_objectID": "14A4249D-2D3B-40FF-98A1-8A64407E16A2",
    "endMarkerType": 0,
    "fills": [
      {
        "_class": "fill",
        "color": {
          "_class": "color",
          "alpha": 1,
          "blue": 0.1764705882352941,
          "green": 0.1764705882352941,
          "red": 0.1764705882352941
        },
        "fillType": 0,
        "isEnabled": true,
        "noiseIndex": 0,
        "noiseIntensity": 0,
        "patternFillType": 1,
        "patternTileScale": 1
      }
    ],
    "miterLimit": 10,
    "startMarkerType": 0,
    "windingRule": 1
  }
}