{
  "_class": "shapePath",
  "booleanOperation": -1,
  "clippingMaskMode": 0,
  "do_objectID": "4F251BBA-890C-48C0-827D-5702E8E86737",
  "edited": true,
  "exportOptions": {
    "_class": "exportOptions",
    "do_objectID": "6872247C-80D8-455B-A0BB-4C32E3202908",
    "exportFormats": [
    ],
    "includedLayerIds": [
    ],
    "layerOptions": 0,
    "shouldTrim": false
  },
  "frame": {
    "_class": "rect",
    "constrainProportions": false,
    "do_objectID": "CA8D2F88-504D-4E20-B3C7-6FA34E717856",
    "height": 0.1058906030855589,
    "width": 0.1154982854723663,
    "x": 22.37906518857464,
    "y": 17.85439883706155
  },
  "hasClippingMask": false,
  "isClosed": true,
  "isFixedToViewport": false,
  "isFlippedHorizontal": false,
  "isFlippedVertical": false,
  "isLocked": false,
  "isVisible": true,
  "layerListExpandedType": 0,
  "name": "Path",
  "nameIsFixed": false,
  "pointRadiusBehaviour": 0,
  "points": [
    {
      "_class": "curvePoint",
      "cornerRadius": 0,
      "curveFrom": "{0.12990407841852072, 0.044000000000011141}",
      "curveMode": 3,
      "curveTo": "{-0.08233882535115733, 0.54300000000000637}",
      "hasCurveFrom": true,
      "hasCurveTo": true,
      "point": "{0.013240760452416619, 0.3200000000000216}"
    },
    {
      "_class": "curvePoint",
      "cornerRadius": 0,
      "curveFrom": "{1.1194339079141806, 0.53100000000000591}",
      "curveMode": 4,
      "curveTo": "{0.77858023795295672, 0.23600000000001842}",
      "hasCurveFrom": true,
      "hasCurveTo": true,
      "point": "{0.94022218453251438, 0}"
    },
    {
      "_class": "curvePoint",
      "cornerRadius": 0,
      "curveFrom": "{0.36323071435072896, 1.2040000000000077}",
      "curveMode": 4,
      "curveTo": "{0.86432074874733389, 0.68200000000001637}",
      "hasCurveFrom": true,
      "hasCurveTo": true,
      "point": "{0.5895294395620938, 0.8200000000000216}"
    }
  ],
  "resizingConstraint": 63,
  "resizingType": 0,
  "rotation": 0,
  "shouldBreakMaskChain": false,
  "style": {
    "_class": "style",
    "do_objectID": "8A55C616-4BA1-45DE-A62A-F8F15DEB2A3A",
    "endMarkerType": 0,
    "fills": [
      {
        "_class": "fill",
        "color": {
          "_class": "color",
          "alpha": 1,
          "blue": 0.1764705882352941,
          "green": 0.1764705882352941,
          "red": 0.1764705882352941
        },
        "fillType": 0,
        "isEnabled": true,
        "noiseIndex": 0,
        "noiseIntensity": 0,
        "patternFillType": 1,
        "patternTileScale": 1
      }
    ],
    "miterLimit": 10,
    "startMarkerType": 0,
    "windingRule": 1
  }
}