{
  "_class": "shapePath",
  "booleanOperation": -1,
  "clippingMaskMode": 0,
  "do_objectID": "54C68599-C996-41D5-A83E-339D66FE75F3",
  "edited": true,
  "exportOptions": {
    "_class": "exportOptions",
    "do_objectID": "8C774A71-D928-4C57-B77D-3C583242A6EC",
    "exportFormats": [
    ],
    "includedLayerIds": [
    ],
    "layerOptions": 0,
    "shouldTrim": false
  },
  "frame": {
    "_class": "rect",
    "constrainProportions": false,
    "do_objectID": "F45ABF67-9259-4BB3-9A58-51C027112004",
    "height": 0.1058906030855553,
    "width": 0.1059863482545644,
    "x": 12.80704593702963,
    "y": 32.54067092654691
  },
  "hasClippingMask": false,
  "isClosed": true,
  "isFixedToViewport": false,
  "isFlippedHorizontal": false,
  "isFlippedVertical": false,
  "isLocked": false,
  "isVisible": true,
  "layerListExpandedType": 0,
  "name": "Path",
  "nameIsFixed": false,
  "pointRadiusBehaviour": 0,
  "points": [
    {
      "_class": "curvePoint",
      "cornerRadius": 0,
      "curveFrom": "{-0.2692715714941869, 0.70173287000881146}",
      "curveMode": 4,
      "curveTo": "{0.40972842850581515, 0.94873287000882556}",
      "hasCurveFrom": true,
      "hasCurveTo": true,
      "point": "{0.17372842850579673, 0.86073287000886012}"
    },
    {
      "_class": "curvePoint",
      "cornerRadius": 0,
      "curveFrom": "{0.92772842850581583, 0.16473287000883374}",
      "curveMode": 3,
      "curveTo": "{0.24672842850580423, -0.080267129991170805}",
      "hasCurveFrom": true,
      "hasCurveTo": true,
      "point": "{0.48472842850580378, 0.0067328700088182813}"
    }
  ],
  "resizingConstraint": 63,
  "resizingType": 0,
  "rotation": 0,
  "shouldBreakMaskChain": false,
  "style": {
    "_class": "style",
    "do_objectID": "91A87333-E887-4346-ADDA-B6946F8F65BE",
    "endMarkerType": 0,
    "fills": [
      {
        "_class": "fill",
        "color": {
          "_class": "color",
          "alpha": 1,
          "blue": 0.1764705882352941,
          "green": 0.1764705882352941,
          "red": 0.1764705882352941
        },
        "fillType": 0,
        "isEnabled": true,
        "noiseIndex": 0,
        "noiseIntensity": 0,
        "patternFillType": 1,
        "patternTileScale": 1
      }
    ],
    "miterLimit": 10,
    "startMarkerType": 0,
    "windingRule": 1
  }
}