{
  "_class": "shapePath",
  "booleanOperation": -1,
  "clippingMaskMode": 0,
  "do_objectID": "58250BB6-B01A-478D-BED5-AD218764DD62",
  "edited": true,
  "exportOptions": {
    "_class": "exportOptions",
    "do_objectID": "B79D0B0E-1397-4EB1-ACC9-1D2B634F893B",
    "exportFormats": [
    ],
    "includedLayerIds": [
    ],
    "layerOptions": 0,
    "shouldTrim": false
  },
  "frame": {
    "_class": "rect",
    "constrainProportions": false,
    "do_objectID": "2333F1F1-6A14-4005-AACB-BF9E79761FFD",
    "height": 0.1058906030855553,
    "width": 0.1059863482545502,
    "x": 24.60229204917159,
    "y": 14.03161400030393
  },
  "hasClippingMask": false,
  "isClosed": true,
  "isFixedToViewport": false,
  "isFlippedHorizontal": false,
  "isFlippedVertical": false,
  "isLocked": false,
  "isVisible": true,
  "layerListExpandedType": 0,
  "name": "Path",
  "nameIsFixed": false,
  "pointRadiusBehaviour": 0,
  "points": [
    {
      "_class": "curvePoint",
      "cornerRadius": 0,
      "curveFrom": "{0.9444724688895576, 0.2449388455603696}",
      "curveMode": 4,
      "curveTo": "{0.36347246888954032, -0.10706115443960584}",
      "hasCurveFrom": true,
      "hasCurveTo": true,
      "point": "{0.5634724688895858, 0.015938845560384607}"
    },
    {
      "_class": "curvePoint",
      "cornerRadius": 0,
      "curveFrom": "{-0.25852753111041693, 0.51493884556040825}",
      "curveMode": 4,
      "curveTo": "{0.32247246888954351, 0.8669388455603837}",
      "hasCurveFrom": true,
      "hasCurveTo": true,
      "point": "{0.11947246888956897, 0.7459388455604028}"
    }
  ],
  "resizingConstraint": 63,
  "resizingType": 0,
  "rotation": 0,
  "shouldBreakMaskChain": false,
  "style": {
    "_class": "style",
    "do_objectID": "B2E76307-2682-4753-A6FE-2E221C565EE5",
    "endMarkerType": 0,
    "fills": [
      {
        "_class": "fill",
        "color": {
          "_class": "color",
          "alpha": 1,
          "blue": 0.1764705882352941,
          "green": 0.1764705882352941,
          "red": 0.1764705882352941
        },
        "fillType": 0,
        "isEnabled": true,
        "noiseIndex": 0,
        "noiseIntensity": 0,
        "patternFillType": 1,
        "patternTileScale": 1
      }
    ],
    "miterLimit": 10,
    "startMarkerType": 0,
    "windingRule": 1
  }
}