{
  "_class": "shapePath",
  "booleanOperation": -1,
  "clippingMaskMode": 0,
  "do_objectID": "5A0DEF6C-3993-4A47-8EA2-979513B6A7EA",
  "edited": true,
  "exportOptions": {
    "_class": "exportOptions",
    "do_objectID": "12A95C51-C34A-4E36-9677-968ADFF37E06",
    "exportFormats": [
    ],
    "includedLayerIds": [
    ],
    "layerOptions": 0,
    "shouldTrim": false
  },
  "frame": {
    "_class": "rect",
    "constrainProportions": false,
    "do_objectID": "28CD55D4-6817-4866-97A8-E6713839BF34",
    "height": 0.1058906030855542,
    "width": 0.1059863482545502,
    "x": 19.10962385737504,
    "y": 1.08631895927465
  },
  "hasClippingMask": false,
  "isClosed": true,
  "isFixedToViewport": false,
  "isFlippedHorizontal": false,
  "isFlippedVertical": false,
  "isLocked": false,
  "isVisible": true,
  "layerListExpandedType": 0,
  "name": "Path",
  "nameIsFixed": false,
  "pointRadiusBehaviour": 0,
  "points": [
    {
      "_class": "curvePoint",
      "cornerRadius": 0,
      "curveFrom": "{-0.28980010368888998, 0.5765918810956947}",
      "curveMode": 3,
      "curveTo": "{0.35819989631110616, 0.97259188109570971}",
      "hasCurveFrom": true,
      "hasCurveTo": true,
      "point": "{0.1341998963110882, 0.83459188109567606}"
    },
    {
      "_class": "curvePoint",
      "cornerRadius": 0,
      "curveFrom": "{1.0531998963110993, 0.27359188109569743}",
      "curveMode": 4,
      "curveTo": "{0.40619989631110798, -0.12240811890431758}",
      "hasCurveFrom": true,
      "hasCurveTo": true,
      "point": "{0.63319989631111184, 0.018591881095701979}"
    }
  ],
  "resizingConstraint": 63,
  "resizingType": 0,
  "rotation": 0,
  "shouldBreakMaskChain": false,
  "style": {
    "_class": "style",
    "do_objectID": "54B8F71D-65C0-4135-964F-57DA4F8137FC",
    "endMarkerType": 0,
    "fills": [
      {
        "_class": "fill",
        "color": {
          "_class": "color",
          "alpha": 1,
          "blue": 0.1764705882352941,
          "green": 0.1764705882352941,
          "red": 0.1764705882352941
        },
        "fillType": 0,
        "isEnabled": true,
        "noiseIndex": 0,
        "noiseIntensity": 0,
        "patternFillType": 1,
        "patternTileScale": 1
      }
    ],
    "miterLimit": 10,
    "startMarkerType": 0,
    "windingRule": 1
  }
}