{
  "_class": "shapePath",
  "booleanOperation": -1,
  "clippingMaskMode": 0,
  "do_objectID": "5A5FFFA8-978E-4924-89EF-44BD06DB3EDC",
  "edited": true,
  "exportOptions": {
    "_class": "exportOptions",
    "do_objectID": "EAA6D9D4-393B-40C2-9FDD-D523F816DF73",
    "exportFormats": [
    ],
    "includedLayerIds": [
    ],
    "layerOptions": 0,
    "shouldTrim": false
  },
  "frame": {
    "_class": "rect",
    "constrainProportions": false,
    "do_objectID": "526EFFCF-671F-4BDA-91C3-13463A0D2756",
    "height": 0.1058906030855553,
    "width": 0.1059863482545786,
    "x": 18.76770376175247,
    "y": 22.20046555761534
  },
  "hasClippingMask": false,
  "isClosed": true,
  "isFixedToViewport": false,
  "isFlippedHorizontal": false,
  "isFlippedVertical": false,
  "isLocked": false,
  "isVisible": true,
  "layerListExpandedType": 0,
  "name": "Path",
  "nameIsFixed": false,
  "pointRadiusBehaviour": 0,
  "points": [
    {
      "_class": "curvePoint",
      "cornerRadius": 0,
      "curveFrom": "{-0.2694655834460491, 0.70258462471252869}",
      "curveMode": 4,
      "curveTo": "{0.41053441655395773, 0.95058462471251914}",
      "hasCurveFrom": true,
      "hasCurveTo": true,
      "point": "{0.17353441655393453, 0.86058462471254416}"
    },
    {
      "_class": "curvePoint",
      "cornerRadius": 0,
      "curveFrom": "{0.92653441655394886, 0.16858462471253688}",
      "curveMode": 3,
      "curveTo": "{0.24753441655394681, -0.079415375287510415}",
      "hasCurveFrom": true,
      "hasCurveTo": true,
      "point": "{0.48553441655394636, 0.0065846247125023183}"
    }
  ],
  "resizingConstraint": 63,
  "resizingType": 0,
  "rotation": 0,
  "shouldBreakMaskChain": false,
  "style": {
    "_class": "style",
    "do_objectID": "F3444184-637B-4168-BE1B-3293039F6888",
    "endMarkerType": 0,
    "fills": [
      {
        "_class": "fill",
        "color": {
          "_class": "color",
          "alpha": 1,
          "blue": 0.1764705882352941,
          "green": 0.1764705882352941,
          "red": 0.1764705882352941
        },
        "fillType": 0,
        "isEnabled": true,
        "noiseIndex": 0,
        "noiseIntensity": 0,
        "patternFillType": 1,
        "patternTileScale": 1
      }
    ],
    "miterLimit": 10,
    "startMarkerType": 0,
    "windingRule": 1
  }
}