{
  "_class": "shapePath",
  "booleanOperation": -1,
  "clippingMaskMode": 0,
  "do_objectID": "627EDDED-6C11-45A7-8A6A-7E57CBD6A8F9",
  "edited": true,
  "exportOptions": {
    "_class": "exportOptions",
    "do_objectID": "5CAF33FA-3F58-4C9C-BFF7-339A3DC36E12",
    "exportFormats": [
    ],
    "includedLayerIds": [
    ],
    "layerOptions": 0,
    "shouldTrim": false
  },
  "frame": {
    "_class": "rect",
    "constrainProportions": false,
    "do_objectID": "C8FD6B5E-AE4E-4558-882B-933C544F7556",
    "height": 0.1314595922550943,
    "width": 0.1059863482545751,
    "x": 17.48829953113244,
    "y": 24.39721005480271
  },
  "hasClippingMask": false,
  "isClosed": true,
  "isFixedToViewport": false,
  "isFlippedHorizontal": false,
  "isFlippedVertical": false,
  "isLocked": false,
  "isVisible": true,
  "layerListExpandedType": 0,
  "name": "Path",
  "nameIsFixed": false,
  "pointRadiusBehaviour": 0,
  "points": [
    {
      "_class": "curvePoint",
      "cornerRadius": 0,
      "curveFrom": "{0.92615936392582388, 0.91425046267735244}",
      "curveMode": 3,
      "curveTo": "{1.0903690699192452, 0.64034546576188967}",
      "hasCurveFrom": true,
      "hasCurveTo": true,
      "point": "{0.98860530845852668, 0.80999383096854016}"
    },
    {
      "_class": "curvePoint",
      "cornerRadius": 0,
      "curveFrom": "{0.5260427563643727, 0.80505860579886823}",
      "curveMode": 4,
      "curveTo": "{0.56844432363967579, 0.9037631091918521}",
      "hasCurveFrom": true,
      "hasCurveTo": true,
      "point": "{0.48441212667589689, 1}"
    },
    {
      "_class": "curvePoint",
      "cornerRadius": 0,
      "curveFrom": "{0.072731455312102331, 0.086366440468838998}",
      "curveMode": 4,
      "curveTo": "{-0.089165437920859208, 0.36027143738430178}",
      "hasCurveFrom": true,
      "hasCurveTo": true,
      "point": "{0.011056448366204917, 0.18877236273904183}"
    },
    {
      "_class": "curvePoint",
      "cornerRadius": 0,
      "curveFrom": "{0.47593181322084066, 0.19555829734732327}",
      "curveMode": 4,
      "curveTo": "{0.43353024594553757, 0.096853793954339365}",
      "hasCurveFrom": true,
      "hasCurveTo": true,
      "point": "{0.51679150532248919, 0}"
    }
  ],
  "resizingConstraint": 63,
  "resizingType": 0,
  "rotation": 0,
  "shouldBreakMaskChain": false,
  "style": {
    "_class": "style",
    "do_objectID": "7567A74E-D839-4905-A8F5-4EA0A0A5BC4B",
    "endMarkerType": 0,
    "fills": [
      {
        "_class": "fill",
        "color": {
          "_class": "color",
          "alpha": 1,
          "blue": 0.1764705882352941,
          "green": 0.1764705882352941,
          "red": 0.1764705882352941
        },
        "fillType": 0,
        "isEnabled": true,
        "noiseIndex": 0,
        "noiseIntensity": 0,
        "patternFillType": 1,
        "patternTileScale": 1
      }
    ],
    "miterLimit": 10,
    "startMarkerType": 0,
    "windingRule": 1
  }
}