{
  "_class": "shapePath",
  "booleanOperation": -1,
  "clippingMaskMode": 0,
  "do_objectID": "62E4D36F-2EF8-452D-81D8-72C108328479",
  "edited": true,
  "exportOptions": {
    "_class": "exportOptions",
    "do_objectID": "5D3DEA04-DC1C-4F66-A6A9-328DF62C6145",
    "exportFormats": [
    ],
    "includedLayerIds": [
    ],
    "layerOptions": 0,
    "shouldTrim": false
  },
  "frame": {
    "_class": "rect",
    "constrainProportions": false,
    "do_objectID": "00710C47-ABD8-462D-A56F-CB4A31C64AE3",
    "height": 0.1311352009108671,
    "width": 0.105986348254568,
    "x": 17.13781736369793,
    "y": 5.917040662368963
  },
  "hasClippingMask": false,
  "isClosed": true,
  "isFixedToViewport": false,
  "isFlippedHorizontal": false,
  "isFlippedVertical": false,
  "isLocked": false,
  "isVisible": true,
  "layerListExpandedType": 0,
  "name": "Path",
  "nameIsFixed": false,
  "pointRadiusBehaviour": 0,
  "points": [
    {
      "_class": "curvePoint",
      "cornerRadius": 0,
      "curveFrom": "{0.072512738874196986, 0.085343228200358737}",
      "curveMode": 4,
      "curveTo": "{-0.091522716180296018, 0.35807050092765702}",
      "hasCurveFrom": true,
      "hasCurveTo": true,
      "point": "{0.011673297797640229, 0.18985776128631218}"
    },
    {
      "_class": "curvePoint",
      "cornerRadius": 0,
      "curveFrom": "{0.4745151216838045, 0.19294990723559824}",
      "curveMode": 4,
      "curveTo": "{0.43138842927512322, 0.095856524427938392}",
      "hasCurveFrom": true,
      "hasCurveTo": true,
      "point": "{0.51687169458520588, 0}"
    },
    {
      "_class": "curvePoint",
      "cornerRadius": 0,
      "curveFrom": "{0.92503503345320581, 0.9140383426097981}",
      "curveMode": 4,
      "curveTo": "{1.0890704885076987, 0.63945578231293521}",
      "hasCurveFrom": true,
      "hasCurveTo": true,
      "point": "{0.98895495255894783, 0.80952380952380953}"
    },
    {
      "_class": "curvePoint",
      "cornerRadius": 0,
      "curveFrom": "{0.52457288965820192, 0.80643166357452345}",
      "curveMode": 4,
      "curveTo": "{0.56538922354499965, 0.90290661719234011}",
      "hasCurveFrom": true,
      "hasCurveTo": true,
      "point": "{0.48298643626410226, 1}"
    }
  ],
  "resizingConstraint": 63,
  "resizingType": 0,
  "rotation": 0,
  "shouldBreakMaskChain": false,
  "style": {
    "_class": "style",
    "do_objectID": "AEE6573A-E870-484E-9D4F-44C1E8F4A5BA",
    "endMarkerType": 0,
    "fills": [
      {
        "_class": "fill",
        "color": {
          "_class": "color",
          "alpha": 1,
          "blue": 0.1764705882352941,
          "green": 0.1764705882352941,
          "red": 0.1764705882352941
        },
        "fillType": 0,
        "isEnabled": true,
        "noiseIndex": 0,
        "noiseIntensity": 0,
        "patternFillType": 1,
        "patternTileScale": 1
      }
    ],
    "miterLimit": 10,
    "startMarkerType": 0,
    "windingRule": 1
  }
}