{
  "_class": "shapePath",
  "booleanOperation": -1,
  "clippingMaskMode": 0,
  "do_objectID": "6654D639-A09F-4166-ACA7-81BC2AADB910",
  "edited": true,
  "exportOptions": {
    "_class": "exportOptions",
    "do_objectID": "66472A92-8D59-48FD-92BF-DBAC854635E9",
    "exportFormats": [
    ],
    "includedLayerIds": [
    ],
    "layerOptions": 0,
    "shouldTrim": false
  },
  "frame": {
    "_class": "rect",
    "constrainProportions": false,
    "do_objectID": "D4F2A6D4-1FE0-4A86-A5A1-E94BD868EE6C",
    "height": 0.1910915064704284,
    "width": 0.1866125057396495,
    "x": 18.54777328687548,
    "y": 22.18283030459311
  },
  "hasClippingMask": false,
  "isClosed": true,
  "isFixedToViewport": false,
  "isFlippedHorizontal": false,
  "isFlippedVertical": false,
  "isLocked": false,
  "isVisible": true,
  "layerListExpandedType": 0,
  "name": "Path",
  "nameIsFixed": false,
  "pointRadiusBehaviour": 0,
  "points": [
    {
      "_class": "curvePoint",
      "cornerRadius": 0,
      "curveFrom": "{0.6711613745106576, 1.0822187879286924}",
      "curveMode": 4,
      "curveTo": "{0.80730752501086955, 0.78089998696816931}",
      "hasCurveFrom": true,
      "hasCurveTo": true,
      "point": "{0.86515876468029518, 0.93665209957734108}"
    },
    {
      "_class": "curvePoint",
      "cornerRadius": 0,
      "curveFrom": "{0.34710743801652871, 0.62684544506866635}",
      "curveMode": 4,
      "curveTo": "{0.5789473684210461, 0.95065705793182598}",
      "hasCurveFrom": true,
      "hasCurveTo": true,
      "point": "{0.49195302305350019, 0.80593915493532109}"
    },
    {
      "_class": "curvePoint",
      "cornerRadius": 0,
      "curveFrom": "{0.23836450630709013, 0.37348301665537875}",
      "curveMode": 4,
      "curveTo": "{0.11918225315354507, 0.67437742493847874}",
      "hasCurveFrom": true,
      "hasCurveTo": true,
      "point": "{0, 0.42653210133152447}"
    },
    {
      "_class": "curvePoint",
      "cornerRadius": 0,
      "curveFrom": "{0.33057851239668928, -0.08231471888207062}",
      "curveMode": 4,
      "curveTo": "{0.1935624184427977, 0.22027726011067411}",
      "hasCurveFrom": true,
      "hasCurveTo": true,
      "point": "{0.13614615050021195, 0.062827576791857548}"
    },
    {
      "_class": "curvePoint",
      "cornerRadius": 0,
      "curveFrom": "{0.65289256198347123, 0.37348301665537875}",
      "curveMode": 4,
      "curveTo": "{0.42105263157894152, 0.050520189146993286}",
      "hasCurveFrom": true,
      "hasCurveTo": true,
      "point": "{0.5084819486733273, 0.19354052143387757}"
    },
    {
      "_class": "curvePoint",
      "cornerRadius": 0,
      "curveFrom": "{0.76207046541973733, 0.62684544506866635}",
      "curveMode": 4,
      "curveTo": "{0.88125271857328236, 0.32510225143074406}",
      "hasCurveFrom": true,
      "hasCurveTo": true,
      "point": "{1, 0.57422075306991982}"
    }
  ],
  "resizingConstraint": 63,
  "resizingType": 0,
  "rotation": 0,
  "shouldBreakMaskChain": false,
  "style": {
    "_class": "style",
    "do_objectID": "96DC5602-97EC-4A72-B78D-EACAE19C065E",
    "endMarkerType": 0,
    "fills": [
      {
        "_class": "fill",
        "color": {
          "_class": "color",
          "alpha": 1,
          "blue": 0.1764705882352941,
          "green": 0.1764705882352941,
          "red": 0.1764705882352941
        },
        "fillType": 0,
        "isEnabled": true,
        "noiseIndex": 0,
        "noiseIntensity": 0,
        "patternFillType": 1,
        "patternTileScale": 1
      }
    ],
    "miterLimit": 10,
    "startMarkerType": 0,
    "windingRule": 1
  }
}