{
  "_class": "shapePath",
  "booleanOperation": -1,
  "clippingMaskMode": 0,
  "do_objectID": "6D81B976-104C-42C9-92A1-3F1C0C1B7FE7",
  "edited": true,
  "exportOptions": {
    "_class": "exportOptions",
    "do_objectID": "91166D11-1DEA-4F43-B493-5968236BF923",
    "exportFormats": [
    ],
    "includedLayerIds": [
    ],
    "layerOptions": 0,
    "shouldTrim": false
  },
  "frame": {
    "_class": "rect",
    "constrainProportions": false,
    "do_objectID": "EFC99D3A-4B8C-49FF-9134-62D2AAE6C27E",
    "height": 0.1058906030855589,
    "width": 0.1153442765828316,
    "x": 19.75516514900649,
    "y": 14.02552670310662
  },
  "hasClippingMask": false,
  "isClosed": true,
  "isFixedToViewport": false,
  "isFlippedHorizontal": false,
  "isFlippedVertical": false,
  "isLocked": false,
  "isVisible": true,
  "layerListExpandedType": 0,
  "name": "Path",
  "nameIsFixed": false,
  "pointRadiusBehaviour": 0,
  "points": [
    {
      "_class": "curvePoint",
      "cornerRadius": 0,
      "curveFrom": "{0.36267382383079366, 1.2010000000000218}",
      "curveMode": 4,
      "curveTo": "{0.86513664835029425, 0.68099999999998317}",
      "hasCurveFrom": true,
      "hasCurveTo": true,
      "point": "{0.58857097603073616, 0.81700000000000728}"
    },
    {
      "_class": "curvePoint",
      "cornerRadius": 0,
      "curveFrom": "{0.13044310661590919, 0.045999999999992269}",
      "curveMode": 3,
      "curveTo": "{-0.083490645000238589, 0.54599999999999227}",
      "hasCurveFrom": true,
      "hasCurveTo": true,
      "point": "{0.013624018562357832, 0.31900000000001683}"
    },
    {
      "_class": "curvePoint",
      "cornerRadius": 0,
      "curveFrom": "{1.1212941667327883, 0.53300000000001546}",
      "curveMode": 4,
      "curveTo": "{0.77787419703318528, 0.23300000000000409}",
      "hasCurveFrom": true,
      "hasCurveTo": true,
      "point": "{0.9383245107453011, 0}"
    }
  ],
  "resizingConstraint": 63,
  "resizingType": 0,
  "rotation": 0,
  "shouldBreakMaskChain": false,
  "style": {
    "_class": "style",
    "do_objectID": "6CB5D6F1-FB7D-48C1-AECE-B55006F3638A",
    "endMarkerType": 0,
    "fills": [
      {
        "_class": "fill",
        "color": {
          "_class": "color",
          "alpha": 1,
          "blue": 0.1764705882352941,
          "green": 0.1764705882352941,
          "red": 0.1764705882352941
        },
        "fillType": 0,
        "isEnabled": true,
        "noiseIndex": 0,
        "noiseIntensity": 0,
        "patternFillType": 1,
        "patternTileScale": 1
      }
    ],
    "miterLimit": 10,
    "startMarkerType": 0,
    "windingRule": 1
  }
}