{
  "_class": "shapePath",
  "booleanOperation": -1,
  "clippingMaskMode": 0,
  "do_objectID": "73E4E4BE-22A7-45AD-9457-C36E290E0EAE",
  "edited": true,
  "exportOptions": {
    "_class": "exportOptions",
    "do_objectID": "3F3C57D3-87F2-4F6D-BB62-ECFC07B91B64",
    "exportFormats": [
    ],
    "includedLayerIds": [
    ],
    "layerOptions": 0,
    "shouldTrim": false
  },
  "frame": {
    "_class": "rect",
    "constrainProportions": false,
    "do_objectID": "E4B1141B-B4B1-4925-B657-88CC54D98A43",
    "height": 0.11702417743615,
    "width": 0.105986348254568,
    "x": 17.92502734379025,
    "y": 35.10812565474257
  },
  "hasClippingMask": false,
  "isClosed": true,
  "isFixedToViewport": false,
  "isFlippedHorizontal": false,
  "isFlippedVertical": false,
  "isLocked": false,
  "isVisible": true,
  "layerListExpandedType": 0,
  "name": "Path",
  "nameIsFixed": false,
  "pointRadiusBehaviour": 0,
  "points": [
    {
      "_class": "curvePoint",
      "cornerRadius": 0,
      "curveFrom": "{0.92448784861305744, 0.91337491337491239}",
      "curveMode": 4,
      "curveTo": "{1.087783779981518, 0.64102564102561677}",
      "hasCurveFrom": true,
      "hasCurveTo": true,
      "point": "{0.98928782137831217, 0.80942480942478368}"
    },
    {
      "_class": "curvePoint",
      "cornerRadius": 0,
      "curveFrom": "{0.52532001637903691, 0.80595980595978323}",
      "curveMode": 4,
      "curveTo": "{0.56592799931193349, 0.90367290367289566}",
      "hasCurveFrom": true,
      "hasCurveTo": true,
      "point": "{0.48212003453551738, 1}"
    },
    {
      "_class": "curvePoint",
      "cornerRadius": 0,
      "curveFrom": "{0.073448206295903956, 0.085932085932063904}",
      "curveMode": 3,
      "curveTo": "{-0.089847725072556728, 0.36174636174635988}",
      "hasCurveFrom": true,
      "hasCurveTo": true,
      "point": "{0.011240232441272143, 0.191961191961185}"
    },
    {
      "_class": "curvePoint",
      "cornerRadius": 0,
      "curveFrom": "{0.47348003816682327, 0.19473319473320103}",
      "curveMode": 4,
      "curveTo": "{0.43114405596017807, 0.096327096327064959}",
      "hasCurveFrom": true,
      "hasCurveTo": true,
      "point": "{0.51754401964719265, 0}"
    }
  ],
  "resizingConstraint": 63,
  "resizingType": 0,
  "rotation": 0,
  "shouldBreakMaskChain": false,
  "style": {
    "_class": "style",
    "do_objectID": "ED320016-C8F9-42CB-960D-D597D35B9EA7",
    "endMarkerType": 0,
    "fills": [
      {
        "_class": "fill",
        "color": {
          "_class": "color",
          "alpha": 1,
          "blue": 0.1764705882352941,
          "green": 0.1764705882352941,
          "red": 0.1764705882352941
        },
        "fillType": 0,
        "isEnabled": true,
        "noiseIndex": 0,
        "noiseIntensity": 0,
        "patternFillType": 1,
        "patternTileScale": 1
      }
    ],
    "miterLimit": 10,
    "startMarkerType": 0,
    "windingRule": 1
  }
}