{
  "_class": "shapePath",
  "booleanOperation": -1,
  "clippingMaskMode": 0,
  "do_objectID": "828197A1-1035-423F-B2FC-75B16588A662",
  "edited": true,
  "exportOptions": {
    "_class": "exportOptions",
    "do_objectID": "9C85185A-CC9C-43DE-BB52-2CB363351450",
    "exportFormats": [
    ],
    "includedLayerIds": [
    ],
    "layerOptions": 0,
    "shouldTrim": false
  },
  "frame": {
    "_class": "rect",
    "constrainProportions": false,
    "do_objectID": "EF52AC88-CF34-42FE-95C2-1CC3C5DD5E8F",
    "height": 0.1058906030855589,
    "width": 0.1154145492412733,
    "x": 4.923262507251773,
    "y": 27.49936447981364
  },
  "hasClippingMask": false,
  "isClosed": true,
  "isFixedToViewport": false,
  "isFlippedHorizontal": false,
  "isFlippedVertical": false,
  "isLocked": false,
  "isVisible": true,
  "layerListExpandedType": 0,
  "name": "Path",
  "nameIsFixed": false,
  "pointRadiusBehaviour": 0,
  "points": [
    {
      "_class": "curvePoint",
      "cornerRadius": 0,
      "curveFrom": "{0.361601492416049, 1.1990000000000691}",
      "curveMode": 4,
      "curveTo": "{0.86516498344707349, 0.68400000000002592}",
      "hasCurveFrom": true,
      "hasCurveTo": true,
      "point": "{0.58876770415211166, 0.81400000000002137}"
    },
    {
      "_class": "curvePoint",
      "cornerRadius": 0,
      "curveFrom": "{0.13021547488922339, 0.048000000000001819}",
      "curveMode": 3,
      "curveTo": "{-0.082884717544294509, 0.54500000000001592}",
      "hasCurveFrom": true,
      "hasCurveTo": true,
      "point": "{0.013467514678122367, 0.31800000000004047}"
    },
    {
      "_class": "curvePoint",
      "cornerRadius": 0,
      "curveFrom": "{1.1197599328230952, 0.52900000000005321}",
      "curveMode": 4,
      "curveTo": "{0.77725236280618248, 0.23200000000002774}",
      "hasCurveFrom": true,
      "hasCurveTo": true,
      "point": "{0.93971488575055018, 0}"
    }
  ],
  "resizingConstraint": 63,
  "resizingType": 0,
  "rotation": 0,
  "shouldBreakMaskChain": false,
  "style": {
    "_class": "style",
    "do_objectID": "A4841F6C-79FF-4B8F-89B2-A5154CD674E4",
    "endMarkerType": 0,
    "fills": [
      {
        "_class": "fill",
        "color": {
          "_class": "color",
          "alpha": 1,
          "blue": 0.1764705882352941,
          "green": 0.1764705882352941,
          "red": 0.1764705882352941
        },
        "fillType": 0,
        "isEnabled": true,
        "noiseIndex": 0,
        "noiseIntensity": 0,
        "patternFillType": 1,
        "patternTileScale": 1
      }
    ],
    "miterLimit": 10,
    "startMarkerType": 0,
    "windingRule": 1
  }
}