{
  "_class": "shapePath",
  "booleanOperation": -1,
  "clippingMaskMode": 0,
  "do_objectID": "A0999A79-21B8-4988-8CEF-0784BDA74891",
  "edited": true,
  "exportOptions": {
    "_class": "exportOptions",
    "do_objectID": "FEB8FBDC-B296-4972-B24F-6A8E0AFD9390",
    "exportFormats": [
    ],
    "includedLayerIds": [
    ],
    "layerOptions": 0,
    "shouldTrim": false
  },
  "frame": {
    "_class": "rect",
    "constrainProportions": false,
    "do_objectID": "F1FEFD29-571D-4835-AD20-4F56941E4490",
    "height": 0.105890603085566,
    "width": 0.1059863482545644,
    "x": 24.05445340603959,
    "y": 25.29068927595925
  },
  "hasClippingMask": false,
  "isClosed": true,
  "isFixedToViewport": false,
  "isFlippedHorizontal": false,
  "isFlippedVertical": false,
  "isLocked": false,
  "isVisible": true,
  "layerListExpandedType": 0,
  "name": "Path",
  "nameIsFixed": false,
  "pointRadiusBehaviour": 0,
  "points": [
    {
      "_class": "curvePoint",
      "cornerRadius": 0,
      "curveFrom": "{0.9416505883747277, 0.24569960640025101}",
      "curveMode": 3,
      "curveTo": "{0.36265058837471997, -0.10630039359972443}",
      "hasCurveFrom": true,
      "hasCurveTo": true,
      "point": "{0.5636505883747418, 0.015699606400289667}"
    },
    {
      "_class": "curvePoint",
      "cornerRadius": 0,
      "curveFrom": "{-0.25734941162528457, 0.51569960640028967}",
      "curveMode": 4,
      "curveTo": "{0.31965058837477045, 0.86869960640024146}",
      "hasCurveFrom": true,
      "hasCurveTo": true,
      "point": "{0.11865058837474862, 0.74269960640026511}"
    }
  ],
  "resizingConstraint": 63,
  "resizingType": 0,
  "rotation": 0,
  "shouldBreakMaskChain": false,
  "style": {
    "_class": "style",
    "do_objectID": "FB61AF43-A6A8-41FB-AD2D-20A30209A251",
    "endMarkerType": 0,
    "fills": [
      {
        "_class": "fill",
        "color": {
          "_class": "color",
          "alpha": 1,
          "blue": 0.1764705882352941,
          "green": 0.1764705882352941,
          "red": 0.1764705882352941
        },
        "fillType": 0,
        "isEnabled": true,
        "noiseIndex": 0,
        "noiseIntensity": 0,
        "patternFillType": 1,
        "patternTileScale": 1
      }
    ],
    "miterLimit": 10,
    "startMarkerType": 0,
    "windingRule": 1
  }
}