{
  "_class": "shapePath",
  "booleanOperation": -1,
  "clippingMaskMode": 0,
  "do_objectID": "A8BD5BAB-6408-4C31-8CA7-C12C13670D95",
  "edited": true,
  "exportOptions": {
    "_class": "exportOptions",
    "do_objectID": "8AEBA738-78C1-4843-B27D-D8BAF6A8768F",
    "exportFormats": [
    ],
    "includedLayerIds": [
    ],
    "layerOptions": 0,
    "shouldTrim": false
  },
  "frame": {
    "_class": "rect",
    "constrainProportions": false,
    "do_objectID": "31729092-7251-408A-8838-9A9A7245DE6A",
    "height": 0.1058906030855571,
    "width": 0.1436460070825696,
    "x": 30.97324625826051,
    "y": 12.41978954909593
  },
  "hasClippingMask": false,
  "isClosed": true,
  "isFixedToViewport": false,
  "isFlippedHorizontal": false,
  "isFlippedVertical": false,
  "isLocked": false,
  "isVisible": true,
  "layerListExpandedType": 0,
  "name": "Path",
  "nameIsFixed": false,
  "pointRadiusBehaviour": 0,
  "points": [
    {
      "_class": "curvePoint",
      "cornerRadius": 0,
      "curveFrom": "{0.51454413735524274, 0.18675889328065345}",
      "curveMode": 4,
      "curveTo": "{0.097516750701674537, 0.40019762845852708}",
      "hasCurveFrom": true,
      "hasCurveTo": true,
      "point": "{0.29359873331519748, 0.28063241106718545}"
    },
    {
      "_class": "curvePoint",
      "cornerRadius": 0,
      "curveFrom": "{1.0864028301647435, 0.46837944664030567}",
      "curveMode": 4,
      "curveTo": "{0.73548954139528799, 0.093873517786588187}",
      "hasCurveFrom": true,
      "hasCurveTo": true,
      "point": "{0.95643494543530128, 0}"
    },
    {
      "_class": "curvePoint",
      "cornerRadius": 0,
      "curveFrom": "{0.48516009385118547, 0.81324110671940275}",
      "curveMode": 4,
      "curveTo": "{0.90275255826446565, 0.60079051383399584}",
      "hasCurveFrom": true,
      "hasCurveTo": true,
      "point": "{0.70554042013155094, 0.72035573122533747}"
    },
    {
      "_class": "curvePoint",
      "cornerRadius": 0,
      "curveFrom": "{-0.08613352119860325, 0.53458498023715073}",
      "curveMode": 4,
      "curveTo": "{0.2625194565320686, 0.90711462450593472}",
      "hasCurveFrom": true,
      "hasCurveTo": true,
      "point": "{0.043269285771126993, 1}"
    }
  ],
  "resizingConstraint": 63,
  "resizingType": 0,
  "rotation": 0,
  "shouldBreakMaskChain": false,
  "style": {
    "_class": "style",
    "do_objectID": "62C59B1A-6710-4E8E-8CA3-CC58F6669797",
    "endMarkerType": 0,
    "fills": [
      {
        "_class": "fill",
        "color": {
          "_class": "color",
          "alpha": 1,
          "blue": 0.1764705882352941,
          "green": 0.1764705882352941,
          "red": 0.1764705882352941
        },
        "fillType": 0,
        "isEnabled": true,
        "noiseIndex": 0,
        "noiseIntensity": 0,
        "patternFillType": 1,
        "patternTileScale": 1
      }
    ],
    "miterLimit": 10,
    "startMarkerType": 0,
    "windingRule": 1
  }
}