{
  "_class": "shapePath",
  "booleanOperation": -1,
  "clippingMaskMode": 0,
  "do_objectID": "AA6A1E4D-A59C-4282-90FB-B89EA2FD11EF",
  "edited": true,
  "exportOptions": {
    "_class": "exportOptions",
    "do_objectID": "72E6450C-0FD0-4E4D-BE1E-824A4F541964",
    "exportFormats": [
    ],
    "includedLayerIds": [
    ],
    "layerOptions": 0,
    "shouldTrim": false
  },
  "frame": {
    "_class": "rect",
    "constrainProportions": false,
    "do_objectID": "75A48D5B-4C73-4C14-B2A6-189C6BC846F2",
    "height": 0.1058906030855544,
    "width": 0.1059863482545715,
    "x": 28.89496191714795,
    "y": 2.632634217541098
  },
  "hasClippingMask": false,
  "isClosed": true,
  "isFixedToViewport": false,
  "isFlippedHorizontal": false,
  "isFlippedVertical": false,
  "isLocked": false,
  "isVisible": true,
  "layerListExpandedType": 0,
  "name": "Path",
  "nameIsFixed": false,
  "pointRadiusBehaviour": 0,
  "points": [
    {
      "_class": "curvePoint",
      "cornerRadius": 0,
      "curveFrom": "{1.0452995279568427, 0.18831051614589711}",
      "curveMode": 3,
      "curveTo": "{0.27729952795681356, -0.088689483854089701}",
      "hasCurveFrom": true,
      "hasCurveTo": true,
      "point": "{0.54529952795684267, 0.0073105161459139367}"
    },
    {
      "_class": "curvePoint",
      "cornerRadius": 0,
      "curveFrom": "{-0.30270047204317052, 0.7893105161458962}",
      "curveMode": 3,
      "curveTo": "{0.45929952795682993, 1.0643105161459303}",
      "hasCurveFrom": true,
      "hasCurveTo": true,
      "point": "{0.19529952795681993, 0.96931051614590302}"
    }
  ],
  "resizingConstraint": 63,
  "resizingType": 0,
  "rotation": 0,
  "shouldBreakMaskChain": false,
  "style": {
    "_class": "style",
    "do_objectID": "C80F3032-2B1D-4DD8-810B-32B7C2112EB6",
    "endMarkerType": 0,
    "fills": [
      {
        "_class": "fill",
        "color": {
          "_class": "color",
          "alpha": 1,
          "blue": 0.1764705882352941,
          "green": 0.1764705882352941,
          "red": 0.1764705882352941
        },
        "fillType": 0,
        "isEnabled": true,
        "noiseIndex": 0,
        "noiseIntensity": 0,
        "patternFillType": 1,
        "patternTileScale": 1
      }
    ],
    "miterLimit": 10,
    "startMarkerType": 0,
    "windingRule": 1
  }
}