{
  "_class": "shapePath",
  "booleanOperation": -1,
  "clippingMaskMode": 0,
  "do_objectID": "ABC0C823-014B-4209-B2BE-FFBC42956E28",
  "edited": true,
  "exportOptions": {
    "_class": "exportOptions",
    "do_objectID": "B5D11345-3CEA-4021-8418-8F3AB8142A82",
    "exportFormats": [
    ],
    "includedLayerIds": [
    ],
    "layerOptions": 0,
    "shouldTrim": false
  },
  "frame": {
    "_class": "rect",
    "constrainProportions": false,
    "do_objectID": "69C0DD95-825A-4653-96ED-17FE733D4F7B",
    "height": 0.449525305286933,
    "width": 0.7853265223109602,
    "x": 18.66336102422793,
    "y": 7.815378808888273
  },
  "hasClippingMask": false,
  "isClosed": true,
  "isFixedToViewport": false,
  "isFlippedHorizontal": false,
  "isFlippedVertical": false,
  "isLocked": false,
  "isVisible": true,
  "layerListExpandedType": 0,
  "name": "Path",
  "nameIsFixed": false,
  "pointRadiusBehaviour": 0,
  "points": [
    {
      "_class": "curvePoint",
      "cornerRadius": 0,
      "curveFrom": "{0.28858046059775017, 0.65614288291538814}",
      "curveMode": 4,
      "curveTo": "{0.075659347119467327, 0.7961392747609608}",
      "hasCurveFrom": true,
      "hasCurveTo": true,
      "point": "{0.088579317597518456, 0.8944614829514741}"
    },
    {
      "_class": "curvePoint",
      "cornerRadius": 0,
      "curveFrom": "{0.58708345852264099, 0.74273858921162073}",
      "curveMode": 4,
      "curveTo": "{0.41343905529763608, 0.77900054122317075}",
      "hasCurveFrom": true,
      "hasCurveTo": true,
      "point": "{0.56723838386835668, 0.76077936135667268}"
    },
    {
      "_class": "curvePoint",
      "cornerRadius": 0,
      "curveFrom": "{0.68134756313050271, 0.66155511455890781}",
      "curveMode": 4,
      "curveTo": "{0.60847892963429595, 0.73011004871008855}",
      "hasCurveFrom": true,
      "hasCurveTo": true,
      "point": "{0.62780720546945867, 0.71134764567924158}"
    },
    {
      "_class": "curvePoint",
      "cornerRadius": 0,
      "curveFrom": "{0.72589562133882413, 0.46112213602742869}",
      "curveMode": 3,
      "curveTo": "{0.646515322721678, 0.5764026700342858}",
      "hasCurveFrom": true,
      "hasCurveTo": true,
      "point": "{0.65984873225502572, 0.55709904383907971}"
    },
    {
      "_class": "curvePoint",
      "cornerRadius": 0,
      "curveFrom": "{0.89540563401085349, 0.33176979974742854}",
      "curveMode": 4,
      "curveTo": "{0.83183937925884399, 0.44885441096878886}",
      "hasCurveFrom": true,
      "hasCurveTo": true,
      "point": "{0.90119378078502166, 0.36027421973660684}"
    },
    {
      "_class": "curvePoint",
      "cornerRadius": 0,
      "curveFrom": "{0.81726565255960026, 0.29442540140718076}",
      "curveMode": 4,
      "curveTo": "{0.891271243457878, 0.30452823380841476}",
      "hasCurveFrom": true,
      "hasCurveTo": true,
      "point": "{0.89147796298552784, 0.27981237596969921}"
    },
    {
      "_class": "curvePoint",
      "cornerRadius": 0,
      "curveFrom": "{0.81788581114254677, 0.038246436947509593}",
      "curveMode": 4,
      "curveTo": "{0.73829879299775369, 0.23471044560707977}",
      "hasCurveFrom": true,
      "hasCurveTo": true,
      "point": "{0.77271759435128173, 0.057550063142705478}"
    },
    {
      "_class": "curvePoint",
      "cornerRadius": 0,
      "curveFrom": "{0.91028944000156897, 0.10607974021288501}",
      "curveMode": 4,
      "curveTo": "{0.86336410722528645, 0.019123218473759925}",
      "hasCurveFrom": true,
      "hasCurveTo": true,
      "point": "{0.90884240330802624, 0}"
    },
    {
      "_class": "curvePoint",
      "cornerRadius": 0,
      "curveFrom": "{1.0136492038259779, 0.16597510373444252}",
      "curveMode": 4,
      "curveTo": "{0.95080646742073693, 0.10084791629082181}",
      "hasCurveFrom": true,
      "hasCurveTo": true,
      "point": "{0.99328733035256911, 0.089662637560890046}"
    },
    {
      "_class": "curvePoint",
      "cornerRadius": 0,
      "curveFrom": "{0.94780903426982943, 0.30344578747970674}",
      "curveMode": 4,
      "curveTo": "{0.98512190901044006, 0.22532924409165114}",
      "hasCurveFrom": true,
      "hasCurveTo": true,
      "point": "{0.9422276070233111, 0.25690059534548682}"
    },
    {
      "_class": "curvePoint",
      "cornerRadius": 0,
      "curveFrom": "{0.94057385080212152, 0.52354320764929463}",
      "curveMode": 4,
      "curveTo": "{0.9428477656062576, 0.34331589392026302}",
      "hasCurveFrom": true,
      "hasCurveTo": true,
      "point": "{0.90119378078502166, 0.36027421973660684}"
    },
    {
      "_class": "curvePoint",
      "cornerRadius": 0,
      "curveFrom": "{0.74336342142514744, 0.6207829695110999}",
      "curveMode": 3,
      "curveTo": "{0.81478501822781435, 0.51001262854050067}",
      "hasCurveFrom": true,
      "hasCurveTo": true,
      "point": "{0.74842804985254419, 0.61302543748872829}"
    },
    {
      "_class": "curvePoint",
      "cornerRadius": 0,
      "curveFrom": "{0.7551464345011305, 0.8215767634854817}",
      "curveMode": 3,
      "curveTo": "{0.77943597899986805, 0.70521378314992678}",
      "hasCurveFrom": true,
      "hasCurveTo": true,
      "point": "{0.7766452653766075, 0.71838354681580785}"
    },
    {
      "_class": "curvePoint",
      "cornerRadius": 0,
      "curveFrom": "{0.39132006583921269, 1.1262854050153428}",
      "curveMode": 4,
      "curveTo": "{0.57023581701926418, 0.82085513259967635}",
      "hasCurveFrom": true,
      "hasCurveTo": true,
      "point": "{0.53519685708278963, 0.9153887786397269}"
    },
    {
      "_class": "curvePoint",
      "cornerRadius": 0,
      "curveFrom": "{0.19721042937697106, 0.93451199711347666}",
      "curveMode": 3,
      "curveTo": "{0.35762478283245308, 0.80552047627638945}",
      "hasCurveFrom": true,
      "hasCurveTo": true,
      "point": "{0.23741737750466721, 0.90185819953094315}"
    },
    {
      "_class": "curvePoint",
      "cornerRadius": 0,
      "curveFrom": "{0.10739079461355966, 0.964820494317158}",
      "curveMode": 4,
      "curveTo": "{0.15690012148545296, 0.96734620241746649}",
      "hasCurveFrom": true,
      "hasCurveTo": true,
      "point": "{0.11689989288540663, 1}"
    },
    {
      "_class": "curvePoint",
      "cornerRadius": 0,
      "curveFrom": "{0.050232845218661747, 0.91863611762584074}",
      "curveMode": 4,
      "curveTo": "{0.097985056105537593, 0.9296409886343161}",
      "hasCurveFrom": true,
      "hasCurveTo": true,
      "point": "{0.088579317597518456, 0.8944614829514741}"
    },
    {
      "_class": "curvePoint",
      "cornerRadius": 0,
      "curveFrom": "{0.038656551670328478, 0.81454086234891543}",
      "curveMode": 4,
      "curveTo": "{0.013126690005697994, 0.9372181129352416}",
      "hasCurveFrom": true,
      "hasCurveTo": true,
      "point": "{0, 0.8383546815803794}"
    }
  ],
  "resizingConstraint": 63,
  "resizingType": 0,
  "rotation": 0,
  "shouldBreakMaskChain": false,
  "style": {
    "_class": "style",
    "do_objectID": "A2D613A1-ED06-4331-922F-5CFFAA30FE28",
    "endMarkerType": 0,
    "fills": [
      {
        "_class": "fill",
        "color": {
          "_class": "color",
          "alpha": 1,
          "blue": 0.1764705882352941,
          "green": 0.1764705882352941,
          "red": 0.1764705882352941
        },
        "fillType": 0,
        "isEnabled": true,
        "noiseIndex": 0,
        "noiseIntensity": 0,
        "patternFillType": 1,
        "patternTileScale": 1
      }
    ],
    "miterLimit": 10,
    "startMarkerType": 0,
    "windingRule": 1
  }
}