{
  "_class": "shapePath",
  "booleanOperation": -1,
  "clippingMaskMode": 0,
  "do_objectID": "B31B1B2A-DDC6-4CAC-BE43-9D76C3A33159",
  "edited": true,
  "exportOptions": {
    "_class": "exportOptions",
    "do_objectID": "CEBBBF8A-03C7-4691-8218-CDD827988440",
    "exportFormats": [
    ],
    "includedLayerIds": [
    ],
    "layerOptions": 0,
    "shouldTrim": false
  },
  "frame": {
    "_class": "rect",
    "constrainProportions": false,
    "do_objectID": "49B6C5BD-5D73-4F45-BF88-1D8EC5EAD169",
    "height": 0.1058906030855589,
    "width": 0.1059863482545573,
    "x": 10.75149494608483,
    "y": 17.0060457704297
  },
  "hasClippingMask": false,
  "isClosed": true,
  "isFixedToViewport": false,
  "isFlippedHorizontal": false,
  "isFlippedVertical": false,
  "isLocked": false,
  "isVisible": true,
  "layerListExpandedType": 0,
  "name": "Path",
  "nameIsFixed": false,
  "pointRadiusBehaviour": 0,
  "points": [
    {
      "_class": "curvePoint",
      "cornerRadius": 0,
      "curveFrom": "{1.0543888630027709, 0.27685947339165295}",
      "curveMode": 3,
      "curveTo": "{0.40538886300276999, -0.1201405266083384}",
      "hasCurveFrom": true,
      "hasCurveTo": true,
      "point": "{0.63238886300274544, 0.017859473391666825}"
    },
    {
      "_class": "curvePoint",
      "cornerRadius": 0,
      "curveFrom": "{-0.28861113699724683, 0.57885947339167387}",
      "curveMode": 3,
      "curveTo": "{0.35838886300277295, 0.97185947339167456}",
      "hasCurveFrom": true,
      "hasCurveTo": true,
      "point": "{0.13338886300275021, 0.8348594733916741}"
    }
  ],
  "resizingConstraint": 63,
  "resizingType": 0,
  "rotation": 0,
  "shouldBreakMaskChain": false,
  "style": {
    "_class": "style",
    "do_objectID": "80EAAD23-2D65-483F-A913-5BB8D80F3CDC",
    "endMarkerType": 0,
    "fills": [
      {
        "_class": "fill",
        "color": {
          "_class": "color",
          "alpha": 1,
          "blue": 0.1764705882352941,
          "green": 0.1764705882352941,
          "red": 0.1764705882352941
        },
        "fillType": 0,
        "isEnabled": true,
        "noiseIndex": 0,
        "noiseIntensity": 0,
        "patternFillType": 1,
        "patternTileScale": 1
      }
    ],
    "miterLimit": 10,
    "startMarkerType": 0,
    "windingRule": 1
  }
}