{
  "_class": "shapePath",
  "booleanOperation": -1,
  "clippingMaskMode": 0,
  "do_objectID": "B69A72F2-C370-432A-86B2-BF80844ED04D",
  "edited": true,
  "exportOptions": {
    "_class": "exportOptions",
    "do_objectID": "F022AA56-6EE6-4593-8A46-3507CE78868E",
    "exportFormats": [
    ],
    "includedLayerIds": [
    ],
    "layerOptions": 0,
    "shouldTrim": false
  },
  "frame": {
    "_class": "rect",
    "constrainProportions": false,
    "do_objectID": "AE618F9B-1D9A-4E83-B12C-B38DF4329477",
    "height": 0.1058906030855624,
    "width": 0.10598634825456,
    "x": 3.095697520577743,
    "y": 27.38832850914165
  },
  "hasClippingMask": false,
  "isClosed": true,
  "isFixedToViewport": false,
  "isFlippedHorizontal": false,
  "isFlippedVertical": false,
  "isLocked": false,
  "isVisible": true,
  "layerListExpandedType": 0,
  "name": "Path",
  "nameIsFixed": false,
  "pointRadiusBehaviour": 0,
  "points": [
    {
      "_class": "curvePoint",
      "cornerRadius": 0,
      "curveFrom": "{0.94310258739804453, 0.24716070841003557}",
      "curveMode": 3,
      "curveTo": "{0.36210258739804146, -0.10783929158998262}",
      "hasCurveFrom": true,
      "hasCurveTo": true,
      "point": "{0.56510258739804442, 0.016160708410041025}"
    },
    {
      "_class": "curvePoint",
      "cornerRadius": 0,
      "curveFrom": "{-0.25889741260196075, 0.51516070841000783}",
      "curveMode": 3,
      "curveTo": "{0.32210258739804232, 0.86916070840999282}",
      "hasCurveFrom": true,
      "hasCurveTo": true,
      "point": "{0.12010258739804414, 0.74516070841002602}"
    }
  ],
  "resizingConstraint": 63,
  "resizingType": 0,
  "rotation": 0,
  "shouldBreakMaskChain": false,
  "style": {
    "_class": "style",
    "do_objectID": "A36FE64B-1358-410E-9E29-17CF690A87D6",
    "endMarkerType": 0,
    "fills": [
      {
        "_class": "fill",
        "color": {
          "_class": "color",
          "alpha": 1,
          "blue": 0.1764705882352941,
          "green": 0.1764705882352941,
          "red": 0.1764705882352941
        },
        "fillType": 0,
        "isEnabled": true,
        "noiseIndex": 0,
        "noiseIntensity": 0,
        "patternFillType": 1,
        "patternTileScale": 1
      }
    ],
    "miterLimit": 10,
    "startMarkerType": 0,
    "windingRule": 1
  }
}