{
  "_class": "shapePath",
  "booleanOperation": -1,
  "clippingMaskMode": 0,
  "do_objectID": "B80A2505-91EA-4CA8-BF9F-ABF3B5F28368",
  "edited": true,
  "exportOptions": {
    "_class": "exportOptions",
    "do_objectID": "1E23F967-BCBA-4019-83B3-6C93717F15F9",
    "exportFormats": [
    ],
    "includedLayerIds": [
    ],
    "layerOptions": 0,
    "shouldTrim": false
  },
  "frame": {
    "_class": "rect",
    "constrainProportions": false,
    "do_objectID": "5A212C05-7CCE-45B9-AB48-B27BD96A7B27",
    "height": 0.1058906030855535,
    "width": 0.1059863482545609,
    "x": 36.00415467752412,
    "y": 6.887420233250907
  },
  "hasClippingMask": false,
  "isClosed": true,
  "isFixedToViewport": false,
  "isFlippedHorizontal": false,
  "isFlippedVertical": false,
  "isLocked": false,
  "isVisible": true,
  "layerListExpandedType": 0,
  "name": "Path",
  "nameIsFixed": false,
  "pointRadiusBehaviour": 0,
  "points": [
    {
      "_class": "curvePoint",
      "cornerRadius": 0,
      "curveFrom": "{1.039561750966925, 0.18745790895945902}",
      "curveMode": 3,
      "curveTo": "{0.27656175096694824, -0.089542091040527794}",
      "hasCurveFrom": true,
      "hasCurveTo": true,
      "point": "{0.5415617509669346, 0.0074579089594521975}"
    },
    {
      "_class": "curvePoint",
      "cornerRadius": 0,
      "curveFrom": "{-0.30243824903305949, 0.78845790895945811}",
      "curveMode": 3,
      "curveTo": "{0.45956175096694096, 1.0654579089595018}",
      "hasCurveFrom": true,
      "hasCurveTo": true,
      "point": "{0.19556175096693096, 0.96945790895949813}"
    }
  ],
  "resizingConstraint": 63,
  "resizingType": 0,
  "rotation": 0,
  "shouldBreakMaskChain": false,
  "style": {
    "_class": "style",
    "do_objectID": "9AF34125-0C9D-431E-9F53-CCCD28CAE2B9",
    "endMarkerType": 0,
    "fills": [
      {
        "_class": "fill",
        "color": {
          "_class": "color",
          "alpha": 1,
          "blue": 0.1764705882352941,
          "green": 0.1764705882352941,
          "red": 0.1764705882352941
        },
        "fillType": 0,
        "isEnabled": true,
        "noiseIndex": 0,
        "noiseIntensity": 0,
        "patternFillType": 1,
        "patternTileScale": 1
      }
    ],
    "miterLimit": 10,
    "startMarkerType": 0,
    "windingRule": 1
  }
}