{
  "_class": "shapePath",
  "booleanOperation": -1,
  "clippingMaskMode": 0,
  "do_objectID": "B8204404-0779-42CE-B4A8-458B04E2738F",
  "edited": true,
  "exportOptions": {
    "_class": "exportOptions",
    "do_objectID": "DF2E5F2D-0FE5-49BB-9C65-091EC32B03A0",
    "exportFormats": [
    ],
    "includedLayerIds": [
    ],
    "layerOptions": 0,
    "shouldTrim": false
  },
  "frame": {
    "_class": "rect",
    "constrainProportions": false,
    "do_objectID": "71079766-09E0-46AE-B824-849CBC4437BC",
    "height": 0.1358388754024276,
    "width": 0.1911421134763032,
    "x": 13.27817175187462,
    "y": 17.43017605662565
  },
  "hasClippingMask": false,
  "isClosed": true,
  "isFixedToViewport": false,
  "isFlippedHorizontal": false,
  "isFlippedVertical": false,
  "isLocked": false,
  "isVisible": true,
  "layerListExpandedType": 0,
  "name": "Path",
  "nameIsFixed": false,
  "pointRadiusBehaviour": 0,
  "points": [
    {
      "_class": "curvePoint",
      "cornerRadius": 0,
      "curveFrom": "{0.27459840512725714, 0.42865671641791814}",
      "curveMode": 4,
      "curveTo": "{0.0461292029800928, 0.59880597014925818}",
      "hasCurveFrom": true,
      "hasCurveTo": true,
      "point": "{0.19433691961458413, 0.48955223880596277}"
    },
    {
      "_class": "curvePoint",
      "cornerRadius": 0,
      "curveFrom": "{0.60795960156874329, 0.21671641791044602}",
      "curveMode": 4,
      "curveTo": "{0.36165451375209745, 0.38447761194029917}",
      "hasCurveFrom": true,
      "hasCurveTo": true,
      "point": "{0.44234066320927184, 0.32597014925372453}"
    },
    {
      "_class": "curvePoint",
      "cornerRadius": 0,
      "curveFrom": "{1.0797612439209592, 0.26029850746268901}",
      "curveMode": 4,
      "curveTo": "{0.77272921203918787, 0.1080597014925435}",
      "hasCurveFrom": true,
      "hasCurveTo": true,
      "point": "{0.93834815039864727, 0}"
    },
    {
      "_class": "curvePoint",
      "cornerRadius": 0,
      "curveFrom": "{0.72601617814292263, 0.57253731343283387}",
      "curveMode": 3,
      "curveTo": "{0.95321138845654652, 0.39940298507463079}",
      "hasCurveFrom": true,
      "hasCurveTo": true,
      "point": "{0.80670232760009708, 0.51104477611939625}"
    },
    {
      "_class": "curvePoint",
      "cornerRadius": 0,
      "curveFrom": "{0.39223031775692296, 0.78328358208955395}",
      "curveMode": 4,
      "curveTo": "{0.63896006951808237, 0.61492537313432483}",
      "hasCurveFrom": true,
      "hasCurveTo": true,
      "point": "{0.55784925611639447, 0.67462686567163455}"
    },
    {
      "_class": "curvePoint",
      "cornerRadius": 0,
      "curveFrom": "{-0.07999598853980637, 0.73970149253731099}",
      "curveMode": 4,
      "curveTo": "{0.22788537123099192, 0.89074626865672146}",
      "hasCurveFrom": true,
      "hasCurveTo": true,
      "point": "{0.062266432871532502, 1}"
    }
  ],
  "resizingConstraint": 63,
  "resizingType": 0,
  "rotation": 0,
  "shouldBreakMaskChain": false,
  "style": {
    "_class": "style",
    "do_objectID": "2F3EC1F0-034D-4FED-A0C0-7F76985829D0",
    "endMarkerType": 0,
    "fills": [
      {
        "_class": "fill",
        "color": {
          "_class": "color",
          "alpha": 1,
          "blue": 0.1764705882352941,
          "green": 0.1764705882352941,
          "red": 0.1764705882352941
        },
        "fillType": 0,
        "isEnabled": true,
        "noiseIndex": 0,
        "noiseIntensity": 0,
        "patternFillType": 1,
        "patternTileScale": 1
      }
    ],
    "miterLimit": 10,
    "startMarkerType": 0,
    "windingRule": 1
  }
}