{
  "_class": "shapePath",
  "booleanOperation": -1,
  "clippingMaskMode": 0,
  "do_objectID": "B8F9DDD1-DE5E-4EB9-9141-FBC32A60EB4F",
  "edited": true,
  "exportOptions": {
    "_class": "exportOptions",
    "do_objectID": "07E39FE3-0871-4B5C-BB52-0EC669706CB2",
    "exportFormats": [
    ],
    "includedLayerIds": [
    ],
    "layerOptions": 0,
    "shouldTrim": false
  },
  "frame": {
    "_class": "rect",
    "constrainProportions": false,
    "do_objectID": "A130D84E-2F4C-4295-BA1C-DBE30EC7AAA1",
    "height": 0.105890603085566,
    "width": 0.1153998375360983,
    "x": 4.842298635776978,
    "y": 27.63195944177364
  },
  "hasClippingMask": false,
  "isClosed": true,
  "isFixedToViewport": false,
  "isFlippedHorizontal": false,
  "isFlippedVertical": false,
  "isLocked": false,
  "isVisible": true,
  "layerListExpandedType": 0,
  "name": "Path",
  "nameIsFixed": false,
  "pointRadiusBehaviour": 0,
  "points": [
    {
      "_class": "curvePoint",
      "cornerRadius": 0,
      "curveFrom": "{0.36266485642363172, 1.200999999999965}",
      "curveMode": 4,
      "curveTo": "{0.86488576280783469, 0.68099999999998317}",
      "hasCurveFrom": true,
      "hasCurveTo": true,
      "point": "{0.58845324710897062, 0.81700000000000728}"
    },
    {
      "_class": "curvePoint",
      "cornerRadius": 0,
      "curveFrom": "{0.12984255948641954, 0.048000000000001819}",
      "curveMode": 3,
      "curveTo": "{-0.08398819057072196, 0.54199999999997317}",
      "hasCurveFrom": true,
      "hasCurveTo": true,
      "point": "{0.013783106330406619, 0.31799999999998363}"
    },
    {
      "_class": "curvePoint",
      "cornerRadius": 0,
      "curveFrom": "{1.1209199503762555, 0.52899999999999636}",
      "curveMode": 4,
      "curveTo": "{0.77836871590971723, 0.2319999999999709}",
      "hasCurveFrom": true,
      "hasCurveTo": true,
      "point": "{0.93874177845257334, 0}"
    }
  ],
  "resizingConstraint": 63,
  "resizingType": 0,
  "rotation": 0,
  "shouldBreakMaskChain": false,
  "style": {
    "_class": "style",
    "do_objectID": "A376F7BC-9060-46B4-9171-E93367023B03",
    "endMarkerType": 0,
    "fills": [
      {
        "_class": "fill",
        "color": {
          "_class": "color",
          "alpha": 1,
          "blue": 0.1764705882352941,
          "green": 0.1764705882352941,
          "red": 0.1764705882352941
        },
        "fillType": 0,
        "isEnabled": true,
        "noiseIndex": 0,
        "noiseIntensity": 0,
        "patternFillType": 1,
        "patternTileScale": 1
      }
    ],
    "miterLimit": 10,
    "startMarkerType": 0,
    "windingRule": 1
  }
}