{
  "_class": "shapePath",
  "booleanOperation": -1,
  "clippingMaskMode": 0,
  "do_objectID": "BD62F91E-5136-4D35-B6B5-878AC8390D9A",
  "edited": true,
  "exportOptions": {
    "_class": "exportOptions",
    "do_objectID": "C0EF909B-C20D-44DC-A5CF-A4E3102F95D3",
    "exportFormats": [
    ],
    "includedLayerIds": [
    ],
    "layerOptions": 0,
    "shouldTrim": false
  },
  "frame": {
    "_class": "rect",
    "constrainProportions": false,
    "do_objectID": "1C1928BF-71D4-4631-8086-4DABA635F6CF",
    "height": 0.1058906030855979,
    "width": 0.1059863482545573,
    "x": 27.01460616640886,
    "y": 36.05376694470774
  },
  "hasClippingMask": false,
  "isClosed": true,
  "isFixedToViewport": false,
  "isFlippedHorizontal": false,
  "isFlippedVertical": false,
  "isLocked": false,
  "isVisible": true,
  "layerListExpandedType": 0,
  "name": "Path",
  "nameIsFixed": false,
  "pointRadiusBehaviour": 0,
  "points": [
    {
      "_class": "curvePoint",
      "cornerRadius": 0,
      "curveFrom": "{-0.2573833684846818, 0.51450033818150587}",
      "curveMode": 3,
      "curveTo": "{0.32161663151532593, 0.86650033818153815}",
      "hasCurveFrom": true,
      "hasCurveTo": true,
      "point": "{0.1186166315153514, 0.74450033818152406}"
    },
    {
      "_class": "curvePoint",
      "cornerRadius": 0,
      "curveFrom": "{0.94061663151535413, 0.24650033818153361}",
      "curveMode": 4,
      "curveTo": "{0.36261663151532275, -0.10549966181844184}",
      "hasCurveFrom": true,
      "hasCurveTo": true,
      "point": "{0.56661663151533048, 0.015500338181539064}"
    }
  ],
  "resizingConstraint": 63,
  "resizingType": 0,
  "rotation": 0,
  "shouldBreakMaskChain": false,
  "style": {
    "_class": "style",
    "do_objectID": "C9DC805F-1C0F-483F-AE14-BAAEE39415B2",
    "endMarkerType": 0,
    "fills": [
      {
        "_class": "fill",
        "color": {
          "_class": "color",
          "alpha": 1,
          "blue": 0.1764705882352941,
          "green": 0.1764705882352941,
          "red": 0.1764705882352941
        },
        "fillType": 0,
        "isEnabled": true,
        "noiseIndex": 0,
        "noiseIntensity": 0,
        "patternFillType": 1,
        "patternTileScale": 1
      }
    ],
    "miterLimit": 10,
    "startMarkerType": 0,
    "windingRule": 1
  }
}