{
  "_class": "shapePath",
  "booleanOperation": -1,
  "clippingMaskMode": 0,
  "do_objectID": "C1058942-DCD8-45B4-9275-2461C3B657E9",
  "edited": true,
  "exportOptions": {
    "_class": "exportOptions",
    "do_objectID": "5718B708-2F70-459E-851A-76757E528597",
    "exportFormats": [
    ],
    "includedLayerIds": [
    ],
    "layerOptions": 0,
    "shouldTrim": false
  },
  "frame": {
    "_class": "rect",
    "constrainProportions": false,
    "do_objectID": "DABEFCE9-A9A7-4D11-ADAD-9FFEF2D92D0E",
    "height": 0.1058906030855589,
    "width": 0.1059863482545822,
    "x": 42.00394816372859,
    "y": 15.3507464421818
  },
  "hasClippingMask": false,
  "isClosed": true,
  "isFixedToViewport": false,
  "isFlippedHorizontal": false,
  "isFlippedVertical": false,
  "isLocked": false,
  "isVisible": true,
  "layerListExpandedType": 0,
  "name": "Path",
  "nameIsFixed": false,
  "pointRadiusBehaviour": 0,
  "points": [
    {
      "_class": "curvePoint",
      "cornerRadius": 0,
      "curveFrom": "{1.1209152206501618, 0.47199999999997999}",
      "curveMode": 4,
      "curveTo": "{0.77759193030816398, 0.20999999999997954}",
      "hasCurveFrom": true,
      "hasCurveTo": true,
      "point": "{0.93859871474439271, 0}"
    },
    {
      "_class": "curvePoint",
      "cornerRadius": 0,
      "curveFrom": "{0.36323623506769798, 1.0699999999999932}",
      "curveMode": 4,
      "curveTo": "{0.86519856301612519, 0.60899999999998045}",
      "hasCurveFrom": true,
      "hasCurveTo": true,
      "point": "{0.59053993074243716, 0.73000000000001819}"
    },
    {
      "_class": "curvePoint",
      "cornerRadius": 0,
      "curveFrom": "{0.13119704573309088, 0.043000000000006366}",
      "curveMode": 3,
      "curveTo": "{-0.083478666848547378, 0.48399999999998045}",
      "hasCurveFrom": true,
      "hasCurveTo": true,
      "point": "{0.013598953179149718, 0.28300000000001546}"
    }
  ],
  "resizingConstraint": 63,
  "resizingType": 0,
  "rotation": 0,
  "shouldBreakMaskChain": false,
  "style": {
    "_class": "style",
    "do_objectID": "CF96E732-AB4C-4B48-9259-4E5EF00B2348",
    "endMarkerType": 0,
    "fills": [
      {
        "_class": "fill",
        "color": {
          "_class": "color",
          "alpha": 1,
          "blue": 0.1764705882352941,
          "green": 0.1764705882352941,
          "red": 0.1764705882352941
        },
        "fillType": 0,
        "isEnabled": true,
        "noiseIndex": 0,
        "noiseIntensity": 0,
        "patternFillType": 1,
        "patternTileScale": 1
      }
    ],
    "miterLimit": 10,
    "startMarkerType": 0,
    "windingRule": 1
  }
}