{
  "_class": "shapePath",
  "booleanOperation": -1,
  "clippingMaskMode": 0,
  "do_objectID": "C48CEB0F-115B-4507-A0D3-56BDD72B55D7",
  "edited": true,
  "exportOptions": {
    "_class": "exportOptions",
    "do_objectID": "CFCCA7DB-CF50-4E56-8A96-D5A376AD5228",
    "exportFormats": [
    ],
    "includedLayerIds": [
    ],
    "layerOptions": 0,
    "shouldTrim": false
  },
  "frame": {
    "_class": "rect",
    "constrainProportions": false,
    "do_objectID": "F1EA0E30-40D7-4BDF-A4EC-5F06C1E82C56",
    "height": 0.1213109807762223,
    "width": 0.1228123534258003,
    "x": 34.43284105702164,
    "y": 7.542565688378581
  },
  "hasClippingMask": false,
  "isClosed": true,
  "isFixedToViewport": false,
  "isFlippedHorizontal": false,
  "isFlippedVertical": false,
  "isLocked": false,
  "isVisible": true,
  "layerListExpandedType": 0,
  "name": "Path",
  "nameIsFixed": false,
  "pointRadiusBehaviour": 0,
  "points": [
    {
      "_class": "curvePoint",
      "cornerRadius": 0,
      "curveFrom": "{0.23237814428330467, 0.1938684553306616}",
      "curveMode": 4,
      "curveTo": "{-1.0141480462058166, 1.181260553687083}",
      "hasCurveFrom": true,
      "hasCurveTo": true,
      "point": "{0.40157788169856223, 0.5475112583303583}"
    },
    {
      "_class": "curvePoint",
      "cornerRadius": 0,
      "curveFrom": "{1.8569599980596481, 1.275520733692687}",
      "curveMode": 4,
      "curveTo": "{0.47163714797207146, 0.091586132345858121}",
      "hasCurveFrom": true,
      "hasCurveTo": true,
      "point": "{0.7320461188377736, 0}"
    }
  ],
  "resizingConstraint": 63,
  "resizingType": 0,
  "rotation": 0,
  "shouldBreakMaskChain": false,
  "style": {
    "_class": "style",
    "do_objectID": "58CBDA9A-C906-4674-ABC7-9615648F9646",
    "endMarkerType": 0,
    "fills": [
      {
        "_class": "fill",
        "color": {
          "_class": "color",
          "alpha": 1,
          "blue": 0.1764705882352941,
          "green": 0.1764705882352941,
          "red": 0.1764705882352941
        },
        "fillType": 0,
        "isEnabled": true,
        "noiseIndex": 0,
        "noiseIntensity": 0,
        "patternFillType": 1,
        "patternTileScale": 1
      }
    ],
    "miterLimit": 10,
    "startMarkerType": 0,
    "windingRule": 1
  }
}