{
  "_class": "shapePath",
  "booleanOperation": -1,
  "clippingMaskMode": 0,
  "do_objectID": "C87A2633-2D11-419F-96A9-E5B34403DD4D",
  "edited": true,
  "exportOptions": {
    "_class": "exportOptions",
    "do_objectID": "4F45761E-1FE5-460F-9982-812E11E09747",
    "exportFormats": [
    ],
    "includedLayerIds": [
    ],
    "layerOptions": 0,
    "shouldTrim": false
  },
  "frame": {
    "_class": "rect",
    "constrainProportions": false,
    "do_objectID": "489BAD79-767A-4399-9E56-325022925B89",
    "height": 0.1559511387455856,
    "width": 0.1059863482545502,
    "x": 15.73333286942213,
    "y": 20.80927959178545
  },
  "hasClippingMask": false,
  "isClosed": true,
  "isFixedToViewport": false,
  "isFlippedHorizontal": false,
  "isFlippedVertical": false,
  "isLocked": false,
  "isVisible": true,
  "layerListExpandedType": 0,
  "name": "Path",
  "nameIsFixed": false,
  "pointRadiusBehaviour": 0,
  "points": [
    {
      "_class": "curvePoint",
      "cornerRadius": 0,
      "curveFrom": "{0.61590948202325535, 0.71554862194489444}",
      "curveMode": 4,
      "curveTo": "{1.079909482023254, 0.42745709828393236}",
      "hasCurveFrom": true,
      "hasCurveTo": true,
      "point": "{0.46590948202327809, 0.49973998959959015}"
    },
    {
      "_class": "curvePoint",
      "cornerRadius": 0,
      "curveFrom": "{-0.03109051797673601, 0.78211128445138722}",
      "curveMode": 4,
      "curveTo": "{0.72990948202325967, 0.92615704628185347}",
      "hasCurveFrom": true,
      "hasCurveTo": true,
      "point": "{0.11890948202326967, 1}"
    },
    {
      "_class": "curvePoint",
      "cornerRadius": 0,
      "curveFrom": "{0.31790948202325353, 0.28289131565264641}",
      "curveMode": 4,
      "curveTo": "{-0.14509051797674033, 0.57202288091521836}",
      "hasCurveFrom": true,
      "hasCurveTo": true,
      "point": "{0.46590948202327809, 0.49973998959959015}"
    },
    {
      "_class": "curvePoint",
      "cornerRadius": 0,
      "curveFrom": "{0.96690948202325444, 0.21632865314612398}",
      "curveMode": 4,
      "curveTo": "{0.20290948202327286, 0.072802912116477492}",
      "hasCurveFrom": true,
      "hasCurveTo": true,
      "point": "{0.8159094820232724, 0}"
    }
  ],
  "resizingConstraint": 63,
  "resizingType": 0,
  "rotation": 0,
  "shouldBreakMaskChain": false,
  "style": {
    "_class": "style",
    "do_objectID": "FB05CFAC-8453-4E27-B35D-176EB708F67E",
    "endMarkerType": 0,
    "fills": [
      {
        "_class": "fill",
        "color": {
          "_class": "color",
          "alpha": 1,
          "blue": 0.1764705882352941,
          "green": 0.1764705882352941,
          "red": 0.1764705882352941
        },
        "fillType": 0,
        "isEnabled": true,
        "noiseIndex": 0,
        "noiseIntensity": 0,
        "patternFillType": 1,
        "patternTileScale": 1
      }
    ],
    "miterLimit": 10,
    "startMarkerType": 0,
    "windingRule": 1
  }
}