{
  "_class": "shapePath",
  "booleanOperation": -1,
  "clippingMaskMode": 0,
  "do_objectID": "D25BB7E6-9D99-4DB5-8C6A-14DE38BC4E5B",
  "edited": true,
  "exportOptions": {
    "_class": "exportOptions",
    "do_objectID": "6AEA252D-771A-43F6-80D8-CDFBB12C3FF2",
    "exportFormats": [
    ],
    "includedLayerIds": [
    ],
    "layerOptions": 0,
    "shouldTrim": false
  },
  "frame": {
    "_class": "rect",
    "constrainProportions": false,
    "do_objectID": "1761A399-AE16-4E68-94FE-8BD30F15CB60",
    "height": 0.764449316139836,
    "width": 0.7417087555389728,
    "x": 12.3473515922533,
    "y": 7.752344676841303
  },
  "hasClippingMask": false,
  "isClosed": true,
  "isFixedToViewport": false,
  "isFlippedHorizontal": false,
  "isFlippedVertical": false,
  "isLocked": false,
  "isVisible": true,
  "layerListExpandedType": 0,
  "name": "Path",
  "nameIsFixed": false,
  "pointRadiusBehaviour": 0,
  "points": [
    {
      "_class": "curvePoint",
      "cornerRadius": 0,
      "curveFrom": "{0.85296020370109682, 1}",
      "curveMode": 4,
      "curveTo": "{1.0174456009506174, 0.84840223506697554}",
      "hasCurveFrom": false,
      "hasCurveTo": true,
      "point": "{0.85296020370109682, 1}"
    },
    {
      "_class": "curvePoint",
      "cornerRadius": 0,
      "curveFrom": "{0.15967012281240772, -0.017052324991554249}",
      "curveMode": 4,
      "curveTo": "{0, 0.1296654559058443}",
      "hasCurveFrom": true,
      "hasCurveTo": false,
      "point": "{0, 0.1296654559058443}"
    },
    {
      "_class": "curvePoint",
      "cornerRadius": 0,
      "curveFrom": "{0.40426417660660108, 0.032808381459479313}",
      "curveMode": 4,
      "curveTo": "{0.29340342649764323, -0.038906166542427324}",
      "hasCurveFrom": true,
      "hasCurveTo": true,
      "point": "{0.4019659774434356, 0.062300458892212696}"
    },
    {
      "_class": "curvePoint",
      "cornerRadius": 0,
      "curveFrom": "{0.49619214313327875, 0.016258870382115317}",
      "curveMode": 3,
      "curveTo": "{0.4362200887801605, -0.0048523649024713126}",
      "hasCurveFrom": true,
      "hasCurveTo": true,
      "point": "{0.45427736791932838, 0.0016189182752133797}"
    },
    {
      "_class": "curvePoint",
      "cornerRadius": 0,
      "curveFrom": "{0.43206144267538416, 0.091368189887068976}",
      "curveMode": 4,
      "curveTo": "{0.45963983263338531, 0.080229095892693877}",
      "hasCurveFrom": false,
      "hasCurveTo": true,
      "point": "{0.43206144267538416, 0.091368189887068976}"
    },
    {
      "_class": "curvePoint",
      "cornerRadius": 0,
      "curveFrom": "{1.0440390484101201, 0.71568788661966021}",
      "curveMode": 4,
      "curveTo": "{0.93219335580266349, 0.60175086804858036}",
      "hasCurveFrom": true,
      "hasCurveTo": false,
      "point": "{0.93219335580266349, 0.60175086804858036}"
    }
  ],
  "resizingConstraint": 63,
  "resizingType": 0,
  "rotation": 0,
  "shouldBreakMaskChain": false,
  "style": {
    "_class": "style",
    "do_objectID": "12B49CE6-F02F-463B-B5B1-EAB53560EDD9",
    "endMarkerType": 0,
    "fills": [
      {
        "_class": "fill",
        "color": {
          "_class": "color",
          "alpha": 1,
          "blue": 0.1764705882352941,
          "green": 0.1764705882352941,
          "red": 0.1764705882352941
        },
        "fillType": 0,
        "isEnabled": true,
        "noiseIndex": 0,
        "noiseIntensity": 0,
        "patternFillType": 1,
        "patternTileScale": 1
      }
    ],
    "miterLimit": 10,
    "startMarkerType": 0,
    "windingRule": 1
  }
}