{
  "_class": "shapePath",
  "booleanOperation": -1,
  "clippingMaskMode": 0,
  "do_objectID": "D261C618-79E3-4758-A366-86E82C43C0DF",
  "edited": true,
  "exportOptions": {
    "_class": "exportOptions",
    "do_objectID": "735C9A1D-FDFF-4F98-8CE7-29411806DA98",
    "exportFormats": [
    ],
    "includedLayerIds": [
    ],
    "layerOptions": 0,
    "shouldTrim": false
  },
  "frame": {
    "_class": "rect",
    "constrainProportions": false,
    "do_objectID": "279CB14B-1573-42DE-8052-0490D04C7910",
    "height": 0.1541669863522479,
    "width": 0.1059863482545751,
    "x": 17.79102671388147,
    "y": 16.68772536748585
  },
  "hasClippingMask": false,
  "isClosed": true,
  "isFixedToViewport": false,
  "isFlippedHorizontal": false,
  "isFlippedVertical": false,
  "isLocked": false,
  "isVisible": true,
  "layerListExpandedType": 0,
  "name": "Path",
  "nameIsFixed": false,
  "pointRadiusBehaviour": 0,
  "points": [
    {
      "_class": "curvePoint",
      "cornerRadius": 0,
      "curveFrom": "{0.26584985091065505, 0.79484481851656363}",
      "curveMode": 4,
      "curveTo": "{0.71084985091067665, 0.93740136770121041}",
      "hasCurveFrom": true,
      "hasCurveTo": true,
      "point": "{0.36084985091065391, 1}"
    },
    {
      "_class": "curvePoint",
      "cornerRadius": 0,
      "curveFrom": "{-0.15115014908934654, 0.13519200420831332}",
      "curveMode": 4,
      "curveTo": "{0.17184985091066096, 0.59021567596002522}",
      "hasCurveFrom": true,
      "hasCurveTo": true,
      "point": "{0.075849850910657324, 0.38295633876907137}"
    },
    {
      "_class": "curvePoint",
      "cornerRadius": 0,
      "curveFrom": "{0.61584985091067779, 0.20673329826407078}",
      "curveMode": 4,
      "curveTo": "{0.17084985091065619, 0.063650710152555842}",
      "hasCurveFrom": true,
      "hasCurveTo": true,
      "point": "{0.52084985091067892, 0}"
    },
    {
      "_class": "curvePoint",
      "cornerRadius": 0,
      "curveFrom": "{1.0358498509106653, 0.86533403471856984}",
      "curveMode": 4,
      "curveTo": "{0.70984985091067188, 0.41136244082062406}",
      "hasCurveFrom": true,
      "hasCurveTo": true,
      "point": "{0.80484985091067074, 0.61704366123092869}"
    }
  ],
  "resizingConstraint": 63,
  "resizingType": 0,
  "rotation": 0,
  "shouldBreakMaskChain": false,
  "style": {
    "_class": "style",
    "do_objectID": "2132C9CE-BDF6-4952-8266-D24AEF3B0A35",
    "endMarkerType": 0,
    "fills": [
      {
        "_class": "fill",
        "color": {
          "_class": "color",
          "alpha": 1,
          "blue": 0.1764705882352941,
          "green": 0.1764705882352941,
          "red": 0.1764705882352941
        },
        "fillType": 0,
        "isEnabled": true,
        "noiseIndex": 0,
        "noiseIntensity": 0,
        "patternFillType": 1,
        "patternTileScale": 1
      }
    ],
    "miterLimit": 10,
    "startMarkerType": 0,
    "windingRule": 1
  }
}