{
  "_class": "shapePath",
  "booleanOperation": -1,
  "clippingMaskMode": 0,
  "do_objectID": "D8E62F62-D168-492E-80C9-167BEBC92833",
  "edited": true,
  "exportOptions": {
    "_class": "exportOptions",
    "do_objectID": "A09CAA7B-8614-4F40-AF21-0F3E4C15DD1C",
    "exportFormats": [
    ],
    "includedLayerIds": [
    ],
    "layerOptions": 0,
    "shouldTrim": false
  },
  "frame": {
    "_class": "rect",
    "constrainProportions": false,
    "do_objectID": "E3074E30-4217-4E74-8D84-D606C0624369",
    "height": 0.1067252338085893,
    "width": 0.1739770627230186,
    "x": 37.49853893578611,
    "y": 13.25242055038358
  },
  "hasClippingMask": false,
  "isClosed": true,
  "isFixedToViewport": false,
  "isFlippedHorizontal": false,
  "isFlippedVertical": false,
  "isLocked": false,
  "isVisible": true,
  "layerListExpandedType": 0,
  "name": "Path",
  "nameIsFixed": false,
  "pointRadiusBehaviour": 0,
  "points": [
    {
      "_class": "curvePoint",
      "cornerRadius": 0,
      "curveFrom": "{-0.076853668205303413, 0.21732875944980526}",
      "curveMode": 4,
      "curveTo": "{0.063115065489728575, 0.70440862856890796}",
      "hasCurveFrom": true,
      "hasCurveTo": true,
      "point": "{0.038853818315936109, 0.62310200455056797}"
    },
    {
      "_class": "curvePoint",
      "cornerRadius": 0,
      "curveFrom": "{0.53480969804206913, -0.0015152379078779289}",
      "curveMode": 4,
      "curveTo": "{0.085043500435298791, 0.10410738581681847}",
      "hasCurveFrom": true,
      "hasCurveTo": true,
      "point": "{0.27260160358666391, 4.5120737369537599e-06}"
    },
    {
      "_class": "curvePoint",
      "cornerRadius": 0,
      "curveFrom": "{1.0788215096701743, 0.65197725420194186}",
      "curveMode": 4,
      "curveTo": "{0.65284999679155742, 0.38146175746810002}",
      "hasCurveFrom": true,
      "hasCurveTo": true,
      "point": "{0.95984808602938132, 0.25988175893605864}"
    },
    {
      "_class": "curvePoint",
      "cornerRadius": 0,
      "curveFrom": "{0.62672249983515538, 0.92857175086241595}",
      "curveMode": 4,
      "curveTo": "{0.91319184146435295, 0.7902745025321789}",
      "hasCurveFrom": true,
      "hasCurveTo": true,
      "point": "{0.72703342564993179, 0.87917987645876605}"
    },
    {
      "_class": "curvePoint",
      "cornerRadius": 0,
      "curveFrom": "{0.54320782206375939, 0.45592950656900022}",
      "curveMode": 4,
      "curveTo": "{0.5208128246725765, 0.95440750055047363}",
      "hasCurveFrom": true,
      "hasCurveTo": true,
      "point": "{0.42096846130343923, 1}"
    }
  ],
  "resizingConstraint": 63,
  "resizingType": 0,
  "rotation": 0,
  "shouldBreakMaskChain": false,
  "style": {
    "_class": "style",
    "do_objectID": "8E39601C-1E3E-4065-83CC-4BFB450E9F7D",
    "endMarkerType": 0,
    "fills": [
      {
        "_class": "fill",
        "color": {
          "_class": "color",
          "alpha": 1,
          "blue": 0.1764705882352941,
          "green": 0.1764705882352941,
          "red": 0.1764705882352941
        },
        "fillType": 0,
        "isEnabled": true,
        "noiseIndex": 0,
        "noiseIntensity": 0,
        "patternFillType": 1,
        "patternTileScale": 1
      }
    ],
    "miterLimit": 10,
    "startMarkerType": 0,
    "windingRule": 1
  }
}