{
  "_class": "shapePath",
  "booleanOperation": -1,
  "clippingMaskMode": 0,
  "do_objectID": "E6701EAD-CB3B-4CDA-B0D9-3B8A7ADB1B8A",
  "edited": true,
  "exportOptions": {
    "_class": "exportOptions",
    "do_objectID": "D18C2B2C-2C23-4E6D-ABF9-32EC0FA0E71F",
    "exportFormats": [
    ],
    "includedLayerIds": [
    ],
    "layerOptions": 0,
    "shouldTrim": false
  },
  "frame": {
    "_class": "rect",
    "constrainProportions": false,
    "do_objectID": "8597CB76-9C92-49CC-914E-81BA040BC8DD",
    "height": 0.1058906030855624,
    "width": 0.1059863482545609,
    "x": 32.58015325941192,
    "y": 33.23695528330368
  },
  "hasClippingMask": false,
  "isClosed": true,
  "isFixedToViewport": false,
  "isFlippedHorizontal": false,
  "isFlippedVertical": false,
  "isLocked": false,
  "isVisible": true,
  "layerListExpandedType": 0,
  "name": "Path",
  "nameIsFixed": false,
  "pointRadiusBehaviour": 0,
  "points": [
    {
      "_class": "curvePoint",
      "cornerRadius": 0,
      "curveFrom": "{0.36116783073086672, 1.0710000000000264}",
      "curveMode": 4,
      "curveTo": "{0.86295780091543206, 0.60800000000000409}",
      "hasCurveFrom": true,
      "hasCurveTo": true,
      "point": "{0.58796109284576614, 0.72800000000000864}"
    },
    {
      "_class": "curvePoint",
      "cornerRadius": 0,
      "curveFrom": "{0.13042346648848835, 0.043000000000006366}",
      "curveMode": 3,
      "curveTo": "{-0.085306709669577957, 0.48500000000001364}",
      "hasCurveFrom": true,
      "hasCurveTo": true,
      "point": "{0.014261063941830351, 0.28300000000001546}"
    },
    {
      "_class": "curvePoint",
      "cornerRadius": 0,
      "curveFrom": "{1.1205696596243346, 0.47200000000003683}",
      "curveMode": 4,
      "curveTo": "{0.778404215388246, 0.20800000000002683}",
      "hasCurveFrom": true,
      "hasCurveTo": true,
      "point": "{0.93960918218770528, 0}"
    }
  ],
  "resizingConstraint": 63,
  "resizingType": 0,
  "rotation": 0,
  "shouldBreakMaskChain": false,
  "style": {
    "_class": "style",
    "do_objectID": "EDAECC3F-CF6A-4DB0-87E4-6A4D7E0D0FD7",
    "endMarkerType": 0,
    "fills": [
      {
        "_class": "fill",
        "color": {
          "_class": "color",
          "alpha": 1,
          "blue": 0.1764705882352941,
          "green": 0.1764705882352941,
          "red": 0.1764705882352941
        },
        "fillType": 0,
        "isEnabled": true,
        "noiseIndex": 0,
        "noiseIntensity": 0,
        "patternFillType": 1,
        "patternTileScale": 1
      }
    ],
    "miterLimit": 10,
    "startMarkerType": 0,
    "windingRule": 1
  }
}