{
  "_class": "shapePath",
  "booleanOperation": -1,
  "clippingMaskMode": 0,
  "do_objectID": "F3DB6FE9-D9C2-4E93-A0CD-60B1E4E9240C",
  "edited": true,
  "exportOptions": {
    "_class": "exportOptions",
    "do_objectID": "7D83B566-8800-465D-B7C8-F7196A0F0B9B",
    "exportFormats": [
    ],
    "includedLayerIds": [
    ],
    "layerOptions": 0,
    "shouldTrim": false
  },
  "frame": {
    "_class": "rect",
    "constrainProportions": false,
    "do_objectID": "F7BFC7FF-790D-4AF9-B121-2424470BD553",
    "height": 0.1312162987469438,
    "width": 0.1059863482545627,
    "x": 6.154288748646054,
    "y": 11.11005949670841
  },
  "hasClippingMask": false,
  "isClosed": true,
  "isFixedToViewport": false,
  "isFlippedHorizontal": false,
  "isFlippedVertical": false,
  "isLocked": false,
  "isVisible": true,
  "layerListExpandedType": 0,
  "name": "Path",
  "nameIsFixed": false,
  "pointRadiusBehaviour": 0,
  "points": [
    {
      "_class": "curvePoint",
      "cornerRadius": 0,
      "curveFrom": "{0.074229137882684024, 0.084054388133478167}",
      "curveMode": 4,
      "curveTo": "{-0.089112384519627316, 0.3603213844251989}",
      "hasCurveFrom": true,
      "hasCurveTo": true,
      "point": "{0.011049869783671739, 0.18912237330036102}"
    },
    {
      "_class": "curvePoint",
      "cornerRadius": 0,
      "curveFrom": "{0.47487815509589121, 0.19468479604449856}",
      "curveMode": 4,
      "curveTo": "{0.43250181673679644, 0.095797280593308526}",
      "hasCurveFrom": true,
      "hasCurveTo": true,
      "point": "{0.5172544934549751, 0}"
    },
    {
      "_class": "curvePoint",
      "cornerRadius": 0,
      "curveFrom": "{0.92406734170223914, 0.91470951792337629}",
      "curveMode": 4,
      "curveTo": "{1.0897203007423191, 0.63967861557476602}",
      "hasCurveFrom": true,
      "hasCurveTo": true,
      "point": "{0.98878756755976027, 0.80964153275649342}"
    },
    {
      "_class": "curvePoint",
      "cornerRadius": 0,
      "curveFrom": "{0.52572976112680059, 0.8059332509270567}",
      "curveMode": 4,
      "curveTo": "{0.56579466284811586, 0.90482076637824671}",
      "hasCurveFrom": true,
      "hasCurveTo": true,
      "point": "{0.48412390164696567, 1}"
    }
  ],
  "resizingConstraint": 63,
  "resizingType": 0,
  "rotation": 0,
  "shouldBreakMaskChain": false,
  "style": {
    "_class": "style",
    "do_objectID": "0E943C78-C5B4-44C2-BEC9-BA441ED8688E",
    "endMarkerType": 0,
    "fills": [
      {
        "_class": "fill",
        "color": {
          "_class": "color",
          "alpha": 1,
          "blue": 0.1764705882352941,
          "green": 0.1764705882352941,
          "red": 0.1764705882352941
        },
        "fillType": 0,
        "isEnabled": true,
        "noiseIndex": 0,
        "noiseIntensity": 0,
        "patternFillType": 1,
        "patternTileScale": 1
      }
    ],
    "miterLimit": 10,
    "startMarkerType": 0,
    "windingRule": 1
  }
}