{
  "_class": "shapePath",
  "booleanOperation": -1,
  "clippingMaskMode": 0,
  "do_objectID": "FA7A17C7-DF0E-4466-B7CE-EBFDC8321851",
  "edited": true,
  "exportOptions": {
    "_class": "exportOptions",
    "do_objectID": "23677E20-145D-4B11-BFCD-B0F9128AC3F1",
    "exportFormats": [
    ],
    "includedLayerIds": [
    ],
    "layerOptions": 0,
    "shouldTrim": false
  },
  "frame": {
    "_class": "rect",
    "constrainProportions": false,
    "do_objectID": "C6513151-AF20-43E4-A713-8F24D06E14B5",
    "height": 0.1058906030855553,
    "width": 0.1151019235947857,
    "x": 27.37214348373454,
    "y": 23.99188307016911
  },
  "hasClippingMask": false,
  "isClosed": true,
  "isFixedToViewport": false,
  "isFlippedHorizontal": false,
  "isFlippedVertical": false,
  "isLocked": false,
  "isVisible": true,
  "layerListExpandedType": 0,
  "name": "Path",
  "nameIsFixed": false,
  "pointRadiusBehaviour": 0,
  "points": [
    {
      "_class": "curvePoint",
      "cornerRadius": 0,
      "curveFrom": "{0.13038189031014527, 0.04500000000007276}",
      "curveMode": 3,
      "curveTo": "{-0.084707520948008833, 0.54200000000003001}",
      "hasCurveFrom": true,
      "hasCurveTo": true,
      "point": "{0.014022044875394343, 0.31700000000000728}"
    },
    {
      "_class": "curvePoint",
      "cornerRadius": 0,
      "curveFrom": "{1.1197931820976061, 0.52899999999999636}",
      "curveMode": 4,
      "curveTo": "{0.77635533526904388, 0.23200000000002774}",
      "hasCurveFrom": true,
      "hasCurveTo": true,
      "point": "{0.93925911887767111, 0}"
    },
    {
      "_class": "curvePoint",
      "cornerRadius": 0,
      "curveFrom": "{0.3623963699951307, 1.1990000000000691}",
      "curveMode": 4,
      "curveTo": "{0.8666223668790114, 0.68400000000002592}",
      "hasCurveFrom": true,
      "hasCurveTo": true,
      "point": "{0.58947437138898207, 0.81600000000003092}"
    }
  ],
  "resizingConstraint": 63,
  "resizingType": 0,
  "rotation": 0,
  "shouldBreakMaskChain": false,
  "style": {
    "_class": "style",
    "do_objectID": "9305B4A0-C088-42C8-ABBC-F71DD1D24ADE",
    "endMarkerType": 0,
    "fills": [
      {
        "_class": "fill",
        "color": {
          "_class": "color",
          "alpha": 1,
          "blue": 0.1764705882352941,
          "green": 0.1764705882352941,
          "red": 0.1764705882352941
        },
        "fillType": 0,
        "isEnabled": true,
        "noiseIndex": 0,
        "noiseIntensity": 0,
        "patternFillType": 1,
        "patternTileScale": 1
      }
    ],
    "miterLimit": 10,
    "startMarkerType": 0,
    "windingRule": 1
  }
}