{
  "_class": "symbolInstance",
  "booleanOperation": -1,
  "clippingMaskMode": 0,
  "do_objectID": "1D6CA2B0-3236-462B-A4C4-CB20CAF1AB32",
  "exportOptions": {
    "_class": "exportOptions",
    "do_objectID": "6D70ACEC-6B46-478D-8A00-8C2B75158B9A",
    "exportFormats": [
    ],
    "includedLayerIds": [
    ],
    "layerOptions": 0,
    "shouldTrim": false
  },
  "frame": {
    "_class": "rect",
    "constrainProportions": false,
    "do_objectID": "A7FA479C-F1B6-4970-A56B-954258BDAF94",
    "height": 24,
    "width": 8,
    "x": 67,
    "y": 0
  },
  "hasClippingMask": false,
  "horizontalSpacing": 0,
  "isFixedToViewport": false,
  "isFlippedHorizontal": false,
  "isFlippedVertical": false,
  "isLocked": false,
  "isVisible": true,
  "layerListExpandedType": 0,
  "name": "Spacer",
  "nameIsFixed": true,
  "overrideValues": [
  ],
  "resizingConstraint": 12,
  "resizingType": 0,
  "rotation": 0,
  "scale": 1,
  "shouldBreakMaskChain": false,
  "style": {
    "_class": "style",
    "do_objectID": "B954F6BE-915D-49D2-95D9-2D79397BC8A8",
    "endMarkerType": 0,
    "miterLimit": 10,
    "startMarkerType": 0,
    "windingRule": 1
  },
  "symbolID": "AE34D05D-6230-4F4B-B344-B7E8C3A8D445",
  "verticalSpacing": 0
}