{
  "_class": "symbolInstance",
  "booleanOperation": -1,
  "clippingMaskMode": 0,
  "do_objectID": "54D8D0F0-D6D2-4F31-8B51-C81F74357543",
  "exportOptions": {
    "_class": "exportOptions",
    "do_objectID": "2316F216-4AB1-43CA-960D-AB953E4178C1",
    "exportFormats": [
    ],
    "includedLayerIds": [
    ],
    "layerOptions": 0,
    "shouldTrim": false
  },
  "frame": {
    "_class": "rect",
    "constrainProportions": false,
    "do_objectID": "BAA41D12-5D83-4A99-9E95-137369D629AC",
    "height": 48,
    "width": 178,
    "x": 0,
    "y": 0
  },
  "hasClippingMask": false,
  "horizontalSpacing": 0,
  "isFixedToViewport": false,
  "isFlippedHorizontal": false,
  "isFlippedVertical": false,
  "isLocked": false,
  "isVisible": true,
  "layerListExpandedType": 0,
  "name": "Button / Primary / Default / Text + icon",
  "nameIsFixed": false,
  "overrideValues": [
  ],
  "resizingConstraint": 19,
  "resizingType": 0,
  "rotation": 0,
  "scale": 1,
  "shouldBreakMaskChain": false,
  "style": {
    "_class": "style",
    "do_objectID": "94FCAB57-7B2D-41C9-8A89-8B9BE7712412",
    "endMarkerType": 0,
    "miterLimit": 10,
    "startMarkerType": 0,
    "windingRule": 1
  },
  "symbolID": "C6FA0D9E-8440-444B-AB13-ADB3099BE6A1",
  "userInfo": {
    "com.animaapp.stc-sketch-plugin": {
      "kModelPropertiesKey": {
      }
    }
  },
  "verticalSpacing": 0
}