{
  "_class": "group",
  "booleanOperation": 0,
  "clippingMaskMode": 0,
  "do_objectID": "38868AF1-B195-48F6-9743-1CB11C294FD3",
  "exportOptions": {
    "_class": "exportOptions",
    "do_objectID": "19E3C4EA-437D-4826-B70E-BC6F8D46683A",
    "exportFormats": [
    ],
    "includedLayerIds": [
    ],
    "layerOptions": 0,
    "shouldTrim": false
  },
  "frame": {
    "_class": "rect",
    "constrainProportions": true,
    "do_objectID": "81BCF832-005D-44E3-9352-5F000298E666",
    "height": 22,
    "width": 24,
    "x": 1.953125,
    "y": 0
  },
  "groupLayout": {
    "_class": "MSImmutableFreeformGroupLayout",
    "do_objectID": "339AF687-A685-4788-B08E-7E9B84774078"
  },
  "hasClickThrough": false,
  "hasClippingMask": false,
  "isFixedToViewport": false,
  "isFlippedHorizontal": false,
  "isFlippedVertical": false,
  "isLocked": false,
  "isVisible": true,
  "layerListExpandedType": 0,
  "layers": [
    {
      "class": "shapePath",
      "id": "424AC707-E0D4-4C8B-A372-CADAAE14F2D2"
    },
    {
      "class": "shapeGroup",
      "id": "1782B6AC-5F29-40EF-A03E-18573D398985"
    }
  ],
  "name": "heart",
  "nameIsFixed": false,
  "resizingConstraint": 63,
  "resizingType": 0,
  "rotation": 0,
  "shouldBreakMaskChain": false,
  "style": {
    "_class": "style",
    "do_objectID": "733A4419-3BCE-4C38-A897-E56A5D9EE9AA",
    "endMarkerType": 0,
    "miterLimit": 10,
    "startMarkerType": 0,
    "windingRule": 1
  }
}