{
  "_class": "symbolInstance",
  "booleanOperation": -1,
  "clippingMaskMode": 0,
  "do_objectID": "6CAF37AD-FB0F-49F4-B833-7F73F6A84D2E",
  "exportOptions": {
    "_class": "exportOptions",
    "do_objectID": "42059E13-AD1A-4D57-BA3A-91BE56BE170D",
    "exportFormats": [
    ],
    "includedLayerIds": [
    ],
    "layerOptions": 0,
    "shouldTrim": false
  },
  "frame": {
    "_class": "rect",
    "constrainProportions": false,
    "do_objectID": "9DEC74AF-4B02-49CC-A0C1-A1CA4B679A98",
    "height": 24,
    "width": 1024,
    "x": 0,
    "y": 235
  },
  "hasClippingMask": false,
  "horizontalSpacing": 0,
  "isFixedToViewport": false,
  "isFlippedHorizontal": false,
  "isFlippedVertical": false,
  "isLocked": false,
  "isVisible": true,
  "layerListExpandedType": 0,
  "name": "row 5",
  "nameIsFixed": true,
  "overrideValues": [
  ],
  "resizingConstraint": 63,
  "resizingType": 0,
  "rotation": 0,
  "scale": 1,
  "shouldBreakMaskChain": false,
  "style": {
    "_class": "style",
    "do_objectID": "3A695DDE-6BF7-4E3E-B092-663AB872FC85",
    "endMarkerType": 0,
    "miterLimit": 10,
    "startMarkerType": 0,
    "windingRule": 1
  },
  "symbolID": "8EE3AED5-26D9-4774-A24E-AD5C7C5F1E7D",
  "verticalSpacing": 0
}