{
  "_class": "group",
  "booleanOperation": 0,
  "clippingMaskMode": 0,
  "do_objectID": "8DCDD56C-BFAC-438C-ACD3-7BC38EAD4B0B",
  "exportOptions": {
    "_class": "exportOptions",
    "do_objectID": "6BE2D5FC-3151-4422-A2B2-88E4C53FCC92",
    "exportFormats": [
    ],
    "includedLayerIds": [
    ],
    "layerOptions": 0,
    "shouldTrim": false
  },
  "frame": {
    "_class": "rect",
    "constrainProportions": false,
    "do_objectID": "00877E04-D1FD-4D15-814F-3B82E3D9E95D",
    "height": 5,
    "width": 14,
    "x": 3.030303030303031,
    "y": 0
  },
  "groupLayout": {
    "_class": "MSImmutableFreeformGroupLayout",
    "do_objectID": "19F26F4E-B6E1-4C37-BDA1-B3B59B6EF705"
  },
  "hasClickThrough": false,
  "hasClippingMask": false,
  "isFixedToViewport": false,
  "isFlippedHorizontal": false,
  "isFlippedVertical": false,
  "isLocked": false,
  "isVisible": true,
  "layerListExpandedType": 0,
  "layers": [
    {
      "class": "shapePath",
      "id": "82D20AE9-73AB-48EF-BCEC-5099C1236BF3"
    },
    {
      "class": "shapePath",
      "id": "C9394326-BCAF-494F-A2B3-700073BF930D"
    },
    {
      "class": "shapePath",
      "id": "C4E23816-D0DA-4555-A9BD-FF5AC0349E3A"
    },
    {
      "class": "shapePath",
      "id": "EE926C61-55EB-422C-9369-0A809ED0B3BE"
    },
    {
      "class": "shapePath",
      "id": "417F9143-3C69-4CCB-B757-7EAF30A37462"
    }
  ],
  "name": "Group",
  "nameIsFixed": false,
  "resizingConstraint": 63,
  "resizingType": 0,
  "rotation": 0,
  "shouldBreakMaskChain": false,
  "style": {
    "_class": "style",
    "do_objectID": "2740292A-D5A7-4101-91E1-980AE8F408C3",
    "endMarkerType": 0,
    "fills": [
      {
        "_class": "fill",
        "color": {
          "_class": "color",
          "alpha": 1,
          "blue": 0,
          "green": 0,
          "red": 0
        },
        "fillType": 0,
        "isEnabled": true,
        "noiseIndex": 0,
        "noiseIntensity": 0,
        "patternFillType": 1,
        "patternTileScale": 1
      }
    ],
    "miterLimit": 10,
    "startMarkerType": 0,
    "windingRule": 1
  }
}