{
  "_class": "shapeGroup",
  "booleanOperation": 0,
  "clippingMaskMode": 0,
  "do_objectID": "82017FDF-9026-4CCA-A25A-59DC57BE0B00",
  "exportOptions": {
    "_class": "exportOptions",
    "do_objectID": "2C12676C-AAA9-41B1-9AEF-0508BB3709CE",
    "exportFormats": [
    ],
    "includedLayerIds": [
    ],
    "layerOptions": 0,
    "shouldTrim": false
  },
  "frame": {
    "_class": "rect",
    "constrainProportions": false,
    "do_objectID": "C0872099-9CDA-4C8A-9B66-1321E3995B5B",
    "height": 8.204862373608961,
    "width": 8.277911040104083,
    "x": 7.243172160091068,
    "y": 11.28168576371202
  },
  "groupLayout": {
    "_class": "MSImmutableFreeformGroupLayout",
    "do_objectID": "72F6D767-5B00-49A9-8CEC-7BCA7578F463"
  },
  "hasClickThrough": false,
  "hasClippingMask": false,
  "isFixedToViewport": false,
  "isFlippedHorizontal": false,
  "isFlippedVertical": false,
  "isLocked": false,
  "isVisible": true,
  "layerListExpandedType": 0,
  "layers": [
    {
      "class": "shapePath",
      "id": "90DF5F75-90EA-4B4E-A2E5-248D3DD26492"
    },
    {
      "class": "shapePath",
      "id": "8278E009-76FA-47F4-9A12-E3802EEF7082"
    }
  ],
  "name": "Oval",
  "nameIsFixed": false,
  "resizingConstraint": 63,
  "resizingType": 0,
  "rotation": 0,
  "shouldBreakMaskChain": false,
  "style": {
    "_class": "style",
    "do_objectID": "410753F5-D7C2-4408-B1EE-7426DD47BEBC",
    "endMarkerType": 0,
    "fills": [
      {
        "_class": "fill",
        "color": {
          "_class": "color",
          "alpha": 1,
          "blue": 0.1764705882352941,
          "green": 0.1764705882352941,
          "red": 0.1764705882352941
        },
        "fillType": 0,
        "isEnabled": true,
        "noiseIndex": 0,
        "noiseIntensity": 0,
        "patternFillType": 1,
        "patternTileScale": 1
      }
    ],
    "miterLimit": 10,
    "startMarkerType": 0,
    "windingRule": 0
  },
  "windingRule": 0
}