{
  "_class": "symbolInstance",
  "booleanOperation": -1,
  "clippingMaskMode": 0,
  "do_objectID": "4DE6E60B-856D-4031-8363-D0A0439FDA09",
  "exportOptions": {
    "_class": "exportOptions",
    "do_objectID": "B0A1975B-D76A-4079-A649-204BAB882681",
    "exportFormats": [
    ],
    "includedLayerIds": [
    ],
    "layerOptions": 0,
    "shouldTrim": false
  },
  "frame": {
    "_class": "rect",
    "constrainProportions": false,
    "do_objectID": "F93EA2D1-CD88-4C72-9D66-E2C8607E98E6",
    "height": 24,
    "width": 200,
    "x": 0,
    "y": 0
  },
  "hasClippingMask": false,
  "horizontalSpacing": 0,
  "isFixedToViewport": false,
  "isFlippedHorizontal": false,
  "isFlippedVertical": false,
  "isLocked": false,
  "isVisible": true,
  "layerListExpandedType": 0,
  "name": "column header 1",
  "nameIsFixed": true,
  "overrideValues": [
  ],
  "resizingConstraint": 63,
  "resizingType": 0,
  "rotation": 0,
  "scale": 1,
  "shouldBreakMaskChain": false,
  "style": {
    "_class": "style",
    "do_objectID": "EC24B78C-746F-4669-BF2D-39843DD8E5AA",
    "endMarkerType": 0,
    "miterLimit": 10,
    "startMarkerType": 0,
    "windingRule": 1
  },
  "symbolID": "0B7AE07B-DC5F-4C9A-BD6A-C955C2DD0D55",
  "verticalSpacing": 0
}