{
  "_class": "symbolInstance",
  "booleanOperation": 0,
  "clippingMaskMode": 0,
  "do_objectID": "70371A5C-1D51-4258-9D1A-FAF17F2F95CE",
  "exportOptions": {
    "_class": "exportOptions",
    "do_objectID": "BDC03268-CF7C-4B95-BBF3-0B605E651F43",
    "exportFormats": [
    ],
    "includedLayerIds": [
    ],
    "layerOptions": 0,
    "shouldTrim": false
  },
  "frame": {
    "_class": "rect",
    "constrainProportions": false,
    "do_objectID": "372FDF40-1657-4C91-92B0-4EFD82A087CA",
    "height": 569,
    "width": 391,
    "x": 404,
    "y": 1091
  },
  "hasClippingMask": false,
  "horizontalSpacing": 0,
  "isFixedToViewport": false,
  "isFlippedHorizontal": false,
  "isFlippedVertical": false,
  "isLocked": false,
  "isVisible": true,
  "layerListExpandedType": 0,
  "name": "Product Cell PLP 2 col",
  "nameIsFixed": false,
  "overrideValues": [
    {
      "_class": "overrideValue",
      "overrideName": "E063B62F-3B29-4B8A-8E71-B710958D66C1_image",
      "value": {
        "_class": "MSJSONFileReference",
        "_ref": "images/4985d952b3c79b74e9b485092239316e28f4d618.png",
        "_ref_class": "MSImageData"
      }
    }
  ],
  "resizingConstraint": 63,
  "resizingType": 0,
  "rotation": 0,
  "scale": 1,
  "shouldBreakMaskChain": false,
  "style": {
    "_class": "style",
    "do_objectID": "596C1C21-4343-47BA-A3FE-550FFCA2D44F",
    "endMarkerType": 0,
    "miterLimit": 10,
    "startMarkerType": 0,
    "windingRule": 1
  },
  "symbolID": "EF178F48-99C3-4DEC-993B-C14CA23A1281",
  "verticalSpacing": 0
}