{
  "_class": "group",
  "booleanOperation": 0,
  "clippingMaskMode": 0,
  "do_objectID": "758EAB2D-117F-4F27-B7D4-F6E2C3E45581",
  "exportOptions": {
    "_class": "exportOptions",
    "do_objectID": "C049A7A8-E30A-4E20-8BF9-75536D200D32",
    "exportFormats": [
    ],
    "includedLayerIds": [
    ],
    "layerOptions": 0,
    "shouldTrim": false
  },
  "frame": {
    "_class": "rect",
    "constrainProportions": false,
    "do_objectID": "96948D8C-2891-4C31-A6A1-B2CC99A9E147",
    "height": 483,
    "width": 60,
    "x": 117,
    "y": 170
  },
  "groupLayout": {
    "_class": "MSImmutableFreeformGroupLayout",
    "do_objectID": "A38ED17F-74B9-417C-8014-5275B262E70F"
  },
  "hasClickThrough": false,
  "hasClippingMask": false,
  "isFixedToViewport": false,
  "isFlippedHorizontal": false,
  "isFlippedVertical": false,
  "isLocked": false,
  "isVisible": true,
  "layerListExpandedType": 0,
  "layers": [
    {
      "class": "group",
      "id": "70A107B9-457D-4446-BBE6-9F5ECB0AE036"
    }
  ],
  "name": "Group 13",
  "nameIsFixed": false,
  "resizingConstraint": 63,
  "resizingType": 0,
  "rotation": 0,
  "shouldBreakMaskChain": false,
  "style": {
    "_class": "style",
    "do_objectID": "C3DE6D2F-AE42-45BB-9B90-A6F324396CEA",
    "endMarkerType": 0,
    "miterLimit": 10,
    "startMarkerType": 0,
    "windingRule": 1
  }
}