{
  "_class": "group",
  "booleanOperation": 0,
  "clippingMaskMode": 0,
  "do_objectID": "CCDE0D2A-C1BC-4C27-8380-76BAB5E61878",
  "exportOptions": {
    "_class": "exportOptions",
    "do_objectID": "F8096225-D111-4185-B2B2-AEC403D36994",
    "exportFormats": [
    ],
    "includedLayerIds": [
    ],
    "layerOptions": 0,
    "shouldTrim": false
  },
  "frame": {
    "_class": "rect",
    "constrainProportions": true,
    "do_objectID": "C7DDBFB0-1874-4D23-8EA0-BCCA46E1073A",
    "height": 12,
    "width": 13,
    "x": 28.94545454545452,
    "y": 0
  },
  "groupLayout": {
    "_class": "MSImmutableFreeformGroupLayout",
    "do_objectID": "597AAAAB-ECD5-4B08-B502-B22C6A3C75E6"
  },
  "hasClickThrough": false,
  "hasClippingMask": false,
  "isFixedToViewport": false,
  "isFlippedHorizontal": false,
  "isFlippedVertical": false,
  "isLocked": false,
  "isVisible": true,
  "layerListExpandedType": 0,
  "layers": [
    {
      "class": "shapeGroup",
      "id": "63C75FA6-6507-4BD9-9F78-B21FC069967E"
    }
  ],
  "name": "star border icon",
  "nameIsFixed": true,
  "resizingConstraint": 63,
  "resizingType": 0,
  "rotation": 0,
  "shouldBreakMaskChain": false,
  "style": {
    "_class": "style",
    "do_objectID": "46413EA2-8F8F-4839-93EC-EC9324CEBC66",
    "endMarkerType": 0,
    "miterLimit": 10,
    "startMarkerType": 0,
    "windingRule": 1
  }
}