{
  "_class": "symbolInstance",
  "booleanOperation": -1,
  "clippingMaskMode": 0,
  "do_objectID": "FDB10487-0A16-4E43-93D2-535B0534D092",
  "exportOptions": {
    "_class": "exportOptions",
    "do_objectID": "35085A7A-B5BF-49EC-AE71-CF6FDBE09D73",
    "exportFormats": [
    ],
    "includedLayerIds": [
    ],
    "layerOptions": 0,
    "shouldTrim": false
  },
  "frame": {
    "_class": "rect",
    "constrainProportions": false,
    "do_objectID": "94F71833-CAE6-4083-B91C-9FDC3366EBAF",
    "height": 64,
    "width": 200,
    "x": 600,
    "y": 0
  },
  "hasClippingMask": false,
  "horizontalSpacing": 0,
  "isFixedToViewport": false,
  "isFlippedHorizontal": false,
  "isFlippedVertical": false,
  "isLocked": false,
  "isVisible": true,
  "layerListExpandedType": 0,
  "name": "column 4",
  "nameIsFixed": true,
  "overrideValues": [
  ],
  "resizingConstraint": 63,
  "resizingType": 0,
  "rotation": 0,
  "scale": 1,
  "shouldBreakMaskChain": false,
  "style": {
    "_class": "style",
    "do_objectID": "9236ADDF-EEEE-4834-9ED9-04B4A82EF870",
    "endMarkerType": 0,
    "miterLimit": 10,
    "startMarkerType": 0,
    "windingRule": 1
  },
  "symbolID": "5B3AAD20-C221-49C9-BFE1-F594ACD86FBD",
  "verticalSpacing": 0
}