{
  "_class": "symbolInstance",
  "booleanOperation": -1,
  "clippingMaskMode": 0,
  "do_objectID": "CA144BD7-BF41-420F-B977-8BB69A7EF8CE",
  "exportOptions": {
    "_class": "exportOptions",
    "do_objectID": "062988F5-AD95-404E-B93F-FF3133A1BFED",
    "exportFormats": [
    ],
    "includedLayerIds": [
    ],
    "layerOptions": 0,
    "shouldTrim": false
  },
  "frame": {
    "_class": "rect",
    "constrainProportions": false,
    "do_objectID": "45EDAE92-C6E7-47BF-B013-F7DE7FB2DCCD",
    "height": 32,
    "width": 512,
    "x": 1,
    "y": 591
  },
  "hasClippingMask": false,
  "horizontalSpacing": 0,
  "isFixedToViewport": false,
  "isFlippedHorizontal": false,
  "isFlippedVertical": false,
  "isLocked": false,
  "isVisible": true,
  "layerListExpandedType": 0,
  "name": "component / search / small / 06 disabled",
  "nameIsFixed": false,
  "overrideValues": [
  ],
  "resizingConstraint": 63,
  "resizingType": 0,
  "rotation": 0,
  "scale": 1,
  "shouldBreakMaskChain": false,
  "style": {
    "_class": "style",
    "do_objectID": "10FA9927-8FF1-4876-AAF6-0258B0EB0B58",
    "endMarkerType": 0,
    "miterLimit": 10,
    "startMarkerType": 0,
    "windingRule": 1
  },
  "symbolID": "4B26DD52-55F6-480D-91B9-2CE230A4EE8F",
  "verticalSpacing": 0
}