{
  "_class": "group",
  "booleanOperation": -1,
  "clippingMaskMode": 0,
  "do_objectID": "A91826F3-DA49-42CF-BDD7-BAE8345B409F",
  "exportOptions": {
    "_class": "exportOptions",
    "do_objectID": "68511E52-A1F3-40E8-9BBB-9D162741BED6",
    "exportFormats": [
    ],
    "includedLayerIds": [
    ],
    "layerOptions": 0,
    "shouldTrim": false
  },
  "frame": {
    "_class": "rect",
    "constrainProportions": false,
    "do_objectID": "C74A7797-8262-433F-84C7-F5D753B2940F",
    "height": 1931,
    "width": 513,
    "x": 223,
    "y": 126
  },
  "groupLayout": {
    "_class": "MSImmutableFreeformGroupLayout",
    "do_objectID": "24079762-03CD-412C-8E57-85B9CF56CD0B"
  },
  "hasClickThrough": false,
  "hasClippingMask": false,
  "isFixedToViewport": false,
  "isFlippedHorizontal": false,
  "isFlippedVertical": false,
  "isLocked": false,
  "isVisible": true,
  "layerListExpandedType": 0,
  "layers": [
    {
      "class": "group",
      "id": "9DD3E990-5483-4134-B604-558AB78D43EB"
    },
    {
      "class": "group",
      "id": "D47EC195-6CDF-41DF-8511-6974D571EC5B"
    },
    {
      "class": "group",
      "id": "82DF556D-D9FF-4E3A-97A7-E5074EF38EF6"
    },
    {
      "class": "group",
      "id": "E9007AD7-49BA-46DD-BBB5-D7B90D5347B3"
    },
    {
      "class": "group",
      "id": "796A2641-A25A-48FD-8CE3-87DF99BB559B"
    },
    {
      "class": "group",
      "id": "A066E4D2-818B-4D3A-8054-44FBDA1EC5D3"
    },
    {
      "class": "group",
      "id": "6F21FE3A-9988-43A5-97D6-FFA1DF187387"
    },
    {
      "class": "symbolInstance",
      "id": "FF2942FC-4C91-4BC8-A6B1-ADA0118D8B58"
    },
    {
      "class": "symbolInstance",
      "id": "CA144BD7-BF41-420F-B977-8BB69A7EF8CE"
    },
    {
      "class": "symbolInstance",
      "id": "E3E37B08-35A8-46C5-91E6-B7690294FE80"
    },
    {
      "class": "symbolInstance",
      "id": "A4DD238C-7DD5-4E96-A662-1C3ED8EA8E2B"
    },
    {
      "class": "symbolInstance",
      "id": "7F1D754B-D110-4677-98BF-6C6126DB682F"
    },
    {
      "class": "symbolInstance",
      "id": "9FE2CD24-2CC9-44C7-B4FB-5D14EEB50F89"
    }
  ],
  "name": "Small - Gray 100",
  "nameIsFixed": true,
  "resizingConstraint": 63,
  "resizingType": 0,
  "rotation": 0,
  "shouldBreakMaskChain": false,
  "style": {
    "_class": "style",
    "do_objectID": "661A53D6-F8A4-400B-837F-687BED93EAA6",
    "endMarkerType": 0,
    "miterLimit": 10,
    "startMarkerType": 0,
    "windingRule": 1
  }
}