{
  "_class": "shapePath",
  "booleanOperation": 0,
  "clippingMaskMode": 0,
  "do_objectID": "58901A43-7197-4F52-9601-CCBAB10E06E9",
  "edited": true,
  "exportOptions": {
    "_class": "exportOptions",
    "exportFormats": [
    ],
    "includedLayerIds": [
    ],
    "layerOptions": 0,
    "shouldTrim": false
  },
  "frame": {
    "_class": "rect",
    "constrainProportions": false,
    "height": 8.5,
    "width": 21.5,
    "x": 0.5,
    "y": 0.5
  },
  "hasClippingMask": false,
  "isClosed": true,
  "isFixedToViewport": false,
  "isFlippedHorizontal": false,
  "isFlippedVertical": false,
  "isLocked": false,
  "isVisible": true,
  "layerListExpandedType": 0,
  "maintainScrollPosition": false,
  "name": "Shape",
  "nameIsFixed": false,
  "pointRadiusBehaviour": 0,
  "points": [
    {
      "_class": "curvePoint",
      "cornerRadius": 0,
      "curveFrom": "{0, 0.92125144480824617}",
      "curveMode": 4,
      "curveTo": "{0, 0.82452808145214529}",
      "hasCurveFrom": true,
      "hasCurveTo": false,
      "point": "{0, 0.82452808145214529}"
    },
    {
      "_class": "curvePoint",
      "cornerRadius": 0,
      "curveFrom": "{0.069615111794582629, 1}",
      "curveMode": 4,
      "curveTo": "{0.03119185898516471, 1}",
      "hasCurveFrom": false,
      "hasCurveTo": true,
      "point": "{0.069615111794582629, 1}"
    },
    {
      "_class": "curvePoint",
      "cornerRadius": 0,
      "curveFrom": "{0.96879005198529733, 1}",
      "curveMode": 4,
      "curveTo": "{0.93038488820541732, 1}",
      "hasCurveFrom": true,
      "hasCurveTo": false,
      "point": "{0.93038488820541732, 1}"
    },
    {
      "_class": "curvePoint",
      "cornerRadius": 0,
      "curveFrom": "{1, 0.82452808145214529}",
      "curveMode": 4,
      "curveTo": "{1, 0.92131631636425571}",
      "hasCurveFrom": false,
      "hasCurveTo": true,
      "point": "{1, 0.82452808145214529}"
    },
    {
      "_class": "curvePoint",
      "cornerRadius": 0,
      "curveFrom": "{1, 0.078748555191753736}",
      "curveMode": 4,
      "curveTo": "{1, 0.17547191854785471}",
      "hasCurveFrom": true,
      "hasCurveTo": false,
      "point": "{1, 0.17547191854785471}"
    },
    {
      "_class": "curvePoint",
      "cornerRadius": 0,
      "curveFrom": "{0.93038488820541732, 0}",
      "curveMode": 4,
      "curveTo": "{0.96880814101483526, 0}",
      "hasCurveFrom": false,
      "hasCurveTo": true,
      "point": "{0.93038488820541732, 0}"
    },
    {
      "_class": "curvePoint",
      "cornerRadius": 0,
      "curveFrom": "{0.03120994801470274, 0}",
      "curveMode": 4,
      "curveTo": "{0.069615111794582629, 0}",
      "hasCurveFrom": true,
      "hasCurveTo": false,
      "point": "{0.069615111794582629, 0}"
    },
    {
      "_class": "curvePoint",
      "cornerRadius": 0,
      "curveFrom": "{0, 0.17547191854785471}",
      "curveMode": 4,
      "curveTo": "{0, 0.078683683635744447}",
      "hasCurveFrom": false,
      "hasCurveTo": true,
      "point": "{0, 0.17547191854785471}"
    }
  ],
  "resizingConstraint": 63,
  "resizingType": 0,
  "rotation": 0,
  "shouldBreakMaskChain": false,
  "style": {
    "_class": "style",
    "blur": {
      "_class": "blur",
      "center": "{0.5, 0.5}",
      "isEnabled": false,
      "motionAngle": 0,
      "radius": 10,
      "saturation": 1,
      "type": 0
    },
    "borderOptions": {
      "_class": "borderOptions",
      "dashPattern": [
      ],
      "isEnabled": true,
      "lineCapStyle": 0,
      "lineJoinStyle": 0
    },
    "borders": [
    ],
    "colorControls": {
      "_class": "colorControls",
      "brightness": 0,
      "contrast": 1,
      "hue": 0,
      "isEnabled": false,
      "saturation": 1
    },
    "contextSettings": {
      "_class": "graphicsContextSettings",
      "blendMode": 0,
      "opacity": 1
    },
    "do_objectID": "2BB4068D-9E2F-4C7E-B737-0B7308E5B104",
    "endMarkerType": 0,
    "fills": [
      {
        "_class": "fill",
        "color": {
          "_class": "color",
          "alpha": 1,
          "blue": 0,
          "green": 0,
          "red": 0
        },
        "contextSettings": {
          "_class": "graphicsContextSettings",
          "blendMode": 0,
          "opacity": 1
        },
        "fillType": 0,
        "gradient": {
          "_class": "gradient",
          "elipseLength": 0,
          "from": "{0.5, 0}",
          "gradientType": 0,
          "stops": [
            {
              "_class": "gradientStop",
              "color": {
                "_class": "color",
                "alpha": 1,
                "blue": 1,
                "green": 1,
                "red": 1
              },
              "position": 0
            },
            {
              "_class": "gradientStop",
              "color": {
                "_class": "color",
                "alpha": 1,
                "blue": 0,
                "green": 0,
                "red": 0
              },
              "position": 1
            }
          ],
          "to": "{0.5, 1}"
        },
        "isEnabled": true,
        "noiseIndex": 0,
        "noiseIntensity": 0,
        "patternFillType": 1,
        "patternTileScale": 1
      }
    ],
    "innerShadows": [
    ],
    "miterLimit": 10,
    "shadows": [
    ],
    "startMarkerType": 0,
    "windingRule": 0
  }
}