{
  "_class": "shapePath",
  "booleanOperation": -1,
  "clippingMaskMode": 0,
  "do_objectID": "F7A31811-74C8-4A82-ADCE-587A023B06B5",
  "edited": true,
  "exportOptions": {
    "_class": "exportOptions",
    "exportFormats": [
    ],
    "includedLayerIds": [
    ],
    "layerOptions": 0,
    "shouldTrim": false
  },
  "frame": {
    "_class": "rect",
    "constrainProportions": false,
    "height": 9.5,
    "width": 22.5,
    "x": 0,
    "y": 0
  },
  "hasClippingMask": false,
  "isClosed": true,
  "isFixedToViewport": false,
  "isFlippedHorizontal": false,
  "isFlippedVertical": false,
  "isLocked": false,
  "isVisible": true,
  "layerListExpandedType": 0,
  "maintainScrollPosition": false,
  "name": "Shape",
  "nameIsFixed": false,
  "pointRadiusBehaviour": 0,
  "points": [
    {
      "_class": "curvePoint",
      "cornerRadius": 0,
      "curveFrom": "{0.088743329048156738, 0}",
      "curveMode": 4,
      "curveTo": "{0.039818281307816505, 0}",
      "hasCurveFrom": false,
      "hasCurveTo": true,
      "point": "{0.088743329048156738, 0}"
    },
    {
      "_class": "curvePoint",
      "cornerRadius": 0,
      "curveFrom": "{0.96026825823162354, 0}",
      "curveMode": 4,
      "curveTo": "{0.91125667095184326, 0}",
      "hasCurveFrom": true,
      "hasCurveTo": false,
      "point": "{0.91125667095184326, 0}"
    },
    {
      "_class": "curvePoint",
      "cornerRadius": 0,
      "curveFrom": "{1, 0.20963276922702789}",
      "curveMode": 4,
      "curveTo": "{1, 0.094077572226524353}",
      "hasCurveFrom": false,
      "hasCurveTo": true,
      "point": "{1, 0.20963276922702789}"
    },
    {
      "_class": "curvePoint",
      "cornerRadius": 0,
      "curveFrom": "{1, 0.90614421227540232}",
      "curveMode": 4,
      "curveTo": "{1, 0.79036723077297211}",
      "hasCurveFrom": true,
      "hasCurveTo": false,
      "point": "{1, 0.79036723077297211}"
    },
    {
      "_class": "curvePoint",
      "cornerRadius": 0,
      "curveFrom": "{0.91125667095184326, 1}",
      "curveMode": 4,
      "curveTo": "{0.96018171869218349, 1}",
      "hasCurveFrom": false,
      "hasCurveTo": true,
      "point": "{0.91125667095184326, 1}"
    },
    {
      "_class": "curvePoint",
      "cornerRadius": 0,
      "curveFrom": "{0.039731741768376426, 1}",
      "curveMode": 4,
      "curveTo": "{0.088743329048156738, 1}",
      "hasCurveFrom": true,
      "hasCurveTo": false,
      "point": "{0.088743329048156738, 1}"
    },
    {
      "_class": "curvePoint",
      "cornerRadius": 0,
      "curveFrom": "{0, 0.79036723077297211}",
      "curveMode": 4,
      "curveTo": "{0, 0.90592242777347565}",
      "hasCurveFrom": false,
      "hasCurveTo": true,
      "point": "{0, 0.79036723077297211}"
    },
    {
      "_class": "curvePoint",
      "cornerRadius": 0,
      "curveFrom": "{0, 0.09385578772459767}",
      "curveMode": 1,
      "curveTo": "{0, 0.20963276922702789}",
      "hasCurveFrom": true,
      "hasCurveTo": false,
      "point": "{0, 0.20963276922702789}"
    }
  ],
  "resizingConstraint": 63,
  "resizingType": 0,
  "rotation": 0,
  "shouldBreakMaskChain": false,
  "style": {
    "_class": "style",
    "blur": {
      "_class": "blur",
      "center": "{0.5, 0.5}",
      "isEnabled": false,
      "motionAngle": 0,
      "radius": 10,
      "saturation": 1,
      "type": 0
    },
    "borderOptions": {
      "_class": "borderOptions",
      "dashPattern": [
      ],
      "isEnabled": true,
      "lineCapStyle": 0,
      "lineJoinStyle": 0
    },
    "borders": [
    ],
    "colorControls": {
      "_class": "colorControls",
      "brightness": 0,
      "contrast": 1,
      "hue": 0,
      "isEnabled": false,
      "saturation": 1
    },
    "contextSettings": {
      "_class": "graphicsContextSettings",
      "blendMode": 0,
      "opacity": 1
    },
    "do_objectID": "11C957E8-E3B1-41DE-B385-6C053587AD1D",
    "endMarkerType": 0,
    "fills": [
      {
        "_class": "fill",
        "color": {
          "_class": "color",
          "alpha": 1,
          "blue": 0,
          "green": 0,
          "red": 0
        },
        "contextSettings": {
          "_class": "graphicsContextSettings",
          "blendMode": 0,
          "opacity": 1
        },
        "fillType": 0,
        "gradient": {
          "_class": "gradient",
          "elipseLength": 0,
          "from": "{0.5, 0}",
          "gradientType": 0,
          "stops": [
            {
              "_class": "gradientStop",
              "color": {
                "_class": "color",
                "alpha": 1,
                "blue": 1,
                "green": 1,
                "red": 1
              },
              "position": 0
            },
            {
              "_class": "gradientStop",
              "color": {
                "_class": "color",
                "alpha": 1,
                "blue": 0,
                "green": 0,
                "red": 0
              },
              "position": 1
            }
          ],
          "to": "{0.5, 1}"
        },
        "isEnabled": true,
        "noiseIndex": 0,
        "noiseIntensity": 0,
        "patternFillType": 1,
        "patternTileScale": 1
      }
    ],
    "innerShadows": [
    ],
    "miterLimit": 10,
    "shadows": [
    ],
    "startMarkerType": 0,
    "windingRule": 0
  }
}