{
  "_class": "symbolInstance",
  "booleanOperation": -1,
  "clippingMaskMode": 0,
  "do_objectID": "99265876-5257-4296-97FD-23EA79C2737B",
  "exportOptions": {
    "_class": "exportOptions",
    "exportFormats": [
    ],
    "includedLayerIds": [
    ],
    "layerOptions": 0,
    "shouldTrim": false
  },
  "frame": {
    "_class": "rect",
    "constrainProportions": false,
    "height": 320,
    "width": 170,
    "x": 160,
    "y": 388
  },
  "hasClippingMask": false,
  "horizontalSpacing": 0,
  "isFixedToViewport": false,
  "isFlippedHorizontal": false,
  "isFlippedVertical": false,
  "isLocked": false,
  "isVisible": true,
  "layerListExpandedType": 0,
  "maintainScrollPosition": false,
  "name": "m-Paymentoption",
  "nameIsFixed": false,
  "overrideValues": [
    {
      "_class": "overrideValue",
      "overrideName": "967B9A03-103F-4373-9F26-8CD6E7419B62_symbolID",
      "value": "4727D15F-D3AA-4FBE-8322-7E150456940F"
    },
    {
      "_class": "overrideValue",
      "overrideName": "967B9A03-103F-4373-9F26-8CD6E7419B62/3BDB7C43-A9C4-4708-9419-B6566C2FC628_stringValue",
      "value": "Saved Cards"
    },
    {
      "_class": "overrideValue",
      "overrideName": "AED711F3-AC51-40D9-9D99-ACF37B33B99C/3BDB7C43-A9C4-4708-9419-B6566C2FC628_stringValue",
      "value": "Credit Card"
    },
    {
      "_class": "overrideValue",
      "overrideName": "5BBB4AD0-04F8-4CDB-8AC4-297A50B4207B/3BDB7C43-A9C4-4708-9419-B6566C2FC628_stringValue",
      "value": "Debit Card"
    },
    {
      "_class": "overrideValue",
      "overrideName": "727E2AAD-9FD3-4FBE-9644-D2A90B0C8A0B/3BDB7C43-A9C4-4708-9419-B6566C2FC628_stringValue",
      "value": "Net Banking"
    },
    {
      "_class": "overrideValue",
      "overrideName": "988E958C-4388-4B89-8212-906C564D9494_symbolID",
      "value": "F80EA31F-27E9-4449-AEF9-A36E40A83BD4"
    },
    {
      "_class": "overrideValue",
      "overrideName": "988E958C-4388-4B89-8212-906C564D9494/E569EBAB-9FD3-4AE9-9FA2-AD33EF32AE80/4FC6DE1B-A0CE-4E52-9305-0E2111F7C5B9_stringValue",
      "value": "EMI"
    }
  ],
  "resizingConstraint": 63,
  "resizingType": 0,
  "rotation": 0,
  "scale": 1,
  "shouldBreakMaskChain": false,
  "style": {
    "_class": "style",
    "blur": {
      "_class": "blur",
      "center": "{0.5, 0.5}",
      "isEnabled": false,
      "motionAngle": 0,
      "radius": 10,
      "saturation": 1,
      "type": 0
    },
    "borderOptions": {
      "_class": "borderOptions",
      "dashPattern": [
      ],
      "isEnabled": true,
      "lineCapStyle": 0,
      "lineJoinStyle": 0
    },
    "borders": [
    ],
    "colorControls": {
      "_class": "colorControls",
      "brightness": 0,
      "contrast": 1,
      "hue": 0,
      "isEnabled": true,
      "saturation": 1
    },
    "contextSettings": {
      "_class": "graphicsContextSettings",
      "blendMode": 0,
      "opacity": 1
    },
    "do_objectID": "FB1059D0-13FB-47FB-AF5B-206BA82AA27A",
    "endMarkerType": 0,
    "fills": [
    ],
    "innerShadows": [
    ],
    "miterLimit": 10,
    "shadows": [
    ],
    "startMarkerType": 0,
    "windingRule": 1
  },
  "symbolID": "5C03CB4B-6BB3-4FE9-814F-01CD66AB86B6",
  "verticalSpacing": 0
}