{
  "_class": "shapePath",
  "booleanOperation": -1,
  "clippingMaskMode": 0,
  "do_objectID": "66570D42-31F6-41E4-A14D-2641BC3CB768",
  "edited": true,
  "exportOptions": {
    "_class": "exportOptions",
    "exportFormats": [
    ],
    "includedLayerIds": [
    ],
    "layerOptions": 0,
    "shouldTrim": false
  },
  "frame": {
    "_class": "rect",
    "constrainProportions": false,
    "height": 22.03000190908602,
    "width": 22.0207629049072,
    "x": 0.5035377077256189,
    "y": 0.5000545562071779
  },
  "hasClippingMask": false,
  "isClosed": false,
  "isFixedToViewport": false,
  "isFlippedHorizontal": false,
  "isFlippedVertical": false,
  "isLocked": false,
  "isVisible": true,
  "layerListExpandedType": 0,
  "maintainScrollPosition": false,
  "name": "Path",
  "nameIsFixed": false,
  "pointRadiusBehaviour": 1,
  "points": [
    {
      "_class": "curvePoint",
      "cornerRadius": 0,
      "curveFrom": "{0.68105102078824342, 0.00025020045651065058}",
      "curveMode": 4,
      "curveTo": "{0.43913101656641962, 3.0237574083021506e-17}",
      "hasCurveFrom": true,
      "hasCurveTo": false,
      "point": "{0.43913101656641962, 3.0237574083021506e-17}"
    },
    {
      "_class": "curvePoint",
      "cornerRadius": 0,
      "curveFrom": "{0.87714863998309733, 0.54439043892459327}",
      "curveMode": 3,
      "curveTo": "{0.87710349395575626, 0.19622045258626167}",
      "hasCurveFrom": true,
      "hasCurveTo": true,
      "point": "{0.87735379938606273, 0.43803899971610832}"
    },
    {
      "_class": "curvePoint",
      "cornerRadius": 0,
      "curveFrom": "{0.76700339915272253, 0.72628227932204481}",
      "curveMode": 4,
      "curveTo": "{0.83787971298213682, 0.64696373527357331}",
      "hasCurveFrom": false,
      "hasCurveTo": true,
      "point": "{0.76700339915272253, 0.72628227932204481}"
    },
    {
      "_class": "curvePoint",
      "cornerRadius": 0,
      "curveFrom": "{0.99703639288963763, 0.95829397684775131}",
      "curveMode": 4,
      "curveTo": "{0.99179125147989688, 0.95324549161018401}",
      "hasCurveFrom": true,
      "hasCurveTo": false,
      "point": "{0.99179125147989688, 0.95324549161018401}"
    },
    {
      "_class": "curvePoint",
      "cornerRadius": 0,
      "curveFrom": "{1, 0.97981580135037483}",
      "curveMode": 2,
      "curveTo": "{1, 0.96525892795897694}",
      "hasCurveFrom": true,
      "hasCurveTo": true,
      "point": "{1, 0.97253736465467588}"
    },
    {
      "_class": "curvePoint",
      "cornerRadius": 0,
      "curveFrom": "{0.98681999890120387, 0.99704686380600871}",
      "curveMode": 4,
      "curveTo": "{0.99703639288963763, 0.98678075246160046}",
      "hasCurveFrom": true,
      "hasCurveTo": true,
      "point": "{0.99179125147989688, 0.99182923769916786}"
    },
    {
      "_class": "curvePoint",
      "cornerRadius": 0,
      "curveFrom": "{0.96537367005594732, 1.0000184194241557}",
      "curveMode": 2,
      "curveTo": "{0.97992665903669574, 0.99999991334154092}",
      "hasCurveFrom": true,
      "hasCurveTo": true,
      "point": "{0.97271834279759117, 0.99999991334154092}"
    },
    {
      "_class": "curvePoint",
      "cornerRadius": 0,
      "curveFrom": "{0.95319131724189721, 0.99182923769916786}",
      "curveMode": 4,
      "curveTo": "{0.95833258116083186, 0.9970722229659692}",
      "hasCurveFrom": false,
      "hasCurveTo": true,
      "point": "{0.95319131724189721, 0.99182923769916786}"
    },
    {
      "_class": "curvePoint",
      "cornerRadius": 0,
      "curveFrom": "{0.64790984787725792, 0.83682859814847832}",
      "curveMode": 4,
      "curveTo": "{0.72749523116794634, 0.76577387826018117}",
      "hasCurveFrom": true,
      "hasCurveTo": false,
      "point": "{0.72749523116794634, 0.76577387826018117}"
    },
    {
      "_class": "curvePoint",
      "cornerRadius": 0,
      "curveFrom": "{0.19619902283994237, 0.87607799943221676}",
      "curveMode": 3,
      "curveTo": "{0.54493193679237473, 0.87609569063242332}",
      "hasCurveFrom": true,
      "hasCurveTo": true,
      "point": "{0.43822278281964311, 0.87607799943221676}"
    },
    {
      "_class": "curvePoint",
      "cornerRadius": 0,
      "curveFrom": "{-4.0333680696512106e-17, 0.19611674034176657}",
      "curveMode": 2,
      "curveTo": "{3.0250260522384081e-17, 0.67996125909045035}",
      "hasCurveFrom": true,
      "hasCurveTo": true,
      "point": "{0, 0.43803899971610849}"
    },
    {
      "_class": "curvePoint",
      "cornerRadius": 0,
      "curveFrom": "{0.43822278281964305, 0}",
      "curveMode": 4,
      "curveTo": "{0.19619902283994228, 4.0316765444028675e-17}",
      "hasCurveFrom": false,
      "hasCurveTo": true,
      "point": "{0.43822278281964305, 0}"
    }
  ],
  "resizingConstraint": 63,
  "resizingType": 0,
  "rotation": 0,
  "shouldBreakMaskChain": false,
  "style": {
    "_class": "style",
    "blur": {
      "_class": "blur",
      "center": "{0.5, 0.5}",
      "isEnabled": false,
      "motionAngle": 0,
      "radius": 10,
      "saturation": 1,
      "type": 0
    },
    "borderOptions": {
      "_class": "borderOptions",
      "dashPattern": [
      ],
      "isEnabled": true,
      "lineCapStyle": 0,
      "lineJoinStyle": 0
    },
    "borders": [
    ],
    "colorControls": {
      "_class": "colorControls",
      "brightness": 0,
      "contrast": 1,
      "hue": 0,
      "isEnabled": false,
      "saturation": 1
    },
    "contextSettings": {
      "_class": "graphicsContextSettings",
      "blendMode": 0,
      "opacity": 1
    },
    "do_objectID": "FFA57D9C-27BE-41E1-9405-5E7DC44B5AF9",
    "endMarkerType": 0,
    "fills": [
    ],
    "innerShadows": [
    ],
    "miterLimit": 10,
    "shadows": [
    ],
    "startMarkerType": 0,
    "windingRule": 1
  }
}