{
  "_class": "symbolMaster",
  "allowsOverrides": true,
  "backgroundColor": {
    "_class": "color",
    "alpha": 1,
    "blue": 1,
    "green": 1,
    "red": 1
  },
  "booleanOperation": -1,
  "changeIdentifier": 602,
  "clippingMaskMode": 0,
  "do_objectID": "9B49B1B6-A3BC-4F99-9A85-0868E29D3BBF",
  "exportOptions": {
    "_class": "exportOptions",
    "exportFormats": [
    ],
    "includedLayerIds": [
    ],
    "layerOptions": 0,
    "shouldTrim": false
  },
  "frame": {
    "_class": "rect",
    "constrainProportions": false,
    "height": 32,
    "width": 256,
    "x": 116640,
    "y": 328
  },
  "groupLayout": {
    "_class": "MSImmutableFreeformGroupLayout"
  },
  "hasBackgroundColor": false,
  "hasClickThrough": true,
  "hasClippingMask": false,
  "horizontalRulerData": {
    "_class": "rulerData",
    "base": 0,
    "guides": [
    ]
  },
  "includeBackgroundColorInExport": true,
  "includeBackgroundColorInInstance": false,
  "includeInCloudUpload": true,
  "isFixedToViewport": false,
  "isFlippedHorizontal": false,
  "isFlippedVertical": false,
  "isFlowHome": false,
  "isLocked": false,
  "isVisible": true,
  "layerListExpandedType": 0,
  "layers": [
    {
      "class": "rectangle",
      "id": "A7F73BF6-F335-4938-9334-6429EACCE2C7"
    },
    {
      "class": "text",
      "id": "B8DA44B5-38B4-427F-9053-CCB175C3E818"
    },
    {
      "class": "symbolInstance",
      "id": "9CAF6020-ABDF-4750-B61E-07895A704DC3"
    },
    {
      "class": "rectangle",
      "id": "27BBFFA3-0750-4BD3-993E-01E12629C309"
    }
  ],
  "name": "ui shell / side-nav / item / link / with icon / 05 selected",
  "nameIsFixed": true,
  "overrideProperties": [
    {
      "_class": "MSImmutableOverrideProperty",
      "canOverride": true,
      "overrideName": "B8DA44B5-38B4-427F-9053-CCB175C3E818_stringValue"
    },
    {
      "_class": "MSImmutableOverrideProperty",
      "canOverride": false,
      "overrideName": "27BBFFA3-0750-4BD3-993E-01E12629C309_layerStyle"
    },
    {
      "_class": "MSImmutableOverrideProperty",
      "canOverride": false,
      "overrideName": "B8DA44B5-38B4-427F-9053-CCB175C3E818_textStyle"
    },
    {
      "_class": "MSImmutableOverrideProperty",
      "canOverride": true,
      "overrideName": "9CAF6020-ABDF-4750-B61E-07895A704DC3_symbolID"
    },
    {
      "_class": "MSImmutableOverrideProperty",
      "canOverride": false,
      "overrideName": "A7F73BF6-F335-4938-9334-6429EACCE2C7_layerStyle"
    }
  ],
  "resizesContent": true,
  "resizingConstraint": 63,
  "resizingType": 0,
  "rotation": 0,
  "shouldBreakMaskChain": true,
  "style": {
    "_class": "style",
    "endMarkerType": 0,
    "miterLimit": 10,
    "startMarkerType": 0,
    "windingRule": 1
  },
  "symbolID": "44B3D87A-8798-4BB8-9F8A-4AC53A2D4BD6",
  "verticalRulerData": {
    "_class": "rulerData",
    "base": 0,
    "guides": [
    ]
  }
}