{
  "_class": "group",
  "booleanOperation": -1,
  "clippingMaskMode": 0,
  "do_objectID": "D5478708-13B5-4DB8-A19D-214A80172EFE",
  "exportOptions": {
    "_class": "exportOptions",
    "exportFormats": [
    ],
    "includedLayerIds": [
    ],
    "layerOptions": 0,
    "shouldTrim": false
  },
  "frame": {
    "_class": "rect",
    "constrainProportions": false,
    "height": 1440,
    "width": 993,
    "x": 32,
    "y": 23
  },
  "groupLayout": {
    "_class": "MSImmutableFreeformGroupLayout"
  },
  "hasClickThrough": false,
  "hasClippingMask": false,
  "isFixedToViewport": false,
  "isFlippedHorizontal": false,
  "isFlippedVertical": false,
  "isLocked": true,
  "isVisible": true,
  "layerListExpandedType": 0,
  "layers": [
    {
      "class": "text",
      "id": "0F6867E1-9F85-4EED-B00F-54F58D5BA700"
    },
    {
      "class": "text",
      "id": "CFC98853-1FC1-4B93-A823-FB7449C739BA"
    },
    {
      "class": "text",
      "id": "D7B5447F-0A82-4C43-954B-95EE53196AD3"
    },
    {
      "class": "text",
      "id": "5EF6C79F-FFB7-4E5C-AFC1-EF251E8A49AA"
    },
    {
      "class": "text",
      "id": "42D6D620-464E-479C-ACA2-1B3322AF76C8"
    },
    {
      "class": "text",
      "id": "A6D7AB9C-F630-48E0-BDFA-8ED5BB299690"
    },
    {
      "class": "text",
      "id": "097E860D-BBD3-4A7A-A780-AD5A342FB22F"
    },
    {
      "class": "text",
      "id": "DD431399-6284-44F9-B270-0303A63D207F"
    },
    {
      "class": "text",
      "id": "255D461C-41C2-4D0F-A70B-A31BA328603C"
    },
    {
      "class": "text",
      "id": "AE4C5969-B2EA-417C-8899-F05BB427B869"
    },
    {
      "class": "text",
      "id": "46BFD1B1-B917-4786-AAAD-EC1F629B0AC8"
    },
    {
      "class": "text",
      "id": "444B1C75-7367-4ACA-8560-7438735AE694"
    },
    {
      "class": "text",
      "id": "3E2EC438-2564-4FC9-B10D-657A7B994845"
    },
    {
      "class": "text",
      "id": "0D33F4F3-E60E-46F6-B95E-57FAA16DECD7"
    },
    {
      "class": "text",
      "id": "49EC957A-EC32-4A39-9CCA-FE1829FBEF1B"
    },
    {
      "class": "text",
      "id": "43EA07C5-1C46-49CE-BA65-F9B93D815ED2"
    },
    {
      "class": "text",
      "id": "8E687721-EBE1-4232-95FA-9CCC7CD0A99C"
    },
    {
      "class": "text",
      "id": "17131497-94F4-4546-B00F-50E525FA8125"
    },
    {
      "class": "text",
      "id": "7A12CBB9-7389-4FBC-AD02-84F769A75135"
    },
    {
      "class": "text",
      "id": "8FC4CE83-B834-45EB-B1A3-C1B732063351"
    },
    {
      "class": "shapePath",
      "id": "FD91107B-4EC9-457E-9012-B6E89FAA7EF5"
    },
    {
      "class": "shapePath",
      "id": "F3E364C1-98DE-4D34-B4D4-68A55473CCDB"
    }
  ],
  "name": "labels",
  "nameIsFixed": true,
  "resizingConstraint": 63,
  "resizingType": 0,
  "rotation": 0,
  "shouldBreakMaskChain": false,
  "style": {
    "_class": "style",
    "endMarkerType": 0,
    "miterLimit": 10,
    "startMarkerType": 0,
    "windingRule": 1
  }
}