{
  "_class": "group",
  "booleanOperation": -1,
  "clippingMaskMode": 0,
  "do_objectID": "98F2A288-E060-4C2D-B7C5-F307607437B7",
  "exportOptions": {
    "_class": "exportOptions",
    "do_objectID": "296AE2FB-BF94-4367-988B-27E07E84B515",
    "exportFormats": [
    ],
    "includedLayerIds": [
    ],
    "layerOptions": 0,
    "shouldTrim": false
  },
  "frame": {
    "_class": "rect",
    "constrainProportions": false,
    "do_objectID": "2E892CEB-AE47-46BC-B70D-A7FCA5D7CC90",
    "height": 103,
    "width": 319,
    "x": 321,
    "y": 0
  },
  "groupLayout": {
    "_class": "MSImmutableFreeformGroupLayout",
    "do_objectID": "53E23173-B4A3-4BFA-A719-31DFCE9D460B"
  },
  "hasClickThrough": false,
  "hasClippingMask": false,
  "isFixedToViewport": false,
  "isFlippedHorizontal": false,
  "isFlippedVertical": false,
  "isLocked": false,
  "isVisible": true,
  "layerListExpandedType": 0,
  "layers": [
    {
      "class": "rectangle",
      "id": "15B5C5A5-75E7-48C0-AD5D-455C19358A61"
    },
    {
      "class": "text",
      "id": "1422BC24-E9A7-41DC-960F-9C55329E266C"
    }
  ],
  "name": "role",
  "nameIsFixed": true,
  "resizingConstraint": 63,
  "resizingType": 0,
  "rotation": 0,
  "shouldBreakMaskChain": false,
  "style": {
    "_class": "style",
    "do_objectID": "B25EA565-643B-4B93-AC97-70583918BFEF",
    "endMarkerType": 0,
    "miterLimit": 10,
    "startMarkerType": 0,
    "windingRule": 1
  }
}