{
  "_class": "shapePath",
  "booleanOperation": -1,
  "clippingMaskMode": 0,
  "do_objectID": "07612A64-0455-4476-B19D-CDA4F47AB461",
  "edited": true,
  "exportOptions": {
    "_class": "exportOptions",
    "do_objectID": "766E20F0-8DEC-458F-8D44-5647AD009ACB",
    "exportFormats": [
    ],
    "includedLayerIds": [
    ],
    "layerOptions": 0,
    "shouldTrim": false
  },
  "frame": {
    "_class": "rect",
    "constrainProportions": false,
    "do_objectID": "DBA0E713-046A-4246-A516-EB1F02AA65D1",
    "height": 0.1058906030855624,
    "width": 0.1059863482545751,
    "x": 25.35502473127155,
    "y": 13.81747464384207
  },
  "hasClippingMask": false,
  "isClosed": true,
  "isFixedToViewport": false,
  "isFlippedHorizontal": false,
  "isFlippedVertical": false,
  "isLocked": false,
  "isVisible": true,
  "layerListExpandedType": 0,
  "name": "Path",
  "nameIsFixed": false,
  "pointRadiusBehaviour": 0,
  "points": [
    {
      "_class": "curvePoint",
      "cornerRadius": 0,
      "curveFrom": "{0.92807233266341882, 0.16644526179069885}",
      "curveMode": 3,
      "curveTo": "{0.2450723326634261, -0.078554738209305697}",
      "hasCurveFrom": true,
      "hasCurveTo": true,
      "point": "{0.48507233266343519, 0.0064452617907306831}"
    },
    {
      "_class": "curvePoint",
      "cornerRadius": 0,
      "curveFrom": "{-0.26892766733658391, 0.70244526179070021}",
      "curveMode": 4,
      "curveTo": "{0.41007233266344656, 0.94944526179071431}",
      "hasCurveFrom": true,
      "hasCurveTo": true,
      "point": "{0.17407233266339972, 0.86144526179069203}"
    }
  ],
  "resizingConstraint": 63,
  "resizingType": 0,
  "rotation": 0,
  "shouldBreakMaskChain": false,
  "style": {
    "_class": "style",
    "do_objectID": "1398948E-0E65-4C94-BEE7-BB04DBEF37F2",
    "endMarkerType": 0,
    "fills": [
      {
        "_class": "fill",
        "color": {
          "_class": "color",
          "alpha": 1,
          "blue": 0.1764705882352941,
          "green": 0.1764705882352941,
          "red": 0.1764705882352941
        },
        "fillType": 0,
        "isEnabled": true,
        "noiseIndex": 0,
        "noiseIntensity": 0,
        "patternFillType": 1,
        "patternTileScale": 1
      }
    ],
    "miterLimit": 10,
    "startMarkerType": 0,
    "windingRule": 1
  }
}