{
  "_class": "shapePath",
  "booleanOperation": -1,
  "clippingMaskMode": 0,
  "do_objectID": "0C923846-90AD-4AA6-9CC4-4AD39A48D786",
  "edited": true,
  "exportOptions": {
    "_class": "exportOptions",
    "do_objectID": "BEEFE4A7-B5D1-4947-9DF0-5E06FE7241A1",
    "exportFormats": [
    ],
    "includedLayerIds": [
    ],
    "layerOptions": 0,
    "shouldTrim": false
  },
  "frame": {
    "_class": "rect",
    "constrainProportions": false,
    "do_objectID": "6596F970-5EE2-422E-839A-BBC261C2012C",
    "height": 0.1058906030855624,
    "width": 0.1074746188773545,
    "x": 43.93091608018339,
    "y": 19.82880675380617
  },
  "hasClippingMask": false,
  "isClosed": true,
  "isFixedToViewport": false,
  "isFlippedHorizontal": false,
  "isFlippedVertical": false,
  "isLocked": false,
  "isVisible": true,
  "layerListExpandedType": 0,
  "name": "Path",
  "nameIsFixed": false,
  "pointRadiusBehaviour": 0,
  "points": [
    {
      "_class": "curvePoint",
      "cornerRadius": 0,
      "curveFrom": "{0.48235952120247855, 1.2522589222960121}",
      "curveMode": 4,
      "curveTo": "{0.91210184292584873, 0.64135300098769976}",
      "hasCurveFrom": true,
      "hasCurveTo": true,
      "point": "{0.65455855345721292, 0.83876793697318142}"
    },
    {
      "_class": "curvePoint",
      "cornerRadius": 0,
      "curveFrom": "{0.08584859166868182, 0.25438043990171283}",
      "curveMode": 4,
      "curveTo": "{-0.057650601876844274, 0.76706997514759878}",
      "hasCurveFrom": true,
      "hasCurveTo": true,
      "point": "{0.0050358879351455402, 0.53429714017964036}"
    },
    {
      "_class": "curvePoint",
      "cornerRadius": 0,
      "curveFrom": "{1.1447215882523474, 0.43804508183844415}",
      "curveMode": 4,
      "curveTo": "{0.7610500602462662, 0.25536260376234188}",
      "hasCurveFrom": true,
      "hasCurveTo": true,
      "point": "{0.88944407552385119, 0}"
    }
  ],
  "resizingConstraint": 63,
  "resizingType": 0,
  "rotation": 0,
  "shouldBreakMaskChain": false,
  "style": {
    "_class": "style",
    "do_objectID": "22B57824-0A50-4C64-83D4-BD0DC0586549",
    "endMarkerType": 0,
    "fills": [
      {
        "_class": "fill",
        "color": {
          "_class": "color",
          "alpha": 1,
          "blue": 0.1764705882352941,
          "green": 0.1764705882352941,
          "red": 0.1764705882352941
        },
        "fillType": 0,
        "isEnabled": true,
        "noiseIndex": 0,
        "noiseIntensity": 0,
        "patternFillType": 1,
        "patternTileScale": 1
      }
    ],
    "miterLimit": 10,
    "startMarkerType": 0,
    "windingRule": 1
  }
}