{
  "_class": "shapePath",
  "booleanOperation": -1,
  "clippingMaskMode": 0,
  "do_objectID": "1272DD63-63EB-4B96-9200-660DE93290AD",
  "edited": true,
  "exportOptions": {
    "_class": "exportOptions",
    "do_objectID": "43FCE332-ED5D-493F-B015-774F1FE3C664",
    "exportFormats": [
    ],
    "includedLayerIds": [
    ],
    "layerOptions": 0,
    "shouldTrim": false
  },
  "frame": {
    "_class": "rect",
    "constrainProportions": false,
    "do_objectID": "54B9F884-6201-4AC0-87E8-6A275D3D859D",
    "height": 0.1058906030855695,
    "width": 0.2157109229152958,
    "x": 30.8833543590515,
    "y": 18.12570938726805
  },
  "hasClippingMask": false,
  "isClosed": true,
  "isFixedToViewport": false,
  "isFlippedHorizontal": false,
  "isFlippedVertical": false,
  "isLocked": false,
  "isVisible": true,
  "layerListExpandedType": 0,
  "name": "Path",
  "nameIsFixed": false,
  "pointRadiusBehaviour": 0,
  "points": [
    {
      "_class": "curvePoint",
      "cornerRadius": 0,
      "curveFrom": "{-0.017306366185347078, -0.97532594937471184}",
      "curveMode": 4,
      "curveTo": "{0.16971276061050086, 0.79410113247388558}",
      "hasCurveFrom": true,
      "hasCurveTo": true,
      "point": "{0.00037954721386694026, 0.7222462255967903}"
    },
    {
      "_class": "curvePoint",
      "cornerRadius": 0,
      "curveFrom": "{1.1021743223813252, 1.5551099189449842}",
      "curveMode": 4,
      "curveTo": "{0.58702505762576418, 0.95495813991466938}",
      "hasCurveFrom": true,
      "hasCurveTo": true,
      "point": "{0.99079069756931726, 0.20129815073780849}"
    }
  ],
  "resizingConstraint": 63,
  "resizingType": 0,
  "rotation": 0,
  "shouldBreakMaskChain": false,
  "style": {
    "_class": "style",
    "do_objectID": "54EF0C3D-A54E-4A00-801D-64446B42F375",
    "endMarkerType": 0,
    "fills": [
      {
        "_class": "fill",
        "color": {
          "_class": "color",
          "alpha": 1,
          "blue": 0.1764705882352941,
          "green": 0.1764705882352941,
          "red": 0.1764705882352941
        },
        "fillType": 0,
        "isEnabled": true,
        "noiseIndex": 0,
        "noiseIntensity": 0,
        "patternFillType": 1,
        "patternTileScale": 1
      }
    ],
    "miterLimit": 10,
    "startMarkerType": 0,
    "windingRule": 1
  }
}