{
  "_class": "shapePath",
  "booleanOperation": -1,
  "clippingMaskMode": 0,
  "do_objectID": "15A69B80-A52B-476C-B5D4-F31660E134EC",
  "edited": true,
  "exportOptions": {
    "_class": "exportOptions",
    "do_objectID": "5D73854F-7FC0-4BA0-8F16-AAB8FE401722",
    "exportFormats": [
    ],
    "includedLayerIds": [
    ],
    "layerOptions": 0,
    "shouldTrim": false
  },
  "frame": {
    "_class": "rect",
    "constrainProportions": false,
    "do_objectID": "EDF5E4C5-5161-48B9-823A-B71340581303",
    "height": 0.1058906030855589,
    "width": 0.1059863482545644,
    "x": 25.90832932394814,
    "y": 15.26551261648154
  },
  "hasClippingMask": false,
  "isClosed": true,
  "isFixedToViewport": false,
  "isFlippedHorizontal": false,
  "isFlippedVertical": false,
  "isLocked": false,
  "isVisible": true,
  "layerListExpandedType": 0,
  "name": "Path",
  "nameIsFixed": false,
  "pointRadiusBehaviour": 0,
  "points": [
    {
      "_class": "curvePoint",
      "cornerRadius": 0,
      "curveFrom": "{0.36185381743285416, 1.0720000000000027}",
      "curveMode": 4,
      "curveTo": "{0.86452101102719869, 0.60800000000000409}",
      "hasCurveFrom": true,
      "hasCurveTo": true,
      "point": "{0.58911936178948932, 0.72699999999997544}"
    },
    {
      "_class": "curvePoint",
      "cornerRadius": 0,
      "curveFrom": "{0.13222092365584856, 0.043000000000006366}",
      "curveMode": 4,
      "curveTo": "{-0.081629640651916371, 0.48699999999996635}",
      "hasCurveFrom": true,
      "hasCurveTo": true,
      "point": "{0.01306433616330344, 0.28399999999999181}"
    },
    {
      "_class": "curvePoint",
      "cornerRadius": 0,
      "curveFrom": "{1.1201947484284134, 0.47399999999998954}",
      "curveMode": 4,
      "curveTo": "{0.7777181989465769, 0.20900000000000318}",
      "hasCurveFrom": true,
      "hasCurveTo": true,
      "point": "{0.93948707600596859, 0}"
    }
  ],
  "resizingConstraint": 63,
  "resizingType": 0,
  "rotation": 0,
  "shouldBreakMaskChain": false,
  "style": {
    "_class": "style",
    "do_objectID": "EC7CD12D-3D5E-4509-AF5C-E524F9750C44",
    "endMarkerType": 0,
    "fills": [
      {
        "_class": "fill",
        "color": {
          "_class": "color",
          "alpha": 1,
          "blue": 0.1764705882352941,
          "green": 0.1764705882352941,
          "red": 0.1764705882352941
        },
        "fillType": 0,
        "isEnabled": true,
        "noiseIndex": 0,
        "noiseIntensity": 0,
        "patternFillType": 1,
        "patternTileScale": 1
      }
    ],
    "miterLimit": 10,
    "startMarkerType": 0,
    "windingRule": 1
  }
}