{
  "_class": "shapePath",
  "booleanOperation": -1,
  "clippingMaskMode": 0,
  "do_objectID": "169DBFF9-3BFD-4471-853D-4B7E4C04140C",
  "edited": true,
  "exportOptions": {
    "_class": "exportOptions",
    "do_objectID": "CAE9207C-D2AE-4D93-B766-A6435074E575",
    "exportFormats": [
    ],
    "includedLayerIds": [
    ],
    "layerOptions": 0,
    "shouldTrim": false
  },
  "frame": {
    "_class": "rect",
    "constrainProportions": false,
    "do_objectID": "9E3FD209-FD1F-43C6-8AE0-A7C086402254",
    "height": 0.1277290917963025,
    "width": 0.1614109521966967,
    "x": 14.02141700116888,
    "y": 9.982475184114229
  },
  "hasClippingMask": false,
  "isClosed": true,
  "isFixedToViewport": false,
  "isFlippedHorizontal": false,
  "isFlippedVertical": false,
  "isLocked": false,
  "isVisible": true,
  "layerListExpandedType": 0,
  "name": "Path",
  "nameIsFixed": false,
  "pointRadiusBehaviour": 0,
  "points": [
    {
      "_class": "curvePoint",
      "cornerRadius": 0,
      "curveFrom": "{0.47729170931286541, 0.25841269841268899}",
      "curveMode": 4,
      "curveTo": "{0.066434577376205589, 0.53269841269841567}",
      "hasCurveFrom": true,
      "hasCurveTo": true,
      "point": "{0.25853668802468138, 0.38857142857141003}"
    },
    {
      "_class": "curvePoint",
      "cornerRadius": 0,
      "curveFrom": "{1.1084125178569311, 0.31809523809522539}",
      "curveMode": 4,
      "curveTo": "{0.69755538592027122, 0.12952380952381537}",
      "hasCurveFrom": true,
      "hasCurveTo": true,
      "point": "{0.91731617742127924, 0}"
    },
    {
      "_class": "curvePoint",
      "cornerRadius": 0,
      "curveFrom": "{0.52154559867690853, 0.74158730158731101}",
      "curveMode": 4,
      "curveTo": "{0.93391138593279011, 0.46793650793648994}",
      "hasCurveFrom": true,
      "hasCurveTo": true,
      "point": "{0.74130639017790223, 0.61079365079364822}"
    },
    {
      "_class": "curvePoint",
      "cornerRadius": 0,
      "curveFrom": "{-0.1095752098671571, 0.68126984126983292}",
      "curveMode": 4,
      "curveTo": "{0.3032934624951365, 0.86920634920633733}",
      "hasCurveFrom": true,
      "hasCurveTo": true,
      "point": "{0.084035556100540421, 1}"
    }
  ],
  "resizingConstraint": 63,
  "resizingType": 0,
  "rotation": 0,
  "shouldBreakMaskChain": false,
  "style": {
    "_class": "style",
    "do_objectID": "C6ED1C2C-C03C-451A-82BD-4DE411498313",
    "endMarkerType": 0,
    "fills": [
      {
        "_class": "fill",
        "color": {
          "_class": "color",
          "alpha": 1,
          "blue": 0.1764705882352941,
          "green": 0.1764705882352941,
          "red": 0.1764705882352941
        },
        "fillType": 0,
        "isEnabled": true,
        "noiseIndex": 0,
        "noiseIntensity": 0,
        "patternFillType": 1,
        "patternTileScale": 1
      }
    ],
    "miterLimit": 10,
    "startMarkerType": 0,
    "windingRule": 1
  }
}