{
  "_class": "shapePath",
  "booleanOperation": -1,
  "clippingMaskMode": 0,
  "do_objectID": "29F42E55-D94D-4021-9593-7264824B69FC",
  "edited": true,
  "exportOptions": {
    "_class": "exportOptions",
    "do_objectID": "BF4D2659-3D06-41BC-B250-428729E774BE",
    "exportFormats": [
    ],
    "includedLayerIds": [
    ],
    "layerOptions": 0,
    "shouldTrim": false
  },
  "frame": {
    "_class": "rect",
    "constrainProportions": false,
    "do_objectID": "A2D8BAE1-8FF5-4691-AB2D-023CC4D01681",
    "height": 0.1058906030855589,
    "width": 0.1072965594170876,
    "x": 6.326062672567446,
    "y": 25.96491232370071
  },
  "hasClippingMask": false,
  "isClosed": true,
  "isFixedToViewport": false,
  "isFlippedHorizontal": false,
  "isFlippedVertical": false,
  "isLocked": false,
  "isVisible": true,
  "layerListExpandedType": 0,
  "name": "Path",
  "nameIsFixed": false,
  "pointRadiusBehaviour": 0,
  "points": [
    {
      "_class": "curvePoint",
      "cornerRadius": 0,
      "curveFrom": "{0.082571525473660617, 0.25695631506360445}",
      "curveMode": 3,
      "curveTo": "{-0.05965278153742494, 0.7698881958968119}",
      "hasCurveFrom": true,
      "hasCurveTo": true,
      "point": "{0.0054072737974421555, 0.53548911459825044}"
    },
    {
      "_class": "curvePoint",
      "cornerRadius": 0,
      "curveFrom": "{1.146227778971451, 0.43937568377295488}",
      "curveMode": 4,
      "curveTo": "{0.75965000831898721, 0.25695631506360445}",
      "hasCurveFrom": true,
      "hasCurveTo": true,
      "point": "{0.88825709444602163, 0}"
    },
    {
      "_class": "curvePoint",
      "cornerRadius": 0,
      "curveFrom": "{0.48049698019616882, 1.2504553500235127}",
      "curveMode": 4,
      "curveTo": "{0.91095246258608908, 0.64533303554151711}",
      "hasCurveFrom": true,
      "hasCurveTo": true,
      "point": "{0.65298177806067037, 0.83952139578050122}"
    }
  ],
  "resizingConstraint": 63,
  "resizingType": 0,
  "rotation": 0,
  "shouldBreakMaskChain": false,
  "style": {
    "_class": "style",
    "do_objectID": "6B369F57-D25C-4AA5-867C-3EB756488979",
    "endMarkerType": 0,
    "fills": [
      {
        "_class": "fill",
        "color": {
          "_class": "color",
          "alpha": 1,
          "blue": 0.1764705882352941,
          "green": 0.1764705882352941,
          "red": 0.1764705882352941
        },
        "fillType": 0,
        "isEnabled": true,
        "noiseIndex": 0,
        "noiseIntensity": 0,
        "patternFillType": 1,
        "patternTileScale": 1
      }
    ],
    "miterLimit": 10,
    "startMarkerType": 0,
    "windingRule": 1
  }
}