{
  "_class": "shapePath",
  "booleanOperation": -1,
  "clippingMaskMode": 0,
  "do_objectID": "2D86102E-C448-4C22-9B28-F7546BE4AA8C",
  "edited": true,
  "exportOptions": {
    "_class": "exportOptions",
    "do_objectID": "663EE10F-17B4-4A6E-BD90-C9B0158837E1",
    "exportFormats": [
    ],
    "includedLayerIds": [
    ],
    "layerOptions": 0,
    "shouldTrim": false
  },
  "frame": {
    "_class": "rect",
    "constrainProportions": false,
    "do_objectID": "7F4BD579-E544-4B65-8CEB-DC50B8B56733",
    "height": 0.105890603085566,
    "width": 0.1059863482545822,
    "x": 43.88368823071095,
    "y": 19.71605556837504
  },
  "hasClippingMask": false,
  "isClosed": true,
  "isFixedToViewport": false,
  "isFlippedHorizontal": false,
  "isFlippedVertical": false,
  "isLocked": false,
  "isVisible": true,
  "layerListExpandedType": 0,
  "name": "Path",
  "nameIsFixed": false,
  "pointRadiusBehaviour": 0,
  "points": [
    {
      "_class": "curvePoint",
      "cornerRadius": 0,
      "curveFrom": "{1.0434981479983207, 0.18831065324775409}",
      "curveMode": 3,
      "curveTo": "{0.27849814799833439, -0.088689346752232723}",
      "hasCurveFrom": true,
      "hasCurveTo": true,
      "point": "{0.54549814799838714, 0.0073106532477709152}"
    },
    {
      "_class": "curvePoint",
      "cornerRadius": 0,
      "curveFrom": "{-0.3025018520015692, 0.78931065324775318}",
      "curveMode": 4,
      "curveTo": "{0.46249814799841715, 1.0703106532477591}",
      "hasCurveFrom": true,
      "hasCurveTo": true,
      "point": "{0.19449814799838805, 0.96831065324775523}"
    }
  ],
  "resizingConstraint": 63,
  "resizingType": 0,
  "rotation": 0,
  "shouldBreakMaskChain": false,
  "style": {
    "_class": "style",
    "do_objectID": "8AC0236C-184E-4208-B30D-B62C541FC571",
    "endMarkerType": 0,
    "fills": [
      {
        "_class": "fill",
        "color": {
          "_class": "color",
          "alpha": 1,
          "blue": 0.1764705882352941,
          "green": 0.1764705882352941,
          "red": 0.1764705882352941
        },
        "fillType": 0,
        "isEnabled": true,
        "noiseIndex": 0,
        "noiseIntensity": 0,
        "patternFillType": 1,
        "patternTileScale": 1
      }
    ],
    "miterLimit": 10,
    "startMarkerType": 0,
    "windingRule": 1
  }
}