{
  "_class": "shapePath",
  "booleanOperation": -1,
  "clippingMaskMode": 0,
  "do_objectID": "303E7990-9132-4A84-B050-AADEC6FDE8E0",
  "edited": true,
  "exportOptions": {
    "_class": "exportOptions",
    "do_objectID": "A95F1B75-451D-4A1B-ACE8-26318470DBC9",
    "exportFormats": [
    ],
    "includedLayerIds": [
    ],
    "layerOptions": 0,
    "shouldTrim": false
  },
  "frame": {
    "_class": "rect",
    "constrainProportions": false,
    "do_objectID": "D16C9EBA-0E7F-4955-9A18-EC88054ECE02",
    "height": 0.112748807597896,
    "width": 0.2856669991750884,
    "x": 20.18910253478887,
    "y": 7.434431684360116
  },
  "hasClippingMask": false,
  "isClosed": true,
  "isFixedToViewport": false,
  "isFlippedHorizontal": false,
  "isFlippedVertical": false,
  "isLocked": false,
  "isVisible": true,
  "layerListExpandedType": 0,
  "name": "Path",
  "nameIsFixed": false,
  "pointRadiusBehaviour": 0,
  "points": [
    {
      "_class": "curvePoint",
      "cornerRadius": 0,
      "curveFrom": "{0.056091799378662391, 0.16570544062560263}",
      "curveMode": 4,
      "curveTo": "{-0.13883242559788597, 1.7308562837139645}",
      "hasCurveFrom": true,
      "hasCurveTo": true,
      "point": "{0.012901592095225048, 0.12542582334025226}"
    },
    {
      "_class": "curvePoint",
      "cornerRadius": 0,
      "curveFrom": "{0.2245904370041579, 0.049182262050105778}",
      "curveMode": 4,
      "curveTo": "{0.16179414878284964, -0.048639665642934732}",
      "hasCurveFrom": true,
      "hasCurveTo": true,
      "point": "{0.20072216455804928, 0.010341202524912899}"
    },
    {
      "_class": "curvePoint",
      "cornerRadius": 0,
      "curveFrom": "{0.47833290479432705, 0.58072935444085405}",
      "curveMode": 4,
      "curveTo": "{0.21947580719427748, 0.4735568013065854}",
      "hasCurveFrom": true,
      "hasCurveTo": true,
      "point": "{0.24590139454532228, 0.48290742674785442}"
    },
    {
      "_class": "curvePoint",
      "cornerRadius": 0,
      "curveFrom": "{1.1000445727953201, 0.77637320982689417}",
      "curveMode": 4,
      "curveTo": "{0.7565119372317054, -0.014833558278415756}",
      "hasCurveFrom": true,
      "hasCurveTo": true,
      "point": "{0.99348978508948194, 0.024726780126855873}"
    }
  ],
  "resizingConstraint": 63,
  "resizingType": 0,
  "rotation": 0,
  "shouldBreakMaskChain": false,
  "style": {
    "_class": "style",
    "do_objectID": "3C834C25-3732-4A2C-B18E-790F49239C8A",
    "endMarkerType": 0,
    "fills": [
      {
        "_class": "fill",
        "color": {
          "_class": "color",
          "alpha": 1,
          "blue": 0.1764705882352941,
          "green": 0.1764705882352941,
          "red": 0.1764705882352941
        },
        "fillType": 0,
        "isEnabled": true,
        "noiseIndex": 0,
        "noiseIntensity": 0,
        "patternFillType": 1,
        "patternTileScale": 1
      }
    ],
    "miterLimit": 10,
    "startMarkerType": 0,
    "windingRule": 1
  }
}