{
  "_class": "shapePath",
  "booleanOperation": -1,
  "clippingMaskMode": 0,
  "do_objectID": "30D38897-0B6C-4A53-9F34-2985D06D4AB4",
  "edited": true,
  "exportOptions": {
    "_class": "exportOptions",
    "do_objectID": "4347B98F-8D25-4587-A914-DF44134E7B3B",
    "exportFormats": [
    ],
    "includedLayerIds": [
    ],
    "layerOptions": 0,
    "shouldTrim": false
  },
  "frame": {
    "_class": "rect",
    "constrainProportions": false,
    "do_objectID": "FFE077EC-4920-4D94-8C55-AEDF0DCA0D03",
    "height": 0.1058906030855535,
    "width": 0.1203894138757278,
    "x": 23.98325760046285,
    "y": 7.227500595281024
  },
  "hasClippingMask": false,
  "isClosed": true,
  "isFixedToViewport": false,
  "isFlippedHorizontal": false,
  "isFlippedVertical": false,
  "isLocked": false,
  "isVisible": true,
  "layerListExpandedType": 0,
  "name": "Path",
  "nameIsFixed": false,
  "pointRadiusBehaviour": 0,
  "points": [
    {
      "_class": "curvePoint",
      "cornerRadius": 0,
      "curveFrom": "{0.084116434089702499, 0.25565476996358671}",
      "curveMode": 3,
      "curveTo": "{-0.058822103333867032, 0.76870939364473656}",
      "hasCurveFrom": true,
      "hasCurveTo": true,
      "point": "{0.0052305431531144003, 0.53661325436042573}"
    },
    {
      "_class": "curvePoint",
      "cornerRadius": 0,
      "curveFrom": "{1.1446934122369816, 0.43888856413541888}",
      "curveMode": 4,
      "curveTo": "{0.7610517716992653, 0.2573998537176127}",
      "hasCurveFrom": true,
      "hasCurveTo": true,
      "point": "{0.88983130305728553, 0}"
    },
    {
      "_class": "curvePoint",
      "cornerRadius": 0,
      "curveFrom": "{0.48326555746108274, 1.2494799678766295}",
      "curveMode": 4,
      "curveTo": "{0.91140693134761896, 0.64568098898652693}",
      "hasCurveFrom": true,
      "hasCurveTo": true,
      "point": "{0.6551963453997699, 0.84113036943649111}"
    }
  ],
  "resizingConstraint": 63,
  "resizingType": 0,
  "rotation": 0,
  "shouldBreakMaskChain": false,
  "style": {
    "_class": "style",
    "do_objectID": "0F6F44C8-5EC5-4F93-8C8B-247ADF948C6F",
    "endMarkerType": 0,
    "fills": [
      {
        "_class": "fill",
        "color": {
          "_class": "color",
          "alpha": 1,
          "blue": 0.1764705882352941,
          "green": 0.1764705882352941,
          "red": 0.1764705882352941
        },
        "fillType": 0,
        "isEnabled": true,
        "noiseIndex": 0,
        "noiseIntensity": 0,
        "patternFillType": 1,
        "patternTileScale": 1
      }
    ],
    "miterLimit": 10,
    "startMarkerType": 0,
    "windingRule": 1
  }
}