{
  "_class": "shapePath",
  "booleanOperation": -1,
  "clippingMaskMode": 0,
  "do_objectID": "311AFBF5-A1D2-4517-AB6E-75D1C21E870D",
  "edited": true,
  "exportOptions": {
    "_class": "exportOptions",
    "do_objectID": "6954D5E8-C0A0-46E0-9310-064B0A239560",
    "exportFormats": [
    ],
    "includedLayerIds": [
    ],
    "layerOptions": 0,
    "shouldTrim": false
  },
  "frame": {
    "_class": "rect",
    "constrainProportions": false,
    "do_objectID": "DACC55CF-73D0-4529-AC68-B85DB6DF5C8A",
    "height": 0.2801007907932931,
    "width": 0.6241495980336289,
    "x": 19.75866019047591,
    "y": 10.76386396952527
  },
  "hasClippingMask": false,
  "isClosed": true,
  "isFixedToViewport": false,
  "isFlippedHorizontal": false,
  "isFlippedVertical": false,
  "isLocked": false,
  "isVisible": true,
  "layerListExpandedType": 0,
  "name": "Path",
  "nameIsFixed": false,
  "pointRadiusBehaviour": 0,
  "points": [
    {
      "_class": "curvePoint",
      "cornerRadius": 0,
      "curveFrom": "{0.42166402594503455, 0.53240758489896722}",
      "curveMode": 4,
      "curveTo": "{0.50229553121017534, 0.63258527878439019}",
      "hasCurveFrom": true,
      "hasCurveTo": true,
      "point": "{0.48668943341692178, 0.53182852308459783}"
    },
    {
      "_class": "curvePoint",
      "cornerRadius": 0,
      "curveFrom": "{0.29954631071283122, 0.45249705451637323}",
      "curveMode": 3,
      "curveTo": "{0.39214249095279724, 0.40182914575929235}",
      "hasCurveFrom": true,
      "hasCurveTo": true,
      "point": "{0.31593271339574741, 0.44352159639368921}"
    },
    {
      "_class": "curvePoint",
      "cornerRadius": 0,
      "curveFrom": "{0.18380108541287002, 0.78835290684900894}",
      "curveMode": 4,
      "curveTo": "{0.28328995884485941, 0.46118298173188083}",
      "hasCurveFrom": true,
      "hasCurveTo": true,
      "point": "{0.26677350534699878, 0.47015843985456485}"
    },
    {
      "_class": "curvePoint",
      "cornerRadius": 0,
      "curveFrom": "{0.062203573440440578, 0.055550180768073887}",
      "curveMode": 3,
      "curveTo": "{-0.06173485320097688, 0.50692886506683033}",
      "hasCurveFrom": true,
      "hasCurveTo": true,
      "point": "{0.01447492435607662, 0.22955825598523719}"
    },
    {
      "_class": "curvePoint",
      "cornerRadius": 0,
      "curveFrom": "{0.1317807594353595, 0.37895620409180941}",
      "curveMode": 4,
      "curveTo": "{0.11643476327199474, 0.37229699322660281}",
      "hasCurveFrom": true,
      "hasCurveTo": true,
      "point": "{0.12072644016514131, 0.37461324048406386}"
    },
    {
      "_class": "curvePoint",
      "cornerRadius": 0,
      "curveFrom": "{0.204219063359044, 0.19481454712323981}",
      "curveMode": 4,
      "curveTo": "{0.14361538359524403, 0.37432370957688738}",
      "hasCurveFrom": true,
      "hasCurveTo": true,
      "point": "{0.15545000775512857, 0.36853309143322666}"
    },
    {
      "_class": "curvePoint",
      "cornerRadius": 0,
      "curveFrom": "{0.4930619233491676, -0.044627513117349117}",
      "curveMode": 4,
      "curveTo": "{0.51829178144825838, 0.38069338953491749}",
      "hasCurveFrom": true,
      "hasCurveTo": true,
      "point": "{0.43128778625087544, 0.022833188256361069}"
    },
    {
      "_class": "curvePoint",
      "cornerRadius": 0,
      "curveFrom": "{0.52778549093915483, 0.30252004459543164}",
      "curveMode": 4,
      "curveTo": "{0.51048873255163152, 0.049180500810043777}",
      "hasCurveFrom": true,
      "hasCurveTo": true,
      "point": "{0.52648498278971823, 0.15080584923138196}"
    },
    {
      "_class": "curvePoint",
      "cornerRadius": 0,
      "curveFrom": "{0.69698160118100383, 0.23824418320072829}",
      "curveMode": 4,
      "curveTo": "{0.57343332698441951, 0.29528177191583926}",
      "hasCurveFrom": true,
      "hasCurveTo": true,
      "point": "{0.62090187443889844, 0.2790680411135793}"
    },
    {
      "_class": "curvePoint",
      "cornerRadius": 0,
      "curveFrom": "{0.87320045542982061, 0.46581547624680281}",
      "curveMode": 4,
      "curveTo": "{0.77345148036794609, 0.1971307943807008}",
      "hasCurveFrom": true,
      "hasCurveTo": true,
      "point": "{0.84953120711005159, 0.15601740556067334}"
    },
    {
      "_class": "curvePoint",
      "cornerRadius": 0,
      "curveFrom": "{0.93458444008327957, 0.79501211771421554}",
      "curveMode": 4,
      "curveTo": "{0.98192293672281405, 0.46407829080371116}",
      "hasCurveFrom": true,
      "hasCurveTo": true,
      "point": "{1, 0.79472258680703911}"
    },
    {
      "_class": "curvePoint",
      "cornerRadius": 0,
      "curveFrom": "{0.81558794440972693, 0.70728425283767626}",
      "curveMode": 4,
      "curveTo": "{0.9051929559059867, 0.66472320948173358}",
      "hasCurveFrom": true,
      "hasCurveTo": true,
      "point": "{0.8287230767190481, 0.70641566011613044}"
    },
    {
      "_class": "curvePoint",
      "cornerRadius": 0,
      "curveFrom": "{0.79530001727849742, 0.7263932927117831}",
      "curveMode": 4,
      "curveTo": "{0.80687453980849311, 0.71423299461007572}",
      "hasCurveFrom": true,
      "hasCurveTo": true,
      "point": "{0.79868133846703682, 0.722050329104021}"
    },
    {
      "_class": "curvePoint",
      "cornerRadius": 0,
      "curveFrom": "{0.78502600289794189, 0.75274060526546582}",
      "curveMode": 4,
      "curveTo": "{0.7926990009796242, 0.73131531813389805}",
      "hasCurveFrom": true,
      "hasCurveTo": true,
      "point": "{0.78918762897614037, 0.73536875083446707}"
    },
    {
      "_class": "curvePoint",
      "cornerRadius": 0,
      "curveFrom": "{0.76525827902648613, 0.81064678670212253}",
      "curveMode": 4,
      "curveTo": "{0.77917371622546994, 0.76345324883124144}",
      "hasCurveFrom": true,
      "hasCurveTo": true,
      "point": "{0.77280122629322412, 0.77098105241801029}"
    },
    {
      "_class": "curvePoint",
      "cornerRadius": 0,
      "curveFrom": "{0.72026069705593976, 0.94527865854235005}",
      "curveMode": 4,
      "curveTo": "{0.76746914288052981, 0.86334141180947155}",
      "hasCurveFrom": true,
      "hasCurveTo": true,
      "point": "{0.77098051488401376, 0.9180627532671215}"
    },
    {
      "_class": "curvePoint",
      "cornerRadius": 0,
      "curveFrom": "{0.6064662339801371, 0.88679341529132383}",
      "curveMode": 4,
      "curveTo": "{0.6694108284129251, 0.97278409472477145}",
      "hasCurveFrom": true,
      "hasCurveTo": true,
      "point": "{0.61882106139979554, 1}"
    },
    {
      "_class": "curvePoint",
      "cornerRadius": 0,
      "curveFrom": "{0.52024254367241685, 0.7263932927117831}",
      "curveMode": 4,
      "curveTo": "{0.59411140656047867, 0.7730077687682948}",
      "hasCurveFrom": true,
      "hasCurveTo": true,
      "point": "{0.58188662995576457, 0.65980118405961874}"
    }
  ],
  "resizingConstraint": 63,
  "resizingType": 0,
  "rotation": 0,
  "shouldBreakMaskChain": false,
  "style": {
    "_class": "style",
    "do_objectID": "F0D777C0-7926-4D4B-8D5B-A1118EE38A72",
    "endMarkerType": 0,
    "fills": [
      {
        "_class": "fill",
        "color": {
          "_class": "color",
          "alpha": 1,
          "blue": 0.1764705882352941,
          "green": 0.1764705882352941,
          "red": 0.1764705882352941
        },
        "fillType": 0,
        "isEnabled": true,
        "noiseIndex": 0,
        "noiseIntensity": 0,
        "patternFillType": 1,
        "patternTileScale": 1
      }
    ],
    "miterLimit": 10,
    "startMarkerType": 0,
    "windingRule": 1
  }
}