{
  "_class": "shapePath",
  "booleanOperation": -1,
  "clippingMaskMode": 0,
  "do_objectID": "36D80501-AF89-449E-A7C2-497744071324",
  "edited": true,
  "exportOptions": {
    "_class": "exportOptions",
    "do_objectID": "ED37BDD9-A0FD-4660-9D1C-F341FA5FDD52",
    "exportFormats": [
    ],
    "includedLayerIds": [
    ],
    "layerOptions": 0,
    "shouldTrim": false
  },
  "frame": {
    "_class": "rect",
    "constrainProportions": false,
    "do_objectID": "41CF99A0-F15E-483C-9C08-1E10CE4E339D",
    "height": 0.1310541030748134,
    "width": 0.105986348254568,
    "x": 43.44365879180813,
    "y": 12.14900387448775
  },
  "hasClippingMask": false,
  "isClosed": true,
  "isFixedToViewport": false,
  "isFlippedHorizontal": false,
  "isFlippedVertical": false,
  "isLocked": false,
  "isVisible": true,
  "layerListExpandedType": 0,
  "name": "Path",
  "nameIsFixed": false,
  "pointRadiusBehaviour": 0,
  "points": [
    {
      "_class": "curvePoint",
      "cornerRadius": 0,
      "curveFrom": "{0.074342942770230971, 0.084777227722773324}",
      "curveMode": 3,
      "curveTo": "{-0.089742234085903316, 0.35952970297031095}",
      "hasCurveFrom": true,
      "hasCurveTo": true,
      "point": "{0.01117400144532886, 0.19059405940593782}"
    },
    {
      "_class": "curvePoint",
      "cornerRadius": 0,
      "curveFrom": "{0.4772375319522788, 0.19492574257425777}",
      "curveMode": 4,
      "curveTo": "{0.43486812008796288, 0.096534653465351061}",
      "hasCurveFrom": true,
      "hasCurveTo": true,
      "point": "{0.51806623793057027, 0}"
    },
    {
      "_class": "curvePoint",
      "cornerRadius": 0,
      "curveFrom": "{0.92789400359942176, 0.9152227722772619}",
      "curveMode": 3,
      "curveTo": "{1.0896681216266508, 0.64047029702972424}",
      "hasCurveFrom": true,
      "hasCurveTo": true,
      "point": "{0.98875188609541853, 0.81126237623765307}"
    },
    {
      "_class": "curvePoint",
      "cornerRadius": 0,
      "curveFrom": "{0.52731047324636693, 0.80754950495050659}",
      "curveMode": 4,
      "curveTo": "{0.5681391792246584, 0.90470297029703106}",
      "hasCurveFrom": true,
      "hasCurveTo": true,
      "point": "{0.48185964961017713, 1}"
    }
  ],
  "resizingConstraint": 63,
  "resizingType": 0,
  "rotation": 0,
  "shouldBreakMaskChain": false,
  "style": {
    "_class": "style",
    "do_objectID": "6E1E0500-DEC3-49E8-BE5E-9DBB5B106BE4",
    "endMarkerType": 0,
    "fills": [
      {
        "_class": "fill",
        "color": {
          "_class": "color",
          "alpha": 1,
          "blue": 0.1764705882352941,
          "green": 0.1764705882352941,
          "red": 0.1764705882352941
        },
        "fillType": 0,
        "isEnabled": true,
        "noiseIndex": 0,
        "noiseIntensity": 0,
        "patternFillType": 1,
        "patternTileScale": 1
      }
    ],
    "miterLimit": 10,
    "startMarkerType": 0,
    "windingRule": 1
  }
}