{
  "_class": "shapePath",
  "booleanOperation": -1,
  "clippingMaskMode": 0,
  "do_objectID": "3A79F388-16BA-4128-ACAF-B5A20FB0FD98",
  "edited": true,
  "exportOptions": {
    "_class": "exportOptions",
    "do_objectID": "C6481C57-A00A-4ED2-B2EE-9FFD113C37B4",
    "exportFormats": [
    ],
    "includedLayerIds": [
    ],
    "layerOptions": 0,
    "shouldTrim": false
  },
  "frame": {
    "_class": "rect",
    "constrainProportions": false,
    "do_objectID": "B51309F8-C317-455D-800E-C1E1F7E82BC0",
    "height": 0.105890603085566,
    "width": 0.1072003137791917,
    "x": 20.63635337460491,
    "y": 16.68748207397766
  },
  "hasClippingMask": false,
  "isClosed": true,
  "isFixedToViewport": false,
  "isFlippedHorizontal": false,
  "isFlippedVertical": false,
  "isLocked": false,
  "isVisible": true,
  "layerListExpandedType": 0,
  "name": "Path",
  "nameIsFixed": false,
  "pointRadiusBehaviour": 0,
  "points": [
    {
      "_class": "curvePoint",
      "cornerRadius": 0,
      "curveFrom": "{0.4826586732800856, 1.2506982630343635}",
      "curveMode": 4,
      "curveTo": "{0.91122904897580603, 0.64450751025180864}",
      "hasCurveFrom": true,
      "hasCurveTo": true,
      "point": "{0.65226956401477898, 0.8400212214409829}"
    },
    {
      "_class": "curvePoint",
      "cornerRadius": 0,
      "curveFrom": "{0.084375956644127198, 0.25446256883415852}",
      "curveMode": 3,
      "curveTo": "{-0.061004806842743654, 0.76830011130624742}",
      "hasCurveFrom": true,
      "hasCurveTo": true,
      "point": "{0.0056280430887415064, 0.53446964264781949}"
    },
    {
      "_class": "curvePoint",
      "cornerRadius": 0,
      "curveFrom": "{1.1459584066890105, 0.43622154657285511}",
      "curveMode": 4,
      "curveTo": "{0.75903356220047635, 0.25642753075566727}",
      "hasCurveFrom": true,
      "hasCurveTo": true,
      "point": "{0.88851330468097911, 0}"
    }
  ],
  "resizingConstraint": 63,
  "resizingType": 0,
  "rotation": 0,
  "shouldBreakMaskChain": false,
  "style": {
    "_class": "style",
    "do_objectID": "375D9A9D-00C8-4E70-A123-04AC79C5D4FF",
    "endMarkerType": 0,
    "fills": [
      {
        "_class": "fill",
        "color": {
          "_class": "color",
          "alpha": 1,
          "blue": 0.1764705882352941,
          "green": 0.1764705882352941,
          "red": 0.1764705882352941
        },
        "fillType": 0,
        "isEnabled": true,
        "noiseIndex": 0,
        "noiseIntensity": 0,
        "patternFillType": 1,
        "patternTileScale": 1
      }
    ],
    "miterLimit": 10,
    "startMarkerType": 0,
    "windingRule": 1
  }
}