{
  "_class": "shapePath",
  "booleanOperation": -1,
  "clippingMaskMode": 0,
  "do_objectID": "3EFED8BB-5C74-40FF-BE86-3F9021175F8E",
  "edited": true,
  "exportOptions": {
    "_class": "exportOptions",
    "do_objectID": "80170643-488A-4485-8D55-1B663CE68B84",
    "exportFormats": [
    ],
    "includedLayerIds": [
    ],
    "layerOptions": 0,
    "shouldTrim": false
  },
  "frame": {
    "_class": "rect",
    "constrainProportions": false,
    "do_objectID": "234E5658-75FE-49C0-AA3F-A57891E4EF8A",
    "height": 0.1536771532465262,
    "width": 0.2262515830601544,
    "x": 29.70885460692107,
    "y": 3.210157090320016
  },
  "hasClippingMask": false,
  "isClosed": true,
  "isFixedToViewport": false,
  "isFlippedHorizontal": false,
  "isFlippedVertical": false,
  "isLocked": false,
  "isVisible": true,
  "layerListExpandedType": 0,
  "name": "Path",
  "nameIsFixed": false,
  "pointRadiusBehaviour": 0,
  "points": [
    {
      "_class": "curvePoint",
      "cornerRadius": 0,
      "curveFrom": "{0.060067945505687448, 0.46966691254774517}",
      "curveMode": 4,
      "curveTo": "{-0.0045097661689948963, 0.66017225572720928}",
      "hasCurveFrom": true,
      "hasCurveTo": true,
      "point": "{0.00015417967416810944, 0.64697936492528907}"
    },
    {
      "_class": "curvePoint",
      "cornerRadius": 0,
      "curveFrom": "{0.62691674798342756, 0.21689112478327477}",
      "curveMode": 4,
      "curveTo": "{0.38941427504655723, 0.48444295024585632}",
      "hasCurveFrom": true,
      "hasCurveTo": true,
      "point": "{0.47085394476961695, 0.32348968246264453}"
    },
    {
      "_class": "curvePoint",
      "cornerRadius": 0,
      "curveFrom": "{1.0757318441224648, 0.25910837534938375}",
      "curveMode": 4,
      "curveTo": "{0.78405584639181103, 0.10818170457562058}",
      "hasCurveFrom": true,
      "hasCurveTo": true,
      "point": "{0.94155370986506581, 0}"
    },
    {
      "_class": "curvePoint",
      "cornerRadius": 0,
      "curveFrom": "{0.7392102132843944, 0.5672943044818235}",
      "curveMode": 3,
      "curveTo": "{0.9555455473945752, 0.39842530221747752}",
      "hasCurveFrom": true,
      "hasCurveTo": true,
      "point": "{0.81562717209944036, 0.50766243805722533}"
    },
    {
      "_class": "curvePoint",
      "cornerRadius": 0,
      "curveFrom": "{0.46834258931559986, 0.64064677734037567}",
      "curveMode": 4,
      "curveTo": "{0.6570530134316126, 0.61056698631205975}",
      "hasCurveFrom": true,
      "hasCurveTo": true,
      "point": "{0.57991852448686509, 0.66861570584043717}"
    },
    {
      "_class": "curvePoint",
      "cornerRadius": 0,
      "curveFrom": "{0.098097042380774768, 0.98418965382191748}",
      "curveMode": 4,
      "curveTo": "{0.21003174261689084, 1.0622915673691922}",
      "hasCurveFrom": true,
      "hasCurveTo": true,
      "point": "{0.11029505458598915, 0.99210538830308159}"
    }
  ],
  "resizingConstraint": 63,
  "resizingType": 0,
  "rotation": 0,
  "shouldBreakMaskChain": false,
  "style": {
    "_class": "style",
    "do_objectID": "939C346E-20E2-466F-B438-4A34F2DD96DD",
    "endMarkerType": 0,
    "fills": [
      {
        "_class": "fill",
        "color": {
          "_class": "color",
          "alpha": 1,
          "blue": 0.1764705882352941,
          "green": 0.1764705882352941,
          "red": 0.1764705882352941
        },
        "fillType": 0,
        "isEnabled": true,
        "noiseIndex": 0,
        "noiseIntensity": 0,
        "patternFillType": 1,
        "patternTileScale": 1
      }
    ],
    "miterLimit": 10,
    "startMarkerType": 0,
    "windingRule": 1
  }
}