{
  "_class": "shapePath",
  "booleanOperation": -1,
  "clippingMaskMode": 0,
  "do_objectID": "415DE7B5-C7F5-4CBE-8B56-8CA7C44962EE",
  "edited": true,
  "exportOptions": {
    "_class": "exportOptions",
    "do_objectID": "F8BF4A1C-40A0-41B5-BAB9-18843F01256A",
    "exportFormats": [
    ],
    "includedLayerIds": [
    ],
    "layerOptions": 0,
    "shouldTrim": false
  },
  "frame": {
    "_class": "rect",
    "constrainProportions": false,
    "do_objectID": "624D15F2-1A55-4AB7-ABEF-5E174B180360",
    "height": 3.341149747883211,
    "width": 0.967966129162928,
    "x": 21.5114948221373,
    "y": 30.41426400135942
  },
  "hasClippingMask": false,
  "isClosed": true,
  "isFixedToViewport": false,
  "isFlippedHorizontal": false,
  "isFlippedVertical": false,
  "isLocked": false,
  "isVisible": true,
  "layerListExpandedType": 0,
  "name": "Path",
  "nameIsFixed": false,
  "pointRadiusBehaviour": 0,
  "points": [
    {
      "_class": "curvePoint",
      "cornerRadius": 0,
      "curveFrom": "{0.19354297693920255, 0.079055316876623316}",
      "curveMode": 4,
      "curveTo": "{0.16067085953878366, 0.083545717129056687}",
      "hasCurveFrom": true,
      "hasCurveTo": false,
      "point": "{0.16067085953878366, 0.083545717129056687}"
    },
    {
      "_class": "curvePoint",
      "cornerRadius": 0,
      "curveFrom": "{0.29140461215933078, 0.08228355057161546}",
      "curveMode": 4,
      "curveTo": "{0.22683438155136113, 0.074564916624189945}",
      "hasCurveFrom": true,
      "hasCurveTo": true,
      "point": "{0.25945492662473718, 0.070171606106944798}"
    },
    {
      "_class": "curvePoint",
      "cornerRadius": 0,
      "curveFrom": "{0.20603773584905588, 0.096822738415980353}",
      "curveMode": 4,
      "curveTo": "{0.26255765199161163, 0.088060389815286411}",
      "hasCurveFrom": true,
      "hasCurveTo": true,
      "point": "{0.23044025157232603, 0.093521687419597752}"
    },
    {
      "_class": "curvePoint",
      "cornerRadius": 0,
      "curveFrom": "{0.15714884696016954, 0.10337629554115424}",
      "curveMode": 4,
      "curveTo": "{0.18163522012578573, 0.10007524454477024}",
      "hasCurveFrom": false,
      "hasCurveTo": true,
      "point": "{0.15714884696016954, 0.10337629554115424}"
    },
    {
      "_class": "curvePoint",
      "cornerRadius": 0,
      "curveFrom": "{0.056016771488470084, 0.72205636059127609}",
      "curveMode": 4,
      "curveTo": "{0.046876310272534048, 0.72390106555984379}",
      "hasCurveFrom": true,
      "hasCurveTo": false,
      "point": "{0.046876310272534048, 0.72390106555984379}"
    },
    {
      "_class": "curvePoint",
      "cornerRadius": 0,
      "curveFrom": "{0.088469601677149332, 0.73004199131046843}",
      "curveMode": 4,
      "curveTo": "{0.0670859538784076, 0.72064855943105388}",
      "hasCurveFrom": true,
      "hasCurveTo": true,
      "point": "{0.079580712788260913, 0.71943493774120681}"
    },
    {
      "_class": "curvePoint",
      "cornerRadius": 0,
      "curveFrom": "{0.12788259958071077, 0.76416903322896179}",
      "curveMode": 4,
      "curveTo": "{0.097358490566037764, 0.74062477244593239}",
      "hasCurveFrom": true,
      "hasCurveTo": true,
      "point": "{0.10633123689727221, 0.75130464331658453}"
    },
    {
      "_class": "curvePoint",
      "cornerRadius": 0,
      "curveFrom": "{0.057358490566035085, 0.76261559746595731}",
      "curveMode": 4,
      "curveTo": "{0.097442348008383778, 0.76795553290128404}",
      "hasCurveFrom": true,
      "hasCurveTo": true,
      "point": "{0.064570230607964865, 0.77123231146387028}"
    },
    {
      "_class": "curvePoint",
      "cornerRadius": 0,
      "curveFrom": "{0.043018867924526319, 0.7455035316391172}",
      "curveMode": 4,
      "curveTo": "{0.050230607966456099, 0.75409597320323252}",
      "hasCurveFrom": false,
      "hasCurveTo": true,
      "point": "{0.043018867924526319, 0.7455035316391172}"
    },
    {
      "_class": "curvePoint",
      "cornerRadius": 0,
      "curveFrom": "{0, 0.98776669336634337}",
      "curveMode": 1,
      "curveTo": "{0, 0.98776669336634337}",
      "hasCurveFrom": false,
      "hasCurveTo": false,
      "point": "{0, 0.98776669336634337}"
    },
    {
      "_class": "curvePoint",
      "cornerRadius": 0,
      "curveFrom": "{0.82457023060796319, 1}",
      "curveMode": 1,
      "curveTo": "{0.82457023060796319, 1}",
      "hasCurveFrom": false,
      "hasCurveTo": false,
      "point": "{0.82457023060796319, 1}"
    },
    {
      "_class": "curvePoint",
      "cornerRadius": 0,
      "curveFrom": "{1, 0.012306123935047085}",
      "curveMode": 1,
      "curveTo": "{1, 0.012306123935047085}",
      "hasCurveFrom": false,
      "hasCurveTo": false,
      "point": "{1, 0.012306123935047085}"
    },
    {
      "_class": "curvePoint",
      "cornerRadius": 0,
      "curveFrom": "{0.17551362683438287, 0}",
      "curveMode": 1,
      "curveTo": "{0.17551362683438287, 0}",
      "hasCurveFrom": false,
      "hasCurveTo": false,
      "point": "{0.17551362683438287, 0}"
    }
  ],
  "resizingConstraint": 63,
  "resizingType": 0,
  "rotation": 0,
  "shouldBreakMaskChain": false,
  "style": {
    "_class": "style",
    "do_objectID": "2240D934-70F2-4329-BD4E-168F7E6D95A1",
    "endMarkerType": 0,
    "fills": [
      {
        "_class": "fill",
        "color": {
          "_class": "color",
          "alpha": 1,
          "blue": 0.1764705882352941,
          "green": 0.1764705882352941,
          "red": 0.1764705882352941
        },
        "fillType": 0,
        "isEnabled": true,
        "noiseIndex": 0,
        "noiseIntensity": 0,
        "patternFillType": 1,
        "patternTileScale": 1
      }
    ],
    "miterLimit": 10,
    "startMarkerType": 0,
    "windingRule": 1
  }
}