{
  "_class": "shapePath",
  "booleanOperation": -1,
  "clippingMaskMode": 0,
  "do_objectID": "4CB9EA3C-BC9B-4639-9295-CA040EAB864E",
  "edited": true,
  "exportOptions": {
    "_class": "exportOptions",
    "do_objectID": "503B8FE0-3363-4F62-8F62-2585E69FFC0F",
    "exportFormats": [
    ],
    "includedLayerIds": [
    ],
    "layerOptions": 0,
    "shouldTrim": false
  },
  "frame": {
    "_class": "rect",
    "constrainProportions": false,
    "do_objectID": "C1EAB1E0-248A-4796-91E9-0201E2AD2F71",
    "height": 0.1058906030855695,
    "width": 0.1059863482545715,
    "x": 31.35170630498933,
    "y": 32.73950757169301
  },
  "hasClippingMask": false,
  "isClosed": true,
  "isFixedToViewport": false,
  "isFlippedHorizontal": false,
  "isFlippedVertical": false,
  "isLocked": false,
  "isVisible": true,
  "layerListExpandedType": 0,
  "name": "Path",
  "nameIsFixed": false,
  "pointRadiusBehaviour": 0,
  "points": [
    {
      "_class": "curvePoint",
      "cornerRadius": 0,
      "curveFrom": "{0.94007848740938016, 0.24392090062235638}",
      "curveMode": 4,
      "curveTo": "{0.36307848740938198, -0.10707909937764271}",
      "hasCurveFrom": true,
      "hasCurveTo": true,
      "point": "{0.56207848740939426, 0.015920900622347745}"
    },
    {
      "_class": "curvePoint",
      "cornerRadius": 0,
      "curveFrom": "{-0.25792151259065577, 0.51592090062234774}",
      "curveMode": 4,
      "curveTo": "{0.32207848740938516, 0.86692090062234684}",
      "hasCurveFrom": true,
      "hasCurveTo": true,
      "point": "{0.11907848740935378, 0.74092090062237048}"
    }
  ],
  "resizingConstraint": 63,
  "resizingType": 0,
  "rotation": 0,
  "shouldBreakMaskChain": false,
  "style": {
    "_class": "style",
    "do_objectID": "513C71F9-7342-4557-9BCB-430C0CCAB8DF",
    "endMarkerType": 0,
    "fills": [
      {
        "_class": "fill",
        "color": {
          "_class": "color",
          "alpha": 1,
          "blue": 0.1764705882352941,
          "green": 0.1764705882352941,
          "red": 0.1764705882352941
        },
        "fillType": 0,
        "isEnabled": true,
        "noiseIndex": 0,
        "noiseIntensity": 0,
        "patternFillType": 1,
        "patternTileScale": 1
      }
    ],
    "miterLimit": 10,
    "startMarkerType": 0,
    "windingRule": 1
  }
}