{
  "_class": "shapePath",
  "booleanOperation": -1,
  "clippingMaskMode": 0,
  "do_objectID": "500E0461-1061-4B0F-BFA1-55FD3D5BC397",
  "edited": true,
  "exportOptions": {
    "_class": "exportOptions",
    "do_objectID": "5FB4FE66-644A-41DE-A82A-862D6DB99AFE",
    "exportFormats": [
    ],
    "includedLayerIds": [
    ],
    "layerOptions": 0,
    "shouldTrim": false
  },
  "frame": {
    "_class": "rect",
    "constrainProportions": false,
    "do_objectID": "F314590F-796E-4BC6-94AA-3468C379DBBB",
    "height": 0.1058906030855589,
    "width": 0.1059863482545582,
    "x": 7.615346404760185,
    "y": 10.36319372065233
  },
  "hasClippingMask": false,
  "isClosed": true,
  "isFixedToViewport": false,
  "isFlippedHorizontal": false,
  "isFlippedVertical": false,
  "isLocked": false,
  "isVisible": true,
  "layerListExpandedType": 0,
  "name": "Path",
  "nameIsFixed": false,
  "pointRadiusBehaviour": 0,
  "points": [
    {
      "_class": "curvePoint",
      "cornerRadius": 0,
      "curveFrom": "{-0.29037147059769097, 0.57744148858616029}",
      "curveMode": 3,
      "curveTo": "{0.36062852940230528, 0.9694414885861562}",
      "hasCurveFrom": true,
      "hasCurveTo": true,
      "point": "{0.13462852940230619, 0.83444148858616529}"
    },
    {
      "_class": "curvePoint",
      "cornerRadius": 0,
      "curveFrom": "{1.0546285294023079, 0.27644148858617257}",
      "curveMode": 3,
      "curveTo": "{0.40662852940231176, -0.11855851141386609}",
      "hasCurveFrom": true,
      "hasCurveTo": true,
      "point": "{0.63162852940230607, 0.017441488586158016}"
    }
  ],
  "resizingConstraint": 63,
  "resizingType": 0,
  "rotation": 0,
  "shouldBreakMaskChain": false,
  "style": {
    "_class": "style",
    "do_objectID": "4B942154-7E78-4401-8887-3384DA6750CD",
    "endMarkerType": 0,
    "fills": [
      {
        "_class": "fill",
        "color": {
          "_class": "color",
          "alpha": 1,
          "blue": 0.1764705882352941,
          "green": 0.1764705882352941,
          "red": 0.1764705882352941
        },
        "fillType": 0,
        "isEnabled": true,
        "noiseIndex": 0,
        "noiseIntensity": 0,
        "patternFillType": 1,
        "patternTileScale": 1
      }
    ],
    "miterLimit": 10,
    "startMarkerType": 0,
    "windingRule": 1
  }
}