{
  "_class": "shapePath",
  "booleanOperation": -1,
  "clippingMaskMode": 0,
  "do_objectID": "5091A3EC-9BAD-46C5-B8A1-5BB1FD4EE02A",
  "edited": true,
  "exportOptions": {
    "_class": "exportOptions",
    "do_objectID": "9CB3CA4B-1CA2-4E9B-9D8B-D0162AC5FE65",
    "exportFormats": [
    ],
    "includedLayerIds": [
    ],
    "layerOptions": 0,
    "shouldTrim": false
  },
  "frame": {
    "_class": "rect",
    "constrainProportions": false,
    "do_objectID": "CB69ABB4-472E-4968-B649-8FA39DFDCB2E",
    "height": 0.1771987717936092,
    "width": 0.1737786444793841,
    "x": 28.01022990342641,
    "y": 13.02688794984966
  },
  "hasClippingMask": false,
  "isClosed": true,
  "isFixedToViewport": false,
  "isFlippedHorizontal": false,
  "isFlippedVertical": false,
  "isLocked": false,
  "isVisible": true,
  "layerListExpandedType": 0,
  "name": "Path",
  "nameIsFixed": false,
  "pointRadiusBehaviour": 0,
  "points": [
    {
      "_class": "curvePoint",
      "cornerRadius": 0,
      "curveFrom": "{0.33532046698474638, 0.4416475972540187}",
      "curveMode": 4,
      "curveTo": "{0.079352318915484318, 0.51762013729978373}",
      "hasCurveFrom": true,
      "hasCurveTo": true,
      "point": "{0.24376981548553581, 0.46361556064074716}"
    },
    {
      "_class": "curvePoint",
      "cornerRadius": 0,
      "curveFrom": "{0.41145697818053539, 0.18215102974829481}",
      "curveMode": 4,
      "curveTo": "{0.42500273784113329, 0.42013729977116954}",
      "hasCurveFrom": true,
      "hasCurveTo": true,
      "point": "{0.5179546748224948, 0.39816933638444102}"
    },
    {
      "_class": "curvePoint",
      "cornerRadius": 0,
      "curveFrom": "{0.81549429219497571, 0.043478260869577658}",
      "curveMode": 4,
      "curveTo": "{0.56139452476856389, 0.12036613272312741}",
      "hasCurveFrom": true,
      "hasCurveTo": true,
      "point": "{0.72627911649931465, 0.064530892448521462}"
    },
    {
      "_class": "curvePoint",
      "cornerRadius": 0,
      "curveFrom": "{1.000931070996973, 0.23066361556064924}",
      "curveMode": 4,
      "curveTo": "{0.90751203885491216, 0.0219679633867285}",
      "hasCurveFrom": true,
      "hasCurveTo": true,
      "point": "{0.99999688067554782, 0}"
    },
    {
      "_class": "curvePoint",
      "cornerRadius": 0,
      "curveFrom": "{0.6478071294999761, 0.70572082379863998}",
      "curveMode": 4,
      "curveTo": "{0.79167243899875461, 0.33272311212816086}",
      "hasCurveFrom": true,
      "hasCurveTo": true,
      "point": "{0.85846704698031895, 0.60137299771167962}"
    },
    {
      "_class": "curvePoint",
      "cornerRadius": 0,
      "curveFrom": "{0.37081969919874175, 0.76018306636155586}",
      "curveMode": 4,
      "curveTo": "{0.6510767956249508, 0.93638443935928928}",
      "hasCurveFrom": true,
      "hasCurveTo": true,
      "point": "{0.37595774596656661, 1}"
    },
    {
      "_class": "curvePoint",
      "cornerRadius": 0,
      "curveFrom": "{-0.071519417993942735, 0.57940503432495116}",
      "curveMode": 4,
      "curveTo": "{0.20686929778941607, 0.77299771167048947}",
      "hasCurveFrom": true,
      "hasCurveTo": true,
      "point": "{0.036379564130141109, 0.79633867276888204}"
    }
  ],
  "resizingConstraint": 63,
  "resizingType": 0,
  "rotation": 0,
  "shouldBreakMaskChain": false,
  "style": {
    "_class": "style",
    "do_objectID": "EC78CB10-BB2D-4187-8940-6D158211C595",
    "endMarkerType": 0,
    "fills": [
      {
        "_class": "fill",
        "color": {
          "_class": "color",
          "alpha": 1,
          "blue": 0.1764705882352941,
          "green": 0.1764705882352941,
          "red": 0.1764705882352941
        },
        "fillType": 0,
        "isEnabled": true,
        "noiseIndex": 0,
        "noiseIntensity": 0,
        "patternFillType": 1,
        "patternTileScale": 1
      }
    ],
    "miterLimit": 10,
    "startMarkerType": 0,
    "windingRule": 1
  }
}