{
  "_class": "shapePath",
  "booleanOperation": -1,
  "clippingMaskMode": 0,
  "do_objectID": "5459D4E5-C5F9-4FA2-81B9-D55E0812F3CA",
  "edited": true,
  "exportOptions": {
    "_class": "exportOptions",
    "do_objectID": "1CE4AE29-7F3E-4CFD-9574-12FC640EDF9E",
    "exportFormats": [
    ],
    "includedLayerIds": [
    ],
    "layerOptions": 0,
    "shouldTrim": false
  },
  "frame": {
    "_class": "rect",
    "constrainProportions": false,
    "do_objectID": "843D18B8-A899-45ED-8DC0-B3FAC55F5FC8",
    "height": 0.1612224980895487,
    "width": 0.1059863482545644,
    "x": 28.91062776231976,
    "y": 8.091922429856794
  },
  "hasClippingMask": false,
  "isClosed": true,
  "isFixedToViewport": false,
  "isFlippedHorizontal": false,
  "isFlippedVertical": false,
  "isLocked": false,
  "isVisible": true,
  "layerListExpandedType": 0,
  "name": "Path",
  "nameIsFixed": false,
  "pointRadiusBehaviour": 0,
  "points": [
    {
      "_class": "curvePoint",
      "cornerRadius": 0,
      "curveFrom": "{-0.0541765982568604, 0.57847082494968693}",
      "curveMode": 4,
      "curveTo": "{0.83769095084227374, 0.77816901408451999}",
      "hasCurveFrom": true,
      "hasCurveTo": true,
      "point": "{0.010804643936141124, 1}"
    },
    {
      "_class": "curvePoint",
      "cornerRadius": 0,
      "curveFrom": "{1.0553781121888497, 0.42152917505031312}",
      "curveMode": 4,
      "curveTo": "{0.16188603203488236, 0.22082494969819993}",
      "hasCurveFrom": true,
      "hasCurveTo": true,
      "point": "{0.98877233894101491, 0}"
    }
  ],
  "resizingConstraint": 63,
  "resizingType": 0,
  "rotation": 0,
  "shouldBreakMaskChain": false,
  "style": {
    "_class": "style",
    "do_objectID": "E0A67472-24C4-4268-9832-945906860643",
    "endMarkerType": 0,
    "fills": [
      {
        "_class": "fill",
        "color": {
          "_class": "color",
          "alpha": 1,
          "blue": 0.1764705882352941,
          "green": 0.1764705882352941,
          "red": 0.1764705882352941
        },
        "fillType": 0,
        "isEnabled": true,
        "noiseIndex": 0,
        "noiseIntensity": 0,
        "patternFillType": 1,
        "patternTileScale": 1
      }
    ],
    "miterLimit": 10,
    "startMarkerType": 0,
    "windingRule": 1
  }
}