{
  "_class": "shapePath",
  "booleanOperation": -1,
  "clippingMaskMode": 0,
  "do_objectID": "57A61975-5401-4C08-86C0-4363ACA447DF",
  "edited": true,
  "exportOptions": {
    "_class": "exportOptions",
    "do_objectID": "A0A479AB-D330-41E7-B61F-532241AD4F01",
    "exportFormats": [
    ],
    "includedLayerIds": [
    ],
    "layerOptions": 0,
    "shouldTrim": false
  },
  "frame": {
    "_class": "rect",
    "constrainProportions": false,
    "do_objectID": "B1E5610C-7698-4D6D-9E60-F36EC6EFC547",
    "height": 0.1196193081901598,
    "width": 0.1059863482545609,
    "x": 38.76984345749925,
    "y": 18.53643163833579
  },
  "hasClippingMask": false,
  "isClosed": true,
  "isFixedToViewport": false,
  "isFlippedHorizontal": false,
  "isFlippedVertical": false,
  "isLocked": false,
  "isVisible": true,
  "layerListExpandedType": 0,
  "name": "Path",
  "nameIsFixed": false,
  "pointRadiusBehaviour": 0,
  "points": [
    {
      "_class": "curvePoint",
      "cornerRadius": 0,
      "curveFrom": "{0.13373714380583909, 0.014915254237282335}",
      "curveMode": 4,
      "curveTo": "{-0.13516775240234402, 0.26169491525423538}",
      "hasCurveFrom": true,
      "hasCurveTo": true,
      "point": "{0.030016683839866158, 0.10847457627118455}"
    },
    {
      "_class": "curvePoint",
      "cornerRadius": 0,
      "curveFrom": "{0.56110385385107697, 0.18779661016948332}",
      "curveMode": 4,
      "curveTo": "{0.53901523737680768, 0.082711864406770266}",
      "hasCurveFrom": true,
      "hasCurveTo": true,
      "point": "{0.66386393918775755, 0}"
    },
    {
      "_class": "curvePoint",
      "cornerRadius": 0,
      "curveFrom": "{0.86650298597324182, 0.98576271186439657}",
      "curveMode": 4,
      "curveTo": "{1.1344475075521328, 0.73559322033897201}",
      "hasCurveFrom": true,
      "hasCurveTo": true,
      "point": "{0.97022344593926935, 0.89152542372881549}"
    },
    {
      "_class": "curvePoint",
      "cornerRadius": 0,
      "curveFrom": "{0.44009665055735087, 0.81355932203389369}",
      "curveMode": 4,
      "curveTo": "{0.46218526703162022, 0.91661016949151231}",
      "hasCurveFrom": true,
      "hasCurveTo": true,
      "point": "{0.33541581596203102, 1}"
    }
  ],
  "resizingConstraint": 63,
  "resizingType": 0,
  "rotation": 0,
  "shouldBreakMaskChain": false,
  "style": {
    "_class": "style",
    "do_objectID": "6160E6D9-A449-4E79-9C5B-503C7A5B7D0F",
    "endMarkerType": 0,
    "fills": [
      {
        "_class": "fill",
        "color": {
          "_class": "color",
          "alpha": 1,
          "blue": 0.1764705882352941,
          "green": 0.1764705882352941,
          "red": 0.1764705882352941
        },
        "fillType": 0,
        "isEnabled": true,
        "noiseIndex": 0,
        "noiseIntensity": 0,
        "patternFillType": 1,
        "patternTileScale": 1
      }
    ],
    "miterLimit": 10,
    "startMarkerType": 0,
    "windingRule": 1
  }
}