{
  "_class": "shapePath",
  "booleanOperation": -1,
  "clippingMaskMode": 0,
  "do_objectID": "57D8E985-7F41-47BA-9546-DEBD646CABC0",
  "edited": true,
  "exportOptions": {
    "_class": "exportOptions",
    "do_objectID": "5992AE9F-1730-404C-95CB-090FCC3A2124",
    "exportFormats": [
    ],
    "includedLayerIds": [
    ],
    "layerOptions": 0,
    "shouldTrim": false
  },
  "frame": {
    "_class": "rect",
    "constrainProportions": false,
    "do_objectID": "00B7277F-B3AE-478D-A084-F2F98EDD522D",
    "height": 0.1328382554681404,
    "width": 0.1059863482545325,
    "x": 40.2375465362219,
    "y": 11.16885542785275
  },
  "hasClippingMask": false,
  "isClosed": true,
  "isFixedToViewport": false,
  "isFlippedHorizontal": false,
  "isFlippedVertical": false,
  "isLocked": false,
  "isVisible": true,
  "layerListExpandedType": 0,
  "name": "Path",
  "nameIsFixed": false,
  "pointRadiusBehaviour": 0,
  "points": [
    {
      "_class": "curvePoint",
      "cornerRadius": 0,
      "curveFrom": "{0.44498678793115032, 0.24969474969477426}",
      "curveMode": 4,
      "curveTo": "{-0.055144008680911571, 0.51037851037850768}",
      "hasCurveFrom": true,
      "hasCurveTo": true,
      "point": "{0.49887611762282497, 0.5}"
    },
    {
      "_class": "curvePoint",
      "cornerRadius": 0,
      "curveFrom": "{1.026424292499061, 0.25213675213675363}",
      "curveMode": 4,
      "curveTo": "{0.41284227548350166, 0.01037851037854237}",
      "hasCurveFrom": true,
      "hasCurveTo": true,
      "point": "{0.97158953597071285, 0}"
    },
    {
      "_class": "curvePoint",
      "cornerRadius": 0,
      "curveFrom": "{0.55654715466124705, 0.75091575091574658}",
      "curveMode": 4,
      "curveTo": "{1.0595142317834367, 0.49206349206350636}",
      "hasCurveFrom": true,
      "hasCurveTo": true,
      "point": "{0.49887611762282497, 0.5}"
    },
    {
      "_class": "curvePoint",
      "cornerRadius": 0,
      "curveFrom": "{-0.026781203580010359, 0.74969474969473959}",
      "curveMode": 4,
      "curveTo": "{0.58680081343554891, 0.99145299145298549}",
      "hasCurveFrom": true,
      "hasCurveTo": true,
      "point": "{0.027108126111610589, 1}"
    }
  ],
  "resizingConstraint": 63,
  "resizingType": 0,
  "rotation": 0,
  "shouldBreakMaskChain": false,
  "style": {
    "_class": "style",
    "do_objectID": "45342585-C072-47D7-8A89-ED513532BA23",
    "endMarkerType": 0,
    "fills": [
      {
        "_class": "fill",
        "color": {
          "_class": "color",
          "alpha": 1,
          "blue": 0.1764705882352941,
          "green": 0.1764705882352941,
          "red": 0.1764705882352941
        },
        "fillType": 0,
        "isEnabled": true,
        "noiseIndex": 0,
        "noiseIntensity": 0,
        "patternFillType": 1,
        "patternTileScale": 1
      }
    ],
    "miterLimit": 10,
    "startMarkerType": 0,
    "windingRule": 1
  }
}