{
  "_class": "shapePath",
  "booleanOperation": -1,
  "clippingMaskMode": 0,
  "do_objectID": "5AF3C770-09CC-423D-BAE8-06427615395D",
  "edited": true,
  "exportOptions": {
    "_class": "exportOptions",
    "do_objectID": "BF3DBDDC-233C-41A5-ABBB-40F8FE00BFDC",
    "exportFormats": [
    ],
    "includedLayerIds": [
    ],
    "layerOptions": 0,
    "shouldTrim": false
  },
  "frame": {
    "_class": "rect",
    "constrainProportions": false,
    "do_objectID": "28D998C1-2EBB-436C-A04F-CF5BD47E9677",
    "height": 0.1058906030855624,
    "width": 0.208853404640351,
    "x": 22.96640676336299,
    "y": 29.4802031941235
  },
  "hasClippingMask": false,
  "isClosed": true,
  "isFixedToViewport": false,
  "isFlippedHorizontal": false,
  "isFlippedVertical": false,
  "isLocked": false,
  "isVisible": true,
  "layerListExpandedType": 0,
  "name": "Path",
  "nameIsFixed": false,
  "pointRadiusBehaviour": 0,
  "points": [
    {
      "_class": "curvePoint",
      "cornerRadius": 0,
      "curveFrom": "{0.85464438398755604, 1.0246881779780681}",
      "curveMode": 4,
      "curveTo": "{0.95064127477652238, 0.43014891156397994}",
      "hasCurveFrom": true,
      "hasCurveTo": true,
      "point": "{1, 0.9085740481203709}"
    },
    {
      "_class": "curvePoint",
      "cornerRadius": 0,
      "curveFrom": "{0.52273610571317863, 0.75142710545590718}",
      "curveMode": 4,
      "curveTo": "{0.71472988729108933, 1.1119920350139254}",
      "hasCurveFrom": true,
      "hasCurveTo": true,
      "point": "{0.66614846482704027, 0.63531297559820998}"
    },
    {
      "_class": "curvePoint",
      "cornerRadius": 0,
      "curveFrom": "{0.1888845705402189, 0.47903907150408387}",
      "curveMode": 4,
      "curveTo": "{0.38204430625728347, 0.84047703963243992}",
      "hasCurveFrom": true,
      "hasCurveTo": true,
      "point": "{0.33424018655266291, 0.36467101878711178}"
    },
    {
      "_class": "curvePoint",
      "cornerRadius": 0,
      "curveFrom": "{0.14535561601244401, -0.023831145022359067}",
      "curveMode": 4,
      "curveTo": "{0.048970073843774366, 0.57070812139172911}",
      "hasCurveFrom": true,
      "hasCurveTo": true,
      "point": "{0, 0.09228298483533813}"
    },
    {
      "_class": "curvePoint",
      "cornerRadius": 0,
      "curveFrom": "{0.47804119704624992, 0.2485568889294642}",
      "curveMode": 4,
      "curveTo": "{0.28527011270891062, -0.11375411776927921}",
      "hasCurveFrom": true,
      "hasCurveTo": true,
      "point": "{0.33424018655266291, 0.36467101878711178}"
    },
    {
      "_class": "curvePoint",
      "cornerRadius": 0,
      "curveFrom": "{0.8111154294597811, 0.52094492288128746}",
      "curveMode": 4,
      "curveTo": "{0.6175670423629912, 0.15776087761220631}",
      "hasCurveFrom": true,
      "hasCurveTo": true,
      "point": "{0.66614846482704027, 0.63531297559820998}"
    }
  ],
  "resizingConstraint": 63,
  "resizingType": 0,
  "rotation": 0,
  "shouldBreakMaskChain": false,
  "style": {
    "_class": "style",
    "do_objectID": "033C63F3-E1F8-444E-8D32-343EF8BCE002",
    "endMarkerType": 0,
    "fills": [
      {
        "_class": "fill",
        "color": {
          "_class": "color",
          "alpha": 1,
          "blue": 0.1764705882352941,
          "green": 0.1764705882352941,
          "red": 0.1764705882352941
        },
        "fillType": 0,
        "isEnabled": true,
        "noiseIndex": 0,
        "noiseIntensity": 0,
        "patternFillType": 1,
        "patternTileScale": 1
      }
    ],
    "miterLimit": 10,
    "startMarkerType": 0,
    "windingRule": 1
  }
}