{
  "_class": "shapePath",
  "booleanOperation": -1,
  "clippingMaskMode": 0,
  "do_objectID": "5B949E53-0293-426D-BDDD-B98AFC80216B",
  "edited": true,
  "exportOptions": {
    "_class": "exportOptions",
    "do_objectID": "F20B6C04-3B02-4E2A-8CB1-9A2511BE5E7D",
    "exportFormats": [
    ],
    "includedLayerIds": [
    ],
    "layerOptions": 0,
    "shouldTrim": false
  },
  "frame": {
    "_class": "rect",
    "constrainProportions": false,
    "do_objectID": "81F6BB4F-640D-4CFA-8D6A-61A14CDE3930",
    "height": 0.1058906030855624,
    "width": 0.1059863482545822,
    "x": 39.03346791042904,
    "y": 22.22226833456434
  },
  "hasClippingMask": false,
  "isClosed": true,
  "isFixedToViewport": false,
  "isFlippedHorizontal": false,
  "isFlippedVertical": false,
  "isLocked": false,
  "isVisible": true,
  "layerListExpandedType": 0,
  "name": "Path",
  "nameIsFixed": false,
  "pointRadiusBehaviour": 0,
  "points": [
    {
      "_class": "curvePoint",
      "cornerRadius": 0,
      "curveFrom": "{-0.25850474106050569, 0.51373926449116425}",
      "curveMode": 4,
      "curveTo": "{0.32149525893953523, 0.86673926449117289}",
      "hasCurveFrom": true,
      "hasCurveTo": true,
      "point": "{0.11949525893948021, 0.74673926449116834}"
    },
    {
      "_class": "curvePoint",
      "cornerRadius": 0,
      "curveFrom": "{0.93849525893949703, 0.24873926449112105}",
      "curveMode": 3,
      "curveTo": "{0.3634952589395084, -0.1062607355088403}",
      "hasCurveFrom": true,
      "hasCurveTo": true,
      "point": "{0.56149525893948748, 0.015739264491173799}"
    }
  ],
  "resizingConstraint": 63,
  "resizingType": 0,
  "rotation": 0,
  "shouldBreakMaskChain": false,
  "style": {
    "_class": "style",
    "do_objectID": "2C0EF91F-97A9-4A19-9E9D-292FD89DBA3B",
    "endMarkerType": 0,
    "fills": [
      {
        "_class": "fill",
        "color": {
          "_class": "color",
          "alpha": 1,
          "blue": 0.1764705882352941,
          "green": 0.1764705882352941,
          "red": 0.1764705882352941
        },
        "fillType": 0,
        "isEnabled": true,
        "noiseIndex": 0,
        "noiseIntensity": 0,
        "patternFillType": 1,
        "patternTileScale": 1
      }
    ],
    "miterLimit": 10,
    "startMarkerType": 0,
    "windingRule": 1
  }
}