{
  "_class": "shapePath",
  "booleanOperation": -1,
  "clippingMaskMode": 0,
  "do_objectID": "5FCEFC7B-B1FA-4747-B779-6758980400E8",
  "edited": true,
  "exportOptions": {
    "_class": "exportOptions",
    "do_objectID": "851D2E81-093E-4B8B-BC96-55D8D157D1DC",
    "exportFormats": [
    ],
    "includedLayerIds": [
    ],
    "layerOptions": 0,
    "shouldTrim": false
  },
  "frame": {
    "_class": "rect",
    "constrainProportions": false,
    "do_objectID": "106C64C4-699C-4A18-89AE-F13229685ADA",
    "height": 0.1904276595735119,
    "width": 0.1586896253680479,
    "x": 34.159585576533,
    "y": 13.27804518520855
  },
  "hasClippingMask": false,
  "isClosed": true,
  "isFixedToViewport": false,
  "isFlippedHorizontal": false,
  "isFlippedVertical": false,
  "isLocked": false,
  "isVisible": true,
  "layerListExpandedType": 0,
  "name": "Path",
  "nameIsFixed": false,
  "pointRadiusBehaviour": 0,
  "points": [
    {
      "_class": "curvePoint",
      "cornerRadius": 0,
      "curveFrom": "{0.59437340153452034, 1.029773358332051}",
      "curveMode": 4,
      "curveTo": "{0.91304347826088983, 0.59453202500834434}",
      "hasCurveFrom": true,
      "hasCurveTo": true,
      "point": "{1, 0.99825881951995721}"
    },
    {
      "_class": "curvePoint",
      "cornerRadius": 0,
      "curveFrom": "{0.20869565217392266, 0.25000145880590502}",
      "curveMode": 4,
      "curveTo": "{0.50588235294119732, 0.62817592455095861}",
      "hasCurveFrom": true,
      "hasCurveTo": true,
      "point": "{0.41943734015345263, 0.22487500218544493}"
    },
    {
      "_class": "curvePoint",
      "cornerRadius": 0,
      "curveFrom": "{0.21074168797952997, -0.012761655343544532}",
      "curveMode": 4,
      "curveTo": "{0.0076726342710928281, 0.26320349533529602}",
      "hasCurveFrom": true,
      "hasCurveTo": true,
      "point": "{0, 0.013642417715237455}"
    },
    {
      "_class": "curvePoint",
      "cornerRadius": 0,
      "curveFrom": "{0.82404092071611412, 0.19293459122725184}",
      "curveMode": 4,
      "curveTo": "{0.4117647058823598, -0.026389564019034761}",
      "hasCurveFrom": true,
      "hasCurveTo": true,
      "point": "{0.41943734015345263, 0.22487500218544493}"
    }
  ],
  "resizingConstraint": 63,
  "resizingType": 0,
  "rotation": 0,
  "shouldBreakMaskChain": false,
  "style": {
    "_class": "style",
    "do_objectID": "1B791EAB-5037-4DBE-B981-D62C2DD5C8EC",
    "endMarkerType": 0,
    "fills": [
      {
        "_class": "fill",
        "color": {
          "_class": "color",
          "alpha": 1,
          "blue": 0.1764705882352941,
          "green": 0.1764705882352941,
          "red": 0.1764705882352941
        },
        "fillType": 0,
        "isEnabled": true,
        "noiseIndex": 0,
        "noiseIntensity": 0,
        "patternFillType": 1,
        "patternTileScale": 1
      }
    ],
    "miterLimit": 10,
    "startMarkerType": 0,
    "windingRule": 1
  }
}