{
  "_class": "shapePath",
  "booleanOperation": -1,
  "clippingMaskMode": 0,
  "do_objectID": "63A6DEB5-7E63-416F-B422-4A7DDE6077BF",
  "edited": true,
  "exportOptions": {
    "_class": "exportOptions",
    "do_objectID": "8FD54BF2-C866-4D6F-805D-27DFAF32ECD4",
    "exportFormats": [
    ],
    "includedLayerIds": [
    ],
    "layerOptions": 0,
    "shouldTrim": false
  },
  "frame": {
    "_class": "rect",
    "constrainProportions": false,
    "do_objectID": "9928FD8D-A843-44B5-8C7E-58BD9E26D859",
    "height": 0.1058906030855908,
    "width": 0.1059863482545618,
    "x": 6.842941324123077,
    "y": 20.39028934551798
  },
  "hasClippingMask": false,
  "isClosed": true,
  "isFixedToViewport": false,
  "isFlippedHorizontal": false,
  "isFlippedVertical": false,
  "isLocked": false,
  "isVisible": true,
  "layerListExpandedType": 0,
  "name": "Path",
  "nameIsFixed": false,
  "pointRadiusBehaviour": 0,
  "points": [
    {
      "_class": "curvePoint",
      "cornerRadius": 0,
      "curveFrom": "{0.93938565053494472, 0.24747874490202548}",
      "curveMode": 3,
      "curveTo": "{0.36038565053493699, -0.10552125509798316}",
      "hasCurveFrom": true,
      "hasCurveTo": true,
      "point": "{0.5613856505349446, 0.015478744902026165}"
    },
    {
      "_class": "curvePoint",
      "cornerRadius": 0,
      "curveFrom": "{-0.25861434946506279, 0.51547874490202616}",
      "curveMode": 4,
      "curveTo": "{0.31738565053494483, 0.87047874490201593}",
      "hasCurveFrom": true,
      "hasCurveTo": true,
      "point": "{0.1203856505349421, 0.74547874490201593}"
    }
  ],
  "resizingConstraint": 63,
  "resizingType": 0,
  "rotation": 0,
  "shouldBreakMaskChain": false,
  "style": {
    "_class": "style",
    "do_objectID": "5BFC9FD0-BA6B-4D7D-A046-CFF6D14A6CF4",
    "endMarkerType": 0,
    "fills": [
      {
        "_class": "fill",
        "color": {
          "_class": "color",
          "alpha": 1,
          "blue": 0.1764705882352941,
          "green": 0.1764705882352941,
          "red": 0.1764705882352941
        },
        "fillType": 0,
        "isEnabled": true,
        "noiseIndex": 0,
        "noiseIntensity": 0,
        "patternFillType": 1,
        "patternTileScale": 1
      }
    ],
    "miterLimit": 10,
    "startMarkerType": 0,
    "windingRule": 1
  }
}