{
  "_class": "shapePath",
  "booleanOperation": -1,
  "clippingMaskMode": 0,
  "do_objectID": "74A43121-B2A0-427A-8D68-43FBFAC0B6EF",
  "edited": true,
  "exportOptions": {
    "_class": "exportOptions",
    "do_objectID": "7102A134-0E25-49DD-9F08-4223E1278EF0",
    "exportFormats": [
    ],
    "includedLayerIds": [
    ],
    "layerOptions": 0,
    "shouldTrim": false
  },
  "frame": {
    "_class": "rect",
    "constrainProportions": false,
    "do_objectID": "D9BB7F00-C79B-44C7-8E0F-CAF1758EDAD9",
    "height": 0.1058906030855526,
    "width": 0.1059863482545609,
    "x": 22.94220795889969,
    "y": 5.079598923635483
  },
  "hasClippingMask": false,
  "isClosed": true,
  "isFixedToViewport": false,
  "isFlippedHorizontal": false,
  "isFlippedVertical": false,
  "isLocked": false,
  "isVisible": true,
  "layerListExpandedType": 0,
  "name": "Path",
  "nameIsFixed": false,
  "pointRadiusBehaviour": 0,
  "points": [
    {
      "_class": "curvePoint",
      "cornerRadius": 0,
      "curveFrom": "{-0.2688792966707183, 0.70131423238056811}",
      "curveMode": 4,
      "curveTo": "{0.41112070332928852, 0.94931423238055856}",
      "hasCurveFrom": true,
      "hasCurveTo": true,
      "point": "{0.17312070332928897, 0.86431423238052218}"
    },
    {
      "_class": "curvePoint",
      "cornerRadius": 0,
      "curveFrom": "{0.92812070332928442, 0.1663142323805431}",
      "curveMode": 3,
      "curveTo": "{0.24712070332930125, -0.077685767619428248}",
      "hasCurveFrom": true,
      "hasCurveTo": true,
      "point": "{0.48412070332932444, 0.0063142323805749356}"
    }
  ],
  "resizingConstraint": 63,
  "resizingType": 0,
  "rotation": 0,
  "shouldBreakMaskChain": false,
  "style": {
    "_class": "style",
    "do_objectID": "D8BAFD55-AAF3-4665-BB7C-45F977D2635C",
    "endMarkerType": 0,
    "fills": [
      {
        "_class": "fill",
        "color": {
          "_class": "color",
          "alpha": 1,
          "blue": 0.1764705882352941,
          "green": 0.1764705882352941,
          "red": 0.1764705882352941
        },
        "fillType": 0,
        "isEnabled": true,
        "noiseIndex": 0,
        "noiseIntensity": 0,
        "patternFillType": 1,
        "patternTileScale": 1
      }
    ],
    "miterLimit": 10,
    "startMarkerType": 0,
    "windingRule": 1
  }
}