{
  "_class": "shapePath",
  "booleanOperation": -1,
  "clippingMaskMode": 0,
  "do_objectID": "7680EF35-C5BA-4105-AB30-1486FE4206D0",
  "edited": true,
  "exportOptions": {
    "_class": "exportOptions",
    "do_objectID": "20D612AB-B4C5-4033-ABBA-8F9427F85E89",
    "exportFormats": [
    ],
    "includedLayerIds": [
    ],
    "layerOptions": 0,
    "shouldTrim": false
  },
  "frame": {
    "_class": "rect",
    "constrainProportions": false,
    "do_objectID": "34A3E0A9-78E9-459E-8482-CA3CC6A2EA07",
    "height": 0.1058906030855553,
    "width": 0.1059863482545618,
    "x": 7.556119292874161,
    "y": 21.87935063076894
  },
  "hasClippingMask": false,
  "isClosed": true,
  "isFixedToViewport": false,
  "isFlippedHorizontal": false,
  "isFlippedVertical": false,
  "isLocked": false,
  "isVisible": true,
  "layerListExpandedType": 0,
  "name": "Path",
  "nameIsFixed": false,
  "pointRadiusBehaviour": 0,
  "points": [
    {
      "_class": "curvePoint",
      "cornerRadius": 0,
      "curveFrom": "{0.9412855783028391, 0.2441838254145523}",
      "curveMode": 3,
      "curveTo": "{0.36228557830284558, -0.10781617458542314}",
      "hasCurveFrom": true,
      "hasCurveTo": true,
      "point": "{0.56528557830283432, 0.016183825414543662}"
    },
    {
      "_class": "curvePoint",
      "cornerRadius": 0,
      "curveFrom": "{-0.25571442169716363, 0.51418382541453411}",
      "curveMode": 3,
      "curveTo": "{0.3232855783028441, 0.86818382541457595}",
      "hasCurveFrom": true,
      "hasCurveTo": true,
      "point": "{0.11728557830284103, 0.74318382541457595}"
    }
  ],
  "resizingConstraint": 63,
  "resizingType": 0,
  "rotation": 0,
  "shouldBreakMaskChain": false,
  "style": {
    "_class": "style",
    "do_objectID": "1E94B21F-F3AF-4C5B-A990-74EF1A76119C",
    "endMarkerType": 0,
    "fills": [
      {
        "_class": "fill",
        "color": {
          "_class": "color",
          "alpha": 1,
          "blue": 0.1764705882352941,
          "green": 0.1764705882352941,
          "red": 0.1764705882352941
        },
        "fillType": 0,
        "isEnabled": true,
        "noiseIndex": 0,
        "noiseIntensity": 0,
        "patternFillType": 1,
        "patternTileScale": 1
      }
    ],
    "miterLimit": 10,
    "startMarkerType": 0,
    "windingRule": 1
  }
}