{
  "_class": "shapePath",
  "booleanOperation": -1,
  "clippingMaskMode": 0,
  "do_objectID": "7698EBA8-A7AF-4E51-927F-5EE57BF8DBB3",
  "edited": true,
  "exportOptions": {
    "_class": "exportOptions",
    "do_objectID": "429194A2-014F-48C1-A813-2A62ADA6B728",
    "exportFormats": [
    ],
    "includedLayerIds": [
    ],
    "layerOptions": 0,
    "shouldTrim": false
  },
  "frame": {
    "_class": "rect",
    "constrainProportions": false,
    "do_objectID": "B76791F1-DFF8-403F-A829-ABE7E72140E3",
    "height": 0.1058906030855553,
    "width": 0.1059863482545573,
    "x": 6.932860937574035,
    "y": 21.95765739331776
  },
  "hasClippingMask": false,
  "isClosed": true,
  "isFixedToViewport": false,
  "isFlippedHorizontal": false,
  "isFlippedVertical": false,
  "isLocked": false,
  "isVisible": true,
  "layerListExpandedType": 0,
  "name": "Path",
  "nameIsFixed": false,
  "pointRadiusBehaviour": 0,
  "points": [
    {
      "_class": "curvePoint",
      "cornerRadius": 0,
      "curveFrom": "{0.92760784912579197, 0.16559995348745815}",
      "curveMode": 3,
      "curveTo": "{0.24960784912578049, -0.079400046512489553}",
      "hasCurveFrom": true,
      "hasCurveTo": true,
      "point": "{0.48360784912578936, 0.0065999534874663368}"
    },
    {
      "_class": "curvePoint",
      "cornerRadius": 0,
      "curveFrom": "{-0.26939215087421076, 0.70059995348754001}",
      "curveMode": 3,
      "curveTo": "{0.41160784912578663, 0.94759995348749726}",
      "hasCurveFrom": true,
      "hasCurveTo": true,
      "point": "{0.17260784912578231, 0.86059995348750817}"
    }
  ],
  "resizingConstraint": 63,
  "resizingType": 0,
  "rotation": 0,
  "shouldBreakMaskChain": false,
  "style": {
    "_class": "style",
    "do_objectID": "10FD4781-F100-4113-B5A6-BC554BC755E0",
    "endMarkerType": 0,
    "fills": [
      {
        "_class": "fill",
        "color": {
          "_class": "color",
          "alpha": 1,
          "blue": 0.1764705882352941,
          "green": 0.1764705882352941,
          "red": 0.1764705882352941
        },
        "fillType": 0,
        "isEnabled": true,
        "noiseIndex": 0,
        "noiseIntensity": 0,
        "patternFillType": 1,
        "patternTileScale": 1
      }
    ],
    "miterLimit": 10,
    "startMarkerType": 0,
    "windingRule": 1
  }
}