{
  "_class": "shapePath",
  "booleanOperation": -1,
  "clippingMaskMode": 0,
  "do_objectID": "77F31660-5BD2-40CB-A1F7-80129FDB5396",
  "edited": true,
  "exportOptions": {
    "_class": "exportOptions",
    "do_objectID": "9019583E-175D-4448-9792-EB96E24EA4B0",
    "exportFormats": [
    ],
    "includedLayerIds": [
    ],
    "layerOptions": 0,
    "shouldTrim": false
  },
  "frame": {
    "_class": "rect",
    "constrainProportions": false,
    "do_objectID": "8195E869-BB8F-4575-9DD8-6DDD306BD361",
    "height": 0.1058906030855553,
    "width": 0.1059863482545467,
    "x": 18.33366723518059,
    "y": 24.49476253941612
  },
  "hasClippingMask": false,
  "isClosed": true,
  "isFixedToViewport": false,
  "isFlippedHorizontal": false,
  "isFlippedVertical": false,
  "isLocked": false,
  "isVisible": true,
  "layerListExpandedType": 0,
  "name": "Path",
  "nameIsFixed": false,
  "pointRadiusBehaviour": 0,
  "points": [
    {
      "_class": "curvePoint",
      "cornerRadius": 0,
      "curveFrom": "{1.0557107519962869, 0.27710126248166489}",
      "curveMode": 4,
      "curveTo": "{0.40671075199628604, -0.12089873751835967}",
      "hasCurveFrom": true,
      "hasCurveTo": true,
      "point": "{0.6297107519962708, 0.018101262481650338}"
    },
    {
      "_class": "curvePoint",
      "cornerRadius": 0,
      "curveFrom": "{-0.28928924800371192, 0.57810126248159577}",
      "curveMode": 3,
      "curveTo": "{0.36071075199626534, 0.97410126248166762}",
      "hasCurveFrom": true,
      "hasCurveTo": true,
      "point": "{0.1337107519962899, 0.83610126248163397}"
    }
  ],
  "resizingConstraint": 63,
  "resizingType": 0,
  "rotation": 0,
  "shouldBreakMaskChain": false,
  "style": {
    "_class": "style",
    "do_objectID": "3269B8F4-27EB-4E41-A6ED-6D51D3C31D2B",
    "endMarkerType": 0,
    "fills": [
      {
        "_class": "fill",
        "color": {
          "_class": "color",
          "alpha": 1,
          "blue": 0.1764705882352941,
          "green": 0.1764705882352941,
          "red": 0.1764705882352941
        },
        "fillType": 0,
        "isEnabled": true,
        "noiseIndex": 0,
        "noiseIntensity": 0,
        "patternFillType": 1,
        "patternTileScale": 1
      }
    ],
    "miterLimit": 10,
    "startMarkerType": 0,
    "windingRule": 1
  }
}