{
  "_class": "shapePath",
  "booleanOperation": -1,
  "clippingMaskMode": 0,
  "do_objectID": "7ECCE0AC-E798-4938-915B-F583DA8F701C",
  "edited": true,
  "exportOptions": {
    "_class": "exportOptions",
    "do_objectID": "3EF102C6-686A-4FFF-BE61-27ABBCCDC865",
    "exportFormats": [
    ],
    "includedLayerIds": [
    ],
    "layerOptions": 0,
    "shouldTrim": false
  },
  "frame": {
    "_class": "rect",
    "constrainProportions": false,
    "do_objectID": "5833DB52-427A-469C-95E4-7D10B2E460CC",
    "height": 0.1058906030855589,
    "width": 0.1059863482545609,
    "x": 6.201979399230206,
    "y": 14.6525144242025
  },
  "hasClippingMask": false,
  "isClosed": true,
  "isFixedToViewport": false,
  "isFlippedHorizontal": false,
  "isFlippedVertical": false,
  "isLocked": false,
  "isVisible": true,
  "layerListExpandedType": 0,
  "name": "Path",
  "nameIsFixed": false,
  "pointRadiusBehaviour": 0,
  "points": [
    {
      "_class": "curvePoint",
      "cornerRadius": 0,
      "curveFrom": "{-0.30219036926101239, 0.78774906226655617}",
      "curveMode": 3,
      "curveTo": "{0.4618096307389834, 1.0667490622665525}",
      "hasCurveFrom": true,
      "hasCurveTo": true,
      "point": "{0.19380963073899693, 0.96774906226656299}"
    },
    {
      "_class": "curvePoint",
      "cornerRadius": 0,
      "curveFrom": "{1.0398096307389864, 0.18974906226654298}",
      "curveMode": 4,
      "curveTo": "{0.27980963073899545, -0.091250937733462933}",
      "hasCurveFrom": true,
      "hasCurveTo": true,
      "point": "{0.54080963073899113, 0.0077490622665266073}"
    }
  ],
  "resizingConstraint": 63,
  "resizingType": 0,
  "rotation": 0,
  "shouldBreakMaskChain": false,
  "style": {
    "_class": "style",
    "do_objectID": "8F49C333-E65F-4FD6-8159-38DDF172E007",
    "endMarkerType": 0,
    "fills": [
      {
        "_class": "fill",
        "color": {
          "_class": "color",
          "alpha": 1,
          "blue": 0.1764705882352941,
          "green": 0.1764705882352941,
          "red": 0.1764705882352941
        },
        "fillType": 0,
        "isEnabled": true,
        "noiseIndex": 0,
        "noiseIntensity": 0,
        "patternFillType": 1,
        "patternTileScale": 1
      }
    ],
    "miterLimit": 10,
    "startMarkerType": 0,
    "windingRule": 1
  }
}