{
  "_class": "shapePath",
  "booleanOperation": -1,
  "clippingMaskMode": 0,
  "do_objectID": "89BCF6A7-9276-4E61-B682-BF3ED0565A26",
  "edited": true,
  "exportOptions": {
    "_class": "exportOptions",
    "do_objectID": "D6A0178A-4881-49BB-8E28-E38469B486B6",
    "exportFormats": [
    ],
    "includedLayerIds": [
    ],
    "layerOptions": 0,
    "shouldTrim": false
  },
  "frame": {
    "_class": "rect",
    "constrainProportions": false,
    "do_objectID": "861C6190-6F64-446C-8F43-831D0551B328",
    "height": 0.1058906030856051,
    "width": 0.1059863482545786,
    "x": 25.37621318746247,
    "y": 35.09426747897866
  },
  "hasClippingMask": false,
  "isClosed": true,
  "isFixedToViewport": false,
  "isFlippedHorizontal": false,
  "isFlippedVertical": false,
  "isLocked": false,
  "isVisible": true,
  "layerListExpandedType": 0,
  "name": "Path",
  "nameIsFixed": false,
  "pointRadiusBehaviour": 0,
  "points": [
    {
      "_class": "curvePoint",
      "cornerRadius": 0,
      "curveFrom": "{-0.2699619457732183, 0.70088218917902623}",
      "curveMode": 3,
      "curveTo": "{0.40703805422680261, 0.94788218917904032}",
      "hasCurveFrom": true,
      "hasCurveTo": true,
      "point": "{0.17403805422679852, 0.86388218917903714}"
    },
    {
      "_class": "curvePoint",
      "cornerRadius": 0,
      "curveFrom": "{0.92703805422678442, 0.16488218917902486}",
      "curveMode": 4,
      "curveTo": "{0.2480380542268108, -0.081117810820956038}",
      "hasCurveFrom": true,
      "hasCurveTo": true,
      "point": "{0.4830380542267676, 0.0068821891790094014}"
    }
  ],
  "resizingConstraint": 63,
  "resizingType": 0,
  "rotation": 0,
  "shouldBreakMaskChain": false,
  "style": {
    "_class": "style",
    "do_objectID": "95671C58-CA59-400F-B2A1-D682178D2F5A",
    "endMarkerType": 0,
    "fills": [
      {
        "_class": "fill",
        "color": {
          "_class": "color",
          "alpha": 1,
          "blue": 0.1764705882352941,
          "green": 0.1764705882352941,
          "red": 0.1764705882352941
        },
        "fillType": 0,
        "isEnabled": true,
        "noiseIndex": 0,
        "noiseIntensity": 0,
        "patternFillType": 1,
        "patternTileScale": 1
      }
    ],
    "miterLimit": 10,
    "startMarkerType": 0,
    "windingRule": 1
  }
}