{
  "_class": "shapePath",
  "booleanOperation": -1,
  "clippingMaskMode": 0,
  "do_objectID": "92A381F0-D41D-4C7F-A9BC-2FC3DE7F87ED",
  "edited": true,
  "exportOptions": {
    "_class": "exportOptions",
    "do_objectID": "11E0E988-3039-4AE6-829C-B14CC73C558D",
    "exportFormats": [
    ],
    "includedLayerIds": [
    ],
    "layerOptions": 0,
    "shouldTrim": false
  },
  "frame": {
    "_class": "rect",
    "constrainProportions": false,
    "do_objectID": "D7AF734F-285F-4E7D-93FF-E646BC8A6546",
    "height": 0.1058906030855482,
    "width": 0.1059863482545396,
    "x": 27.13742027773378,
    "y": 35.52059229885941
  },
  "hasClippingMask": false,
  "isClosed": true,
  "isFixedToViewport": false,
  "isFlippedHorizontal": false,
  "isFlippedVertical": false,
  "isLocked": false,
  "isVisible": true,
  "layerListExpandedType": 0,
  "name": "Path",
  "nameIsFixed": false,
  "pointRadiusBehaviour": 0,
  "points": [
    {
      "_class": "curvePoint",
      "cornerRadius": 0,
      "curveFrom": "{0.94059026269411561, 0.24696239221663063}",
      "curveMode": 3,
      "curveTo": "{0.36259026269408423, -0.10703760778335436}",
      "hasCurveFrom": true,
      "hasCurveTo": true,
      "point": "{0.56359026269410606, 0.01596239221663609}"
    },
    {
      "_class": "curvePoint",
      "cornerRadius": 0,
      "curveFrom": "{-0.25840973730589667, 0.51396239221662654}",
      "curveMode": 4,
      "curveTo": "{0.31959026269413471, 0.86996239221662108}",
      "hasCurveFrom": true,
      "hasCurveTo": true,
      "point": "{0.11959026269408923, 0.74296239221666838}"
    }
  ],
  "resizingConstraint": 63,
  "resizingType": 0,
  "rotation": 0,
  "shouldBreakMaskChain": false,
  "style": {
    "_class": "style",
    "do_objectID": "647983C4-10B7-4B69-B2BF-5AF3DC56AB13",
    "endMarkerType": 0,
    "fills": [
      {
        "_class": "fill",
        "color": {
          "_class": "color",
          "alpha": 1,
          "blue": 0.1764705882352941,
          "green": 0.1764705882352941,
          "red": 0.1764705882352941
        },
        "fillType": 0,
        "isEnabled": true,
        "noiseIndex": 0,
        "noiseIntensity": 0,
        "patternFillType": 1,
        "patternTileScale": 1
      }
    ],
    "miterLimit": 10,
    "startMarkerType": 0,
    "windingRule": 1
  }
}