{
  "_class": "shapePath",
  "booleanOperation": -1,
  "clippingMaskMode": 0,
  "do_objectID": "9BC11532-207C-4B28-A124-81A174A4E066",
  "edited": true,
  "exportOptions": {
    "_class": "exportOptions",
    "do_objectID": "215962F8-DCAA-4DF1-B3A8-95EAEDC21040",
    "exportFormats": [
    ],
    "includedLayerIds": [
    ],
    "layerOptions": 0,
    "shouldTrim": false
  },
  "frame": {
    "_class": "rect",
    "constrainProportions": false,
    "do_objectID": "14F13E8C-C442-4D67-A9F8-28DA849A9CF1",
    "height": 0.1058906030855553,
    "width": 0.1059863482545431,
    "x": 18.47876076540329,
    "y": 8.375044517690831
  },
  "hasClippingMask": false,
  "isClosed": true,
  "isFixedToViewport": false,
  "isFlippedHorizontal": false,
  "isFlippedVertical": false,
  "isLocked": false,
  "isVisible": true,
  "layerListExpandedType": 0,
  "name": "Path",
  "nameIsFixed": false,
  "pointRadiusBehaviour": 0,
  "points": [
    {
      "_class": "curvePoint",
      "cornerRadius": 0,
      "curveFrom": "{0.93120983044872219, 0.16688233786440776}",
      "curveMode": 4,
      "curveTo": "{0.24720983044872469, -0.081117662135582691}",
      "hasCurveFrom": true,
      "hasCurveTo": true,
      "point": "{0.48320983044871468, 0.0068823378643827482}"
    },
    {
      "_class": "curvePoint",
      "cornerRadius": 0,
      "curveFrom": "{-0.26979016955127122, 0.70088233786439957}",
      "curveMode": 3,
      "curveTo": "{0.41120983044874038, 0.94788233786441367}",
      "hasCurveFrom": true,
      "hasCurveTo": true,
      "point": "{0.17420983044871718, 0.86288233786437729}"
    }
  ],
  "resizingConstraint": 63,
  "resizingType": 0,
  "rotation": 0,
  "shouldBreakMaskChain": false,
  "style": {
    "_class": "style",
    "do_objectID": "7AF8C3BC-EC58-4777-9952-659BB654AC44",
    "endMarkerType": 0,
    "fills": [
      {
        "_class": "fill",
        "color": {
          "_class": "color",
          "alpha": 1,
          "blue": 0.1764705882352941,
          "green": 0.1764705882352941,
          "red": 0.1764705882352941
        },
        "fillType": 0,
        "isEnabled": true,
        "noiseIndex": 0,
        "noiseIntensity": 0,
        "patternFillType": 1,
        "patternTileScale": 1
      }
    ],
    "miterLimit": 10,
    "startMarkerType": 0,
    "windingRule": 1
  }
}