{
  "_class": "shapePath",
  "booleanOperation": -1,
  "clippingMaskMode": 0,
  "do_objectID": "B478505C-C3D9-47CC-962E-9F1C5B1036EB",
  "edited": true,
  "exportOptions": {
    "_class": "exportOptions",
    "do_objectID": "FFCBF7A8-DA26-418D-B45C-A339912C28F6",
    "exportFormats": [
    ],
    "includedLayerIds": [
    ],
    "layerOptions": 0,
    "shouldTrim": false
  },
  "frame": {
    "_class": "rect",
    "constrainProportions": false,
    "do_objectID": "4F149198-7A9F-4C3B-8E26-60154CE722BA",
    "height": 0.1927643612772094,
    "width": 0.1473256624260664,
    "x": 20.9945156794422,
    "y": 10.6654811594212
  },
  "hasClippingMask": false,
  "isClosed": true,
  "isFixedToViewport": false,
  "isFlippedHorizontal": false,
  "isFlippedVertical": false,
  "isLocked": false,
  "isVisible": true,
  "layerListExpandedType": 0,
  "name": "Path",
  "nameIsFixed": false,
  "pointRadiusBehaviour": 0,
  "points": [
    {
      "_class": "curvePoint",
      "cornerRadius": 0,
      "curveFrom": "{0.25234159779615833, 1.0702854696406956}",
      "curveMode": 4,
      "curveTo": "{0.50027548209367301, 0.55407467119370357}",
      "hasCurveFrom": true,
      "hasCurveTo": true,
      "point": "{0.53884297520661706, 0.96426662594986956}"
    },
    {
      "_class": "curvePoint",
      "cornerRadius": 0,
      "curveFrom": "{0.052341597796158351, 0.66430061185638378}",
      "curveMode": 3,
      "curveTo": "{0.15316804407714621, 0.92261636592847962}",
      "hasCurveFrom": true,
      "hasCurveTo": true,
      "point": "{0.087052341597804769, 0.75391177735696879}"
    },
    {
      "_class": "curvePoint",
      "cornerRadius": 0,
      "curveFrom": "{0.32451790633608779, 0.47161557054527542}",
      "curveMode": 4,
      "curveTo": "{0.03471074380167774, 0.5683788008980174}",
      "hasCurveFrom": true,
      "hasCurveTo": true,
      "point": "{0, 0.4787676353974562}"
    },
    {
      "_class": "curvePoint",
      "cornerRadius": 0,
      "curveFrom": "{0.51570247933886315, 0.08961116550058508}",
      "curveMode": 4,
      "curveTo": "{0.30798898071626812, 0.30669736924846686}",
      "hasCurveFrom": true,
      "hasCurveTo": true,
      "point": "{0.27603305785125831, 0.13378568370510188}"
    },
    {
      "_class": "curvePoint",
      "cornerRadius": 0,
      "curveFrom": "{0.98677685950413174, 0.38705292141094405}",
      "curveMode": 4,
      "curveTo": "{0.7586776859504194, 0.044595227901692659}",
      "hasCurveFrom": true,
      "hasCurveTo": true,
      "point": "{1, 0}"
    }
  ],
  "resizingConstraint": 63,
  "resizingType": 0,
  "rotation": 0,
  "shouldBreakMaskChain": false,
  "style": {
    "_class": "style",
    "do_objectID": "9BF1BF5D-6BF2-4420-9319-50E3359A2278",
    "endMarkerType": 0,
    "fills": [
      {
        "_class": "fill",
        "color": {
          "_class": "color",
          "alpha": 1,
          "blue": 0.1764705882352941,
          "green": 0.1764705882352941,
          "red": 0.1764705882352941
        },
        "fillType": 0,
        "isEnabled": true,
        "noiseIndex": 0,
        "noiseIntensity": 0,
        "patternFillType": 1,
        "patternTileScale": 1
      }
    ],
    "miterLimit": 10,
    "startMarkerType": 0,
    "windingRule": 1
  }
}