{
  "_class": "shapePath",
  "booleanOperation": -1,
  "clippingMaskMode": 0,
  "do_objectID": "BB4B4E5B-B685-4202-9018-84DF7D22251C",
  "edited": true,
  "exportOptions": {
    "_class": "exportOptions",
    "do_objectID": "9EB01248-5C3F-4EFC-9535-6FBEDC312CDA",
    "exportFormats": [
    ],
    "includedLayerIds": [
    ],
    "layerOptions": 0,
    "shouldTrim": false
  },
  "frame": {
    "_class": "rect",
    "constrainProportions": false,
    "do_objectID": "61E7094B-72ED-4F99-810C-AE79BF942995",
    "height": 0.1058906030855589,
    "width": 0.10598634825456,
    "x": 4.753176828336932,
    "y": 20.49049377143344
  },
  "hasClippingMask": false,
  "isClosed": true,
  "isFixedToViewport": false,
  "isFlippedHorizontal": false,
  "isFlippedVertical": false,
  "isLocked": false,
  "isVisible": true,
  "layerListExpandedType": 0,
  "name": "Path",
  "nameIsFixed": false,
  "pointRadiusBehaviour": 0,
  "points": [
    {
      "_class": "curvePoint",
      "cornerRadius": 0,
      "curveFrom": "{1.0545443512841643, 0.27587948871610024}",
      "curveMode": 4,
      "curveTo": "{0.40454435128416577, -0.12012051128388634}",
      "hasCurveFrom": true,
      "hasCurveTo": true,
      "point": "{0.63454435128416264, 0.017879488716118885}"
    },
    {
      "_class": "curvePoint",
      "cornerRadius": 0,
      "curveFrom": "{-0.2874556487158344, 0.57787948871609274}",
      "curveMode": 4,
      "curveTo": "{0.3585443512841664, 0.97287948871610297}",
      "hasCurveFrom": true,
      "hasCurveTo": true,
      "point": "{0.1325443512841602, 0.83687948871610729}"
    }
  ],
  "resizingConstraint": 63,
  "resizingType": 0,
  "rotation": 0,
  "shouldBreakMaskChain": false,
  "style": {
    "_class": "style",
    "do_objectID": "9C9B3024-E706-49B9-ACE0-D5E502AE749D",
    "endMarkerType": 0,
    "fills": [
      {
        "_class": "fill",
        "color": {
          "_class": "color",
          "alpha": 1,
          "blue": 0.1764705882352941,
          "green": 0.1764705882352941,
          "red": 0.1764705882352941
        },
        "fillType": 0,
        "isEnabled": true,
        "noiseIndex": 0,
        "noiseIntensity": 0,
        "patternFillType": 1,
        "patternTileScale": 1
      }
    ],
    "miterLimit": 10,
    "startMarkerType": 0,
    "windingRule": 1
  }
}