{
  "_class": "shapePath",
  "booleanOperation": -1,
  "clippingMaskMode": 0,
  "do_objectID": "D18D1EFB-4352-4D35-86FC-B3BA32F76B64",
  "edited": true,
  "exportOptions": {
    "_class": "exportOptions",
    "do_objectID": "50D68E2F-E4AA-4867-87F4-0C110B87AD61",
    "exportFormats": [
    ],
    "includedLayerIds": [
    ],
    "layerOptions": 0,
    "shouldTrim": false
  },
  "frame": {
    "_class": "rect",
    "constrainProportions": false,
    "do_objectID": "86713C2D-FF93-43AD-B042-AB25186DA0F2",
    "height": 0.1312973965829656,
    "width": 0.1059863482545467,
    "x": 19.20081577116979,
    "y": 30.13609842366973
  },
  "hasClippingMask": false,
  "isClosed": true,
  "isFixedToViewport": false,
  "isFlippedHorizontal": false,
  "isFlippedVertical": false,
  "isLocked": false,
  "isVisible": true,
  "layerListExpandedType": 0,
  "name": "Path",
  "nameIsFixed": false,
  "pointRadiusBehaviour": 0,
  "points": [
    {
      "_class": "curvePoint",
      "cornerRadius": 0,
      "curveFrom": "{0.072901228019036257, 0.0858554663372499}",
      "curveMode": 3,
      "curveTo": "{-0.090216643884450914, 0.36071649166151515}",
      "hasCurveFrom": true,
      "hasCurveTo": true,
      "point": "{0.011347314093201125, 0.19024088943791684}"
    },
    {
      "_class": "curvePoint",
      "cornerRadius": 0,
      "curveFrom": "{0.47377109246112892, 0.19394688079062131}",
      "curveMode": 4,
      "curveTo": "{0.42991392878895007, 0.095120444718958419}",
      "hasCurveFrom": true,
      "hasCurveTo": true,
      "point": "{0.51762825613328589, 0}"
    },
    {
      "_class": "curvePoint",
      "cornerRadius": 0,
      "curveFrom": "{0.92388408804389399, 0.91352686843728181}",
      "curveMode": 4,
      "curveTo": "{1.087771383871458, 0.64113650401481959}",
      "hasCurveFrom": true,
      "hasCurveTo": true,
      "point": "{0.98928512159009119, 0.80914144533661481}"
    },
    {
      "_class": "curvePoint",
      "cornerRadius": 0,
      "curveFrom": "{0.52455307144995489, 0.8048177887584772}",
      "curveMode": 4,
      "curveTo": "{0.56610196334990348, 0.90302655960467182}",
      "hasCurveFrom": true,
      "hasCurveTo": true,
      "point": "{0.4822347556259296, 1}"
    }
  ],
  "resizingConstraint": 63,
  "resizingType": 0,
  "rotation": 0,
  "shouldBreakMaskChain": false,
  "style": {
    "_class": "style",
    "do_objectID": "DA5D8D99-448C-43F3-8545-EF8C34758A67",
    "endMarkerType": 0,
    "fills": [
      {
        "_class": "fill",
        "color": {
          "_class": "color",
          "alpha": 1,
          "blue": 0.1764705882352941,
          "green": 0.1764705882352941,
          "red": 0.1764705882352941
        },
        "fillType": 0,
        "isEnabled": true,
        "noiseIndex": 0,
        "noiseIntensity": 0,
        "patternFillType": 1,
        "patternTileScale": 1
      }
    ],
    "miterLimit": 10,
    "startMarkerType": 0,
    "windingRule": 1
  }
}