{
  "_class": "shapePath",
  "booleanOperation": -1,
  "clippingMaskMode": 0,
  "do_objectID": "D972D843-E4C2-4DD7-85CC-16D82E69852B",
  "edited": true,
  "exportOptions": {
    "_class": "exportOptions",
    "do_objectID": "34430EE6-AB4B-422E-A15F-02AE698C94CA",
    "exportFormats": [
    ],
    "includedLayerIds": [
    ],
    "layerOptions": 0,
    "shouldTrim": false
  },
  "frame": {
    "_class": "rect",
    "constrainProportions": false,
    "do_objectID": "D1C85E33-D627-4F0C-A0F2-DC757D091718",
    "height": 0.1168619817641208,
    "width": 0.1059863482545564,
    "x": 6.299125127637603,
    "y": 18.15397424347139
  },
  "hasClippingMask": false,
  "isClosed": true,
  "isFixedToViewport": false,
  "isFlippedHorizontal": false,
  "isFlippedVertical": false,
  "isLocked": false,
  "isVisible": true,
  "layerListExpandedType": 0,
  "name": "Path",
  "nameIsFixed": false,
  "pointRadiusBehaviour": 0,
  "points": [
    {
      "_class": "curvePoint",
      "cornerRadius": 0,
      "curveFrom": "{0.074348992843194309, 0.083969465648841557}",
      "curveMode": 3,
      "curveTo": "{-0.089893887318591131, 0.3594725884802219}",
      "hasCurveFrom": true,
      "hasCurveTo": true,
      "point": "{0.01124514941261107, 0.18875780707841144}"
    },
    {
      "_class": "curvePoint",
      "cornerRadius": 0,
      "curveFrom": "{0.47458295871109368, 0.19430950728660698}",
      "curveMode": 4,
      "curveTo": "{0.43309002056495943, 0.09576682859125954}",
      "hasCurveFrom": true,
      "hasCurveTo": true,
      "point": "{0.51694033306860976, 0}"
    },
    {
      "_class": "curvePoint",
      "cornerRadius": 0,
      "curveFrom": "{0.92408978862752744, 0.91464260929908492}",
      "curveMode": 4,
      "curveTo": "{1.0891971050006826, 0.63913948646772423}",
      "hasCurveFrom": true,
      "hasCurveTo": true,
      "point": "{0.98892250448086216, 0.80985426786953474}"
    },
    {
      "_class": "curvePoint",
      "cornerRadius": 0,
      "curveFrom": "{0.5255846951823796, 0.80569049271339299}",
      "curveMode": 4,
      "curveTo": "{0.56534876090576225, 0.90423317140874049}",
      "hasCurveFrom": true,
      "hasCurveTo": true,
      "point": "{0.48409175703624535, 1}"
    }
  ],
  "resizingConstraint": 63,
  "resizingType": 0,
  "rotation": 0,
  "shouldBreakMaskChain": false,
  "style": {
    "_class": "style",
    "do_objectID": "D1E21292-E905-43BF-AE43-741AB4DC4899",
    "endMarkerType": 0,
    "fills": [
      {
        "_class": "fill",
        "color": {
          "_class": "color",
          "alpha": 1,
          "blue": 0.1764705882352941,
          "green": 0.1764705882352941,
          "red": 0.1764705882352941
        },
        "fillType": 0,
        "isEnabled": true,
        "noiseIndex": 0,
        "noiseIntensity": 0,
        "patternFillType": 1,
        "patternTileScale": 1
      }
    ],
    "miterLimit": 10,
    "startMarkerType": 0,
    "windingRule": 1
  }
}