{
  "_class": "shapePath",
  "booleanOperation": -1,
  "clippingMaskMode": 0,
  "do_objectID": "DB593548-4ADF-4CE0-B8B4-8DA09E1AB8B3",
  "edited": true,
  "exportOptions": {
    "_class": "exportOptions",
    "do_objectID": "1B6D01F0-175D-4C07-8B04-4B32061C6807",
    "exportFormats": [
    ],
    "includedLayerIds": [
    ],
    "layerOptions": 0,
    "shouldTrim": false
  },
  "frame": {
    "_class": "rect",
    "constrainProportions": false,
    "do_objectID": "B6970D4C-9E6F-4A8C-ACB9-906CED27DC41",
    "height": 0.1167808839280458,
    "width": 0.1059863482545431,
    "x": 30.33656684959117,
    "y": 15.35293608375546
  },
  "hasClippingMask": false,
  "isClosed": true,
  "isFixedToViewport": false,
  "isFlippedHorizontal": false,
  "isFlippedVertical": false,
  "isLocked": false,
  "isVisible": true,
  "layerListExpandedType": 0,
  "name": "Path",
  "nameIsFixed": false,
  "pointRadiusBehaviour": 0,
  "points": [
    {
      "_class": "curvePoint",
      "cornerRadius": 0,
      "curveFrom": "{0.47541539562733864, 0.19374999999999779}",
      "curveMode": 4,
      "curveTo": "{0.43300137873272998, 0.094444444444461331}",
      "hasCurveFrom": true,
      "hasCurveTo": true,
      "point": "{0.51609822815884587, 0}"
    },
    {
      "_class": "curvePoint",
      "cornerRadius": 0,
      "curveFrom": "{0.92638892220026869, 0.91527777777776786}",
      "curveMode": 3,
      "curveTo": "{1.0899858445079467, 0.6409722222222245}",
      "hasCurveFrom": true,
      "hasCurveTo": true,
      "point": "{0.98871155926985566, 0.81111111111111678}"
    },
    {
      "_class": "curvePoint",
      "cornerRadius": 0,
      "curveFrom": "{0.52475414997405812, 0.80555555555557423}",
      "curveMode": 4,
      "curveTo": "{0.56716816686866678, 0.90416666666668266}",
      "hasCurveFrom": true,
      "hasCurveTo": true,
      "point": "{0.48407131744255089, 1}"
    },
    {
      "_class": "curvePoint",
      "cornerRadius": 0,
      "curveFrom": "{0.073780623401128079, 0.086111111111127667}",
      "curveMode": 3,
      "curveTo": "{-0.090681891088051497, 0.35972222222224298}",
      "hasCurveFrom": true,
      "hasCurveTo": true,
      "point": "{0.011457986331541131, 0.18888888888888319}"
    }
  ],
  "resizingConstraint": 63,
  "resizingType": 0,
  "rotation": 0,
  "shouldBreakMaskChain": false,
  "style": {
    "_class": "style",
    "do_objectID": "689BFC4C-FD7B-4033-9C91-3A397035BC7C",
    "endMarkerType": 0,
    "fills": [
      {
        "_class": "fill",
        "color": {
          "_class": "color",
          "alpha": 1,
          "blue": 0.1764705882352941,
          "green": 0.1764705882352941,
          "red": 0.1764705882352941
        },
        "fillType": 0,
        "isEnabled": true,
        "noiseIndex": 0,
        "noiseIntensity": 0,
        "patternFillType": 1,
        "patternTileScale": 1
      }
    ],
    "miterLimit": 10,
    "startMarkerType": 0,
    "windingRule": 1
  }
}