{
  "_class": "shapePath",
  "booleanOperation": -1,
  "clippingMaskMode": 0,
  "do_objectID": "E77881C2-E5B2-4523-B384-AEAB0405ABD5",
  "edited": true,
  "exportOptions": {
    "_class": "exportOptions",
    "do_objectID": "B85D0954-309E-4B2E-944D-F39246C9A3F4",
    "exportFormats": [
    ],
    "includedLayerIds": [
    ],
    "layerOptions": 0,
    "shouldTrim": false
  },
  "frame": {
    "_class": "rect",
    "constrainProportions": false,
    "do_objectID": "5FB2C17F-D4CF-421E-A9DC-7EC91061953F",
    "height": 0.1058906030855526,
    "width": 0.1059863482545467,
    "x": 13.21628039143452,
    "y": 4.77136337728726
  },
  "hasClippingMask": false,
  "isClosed": true,
  "isFixedToViewport": false,
  "isFlippedHorizontal": false,
  "isFlippedVertical": false,
  "isLocked": false,
  "isVisible": true,
  "layerListExpandedType": 0,
  "name": "Path",
  "nameIsFixed": false,
  "pointRadiusBehaviour": 0,
  "points": [
    {
      "_class": "curvePoint",
      "cornerRadius": 0,
      "curveFrom": "{-0.28989515908656927, 0.57810055811948757}",
      "curveMode": 4,
      "curveTo": "{0.36210484091344597, 0.97310055811952623}",
      "hasCurveFrom": true,
      "hasCurveTo": true,
      "point": "{0.13410484091343733, 0.83710055811950213}"
    },
    {
      "_class": "curvePoint",
      "cornerRadius": 0,
      "curveFrom": "{1.0561048409134344, 0.27410055811951395}",
      "curveMode": 4,
      "curveTo": "{0.40710484091343346, -0.12089944188046786}",
      "hasCurveFrom": true,
      "hasCurveTo": true,
      "point": "{0.631104840913423, 0.018100558119485299}"
    }
  ],
  "resizingConstraint": 63,
  "resizingType": 0,
  "rotation": 0,
  "shouldBreakMaskChain": false,
  "style": {
    "_class": "style",
    "do_objectID": "953309E0-47BA-4B2F-8E38-290B3087EBF8",
    "endMarkerType": 0,
    "fills": [
      {
        "_class": "fill",
        "color": {
          "_class": "color",
          "alpha": 1,
          "blue": 0.1764705882352941,
          "green": 0.1764705882352941,
          "red": 0.1764705882352941
        },
        "fillType": 0,
        "isEnabled": true,
        "noiseIndex": 0,
        "noiseIntensity": 0,
        "patternFillType": 1,
        "patternTileScale": 1
      }
    ],
    "miterLimit": 10,
    "startMarkerType": 0,
    "windingRule": 1
  }
}