{
  "_class": "shapePath",
  "booleanOperation": -1,
  "clippingMaskMode": 0,
  "do_objectID": "EB0905E3-095B-44DF-A549-3FD0BB1CFE21",
  "edited": true,
  "exportOptions": {
    "_class": "exportOptions",
    "do_objectID": "7BE7F293-8721-44AB-A099-DD8EC1705A30",
    "exportFormats": [
    ],
    "includedLayerIds": [
    ],
    "layerOptions": 0,
    "shouldTrim": false
  },
  "frame": {
    "_class": "rect",
    "constrainProportions": false,
    "do_objectID": "08D43405-FEB4-4AA2-A4D7-878EF83D9AC0",
    "height": 0.1065625565843291,
    "width": 0.1059863482545591,
    "x": 6.737094953790717,
    "y": 10.19600578646324
  },
  "hasClippingMask": false,
  "isClosed": true,
  "isFixedToViewport": false,
  "isFlippedHorizontal": false,
  "isFlippedVertical": false,
  "isLocked": false,
  "isVisible": true,
  "layerListExpandedType": 0,
  "name": "Path",
  "nameIsFixed": false,
  "pointRadiusBehaviour": 0,
  "points": [
    {
      "_class": "curvePoint",
      "cornerRadius": 0,
      "curveFrom": "{0.80537545780734376, 0.98630136986299177}",
      "curveMode": 4,
      "curveTo": "{1.0513754578073389, 0.73744292237441278}",
      "hasCurveFrom": true,
      "hasCurveTo": true,
      "point": "{0.89737545780734251, 0.89117199391169954}"
    },
    {
      "_class": "curvePoint",
      "cornerRadius": 0,
      "curveFrom": "{0.40837545780733819, 0.81202435312023591}",
      "curveMode": 4,
      "curveTo": "{0.42537545780734831, 0.91780821917808042}",
      "hasCurveFrom": true,
      "hasCurveTo": true,
      "point": "{0.31237545780734877, 1}"
    },
    {
      "_class": "curvePoint",
      "cornerRadius": 0,
      "curveFrom": "{0.1233754578073416, 0.012937595129372627}",
      "curveMode": 3,
      "curveTo": "{-0.1266245421926584, 0.2617960426179517}",
      "hasCurveFrom": true,
      "hasCurveTo": true,
      "point": "{0.028375457807342741, 0.1073059360730725}"
    },
    {
      "_class": "curvePoint",
      "cornerRadius": 0,
      "curveFrom": "{0.5193754578073424, 0.18721461187212854}",
      "curveMode": 4,
      "curveTo": "{0.49937545780734638, 0.08219178082191958}",
      "hasCurveFrom": true,
      "hasCurveTo": true,
      "point": "{0.61437545780734126, 0}"
    }
  ],
  "resizingConstraint": 63,
  "resizingType": 0,
  "rotation": 0,
  "shouldBreakMaskChain": false,
  "style": {
    "_class": "style",
    "do_objectID": "5D2D8BAA-7D85-4FAA-B615-C045D3A552F3",
    "endMarkerType": 0,
    "fills": [
      {
        "_class": "fill",
        "color": {
          "_class": "color",
          "alpha": 1,
          "blue": 0.1764705882352941,
          "green": 0.1764705882352941,
          "red": 0.1764705882352941
        },
        "fillType": 0,
        "isEnabled": true,
        "noiseIndex": 0,
        "noiseIntensity": 0,
        "patternFillType": 1,
        "patternTileScale": 1
      }
    ],
    "miterLimit": 10,
    "startMarkerType": 0,
    "windingRule": 1
  }
}