{
  "_class": "shapePath",
  "booleanOperation": -1,
  "clippingMaskMode": 0,
  "do_objectID": "EE8036E7-6848-4567-AF5B-5F014C726BEA",
  "edited": true,
  "exportOptions": {
    "_class": "exportOptions",
    "do_objectID": "7BBA45D2-0099-484F-87DB-AD24196C0377",
    "exportFormats": [
    ],
    "includedLayerIds": [
    ],
    "layerOptions": 0,
    "shouldTrim": false
  },
  "frame": {
    "_class": "rect",
    "constrainProportions": false,
    "do_objectID": "08508A27-17D8-4E93-B513-12595F2E9EDF",
    "height": 0.1058906030855535,
    "width": 0.105986348254552,
    "x": 12.12223479526221,
    "y": 5.401152419567594
  },
  "hasClippingMask": false,
  "isClosed": true,
  "isFixedToViewport": false,
  "isFlippedHorizontal": false,
  "isFlippedVertical": false,
  "isLocked": false,
  "isVisible": true,
  "layerListExpandedType": 0,
  "name": "Path",
  "nameIsFixed": false,
  "pointRadiusBehaviour": 0,
  "points": [
    {
      "_class": "curvePoint",
      "cornerRadius": 0,
      "curveFrom": "{-0.26964076434148865, 0.70230713046889548}",
      "curveMode": 3,
      "curveTo": "{0.4093592356585134, 0.94930713046885273}",
      "hasCurveFrom": true,
      "hasCurveTo": true,
      "point": "{0.17435923565849976, 0.86230713046886365}"
    },
    {
      "_class": "curvePoint",
      "cornerRadius": 0,
      "curveFrom": "{0.92735923565851408, 0.16830713046884682}",
      "curveMode": 4,
      "curveTo": "{0.24635923565850248, -0.077692869531134079}",
      "hasCurveFrom": true,
      "hasCurveTo": true,
      "point": "{0.48435923565850203, 0.0063071304688691043}"
    }
  ],
  "resizingConstraint": 63,
  "resizingType": 0,
  "rotation": 0,
  "shouldBreakMaskChain": false,
  "style": {
    "_class": "style",
    "do_objectID": "8214461C-1116-4E35-AF90-40B8DC47CD0D",
    "endMarkerType": 0,
    "fills": [
      {
        "_class": "fill",
        "color": {
          "_class": "color",
          "alpha": 1,
          "blue": 0.1764705882352941,
          "green": 0.1764705882352941,
          "red": 0.1764705882352941
        },
        "fillType": 0,
        "isEnabled": true,
        "noiseIndex": 0,
        "noiseIntensity": 0,
        "patternFillType": 1,
        "patternTileScale": 1
      }
    ],
    "miterLimit": 10,
    "startMarkerType": 0,
    "windingRule": 1
  }
}