{
  "_class": "shapePath",
  "booleanOperation": -1,
  "clippingMaskMode": 0,
  "do_objectID": "F02C4689-3D65-4F3F-AC12-6A41B4112FB6",
  "edited": true,
  "exportOptions": {
    "_class": "exportOptions",
    "do_objectID": "2E3ED001-FF68-4E66-9E03-97C8B90A9BBC",
    "exportFormats": [
    ],
    "includedLayerIds": [
    ],
    "layerOptions": 0,
    "shouldTrim": false
  },
  "frame": {
    "_class": "rect",
    "constrainProportions": false,
    "do_objectID": "00186633-5C9E-4DB1-A232-7235BB6EB500",
    "height": 0.1058906030855544,
    "width": 0.1059863482545538,
    "x": 15.66622229713789,
    "y": 6.947354566898436
  },
  "hasClippingMask": false,
  "isClosed": true,
  "isFixedToViewport": false,
  "isFlippedHorizontal": false,
  "isFlippedVertical": false,
  "isLocked": false,
  "isVisible": true,
  "layerListExpandedType": 0,
  "name": "Path",
  "nameIsFixed": false,
  "pointRadiusBehaviour": 0,
  "points": [
    {
      "_class": "curvePoint",
      "cornerRadius": 0,
      "curveFrom": "{1.0556879718672292, 0.27542051217440644}",
      "curveMode": 3,
      "curveTo": "{0.40668797186722827, -0.11857948782559902}",
      "hasCurveFrom": true,
      "hasCurveTo": true,
      "point": "{0.63168797186725101, 0.017420512174425085}"
    },
    {
      "_class": "curvePoint",
      "cornerRadius": 0,
      "curveFrom": "{-0.28931202813276968, 0.57842051217440371}",
      "curveMode": 3,
      "curveTo": "{0.35668797186724532, 0.97242051217440917}",
      "hasCurveFrom": true,
      "hasCurveTo": true,
      "point": "{0.13368797186723214, 0.83442051217443236}"
    }
  ],
  "resizingConstraint": 63,
  "resizingType": 0,
  "rotation": 0,
  "shouldBreakMaskChain": false,
  "style": {
    "_class": "style",
    "do_objectID": "7B123D85-29EB-452B-9904-1E2E4409263F",
    "endMarkerType": 0,
    "fills": [
      {
        "_class": "fill",
        "color": {
          "_class": "color",
          "alpha": 1,
          "blue": 0.1764705882352941,
          "green": 0.1764705882352941,
          "red": 0.1764705882352941
        },
        "fillType": 0,
        "isEnabled": true,
        "noiseIndex": 0,
        "noiseIntensity": 0,
        "patternFillType": 1,
        "patternTileScale": 1
      }
    ],
    "miterLimit": 10,
    "startMarkerType": 0,
    "windingRule": 1
  }
}