{
  "_class": "shapePath",
  "booleanOperation": -1,
  "clippingMaskMode": 0,
  "do_objectID": "F0B13A15-5769-4B92-9580-3D94383D143A",
  "edited": true,
  "exportOptions": {
    "_class": "exportOptions",
    "do_objectID": "381F1A7E-8019-43D5-ABAC-0FDE5657256D",
    "exportFormats": [
    ],
    "includedLayerIds": [
    ],
    "layerOptions": 0,
    "shouldTrim": false
  },
  "frame": {
    "_class": "rect",
    "constrainProportions": false,
    "do_objectID": "578C1BFE-966E-4CCD-B113-926DD184E492",
    "height": 0.1058906030855695,
    "width": 0.1183475569240642,
    "x": 20.88639568916589,
    "y": 26.16770996380209
  },
  "hasClippingMask": false,
  "isClosed": true,
  "isFixedToViewport": false,
  "isFlippedHorizontal": false,
  "isFlippedVertical": false,
  "isLocked": false,
  "isVisible": true,
  "layerListExpandedType": 0,
  "name": "Path",
  "nameIsFixed": false,
  "pointRadiusBehaviour": 0,
  "points": [
    {
      "_class": "curvePoint",
      "cornerRadius": 0,
      "curveFrom": "{0.24897119341563298, -0.027654147522468975}",
      "curveMode": 4,
      "curveTo": "{0.0082304526748972796, 0.55334585247754831}",
      "hasCurveFrom": true,
      "hasCurveTo": true,
      "point": "{0, 0.029345852477547396}"
    },
    {
      "_class": "curvePoint",
      "cornerRadius": 0,
      "curveFrom": "{0.75034293552810283, 0.4183458524775574}",
      "curveMode": 4,
      "curveTo": "{0.48971193415636866, -0.054654147522455787}",
      "hasCurveFrom": true,
      "hasCurveTo": true,
      "point": "{0.49931412894375532, 0.47134585247755467}"
    },
    {
      "_class": "curvePoint",
      "cornerRadius": 0,
      "curveFrom": "{0.74759945130316308, 0.96834585247751193}",
      "curveMode": 4,
      "curveTo": "{0.98902606310012398, 0.39034585247753739}",
      "hasCurveFrom": true,
      "hasCurveTo": true,
      "point": "{1, 0.91934585247753375}"
    },
    {
      "_class": "curvePoint",
      "cornerRadius": 0,
      "curveFrom": "{0.2462277091906932, 0.52334585247757559}",
      "curveMode": 4,
      "curveTo": "{0.50685871056242737, 0.99434585247757923}",
      "hasCurveFrom": true,
      "hasCurveTo": true,
      "point": "{0.49931412894375532, 0.47134585247755467}"
    }
  ],
  "resizingConstraint": 63,
  "resizingType": 0,
  "rotation": 0,
  "shouldBreakMaskChain": false,
  "style": {
    "_class": "style",
    "do_objectID": "D64E33BD-2AA7-4E9E-8A22-3240A7B97FCD",
    "endMarkerType": 0,
    "fills": [
      {
        "_class": "fill",
        "color": {
          "_class": "color",
          "alpha": 1,
          "blue": 0.1764705882352941,
          "green": 0.1764705882352941,
          "red": 0.1764705882352941
        },
        "fillType": 0,
        "isEnabled": true,
        "noiseIndex": 0,
        "noiseIntensity": 0,
        "patternFillType": 1,
        "patternTileScale": 1
      }
    ],
    "miterLimit": 10,
    "startMarkerType": 0,
    "windingRule": 1
  }
}