{
  "_class": "shapePath",
  "booleanOperation": -1,
  "clippingMaskMode": 0,
  "do_objectID": "F82F0064-7D43-4BF3-B5C1-B45C11CA0D5E",
  "edited": true,
  "exportOptions": {
    "_class": "exportOptions",
    "do_objectID": "D5A103A0-FB58-4360-A023-4FA156411502",
    "exportFormats": [
    ],
    "includedLayerIds": [
    ],
    "layerOptions": 0,
    "shouldTrim": false
  },
  "frame": {
    "_class": "rect",
    "constrainProportions": false,
    "do_objectID": "12C01BE4-25C5-467B-9AA5-75028750FC87",
    "height": 0.1326760597960259,
    "width": 0.1326336817653981,
    "x": 27.63975535207804,
    "y": 22.28899070855714
  },
  "hasClippingMask": false,
  "isClosed": true,
  "isFixedToViewport": false,
  "isFlippedHorizontal": false,
  "isFlippedVertical": false,
  "isLocked": false,
  "isVisible": true,
  "layerListExpandedType": 0,
  "name": "Path",
  "nameIsFixed": false,
  "pointRadiusBehaviour": 0,
  "points": [
    {
      "_class": "curvePoint",
      "cornerRadius": 0,
      "curveFrom": "{0.12974296205629571, 0.73105134474327227}",
      "curveMode": 4,
      "curveTo": "{0.46266829865362419, 0.93459657701713139}",
      "hasCurveFrom": true,
      "hasCurveTo": true,
      "point": "{0.19461444308444356, 1}"
    },
    {
      "_class": "curvePoint",
      "cornerRadius": 0,
      "curveFrom": "{0.26744186046512114, 0.13019559902198638}",
      "curveMode": 4,
      "curveTo": "{0.064871481028147854, 0.46332518337408102}",
      "hasCurveFrom": true,
      "hasCurveTo": true,
      "point": "{0, 0.19498777506110412}"
    },
    {
      "_class": "curvePoint",
      "cornerRadius": 0,
      "curveFrom": "{0.870869033047729, 0.26772616136919131}",
      "curveMode": 4,
      "curveTo": "{0.53549571603426693, 0.065403422982868609}",
      "hasCurveFrom": true,
      "hasCurveTo": true,
      "point": "{0.80538555691555647, 0}"
    },
    {
      "_class": "curvePoint",
      "cornerRadius": 0,
      "curveFrom": "{0.73011015911871058, 0.87041564792176451}",
      "curveMode": 4,
      "curveTo": "{0.93574051407587688, 0.53667481662588423}",
      "hasCurveFrom": true,
      "hasCurveTo": true,
      "point": "{1, 0.8050122249388959}"
    }
  ],
  "resizingConstraint": 63,
  "resizingType": 0,
  "rotation": 0,
  "shouldBreakMaskChain": false,
  "style": {
    "_class": "style",
    "do_objectID": "1039BBCE-4C0F-4D05-AE51-0F52BCF849F0",
    "endMarkerType": 0,
    "fills": [
      {
        "_class": "fill",
        "color": {
          "_class": "color",
          "alpha": 1,
          "blue": 0.1764705882352941,
          "green": 0.1764705882352941,
          "red": 0.1764705882352941
        },
        "fillType": 0,
        "isEnabled": true,
        "noiseIndex": 0,
        "noiseIntensity": 0,
        "patternFillType": 1,
        "patternTileScale": 1
      }
    ],
    "miterLimit": 10,
    "startMarkerType": 0,
    "windingRule": 1
  }
}