{
  "_class": "shapePath",
  "booleanOperation": -1,
  "clippingMaskMode": 0,
  "do_objectID": "FEE6AD9B-2026-436D-A73B-E0E5CE39EA49",
  "edited": true,
  "exportOptions": {
    "_class": "exportOptions",
    "do_objectID": "8FAB9C0A-F7EC-446F-A0C5-176CDED30C79",
    "exportFormats": [
    ],
    "includedLayerIds": [
    ],
    "layerOptions": 0,
    "shouldTrim": false
  },
  "frame": {
    "_class": "rect",
    "constrainProportions": false,
    "do_objectID": "3D44B8D0-355C-4F7B-AC4D-1382EDACDEF4",
    "height": 0.1058906030855553,
    "width": 0.1074609224679506,
    "x": 42.22302961711859,
    "y": 18.73447255399709
  },
  "hasClippingMask": false,
  "isClosed": true,
  "isFixedToViewport": false,
  "isFlippedHorizontal": false,
  "isFlippedVertical": false,
  "isLocked": false,
  "isVisible": true,
  "layerListExpandedType": 0,
  "name": "Path",
  "nameIsFixed": false,
  "pointRadiusBehaviour": 0,
  "points": [
    {
      "_class": "curvePoint",
      "cornerRadius": 0,
      "curveFrom": "{0.2313081144284487, 1.0640959816302489}",
      "curveMode": 3,
      "curveTo": "{0.87713678885200241, 0.89387351779914148}",
      "hasCurveFrom": true,
      "hasCurveTo": true,
      "point": "{0.60898570181063583, 0.96541629245278848}"
    },
    {
      "_class": "curvePoint",
      "cornerRadius": 0,
      "curveFrom": "{-0.1138892004388655, 0.27630312969688875}",
      "curveMode": 4,
      "curveTo": "{0.16257079352488446, 0.95472599279189307}",
      "hasCurveFrom": true,
      "hasCurveTo": true,
      "point": "{0.057576424232628903, 0.59701211952361122}"
    },
    {
      "_class": "curvePoint",
      "cornerRadius": 0,
      "curveFrom": "{0.38842199077941586, 0}",
      "curveMode": 4,
      "curveTo": "{0.12706910031093965, 0.012334961147194221}",
      "hasCurveFrom": true,
      "hasCurveTo": true,
      "point": "{0.39370947700272735, 0}"
    },
    {
      "_class": "curvePoint",
      "cornerRadius": 0,
      "curveFrom": "{1.1120522482036637, 0.73434135362890629}",
      "curveMode": 4,
      "curveTo": "{0.67847837788894649, 0.74091999957407806}",
      "hasCurveFrom": true,
      "hasCurveTo": true,
      "point": "{0.94285268905649466, 0.36429251921345362}"
    }
  ],
  "resizingConstraint": 63,
  "resizingType": 0,
  "rotation": 0,
  "shouldBreakMaskChain": false,
  "style": {
    "_class": "style",
    "do_objectID": "08AF916E-59BB-4074-AC29-2F8F38B1E477",
    "endMarkerType": 0,
    "fills": [
      {
        "_class": "fill",
        "color": {
          "_class": "color",
          "alpha": 1,
          "blue": 0.1764705882352941,
          "green": 0.1764705882352941,
          "red": 0.1764705882352941
        },
        "fillType": 0,
        "isEnabled": true,
        "noiseIndex": 0,
        "noiseIntensity": 0,
        "patternFillType": 1,
        "patternTileScale": 1
      }
    ],
    "miterLimit": 10,
    "startMarkerType": 0,
    "windingRule": 1
  }
}