{
  "_class": "shapePath",
  "booleanOperation": -1,
  "clippingMaskMode": 0,
  "do_objectID": "FF87B2A6-760F-4C91-BEFA-E1E90377C147",
  "edited": true,
  "exportOptions": {
    "_class": "exportOptions",
    "do_objectID": "A4858370-E310-4A9D-8050-85AE796D07DE",
    "exportFormats": [
    ],
    "includedLayerIds": [
    ],
    "layerOptions": 0,
    "shouldTrim": false
  },
  "frame": {
    "_class": "rect",
    "constrainProportions": false,
    "do_objectID": "2E0BA955-CD40-4A7C-8C15-86F654AB2C15",
    "height": 0.1058906030855553,
    "width": 0.1059863482545609,
    "x": 31.77481358867149,
    "y": 34.48894367641571
  },
  "hasClippingMask": false,
  "isClosed": true,
  "isFixedToViewport": false,
  "isFlippedHorizontal": false,
  "isFlippedVertical": false,
  "isLocked": false,
  "isVisible": true,
  "layerListExpandedType": 0,
  "name": "Path",
  "nameIsFixed": false,
  "pointRadiusBehaviour": 0,
  "points": [
    {
      "_class": "curvePoint",
      "cornerRadius": 0,
      "curveFrom": "{0.36153170062696027, 1.0710000000000264}",
      "curveMode": 4,
      "curveTo": "{0.86327874138323057, 0.60700000000002774}",
      "hasCurveFrom": true,
      "hasCurveTo": true,
      "point": "{0.58672525435219347, 0.73000000000001819}"
    },
    {
      "_class": "curvePoint",
      "cornerRadius": 0,
      "curveFrom": "{0.129226771520873, 0.042000000000030013}",
      "curveMode": 3,
      "curveTo": "{-0.084114489903041614, 0.48799999999999955}",
      "hasCurveFrom": true,
      "hasCurveTo": true,
      "point": "{0.013864459787921769, 0.28500000000002501}"
    },
    {
      "_class": "curvePoint",
      "cornerRadius": 0,
      "curveFrom": "{1.1192882550919101, 0.47000000000002728}",
      "curveMode": 4,
      "curveTo": "{0.77715208399354085, 0.20700000000005048}",
      "hasCurveFrom": true,
      "hasCurveTo": true,
      "point": "{0.9407137177518814, 0}"
    }
  ],
  "resizingConstraint": 63,
  "resizingType": 0,
  "rotation": 0,
  "shouldBreakMaskChain": false,
  "style": {
    "_class": "style",
    "do_objectID": "5616202B-DB08-427A-B515-67421CF6CC38",
    "endMarkerType": 0,
    "fills": [
      {
        "_class": "fill",
        "color": {
          "_class": "color",
          "alpha": 1,
          "blue": 0.1764705882352941,
          "green": 0.1764705882352941,
          "red": 0.1764705882352941
        },
        "fillType": 0,
        "isEnabled": true,
        "noiseIndex": 0,
        "noiseIntensity": 0,
        "patternFillType": 1,
        "patternTileScale": 1
      }
    ],
    "miterLimit": 10,
    "startMarkerType": 0,
    "windingRule": 1
  }
}