{
  "_class": "symbolInstance",
  "booleanOperation": -1,
  "clippingMaskMode": 0,
  "do_objectID": "372EC3C6-A844-43CB-9C1D-1A7E819C5269",
  "exportOptions": {
    "_class": "exportOptions",
    "do_objectID": "04B6812E-810D-4E0A-B680-BA7C6242AF06",
    "exportFormats": [
    ],
    "includedLayerIds": [
    ],
    "layerOptions": 0,
    "shouldTrim": false
  },
  "frame": {
    "_class": "rect",
    "constrainProportions": false,
    "do_objectID": "ED4982FF-36B9-4B2B-B66E-6D33DC5FEE4E",
    "height": 24,
    "width": 200,
    "x": 0,
    "y": 0
  },
  "hasClippingMask": false,
  "horizontalSpacing": 0,
  "isFixedToViewport": false,
  "isFlippedHorizontal": false,
  "isFlippedVertical": false,
  "isLocked": false,
  "isVisible": true,
  "layerListExpandedType": 0,
  "name": "column 1",
  "nameIsFixed": true,
  "overrideValues": [
  ],
  "resizingConstraint": 63,
  "resizingType": 0,
  "rotation": 0,
  "scale": 1,
  "shouldBreakMaskChain": false,
  "style": {
    "_class": "style",
    "do_objectID": "69FEC186-F703-4E5B-B3BC-AA78625D0007",
    "endMarkerType": 0,
    "miterLimit": 10,
    "startMarkerType": 0,
    "windingRule": 1
  },
  "symbolID": "6AF273DC-1344-4A5F-ACBA-B61D8C6E3E6A",
  "verticalSpacing": 0
}