{
  "_class": "symbolInstance",
  "booleanOperation": -1,
  "clippingMaskMode": 0,
  "do_objectID": "90168960-EA52-4547-8DA0-B5D964525F6D",
  "exportOptions": {
    "_class": "exportOptions",
    "do_objectID": "3962B1B3-FBA3-446F-8F79-00E53A06B878",
    "exportFormats": [
    ],
    "includedLayerIds": [
    ],
    "layerOptions": 0,
    "shouldTrim": false
  },
  "frame": {
    "_class": "rect",
    "constrainProportions": false,
    "do_objectID": "9665D65C-4FE8-488D-8EF2-1DB4274BA50A",
    "height": 24,
    "width": 200,
    "x": 800,
    "y": 0
  },
  "hasClippingMask": false,
  "horizontalSpacing": 0,
  "isFixedToViewport": false,
  "isFlippedHorizontal": false,
  "isFlippedVertical": false,
  "isLocked": false,
  "isVisible": true,
  "layerListExpandedType": 0,
  "name": "column 5",
  "nameIsFixed": true,
  "overrideValues": [
  ],
  "resizingConstraint": 63,
  "resizingType": 0,
  "rotation": 0,
  "scale": 1,
  "shouldBreakMaskChain": false,
  "style": {
    "_class": "style",
    "do_objectID": "F92F16A2-6509-4CD7-855E-84B89B62C056",
    "endMarkerType": 0,
    "miterLimit": 10,
    "startMarkerType": 0,
    "windingRule": 1
  },
  "symbolID": "6AF273DC-1344-4A5F-ACBA-B61D8C6E3E6A",
  "verticalSpacing": 0
}