{
  "_class": "symbolInstance",
  "booleanOperation": -1,
  "clippingMaskMode": 0,
  "do_objectID": "A3616306-13C8-4A3C-B860-F09756A95D34",
  "exportOptions": {
    "_class": "exportOptions",
    "do_objectID": "485D6D00-29E4-4B72-AB82-503F1FB358A8",
    "exportFormats": [
    ],
    "includedLayerIds": [
    ],
    "layerOptions": 0,
    "shouldTrim": false
  },
  "frame": {
    "_class": "rect",
    "constrainProportions": false,
    "do_objectID": "2590C244-FE42-453E-8452-4533A4FD27BB",
    "height": 40,
    "width": 378,
    "x": 0,
    "y": 0
  },
  "hasClippingMask": false,
  "horizontalSpacing": 0,
  "isFixedToViewport": false,
  "isFlippedHorizontal": false,
  "isFlippedVertical": false,
  "isLocked": false,
  "isVisible": true,
  "layerListExpandedType": 0,
  "name": "Context Switcher / enabled",
  "nameIsFixed": true,
  "overrideValues": [
    {
      "_class": "overrideValue",
      "do_objectID": "E2F3697D-876A-4120-B0C1-061E6FC80523",
      "overrideName": "5567BEA7-D380-4C86-AC20-068A501E1AF2_symbolID",
      "value": "A0848B4A-9785-4333-B9DF-63B11632086F"
    }
  ],
  "resizingConstraint": 63,
  "resizingType": 0,
  "rotation": 0,
  "scale": 1,
  "shouldBreakMaskChain": false,
  "style": {
    "_class": "style",
    "do_objectID": "D440A03D-3E17-4D98-8205-46738705D8D0",
    "endMarkerType": 0,
    "miterLimit": 10,
    "startMarkerType": 0,
    "windingRule": 1
  },
  "symbolID": "C8BDAF9C-6E2E-44C9-87DB-91F863F773BF",
  "userInfo": {
    "com.animaapp.stc-sketch-plugin": {
      "kModelPropertiesKey": {
      }
    }
  },
  "verticalSpacing": 0
}