{
  "_class": "symbolMaster",
  "allowsOverrides": true,
  "backgroundColor": {
    "_class": "color",
    "alpha": 1,
    "blue": 1,
    "green": 1,
    "red": 1
  },
  "booleanOperation": -1,
  "changeIdentifier": 3003,
  "clippingMaskMode": 0,
  "do_objectID": "611D23A2-AA47-47AD-B768-AFA0AEF2E130",
  "exportOptions": {
    "_class": "exportOptions",
    "exportFormats": [
    ],
    "includedLayerIds": [
    ],
    "layerOptions": 0,
    "shouldTrim": false
  },
  "frame": {
    "_class": "rect",
    "constrainProportions": false,
    "height": 24,
    "width": 1200,
    "x": 26394,
    "y": 74
  },
  "groupLayout": {
    "_class": "MSImmutableFreeformGroupLayout"
  },
  "hasBackgroundColor": false,
  "hasClickThrough": true,
  "hasClippingMask": false,
  "horizontalRulerData": {
    "_class": "rulerData",
    "base": 0,
    "guides": [
    ]
  },
  "includeBackgroundColorInExport": true,
  "includeBackgroundColorInInstance": false,
  "includeInCloudUpload": true,
  "isFixedToViewport": false,
  "isFlippedHorizontal": false,
  "isFlippedVertical": false,
  "isFlowHome": false,
  "isLocked": false,
  "isVisible": true,
  "layerListExpandedType": 2,
  "layers": [
    {
      "class": "rectangle",
      "id": "8C9E3060-6702-43FA-9109-130D7492B0D0"
    },
    {
      "class": "rectangle",
      "id": "F012FC94-16DD-49E6-BC3C-EC1638B25B7A"
    },
    {
      "class": "symbolInstance",
      "id": "1BE39FE5-4E75-468B-9363-06EEA975B90C"
    },
    {
      "class": "symbolInstance",
      "id": "02FADB50-0A3E-4231-8986-469A1064CD4A"
    },
    {
      "class": "symbolInstance",
      "id": "791D7F22-1FA7-4634-A857-5CFB672CEEBE"
    },
    {
      "class": "symbolInstance",
      "id": "F3238275-073C-4B53-BE57-3EEFF582751C"
    },
    {
      "class": "symbolInstance",
      "id": "24E7E1E6-0C73-4CB1-A421-B1FEF810D99D"
    },
    {
      "class": "symbolInstance",
      "id": "1FE86DFC-2671-47DE-AB48-A3EB20588C69"
    }
  ],
  "name": "data table / row / 24 compact / default / 02 hover",
  "nameIsFixed": true,
  "overrideProperties": [
    {
      "_class": "MSImmutableOverrideProperty",
      "canOverride": true,
      "overrideName": "1BE39FE5-4E75-468B-9363-06EEA975B90C_symbolID"
    },
    {
      "_class": "MSImmutableOverrideProperty",
      "canOverride": true,
      "overrideName": "F3238275-073C-4B53-BE57-3EEFF582751C_symbolID"
    },
    {
      "_class": "MSImmutableOverrideProperty",
      "canOverride": true,
      "overrideName": "24E7E1E6-0C73-4CB1-A421-B1FEF810D99D_symbolID"
    },
    {
      "_class": "MSImmutableOverrideProperty",
      "canOverride": false,
      "overrideName": "F012FC94-16DD-49E6-BC3C-EC1638B25B7A_image"
    },
    {
      "_class": "MSImmutableOverrideProperty",
      "canOverride": true,
      "overrideName": "02FADB50-0A3E-4231-8986-469A1064CD4A_symbolID"
    },
    {
      "_class": "MSImmutableOverrideProperty",
      "canOverride": false,
      "overrideName": "F012FC94-16DD-49E6-BC3C-EC1638B25B7A_layerStyle"
    },
    {
      "_class": "MSImmutableOverrideProperty",
      "canOverride": false,
      "overrideName": "8C9E3060-6702-43FA-9109-130D7492B0D0_image"
    },
    {
      "_class": "MSImmutableOverrideProperty",
      "canOverride": true,
      "overrideName": "791D7F22-1FA7-4634-A857-5CFB672CEEBE_symbolID"
    },
    {
      "_class": "MSImmutableOverrideProperty",
      "canOverride": true,
      "overrideName": "1FE86DFC-2671-47DE-AB48-A3EB20588C69_symbolID"
    },
    {
      "_class": "MSImmutableOverrideProperty",
      "canOverride": false,
      "overrideName": "8C9E3060-6702-43FA-9109-130D7492B0D0_layerStyle"
    }
  ],
  "resizesContent": true,
  "resizingConstraint": 63,
  "resizingType": 0,
  "rotation": 0,
  "shouldBreakMaskChain": true,
  "style": {
    "_class": "style",
    "endMarkerType": 0,
    "miterLimit": 10,
    "startMarkerType": 0,
    "windingRule": 1
  },
  "symbolID": "88083830-EF8D-47E4-BA78-649367AD0DCC",
  "verticalRulerData": {
    "_class": "rulerData",
    "base": 0,
    "guides": [
    ]
  }
}