{
  "_class": "group",
  "booleanOperation": -1,
  "clippingMaskMode": 0,
  "do_objectID": "89F227F2-1E77-42E5-8FD5-9A5664E55D88",
  "exportOptions": {
    "_class": "exportOptions",
    "exportFormats": [
    ],
    "includedLayerIds": [
    ],
    "layerOptions": 0,
    "shouldTrim": false
  },
  "frame": {
    "_class": "rect",
    "constrainProportions": false,
    "height": 260,
    "width": 375,
    "x": 0,
    "y": 0
  },
  "groupLayout": {
    "_class": "MSImmutableFreeformGroupLayout"
  },
  "hasClickThrough": false,
  "hasClippingMask": false,
  "isFixedToViewport": false,
  "isFlippedHorizontal": false,
  "isFlippedVertical": false,
  "isLocked": false,
  "isVisible": true,
  "layerListExpandedType": 2,
  "layers": [
    {
      "class": "symbolInstance",
      "id": "709D1DB6-86C2-40C4-853E-83C1065697D7"
    },
    {
      "class": "symbolInstance",
      "id": "D0998FC6-34A4-40B8-AD1C-A38D1B20016F"
    },
    {
      "class": "symbolInstance",
      "id": "D8EBC417-0FF4-4764-A768-7505EC3A1E25"
    },
    {
      "class": "symbolInstance",
      "id": "57F6ED33-479C-4148-91CA-EBDC7D8529E8"
    },
    {
      "class": "symbolInstance",
      "id": "F8BFB077-0CFD-43C9-85AB-0C88276A89BA"
    },
    {
      "class": "group",
      "id": "6881C361-F2B0-47A5-BCCF-18C9D1FE90AF"
    },
    {
      "class": "group",
      "id": "FF455A0A-2DF7-4E1B-98AA-9E16A0408680"
    },
    {
      "class": "symbolInstance",
      "id": "4BC1BB30-DE04-4FB5-8248-B821EEB481EC"
    }
  ],
  "maintainScrollPosition": false,
  "name": "Group 3",
  "nameIsFixed": false,
  "resizingConstraint": 63,
  "resizingType": 0,
  "rotation": 0,
  "shouldBreakMaskChain": false,
  "style": {
    "_class": "style",
    "blur": {
      "_class": "blur",
      "center": "{0.5, 0.5}",
      "isEnabled": false,
      "motionAngle": 0,
      "radius": 10,
      "saturation": 1,
      "type": 0
    },
    "borderOptions": {
      "_class": "borderOptions",
      "dashPattern": [
      ],
      "isEnabled": true,
      "lineCapStyle": 0,
      "lineJoinStyle": 0
    },
    "borders": [
    ],
    "colorControls": {
      "_class": "colorControls",
      "brightness": 0,
      "contrast": 1,
      "hue": 0,
      "isEnabled": true,
      "saturation": 1
    },
    "contextSettings": {
      "_class": "graphicsContextSettings",
      "blendMode": 0,
      "opacity": 1
    },
    "do_objectID": "59BE77FE-3FA6-4895-803C-D5C85D3F4787",
    "endMarkerType": 0,
    "fills": [
    ],
    "innerShadows": [
    ],
    "miterLimit": 10,
    "shadows": [
    ],
    "startMarkerType": 0,
    "windingRule": 1
  }
}