{
  "_class": "group",
  "booleanOperation": -1,
  "clippingMaskMode": 0,
  "do_objectID": "4F70BBE9-AA3F-4014-A97B-F95B67642474",
  "exportOptions": {
    "_class": "exportOptions",
    "exportFormats": [
    ],
    "includedLayerIds": [
    ],
    "layerOptions": 0,
    "shouldTrim": false
  },
  "frame": {
    "_class": "rect",
    "constrainProportions": false,
    "height": 196,
    "width": 375,
    "x": 0,
    "y": 52
  },
  "groupLayout": {
    "_class": "MSImmutableFreeformGroupLayout"
  },
  "hasClickThrough": false,
  "hasClippingMask": false,
  "isFixedToViewport": false,
  "isFlippedHorizontal": false,
  "isFlippedVertical": false,
  "isLocked": false,
  "isVisible": true,
  "layerListExpandedType": 2,
  "layers": [
    {
      "class": "rectangle",
      "id": "E6213606-C7B0-4FD8-BB79-09575FEE0A1D"
    },
    {
      "class": "symbolInstance",
      "id": "B019096E-8316-40F4-A01F-C569A6A2B918"
    },
    {
      "class": "symbolInstance",
      "id": "7BEA8FB1-48F1-4304-989E-40D3F0A52354"
    },
    {
      "class": "symbolInstance",
      "id": "AD5AA923-DE96-49AD-9D05-88C084EB1657"
    },
    {
      "class": "symbolInstance",
      "id": "6A07DBE2-955C-4363-BEFB-9D3116F1932A"
    },
    {
      "class": "symbolInstance",
      "id": "812D6088-0B29-4AB4-815E-DA2B1867F871"
    },
    {
      "class": "text",
      "id": "619794E8-AD94-4BA7-9C0A-C96AD4CD9EC0"
    },
    {
      "class": "text",
      "id": "8E500BF0-8CC4-456C-8E86-E4130124BD06"
    },
    {
      "class": "text",
      "id": "930C4377-FF88-49BC-A42E-9A78AE094AAC"
    },
    {
      "class": "text",
      "id": "517187D8-82FA-4069-8BF0-CEEA66244095"
    },
    {
      "class": "oval",
      "id": "4A025764-A3EA-4501-9C6A-2236AA12E3E7"
    },
    {
      "class": "oval",
      "id": "23F48FCC-C7A2-4D87-BD50-903D9652DDE8"
    },
    {
      "class": "oval",
      "id": "F9D9F428-4B98-4024-A566-3AA209640157"
    },
    {
      "class": "oval",
      "id": "5A814560-CE9A-48F3-908E-A85075A70CD5"
    }
  ],
  "maintainScrollPosition": false,
  "name": "Group 6 Copy 2",
  "nameIsFixed": false,
  "resizingConstraint": 63,
  "resizingType": 0,
  "rotation": 0,
  "shouldBreakMaskChain": false,
  "style": {
    "_class": "style",
    "blur": {
      "_class": "blur",
      "center": "{0.5, 0.5}",
      "isEnabled": false,
      "motionAngle": 0,
      "radius": 10,
      "saturation": 1,
      "type": 0
    },
    "borderOptions": {
      "_class": "borderOptions",
      "dashPattern": [
      ],
      "isEnabled": true,
      "lineCapStyle": 0,
      "lineJoinStyle": 0
    },
    "borders": [
    ],
    "colorControls": {
      "_class": "colorControls",
      "brightness": 0,
      "contrast": 1,
      "hue": 0,
      "isEnabled": true,
      "saturation": 1
    },
    "contextSettings": {
      "_class": "graphicsContextSettings",
      "blendMode": 0,
      "opacity": 1
    },
    "do_objectID": "58DD44F8-71C2-481B-AFAA-6C0BBED4EE08",
    "endMarkerType": 0,
    "fills": [
    ],
    "innerShadows": [
    ],
    "miterLimit": 10,
    "shadows": [
    ],
    "startMarkerType": 0,
    "windingRule": 1
  }
}