{
  "_class": "group",
  "booleanOperation": 0,
  "clippingMaskMode": 0,
  "do_objectID": "63785CA7-8A3C-4007-9FE1-D8A1C038AFAC",
  "exportOptions": {
    "_class": "exportOptions",
    "do_objectID": "E5C72CFA-CF38-41BC-B8B2-3F4036BD4D62",
    "exportFormats": [
    ],
    "includedLayerIds": [
    ],
    "layerOptions": 0,
    "shouldTrim": false
  },
  "frame": {
    "_class": "rect",
    "constrainProportions": false,
    "do_objectID": "CB04213C-6F2C-45E3-BE8F-CEA77F31835D",
    "height": 74,
    "width": 458,
    "x": 3,
    "y": 240
  },
  "groupLayout": {
    "_class": "MSImmutableFreeformGroupLayout",
    "do_objectID": "E7AFB914-1D87-429F-AEC2-FC9DC983E68C"
  },
  "hasClickThrough": false,
  "hasClippingMask": false,
  "isFixedToViewport": false,
  "isFlippedHorizontal": false,
  "isFlippedVertical": false,
  "isLocked": false,
  "isVisible": true,
  "layerListExpandedType": 0,
  "layers": [
    {
      "class": "rectangle",
      "id": "80421E83-EA72-40D7-815A-E0ACF56020D9"
    },
    {
      "class": "group",
      "id": "BBD3D760-7274-46B3-8450-1247BC5B7453"
    },
    {
      "class": "group",
      "id": "163CC4FA-AC30-44BF-982B-B4BD7A44620C"
    },
    {
      "class": "group",
      "id": "F13540CA-41F4-43D8-94E3-EC24CD7057F5"
    },
    {
      "class": "group",
      "id": "0C45349C-06BA-470D-B6B8-15224E3E05E7"
    },
    {
      "class": "group",
      "id": "B60AD937-62CC-4261-AF0B-59B0C7C92603"
    },
    {
      "class": "text",
      "id": "4B2686B9-4097-415B-A562-6162ADEFB271"
    },
    {
      "class": "text",
      "id": "656961E5-3A67-4D63-9887-70F78A352951"
    },
    {
      "class": "group",
      "id": "7C8C3F61-1F34-4CC7-AFEA-9D8AD5DBC3EB"
    }
  ],
  "name": "Size",
  "nameIsFixed": true,
  "resizingConstraint": 63,
  "resizingType": 0,
  "rotation": 0,
  "shouldBreakMaskChain": false,
  "style": {
    "_class": "style",
    "do_objectID": "4C1931DA-79D4-47B4-B3F9-D7B7DAFB2F8C",
    "endMarkerType": 0,
    "miterLimit": 10,
    "startMarkerType": 0,
    "windingRule": 1
  }
}