{
  "_class": "group",
  "booleanOperation": 0,
  "clippingMaskMode": 0,
  "do_objectID": "6D3A9230-22E2-4412-8D5F-BC1D77749976",
  "exportOptions": {
    "_class": "exportOptions",
    "exportFormats": [
    ],
    "includedLayerIds": [
    ],
    "layerOptions": 0,
    "shouldTrim": false
  },
  "frame": {
    "_class": "rect",
    "constrainProportions": false,
    "height": 461,
    "width": 920,
    "x": 210,
    "y": 124
  },
  "groupLayout": {
    "_class": "MSImmutableFreeformGroupLayout"
  },
  "hasClickThrough": false,
  "hasClippingMask": false,
  "isFixedToViewport": false,
  "isFlippedHorizontal": false,
  "isFlippedVertical": false,
  "isLocked": false,
  "isVisible": true,
  "layerListExpandedType": 0,
  "layers": [
    {
      "class": "rectangle",
      "id": "EADB7EEE-9B70-4649-8A68-0FB8881C4172"
    },
    {
      "class": "rectangle",
      "id": "2CA3F78E-2F8A-4946-A971-A92DC0DB41CD"
    },
    {
      "class": "rectangle",
      "id": "A32AD77B-D6DD-4401-9B2C-B145FD620E50"
    },
    {
      "class": "rectangle",
      "id": "5FA478E1-97DD-40C0-A992-3735E114E08B"
    },
    {
      "class": "rectangle",
      "id": "B4AF237A-45BE-446F-882F-1BE41AD13DF5"
    }
  ],
  "name": "Group 2",
  "nameIsFixed": false,
  "resizingConstraint": 63,
  "resizingType": 0,
  "rotation": 0,
  "shouldBreakMaskChain": false,
  "style": {
    "_class": "style",
    "endMarkerType": 0,
    "miterLimit": 10,
    "startMarkerType": 0,
    "windingRule": 1
  }
}