{
  "_class": "symbolMaster",
  "allowsOverrides": true,
  "backgroundColor": {
    "_class": "color",
    "alpha": 1,
    "blue": 1,
    "do_objectID": "E4A32D77-3F86-4656-936A-45C1FC29CD48",
    "green": 1,
    "red": 1
  },
  "booleanOperation": -1,
  "changeIdentifier": 589,
  "clippingMaskMode": 0,
  "do_objectID": "560626D5-F8F5-424F-B8E8-40F1A57C0A19",
  "exportOptions": {
    "_class": "exportOptions",
    "do_objectID": "4E3BE62B-472F-438F-9521-FDEDE72FAFDA",
    "exportFormats": [
    ],
    "includedLayerIds": [
    ],
    "layerOptions": 0,
    "shouldTrim": false
  },
  "frame": {
    "_class": "rect",
    "constrainProportions": false,
    "do_objectID": "49D87B20-9E97-4FFD-9226-90803A2F0103",
    "height": 24,
    "width": 48,
    "x": 105467,
    "y": 74
  },
  "groupLayout": {
    "_class": "MSImmutableFreeformGroupLayout",
    "do_objectID": "FCCBBF20-33E7-4427-81D7-F1DA44992EB7"
  },
  "hasBackgroundColor": false,
  "hasClickThrough": true,
  "hasClippingMask": false,
  "horizontalRulerData": {
    "_class": "rulerData",
    "base": 0,
    "do_objectID": "BFCC57F7-7965-4C6E-8DBA-AB813BE95982",
    "guides": [
    ]
  },
  "includeBackgroundColorInExport": true,
  "includeBackgroundColorInInstance": false,
  "includeInCloudUpload": true,
  "isFixedToViewport": false,
  "isFlippedHorizontal": false,
  "isFlippedVertical": false,
  "isFlowHome": false,
  "isLocked": false,
  "isVisible": true,
  "layerListExpandedType": 0,
  "layers": [
    {
      "class": "rectangle",
      "id": "3A603FF5-8F59-465B-8F40-A6341EE1782A"
    }
  ],
  "name": "utilities / spacer / vertical / 24 / on ",
  "nameIsFixed": true,
  "overrideProperties": [
  ],
  "resizesContent": true,
  "resizingConstraint": 63,
  "resizingType": 0,
  "rotation": 0,
  "shouldBreakMaskChain": true,
  "style": {
    "_class": "style",
    "do_objectID": "6888D710-5EBA-471E-B52A-F5350D1B3112",
    "endMarkerType": 0,
    "miterLimit": 10,
    "startMarkerType": 0,
    "windingRule": 1
  },
  "symbolID": "DA674292-06C3-40F8-8811-565D6E85366A",
  "verticalRulerData": {
    "_class": "rulerData",
    "base": 0,
    "do_objectID": "BFE8BC81-1944-419C-9FC0-5624863B3FB9",
    "guides": [
    ]
  }
}