{
  "_class": "rectangle",
  "booleanOperation": -1,
  "clippingMaskMode": 0,
  "do_objectID": "3A0C9F09-1C0E-45A6-9F5A-616362C5263C",
  "edited": true,
  "exportOptions": {
    "_class": "exportOptions",
    "exportFormats": [
    ],
    "includedLayerIds": [
    ],
    "layerOptions": 0,
    "shouldTrim": false
  },
  "fixedRadius": 6,
  "frame": {
    "_class": "rect",
    "constrainProportions": false,
    "height": 260,
    "width": 555,
    "x": 697,
    "y": 60
  },
  "hasClippingMask": false,
  "hasConvertedToNewRoundCorners": true,
  "isClosed": true,
  "isFixedToViewport": false,
  "isFlippedHorizontal": false,
  "isFlippedVertical": false,
  "isLocked": false,
  "isVisible": true,
  "layerListExpandedType": 0,
  "name": "placeholder",
  "nameIsFixed": true,
  "pointRadiusBehaviour": 0,
  "points": [
    {
      "_class": "curvePoint",
      "cornerRadius": 6,
      "curveFrom": "{0, 0}",
      "curveMode": 1,
      "curveTo": "{0, 0}",
      "hasCurveFrom": false,
      "hasCurveTo": false,
      "point": "{0, 0}"
    },
    {
      "_class": "curvePoint",
      "cornerRadius": 6,
      "curveFrom": "{0.99999999999999811, 0}",
      "curveMode": 1,
      "curveTo": "{0.99999999999999811, 0}",
      "hasCurveFrom": false,
      "hasCurveTo": false,
      "point": "{0.99999999999999811, 0}"
    },
    {
      "_class": "curvePoint",
      "cornerRadius": 6,
      "curveFrom": "{0.99999999999999811, 1.0000000000000016}",
      "curveMode": 1,
      "curveTo": "{0.99999999999999811, 1.0000000000000016}",
      "hasCurveFrom": false,
      "hasCurveTo": false,
      "point": "{0.99999999999999811, 1.0000000000000016}"
    },
    {
      "_class": "curvePoint",
      "cornerRadius": 6,
      "curveFrom": "{0, 1.0000000000000016}",
      "curveMode": 1,
      "curveTo": "{0, 1.0000000000000016}",
      "hasCurveFrom": false,
      "hasCurveTo": false,
      "point": "{0, 1.0000000000000016}"
    }
  ],
  "resizingConstraint": 63,
  "resizingType": 0,
  "rotation": 0,
  "shouldBreakMaskChain": false,
  "style": {
    "_class": "style",
    "endMarkerType": 0,
    "fills": [
      {
        "_class": "fill",
        "color": {
          "_class": "color",
          "alpha": 1,
          "blue": 1,
          "green": 1,
          "red": 1
        },
        "fillType": 4,
        "image": {
          "_class": "MSJSONFileReference",
          "_ref": "images/73b7ac8dee65c0fbdb52fbb0d1ec3bc1e08f2a71.png",
          "_ref_class": "MSImageData"
        },
        "isEnabled": true,
        "noiseIndex": 0,
        "noiseIntensity": 0,
        "patternFillType": 1,
        "patternTileScale": 1
      },
      {
        "_class": "fill",
        "color": {
          "_class": "color",
          "alpha": 1,
          "blue": 0.847,
          "green": 0.847,
          "red": 0.847
        },
        "fillType": 1,
        "gradient": {
          "_class": "gradient",
          "elipseLength": 0,
          "from": "{0.5, 0.98979591836734693}",
          "gradientType": 0,
          "stops": [
            {
              "_class": "gradientStop",
              "color": {
                "_class": "color",
                "alpha": 0.5,
                "blue": 0,
                "green": 0,
                "red": 0
              },
              "position": 0
            },
            {
              "_class": "gradientStop",
              "color": {
                "_class": "color",
                "alpha": 0.2,
                "blue": 0,
                "green": 0,
                "red": 0
              },
              "position": 1
            }
          ],
          "to": "{0.49999999999999989, 0.030195751770095813}"
        },
        "isEnabled": false,
        "noiseIndex": 0,
        "noiseIntensity": 0,
        "patternFillType": 1,
        "patternTileScale": 1
      }
    ],
    "miterLimit": 10,
    "startMarkerType": 0,
    "windingRule": 1
  },
  "userInfo": {
    "com.invisionlabs.duplicate": {
      "photos-duplicate": {
        "asTile": 0,
        "items": [
          {
            "link": "https://images.unsplash.com/photo-1442810480970-6d3fc310e3eb?dpr=2&auto=compress,format&crop=entropy&fit=crop&w=991&h=660&q=80&cs=tinysrgb",
            "type": "src"
          },
          {
            "link": "https://images.unsplash.com/photo-1462223347096-1593383775d8?dpr=2&auto=compress,format&crop=entropy&fit=crop&w=991&h=661&q=80&cs=tinysrgb",
            "type": "src"
          },
          {
            "link": "https://images.unsplash.com/photo-1454793781512-0fafb38dce83?dpr=2&auto=compress,format&crop=entropy&fit=crop&w=991&h=557&q=80&cs=tinysrgb",
            "type": "src"
          },
          {
            "link": "https://images.unsplash.com/photo-1434389677669-e08b4cac3105?dpr=2&auto=compress,format&crop=entropy&fit=crop&w=991&h=1422&q=80&cs=tinysrgb",
            "type": "src"
          },
          {
            "link": "https://images.unsplash.com/photo-1437350692737-1e991c59d272?dpr=2&auto=compress,format&crop=entropy&fit=crop&w=991&h=662&q=80&cs=tinysrgb",
            "type": "src"
          },
          {
            "link": "https://images.unsplash.com/photo-1463100099107-aa0980c362e6?dpr=2&auto=compress,format&crop=entropy&fit=crop&w=991&h=661&q=80&cs=tinysrgb",
            "type": "src"
          },
          {
            "link": "https://images.unsplash.com/photo-1460353581641-37baddab0fa2?dpr=2&auto=compress,format&crop=entropy&fit=crop&w=991&h=661&q=80&cs=tinysrgb",
            "type": "src"
          },
          {
            "link": "https://images.unsplash.com/photo-1463861588766-ea47b1d1c9e8?dpr=2&auto=compress,format&crop=entropy&fit=crop&w=991&h=661&q=80&cs=tinysrgb",
            "type": "src"
          },
          {
            "link": "https://images.unsplash.com/photo-1462043103994-3eb31d19a057?dpr=2&auto=compress,format&crop=entropy&fit=crop&w=991&h=661&q=80&cs=tinysrgb",
            "type": "src"
          },
          {
            "link": "https://images.unsplash.com/photo-1434056886845-dac89ffe9b56?dpr=2&auto=compress,format&crop=entropy&fit=crop&w=991&h=661&q=80&cs=tinysrgb",
            "type": "src"
          },
          {
            "link": "https://images.unsplash.com/photo-1445633814773-e687a5de9baa?dpr=2&auto=compress,format&crop=entropy&fit=crop&w=991&h=661&q=80&cs=tinysrgb",
            "type": "src"
          },
          {
            "link": "https://images.unsplash.com/photo-1454720503269-3a35c21bebc6?dpr=2&auto=compress,format&crop=entropy&fit=crop&w=991&h=815&q=80&cs=tinysrgb",
            "type": "src"
          },
          {
            "link": "https://images.unsplash.com/photo-1461009209120-103a8f970745?dpr=2&auto=compress,format&crop=entropy&fit=crop&w=991&h=661&q=80&cs=tinysrgb",
            "type": "src"
          },
          {
            "link": "https://images.unsplash.com/photo-1462416949377-f91c1b0452f7?dpr=2&auto=compress,format&crop=entropy&fit=crop&w=991&h=1351&q=80&cs=tinysrgb",
            "type": "src"
          },
          {
            "link": "https://images.unsplash.com/photo-1440332013745-3a1357afa90c?dpr=2&auto=compress,format&crop=entropy&fit=crop&w=991&h=1487&q=80&cs=tinysrgb",
            "type": "src"
          },
          {
            "link": "https://images.unsplash.com/photo-1457459588520-2ae325c92c09?dpr=2&auto=compress,format&crop=entropy&fit=crop&w=991&h=661&q=80&cs=tinysrgb",
            "type": "src"
          },
          {
            "link": "https://images.unsplash.com/photo-1463970441435-eecc7b23ccdf?dpr=2&auto=compress,format&crop=entropy&fit=crop&w=991&h=661&q=80&cs=tinysrgb",
            "type": "src"
          }
        ],
        "mode": "web"
      }
    }
  }
}