{
  "_class": "group",
  "booleanOperation": 0,
  "clippingMaskMode": 0,
  "do_objectID": "8CC9EE04-295F-47BD-B282-EE1D8F50CD62",
  "exportOptions": {
    "_class": "exportOptions",
    "do_objectID": "DEA865F2-9C9E-4AFD-B93F-B81045E4E0CD",
    "exportFormats": [
    ],
    "includedLayerIds": [
    ],
    "layerOptions": 0,
    "shouldTrim": false
  },
  "frame": {
    "_class": "rect",
    "constrainProportions": true,
    "do_objectID": "CAFBF18B-1CDB-49B1-80CD-405FC8CD40EF",
    "height": 12,
    "width": 13,
    "x": 14.47272727272728,
    "y": 0
  },
  "groupLayout": {
    "_class": "MSImmutableFreeformGroupLayout",
    "do_objectID": "0EA67DF4-684E-4265-BFDB-2E687288BAE5"
  },
  "hasClickThrough": false,
  "hasClippingMask": false,
  "isFixedToViewport": false,
  "isFlippedHorizontal": false,
  "isFlippedVertical": false,
  "isLocked": false,
  "isVisible": true,
  "layerListExpandedType": 0,
  "layers": [
    {
      "class": "shapePath",
      "id": "115D98BE-59FE-40BF-9C9F-9762F8F46A32"
    }
  ],
  "name": "star icon",
  "nameIsFixed": true,
  "resizingConstraint": 63,
  "resizingType": 0,
  "rotation": 0,
  "shouldBreakMaskChain": false,
  "style": {
    "_class": "style",
    "do_objectID": "9C35164F-F2DF-4A75-9078-5A8470C672D7",
    "endMarkerType": 0,
    "miterLimit": 10,
    "startMarkerType": 0,
    "windingRule": 1
  }
}