{
  "_class": "symbolMaster",
  "allowsOverrides": true,
  "backgroundColor": {
    "_class": "color",
    "alpha": 1,
    "blue": 1,
    "do_objectID": "51419A86-E69F-4D87-A858-AF07752DAB9E",
    "green": 1,
    "red": 1
  },
  "booleanOperation": -1,
  "changeIdentifier": 1859,
  "clippingMaskMode": 0,
  "do_objectID": "302E5D5B-0F55-4C31-B1AF-4E7C5A79E568",
  "exportOptions": {
    "_class": "exportOptions",
    "do_objectID": "5897AC84-CCC5-4020-BB13-E3E94FCE16C6",
    "exportFormats": [
    ],
    "includedLayerIds": [
    ],
    "layerOptions": 0,
    "shouldTrim": false
  },
  "frame": {
    "_class": "rect",
    "constrainProportions": false,
    "do_objectID": "1D91DF59-7FBE-4A40-AFBE-98D46B88C4DD",
    "height": 32,
    "width": 1200,
    "x": 34305,
    "y": 82
  },
  "groupLayout": {
    "_class": "MSImmutableFreeformGroupLayout",
    "do_objectID": "2636A207-2CFC-46C6-B97A-333088944DBD"
  },
  "hasBackgroundColor": false,
  "hasClickThrough": true,
  "hasClippingMask": false,
  "horizontalRulerData": {
    "_class": "rulerData",
    "base": 0,
    "do_objectID": "52487686-6F95-4169-B9A5-2873F3ECE9B0",
    "guides": [
    ]
  },
  "includeBackgroundColorInExport": true,
  "includeBackgroundColorInInstance": false,
  "includeInCloudUpload": true,
  "isFixedToViewport": false,
  "isFlippedHorizontal": false,
  "isFlippedVertical": false,
  "isFlowHome": false,
  "isLocked": false,
  "isVisible": true,
  "layerListExpandedType": 2,
  "layers": [
    {
      "class": "rectangle",
      "id": "AA2366E3-FC42-4755-906A-24E78C5DFFA2"
    },
    {
      "class": "symbolInstance",
      "id": "A60A4DE8-3877-40BB-8EF5-B102B9BDC74A"
    },
    {
      "class": "symbolInstance",
      "id": "ABEDC585-BDF7-4BF6-9A53-300F3E6AB870"
    },
    {
      "class": "symbolInstance",
      "id": "B4BD406C-EAC7-4762-9EBB-3D870012E008"
    },
    {
      "class": "symbolInstance",
      "id": "E3960698-8117-4266-962B-E0AB598B86E9"
    },
    {
      "class": "symbolInstance",
      "id": "4A8A30E1-C2B7-4B3F-AD19-A71890CBBB75"
    },
    {
      "class": "symbolInstance",
      "id": "6DBA1D41-3F89-4E36-B773-53DB9660F075"
    }
  ],
  "name": "data table / row / 32 short / column header / expandable",
  "nameIsFixed": true,
  "overrideProperties": [
    {
      "_class": "MSImmutableOverrideProperty",
      "canOverride": true,
      "overrideName": "6DBA1D41-3F89-4E36-B773-53DB9660F075_symbolID"
    },
    {
      "_class": "MSImmutableOverrideProperty",
      "canOverride": true,
      "overrideName": "B4BD406C-EAC7-4762-9EBB-3D870012E008_symbolID"
    },
    {
      "_class": "MSImmutableOverrideProperty",
      "canOverride": true,
      "overrideName": "4A8A30E1-C2B7-4B3F-AD19-A71890CBBB75_symbolID"
    },
    {
      "_class": "MSImmutableOverrideProperty",
      "canOverride": true,
      "overrideName": "A60A4DE8-3877-40BB-8EF5-B102B9BDC74A_symbolID"
    },
    {
      "_class": "MSImmutableOverrideProperty",
      "canOverride": false,
      "overrideName": "6DBA1D41-3F89-4E36-B773-53DB9660F075/CCED8176-6F80-4231-BE4B-5F6C3FF9872C/74936C75-DA0D-4A08-ABE8-7BFD43255E4E/A19EB3DE-5561-4192-ABC4-C256708F5390_layerStyle"
    },
    {
      "_class": "MSImmutableOverrideProperty",
      "canOverride": false,
      "overrideName": "AA2366E3-FC42-4755-906A-24E78C5DFFA2_layerStyle"
    },
    {
      "_class": "MSImmutableOverrideProperty",
      "canOverride": true,
      "overrideName": "ABEDC585-BDF7-4BF6-9A53-300F3E6AB870_symbolID"
    },
    {
      "_class": "MSImmutableOverrideProperty",
      "canOverride": true,
      "overrideName": "E3960698-8117-4266-962B-E0AB598B86E9_symbolID"
    }
  ],
  "resizesContent": true,
  "resizingConstraint": 63,
  "resizingType": 0,
  "rotation": 0,
  "shouldBreakMaskChain": true,
  "style": {
    "_class": "style",
    "do_objectID": "D39474DE-0AE0-4A37-A239-708C227B54BD",
    "endMarkerType": 0,
    "miterLimit": 10,
    "startMarkerType": 0,
    "windingRule": 1
  },
  "symbolID": "2B47474C-5C25-4BC0-B5F4-5C53BFB9CDFB",
  "verticalRulerData": {
    "_class": "rulerData",
    "base": 0,
    "do_objectID": "AFBC4528-00ED-42A4-A5F2-5743C3E5F9D4",
    "guides": [
    ]
  }
}