{
  "_class": "symbolInstance",
  "booleanOperation": -1,
  "clippingMaskMode": 0,
  "do_objectID": "4C2F3AAF-9FCE-4CF4-8F7F-110593C57DF1",
  "exportOptions": {
    "_class": "exportOptions",
    "do_objectID": "E5F1E97E-420E-4280-81EF-F0E61C5358AB",
    "exportFormats": [
    ],
    "includedLayerIds": [
    ],
    "layerOptions": 0,
    "shouldTrim": false
  },
  "frame": {
    "_class": "rect",
    "constrainProportions": false,
    "do_objectID": "5A49FB56-43F8-458E-9F5E-590BFD268351",
    "height": 20,
    "width": 20,
    "x": 204,
    "y": 56
  },
  "hasClippingMask": false,
  "horizontalSpacing": 0,
  "isFixedToViewport": false,
  "isFlippedHorizontal": false,
  "isFlippedVertical": false,
  "isLocked": false,
  "isVisible": true,
  "layerListExpandedType": 0,
  "name": "utilities / cursor / pointer / default",
  "nameIsFixed": false,
  "overrideValues": [
  ],
  "resizingConstraint": 63,
  "resizingType": 0,
  "rotation": 0,
  "scale": 1,
  "shouldBreakMaskChain": false,
  "style": {
    "_class": "style",
    "do_objectID": "4CFB10DA-A3AC-48BF-BDAC-CC48E70C4D65",
    "endMarkerType": 0,
    "miterLimit": 10,
    "startMarkerType": 0,
    "windingRule": 1
  },
  "symbolID": "19502CBA-7360-4657-859D-B16CA87D4D74",
  "verticalSpacing": 0
}