{
  "_class": "shapePath",
  "booleanOperation": -1,
  "clippingMaskMode": 0,
  "do_objectID": "EA3BC00A-4996-491C-85E2-CF10BDA42588",
  "edited": true,
  "exportOptions": {
    "_class": "exportOptions",
    "exportFormats": [
    ],
    "includedLayerIds": [
    ],
    "layerOptions": 0,
    "shouldTrim": false
  },
  "frame": {
    "_class": "rect",
    "constrainProportions": false,
    "height": 15.80229411764706,
    "width": 13.63352941176468,
    "x": 87.64774117647059,
    "y": 0.3012882352941131
  },
  "hasClippingMask": false,
  "isClosed": true,
  "isFixedToViewport": false,
  "isFlippedHorizontal": false,
  "isFlippedVertical": false,
  "isLocked": false,
  "isVisible": true,
  "layerListExpandedType": 0,
  "maintainScrollPosition": false,
  "name": "Fill 17",
  "nameIsFixed": false,
  "pointRadiusBehaviour": 1,
  "points": [
    {
      "_class": "curvePoint",
      "cornerRadius": 0,
      "curveFrom": "{0.93125943823618385, 0.95447794251765383}",
      "curveMode": 4,
      "curveTo": "{0.89048625792811908, 0.89999218281783355}",
      "hasCurveFrom": true,
      "hasCurveTo": false,
      "point": "{0.89048625792811908, 0.89999218281783355}"
    },
    {
      "_class": "curvePoint",
      "cornerRadius": 0,
      "curveFrom": "{1, 0.97034682231544944}",
      "curveMode": 4,
      "curveTo": "{0.95125339776502638, 0.96758475128332078}",
      "hasCurveFrom": false,
      "hasCurveTo": true,
      "point": "{1, 0.97034682231544944}"
    },
    {
      "_class": "curvePoint",
      "cornerRadius": 0,
      "curveFrom": "{0.97200241618846372, 0.99861896448393572}",
      "curveMode": 4,
      "curveTo": "{1, 1}",
      "hasCurveFrom": true,
      "hasCurveTo": false,
      "point": "{1, 1}"
    },
    {
      "_class": "curvePoint",
      "cornerRadius": 0,
      "curveFrom": "{0.77058290546662622, 0.99447585793574267}",
      "curveMode": 3,
      "curveTo": "{0.91528239202657957, 0.99447585793574267}",
      "hasCurveFrom": true,
      "hasCurveTo": true,
      "point": "{0.85931742675928846, 0.99447585793574267}"
    },
    {
      "_class": "curvePoint",
      "cornerRadius": 0,
      "curveFrom": "{0.62829960736937585, 1}",
      "curveMode": 4,
      "curveTo": "{0.67227423739051639, 0.99861896448393572}",
      "hasCurveFrom": false,
      "hasCurveTo": true,
      "point": "{0.62829960736937585, 1}"
    },
    {
      "_class": "curvePoint",
      "cornerRadius": 0,
      "curveFrom": "{0.70903050437934279, 0.97034682231544944}",
      "curveMode": 4,
      "curveTo": "{0.62829960736937585, 0.97034682231544944}",
      "hasCurveFrom": true,
      "hasCurveTo": false,
      "point": "{0.62829960736937585, 0.97034682231544944}"
    },
    {
      "_class": "curvePoint",
      "cornerRadius": 0,
      "curveFrom": "{0.74500151011778959, 0.94066758735701073}",
      "curveMode": 3,
      "curveTo": "{0.74500151011778959, 0.96620371576725628}",
      "hasCurveFrom": true,
      "hasCurveTo": true,
      "point": "{0.74500151011778959, 0.94757276493733222}"
    },
    {
      "_class": "curvePoint",
      "cornerRadius": 0,
      "curveFrom": "{0.73301117487164058, 0.92206269380097461}",
      "curveMode": 4,
      "curveTo": "{0.74101479915433421, 0.93240743153451289}",
      "hasCurveFrom": false,
      "hasCurveTo": true,
      "point": "{0.73301117487164058, 0.92206269380097461}"
    },
    {
      "_class": "curvePoint",
      "cornerRadius": 0,
      "curveFrom": "{0.45324675324675445, 0.55241420642572381}",
      "curveMode": 1,
      "curveTo": "{0.45324675324675445, 0.55241420642572381}",
      "hasCurveFrom": false,
      "hasCurveTo": false,
      "point": "{0.45324675324675445, 0.55241420642572381}"
    },
    {
      "_class": "curvePoint",
      "cornerRadius": 0,
      "curveFrom": "{0.23343400785261301, 0.83516168538447511}",
      "curveMode": 4,
      "curveTo": "{0.27659317426759261, 0.77999843656356682}",
      "hasCurveFrom": true,
      "hasCurveTo": false,
      "point": "{0.27659317426759261, 0.77999843656356682}"
    },
    {
      "_class": "curvePoint",
      "cornerRadius": 0,
      "curveFrom": "{0.21422530957414743, 0.95447794251765383}",
      "curveMode": 3,
      "curveTo": "{0.21422530957414743, 0.87583708992365217}",
      "hasCurveFrom": true,
      "hasCurveTo": true,
      "point": "{0.21422530957414743, 0.9041352893660265}"
    },
    {
      "_class": "curvePoint",
      "cornerRadius": 0,
      "curveFrom": "{0.35971005738447603, 0.97170180055762567}",
      "curveMode": 4,
      "curveTo": "{0.27257626094835424, 0.96964327592047328}",
      "hasCurveFrom": false,
      "hasCurveTo": true,
      "point": "{0.35971005738447603, 0.97170180055762567}"
    },
    {
      "_class": "curvePoint",
      "cornerRadius": 0,
      "curveFrom": "{0.29815765629719088, 0.99723792896787133}",
      "curveMode": 4,
      "curveTo": "{0.35971005738447603, 1}",
      "hasCurveFrom": true,
      "hasCurveTo": false,
      "point": "{0.35971005738447603, 1}"
    },
    {
      "_class": "curvePoint",
      "cornerRadius": 0,
      "curveFrom": "{0.083147085472667331, 0.99585689345180706}",
      "curveMode": 2,
      "curveTo": "{0.19664753850800359, 0.99585689345180706}",
      "hasCurveFrom": true,
      "hasCurveTo": true,
      "point": "{0.13908184838417459, 0.99585689345180706}"
    },
    {
      "_class": "curvePoint",
      "cornerRadius": 0,
      "curveFrom": "{0, 1}",
      "curveMode": 4,
      "curveTo": "{0.032799758381154127, 0.99723792896787133}",
      "hasCurveFrom": false,
      "hasCurveTo": true,
      "point": "{0, 1}"
    },
    {
      "_class": "curvePoint",
      "cornerRadius": 0,
      "curveFrom": "{0.067170039263063086, 0.96344164473512783}",
      "curveMode": 4,
      "curveTo": "{0, 0.97170180055762567}",
      "hasCurveFrom": true,
      "hasCurveTo": false,
      "point": "{0, 0.97170180055762567}"
    },
    {
      "_class": "curvePoint",
      "cornerRadius": 0,
      "curveFrom": "{0.18465720326185464, 0.84206686296479671}",
      "curveMode": 4,
      "curveTo": "{0.12392026578073122, 0.91930062276884594}",
      "hasCurveFrom": false,
      "hasCurveTo": true,
      "point": "{0.18465720326185464, 0.84206686296479671}"
    },
    {
      "_class": "curvePoint",
      "cornerRadius": 0,
      "curveFrom": "{0.43165206886137142, 0.52414206425723753}",
      "curveMode": 1,
      "curveTo": "{0.43165206886137142, 0.52414206425723753}",
      "hasCurveFrom": false,
      "hasCurveTo": false,
      "point": "{0.43165206886137142, 0.52414206425723753}"
    },
    {
      "_class": "curvePoint",
      "cornerRadius": 0,
      "curveFrom": "{0.070341286620356658, 0.045522057482346556}",
      "curveMode": 4,
      "curveTo": "{0.11111446692842053, 0.10000781718216659}",
      "hasCurveFrom": true,
      "hasCurveTo": false,
      "point": "{0.11111446692842053, 0.10000781718216659}"
    },
    {
      "_class": "curvePoint",
      "cornerRadius": 0,
      "curveFrom": "{0.0016007248565387284, 0.02965317768455077}",
      "curveMode": 4,
      "curveTo": "{0.050377529447297106, 0.032415248716679244}",
      "hasCurveFrom": false,
      "hasCurveTo": true,
      "point": "{0.0016007248565387284, 0.02965317768455077}"
    },
    {
      "_class": "curvePoint",
      "cornerRadius": 0,
      "curveFrom": "{0.029598308668076674, 0.0013810355160642379}",
      "curveMode": 4,
      "curveTo": "{0.0016007248565387284, 0}",
      "hasCurveFrom": true,
      "hasCurveTo": false,
      "point": "{0.0016007248565387284, 0}"
    },
    {
      "_class": "curvePoint",
      "cornerRadius": 0,
      "curveFrom": "{0.23101781938991339, 0.0055241420642576922}",
      "curveMode": 3,
      "curveTo": "{0.086348535185744799, 0.0055241420642576922}",
      "hasCurveFrom": true,
      "hasCurveTo": true,
      "point": "{0.14228329809725204, 0.0055241420642576922}"
    },
    {
      "_class": "curvePoint",
      "cornerRadius": 0,
      "curveFrom": "{0.37333131984294848, 0}",
      "curveMode": 4,
      "curveTo": "{0.31256418000604114, 0.0027620710321288461}",
      "hasCurveFrom": false,
      "hasCurveTo": true,
      "point": "{0.37333131984294848, 0}"
    },
    {
      "_class": "curvePoint",
      "cornerRadius": 0,
      "curveFrom": "{0.29498640893989819, 0.02965317768455077}",
      "curveMode": 4,
      "curveTo": "{0.37333131984294848, 0.02965317768455077}",
      "hasCurveFrom": true,
      "hasCurveTo": false,
      "point": "{0.37333131984294848, 0.02965317768455077}"
    },
    {
      "_class": "curvePoint",
      "cornerRadius": 0,
      "curveFrom": "{0.2637873754152828, 0.068973603981551584}",
      "curveMode": 3,
      "curveTo": "{0.2637873754152828, 0.039997915418089232}",
      "hasCurveFrom": true,
      "hasCurveTo": true,
      "point": "{0.2637873754152828, 0.060687390885165782}"
    },
    {
      "_class": "curvePoint",
      "cornerRadius": 0,
      "curveFrom": "{0.27819389912413134, 0.091721604085780783}",
      "curveMode": 4,
      "curveTo": "{0.26940501359105984, 0.079292284441201913}",
      "hasCurveFrom": false,
      "hasCurveTo": true,
      "point": "{0.27819389912413134, 0.091721604085780783}"
    },
    {
      "_class": "curvePoint",
      "cornerRadius": 0,
      "curveFrom": "{0.5331621866505587, 0.42827735362326402}",
      "curveMode": 1,
      "curveTo": "{0.5331621866505587, 0.42827735362326402}",
      "hasCurveFrom": false,
      "hasCurveTo": false,
      "point": "{0.5331621866505587, 0.42827735362326402}"
    },
    {
      "_class": "curvePoint",
      "cornerRadius": 0,
      "curveFrom": "{0.74261552401087294, 0.15793313703520351}",
      "curveMode": 4,
      "curveTo": "{0.69386892177589943, 0.2206790525575216}",
      "hasCurveFrom": true,
      "hasCurveTo": false,
      "point": "{0.69386892177589943, 0.2206790525575216}"
    },
    {
      "_class": "curvePoint",
      "cornerRadius": 0,
      "curveFrom": "{0.7649954696466339, 0.043463532845193893}",
      "curveMode": 3,
      "curveTo": "{0.7649954696466339, 0.11446960419000964}",
      "hasCurveFrom": true,
      "hasCurveTo": true,
      "point": "{0.7649954696466339, 0.08481642650545923}"
    },
    {
      "_class": "curvePoint",
      "cornerRadius": 0,
      "curveFrom": "{0.63790395650860821, 0.028272142168486534}",
      "curveMode": 4,
      "curveTo": "{0.71942011476895296, 0.02965317768455077}",
      "hasCurveFrom": false,
      "hasCurveTo": true,
      "point": "{0.63790395650860821, 0.028272142168486534}"
    },
    {
      "_class": "curvePoint",
      "cornerRadius": 0,
      "curveFrom": "{0.70024161884627123, 0.0027620710321288461}",
      "curveMode": 4,
      "curveTo": "{0.63790395650860821, 0}",
      "hasCurveFrom": true,
      "hasCurveTo": false,
      "point": "{0.63790395650860821, 0}"
    },
    {
      "_class": "curvePoint",
      "cornerRadius": 0,
      "curveFrom": "{0.88251283600120844, 0.0041431065481930844}",
      "curveMode": 2,
      "curveTo": "{0.7689821806100875, 0.0041431065481930844}",
      "hasCurveFrom": true,
      "hasCurveTo": true,
      "point": "{0.82654787073391733, 0.0041431065481930844}"
    },
    {
      "_class": "curvePoint",
      "cornerRadius": 0,
      "curveFrom": "{0.96562971911809192, 0}",
      "curveMode": 4,
      "curveTo": "{0.93286016309272257, 0.0027620710321288461}",
      "hasCurveFrom": false,
      "hasCurveTo": true,
      "point": "{0.96562971911809192, 0}"
    },
    {
      "_class": "curvePoint",
      "cornerRadius": 0,
      "curveFrom": "{0.89848988221081272, 0.036558355264872333}",
      "curveMode": 4,
      "curveTo": "{0.96562971911809192, 0.028272142168486534}",
      "hasCurveFrom": true,
      "hasCurveTo": false,
      "point": "{0.96562971911809192, 0.028272142168486534}"
    },
    {
      "_class": "curvePoint",
      "cornerRadius": 0,
      "curveFrom": "{0.78097251585623817, 0.15793313703520351}",
      "curveMode": 4,
      "curveTo": "{0.84092419208698288, 0.080673319957266149}",
      "hasCurveFrom": false,
      "hasCurveTo": true,
      "point": "{0.78097251585623817, 0.15793313703520351}"
    },
    {
      "_class": "curvePoint",
      "cornerRadius": 0,
      "curveFrom": "{0.55155542132286428, 0.45310993563853363}",
      "curveMode": 1,
      "curveTo": "{0.55155542132286428, 0.45310993563853363}",
      "hasCurveFrom": false,
      "hasCurveTo": false,
      "point": "{0.55155542132286428, 0.45310993563853363}"
    }
  ],
  "resizingConstraint": 63,
  "resizingType": 0,
  "rotation": 0,
  "shouldBreakMaskChain": false,
  "style": {
    "_class": "style",
    "blur": {
      "_class": "blur",
      "center": "{0.5, 0.5}",
      "isEnabled": false,
      "motionAngle": 0,
      "radius": 10,
      "saturation": 1,
      "type": 0
    },
    "borderOptions": {
      "_class": "borderOptions",
      "dashPattern": [
      ],
      "isEnabled": true,
      "lineCapStyle": 0,
      "lineJoinStyle": 0
    },
    "borders": [
    ],
    "colorControls": {
      "_class": "colorControls",
      "brightness": 0,
      "contrast": 1,
      "hue": 0,
      "isEnabled": true,
      "saturation": 1
    },
    "contextSettings": {
      "_class": "graphicsContextSettings",
      "blendMode": 0,
      "opacity": 1
    },
    "do_objectID": "FCDA3B03-9933-44E7-9E64-F32919BDEC73",
    "endMarkerType": 0,
    "fills": [
      {
        "_class": "fill",
        "color": {
          "_class": "color",
          "alpha": 1,
          "blue": 0.1764705882352941,
          "green": 0.1764705882352941,
          "red": 0.1764705882352941
        },
        "contextSettings": {
          "_class": "graphicsContextSettings",
          "blendMode": 0,
          "opacity": 1
        },
        "fillType": 0,
        "gradient": {
          "_class": "gradient",
          "elipseLength": 0,
          "from": "{0.5, 0}",
          "gradientType": 0,
          "stops": [
            {
              "_class": "gradientStop",
              "color": {
                "_class": "color",
                "alpha": 1,
                "blue": 1,
                "green": 1,
                "red": 1
              },
              "position": 0
            },
            {
              "_class": "gradientStop",
              "color": {
                "_class": "color",
                "alpha": 1,
                "blue": 0,
                "green": 0,
                "red": 0
              },
              "position": 1
            }
          ],
          "to": "{0.5, 1}"
        },
        "isEnabled": true,
        "noiseIndex": 0,
        "noiseIntensity": 0,
        "patternFillType": 1,
        "patternTileScale": 1
      }
    ],
    "innerShadows": [
    ],
    "miterLimit": 10,
    "shadows": [
    ],
    "startMarkerType": 0,
    "windingRule": 1
  }
}