{
  "_class": "group",
  "booleanOperation": -1,
  "clippingMaskMode": 0,
  "do_objectID": "100E3797-3C95-4B2E-8A65-0F1CCC4FB248",
  "exportOptions": {
    "_class": "exportOptions",
    "exportFormats": [
    ],
    "includedLayerIds": [
    ],
    "layerOptions": 0,
    "shouldTrim": false
  },
  "frame": {
    "_class": "rect",
    "constrainProportions": false,
    "height": 81,
    "width": 331,
    "x": 22,
    "y": 1079
  },
  "groupLayout": {
    "_class": "MSImmutableFreeformGroupLayout"
  },
  "hasClickThrough": false,
  "hasClippingMask": false,
  "isFixedToViewport": false,
  "isFlippedHorizontal": false,
  "isFlippedVertical": false,
  "isLocked": false,
  "isVisible": true,
  "layerListExpandedType": 0,
  "layers": [
    {
      "class": "text",
      "id": "6452CC17-92A6-43FA-8E01-317128CE9219"
    },
    {
      "class": "text",
      "id": "34CC352B-2B1E-467C-BB35-F8566CE6B7E3"
    },
    {
      "class": "text",
      "id": "B4B789EE-29B1-4D30-A6E5-075CE29B63D4"
    },
    {
      "class": "text",
      "id": "FEC5B14B-52AF-4152-B2DF-A894607AEFB4"
    },
    {
      "class": "text",
      "id": "67866887-511A-4E78-9FF9-306744D3800B"
    },
    {
      "class": "text",
      "id": "A700E482-9783-4D18-8321-ABB9B2EBA35A"
    },
    {
      "class": "group",
      "id": "969371AE-EA0A-4E38-88F5-FDDEF99A7630"
    },
    {
      "class": "group",
      "id": "A39B2122-7867-4571-A7B5-8BCBB7256692"
    },
    {
      "class": "group",
      "id": "652138E3-F45A-4659-BD1C-F82FC07D7355"
    }
  ],
  "maintainScrollPosition": false,
  "name": "Group 2",
  "nameIsFixed": false,
  "resizingConstraint": 63,
  "resizingType": 0,
  "rotation": 0,
  "shouldBreakMaskChain": false,
  "style": {
    "_class": "style",
    "blur": {
      "_class": "blur",
      "center": "{0.5, 0.5}",
      "isEnabled": false,
      "motionAngle": 0,
      "radius": 10,
      "saturation": 1,
      "type": 0
    },
    "borderOptions": {
      "_class": "borderOptions",
      "dashPattern": [
      ],
      "isEnabled": true,
      "lineCapStyle": 0,
      "lineJoinStyle": 0
    },
    "borders": [
    ],
    "colorControls": {
      "_class": "colorControls",
      "brightness": 0,
      "contrast": 1,
      "hue": 0,
      "isEnabled": true,
      "saturation": 1
    },
    "contextSettings": {
      "_class": "graphicsContextSettings",
      "blendMode": 0,
      "opacity": 1
    },
    "do_objectID": "E206D8CA-D415-4099-BBCB-9BB214E4FED7",
    "endMarkerType": 0,
    "fills": [
    ],
    "innerShadows": [
    ],
    "miterLimit": 10,
    "shadows": [
    ],
    "startMarkerType": 0,
    "windingRule": 1
  }
}