{
  "_class": "symbolMaster",
  "allowsOverrides": true,
  "backgroundColor": {
    "_class": "color",
    "alpha": 1,
    "blue": 1,
    "green": 1,
    "red": 1
  },
  "booleanOperation": -1,
  "changeIdentifier": 3091,
  "clippingMaskMode": 0,
  "do_objectID": "86AA53E9-F813-4EB5-B445-F0A3E5F4CC96",
  "exportOptions": {
    "_class": "exportOptions",
    "exportFormats": [
    ],
    "includedLayerIds": [
    ],
    "layerOptions": 0,
    "shouldTrim": false
  },
  "frame": {
    "_class": "rect",
    "constrainProportions": false,
    "height": 48,
    "width": 447,
    "x": 75197,
    "y": 98
  },
  "groupLayout": {
    "_class": "MSImmutableFreeformGroupLayout"
  },
  "hasBackgroundColor": false,
  "hasClickThrough": true,
  "hasClippingMask": false,
  "horizontalRulerData": {
    "_class": "rulerData",
    "base": 0,
    "guides": [
    ]
  },
  "includeBackgroundColorInExport": true,
  "includeBackgroundColorInInstance": false,
  "includeInCloudUpload": true,
  "isFixedToViewport": false,
  "isFlippedHorizontal": false,
  "isFlippedVertical": false,
  "isFlowHome": false,
  "isLocked": false,
  "isVisible": true,
  "layerListExpandedType": 2,
  "layers": [
    {
      "class": "rectangle",
      "id": "4AB36CD8-71C0-4C04-BC23-3C2F66807180"
    },
    {
      "class": "rectangle",
      "id": "CDB7F5E5-6B82-48E2-9178-7D09B5572966"
    },
    {
      "class": "text",
      "id": "65BFA90E-B3ED-4437-930F-68204F42E8D8"
    },
    {
      "class": "text",
      "id": "7CC7F193-F8B6-4BA2-9107-55F7B5EB398B"
    },
    {
      "class": "text",
      "id": "8D52ACCD-243C-4D4F-A0BC-74740F431358"
    },
    {
      "class": "text",
      "id": "3DB0D2F5-3C77-4FB5-9D60-35023E2FE292"
    },
    {
      "class": "text",
      "id": "3C3B177A-1A54-483F-BE70-BBC097DDF36D"
    },
    {
      "class": "text",
      "id": "FE862E8F-CB32-405E-856F-BEF1CAC56DAE"
    },
    {
      "class": "rectangle",
      "id": "05B66773-3175-4579-BEA5-D216DEAD5657"
    },
    {
      "class": "symbolInstance",
      "id": "7A07953D-267E-4A08-BDE2-FD40CAAFB96A"
    },
    {
      "class": "symbolInstance",
      "id": "F0C9244B-EEA7-44C3-8BF5-0DC9D844EEC6"
    },
    {
      "class": "text",
      "id": "D090F240-BA36-434F-AE05-D3D72160B685"
    }
  ],
  "name": "pagination / standalone / 02 overflow ",
  "nameIsFixed": true,
  "overrideProperties": [
    {
      "_class": "MSImmutableOverrideProperty",
      "canOverride": false,
      "overrideName": "D090F240-BA36-434F-AE05-D3D72160B685_stringValue"
    },
    {
      "_class": "MSImmutableOverrideProperty",
      "canOverride": false,
      "overrideName": "F0C9244B-EEA7-44C3-8BF5-0DC9D844EEC6/F6808BED-BFA5-4620-A103-2FB1C0366942_layerStyle"
    },
    {
      "_class": "MSImmutableOverrideProperty",
      "canOverride": false,
      "overrideName": "7A07953D-267E-4A08-BDE2-FD40CAAFB96A/21815FFB-491A-4D0D-BAB3-66ADC1F70CDE_layerStyle"
    },
    {
      "_class": "MSImmutableOverrideProperty",
      "canOverride": true,
      "overrideName": "3C3B177A-1A54-483F-BE70-BBC097DDF36D_textStyle"
    },
    {
      "_class": "MSImmutableOverrideProperty",
      "canOverride": false,
      "overrideName": "CDB7F5E5-6B82-48E2-9178-7D09B5572966_layerStyle"
    },
    {
      "_class": "MSImmutableOverrideProperty",
      "canOverride": true,
      "overrideName": "7CC7F193-F8B6-4BA2-9107-55F7B5EB398B_textStyle"
    },
    {
      "_class": "MSImmutableOverrideProperty",
      "canOverride": true,
      "overrideName": "3C3B177A-1A54-483F-BE70-BBC097DDF36D_stringValue"
    },
    {
      "_class": "MSImmutableOverrideProperty",
      "canOverride": false,
      "overrideName": "F0C9244B-EEA7-44C3-8BF5-0DC9D844EEC6_symbolID"
    },
    {
      "_class": "MSImmutableOverrideProperty",
      "canOverride": true,
      "overrideName": "FE862E8F-CB32-405E-856F-BEF1CAC56DAE_textStyle"
    },
    {
      "_class": "MSImmutableOverrideProperty",
      "canOverride": false,
      "overrideName": "05B66773-3175-4579-BEA5-D216DEAD5657_layerStyle"
    },
    {
      "_class": "MSImmutableOverrideProperty",
      "canOverride": true,
      "overrideName": "FE862E8F-CB32-405E-856F-BEF1CAC56DAE_stringValue"
    },
    {
      "_class": "MSImmutableOverrideProperty",
      "canOverride": true,
      "overrideName": "D090F240-BA36-434F-AE05-D3D72160B685_textStyle"
    },
    {
      "_class": "MSImmutableOverrideProperty",
      "canOverride": true,
      "overrideName": "8D52ACCD-243C-4D4F-A0BC-74740F431358_stringValue"
    },
    {
      "_class": "MSImmutableOverrideProperty",
      "canOverride": true,
      "overrideName": "3DB0D2F5-3C77-4FB5-9D60-35023E2FE292_stringValue"
    },
    {
      "_class": "MSImmutableOverrideProperty",
      "canOverride": true,
      "overrideName": "3DB0D2F5-3C77-4FB5-9D60-35023E2FE292_textStyle"
    },
    {
      "_class": "MSImmutableOverrideProperty",
      "canOverride": false,
      "overrideName": "4AB36CD8-71C0-4C04-BC23-3C2F66807180_layerStyle"
    },
    {
      "_class": "MSImmutableOverrideProperty",
      "canOverride": true,
      "overrideName": "65BFA90E-B3ED-4437-930F-68204F42E8D8_textStyle"
    },
    {
      "_class": "MSImmutableOverrideProperty",
      "canOverride": false,
      "overrideName": "7A07953D-267E-4A08-BDE2-FD40CAAFB96A_symbolID"
    },
    {
      "_class": "MSImmutableOverrideProperty",
      "canOverride": true,
      "overrideName": "8D52ACCD-243C-4D4F-A0BC-74740F431358_textStyle"
    },
    {
      "_class": "MSImmutableOverrideProperty",
      "canOverride": true,
      "overrideName": "65BFA90E-B3ED-4437-930F-68204F42E8D8_stringValue"
    },
    {
      "_class": "MSImmutableOverrideProperty",
      "canOverride": true,
      "overrideName": "7CC7F193-F8B6-4BA2-9107-55F7B5EB398B_stringValue"
    }
  ],
  "resizesContent": true,
  "resizingConstraint": 63,
  "resizingType": 0,
  "rotation": 0,
  "shouldBreakMaskChain": true,
  "style": {
    "_class": "style",
    "endMarkerType": 0,
    "miterLimit": 10,
    "startMarkerType": 0,
    "windingRule": 1
  },
  "symbolID": "B0DB6459-AA56-40C2-99AE-DEEA01BE1DB6",
  "verticalRulerData": {
    "_class": "rulerData",
    "base": 0,
    "guides": [
    ]
  }
}