{
  "_class": "group",
  "booleanOperation": 0,
  "clippingMaskMode": 0,
  "do_objectID": "F12E6C30-9716-48CA-819B-EC8BD7BB2AD2",
  "exportOptions": {
    "_class": "exportOptions",
    "do_objectID": "94714F14-E60F-4377-8487-19743A4A1EB8",
    "exportFormats": [
    ],
    "includedLayerIds": [
    ],
    "layerOptions": 0,
    "shouldTrim": false
  },
  "frame": {
    "_class": "rect",
    "constrainProportions": false,
    "do_objectID": "3315A82A-312B-48A9-B448-4D5D4F6361EC",
    "height": 151,
    "width": 850,
    "x": 0,
    "y": -4.547473508864641e-13
  },
  "groupLayout": {
    "_class": "MSImmutableFreeformGroupLayout",
    "do_objectID": "806A1DA8-9BB6-43C1-BC04-24903F03C7ED"
  },
  "hasClickThrough": true,
  "hasClippingMask": false,
  "isFixedToViewport": false,
  "isFlippedHorizontal": false,
  "isFlippedVertical": false,
  "isLocked": false,
  "isVisible": true,
  "layerListExpandedType": 1,
  "layers": [
    {
      "class": "group",
      "id": "EA2023CC-7D85-41C5-96EB-7E84EB872225"
    }
  ],
  "name": "content",
  "nameIsFixed": true,
  "resizingConstraint": 63,
  "resizingType": 0,
  "rotation": 0,
  "shouldBreakMaskChain": false,
  "style": {
    "_class": "style",
    "do_objectID": "2510D6EC-55A2-4F17-96B8-CA7E3327719B",
    "endMarkerType": 0,
    "miterLimit": 10,
    "startMarkerType": 0,
    "windingRule": 1
  }
}