{
  "_class": "symbolInstance",
  "booleanOperation": -1,
  "clippingMaskMode": 0,
  "do_objectID": "22EE4FF2-6EEE-41EB-8D99-4CB91B303C44",
  "exportOptions": {
    "_class": "exportOptions",
    "do_objectID": "AB94F8C5-0A85-475B-A1B1-B18832077766",
    "exportFormats": [
    ],
    "includedLayerIds": [
    ],
    "layerOptions": 0,
    "shouldTrim": false
  },
  "frame": {
    "_class": "rect",
    "constrainProportions": false,
    "do_objectID": "1B8697FC-4CAE-47BC-9EE3-C3A923E70639",
    "height": 64,
    "width": 1024,
    "x": 0,
    "y": 152
  },
  "hasClippingMask": false,
  "horizontalSpacing": 0,
  "isFixedToViewport": false,
  "isFlippedHorizontal": false,
  "isFlippedVertical": false,
  "isLocked": false,
  "isVisible": true,
  "layerListExpandedType": 0,
  "name": "components/data table/row/64 tall/1 line/default/03 focus",
  "nameIsFixed": true,
  "overrideValues": [
    {
      "_class": "overrideValue",
      "do_objectID": "7397FD46-352C-4B2B-BFC4-4BF794417DDC",
      "overrideName": "3244325B-842C-4E75-8EE5-64FA0D892148_symbolID",
      "value": "90EC6ADA-25AE-4F8E-B68B-39879AF44708"
    },
    {
      "_class": "overrideValue",
      "do_objectID": "0E864F6A-5855-4B87-96AC-39F779B0DFB5",
      "overrideName": "3244325B-842C-4E75-8EE5-64FA0D892148/F30DFAFC-8279-4F19-8AD8-D36F52614DB3_symbolID",
      "value": "A1BE5A20-7103-473A-8C9B-7981955D0116"
    }
  ],
  "resizingConstraint": 63,
  "resizingType": 0,
  "rotation": 0,
  "scale": 1,
  "shouldBreakMaskChain": false,
  "style": {
    "_class": "style",
    "do_objectID": "62AB8DF5-B1E4-4E2B-8765-2F05B6520211",
    "endMarkerType": 0,
    "miterLimit": 10,
    "startMarkerType": 0,
    "windingRule": 1
  },
  "symbolID": "B0E1EAC6-225B-4ABF-A886-29845FC34F44",
  "verticalSpacing": 0
}