{
  "_class": "symbolInstance",
  "booleanOperation": -1,
  "clippingMaskMode": 0,
  "do_objectID": "3BEDC5A1-70DF-44FD-AF6A-4FDE684CF154",
  "exportOptions": {
    "_class": "exportOptions",
    "do_objectID": "E01FA9F2-DD06-4B7B-B10A-B6F796A647E8",
    "exportFormats": [
    ],
    "includedLayerIds": [
    ],
    "layerOptions": 0,
    "shouldTrim": false
  },
  "frame": {
    "_class": "rect",
    "constrainProportions": false,
    "do_objectID": "167ECC67-F831-4925-864C-70F95961524E",
    "height": 32,
    "width": 256,
    "x": 0,
    "y": 80
  },
  "hasClippingMask": false,
  "horizontalSpacing": 0,
  "isFixedToViewport": false,
  "isFlippedHorizontal": false,
  "isFlippedVertical": false,
  "isLocked": false,
  "isVisible": true,
  "layerListExpandedType": 0,
  "name": "Sub-menu",
  "nameIsFixed": true,
  "overrideValues": [
    {
      "_class": "overrideValue",
      "do_objectID": "82B87B4D-77B8-40A1-B2B7-B60861ADF234",
      "overrideName": "7FD1FE54-5BFD-4958-AAE5-3679EE52B69C_stringValue",
      "value": "Sub-menu 3"
    }
  ],
  "resizingConstraint": 63,
  "resizingType": 0,
  "rotation": 0,
  "scale": 1,
  "shouldBreakMaskChain": false,
  "style": {
    "_class": "style",
    "do_objectID": "BE5E339E-BA70-459D-AFCE-F6157DF74C9A",
    "endMarkerType": 0,
    "miterLimit": 10,
    "startMarkerType": 0,
    "windingRule": 1
  },
  "symbolID": "22065C98-1CF4-452F-A982-74E82F37C3D3",
  "verticalSpacing": 0
}