{
  "_class": "symbolInstance",
  "booleanOperation": -1,
  "clippingMaskMode": 0,
  "do_objectID": "AFADCC76-915E-4C9A-9FB0-099369302174",
  "exportOptions": {
    "_class": "exportOptions",
    "do_objectID": "163266CA-6FD4-44E5-BC9B-196CDFB94BC5",
    "exportFormats": [
    ],
    "includedLayerIds": [
    ],
    "layerOptions": 0,
    "shouldTrim": false
  },
  "frame": {
    "_class": "rect",
    "constrainProportions": false,
    "do_objectID": "01741FC1-F773-4A2A-A4E3-E24D7B9F90FA",
    "height": 32,
    "width": 256,
    "x": 0,
    "y": 112
  },
  "hasClippingMask": false,
  "horizontalSpacing": 0,
  "isFixedToViewport": false,
  "isFlippedHorizontal": false,
  "isFlippedVertical": false,
  "isLocked": false,
  "isVisible": true,
  "layerListExpandedType": 0,
  "name": "Sub-menu Copy",
  "nameIsFixed": true,
  "overrideValues": [
    {
      "_class": "overrideValue",
      "do_objectID": "82B87B4D-77B8-40A1-B2B7-B60861ADF234",
      "overrideName": "7FD1FE54-5BFD-4958-AAE5-3679EE52B69C_stringValue",
      "value": "Sub-menu 4"
    }
  ],
  "resizingConstraint": 63,
  "resizingType": 0,
  "rotation": 0,
  "scale": 1,
  "shouldBreakMaskChain": false,
  "style": {
    "_class": "style",
    "do_objectID": "D21F93D2-A8E5-4BCF-BC15-FC724736BEF9",
    "endMarkerType": 0,
    "miterLimit": 10,
    "startMarkerType": 0,
    "windingRule": 1
  },
  "symbolID": "22065C98-1CF4-452F-A982-74E82F37C3D3",
  "verticalSpacing": 0
}