{
  "_class": "group",
  "booleanOperation": 0,
  "clippingMaskMode": 0,
  "do_objectID": "CF792510-AE58-49D8-87B5-7A5B1D7E62CA",
  "exportOptions": {
    "_class": "exportOptions",
    "do_objectID": "ADD4C4F0-0057-4694-86BE-B81836E73D01",
    "exportFormats": [
    ],
    "includedLayerIds": [
    ],
    "layerOptions": 0,
    "shouldTrim": false
  },
  "frame": {
    "_class": "rect",
    "constrainProportions": false,
    "do_objectID": "2476746A-B1F9-46CA-BB7D-47816D32ED50",
    "height": 70,
    "width": 360,
    "x": 0,
    "y": 0
  },
  "groupLayout": {
    "_class": "MSImmutableFreeformGroupLayout",
    "do_objectID": "A1533F21-DE87-4B35-AEFE-23E5356F3AF3"
  },
  "hasClickThrough": false,
  "hasClippingMask": false,
  "isFixedToViewport": false,
  "isFlippedHorizontal": false,
  "isFlippedVertical": false,
  "isLocked": false,
  "isVisible": true,
  "layerListExpandedType": 0,
  "layers": [
    {
      "class": "rectangle",
      "id": "480F10FF-325B-4018-B6DF-AB950DCDCD65"
    },
    {
      "class": "text",
      "id": "9085CED8-BE85-427F-B6E0-8F9EAFCEA62E"
    }
  ],
  "name": "Group",
  "nameIsFixed": false,
  "resizingConstraint": 63,
  "resizingType": 0,
  "rotation": 0,
  "shouldBreakMaskChain": false,
  "style": {
    "_class": "style",
    "do_objectID": "20EFDFE6-B06A-411D-8490-8C63E4BE6B61",
    "endMarkerType": 0,
    "miterLimit": 10,
    "startMarkerType": 0,
    "windingRule": 1
  }
}