{
  "_class": "group",
  "booleanOperation": 0,
  "clippingMaskMode": 0,
  "do_objectID": "201A1FA8-D234-4508-836F-4A78B5FC74EE",
  "exportOptions": {
    "_class": "exportOptions",
    "do_objectID": "B4AED3AF-0D36-4294-97E0-A6CD1FC74839",
    "exportFormats": [
    ],
    "includedLayerIds": [
    ],
    "layerOptions": 0,
    "shouldTrim": false
  },
  "frame": {
    "_class": "rect",
    "constrainProportions": true,
    "do_objectID": "B7161B24-B85F-4CE6-B7F3-CD93CFB278AD",
    "height": 12,
    "width": 13,
    "x": 43.41818181818182,
    "y": 0
  },
  "groupLayout": {
    "_class": "MSImmutableFreeformGroupLayout",
    "do_objectID": "A71834C2-F0E2-49B3-9EDD-6AD91A4BD086"
  },
  "hasClickThrough": false,
  "hasClippingMask": false,
  "isFixedToViewport": false,
  "isFlippedHorizontal": false,
  "isFlippedVertical": false,
  "isLocked": false,
  "isVisible": true,
  "layerListExpandedType": 0,
  "layers": [
    {
      "class": "shapePath",
      "id": "8A6743B7-0EFC-4E99-8D38-CC5570BE2671"
    }
  ],
  "name": "star icon",
  "nameIsFixed": true,
  "resizingConstraint": 63,
  "resizingType": 0,
  "rotation": 0,
  "shouldBreakMaskChain": false,
  "style": {
    "_class": "style",
    "do_objectID": "43D62D20-9D16-4A30-8F65-38CC0C72D3ED",
    "endMarkerType": 0,
    "miterLimit": 10,
    "startMarkerType": 0,
    "windingRule": 1
  }
}