{
  "_class": "group",
  "booleanOperation": 0,
  "clippingMaskMode": 0,
  "do_objectID": "4BE050D5-07C8-4E19-8FDF-DE4429CBBF35",
  "exportOptions": {
    "_class": "exportOptions",
    "exportFormats": [
    ],
    "includedLayerIds": [
    ],
    "layerOptions": 0,
    "shouldTrim": false
  },
  "frame": {
    "_class": "rect",
    "constrainProportions": false,
    "height": 230,
    "width": 325,
    "x": -627,
    "y": -3259
  },
  "groupLayout": {
    "_class": "MSImmutableFreeformGroupLayout"
  },
  "hasClickThrough": false,
  "hasClippingMask": false,
  "isFixedToViewport": false,
  "isFlippedHorizontal": false,
  "isFlippedVertical": false,
  "isLocked": false,
  "isVisible": true,
  "layerListExpandedType": 0,
  "layers": [
    {
      "class": "rectangle",
      "id": "6FB7F7C7-2237-45A8-A220-2EFF28B923DB"
    },
    {
      "class": "group",
      "id": "C0855DFA-B0E5-4F0F-8636-4952CDD84F5F"
    },
    {
      "class": "group",
      "id": "2C336F96-10C3-4C6C-9B59-6F2E0B90288B"
    },
    {
      "class": "group",
      "id": "B06F3322-F020-4733-888A-70ED357EAC86"
    },
    {
      "class": "group",
      "id": "B1E036E4-FBEE-4CCC-9D63-BB23D8222C16"
    }
  ],
  "maintainScrollPosition": false,
  "name": "Filters Card",
  "nameIsFixed": true,
  "originalObjectID": "6139114C-12B9-4CCA-88C8-994DAFA636B8",
  "resizingConstraint": 63,
  "resizingType": 0,
  "rotation": 0,
  "shouldBreakMaskChain": false,
  "style": {
    "_class": "style",
    "blur": {
      "_class": "blur",
      "center": "{0.5, 0.5}",
      "isEnabled": false,
      "motionAngle": 0,
      "radius": 10,
      "saturation": 1,
      "type": 0
    },
    "borderOptions": {
      "_class": "borderOptions",
      "dashPattern": [
      ],
      "isEnabled": true,
      "lineCapStyle": 0,
      "lineJoinStyle": 0
    },
    "borders": [
    ],
    "colorControls": {
      "_class": "colorControls",
      "brightness": 0,
      "contrast": 1,
      "hue": 0,
      "isEnabled": false,
      "saturation": 1
    },
    "contextSettings": {
      "_class": "graphicsContextSettings",
      "blendMode": 0,
      "opacity": 1
    },
    "do_objectID": "E9B8B343-DB25-42CF-886A-DA17863FF0BF",
    "endMarkerType": 0,
    "fills": [
    ],
    "innerShadows": [
    ],
    "miterLimit": 10,
    "shadows": [
    ],
    "startMarkerType": 0,
    "windingRule": 1
  }
}