{
  "_class": "group",
  "booleanOperation": 0,
  "clippingMaskMode": 0,
  "do_objectID": "71A77160-5216-4FAC-9FC1-0F90F544984E",
  "exportOptions": {
    "_class": "exportOptions",
    "exportFormats": [
    ],
    "includedLayerIds": [
    ],
    "layerOptions": 0,
    "shouldTrim": false
  },
  "frame": {
    "_class": "rect",
    "constrainProportions": true,
    "height": 15,
    "width": 15,
    "x": 251,
    "y": 836
  },
  "groupLayout": {
    "_class": "MSImmutableFreeformGroupLayout"
  },
  "hasClickThrough": false,
  "hasClippingMask": false,
  "isFixedToViewport": false,
  "isFlippedHorizontal": false,
  "isFlippedVertical": false,
  "isLocked": false,
  "isVisible": true,
  "layerListExpandedType": 2,
  "layers": [
    {
      "class": "shapePath",
      "id": "4D4F99D4-5626-4CF7-A21D-0C7453CF82F7"
    },
    {
      "class": "shapePath",
      "id": "927108A8-3C89-4DFF-9D24-9543AB787029"
    },
    {
      "class": "shapePath",
      "id": "E8C687BE-C124-4488-962D-D8E0930D0EB2"
    },
    {
      "class": "shapePath",
      "id": "D41E89AB-FC7B-4622-9DF7-8EF3FB19BC78"
    },
    {
      "class": "shapePath",
      "id": "F3E9DAB2-8405-4893-A42B-A477F438E171"
    },
    {
      "class": "shapePath",
      "id": "81AB5F6A-4F7B-48AA-AB0B-2CCCF2587F29"
    }
  ],
  "maintainScrollPosition": false,
  "name": "Group",
  "nameIsFixed": false,
  "resizingConstraint": 45,
  "resizingType": 0,
  "rotation": 0,
  "shouldBreakMaskChain": false,
  "style": {
    "_class": "style",
    "blur": {
      "_class": "blur",
      "center": "{0.5, 0.5}",
      "isEnabled": false,
      "motionAngle": 0,
      "radius": 10,
      "saturation": 1,
      "type": 0
    },
    "borderOptions": {
      "_class": "borderOptions",
      "dashPattern": [
      ],
      "isEnabled": true,
      "lineCapStyle": 0,
      "lineJoinStyle": 0
    },
    "borders": [
    ],
    "colorControls": {
      "_class": "colorControls",
      "brightness": 0,
      "contrast": 1,
      "hue": 0,
      "isEnabled": true,
      "saturation": 1
    },
    "contextSettings": {
      "_class": "graphicsContextSettings",
      "blendMode": 0,
      "opacity": 1
    },
    "do_objectID": "378020FF-F93A-460E-9174-9A79FA1E0C37",
    "endMarkerType": 0,
    "fills": [
    ],
    "innerShadows": [
    ],
    "miterLimit": 10,
    "shadows": [
    ],
    "startMarkerType": 0,
    "windingRule": 1
  },
  "userInfo": {
    "com.animaapp.stc-sketch-plugin": {
      "kModelPropertiesKey": {
        "constraints": {
          "aspectRatio": {
            "constant": 11,
            "enabled": 1,
            "modelID": "constraint_806881b1-e97e-4a28-ace9-046f4c291640",
            "model_class": "ADModelConstraint",
            "model_version": 0,
            "multiplier": 11
          },
          "automatic": 1,
          "modelID": "viewConstraints_f7eb216f-5d1b-4ca4-856f-56108703a9c3",
          "model_class": "ADModelViewConstraints",
          "model_version": 0,
          "scaleFactor": 1
        }
      }
    }
  }
}