{
  "_class": "artboard",
  "backgroundColor": {
    "_class": "color",
    "alpha": 1,
    "blue": 1,
    "green": 1,
    "red": 1
  },
  "booleanOperation": -1,
  "clippingMaskMode": 0,
  "do_objectID": "484C2682-9AC2-4BC8-AC86-3BB99660D357",
  "exportOptions": {
    "_class": "exportOptions",
    "exportFormats": [
    ],
    "includedLayerIds": [
    ],
    "layerOptions": 0,
    "shouldTrim": false
  },
  "frame": {
    "_class": "rect",
    "constrainProportions": false,
    "height": 812,
    "width": 375,
    "x": 11541,
    "y": -24
  },
  "groupLayout": {
    "_class": "MSImmutableFreeformGroupLayout"
  },
  "hasBackgroundColor": false,
  "hasClickThrough": true,
  "hasClippingMask": false,
  "horizontalRulerData": {
    "_class": "rulerData",
    "base": 0,
    "guides": [
    ]
  },
  "includeBackgroundColorInExport": true,
  "includeInCloudUpload": true,
  "isFixedToViewport": false,
  "isFlippedHorizontal": false,
  "isFlippedVertical": false,
  "isFlowHome": false,
  "isLocked": false,
  "isVisible": true,
  "layerListExpandedType": 2,
  "layers": [
    {
      "class": "group",
      "id": "D9136435-DACD-4DD1-94BE-70905F13B9FE"
    },
    {
      "class": "group",
      "id": "7B1E25CD-E6EB-41B4-A7AB-4DFCEFACD620"
    },
    {
      "class": "symbolInstance",
      "id": "F94E39B0-1D15-4282-847F-03081BA7F843"
    },
    {
      "class": "group",
      "id": "F30AD101-0C01-4B49-86D8-47DFA0074A08"
    },
    {
      "class": "symbolInstance",
      "id": "72CDB5FF-465A-406A-BD28-5B5818E77492"
    },
    {
      "class": "group",
      "id": "C7633CB8-96E1-4A11-A465-5134EACF8C13"
    },
    {
      "class": "group",
      "id": "3D1FE687-78E2-44DE-8D90-D43EBFDB1C2B"
    },
    {
      "class": "group",
      "id": "2308694D-10FA-4EB3-9F43-A1C0E885C8CD"
    }
  ],
  "maintainScrollPosition": false,
  "name": "Zoomed",
  "nameIsFixed": true,
  "presetDictionary": {
    "allowResizedMatching": 1,
    "height": 812,
    "name": "iPhone XS",
    "offersLandscapeVariant": 1,
    "width": 375
  },
  "resizesContent": false,
  "resizingConstraint": 63,
  "resizingType": 0,
  "rotation": 0,
  "shouldBreakMaskChain": true,
  "style": {
    "_class": "style",
    "blur": {
      "_class": "blur",
      "center": "{0.5, 0.5}",
      "isEnabled": false,
      "motionAngle": 0,
      "radius": 10,
      "saturation": 1,
      "type": 0
    },
    "borderOptions": {
      "_class": "borderOptions",
      "dashPattern": [
      ],
      "isEnabled": true,
      "lineCapStyle": 0,
      "lineJoinStyle": 0
    },
    "borders": [
    ],
    "colorControls": {
      "_class": "colorControls",
      "brightness": 0,
      "contrast": 1,
      "hue": 0,
      "isEnabled": true,
      "saturation": 1
    },
    "contextSettings": {
      "_class": "graphicsContextSettings",
      "blendMode": 0,
      "opacity": 1
    },
    "do_objectID": "D920BD5E-7B1F-40E4-A628-201375370B91",
    "endMarkerType": 0,
    "fills": [
    ],
    "innerShadows": [
    ],
    "miterLimit": 10,
    "shadows": [
    ],
    "startMarkerType": 0,
    "windingRule": 1
  },
  "verticalRulerData": {
    "_class": "rulerData",
    "base": 0,
    "guides": [
    ]
  }
}