{
  "_class": "shapePath",
  "booleanOperation": -1,
  "clippingMaskMode": 0,
  "do_objectID": "8FD1233D-9843-4E31-97B7-F727654B719F",
  "edited": true,
  "exportOptions": {
    "_class": "exportOptions",
    "do_objectID": "5B577EF9-4870-44A6-88D7-886954FCE5E1",
    "exportFormats": [
    ],
    "includedLayerIds": [
    ],
    "layerOptions": 0,
    "shouldTrim": false
  },
  "frame": {
    "_class": "rect",
    "constrainProportions": false,
    "do_objectID": "A8A6ECEB-210A-4F86-BFE0-B35C42430E06",
    "height": 14.04692421169301,
    "width": 14.36607594769035,
    "x": 0.0006173164400991027,
    "y": 0.2209146742447258
  },
  "hasClippingMask": false,
  "isClosed": true,
  "isFixedToViewport": false,
  "isFlippedHorizontal": false,
  "isFlippedVertical": false,
  "isLocked": false,
  "isVisible": true,
  "layerListExpandedType": 0,
  "name": "Shape",
  "nameIsFixed": false,
  "pointRadiusBehaviour": 0,
  "points": [
    {
      "_class": "curvePoint",
      "cornerRadius": 0,
      "curveFrom": "{0.45217781944607754, 0.50015341405273561}",
      "curveMode": 1,
      "curveTo": "{0.45217781944607754, 0.50015341405273561}",
      "hasCurveFrom": false,
      "hasCurveTo": false,
      "point": "{0.45217781944607754, 0.50015341405273561}"
    },
    {
      "_class": "curvePoint",
      "cornerRadius": 0,
      "curveFrom": "{-0.002761826633847489, 0.95827137765820181}",
      "curveMode": 4,
      "curveTo": "{0.0095355287315964741, 0.94588811001755257}",
      "hasCurveFrom": true,
      "hasCurveTo": false,
      "point": "{0.0095355287315964741, 0.94588811001755257}"
    },
    {
      "_class": "curvePoint",
      "cornerRadius": 0,
      "curveFrom": "{0.015676393609130753, 0.99691598417082494}",
      "curveMode": 2,
      "curveTo": "{-0.002761826633847489, 0.97833321532253181}",
      "hasCurveFrom": true,
      "hasCurveTo": true,
      "point": "{0.0095355287315964741, 0.99071648296318104}"
    },
    {
      "_class": "curvePoint",
      "cornerRadius": 0,
      "curveFrom": "{0.039849212859882743, 1.0000000000000082}",
      "curveMode": 2,
      "curveTo": "{0.023739208562839884, 1.0000000000000082}",
      "hasCurveFrom": true,
      "hasCurveTo": true,
      "point": "{0.031786397906173609, 1.0000000000000082}"
    },
    {
      "_class": "curvePoint",
      "cornerRadius": 0,
      "curveFrom": "{0.054037267080750746, 0.99071648296318104}",
      "curveMode": 4,
      "curveTo": "{0.047896402203216462, 0.99691598417082505}",
      "hasCurveFrom": false,
      "hasCurveTo": true,
      "point": "{0.054037267080750746, 0.99071648296318104}"
    },
    {
      "_class": "curvePoint",
      "cornerRadius": 0,
      "curveFrom": "{0.50000781280519324, 0.54163028000032298}",
      "curveMode": 1,
      "curveTo": "{0.50000781280519324, 0.54163028000032298}",
      "hasCurveFrom": false,
      "hasCurveTo": false,
      "point": "{0.50000781280519324, 0.54163028000032298}"
    },
    {
      "_class": "curvePoint",
      "cornerRadius": 0,
      "curveFrom": "{0.9521348490175453, 0.99691598417082494}",
      "curveMode": 4,
      "curveTo": "{0.94597835852963574, 0.99071648296318104}",
      "hasCurveFrom": true,
      "hasCurveTo": false,
      "point": "{0.94597835852963574, 0.99071648296318104}"
    },
    {
      "_class": "curvePoint",
      "cornerRadius": 0,
      "curveFrom": "{0.97627641704754653, 1.0000000000000082}",
      "curveMode": 2,
      "curveTo": "{0.96018203836087912, 1.0000000000000082}",
      "hasCurveFrom": true,
      "hasCurveTo": true,
      "point": "{0.96822922770421282, 1.0000000000000082}"
    },
    {
      "_class": "curvePoint",
      "cornerRadius": 0,
      "curveFrom": "{1.0027774522442339, 0.97833321532253181}",
      "curveMode": 2,
      "curveTo": "{0.98433923200125562, 0.99691598417082505}",
      "hasCurveFrom": true,
      "hasCurveTo": true,
      "point": "{0.99048009687878991, 0.99071648296318104}"
    },
    {
      "_class": "curvePoint",
      "cornerRadius": 0,
      "curveFrom": "{0.99048009687878991, 0.94588811001755246}",
      "curveMode": 4,
      "curveTo": "{1.0027774522442339, 0.95827137765820181}",
      "hasCurveFrom": false,
      "hasCurveTo": true,
      "point": "{0.99048009687878991, 0.94588811001755246}"
    },
    {
      "_class": "curvePoint",
      "cornerRadius": 0,
      "curveFrom": "{0.54785343177468415, 0.50015341405273561}",
      "curveMode": 1,
      "curveTo": "{0.54785343177468415, 0.50015341405273561}",
      "hasCurveFrom": false,
      "hasCurveTo": false,
      "point": "{0.54785343177468415, 0.50015341405273561}"
    },
    {
      "_class": "curvePoint",
      "cornerRadius": 0,
      "curveFrom": "{1.0030743388413663, 0.041720754954495447}",
      "curveMode": 4,
      "curveTo": "{0.99077698347592247, 0.054104022595144664}",
      "hasCurveFrom": true,
      "hasCurveTo": false,
      "point": "{0.99077698347592247, 0.054104022595144664}"
    },
    {
      "_class": "curvePoint",
      "cornerRadius": 0,
      "curveFrom": "{0.97847962811047851, -0.0030918832164943547}",
      "curveMode": 2,
      "curveTo": "{1.0030743388413663, 0.021658917290165398}",
      "hasCurveFrom": true,
      "hasCurveTo": true,
      "point": "{0.99077698347592247, 0.0092756496495161721}"
    },
    {
      "_class": "curvePoint",
      "cornerRadius": 0,
      "curveFrom": "{0.94627524512676831, 0.0092756496495161721}",
      "curveMode": 4,
      "curveTo": "{0.95855697488183689, -0.0030918832164943547}",
      "hasCurveFrom": false,
      "hasCurveTo": true,
      "point": "{0.94627524512676831, 0.0092756496495161721}"
    },
    {
      "_class": "curvePoint",
      "cornerRadius": 0,
      "curveFrom": "{0.50002343841556862, 0.45867654810514802}",
      "curveMode": 1,
      "curveTo": "{0.50002343841556862, 0.45867654810514802}",
      "hasCurveFrom": false,
      "hasCurveTo": false,
      "point": "{0.50002343841556862, 0.45867654810514802}"
    },
    {
      "_class": "curvePoint",
      "cornerRadius": 0,
      "curveFrom": "{0.041427399507798675, -0.0030761484418556644}",
      "curveMode": 4,
      "curveTo": "{0.053724754873242637, 0.009291384424154862}",
      "hasCurveFrom": true,
      "hasCurveTo": false,
      "point": "{0.053724754873242637, 0.009291384424154862}"
    },
    {
      "_class": "curvePoint",
      "cornerRadius": 0,
      "curveFrom": "{-0.0030743388413555952, 0.021674652064804078}",
      "curveMode": 2,
      "curveTo": "{0.021520371889532333, -0.0030761484418556644}",
      "hasCurveFrom": true,
      "hasCurveTo": true,
      "point": "{0.0092230165240883687, 0.009291384424154862}"
    },
    {
      "_class": "curvePoint",
      "cornerRadius": 0,
      "curveFrom": "{0.0092230165240883687, 0.054119757369783354}",
      "curveMode": 4,
      "curveTo": "{-0.0030743388413555952, 0.04173648972913413}",
      "hasCurveFrom": false,
      "hasCurveTo": true,
      "point": "{0.0092230165240883687, 0.054119757369783354}"
    }
  ],
  "resizingConstraint": 63,
  "resizingType": 0,
  "rotation": 0,
  "shouldBreakMaskChain": false,
  "style": {
    "_class": "style",
    "do_objectID": "5148E395-B47A-4C70-A137-FA2D2D16204E",
    "endMarkerType": 0,
    "fills": [
      {
        "_class": "fill",
        "color": {
          "_class": "color",
          "alpha": 1,
          "blue": 0.1764705882352941,
          "green": 0.1764705882352941,
          "red": 0.1764705882352941
        },
        "fillType": 0,
        "isEnabled": true,
        "noiseIndex": 0,
        "noiseIntensity": 0,
        "patternFillType": 1,
        "patternTileScale": 1
      }
    ],
    "miterLimit": 10,
    "startMarkerType": 0,
    "windingRule": 0
  }
}