{
  "_class": "group",
  "booleanOperation": 0,
  "clippingMaskMode": 0,
  "do_objectID": "CEC84874-3481-4FE6-8B9F-B3A6189AC094",
  "exportOptions": {
    "_class": "exportOptions",
    "do_objectID": "0C8B5EA6-50EE-4FE7-AF55-AE677549337B",
    "exportFormats": [
    ],
    "includedLayerIds": [
    ],
    "layerOptions": 0,
    "shouldTrim": false
  },
  "frame": {
    "_class": "rect",
    "constrainProportions": true,
    "do_objectID": "C11C5CCB-9476-40FA-B698-A44E7A311D66",
    "height": 24,
    "width": 25,
    "x": 5.8125,
    "y": 0
  },
  "groupLayout": {
    "_class": "MSImmutableFreeformGroupLayout",
    "do_objectID": "415FE16C-28EA-4B59-B36D-D2CD485C334D"
  },
  "hasClickThrough": false,
  "hasClippingMask": false,
  "isFixedToViewport": false,
  "isFlippedHorizontal": false,
  "isFlippedVertical": false,
  "isLocked": false,
  "isVisible": true,
  "layerListExpandedType": 0,
  "layers": [
    {
      "class": "shapePath",
      "id": "799FE10F-B110-49A2-B9E6-A7EA50E8DBEF"
    },
    {
      "class": "shapePath",
      "id": "E7DE4927-5819-4932-9E7F-CAE784EAE3E3"
    }
  ],
  "name": "upload",
  "nameIsFixed": false,
  "resizingConstraint": 63,
  "resizingType": 0,
  "rotation": 0,
  "shouldBreakMaskChain": false,
  "style": {
    "_class": "style",
    "do_objectID": "CEDD79E8-4523-447B-B900-C0BA7B89283A",
    "endMarkerType": 0,
    "miterLimit": 10,
    "startMarkerType": 0,
    "windingRule": 1
  }
}