{
  "_class": "symbolInstance",
  "booleanOperation": -1,
  "clippingMaskMode": 0,
  "do_objectID": "3080CA0D-DF4C-4FC7-BBC1-392CDCAFC6B9",
  "exportOptions": {
    "_class": "exportOptions",
    "do_objectID": "3813D27B-8ED4-4C2A-96A1-584E996C66E3",
    "exportFormats": [
    ],
    "includedLayerIds": [
    ],
    "layerOptions": 0,
    "shouldTrim": false
  },
  "frame": {
    "_class": "rect",
    "constrainProportions": true,
    "do_objectID": "7F0F6FA7-E8F2-4543-9847-259CB49D4DFE",
    "height": 48,
    "width": 48,
    "x": 974,
    "y": 0
  },
  "hasClippingMask": false,
  "horizontalSpacing": 0,
  "isFixedToViewport": false,
  "isFlippedHorizontal": false,
  "isFlippedVertical": false,
  "isLocked": false,
  "isVisible": true,
  "layerListExpandedType": 0,
  "name": "icon 3",
  "nameIsFixed": true,
  "overrideValues": [
    {
      "_class": "overrideValue",
      "do_objectID": "9F81ADC1-5C9C-4708-AA1A-6317B976DC39",
      "overrideName": "9F9BACD0-2D1A-419E-8F23-39B00148FEC4_symbolID",
      "value": "7D82F391-55B4-4BBF-93B3-A3095C07F32D"
    },
    {
      "_class": "overrideValue",
      "do_objectID": "89C1C9C7-8EA1-467A-9A2E-8A1E1B910294",
      "overrideName": "9F9BACD0-2D1A-419E-8F23-39B00148FEC4/5BB310D7-6749-46C0-A722-FC47652A5725_layerStyle",
      "value": "46F3D872-C45C-4111-B3C3-43A6EFA3BCFB"
    }
  ],
  "resizingConstraint": 12,
  "resizingType": 0,
  "rotation": 0,
  "scale": 1,
  "shouldBreakMaskChain": false,
  "style": {
    "_class": "style",
    "do_objectID": "D8191318-AF53-43DB-9626-FDC2D3F45336",
    "endMarkerType": 0,
    "miterLimit": 10,
    "startMarkerType": 0,
    "windingRule": 1
  },
  "symbolID": "2E9300CF-84EC-44FA-9847-8EF11773C40A",
  "verticalSpacing": 0
}