{
  "_class": "artboard",
  "backgroundColor": {
    "_class": "color",
    "alpha": 1,
    "blue": 1,
    "do_objectID": "132BFAF5-437B-4872-83EB-EABE4782E38E",
    "green": 1,
    "red": 1
  },
  "booleanOperation": 0,
  "clippingMaskMode": 0,
  "do_objectID": "67B72365-FAC2-4C89-8576-841A31DD671C",
  "exportOptions": {
    "_class": "exportOptions",
    "do_objectID": "A511EBF8-132E-4470-92DE-05F4E3831BB5",
    "exportFormats": [
      {
        "_class": "exportFormat",
        "absoluteSize": 0,
        "fileFormat": "jpg",
        "name": "",
        "namingScheme": 0,
        "scale": 2,
        "visibleScaleType": 0
      }
    ],
    "includedLayerIds": [
    ],
    "layerOptions": 0,
    "shouldTrim": false
  },
  "frame": {
    "_class": "rect",
    "constrainProportions": false,
    "do_objectID": "96B9F572-7360-4F84-AAFF-6DA46856D847",
    "height": 2294,
    "width": 1366,
    "x": 50020,
    "y": 2956
  },
  "groupLayout": {
    "_class": "MSImmutableFreeformGroupLayout",
    "do_objectID": "D82B4E43-99AD-4857-89D5-E0585C18C422"
  },
  "hasBackgroundColor": true,
  "hasClickThrough": true,
  "hasClippingMask": false,
  "horizontalRulerData": {
    "_class": "rulerData",
    "base": 0,
    "do_objectID": "E9E1FF6A-6321-4502-AB60-390EB403E56C",
    "guides": [
      0,
      1351,
      1366,
      15,
      683,
      1326,
      40,
      677,
      690,
      1087,
      1157,
      1122,
      815,
      826,
      230,
      766,
      750,
      273,
      894,
      97,
      1267,
      743
    ]
  },
  "includeBackgroundColorInExport": true,
  "includeInCloudUpload": true,
  "isFixedToViewport": false,
  "isFlippedHorizontal": false,
  "isFlippedVertical": false,
  "isFlowHome": false,
  "isLocked": false,
  "isVisible": true,
  "layerListExpandedType": 1,
  "layers": [
    {
      "class": "rectangle",
      "id": "3D6C96D6-4F49-409E-9F02-D8B86723EB0C"
    },
    {
      "class": "rectangle",
      "id": "929DACB9-D414-46BF-9473-C30AF7C43B61"
    },
    {
      "class": "group",
      "id": "2A62E707-9D8E-459D-B39B-D5B62B3C9E67"
    },
    {
      "class": "text",
      "id": "9A87EEC7-0193-4D07-808C-1B48951D5A31"
    },
    {
      "class": "group",
      "id": "139BDC9F-52FB-40F2-80BB-FFB5B8E719A8"
    },
    {
      "class": "text",
      "id": "7B8DF08C-DC8D-49BD-B3A6-5B50471A00E8"
    },
    {
      "class": "text",
      "id": "26CD0BBF-0441-405C-B138-BE0B78A97C40"
    },
    {
      "class": "symbolInstance",
      "id": "9B8799BE-CEE4-4089-9D7E-562E8B30583C"
    },
    {
      "class": "group",
      "id": "2310BDC7-7F03-4C6F-BCAE-2E2A0EC65A87"
    },
    {
      "class": "symbolInstance",
      "id": "B95A8BEB-C295-4AD1-8C74-27A4B3A769E1"
    },
    {
      "class": "group",
      "id": "24A6F4B2-8884-4195-89BA-6C7F23FB0ACA"
    },
    {
      "class": "group",
      "id": "291DD2A8-5485-49A1-B5C7-8AA72EDC1F75"
    },
    {
      "class": "group",
      "id": "AB884A20-C37B-405A-AF0D-513F04151AB1"
    }
  ],
  "layout": {
    "_class": "layoutGrid",
    "columnWidth": 67.5,
    "do_objectID": "D0587F9B-644F-4D70-A5B6-05227084EAA1",
    "drawHorizontal": true,
    "drawHorizontalLines": false,
    "drawVertical": true,
    "gutterHeight": 12,
    "gutterWidth": 30,
    "guttersOutside": true,
    "horizontalOffset": 98,
    "isEnabled": false,
    "numberOfColumns": 12,
    "rowHeightMultiplication": 5,
    "totalWidth": 1170
  },
  "name": "32 My account  - Saved Address -  Empty",
  "nameIsFixed": true,
  "resizesContent": false,
  "resizingConstraint": 63,
  "resizingType": 0,
  "rotation": 0,
  "shouldBreakMaskChain": true,
  "style": {
    "_class": "style",
    "do_objectID": "CCF81A44-1AF1-4720-BE72-75334F15FD71",
    "endMarkerType": 0,
    "miterLimit": 10,
    "startMarkerType": 0,
    "windingRule": 1
  },
  "verticalRulerData": {
    "_class": "rulerData",
    "base": 0,
    "do_objectID": "1508E718-A4D0-4C66-84AB-55A4DE7EEE59",
    "guides": [
      -36,
      -232,
      90,
      -171,
      80,
      88,
      -68,
      -48,
      -217,
      -34,
      0,
      208,
      306,
      188,
      144,
      570,
      590,
      358,
      412,
      458,
      617,
      225,
      289,
      335,
      284,
      308,
      318,
      268,
      168
    ]
  }
}