{
  "_class": "shapePath",
  "booleanOperation": -1,
  "clippingMaskMode": 0,
  "do_objectID": "D9A1E60C-D248-450A-97EF-8A6331F8115E",
  "edited": true,
  "exportOptions": {
    "_class": "exportOptions",
    "exportFormats": [
    ],
    "includedLayerIds": [
    ],
    "layerOptions": 0,
    "shouldTrim": false
  },
  "frame": {
    "_class": "rect",
    "constrainProportions": false,
    "height": 20,
    "width": 10,
    "x": 0,
    "y": 0
  },
  "hasClippingMask": false,
  "isClosed": true,
  "isFixedToViewport": false,
  "isFlippedHorizontal": false,
  "isFlippedVertical": false,
  "isLocked": false,
  "isVisible": true,
  "layerListExpandedType": 0,
  "maintainScrollPosition": false,
  "name": "Fill 3",
  "nameIsFixed": false,
  "pointRadiusBehaviour": 0,
  "points": [
    {
      "_class": "curvePoint",
      "cornerRadius": 0,
      "curveFrom": "{0.11884259999999999, 0.5}",
      "curveMode": 4,
      "curveTo": "{0.11884259999999999, 0.5}",
      "hasCurveFrom": false,
      "hasCurveTo": true,
      "point": "{0.11884259999999999, 0.5}"
    },
    {
      "_class": "curvePoint",
      "cornerRadius": 0,
      "curveFrom": "{0.99444449999999995, 0.038194499999999999}",
      "curveMode": 4,
      "curveTo": "{0.98537039999999987, 0.042684999999999994}",
      "hasCurveFrom": true,
      "hasCurveTo": false,
      "point": "{0.98537039999999987, 0.042684999999999994}"
    },
    {
      "_class": "curvePoint",
      "cornerRadius": 0,
      "curveFrom": "{1, 0.011203499999999877}",
      "curveMode": 2,
      "curveTo": "{1, 0.031944500000000001}",
      "hasCurveFrom": true,
      "hasCurveTo": true,
      "point": "{1, 0.025000000000000001}"
    },
    {
      "_class": "curvePoint",
      "cornerRadius": 0,
      "curveFrom": "{0.93620369999999986, 0}",
      "curveMode": 3,
      "curveTo": "{0.97763889999999998, 0}",
      "hasCurveFrom": true,
      "hasCurveTo": true,
      "point": "{0.94999999999999996, 0}"
    },
    {
      "_class": "curvePoint",
      "cornerRadius": 0,
      "curveFrom": "{0.91462959999999993, 0.0073150000000000047}",
      "curveMode": 4,
      "curveTo": "{0.92375000000000007, 0.0028239999999998488}",
      "hasCurveFrom": false,
      "hasCurveTo": true,
      "point": "{0.91462959999999993, 0.0073150000000000047}"
    },
    {
      "_class": "curvePoint",
      "cornerRadius": 0,
      "curveFrom": "{0.005601852, 0.48685199999999995}",
      "curveMode": 4,
      "curveTo": "{0.014629629999999999, 0.48231499999999999}",
      "hasCurveFrom": true,
      "hasCurveTo": false,
      "point": "{0.014629629999999999, 0.48231499999999999}"
    },
    {
      "_class": "curvePoint",
      "cornerRadius": 0,
      "curveFrom": "{0, 0.50694444999999999}",
      "curveMode": 2,
      "curveTo": "{0, 0.49310199999999993}",
      "hasCurveFrom": true,
      "hasCurveTo": true,
      "point": "{0, 0.5}"
    },
    {
      "_class": "curvePoint",
      "cornerRadius": 0,
      "curveFrom": "{0.014629629999999999, 0.51768515000000004}",
      "curveMode": 4,
      "curveTo": "{0.0055555560000000006, 0.51319445000000008}",
      "hasCurveFrom": false,
      "hasCurveTo": true,
      "point": "{0.014629629999999999, 0.51768515000000004}"
    },
    {
      "_class": "curvePoint",
      "cornerRadius": 0,
      "curveFrom": "{0.92375000000000007, 0.99722220949999996}",
      "curveMode": 4,
      "curveTo": "{0.91462959999999993, 0.99268517500000009}",
      "hasCurveFrom": true,
      "hasCurveTo": false,
      "point": "{0.91462959999999993, 0.99268517500000009}"
    },
    {
      "_class": "curvePoint",
      "cornerRadius": 0,
      "curveFrom": "{0.97763889999999998, 1}",
      "curveMode": 3,
      "curveTo": "{0.93620369999999986, 1}",
      "hasCurveFrom": true,
      "hasCurveTo": true,
      "point": "{0.94999999999999996, 1}"
    },
    {
      "_class": "curvePoint",
      "cornerRadius": 0,
      "curveFrom": "{1, 0.96810188499999994}",
      "curveMode": 2,
      "curveTo": "{1, 0.98879633499999997}",
      "hasCurveFrom": true,
      "hasCurveTo": true,
      "point": "{1, 0.97499999999999998}"
    },
    {
      "_class": "curvePoint",
      "cornerRadius": 0,
      "curveFrom": "{0.98537039999999987, 0.95731485000000005}",
      "curveMode": 4,
      "curveTo": "{0.99444449999999995, 0.96185188499999996}",
      "hasCurveFrom": true,
      "hasCurveTo": true,
      "point": "{0.98537039999999987, 0.95731485000000005}"
    }
  ],
  "resizingConstraint": 63,
  "resizingType": 0,
  "rotation": 0,
  "shouldBreakMaskChain": false,
  "style": {
    "_class": "style",
    "blur": {
      "_class": "blur",
      "center": "{0.5, 0.5}",
      "isEnabled": false,
      "motionAngle": 0,
      "radius": 10,
      "saturation": 1,
      "type": 0
    },
    "borderOptions": {
      "_class": "borderOptions",
      "dashPattern": [
      ],
      "isEnabled": true,
      "lineCapStyle": 0,
      "lineJoinStyle": 0
    },
    "borders": [
    ],
    "colorControls": {
      "_class": "colorControls",
      "brightness": 0,
      "contrast": 1,
      "hue": 0,
      "isEnabled": false,
      "saturation": 1
    },
    "contextSettings": {
      "_class": "graphicsContextSettings",
      "blendMode": 0,
      "opacity": 1
    },
    "do_objectID": "1D21C581-31BC-491B-81DB-C90EA5A6C64B",
    "endMarkerType": 0,
    "fills": [
      {
        "_class": "fill",
        "color": {
          "_class": "color",
          "alpha": 1,
          "blue": 0,
          "green": 0,
          "red": 0
        },
        "contextSettings": {
          "_class": "graphicsContextSettings",
          "blendMode": 0,
          "opacity": 1
        },
        "fillType": 0,
        "gradient": {
          "_class": "gradient",
          "elipseLength": 0,
          "from": "{0.5, 0}",
          "gradientType": 0,
          "stops": [
            {
              "_class": "gradientStop",
              "color": {
                "_class": "color",
                "alpha": 1,
                "blue": 1,
                "green": 1,
                "red": 1
              },
              "position": 0
            },
            {
              "_class": "gradientStop",
              "color": {
                "_class": "color",
                "alpha": 1,
                "blue": 0,
                "green": 0,
                "red": 0
              },
              "position": 1
            }
          ],
          "to": "{0.5, 1}"
        },
        "isEnabled": true,
        "noiseIndex": 0,
        "noiseIntensity": 0,
        "patternFillType": 1,
        "patternTileScale": 1
      }
    ],
    "innerShadows": [
    ],
    "miterLimit": 10,
    "shadows": [
    ],
    "startMarkerType": 0,
    "windingRule": 1
  }
}