{
  "_class": "bitmap",
  "booleanOperation": 0,
  "clippingMask": "{{0, 0}, {1, 1}}",
  "clippingMaskMode": 0,
  "do_objectID": "5AFF1C96-132F-469A-BFC5-6CB663D8BDCF",
  "exportOptions": {
    "_class": "exportOptions",
    "do_objectID": "214957A1-EE11-4E29-958F-DC07EC533E6B",
    "exportFormats": [
    ],
    "includedLayerIds": [
    ],
    "layerOptions": 0,
    "shouldTrim": false
  },
  "fillReplacesImage": false,
  "frame": {
    "_class": "rect",
    "constrainProportions": true,
    "do_objectID": "00D695B1-E0DF-4811-B82A-4E05F45C1BDC",
    "height": 47.65077138849922,
    "width": 112.2449612403097,
    "x": 501.925581395349,
    "y": 85.77138849929882
  },
  "hasClippingMask": false,
  "image": {
    "_class": "MSJSONFileReference",
    "_ref": "images/7db64b44b442ab2aa092e6d7e2bbd56ea1fdbf6a.png",
    "_ref_class": "MSImageData"
  },
  "intendedDPI": 0,
  "isFixedToViewport": false,
  "isFlippedHorizontal": false,
  "isFlippedVertical": false,
  "isLocked": false,
  "isVisible": true,
  "layerListExpandedType": 0,
  "name": "Screen Shot 2017-04-05 at 5.14.17 PM",
  "nameIsFixed": false,
  "resizingConstraint": 63,
  "resizingType": 0,
  "rotation": 0,
  "shouldBreakMaskChain": false,
  "style": {
    "_class": "style",
    "do_objectID": "087A40A5-1328-4C39-9A23-3D99243CCFF6",
    "endMarkerType": 0,
    "miterLimit": 10,
    "startMarkerType": 0,
    "windingRule": 1
  }
}