{
  "_class": "symbolInstance",
  "booleanOperation": -1,
  "clippingMaskMode": 0,
  "do_objectID": "B55B825F-102B-4FCE-82B8-B2E890F0BF2D",
  "exportOptions": {
    "_class": "exportOptions",
    "do_objectID": "08BFEF27-C0EC-4DB8-88AB-D02D8D894359",
    "exportFormats": [
    ],
    "includedLayerIds": [
    ],
    "layerOptions": 0,
    "shouldTrim": false
  },
  "frame": {
    "_class": "rect",
    "constrainProportions": false,
    "do_objectID": "53035516-2940-4642-91B1-A9CD04F762F2",
    "height": 16,
    "width": 16,
    "x": 16,
    "y": 16
  },
  "hasClippingMask": false,
  "horizontalSpacing": 0,
  "isFixedToViewport": false,
  "isFlippedHorizontal": false,
  "isFlippedVertical": false,
  "isLocked": false,
  "isVisible": true,
  "layerListExpandedType": 0,
  "name": "Icon",
  "nameIsFixed": true,
  "overrideValues": [
    {
      "_class": "overrideValue",
      "do_objectID": "A16AD2FE-FDC2-4BCB-B89F-95C2D875F417",
      "overrideName": "BE723698-E08A-461D-A0D5-CF91951155C8_layerStyle",
      "value": "FC717D83-632A-4578-A354-C7BB21CB3CFE"
    }
  ],
  "resizingConstraint": 9,
  "resizingType": 0,
  "rotation": 0,
  "scale": 1,
  "shouldBreakMaskChain": false,
  "style": {
    "_class": "style",
    "do_objectID": "66647901-7905-4388-AC2F-348DD66ABBD9",
    "endMarkerType": 0,
    "miterLimit": 10,
    "startMarkerType": 0,
    "windingRule": 1
  },
  "symbolID": "F2F8A963-BA8C-46DF-A551-3D51C49206A3",
  "verticalSpacing": 0
}