{
  "_class": "shapePath",
  "booleanOperation": -1,
  "clippingMaskMode": 0,
  "do_objectID": "CF86F4A5-8DDB-4CAF-88CF-FCFCD628E745",
  "edited": true,
  "exportOptions": {
    "_class": "exportOptions",
    "exportFormats": [
    ],
    "includedLayerIds": [
    ],
    "layerOptions": 0,
    "shouldTrim": false
  },
  "frame": {
    "_class": "rect",
    "constrainProportions": false,
    "height": 2.120380952380955,
    "width": 1.3483663003663,
    "x": 1.505509157509156,
    "y": 0
  },
  "hasClippingMask": false,
  "isClosed": true,
  "isFixedToViewport": false,
  "isFlippedHorizontal": false,
  "isFlippedVertical": false,
  "isLocked": false,
  "isVisible": true,
  "layerListExpandedType": 0,
  "maintainScrollPosition": false,
  "name": "Path",
  "nameIsFixed": false,
  "pointRadiusBehaviour": 1,
  "points": [
    {
      "_class": "curvePoint",
      "cornerRadius": 0,
      "curveFrom": "{0.64929476452306989, 0}",
      "curveMode": 4,
      "curveTo": "{0.49988046856323243, 0}",
      "hasCurveFrom": true,
      "hasCurveTo": false,
      "point": "{0.49988046856323243, 0}"
    },
    {
      "_class": "curvePoint",
      "cornerRadius": 0,
      "curveFrom": "{0.94979679655749527, 0.18174217087260705}",
      "curveMode": 3,
      "curveTo": "{0.76595744680851086, 0.033976892672545035}",
      "hasCurveFrom": true,
      "hasCurveTo": true,
      "point": "{0.84974898398278775, 0.10170264518090553}"
    },
    {
      "_class": "curvePoint",
      "cornerRadius": 0,
      "curveFrom": "{1, 0.6856187290969904}",
      "curveMode": 2,
      "curveTo": "{1, 0.31468531468531569}",
      "hasCurveFrom": true,
      "hasCurveTo": true,
      "point": "{1, 0.50045606567345702}"
    },
    {
      "_class": "curvePoint",
      "cornerRadius": 0,
      "curveFrom": "{0.76559885249820725, 0.96678321678321588}",
      "curveMode": 3,
      "curveTo": "{0.94943820224719166, 0.81878990574642863}",
      "hasCurveFrom": true,
      "hasCurveTo": true,
      "point": "{0.84867320105187682, 0.89989358467619285}"
    },
    {
      "_class": "curvePoint",
      "cornerRadius": 0,
      "curveFrom": "{0.35034664116662739, 1}",
      "curveMode": 2,
      "curveTo": "{0.64929476452306989, 1}",
      "hasCurveFrom": true,
      "hasCurveTo": true,
      "point": "{0.49988046856323243, 1}"
    },
    {
      "_class": "curvePoint",
      "cornerRadius": 0,
      "curveFrom": "{0.045900071718862102, 0.81696564305260067}",
      "curveMode": 2,
      "curveTo": "{0.22950035859431051, 0.96359075706901698}",
      "hasCurveFrom": true,
      "hasCurveTo": true,
      "point": "{0.13770021515658631, 0.89016418364244509}"
    },
    {
      "_class": "curvePoint",
      "cornerRadius": 0,
      "curveFrom": "{0, 0.31392520522955258}",
      "curveMode": 2,
      "curveTo": "{0, 0.68630282760717487}",
      "hasCurveFrom": true,
      "hasCurveTo": true,
      "point": "{0, 0.4984037701429016}"
    },
    {
      "_class": "curvePoint",
      "cornerRadius": 0,
      "curveFrom": "{0.23452067893856124, 0.033520826999088045}",
      "curveMode": 3,
      "curveTo": "{0.050561797752809209, 0.18128610519915006}",
      "hasCurveFrom": true,
      "hasCurveTo": true,
      "point": "{0.15132679894812401, 0.10033444816053455}"
    },
    {
      "_class": "curvePoint",
      "cornerRadius": 0,
      "curveFrom": "{0.49988046856323243, 0}",
      "curveMode": 4,
      "curveTo": "{0.35058570404016254, 0}",
      "hasCurveFrom": false,
      "hasCurveTo": true,
      "point": "{0.49988046856323243, 0}"
    }
  ],
  "resizingConstraint": 63,
  "resizingType": 0,
  "rotation": 0,
  "shouldBreakMaskChain": false,
  "style": {
    "_class": "style",
    "blur": {
      "_class": "blur",
      "center": "{0.5, 0.5}",
      "isEnabled": false,
      "motionAngle": 0,
      "radius": 10,
      "saturation": 1,
      "type": 0
    },
    "borderOptions": {
      "_class": "borderOptions",
      "dashPattern": [
      ],
      "isEnabled": true,
      "lineCapStyle": 0,
      "lineJoinStyle": 0
    },
    "borders": [
    ],
    "colorControls": {
      "_class": "colorControls",
      "brightness": 0,
      "contrast": 1,
      "hue": 0,
      "isEnabled": false,
      "saturation": 1
    },
    "contextSettings": {
      "_class": "graphicsContextSettings",
      "blendMode": 0,
      "opacity": 1
    },
    "do_objectID": "F0E6646E-9A97-468F-8477-3B162CAD11BE",
    "endMarkerType": 0,
    "fills": [
      {
        "_class": "fill",
        "color": {
          "_class": "color",
          "alpha": 1,
          "blue": 0.1252310872077942,
          "green": 0.1220022812485695,
          "red": 0.1366096138954163
        },
        "contextSettings": {
          "_class": "graphicsContextSettings",
          "blendMode": 0,
          "opacity": 1
        },
        "fillType": 0,
        "gradient": {
          "_class": "gradient",
          "elipseLength": 0,
          "from": "{0.5, 0}",
          "gradientType": 0,
          "stops": [
            {
              "_class": "gradientStop",
              "color": {
                "_class": "color",
                "alpha": 1,
                "blue": 1,
                "green": 1,
                "red": 1
              },
              "position": 0
            },
            {
              "_class": "gradientStop",
              "color": {
                "_class": "color",
                "alpha": 1,
                "blue": 0,
                "green": 0,
                "red": 0
              },
              "position": 1
            }
          ],
          "to": "{0.5, 1}"
        },
        "isEnabled": true,
        "noiseIndex": 0,
        "noiseIntensity": 0,
        "patternFillType": 1,
        "patternTileScale": 1
      }
    ],
    "innerShadows": [
    ],
    "miterLimit": 10,
    "shadows": [
    ],
    "startMarkerType": 0,
    "windingRule": 1
  }
}