{
  "_class": "symbolMaster",
  "allowsOverrides": true,
  "backgroundColor": {
    "_class": "color",
    "alpha": 1,
    "blue": 1,
    "do_objectID": "A11F59C1-F81A-4453-9C71-D5729A046796",
    "green": 1,
    "red": 1
  },
  "booleanOperation": -1,
  "changeIdentifier": 975,
  "clippingMaskMode": 0,
  "do_objectID": "8EF37CE6-E344-4BA4-9D81-BCC88354ED6C",
  "exportOptions": {
    "_class": "exportOptions",
    "do_objectID": "7B6E7E51-49FA-48B5-8CC0-F9FE768DBD9A",
    "exportFormats": [
    ],
    "includedLayerIds": [
    ],
    "layerOptions": 0,
    "shouldTrim": false
  },
  "frame": {
    "_class": "rect",
    "constrainProportions": false,
    "do_objectID": "4D70D836-F80B-47B5-8F99-AB208E51D092",
    "height": 24,
    "width": 200,
    "x": 19029,
    "y": 370
  },
  "groupLayout": {
    "_class": "MSImmutableFreeformGroupLayout"
  },
  "hasBackgroundColor": false,
  "hasClickThrough": true,
  "hasClippingMask": false,
  "horizontalRulerData": {
    "_class": "rulerData",
    "base": 0,
    "do_objectID": "62638637-A3C0-4B73-9802-00E76CFBF3E7",
    "guides": [
    ]
  },
  "includeBackgroundColorInExport": true,
  "includeBackgroundColorInInstance": false,
  "includeInCloudUpload": true,
  "isFixedToViewport": false,
  "isFlippedHorizontal": false,
  "isFlippedVertical": false,
  "isFlowHome": false,
  "isLocked": false,
  "isVisible": true,
  "layerListExpandedType": 2,
  "layers": [
    {
      "class": "rectangle",
      "id": "997C08CA-AFBA-40DD-8289-716954EF629B"
    },
    {
      "class": "text",
      "id": "BEDB2C83-8F7D-4C34-917A-5383628B0EF6"
    },
    {
      "class": "symbolInstance",
      "id": "BAED4D53-F5EA-472C-96FF-56A7E55183FF"
    },
    {
      "class": "rectangle",
      "id": "F647CC8C-8805-4174-A01E-D6760726891B"
    }
  ],
  "name": "data table / cell / 24 compact / selectable / 06 selected - focus",
  "nameIsFixed": true,
  "overrideProperties": [
    {
      "_class": "MSImmutableOverrideProperty",
      "canOverride": false,
      "overrideName": "997C08CA-AFBA-40DD-8289-716954EF629B_layerStyle"
    },
    {
      "_class": "MSImmutableOverrideProperty",
      "canOverride": true,
      "overrideName": "BEDB2C83-8F7D-4C34-917A-5383628B0EF6_stringValue"
    },
    {
      "_class": "MSImmutableOverrideProperty",
      "canOverride": false,
      "overrideName": "BAED4D53-F5EA-472C-96FF-56A7E55183FF/1067739E-F2C2-4FFA-9190-85D3A60F3855/79F9F978-36DE-4D2F-81FC-82D69C6DD869_layerStyle"
    },
    {
      "_class": "MSImmutableOverrideProperty",
      "canOverride": false,
      "overrideName": "BAED4D53-F5EA-472C-96FF-56A7E55183FF_symbolID"
    },
    {
      "_class": "MSImmutableOverrideProperty",
      "canOverride": false,
      "overrideName": "F647CC8C-8805-4174-A01E-D6760726891B_layerStyle"
    },
    {
      "_class": "MSImmutableOverrideProperty",
      "canOverride": false,
      "overrideName": "BEDB2C83-8F7D-4C34-917A-5383628B0EF6_textStyle"
    },
    {
      "_class": "MSImmutableOverrideProperty",
      "canOverride": false,
      "overrideName": "BAED4D53-F5EA-472C-96FF-56A7E55183FF/1067739E-F2C2-4FFA-9190-85D3A60F3855/58DA7DB0-3AC1-4EE5-9617-89163527FD30_layerStyle"
    }
  ],
  "resizesContent": true,
  "resizingConstraint": 63,
  "resizingType": 0,
  "rotation": 0,
  "shouldBreakMaskChain": true,
  "style": {
    "_class": "style",
    "do_objectID": "01358924-F7A3-4FC6-BDB9-612360E99F5B",
    "endMarkerType": 0,
    "miterLimit": 10,
    "startMarkerType": 0,
    "windingRule": 1
  },
  "symbolID": "2CB0E58F-7D1A-4C46-A650-811EDD9EE2B9",
  "verticalRulerData": {
    "_class": "rulerData",
    "base": 0,
    "do_objectID": "809EA075-3E1D-4D51-BB97-C9578E0008DE",
    "guides": [
    ]
  }
}