{
  "_class": "oval",
  "booleanOperation": -1,
  "clippingMaskMode": 0,
  "do_objectID": "3FBE3395-A130-4FF6-9C9E-1127EBA22DFB",
  "edited": false,
  "exportOptions": {
    "_class": "exportOptions",
    "do_objectID": "17F59A85-F80E-40D4-87E7-E2F3B96F0949",
    "exportFormats": [
    ],
    "includedLayerIds": [
    ],
    "layerOptions": 0,
    "shouldTrim": false
  },
  "frame": {
    "_class": "rect",
    "constrainProportions": true,
    "do_objectID": "C48DD529-1E7F-4D13-8A7A-E1F454ED87AB",
    "height": 37.54079986572267,
    "width": 37.54079986572261,
    "x": 0.3608300781251907,
    "y": 0.3607763671875006
  },
  "hasClippingMask": false,
  "isClosed": true,
  "isFixedToViewport": false,
  "isFlippedHorizontal": false,
  "isFlippedVertical": false,
  "isLocked": false,
  "isVisible": true,
  "layerListExpandedType": 0,
  "name": "pink icon",
  "nameIsFixed": true,
  "pointRadiusBehaviour": 0,
  "points": [
    {
      "_class": "curvePoint",
      "cornerRadius": 0,
      "curveFrom": "{0.77614237489999827, 0.99999999999999933}",
      "curveMode": 2,
      "curveTo": "{0.22385762509999951, 0.99999999999999933}",
      "hasCurveFrom": true,
      "hasCurveTo": true,
      "point": "{0.49999999999999889, 0.99999999999999933}"
    },
    {
      "_class": "curvePoint",
      "cornerRadius": 0,
      "curveFrom": "{0.99999999999999778, 0.22385762509999987}",
      "curveMode": 2,
      "curveTo": "{0.99999999999999778, 0.77614237489999949}",
      "hasCurveFrom": true,
      "hasCurveTo": true,
      "point": "{0.99999999999999778, 0.49999999999999967}"
    },
    {
      "_class": "curvePoint",
      "cornerRadius": 0,
      "curveFrom": "{0.22385762509999951, 0}",
      "curveMode": 2,
      "curveTo": "{0.77614237489999827, 0}",
      "hasCurveFrom": true,
      "hasCurveTo": true,
      "point": "{0.49999999999999889, 0}"
    },
    {
      "_class": "curvePoint",
      "cornerRadius": 0,
      "curveFrom": "{0, 0.77614237489999949}",
      "curveMode": 2,
      "curveTo": "{0, 0.22385762509999987}",
      "hasCurveFrom": true,
      "hasCurveTo": true,
      "point": "{0, 0.49999999999999967}"
    }
  ],
  "resizingConstraint": 63,
  "resizingType": 0,
  "rotation": 0,
  "shouldBreakMaskChain": false,
  "style": {
    "_class": "style",
    "do_objectID": "9B931F7F-6E57-4DB0-8BA9-F56C94B8DE72",
    "endMarkerType": 0,
    "fills": [
      {
        "_class": "fill",
        "color": {
          "_class": "color",
          "alpha": 1,
          "blue": 0.2666666666666664,
          "green": 0.1568627450980393,
          "red": 0.8705882352941177
        },
        "fillType": 0,
        "gradient": {
          "_class": "gradient",
          "elipseLength": 0,
          "from": "{0.5, 0.014992203924964738}",
          "gradientType": 0,
          "stops": [
            {
              "_class": "gradientStop",
              "color": {
                "_class": "color",
                "alpha": 1,
                "blue": 0.5647058823529413,
                "green": 0.1647058823529411,
                "red": 0.8470588235294118
              },
              "position": 0
            },
            {
              "_class": "gradientStop",
              "color": {
                "_class": "color",
                "alpha": 1,
                "blue": 0.5023573170124894,
                "green": 0.1346651034151034,
                "red": 0.7619047619047619
              },
              "position": 1
            }
          ],
          "to": "{0.5, 0.98076769770408168}"
        },
        "isEnabled": true,
        "noiseIndex": 0,
        "noiseIntensity": 0,
        "patternFillType": 0,
        "patternTileScale": 1
      }
    ],
    "miterLimit": 10,
    "shadows": [
      {
        "_class": "shadow",
        "blurRadius": 2,
        "color": {
          "_class": "color",
          "alpha": 1,
          "blue": 0.8658854166666666,
          "green": 0.8658854166666666,
          "red": 0.8658854166666666
        },
        "contextSettings": {
          "_class": "graphicsContextSettings",
          "blendMode": 0,
          "opacity": 1
        },
        "isEnabled": true,
        "offsetX": 0,
        "offsetY": 2,
        "spread": 0
      }
    ],
    "startMarkerType": 0,
    "windingRule": 1
  }
}