{
  "_class": "shapePath",
  "booleanOperation": -1,
  "clippingMaskMode": 0,
  "do_objectID": "700C7A49-3478-407D-89EA-39F7693F342B",
  "edited": true,
  "exportOptions": {
    "_class": "exportOptions",
    "exportFormats": [
    ],
    "includedLayerIds": [
    ],
    "layerOptions": 0,
    "shouldTrim": false
  },
  "frame": {
    "_class": "rect",
    "constrainProportions": false,
    "height": 49.33544303797458,
    "width": 29.16903712131991,
    "x": 36.75330678424107,
    "y": 20.6803797468354
  },
  "hasClippingMask": false,
  "isClosed": true,
  "isFixedToViewport": false,
  "isFlippedHorizontal": false,
  "isFlippedVertical": false,
  "isLocked": false,
  "isVisible": true,
  "layerListExpandedType": 0,
  "name": "Path",
  "nameIsFixed": false,
  "pointRadiusBehaviour": 0,
  "points": [
    {
      "_class": "curvePoint",
      "cornerRadius": 0,
      "curveFrom": "{0, 1}",
      "curveMode": 1,
      "curveTo": "{0, 1}",
      "hasCurveFrom": false,
      "hasCurveTo": false,
      "point": "{0, 1}"
    },
    {
      "_class": "curvePoint",
      "cornerRadius": 0,
      "curveFrom": "{0, 0.2838357921744708}",
      "curveMode": 1,
      "curveTo": "{0, 0.2838357921744708}",
      "hasCurveFrom": false,
      "hasCurveTo": false,
      "point": "{0, 0.2838357921744708}"
    },
    {
      "_class": "curvePoint",
      "cornerRadius": 0,
      "curveFrom": "{0.46791003839824469, 0.15105837075048106}",
      "curveMode": 1,
      "curveTo": "{0.46791003839824469, 0.15105837075048106}",
      "hasCurveFrom": false,
      "hasCurveTo": false,
      "point": "{0.46791003839824469, 0.15105837075048106}"
    },
    {
      "_class": "curvePoint",
      "cornerRadius": 0,
      "curveFrom": "{0.46791003839824469, 0.35952533675432968}",
      "curveMode": 4,
      "curveTo": "{0.46791003839824469, 0.33835792174470813}",
      "hasCurveFrom": true,
      "hasCurveTo": false,
      "point": "{0.46791003839824469, 0.33835792174470813}"
    },
    {
      "_class": "curvePoint",
      "cornerRadius": 0,
      "curveFrom": "{0.56993965990126183, 0.37684413085311097}",
      "curveMode": 2,
      "curveTo": "{0.49753154141524947, 0.37684413085311097}",
      "hasCurveFrom": true,
      "hasCurveTo": true,
      "point": "{0.53373560065825565, 0.37684413085311097}"
    },
    {
      "_class": "curvePoint",
      "cornerRadius": 0,
      "curveFrom": "{0.59956116291826667, 0.33835792174470813}",
      "curveMode": 4,
      "curveTo": "{0.59956116291826667, 0.35952533675432968}",
      "hasCurveFrom": false,
      "hasCurveTo": true,
      "point": "{0.59956116291826667, 0.33835792174470813}"
    },
    {
      "_class": "curvePoint",
      "cornerRadius": 0,
      "curveFrom": "{0.59956116291826667, 0.11353431686978833}",
      "curveMode": 1,
      "curveTo": "{0.59956116291826667, 0.11353431686978833}",
      "hasCurveFrom": false,
      "hasCurveTo": false,
      "point": "{0.59956116291826667, 0.11353431686978833}"
    },
    {
      "_class": "curvePoint",
      "cornerRadius": 0,
      "curveFrom": "{1, 0}",
      "curveMode": 1,
      "curveTo": "{1, 0}",
      "hasCurveFrom": false,
      "hasCurveTo": false,
      "point": "{1, 0}"
    },
    {
      "_class": "curvePoint",
      "cornerRadius": 0,
      "curveFrom": "{1, 0.71616420782552914}",
      "curveMode": 1,
      "curveTo": "{1, 0.71616420782552914}",
      "hasCurveFrom": false,
      "hasCurveTo": false,
      "point": "{1, 0.71616420782552914}"
    }
  ],
  "resizingConstraint": 63,
  "resizingType": 0,
  "rotation": 0,
  "shouldBreakMaskChain": false,
  "style": {
    "_class": "style",
    "endMarkerType": 0,
    "fills": [
      {
        "_class": "fill",
        "color": {
          "_class": "color",
          "alpha": 1,
          "blue": 1,
          "green": 1,
          "red": 1
        },
        "fillType": 0,
        "isEnabled": true,
        "noiseIndex": 0,
        "noiseIntensity": 0,
        "patternFillType": 1,
        "patternTileScale": 1
      }
    ],
    "miterLimit": 10,
    "startMarkerType": 0,
    "windingRule": 0
  }
}