{
  "_class": "shapePath",
  "booleanOperation": -1,
  "clippingMaskMode": 0,
  "do_objectID": "4BCD7589-DB1B-42C8-BD43-870A8507DB27",
  "edited": true,
  "exportOptions": {
    "_class": "exportOptions",
    "exportFormats": [
    ],
    "includedLayerIds": [
    ],
    "layerOptions": 0,
    "shouldTrim": false
  },
  "frame": {
    "_class": "rect",
    "constrainProportions": false,
    "height": 6,
    "width": 9,
    "x": 0.5,
    "y": 0.5
  },
  "hasClippingMask": false,
  "isClosed": false,
  "isFixedToViewport": false,
  "isFlippedHorizontal": false,
  "isFlippedVertical": false,
  "isLocked": false,
  "isVisible": true,
  "layerListExpandedType": 0,
  "maintainScrollPosition": false,
  "name": "Path",
  "nameIsFixed": false,
  "pointRadiusBehaviour": 1,
  "points": [
    {
      "_class": "curvePoint",
      "cornerRadius": 0,
      "curveFrom": "{0.77566666666666662, 0}",
      "curveMode": 4,
      "curveTo": "{0.5, 0}",
      "hasCurveFrom": true,
      "hasCurveTo": false,
      "point": "{0.5, 0}"
    },
    {
      "_class": "curvePoint",
      "cornerRadius": 0,
      "curveFrom": "{1, 0.70833333333333337}",
      "curveMode": 4,
      "curveTo": "{1, 0.31783333333333336}",
      "hasCurveFrom": false,
      "hasCurveTo": true,
      "point": "{1, 0.70833333333333337}"
    },
    {
      "_class": "curvePoint",
      "cornerRadius": 0,
      "curveFrom": "{1, 0.96266666666666667}",
      "curveMode": 4,
      "curveTo": "{1, 0.91666666666666663}",
      "hasCurveFrom": true,
      "hasCurveTo": false,
      "point": "{1, 0.91666666666666663}"
    },
    {
      "_class": "curvePoint",
      "cornerRadius": 0,
      "curveFrom": "{0.9137777777777778, 1}",
      "curveMode": 2,
      "curveTo": "{0.97511111111111104, 1}",
      "hasCurveFrom": true,
      "hasCurveTo": true,
      "point": "{0.94444444444444442, 1}"
    },
    {
      "_class": "curvePoint",
      "cornerRadius": 0,
      "curveFrom": "{0.88888888888888884, 0.91666666666666663}",
      "curveMode": 4,
      "curveTo": "{0.88888888888888884, 0.96266666666666667}",
      "hasCurveFrom": false,
      "hasCurveTo": true,
      "point": "{0.88888888888888884, 0.91666666666666663}"
    },
    {
      "_class": "curvePoint",
      "cornerRadius": 0,
      "curveFrom": "{0.88888888888888884, 0.4096666666666664}",
      "curveMode": 4,
      "curveTo": "{0.88888888888888884, 0.70833333333333337}",
      "hasCurveFrom": true,
      "hasCurveTo": false,
      "point": "{0.88888888888888884, 0.70833333333333337}"
    },
    {
      "_class": "curvePoint",
      "cornerRadius": 0,
      "curveFrom": "{0.28555555555555556, 0.16666666666666666}",
      "curveMode": 2,
      "curveTo": "{0.71444444444444444, 0.16666666666666666}",
      "hasCurveFrom": true,
      "hasCurveTo": true,
      "point": "{0.5, 0.16666666666666666}"
    },
    {
      "_class": "curvePoint",
      "cornerRadius": 0,
      "curveFrom": "{0.1111111111111111, 0.70833333333333337}",
      "curveMode": 4,
      "curveTo": "{0.1111111111111111, 0.4096666666666664}",
      "hasCurveFrom": false,
      "hasCurveTo": true,
      "point": "{0.1111111111111111, 0.70833333333333337}"
    },
    {
      "_class": "curvePoint",
      "cornerRadius": 0,
      "curveFrom": "{0.1111111111111111, 0.96266666666666667}",
      "curveMode": 4,
      "curveTo": "{0.1111111111111111, 0.91666666666666663}",
      "hasCurveFrom": true,
      "hasCurveTo": false,
      "point": "{0.1111111111111111, 0.91666666666666663}"
    },
    {
      "_class": "curvePoint",
      "cornerRadius": 0,
      "curveFrom": "{0.024888888888888912, 1}",
      "curveMode": 2,
      "curveTo": "{0.0862222222222222, 1}",
      "hasCurveFrom": true,
      "hasCurveTo": true,
      "point": "{0.055555555555555552, 1}"
    },
    {
      "_class": "curvePoint",
      "cornerRadius": 0,
      "curveFrom": "{0, 0.91666666666666663}",
      "curveMode": 4,
      "curveTo": "{0, 0.96266666666666667}",
      "hasCurveFrom": false,
      "hasCurveTo": true,
      "point": "{0, 0.91666666666666663}"
    },
    {
      "_class": "curvePoint",
      "cornerRadius": 0,
      "curveFrom": "{0, 0.31783333333333336}",
      "curveMode": 4,
      "curveTo": "{0, 0.70833333333333337}",
      "hasCurveFrom": true,
      "hasCurveTo": false,
      "point": "{0, 0.70833333333333337}"
    },
    {
      "_class": "curvePoint",
      "cornerRadius": 0,
      "curveFrom": "{0.5, 0}",
      "curveMode": 4,
      "curveTo": "{0.22433333333333336, 0}",
      "hasCurveFrom": false,
      "hasCurveTo": true,
      "point": "{0.5, 0}"
    }
  ],
  "resizingConstraint": 63,
  "resizingType": 0,
  "rotation": 0,
  "shouldBreakMaskChain": false,
  "style": {
    "_class": "style",
    "blur": {
      "_class": "blur",
      "center": "{0.5, 0.5}",
      "isEnabled": false,
      "motionAngle": 0,
      "radius": 10,
      "saturation": 1,
      "type": 0
    },
    "borderOptions": {
      "_class": "borderOptions",
      "dashPattern": [
      ],
      "isEnabled": true,
      "lineCapStyle": 0,
      "lineJoinStyle": 0
    },
    "borders": [
    ],
    "colorControls": {
      "_class": "colorControls",
      "brightness": 0,
      "contrast": 1,
      "hue": 0,
      "isEnabled": false,
      "saturation": 1
    },
    "contextSettings": {
      "_class": "graphicsContextSettings",
      "blendMode": 0,
      "opacity": 1
    },
    "do_objectID": "33DFE1DE-F5E2-4F3E-B7A0-A7D804C4C8E8",
    "endMarkerType": 0,
    "fills": [
    ],
    "innerShadows": [
    ],
    "miterLimit": 10,
    "shadows": [
    ],
    "startMarkerType": 0,
    "windingRule": 1
  }
}