{
  "_class": "group",
  "booleanOperation": 0,
  "clippingMaskMode": 0,
  "do_objectID": "85B3623C-CE62-46D8-967A-6FC8E2EDC876",
  "exportOptions": {
    "_class": "exportOptions",
    "do_objectID": "D2C233C9-5A00-4C61-9E76-5FFD07C2DD9F",
    "exportFormats": [
    ],
    "includedLayerIds": [
    ],
    "layerOptions": 0,
    "shouldTrim": false
  },
  "frame": {
    "_class": "rect",
    "constrainProportions": false,
    "do_objectID": "EA55BAFC-759E-4446-9617-D2FC527A158B",
    "height": 43,
    "width": 56,
    "x": 212.796875,
    "y": 0
  },
  "groupLayout": {
    "_class": "MSImmutableFreeformGroupLayout",
    "do_objectID": "B4C5AD75-108B-4A28-966F-DC823683B5F5"
  },
  "hasClickThrough": false,
  "hasClippingMask": false,
  "isFixedToViewport": false,
  "isFlippedHorizontal": false,
  "isFlippedVertical": false,
  "isLocked": false,
  "isVisible": true,
  "layerListExpandedType": 0,
  "layers": [
    {
      "class": "group",
      "id": "86B31364-06B7-42ED-BD51-CA94F11FF03D"
    },
    {
      "class": "text",
      "id": "28169164-E106-44D1-B89D-D5583AE06A9C"
    }
  ],
  "name": "Group 10",
  "nameIsFixed": false,
  "resizingConstraint": 63,
  "resizingType": 0,
  "rotation": 0,
  "shouldBreakMaskChain": false,
  "style": {
    "_class": "style",
    "do_objectID": "98BFE517-E26C-47ED-AAE6-E06505E69A14",
    "endMarkerType": 0,
    "miterLimit": 10,
    "startMarkerType": 0,
    "windingRule": 1
  }
}