{
  "_class": "symbolMaster",
  "allowsOverrides": true,
  "backgroundColor": {
    "_class": "color",
    "alpha": 1,
    "blue": 1,
    "do_objectID": "096C5260-9E24-4DE9-A7AC-F1128AC9765D",
    "green": 1,
    "red": 1
  },
  "booleanOperation": -1,
  "changeIdentifier": 2653,
  "clippingMaskMode": 0,
  "do_objectID": "C4150A3D-3E64-428B-A0E3-046593C7A323",
  "exportOptions": {
    "_class": "exportOptions",
    "do_objectID": "8832BA95-2E69-4EA7-A773-0DA601B92204",
    "exportFormats": [
    ],
    "includedLayerIds": [
    ],
    "layerOptions": 0,
    "shouldTrim": false
  },
  "frame": {
    "_class": "rect",
    "constrainProportions": false,
    "do_objectID": "108B21D7-CB92-470B-87DD-02277B7F20E1",
    "height": 40,
    "width": 178,
    "x": 5081,
    "y": 0
  },
  "groupLayout": {
    "_class": "MSImmutableFreeformGroupLayout",
    "do_objectID": "8006CCBF-1E9C-4906-9B98-665B8ED3D6E3"
  },
  "hasBackgroundColor": false,
  "hasClickThrough": true,
  "hasClippingMask": false,
  "horizontalRulerData": {
    "_class": "rulerData",
    "base": 0,
    "do_objectID": "16CC82EE-A2D7-4FAB-85D4-A6C3AFBDBB3D",
    "guides": [
    ]
  },
  "includeBackgroundColorInExport": true,
  "includeBackgroundColorInInstance": false,
  "includeInCloudUpload": true,
  "isFixedToViewport": false,
  "isFlippedHorizontal": false,
  "isFlippedVertical": false,
  "isFlowHome": false,
  "isLocked": false,
  "isVisible": true,
  "layerListExpandedType": 2,
  "layers": [
    {
      "class": "shapePath",
      "id": "30F71E45-97C1-4B4E-BA8E-230B1A45ACD1"
    },
    {
      "class": "symbolInstance",
      "id": "8B56BA8E-F7D3-462F-9DD5-E24D0808AC72"
    },
    {
      "class": "text",
      "id": "7D60B6E2-D0C6-4714-8433-62AA4B28BF8F"
    }
  ],
  "name": "button / 01 primary / medium / 01 text / 01 enabled",
  "nameIsFixed": true,
  "overrideProperties": [
    {
      "_class": "MSImmutableOverrideProperty",
      "canOverride": false,
      "overrideName": "30F71E45-97C1-4B4E-BA8E-230B1A45ACD1_layerStyle"
    },
    {
      "_class": "MSImmutableOverrideProperty",
      "canOverride": false,
      "overrideName": "7D60B6E2-D0C6-4714-8433-62AA4B28BF8F_textStyle"
    },
    {
      "_class": "MSImmutableOverrideProperty",
      "canOverride": true,
      "overrideName": "7D60B6E2-D0C6-4714-8433-62AA4B28BF8F_stringValue"
    },
    {
      "_class": "MSImmutableOverrideProperty",
      "canOverride": true,
      "overrideName": "8B56BA8E-F7D3-462F-9DD5-E24D0808AC72_symbolID"
    }
  ],
  "resizesContent": true,
  "resizingConstraint": 63,
  "resizingType": 0,
  "rotation": 0,
  "shouldBreakMaskChain": true,
  "style": {
    "_class": "style",
    "do_objectID": "DF895A34-A1D2-4DAA-9E80-55C63C4B95F8",
    "endMarkerType": 0,
    "miterLimit": 10,
    "startMarkerType": 0,
    "windingRule": 1
  },
  "symbolID": "891EE51E-46E1-4C60-8C30-D3C71C605097",
  "userInfo": {
    "com.animaapp.stc-sketch-plugin": {
      "kModelPropertiesKey": {
      }
    }
  },
  "verticalRulerData": {
    "_class": "rulerData",
    "base": 0,
    "do_objectID": "D8F3F586-46E7-4CC0-AF87-46812878201A",
    "guides": [
    ]
  }
}