{
  "_class": "shapePath",
  "booleanOperation": -1,
  "clippingMaskMode": 0,
  "do_objectID": "46AE68E1-E8C1-4A02-8AF2-09F6719C8CEF",
  "edited": true,
  "exportOptions": {
    "_class": "exportOptions",
    "exportFormats": [
    ],
    "includedLayerIds": [
    ],
    "layerOptions": 0,
    "shouldTrim": false
  },
  "frame": {
    "_class": "rect",
    "constrainProportions": false,
    "height": 8.72965299684543,
    "width": 8.73160883280757,
    "x": 3.948012618296528,
    "y": 0.8108517350157703
  },
  "hasClippingMask": false,
  "isClosed": true,
  "isFixedToViewport": false,
  "isFlippedHorizontal": false,
  "isFlippedVertical": false,
  "isLocked": false,
  "isVisible": true,
  "layerListExpandedType": 0,
  "maintainScrollPosition": false,
  "name": "Path",
  "nameIsFixed": false,
  "pointRadiusBehaviour": 1,
  "points": [
    {
      "_class": "curvePoint",
      "cornerRadius": 0,
      "curveFrom": "{0.0011633284198965387, 0.47674628699454319}",
      "curveMode": 4,
      "curveTo": "{0.00060695395820680495, 0.4844071838976618}",
      "hasCurveFrom": false,
      "hasCurveTo": true,
      "point": "{0.0011633284198965387, 0.47674628699454319}"
    },
    {
      "_class": "curvePoint",
      "cornerRadius": 0,
      "curveFrom": "{0.018064105899014426, 0.20571676363242145}",
      "curveMode": 4,
      "curveTo": "{0.00171970288158617, 0.46838434575217702}",
      "hasCurveFrom": true,
      "hasCurveTo": false,
      "point": "{0.00171970288158617, 0.46838434575217702}"
    },
    {
      "_class": "curvePoint",
      "cornerRadius": 0,
      "curveFrom": "{0.77556432266828534, 0}",
      "curveMode": 3,
      "curveTo": "{0.23687823347495596, 0}",
      "hasCurveFrom": true,
      "hasCurveTo": true,
      "point": "{0.49990606664932519, 0}"
    },
    {
      "_class": "curvePoint",
      "cornerRadius": 0,
      "curveFrom": "{1, 0.4956961659379176}",
      "curveMode": 4,
      "curveTo": "{0.99976155380213305, 0.2242546886857224}",
      "hasCurveFrom": false,
      "hasCurveTo": true,
      "point": "{1, 0.4956961659379176}"
    },
    {
      "_class": "curvePoint",
      "cornerRadius": 0,
      "curveFrom": "{0.99953033324662566, 0.64930437610667402}",
      "curveMode": 4,
      "curveTo": "{0.99971819994797551, 0.50057456726773364}",
      "hasCurveFrom": true,
      "hasCurveTo": false,
      "point": "{0.99971819994797551, 0.50057456726773364}"
    },
    {
      "_class": "curvePoint",
      "cornerRadius": 0,
      "curveFrom": "{0.81735743807624506, 0.88554186391067069}",
      "curveMode": 4,
      "curveTo": "{0.93322061331252359, 0.78934701694792719}",
      "hasCurveFrom": false,
      "hasCurveTo": true,
      "point": "{0.81735743807624506, 0.88554186391067069}"
    },
    {
      "_class": "curvePoint",
      "cornerRadius": 0,
      "curveFrom": "{0.79037688950547702, 0.90635637625121923}",
      "curveMode": 4,
      "curveTo": "{0.79529755195236862, 0.90235970079138472}",
      "hasCurveFrom": true,
      "hasCurveTo": false,
      "point": "{0.79529755195236862, 0.90235970079138472}"
    },
    {
      "_class": "curvePoint",
      "cornerRadius": 0,
      "curveFrom": "{0.76808578282609341, 0.92219853286597009}",
      "curveMode": 2,
      "curveTo": "{0.78540564756206832, 0.91034582444982426}",
      "hasCurveFrom": true,
      "hasCurveTo": true,
      "point": "{0.77922772334460555, 0.91462436309760375}"
    },
    {
      "_class": "curvePoint",
      "cornerRadius": 0,
      "curveFrom": "{0.74430619382063079, 0.9358074657608495}",
      "curveMode": 4,
      "curveTo": "{0.75628630885285708, 0.92902106746648305}",
      "hasCurveFrom": false,
      "hasCurveTo": true,
      "point": "{0.74430619382063079, 0.9358074657608495}"
    },
    {
      "_class": "curvePoint",
      "cornerRadius": 0,
      "curveFrom": "{0.72763663689702018, 0.9452390416651606}",
      "curveMode": 4,
      "curveTo": "{0.73766582849215301, 0.93984750478806034}",
      "hasCurveFrom": true,
      "hasCurveTo": false,
      "point": "{0.73766582849215301, 0.93984750478806034}"
    },
    {
      "_class": "curvePoint",
      "cornerRadius": 0,
      "curveFrom": "{0.7061331252348334, 0.95489466266758183}",
      "curveMode": 4,
      "curveTo": "{0.71709442469435536, 0.95001626133776573}",
      "hasCurveFrom": false,
      "hasCurveTo": true,
      "point": "{0.7061331252348334, 0.95489466266758183}"
    },
    {
      "_class": "curvePoint",
      "cornerRadius": 0,
      "curveFrom": "{0.68676840371108994, 0.96376973945723243}",
      "curveMode": 4,
      "curveTo": "{0.69382785629642474, 0.96084269865934258}",
      "hasCurveFrom": true,
      "hasCurveTo": false,
      "point": "{0.69382785629642474, 0.96084269865934258}"
    },
    {
      "_class": "curvePoint",
      "cornerRadius": 0,
      "curveFrom": "{0.67199919072805581, 0.96887941314638792}",
      "curveMode": 4,
      "curveTo": "{0.67934044336541521, 0.9663209626711956}",
      "hasCurveFrom": false,
      "hasCurveTo": true,
      "point": "{0.67199919072805581, 0.96887941314638792}"
    },
    {
      "_class": "curvePoint",
      "cornerRadius": 0,
      "curveFrom": "{0.653703864273534, 0.97552126621616697}",
      "curveMode": 4,
      "curveTo": "{0.65667360328333191, 0.97440826798684599}",
      "hasCurveFrom": true,
      "hasCurveTo": false,
      "point": "{0.65667360328333191, 0.97440826798684599}"
    },
    {
      "_class": "curvePoint",
      "cornerRadius": 0,
      "curveFrom": "{0.64204890314748986, 0.97937339645141441}",
      "curveMode": 2,
      "curveTo": "{0.65068354576721876, 0.97672821884146943}",
      "hasCurveFrom": true,
      "hasCurveTo": true,
      "point": "{0.6477571606115784, 0.97760994471145113}"
    },
    {
      "_class": "curvePoint",
      "cornerRadius": 0,
      "curveFrom": "{0.63038671637908616, 0.98216311928594602}",
      "curveMode": 4,
      "curveTo": "{0.63619613283620913, 0.98072489430130427}",
      "hasCurveFrom": false,
      "hasCurveTo": true,
      "point": "{0.63038671637908616, 0.98216311928594602}"
    },
    {
      "_class": "curvePoint",
      "cornerRadius": 0,
      "curveFrom": "{0.60786438914419505, 0.9879738373143494}",
      "curveMode": 4,
      "curveTo": "{0.61186016936905696, 0.98690420265240442}",
      "hasCurveFrom": true,
      "hasCurveTo": false,
      "point": "{0.61186016936905696, 0.98690420265240442}"
    },
    {
      "_class": "curvePoint",
      "cornerRadius": 0,
      "curveFrom": "{0.5942151507268999, 0.99103819607559673}",
      "curveMode": 4,
      "curveTo": "{0.60391918841585035, 0.98908683554367038}",
      "hasCurveFrom": true,
      "hasCurveTo": true,
      "point": "{0.60039307494436267, 0.98983124345029427}"
    },
    {
      "_class": "curvePoint",
      "cornerRadius": 0,
      "curveFrom": "{0.58163530737882607, 0.99275828424818369}",
      "curveMode": 4,
      "curveTo": "{0.58789993930460427, 0.99187655837820199}",
      "hasCurveFrom": false,
      "hasCurveTo": true,
      "point": "{0.58163530737882607, 0.99275828424818369}"
    },
    {
      "_class": "curvePoint",
      "cornerRadius": 0,
      "curveFrom": "{0.55971993410214171, 0.99614786976475256}",
      "curveMode": 4,
      "curveTo": "{0.56399028873666879, 0.99540346185812867}",
      "hasCurveFrom": true,
      "hasCurveTo": false,
      "point": "{0.56399028873666879, 0.99540346185812867}"
    },
    {
      "_class": "curvePoint",
      "cornerRadius": 0,
      "curveFrom": "{0.53519610393363992, 0.99898095616666049}",
      "curveMode": 3,
      "curveTo": "{0.5554423538252552, 0.996892277671376}",
      "hasCurveFrom": true,
      "hasCurveTo": true,
      "point": "{0.55065897858319612, 0.99735482239005502}"
    },
    {
      "_class": "curvePoint",
      "cornerRadius": 0,
      "curveFrom": "{0.50385126737766983, 1}",
      "curveMode": 4,
      "curveTo": "{0.51963929593340852, 0.99986268203664219}",
      "hasCurveFrom": false,
      "hasCurveTo": true,
      "point": "{0.50385126737766983, 1}"
    },
    {
      "_class": "curvePoint",
      "cornerRadius": 0,
      "curveFrom": "{0.49948697939246789, 0.99995663643262367}",
      "curveMode": 1,
      "curveTo": "{0.49948697939246789, 0.99995663643262367}",
      "hasCurveFrom": false,
      "hasCurveTo": false,
      "point": "{0.49948697939246789, 0.99995663643262367}"
    },
    {
      "_class": "curvePoint",
      "cornerRadius": 0,
      "curveFrom": "{0.44854620075724716, 0.99991327286524767}",
      "curveMode": 4,
      "curveTo": "{0.49939304604179297, 0.99995663643262367}",
      "hasCurveFrom": true,
      "hasCurveTo": false,
      "point": "{0.49939304604179297, 0.99995663643262367}"
    },
    {
      "_class": "curvePoint",
      "cornerRadius": 0,
      "curveFrom": "{0.34675135119512113, 0.97608499259205705}",
      "curveMode": 3,
      "curveTo": "{0.39862423769473093, 0.99233910309688145}",
      "hasCurveFrom": true,
      "hasCurveTo": true,
      "point": "{0.35088441862481562, 0.97738589961334144}"
    },
    {
      "_class": "curvePoint",
      "cornerRadius": 0,
      "curveFrom": "{0.33867308303708188, 0.97292667943482836}",
      "curveMode": 4,
      "curveTo": "{0.3427122171161015, 0.97445885881545191}",
      "hasCurveFrom": false,
      "hasCurveTo": true,
      "point": "{0.33867308303708188, 0.97292667943482836}"
    },
    {
      "_class": "curvePoint",
      "cornerRadius": 0,
      "curveFrom": "{0.31578224804185079, 0.96465869258844372}",
      "curveMode": 4,
      "curveTo": "{0.32121593109627439, 0.96656668955299407}",
      "hasCurveFrom": true,
      "hasCurveTo": false,
      "point": "{0.32121593109627439, 0.96656668955299407}"
    },
    {
      "_class": "curvePoint",
      "cornerRadius": 0,
      "curveFrom": "{0.11981560160698283, 0.88219564196147837}",
      "curveMode": 3,
      "curveTo": "{0.31039914448394446, 0.96280128645249896}",
      "hasCurveFrom": true,
      "hasCurveTo": true,
      "point": "{0.30519668198502831, 0.96061865356123288}"
    },
    {
      "_class": "curvePoint",
      "cornerRadius": 0,
      "curveFrom": "{0, 0.49211867162938577}",
      "curveMode": 3,
      "curveTo": "{0, 0.70131897517435737}",
      "hasCurveFrom": true,
      "hasCurveTo": true,
      "point": "{0, 0.49996747732446761}"
    }
  ],
  "resizingConstraint": 63,
  "resizingType": 0,
  "rotation": 0,
  "shouldBreakMaskChain": false,
  "style": {
    "_class": "style",
    "blur": {
      "_class": "blur",
      "center": "{0.5, 0.5}",
      "isEnabled": false,
      "motionAngle": 0,
      "radius": 10,
      "saturation": 1,
      "type": 0
    },
    "borderOptions": {
      "_class": "borderOptions",
      "dashPattern": [
      ],
      "isEnabled": true,
      "lineCapStyle": 0,
      "lineJoinStyle": 0
    },
    "borders": [
    ],
    "colorControls": {
      "_class": "colorControls",
      "brightness": 0,
      "contrast": 1,
      "hue": 0,
      "isEnabled": false,
      "saturation": 1
    },
    "contextSettings": {
      "_class": "graphicsContextSettings",
      "blendMode": 0,
      "opacity": 1
    },
    "do_objectID": "C123B2FB-006B-404F-ACC5-E642990DEFD6",
    "endMarkerType": 0,
    "fills": [
      {
        "_class": "fill",
        "color": {
          "_class": "color",
          "alpha": 1,
          "blue": 0.1764705882352941,
          "green": 0.1764705882352941,
          "red": 0.1764705882352941
        },
        "contextSettings": {
          "_class": "graphicsContextSettings",
          "blendMode": 0,
          "opacity": 1
        },
        "fillType": 0,
        "gradient": {
          "_class": "gradient",
          "elipseLength": 0,
          "from": "{0.5, 0}",
          "gradientType": 0,
          "stops": [
            {
              "_class": "gradientStop",
              "color": {
                "_class": "color",
                "alpha": 1,
                "blue": 1,
                "green": 1,
                "red": 1
              },
              "position": 0
            },
            {
              "_class": "gradientStop",
              "color": {
                "_class": "color",
                "alpha": 1,
                "blue": 0,
                "green": 0,
                "red": 0
              },
              "position": 1
            }
          ],
          "to": "{0.5, 1}"
        },
        "isEnabled": true,
        "noiseIndex": 0,
        "noiseIntensity": 0,
        "patternFillType": 1,
        "patternTileScale": 1
      }
    ],
    "innerShadows": [
    ],
    "miterLimit": 10,
    "shadows": [
    ],
    "startMarkerType": 0,
    "windingRule": 0
  }
}