{
  "_class": "symbolMaster",
  "allowsOverrides": true,
  "backgroundColor": {
    "_class": "color",
    "alpha": 1,
    "blue": 1,
    "green": 1,
    "red": 1
  },
  "booleanOperation": -1,
  "changeIdentifier": 2478,
  "clippingMaskMode": 0,
  "do_objectID": "274156EA-3147-420B-AF7B-226E1A2773CC",
  "exportOptions": {
    "_class": "exportOptions",
    "exportFormats": [
    ],
    "includedLayerIds": [
    ],
    "layerOptions": 0,
    "shouldTrim": false
  },
  "frame": {
    "_class": "rect",
    "constrainProportions": false,
    "height": 64,
    "width": 1200,
    "x": 41994,
    "y": 0
  },
  "groupLayout": {
    "_class": "MSImmutableFreeformGroupLayout"
  },
  "hasBackgroundColor": false,
  "hasClickThrough": true,
  "hasClippingMask": false,
  "horizontalRulerData": {
    "_class": "rulerData",
    "base": 0,
    "guides": [
    ]
  },
  "includeBackgroundColorInExport": true,
  "includeBackgroundColorInInstance": false,
  "includeInCloudUpload": true,
  "isFixedToViewport": false,
  "isFlippedHorizontal": false,
  "isFlippedVertical": false,
  "isFlowHome": false,
  "isLocked": false,
  "isVisible": true,
  "layerListExpandedType": 2,
  "layers": [
    {
      "class": "rectangle",
      "id": "CCB4EFFF-B38A-4848-8D2F-6C8C79CBBA72"
    },
    {
      "class": "rectangle",
      "id": "2734EB94-970D-401D-8105-8DA7C3B0A915"
    },
    {
      "class": "symbolInstance",
      "id": "AB9BF922-120D-4152-8ADA-6FB2C177D6EF"
    },
    {
      "class": "symbolInstance",
      "id": "68914C8F-F0A8-4598-B955-C95DB6909AF2"
    },
    {
      "class": "symbolInstance",
      "id": "2E49205C-E5C4-4AD2-A962-3D1D96D5C012"
    },
    {
      "class": "symbolInstance",
      "id": "732CF399-FE3C-4247-B71A-E2142872C0D3"
    },
    {
      "class": "symbolInstance",
      "id": "15E07DA7-FE8F-4D5D-8D70-CE4DB64D816D"
    },
    {
      "class": "symbolInstance",
      "id": "57570BDE-C6A5-41F0-8D02-4C33844BB8D5"
    }
  ],
  "name": "data table / row / 64 tall / 1 line / default / 01 enabled",
  "nameIsFixed": true,
  "overrideProperties": [
    {
      "_class": "MSImmutableOverrideProperty",
      "canOverride": true,
      "overrideName": "68914C8F-F0A8-4598-B955-C95DB6909AF2_symbolID"
    },
    {
      "_class": "MSImmutableOverrideProperty",
      "canOverride": true,
      "overrideName": "2E49205C-E5C4-4AD2-A962-3D1D96D5C012_symbolID"
    },
    {
      "_class": "MSImmutableOverrideProperty",
      "canOverride": true,
      "overrideName": "732CF399-FE3C-4247-B71A-E2142872C0D3_symbolID"
    },
    {
      "_class": "MSImmutableOverrideProperty",
      "canOverride": true,
      "overrideName": "AB9BF922-120D-4152-8ADA-6FB2C177D6EF_symbolID"
    },
    {
      "_class": "MSImmutableOverrideProperty",
      "canOverride": true,
      "overrideName": "15E07DA7-FE8F-4D5D-8D70-CE4DB64D816D_symbolID"
    },
    {
      "_class": "MSImmutableOverrideProperty",
      "canOverride": true,
      "overrideName": "57570BDE-C6A5-41F0-8D02-4C33844BB8D5_symbolID"
    },
    {
      "_class": "MSImmutableOverrideProperty",
      "canOverride": false,
      "overrideName": "CCB4EFFF-B38A-4848-8D2F-6C8C79CBBA72_layerStyle"
    },
    {
      "_class": "MSImmutableOverrideProperty",
      "canOverride": false,
      "overrideName": "2734EB94-970D-401D-8105-8DA7C3B0A915_layerStyle"
    }
  ],
  "resizesContent": true,
  "resizingConstraint": 63,
  "resizingType": 0,
  "rotation": 0,
  "shouldBreakMaskChain": true,
  "style": {
    "_class": "style",
    "endMarkerType": 0,
    "miterLimit": 10,
    "startMarkerType": 0,
    "windingRule": 1
  },
  "symbolID": "4FCA5EA1-D8EA-4BCF-AD21-F6D5DB799DE2",
  "verticalRulerData": {
    "_class": "rulerData",
    "base": 0,
    "guides": [
    ]
  }
}