{
  "_class": "group",
  "booleanOperation": -1,
  "clippingMaskMode": 0,
  "do_objectID": "C05B5708-FC3B-4ECD-9D97-991246544DFD",
  "exportOptions": {
    "_class": "exportOptions",
    "exportFormats": [
    ],
    "includedLayerIds": [
    ],
    "layerOptions": 0,
    "shouldTrim": false
  },
  "frame": {
    "_class": "rect",
    "constrainProportions": false,
    "height": 627,
    "width": 172,
    "x": 320,
    "y": 0
  },
  "groupLayout": {
    "_class": "MSImmutableFreeformGroupLayout"
  },
  "hasClickThrough": false,
  "hasClippingMask": false,
  "isFixedToViewport": false,
  "isFlippedHorizontal": false,
  "isFlippedVertical": false,
  "isLocked": false,
  "isVisible": true,
  "layerListExpandedType": 1,
  "layers": [
    {
      "class": "symbolInstance",
      "id": "41C5B54D-5231-4E99-9BCB-8C776B3EDC1A"
    },
    {
      "class": "symbolInstance",
      "id": "5A4433F9-A64B-4C08-9945-0577C6DE2515"
    },
    {
      "class": "symbolInstance",
      "id": "33E849E2-4F55-4D83-90A1-98C8CA682B17"
    },
    {
      "class": "symbolInstance",
      "id": "56F5C63D-CFD2-4A80-AFB4-286E8FA6C790"
    },
    {
      "class": "symbolInstance",
      "id": "F23CA153-91D9-4DE7-A569-76B3A8847129"
    }
  ],
  "name": "Text and icon",
  "nameIsFixed": true,
  "resizingConstraint": 63,
  "resizingType": 0,
  "rotation": 0,
  "shouldBreakMaskChain": false,
  "style": {
    "_class": "style",
    "endMarkerType": 0,
    "miterLimit": 10,
    "startMarkerType": 0,
    "windingRule": 1
  }
}