{
  "_class": "group",
  "booleanOperation": 0,
  "clippingMaskMode": 0,
  "do_objectID": "65490178-DC3C-454F-9820-5D2002BC7C98",
  "exportOptions": {
    "_class": "exportOptions",
    "do_objectID": "818C42D4-69AD-47FA-9FD0-F81A2EC93467",
    "exportFormats": [
    ],
    "includedLayerIds": [
    ],
    "layerOptions": 0,
    "shouldTrim": false
  },
  "frame": {
    "_class": "rect",
    "constrainProportions": true,
    "do_objectID": "8D81763C-1416-40AF-92E8-EA44F0A93DC1",
    "height": 15,
    "width": 15,
    "x": 905.1066017177982,
    "y": 24.10660171779818
  },
  "groupLayout": {
    "_class": "MSImmutableFreeformGroupLayout",
    "do_objectID": "47AC6A44-EFC9-46A7-BBF6-631F939EA1A6"
  },
  "hasClickThrough": false,
  "hasClippingMask": false,
  "isFixedToViewport": false,
  "isFlippedHorizontal": false,
  "isFlippedVertical": false,
  "isLocked": false,
  "isVisible": true,
  "layerListExpandedType": 0,
  "layers": [
    {
      "class": "shapePath",
      "id": "0482A6EF-BD26-46C3-8246-CC6C173D65D9"
    }
  ],
  "name": "cancel",
  "nameIsFixed": false,
  "resizingConstraint": 63,
  "resizingType": 0,
  "rotation": 0,
  "shouldBreakMaskChain": false,
  "style": {
    "_class": "style",
    "do_objectID": "F1E4134A-DDB1-47E5-9A24-FBB9381EA07D",
    "endMarkerType": 0,
    "miterLimit": 10,
    "startMarkerType": 0,
    "windingRule": 1
  }
}