{
  "_class": "shapePath",
  "booleanOperation": -1,
  "clippingMaskMode": 0,
  "do_objectID": "B34EEBF0-9AE8-4901-8981-405E0DC68FFD",
  "edited": true,
  "exportOptions": {
    "_class": "exportOptions",
    "exportFormats": [
    ],
    "includedLayerIds": [
    ],
    "layerOptions": 0,
    "shouldTrim": false
  },
  "frame": {
    "_class": "rect",
    "constrainProportions": false,
    "height": 11.0925294117647,
    "width": 11.13560886822535,
    "x": 2.092673480950022,
    "y": 2.094647058823529
  },
  "hasClippingMask": false,
  "isClosed": false,
  "isFixedToViewport": false,
  "isFlippedHorizontal": false,
  "isFlippedVertical": false,
  "isLocked": false,
  "isVisible": true,
  "layerListExpandedType": 0,
  "maintainScrollPosition": false,
  "name": "Path",
  "nameIsFixed": false,
  "pointRadiusBehaviour": 1,
  "points": [
    {
      "_class": "curvePoint",
      "cornerRadius": 0,
      "curveFrom": "{0.48384026365981109, 0}",
      "curveMode": 4,
      "curveTo": "{0.50883691579355583, 0}",
      "hasCurveFrom": true,
      "hasCurveTo": false,
      "point": "{0.50883691579355583, 0}"
    },
    {
      "_class": "curvePoint",
      "cornerRadius": 0,
      "curveFrom": "{0.39139702352022304, 0.012398381528638898}",
      "curveMode": 3,
      "curveTo": "{0.45851081586156389, 0.0019302869445782141}",
      "hasCurveFrom": true,
      "hasCurveTo": true,
      "point": "{0.43358811831993121, 0.0057908608337351695}"
    },
    {
      "_class": "curvePoint",
      "cornerRadius": 0,
      "curveFrom": "{0.28774966267571706, 0.050076097850699351}",
      "curveMode": 3,
      "curveTo": "{0.35016733841796699, 0.023868740487768693}",
      "hasCurveFrom": true,
      "hasCurveTo": true,
      "point": "{0.31148908674356307, 0.040090575002783485}"
    },
    {
      "_class": "curvePoint",
      "cornerRadius": 0,
      "curveFrom": "{0.24393156684955225, 0.074390289171832338}",
      "curveMode": 4,
      "curveTo": "{0.26504560289743406, 0.061620698615390213}",
      "hasCurveFrom": false,
      "hasCurveTo": true,
      "point": "{0.24393156684955225, 0.074390289171832338}"
    },
    {
      "_class": "curvePoint",
      "cornerRadius": 0,
      "curveFrom": "{0.1847309158641601, 0.11229073091057545}",
      "curveMode": 4,
      "curveTo": "{0.24241549771126311, 0.075281190838560899}",
      "hasCurveFrom": true,
      "hasCurveTo": false,
      "point": "{0.24241549771126311, 0.075281190838560899}"
    },
    {
      "_class": "curvePoint",
      "cornerRadius": 0,
      "curveFrom": "{0.061189769741614837, 0.25784179071235014}",
      "curveMode": 4,
      "curveTo": "{0.13839836390619856, 0.15512825271910624}",
      "hasCurveFrom": true,
      "hasCurveTo": true,
      "point": "{0.10057059004107927, 0.20635509855599685}"
    },
    {
      "_class": "curvePoint",
      "cornerRadius": 0,
      "curveFrom": "{-0.0010060422243000854, 0.44463417350309953}",
      "curveMode": 4,
      "curveTo": "{0.032902138258900343, 0.31649281710531196}",
      "hasCurveFrom": true,
      "hasCurveTo": true,
      "point": "{0.016706082586444956, 0.38071197891532704}"
    },
    {
      "_class": "curvePoint",
      "cornerRadius": 0,
      "curveFrom": "{0.016225377737718906, 0.64259994803073606}",
      "curveMode": 4,
      "curveTo": "{-0.0047037718298839227, 0.51171164482720222}",
      "hasCurveFrom": true,
      "hasCurveTo": true,
      "point": "{0.0059456894341970244, 0.57448309142878362}"
    },
    {
      "_class": "curvePoint",
      "cornerRadius": 0,
      "curveFrom": "{0.10667184389029179, 0.81369018894539513}",
      "curveMode": 4,
      "curveTo": "{0.038337800779108332, 0.70299565685437471}",
      "hasCurveFrom": true,
      "hasCurveTo": true,
      "point": "{0.073540186624263398, 0.75904822005271166}"
    },
    {
      "_class": "curvePoint",
      "cornerRadius": 0,
      "curveFrom": "{0.29170623335369139, 0.96547756041426924}",
      "curveMode": 4,
      "curveTo": "{0.15182112237446671, 0.86257841790712353}",
      "hasCurveFrom": true,
      "hasCurveTo": true,
      "point": "{0.20392213251713825, 0.90025613422918449}"
    },
    {
      "_class": "curvePoint",
      "cornerRadius": 0,
      "curveFrom": "{0.52791720055836644, 1}",
      "curveMode": 3,
      "curveTo": "{0.39513173042186239, 1}",
      "hasCurveFrom": true,
      "hasCurveTo": true,
      "point": "{0.50310543490490134, 1}"
    },
    {
      "_class": "curvePoint",
      "cornerRadius": 0,
      "curveFrom": "{0.61851157589516337, 0.98834403652696834}",
      "curveMode": 3,
      "curveTo": "{0.55324664835661364, 0.99818107576376258}",
      "hasCurveFrom": true,
      "hasCurveTo": true,
      "point": "{0.57842818697063791, 0.99439474368016645}"
    },
    {
      "_class": "curvePoint",
      "cornerRadius": 0,
      "curveFrom": "{0.77836442674453821, 0.92694606332826024}",
      "curveMode": 3,
      "curveTo": "{0.65778146430645978, 0.97735624930398313}",
      "hasCurveFrom": true,
      "hasCurveTo": true,
      "point": "{0.69501760143468605, 0.96172834923345341}"
    },
    {
      "_class": "curvePoint",
      "cornerRadius": 0,
      "curveFrom": "{0.94139732505471652, 0.74494227699617666}",
      "curveMode": 4,
      "curveTo": "{0.85058108594158455, 0.86918593860202675}",
      "hasCurveFrom": true,
      "hasCurveTo": true,
      "point": "{0.90401327874226722, 0.79498125394409602}"
    },
    {
      "_class": "curvePoint",
      "cornerRadius": 0,
      "curveFrom": "{1.0008198398164436, 0.55562567281636288}",
      "curveMode": 4,
      "curveTo": "{0.96868656954392285, 0.68669958053379854}",
      "hasCurveFrom": true,
      "hasCurveTo": true,
      "point": "{0.98503053440060129, 0.62177512157095682}"
    },
    {
      "_class": "curvePoint",
      "cornerRadius": 0,
      "curveFrom": "{0.97341966343906927, 0.29277256022866488}",
      "curveMode": 4,
      "curveTo": "{1.0041108191654129, 0.48977319128401198}",
      "hasCurveFrom": true,
      "hasCurveTo": true,
      "point": "{0.9949404497435651, 0.42581387579345931}"
    },
    {
      "_class": "curvePoint",
      "cornerRadius": 0,
      "curveFrom": "{0.71650141044312687, 0.034002746946805634}",
      "curveMode": 3,
      "curveTo": "{0.90464189277521634, 0.17636140910946924}",
      "hasCurveFrom": true,
      "hasCurveTo": true,
      "point": "{0.80121639570704528, 0.098147666951259954}"
    },
    {
      "_class": "curvePoint",
      "cornerRadius": 0,
      "curveFrom": "{0.50883691579355583, 0}",
      "curveMode": 4,
      "curveTo": "{0.61547943761858404, 0}",
      "hasCurveFrom": false,
      "hasCurveTo": true,
      "point": "{0.50883691579355583, 0}"
    }
  ],
  "resizingConstraint": 63,
  "resizingType": 0,
  "rotation": 0,
  "shouldBreakMaskChain": false,
  "style": {
    "_class": "style",
    "blur": {
      "_class": "blur",
      "center": "{0.5, 0.5}",
      "isEnabled": false,
      "motionAngle": 0,
      "radius": 10,
      "saturation": 1,
      "type": 0
    },
    "borderOptions": {
      "_class": "borderOptions",
      "dashPattern": [
      ],
      "isEnabled": true,
      "lineCapStyle": 0,
      "lineJoinStyle": 0
    },
    "borders": [
    ],
    "colorControls": {
      "_class": "colorControls",
      "brightness": 0,
      "contrast": 1,
      "hue": 0,
      "isEnabled": true,
      "saturation": 1
    },
    "contextSettings": {
      "_class": "graphicsContextSettings",
      "blendMode": 0,
      "opacity": 1
    },
    "do_objectID": "DBB7BCC7-3402-4E51-8B18-577ABE580D37",
    "endMarkerType": 0,
    "fills": [
      {
        "_class": "fill",
        "color": {
          "_class": "color",
          "alpha": 1,
          "blue": 0.1764705882352941,
          "green": 0.1764705882352941,
          "red": 0.1764705882352941
        },
        "contextSettings": {
          "_class": "graphicsContextSettings",
          "blendMode": 0,
          "opacity": 1
        },
        "fillType": 0,
        "gradient": {
          "_class": "gradient",
          "elipseLength": 0,
          "from": "{0.5, 0}",
          "gradientType": 0,
          "stops": [
            {
              "_class": "gradientStop",
              "color": {
                "_class": "color",
                "alpha": 1,
                "blue": 1,
                "green": 1,
                "red": 1
              },
              "position": 0
            },
            {
              "_class": "gradientStop",
              "color": {
                "_class": "color",
                "alpha": 1,
                "blue": 0,
                "green": 0,
                "red": 0
              },
              "position": 1
            }
          ],
          "to": "{0.5, 1}"
        },
        "isEnabled": true,
        "noiseIndex": 0,
        "noiseIntensity": 0,
        "patternFillType": 1,
        "patternTileScale": 1
      }
    ],
    "innerShadows": [
    ],
    "miterLimit": 10,
    "shadows": [
    ],
    "startMarkerType": 0,
    "windingRule": 1
  }
}