{
  "_class": "group",
  "booleanOperation": 0,
  "clippingMaskMode": 0,
  "do_objectID": "FA4D2EEF-839A-4EB8-9671-FC16AE93273C",
  "exportOptions": {
    "_class": "exportOptions",
    "do_objectID": "C430090C-512F-4A58-926D-F92ECF654B11",
    "exportFormats": [
    ],
    "includedLayerIds": [
    ],
    "layerOptions": 0,
    "shouldTrim": false
  },
  "frame": {
    "_class": "rect",
    "constrainProportions": false,
    "do_objectID": "10557D23-7261-4A4F-8AFA-C202E17EAF71",
    "height": 42,
    "width": 94,
    "x": -5.684341886080801e-14,
    "y": 0
  },
  "groupLayout": {
    "_class": "MSImmutableFreeformGroupLayout",
    "do_objectID": "22D731D6-9077-444E-A5AF-B1416A8896DE"
  },
  "hasClickThrough": false,
  "hasClippingMask": false,
  "isFixedToViewport": false,
  "isFlippedHorizontal": false,
  "isFlippedVertical": false,
  "isLocked": false,
  "isVisible": true,
  "layerListExpandedType": 0,
  "layers": [
    {
      "class": "text",
      "id": "57E6D33D-DEEE-4C6B-BF7D-9A9727A50E28"
    },
    {
      "class": "group",
      "id": "9B66C2C2-58C9-401A-BCF4-FA0C0744EFFC"
    }
  ],
  "name": "Color",
  "nameIsFixed": true,
  "resizingConstraint": 63,
  "resizingType": 0,
  "rotation": 0,
  "shouldBreakMaskChain": false,
  "style": {
    "_class": "style",
    "do_objectID": "03F2CB46-6CF4-44FF-AA40-618E3A0C5DA0",
    "endMarkerType": 0,
    "miterLimit": 10,
    "startMarkerType": 0,
    "windingRule": 1
  }
}