{
  "_class": "symbolInstance",
  "booleanOperation": -1,
  "clippingMaskMode": 0,
  "do_objectID": "26DEA07E-3B06-4A10-8B30-C66402D5AF14",
  "exportOptions": {
    "_class": "exportOptions",
    "do_objectID": "CA33E13D-99FE-4771-9E38-EB831391D4AE",
    "exportFormats": [
    ],
    "includedLayerIds": [
    ],
    "layerOptions": 0,
    "shouldTrim": false
  },
  "frame": {
    "_class": "rect",
    "constrainProportions": false,
    "do_objectID": "97A47A8F-497A-46FC-A8D7-627589F99F5B",
    "height": 32,
    "width": 1024,
    "x": 0,
    "y": 176
  },
  "hasClippingMask": false,
  "horizontalSpacing": 0,
  "isFixedToViewport": false,
  "isFlippedHorizontal": false,
  "isFlippedVertical": false,
  "isLocked": false,
  "isVisible": true,
  "layerListExpandedType": 0,
  "name": "components/data table/row/32 short/expandable/01 enabled copy 13",
  "nameIsFixed": false,
  "overrideValues": [
  ],
  "resizingConstraint": 63,
  "resizingType": 0,
  "rotation": 0,
  "scale": 1,
  "shouldBreakMaskChain": false,
  "style": {
    "_class": "style",
    "do_objectID": "C24511DF-9FE5-47E0-BE2B-D95538CA31A6",
    "endMarkerType": 0,
    "miterLimit": 10,
    "startMarkerType": 0,
    "windingRule": 1
  },
  "symbolID": "998AF057-14D4-4F8B-A5BF-C6019F065D11",
  "verticalSpacing": 0
}