{
  "_class": "group",
  "booleanOperation": 0,
  "clippingMaskMode": 0,
  "do_objectID": "CE9A08F5-BFBF-45C9-AB1C-CD66F5B8FBDF",
  "exportOptions": {
    "_class": "exportOptions",
    "do_objectID": "1A11EC18-966F-4A2F-B575-A01C2D46C2B0",
    "exportFormats": [
    ],
    "includedLayerIds": [
    ],
    "layerOptions": 0,
    "shouldTrim": false
  },
  "frame": {
    "_class": "rect",
    "constrainProportions": false,
    "do_objectID": "23DBB4F7-35A6-42A4-BF0E-E00953F5FF20",
    "height": 76,
    "width": 60,
    "x": 0,
    "y": 295
  },
  "groupLayout": {
    "_class": "MSImmutableFreeformGroupLayout",
    "do_objectID": "B504943C-7563-4107-80F4-A81794C1576A"
  },
  "hasClickThrough": false,
  "hasClippingMask": false,
  "isFixedToViewport": false,
  "isFlippedHorizontal": false,
  "isFlippedVertical": false,
  "isLocked": false,
  "isVisible": true,
  "layerListExpandedType": 0,
  "layers": [
    {
      "class": "rectangle",
      "id": "F91523FA-1CCE-4598-B1FA-72B744704DBE"
    },
    {
      "class": "bitmap",
      "id": "A32C61D4-D173-4842-BC86-423F1D19F957"
    }
  ],
  "name": "211199857_blk_fr",
  "nameIsFixed": false,
  "resizingConstraint": 63,
  "resizingType": 0,
  "rotation": 0,
  "shouldBreakMaskChain": false,
  "style": {
    "_class": "style",
    "do_objectID": "36007B29-16FA-4C30-9901-D93AA5E8AE3F",
    "endMarkerType": 0,
    "miterLimit": 10,
    "shadows": [
      {
        "_class": "shadow",
        "blurRadius": 5,
        "color": {
          "_class": "color",
          "alpha": 0.5,
          "blue": 0,
          "green": 0,
          "red": 0
        },
        "contextSettings": {
          "_class": "graphicsContextSettings",
          "blendMode": 0,
          "opacity": 1
        },
        "isEnabled": false,
        "offsetX": 0,
        "offsetY": 0,
        "spread": 0
      }
    ],
    "startMarkerType": 0,
    "windingRule": 1
  }
}