{
  "_class": "group",
  "booleanOperation": -1,
  "clippingMaskMode": 0,
  "do_objectID": "69ED5609-8580-459B-9830-F80593EBA884",
  "exportOptions": {
    "_class": "exportOptions",
    "do_objectID": "77E1F91B-6B78-46B2-B277-F716A9CABDAE",
    "exportFormats": [
    ],
    "includedLayerIds": [
    ],
    "layerOptions": 0,
    "shouldTrim": false
  },
  "frame": {
    "_class": "rect",
    "constrainProportions": false,
    "do_objectID": "A4FB8CD9-CC82-473C-A26A-04FCDC19FAD4",
    "height": 103,
    "width": 319,
    "x": 321,
    "y": 0
  },
  "groupLayout": {
    "_class": "MSImmutableFreeformGroupLayout",
    "do_objectID": "B0A0A13F-DFCF-434B-8E7A-2376396B5DA0"
  },
  "hasClickThrough": false,
  "hasClippingMask": false,
  "isFixedToViewport": false,
  "isFlippedHorizontal": false,
  "isFlippedVertical": false,
  "isLocked": false,
  "isVisible": true,
  "layerListExpandedType": 0,
  "layers": [
    {
      "class": "rectangle",
      "id": "BCC2AC37-2859-4780-B7A4-F9D1B0F2E663"
    },
    {
      "class": "text",
      "id": "78AAFFF3-FADF-4AA3-939E-9E3E710FAF8A"
    }
  ],
  "name": "role",
  "nameIsFixed": true,
  "resizingConstraint": 63,
  "resizingType": 0,
  "rotation": 0,
  "shouldBreakMaskChain": false,
  "style": {
    "_class": "style",
    "do_objectID": "31695A0F-D96B-467B-9E5A-43100B2781FD",
    "endMarkerType": 0,
    "miterLimit": 10,
    "startMarkerType": 0,
    "windingRule": 1
  }
}