{
  "_class": "symbolInstance",
  "booleanOperation": -1,
  "clippingMaskMode": 0,
  "do_objectID": "2EC3E0F2-6D42-4BBA-A76B-FF4880A962AC",
  "exportOptions": {
    "_class": "exportOptions",
    "do_objectID": "E2E7FA5D-6C6D-4720-AA94-2C60BFB933E3",
    "exportFormats": [
    ],
    "includedLayerIds": [
    ],
    "layerOptions": 0,
    "shouldTrim": false
  },
  "frame": {
    "_class": "rect",
    "constrainProportions": false,
    "do_objectID": "80BC16F9-002C-42AC-8710-C54365A05947",
    "height": 40,
    "width": 125,
    "x": 1,
    "y": 0
  },
  "hasClippingMask": false,
  "horizontalSpacing": 0,
  "isFixedToViewport": false,
  "isFlippedHorizontal": false,
  "isFlippedVertical": false,
  "isLocked": false,
  "isVisible": true,
  "layerListExpandedType": 0,
  "name": "tab / item / selected",
  "nameIsFixed": true,
  "overrideValues": [
  ],
  "resizingConstraint": 63,
  "resizingType": 0,
  "rotation": 0,
  "scale": 1,
  "shouldBreakMaskChain": false,
  "style": {
    "_class": "style",
    "do_objectID": "55CEDB2C-82DF-4BE5-A56D-8E728C2A8FD7",
    "endMarkerType": 0,
    "miterLimit": 10,
    "startMarkerType": 0,
    "windingRule": 1
  },
  "symbolID": "4C8DB363-CF60-4E93-991D-BD243D64C0A7",
  "verticalSpacing": 0
}