{
  "_class": "symbolMaster",
  "allowsOverrides": true,
  "backgroundColor": {
    "_class": "color",
    "alpha": 1,
    "blue": 1,
    "green": 1,
    "red": 1
  },
  "booleanOperation": -1,
  "changeIdentifier": 865,
  "clippingMaskMode": 0,
  "do_objectID": "684987B5-B986-4B9D-9BEA-1554253E6C0A",
  "exportOptions": {
    "_class": "exportOptions",
    "exportFormats": [
    ],
    "includedLayerIds": [
    ],
    "layerOptions": 0,
    "shouldTrim": false
  },
  "frame": {
    "_class": "rect",
    "constrainProportions": false,
    "height": 40,
    "width": 226,
    "x": 56270,
    "y": 90
  },
  "groupLayout": {
    "_class": "MSImmutableFreeformGroupLayout"
  },
  "hasBackgroundColor": false,
  "hasClickThrough": true,
  "hasClippingMask": false,
  "horizontalRulerData": {
    "_class": "rulerData",
    "base": 0,
    "guides": [
    ]
  },
  "includeBackgroundColorInExport": true,
  "includeBackgroundColorInInstance": false,
  "includeInCloudUpload": true,
  "isFixedToViewport": false,
  "isFlippedHorizontal": false,
  "isFlippedVertical": false,
  "isFlowHome": false,
  "isLocked": false,
  "isVisible": true,
  "layerListExpandedType": 2,
  "layers": [
    {
      "class": "rectangle",
      "id": "0D1AAAFD-FA20-4DEE-9FEB-226AF6C9DDFA"
    },
    {
      "class": "rectangle",
      "id": "439A669A-7E24-4098-88B0-E8B228255949"
    },
    {
      "class": "text",
      "id": "D2D684B1-6ACF-4B35-8191-5DA4374EDE99"
    },
    {
      "class": "symbolInstance",
      "id": "DFE680FB-B13C-45ED-96F7-04AE96766D90"
    }
  ],
  "name": "dropdown / 01 default / 02 no label / closed / 02 hover",
  "nameIsFixed": true,
  "overrideProperties": [
    {
      "_class": "MSImmutableOverrideProperty",
      "canOverride": false,
      "overrideName": "DFE680FB-B13C-45ED-96F7-04AE96766D90_symbolID"
    },
    {
      "_class": "MSImmutableOverrideProperty",
      "canOverride": false,
      "overrideName": "0D1AAAFD-FA20-4DEE-9FEB-226AF6C9DDFA_layerStyle"
    },
    {
      "_class": "MSImmutableOverrideProperty",
      "canOverride": false,
      "overrideName": "439A669A-7E24-4098-88B0-E8B228255949_layerStyle"
    },
    {
      "_class": "MSImmutableOverrideProperty",
      "canOverride": false,
      "overrideName": "DFE680FB-B13C-45ED-96F7-04AE96766D90/91727CC7-E827-4EEC-9582-21DE23B309B4_layerStyle"
    },
    {
      "_class": "MSImmutableOverrideProperty",
      "canOverride": false,
      "overrideName": "D2D684B1-6ACF-4B35-8191-5DA4374EDE99_textStyle"
    },
    {
      "_class": "MSImmutableOverrideProperty",
      "canOverride": true,
      "overrideName": "D2D684B1-6ACF-4B35-8191-5DA4374EDE99_stringValue"
    }
  ],
  "resizesContent": true,
  "resizingConstraint": 63,
  "resizingType": 0,
  "rotation": 0,
  "shouldBreakMaskChain": true,
  "style": {
    "_class": "style",
    "endMarkerType": 0,
    "miterLimit": 10,
    "startMarkerType": 0,
    "windingRule": 1
  },
  "symbolID": "23217CF9-B643-4399-B486-8EC0835EC3B6",
  "verticalRulerData": {
    "_class": "rulerData",
    "base": 0,
    "guides": [
    ]
  }
}