{
  "_class": "symbolMaster",
  "allowsOverrides": true,
  "backgroundColor": {
    "_class": "color",
    "alpha": 1,
    "blue": 1,
    "green": 1,
    "red": 1
  },
  "booleanOperation": -1,
  "changeIdentifier": 230,
  "clippingMaskMode": 0,
  "do_objectID": "D00C4B67-4D99-4565-BAE1-27CC860239AE",
  "exportOptions": {
    "_class": "exportOptions",
    "exportFormats": [
    ],
    "includedLayerIds": [
    ],
    "layerOptions": 0,
    "shouldTrim": false
  },
  "frame": {
    "_class": "rect",
    "constrainProportions": false,
    "height": 48,
    "width": 71,
    "x": 113865,
    "y": 392
  },
  "groupLayout": {
    "_class": "MSImmutableFreeformGroupLayout"
  },
  "hasBackgroundColor": false,
  "hasClickThrough": true,
  "hasClippingMask": false,
  "horizontalRulerData": {
    "_class": "rulerData",
    "base": 0,
    "guides": [
    ]
  },
  "includeBackgroundColorInExport": true,
  "includeBackgroundColorInInstance": false,
  "includeInCloudUpload": true,
  "isFixedToViewport": false,
  "isFlippedHorizontal": false,
  "isFlippedVertical": false,
  "isFlowHome": false,
  "isLocked": false,
  "isVisible": true,
  "layerListExpandedType": 0,
  "layers": [
    {
      "class": "rectangle",
      "id": "EAB234EA-FE60-4EC3-8AF5-522DBE95FA78"
    },
    {
      "class": "rectangle",
      "id": "9D33B5F5-ADD6-4825-93A7-C2AA3E615CD0"
    },
    {
      "class": "symbolInstance",
      "id": "913DD6D1-2C96-4778-9B64-F8D94AC93F77"
    },
    {
      "class": "text",
      "id": "523237B3-6DA1-446D-ABED-F7E8DD21D649"
    }
  ],
  "name": "ui shell / header / item / link / 05 selected",
  "nameIsFixed": true,
  "overrideProperties": [
    {
      "_class": "MSImmutableOverrideProperty",
      "canOverride": true,
      "overrideName": "523237B3-6DA1-446D-ABED-F7E8DD21D649_stringValue"
    },
    {
      "_class": "MSImmutableOverrideProperty",
      "canOverride": false,
      "overrideName": "523237B3-6DA1-446D-ABED-F7E8DD21D649_textStyle"
    },
    {
      "_class": "MSImmutableOverrideProperty",
      "canOverride": false,
      "overrideName": "9D33B5F5-ADD6-4825-93A7-C2AA3E615CD0_layerStyle"
    },
    {
      "_class": "MSImmutableOverrideProperty",
      "canOverride": true,
      "overrideName": "913DD6D1-2C96-4778-9B64-F8D94AC93F77_symbolID"
    }
  ],
  "resizesContent": true,
  "resizingConstraint": 63,
  "resizingType": 0,
  "rotation": 0,
  "shouldBreakMaskChain": true,
  "style": {
    "_class": "style",
    "endMarkerType": 0,
    "miterLimit": 10,
    "startMarkerType": 0,
    "windingRule": 1
  },
  "symbolID": "41FA2921-2CDB-4DC8-ADF6-C9E5A3D15861",
  "verticalRulerData": {
    "_class": "rulerData",
    "base": 0,
    "guides": [
    ]
  }
}