{
  "_class": "symbolInstance",
  "booleanOperation": -1,
  "clippingMaskMode": 0,
  "do_objectID": "CDF5D97C-D0E0-4F65-99AD-C82223057A2F",
  "exportOptions": {
    "_class": "exportOptions",
    "do_objectID": "1B991FDF-3B2E-47A0-8652-E81EDE09760A",
    "exportFormats": [
    ],
    "includedLayerIds": [
    ],
    "layerOptions": 0,
    "shouldTrim": false
  },
  "frame": {
    "_class": "rect",
    "constrainProportions": false,
    "do_objectID": "3FCDE762-B34F-49FC-BDEA-A51EE04C1DB5",
    "height": 20,
    "width": 20,
    "x": 156,
    "y": 15
  },
  "hasClippingMask": false,
  "horizontalSpacing": 0,
  "isFixedToViewport": false,
  "isFlippedHorizontal": false,
  "isFlippedVertical": false,
  "isLocked": false,
  "isVisible": true,
  "layerListExpandedType": 0,
  "name": "icon/navigation/chevron/down/20 copy 2",
  "nameIsFixed": false,
  "overrideValues": [
    {
      "_class": "overrideValue",
      "do_objectID": "8FA2931B-AE3B-4F82-9C1F-B41661D864A0",
      "overrideName": "79FB7D7C-8C48-4962-8742-E03B7357FB0F_layerStyle",
      "value": "A7E8A898-757B-4128-B3CE-E8002E0B16DA"
    }
  ],
  "resizingConstraint": 9,
  "resizingType": 0,
  "rotation": 0,
  "scale": 1,
  "shouldBreakMaskChain": false,
  "style": {
    "_class": "style",
    "do_objectID": "F7315CA0-ABB4-4D95-A50E-08315F9B3A4D",
    "endMarkerType": 0,
    "miterLimit": 10,
    "startMarkerType": 0,
    "windingRule": 1
  },
  "symbolID": "D8AF0840-A952-41EE-96B0-C7FC81B01800",
  "verticalSpacing": 0
}