{
  "_class": "symbolInstance",
  "booleanOperation": -1,
  "clippingMaskMode": 0,
  "do_objectID": "2FA15D5A-D6C1-49D4-B52D-4632666E8597",
  "exportOptions": {
    "_class": "exportOptions",
    "exportFormats": [
    ],
    "includedLayerIds": [
    ],
    "layerOptions": 0,
    "shouldTrim": false
  },
  "frame": {
    "_class": "rect",
    "constrainProportions": false,
    "height": 272,
    "width": 375,
    "x": 3615,
    "y": 376
  },
  "hasClippingMask": false,
  "horizontalSpacing": 0,
  "isFixedToViewport": false,
  "isFlippedHorizontal": false,
  "isFlippedVertical": false,
  "isLocked": false,
  "isVisible": true,
  "layerListExpandedType": 0,
  "maintainScrollPosition": false,
  "name": "plp 2 image item copy 7",
  "nameIsFixed": false,
  "overrideValues": [
    {
      "_class": "overrideValue",
      "overrideName": "0BE0D7A5-F39C-475B-85F7-DEFEC63F2A7E_stringValue",
      "value": "Kharakapas"
    },
    {
      "_class": "overrideValue",
      "overrideName": "8803B172-D682-450D-835C-0D26B9188342_image",
      "value": {
        "_class": "MSJSONFileReference",
        "_ref": "images/e2b06dbfed5a9db42df136bc239552515bd5c427.png",
        "_ref_class": "MSImageData"
      }
    },
    {
      "_class": "overrideValue",
      "overrideName": "F6FAC179-0A1E-4A34-A37A-CF4F5D6A2504_image",
      "value": {
        "_class": "MSJSONFileReference",
        "_ref": "images/f4f8f70271bb3e697bd7eb0ac452e960793ffe61.png",
        "_ref_class": "MSImageData"
      }
    }
  ],
  "resizingConstraint": 63,
  "resizingType": 0,
  "rotation": 0,
  "scale": 1,
  "shouldBreakMaskChain": false,
  "style": {
    "_class": "style",
    "blur": {
      "_class": "blur",
      "center": "{0.5, 0.5}",
      "isEnabled": false,
      "motionAngle": 0,
      "radius": 10,
      "saturation": 1,
      "type": 0
    },
    "borderOptions": {
      "_class": "borderOptions",
      "dashPattern": [
      ],
      "isEnabled": true,
      "lineCapStyle": 0,
      "lineJoinStyle": 0
    },
    "borders": [
    ],
    "colorControls": {
      "_class": "colorControls",
      "brightness": 0,
      "contrast": 1,
      "hue": 0,
      "isEnabled": false,
      "saturation": 1
    },
    "contextSettings": {
      "_class": "graphicsContextSettings",
      "blendMode": 0,
      "opacity": 1
    },
    "do_objectID": "14B7CA3E-9C0E-426D-96EF-ECBB61BF079D",
    "endMarkerType": 0,
    "fills": [
    ],
    "innerShadows": [
    ],
    "miterLimit": 10,
    "shadows": [
    ],
    "startMarkerType": 0,
    "windingRule": 1
  },
  "symbolID": "8685035B-B448-4DA3-9EF7-3BA62E8EA75D",
  "verticalSpacing": 0
}