{
  "_class": "symbolMaster",
  "allowsOverrides": true,
  "backgroundColor": {
    "_class": "color",
    "alpha": 1,
    "blue": 1,
    "do_objectID": "B5F44CFB-F826-4077-B5CC-E760011CCE2D",
    "green": 1,
    "red": 1
  },
  "booleanOperation": -1,
  "changeIdentifier": 1245,
  "clippingMaskMode": 0,
  "do_objectID": "1F68F7F4-3E3D-42FD-9B4D-841382FD1EAE",
  "exportOptions": {
    "_class": "exportOptions",
    "do_objectID": "54FAC40C-EFBE-4664-A557-8C634E657D6F",
    "exportFormats": [
    ],
    "includedLayerIds": [
    ],
    "layerOptions": 0,
    "shouldTrim": false
  },
  "frame": {
    "_class": "rect",
    "constrainProportions": false,
    "do_objectID": "C3D89F89-F355-4B3C-9634-E60A939C1135",
    "height": 32,
    "width": 169,
    "x": 5777,
    "y": 246
  },
  "groupLayout": {
    "_class": "MSImmutableFreeformGroupLayout"
  },
  "hasBackgroundColor": false,
  "hasClickThrough": true,
  "hasClippingMask": false,
  "horizontalRulerData": {
    "_class": "rulerData",
    "base": 0,
    "do_objectID": "5C07A9B1-DABA-4A03-962F-F2B8BFA1FA14",
    "guides": [
    ]
  },
  "includeBackgroundColorInExport": true,
  "includeBackgroundColorInInstance": false,
  "includeInCloudUpload": true,
  "isFixedToViewport": false,
  "isFlippedHorizontal": false,
  "isFlippedVertical": false,
  "isFlowHome": false,
  "isLocked": false,
  "isVisible": true,
  "layerListExpandedType": 2,
  "layers": [
    {
      "class": "shapePath",
      "id": "52E26B59-942C-4EDB-8A49-3B7F3CA8BEE7"
    },
    {
      "class": "rectangle",
      "id": "D6C577DA-472B-4C53-9C35-FF43BDD3C292"
    },
    {
      "class": "symbolInstance",
      "id": "1913076F-00A1-4890-A75D-5F13DAF33620"
    },
    {
      "class": "text",
      "id": "C99366CB-CEA0-4DAA-BCF2-352045FFB4FD"
    }
  ],
  "name": "button / 01 primary / small / 01 text / 04 focus",
  "nameIsFixed": true,
  "overrideProperties": [
    {
      "_class": "MSImmutableOverrideProperty",
      "canOverride": true,
      "overrideName": "C99366CB-CEA0-4DAA-BCF2-352045FFB4FD_stringValue"
    },
    {
      "_class": "MSImmutableOverrideProperty",
      "canOverride": true,
      "overrideName": "1913076F-00A1-4890-A75D-5F13DAF33620_symbolID"
    },
    {
      "_class": "MSImmutableOverrideProperty",
      "canOverride": false,
      "overrideName": "D6C577DA-472B-4C53-9C35-FF43BDD3C292_layerStyle"
    },
    {
      "_class": "MSImmutableOverrideProperty",
      "canOverride": false,
      "overrideName": "C99366CB-CEA0-4DAA-BCF2-352045FFB4FD_textStyle"
    },
    {
      "_class": "MSImmutableOverrideProperty",
      "canOverride": false,
      "overrideName": "52E26B59-942C-4EDB-8A49-3B7F3CA8BEE7_layerStyle"
    }
  ],
  "resizesContent": true,
  "resizingConstraint": 63,
  "resizingType": 0,
  "rotation": 0,
  "shouldBreakMaskChain": true,
  "style": {
    "_class": "style",
    "do_objectID": "E285AD9F-CA57-423D-AB0C-7822FF516980",
    "endMarkerType": 0,
    "miterLimit": 10,
    "startMarkerType": 0,
    "windingRule": 1
  },
  "symbolID": "3F3CFC94-8CF3-47B2-BDB2-665266E82334",
  "userInfo": {
    "com.animaapp.stc-sketch-plugin": {
      "kModelPropertiesKey": {
      }
    }
  },
  "verticalRulerData": {
    "_class": "rulerData",
    "base": 0,
    "do_objectID": "FBBC588C-C45D-4225-B6A2-330182CAF171",
    "guides": [
    ]
  }
}