{
  "_class": "shapePath",
  "booleanOperation": -1,
  "clippingMaskMode": 0,
  "do_objectID": "97446A3F-4BC4-441B-9004-2B0076EE61D5",
  "edited": true,
  "exportOptions": {
    "_class": "exportOptions",
    "exportFormats": [
    ],
    "includedLayerIds": [
    ],
    "layerOptions": 0,
    "shouldTrim": false
  },
  "frame": {
    "_class": "rect",
    "constrainProportions": false,
    "height": 15.3464705882353,
    "width": 12.52176470588235,
    "x": 0,
    "y": 1.311141176470584
  },
  "hasClippingMask": false,
  "isClosed": false,
  "isFixedToViewport": false,
  "isFlippedHorizontal": false,
  "isFlippedVertical": false,
  "isLocked": false,
  "isVisible": true,
  "layerListExpandedType": 0,
  "maintainScrollPosition": false,
  "name": "Fill 3",
  "nameIsFixed": false,
  "pointRadiusBehaviour": 1,
  "points": [
    {
      "_class": "curvePoint",
      "cornerRadius": 0,
      "curveFrom": "{0, 0.16259726321438159}",
      "curveMode": 4,
      "curveTo": "{0, 0.50067078078883831}",
      "hasCurveFrom": true,
      "hasCurveTo": false,
      "point": "{0, 0.50067078078883831}"
    },
    {
      "_class": "curvePoint",
      "cornerRadius": 0,
      "curveFrom": "{0.75866491285761262, 0}",
      "curveMode": 3,
      "curveTo": "{0.19921078592568237, 0}",
      "hasCurveFrom": true,
      "hasCurveTo": true,
      "point": "{0.54718842486024344, 0}"
    },
    {
      "_class": "curvePoint",
      "cornerRadius": 0,
      "curveFrom": "{0.98247287076619527, 0.17115642607995718}",
      "curveMode": 3,
      "curveTo": "{0.89681025978296647, 0.068473302924604407}",
      "hasCurveFrom": true,
      "hasCurveTo": true,
      "point": "{0.96846432094705681, 0.15409176281191331}"
    },
    {
      "_class": "curvePoint",
      "cornerRadius": 0,
      "curveFrom": "{0.98773429792831335, 0.24250067078078874}",
      "curveMode": 3,
      "curveTo": "{0.98773429792831335, 0.1854574724979878}",
      "hasCurveFrom": true,
      "hasCurveTo": true,
      "point": "{0.98773429792831335, 0.2010732492621411}"
    },
    {
      "_class": "curvePoint",
      "cornerRadius": 0,
      "curveFrom": "{0.86882604406445252, 0.27665682854843054}",
      "curveMode": 3,
      "curveTo": "{0.94570864847089786, 0.27665682854843054}",
      "hasCurveFrom": true,
      "hasCurveTo": true,
      "point": "{0.89329168036829998, 0.27665682854843054}"
    },
    {
      "_class": "curvePoint",
      "cornerRadius": 0,
      "curveFrom": "{0.7500493258796449, 0.18398175476254355}",
      "curveMode": 4,
      "curveTo": "{0.84432752384084198, 0.26815132814596188}",
      "hasCurveFrom": true,
      "hasCurveTo": true,
      "point": "{0.8215718513646828, 0.24818889187013682}"
    },
    {
      "_class": "curvePoint",
      "cornerRadius": 0,
      "curveFrom": "{0.31466622821440327, 0.14837671049101156}",
      "curveMode": 3,
      "curveTo": "{0.67474514962183518, 0.14837671049101156}",
      "hasCurveFrom": true,
      "hasCurveTo": true,
      "point": "{0.54718842486024344, 0.14837671049101156}"
    },
    {
      "_class": "curvePoint",
      "cornerRadius": 0,
      "curveFrom": "{0.20976652416968097, 0.75022806546820509}",
      "curveMode": 3,
      "curveTo": "{0.20976652416968097, 0.265307217601288}",
      "hasCurveFrom": true,
      "hasCurveTo": true,
      "point": "{0.20976652416968097, 0.50067078078883831}"
    },
    {
      "_class": "curvePoint",
      "cornerRadius": 0,
      "curveFrom": "{0.67645511344952314, 0.85159645827743502}",
      "curveMode": 3,
      "curveTo": "{0.31466622821440327, 0.85159645827743502}",
      "hasCurveFrom": true,
      "hasCurveTo": true,
      "point": "{0.54718842486024344, 0.85159645827743502}"
    },
    {
      "_class": "curvePoint",
      "cornerRadius": 0,
      "curveFrom": "{0.85836895757974363, 0.73463911993560504}",
      "curveMode": 4,
      "curveTo": "{0.74646497862545236, 0.82736785618459896}",
      "hasCurveFrom": true,
      "hasCurveTo": true,
      "point": "{0.83038474186122979, 0.75741883552455069}"
    },
    {
      "_class": "curvePoint",
      "cornerRadius": 0,
      "curveFrom": "{0.95804011838211123, 0.72607995707002959}",
      "curveMode": 3,
      "curveTo": "{0.88102597829661311, 0.72607995707002959}",
      "hasCurveFrom": true,
      "hasCurveTo": true,
      "point": "{0.90552449852022365, 0.72607995707002959}"
    },
    {
      "_class": "curvePoint",
      "cornerRadius": 0,
      "curveFrom": "{1, 0.8201502548966999}",
      "curveMode": 3,
      "curveTo": "{1, 0.76037027099543875}",
      "hasCurveFrom": true,
      "hasCurveTo": true,
      "point": "{1, 0.80308559162865578}"
    },
    {
      "_class": "curvePoint",
      "cornerRadius": 0,
      "curveFrom": "{0.89858599145018103, 0.93716125570163678}",
      "curveMode": 3,
      "curveTo": "{0.99296284117066758, 0.83442447008317688}",
      "hasCurveFrom": true,
      "hasCurveTo": true,
      "point": "{0.98247287076619527, 0.8459350684196405}"
    },
    {
      "_class": "curvePoint",
      "cornerRadius": 0,
      "curveFrom": "{0.19921078592568237, 1}",
      "curveMode": 3,
      "curveTo": "{0.73423216047352857, 1}",
      "hasCurveFrom": true,
      "hasCurveTo": true,
      "point": "{0.54718842486024344, 1}"
    },
    {
      "_class": "curvePoint",
      "cornerRadius": 0,
      "curveFrom": "{0, 0.50067078078883831}",
      "curveMode": 4,
      "curveTo": "{0, 0.85022806546820495}",
      "hasCurveFrom": false,
      "hasCurveTo": true,
      "point": "{0, 0.50067078078883831}"
    }
  ],
  "resizingConstraint": 63,
  "resizingType": 0,
  "rotation": 0,
  "shouldBreakMaskChain": false,
  "style": {
    "_class": "style",
    "blur": {
      "_class": "blur",
      "center": "{0.5, 0.5}",
      "isEnabled": false,
      "motionAngle": 0,
      "radius": 10,
      "saturation": 1,
      "type": 0
    },
    "borderOptions": {
      "_class": "borderOptions",
      "dashPattern": [
      ],
      "isEnabled": true,
      "lineCapStyle": 0,
      "lineJoinStyle": 0
    },
    "borders": [
    ],
    "colorControls": {
      "_class": "colorControls",
      "brightness": 0,
      "contrast": 1,
      "hue": 0,
      "isEnabled": true,
      "saturation": 1
    },
    "contextSettings": {
      "_class": "graphicsContextSettings",
      "blendMode": 0,
      "opacity": 1
    },
    "do_objectID": "66FA4DF8-6151-49B6-82C6-D8582D7C5082",
    "endMarkerType": 0,
    "fills": [
      {
        "_class": "fill",
        "color": {
          "_class": "color",
          "alpha": 1,
          "blue": 0.1764705882352941,
          "green": 0.1764705882352941,
          "red": 0.1764705882352941
        },
        "contextSettings": {
          "_class": "graphicsContextSettings",
          "blendMode": 0,
          "opacity": 1
        },
        "fillType": 0,
        "gradient": {
          "_class": "gradient",
          "elipseLength": 0,
          "from": "{0.5, 0}",
          "gradientType": 0,
          "stops": [
            {
              "_class": "gradientStop",
              "color": {
                "_class": "color",
                "alpha": 1,
                "blue": 1,
                "green": 1,
                "red": 1
              },
              "position": 0
            },
            {
              "_class": "gradientStop",
              "color": {
                "_class": "color",
                "alpha": 1,
                "blue": 0,
                "green": 0,
                "red": 0
              },
              "position": 1
            }
          ],
          "to": "{0.5, 1}"
        },
        "isEnabled": true,
        "noiseIndex": 0,
        "noiseIntensity": 0,
        "patternFillType": 1,
        "patternTileScale": 1
      }
    ],
    "innerShadows": [
    ],
    "miterLimit": 10,
    "shadows": [
    ],
    "startMarkerType": 0,
    "windingRule": 1
  }
}