{
  "_class": "symbolInstance",
  "booleanOperation": -1,
  "clippingMaskMode": 0,
  "do_objectID": "0D13479C-80C3-4F7D-8280-986AD414928D",
  "exportOptions": {
    "_class": "exportOptions",
    "do_objectID": "A57BDA28-F171-4725-848E-2FEB39AA091D",
    "exportFormats": [
    ],
    "includedLayerIds": [
    ],
    "layerOptions": 0,
    "shouldTrim": false
  },
  "frame": {
    "_class": "rect",
    "constrainProportions": false,
    "do_objectID": "5C5E5A47-95A8-4ABD-BF79-5DE0386898CF",
    "height": 40,
    "width": 16,
    "x": 110,
    "y": 0
  },
  "hasClippingMask": false,
  "horizontalSpacing": 0,
  "isFixedToViewport": false,
  "isFlippedHorizontal": false,
  "isFlippedVertical": false,
  "isLocked": false,
  "isVisible": true,
  "layerListExpandedType": 0,
  "name": "Spacer",
  "nameIsFixed": true,
  "overrideValues": [
  ],
  "resizingConstraint": 12,
  "resizingType": 0,
  "rotation": 0,
  "scale": 1,
  "shouldBreakMaskChain": false,
  "style": {
    "_class": "style",
    "do_objectID": "438389FE-5596-4F7E-B814-0E442CF31DB1",
    "endMarkerType": 0,
    "miterLimit": 10,
    "startMarkerType": 0,
    "windingRule": 1
  },
  "symbolID": "63CC0620-45C1-458D-B7FB-1F12F00E7A4C",
  "verticalSpacing": 0
}