{
  "_class": "symbolMaster",
  "allowsOverrides": true,
  "backgroundColor": {
    "_class": "color",
    "alpha": 1,
    "blue": 1,
    "do_objectID": "5FF03D36-FB80-4FA9-8E11-0B72A22125A0",
    "green": 1,
    "red": 1
  },
  "booleanOperation": -1,
  "changeIdentifier": 546,
  "clippingMaskMode": 0,
  "do_objectID": "5DC7ECB0-876A-4FD7-BED5-4DFFD87EEF25",
  "exportOptions": {
    "_class": "exportOptions",
    "do_objectID": "31A1BAF7-C49A-4CFC-B7D9-549A18D1078B",
    "exportFormats": [
    ],
    "includedLayerIds": [
    ],
    "layerOptions": 0,
    "shouldTrim": false
  },
  "frame": {
    "_class": "rect",
    "constrainProportions": false,
    "do_objectID": "612969EB-8E49-4E67-B4B1-A4F810BA213D",
    "height": 40,
    "width": 126,
    "x": 17603,
    "y": 360
  },
  "groupLayout": {
    "_class": "MSImmutableFreeformGroupLayout",
    "do_objectID": "D6F5FE63-40B7-48C5-8366-B80B99D7D826"
  },
  "hasBackgroundColor": false,
  "hasClickThrough": true,
  "hasClippingMask": false,
  "horizontalRulerData": {
    "_class": "rulerData",
    "base": 0,
    "do_objectID": "89D26126-A796-4C98-A57A-9541A4DE8358",
    "guides": [
    ]
  },
  "includeBackgroundColorInExport": true,
  "includeBackgroundColorInInstance": false,
  "includeInCloudUpload": true,
  "isFixedToViewport": false,
  "isFlippedHorizontal": false,
  "isFlippedVertical": false,
  "isFlowHome": false,
  "isLocked": false,
  "isVisible": true,
  "layerListExpandedType": 0,
  "layers": [
    {
      "class": "rectangle",
      "id": "1534C94C-6655-466E-A521-0D9EE18B03A8"
    },
    {
      "class": "symbolInstance",
      "id": "0D13479C-80C3-4F7D-8280-986AD414928D"
    },
    {
      "class": "text",
      "id": "FA9C29AA-1B40-4343-B1BC-9DCB1E9A0C51"
    }
  ],
  "name": "content switcher / item / 03 right / 05 disabled",
  "nameIsFixed": true,
  "overrideProperties": [
    {
      "_class": "MSImmutableOverrideProperty",
      "canOverride": true,
      "overrideName": "0D13479C-80C3-4F7D-8280-986AD414928D_symbolID"
    },
    {
      "_class": "MSImmutableOverrideProperty",
      "canOverride": false,
      "overrideName": "FA9C29AA-1B40-4343-B1BC-9DCB1E9A0C51_textStyle"
    },
    {
      "_class": "MSImmutableOverrideProperty",
      "canOverride": false,
      "overrideName": "1534C94C-6655-466E-A521-0D9EE18B03A8_layerStyle"
    },
    {
      "_class": "MSImmutableOverrideProperty",
      "canOverride": true,
      "overrideName": "FA9C29AA-1B40-4343-B1BC-9DCB1E9A0C51_stringValue"
    }
  ],
  "resizesContent": true,
  "resizingConstraint": 63,
  "resizingType": 0,
  "rotation": 0,
  "shouldBreakMaskChain": true,
  "style": {
    "_class": "style",
    "do_objectID": "CF94D4F0-7128-4B2F-9F36-04A91CF5CEF4",
    "endMarkerType": 0,
    "miterLimit": 10,
    "startMarkerType": 0,
    "windingRule": 1
  },
  "symbolID": "0F05506E-BABB-4D66-A08E-ED3FCE18A0D3",
  "userInfo": {
    "com.animaapp.stc-sketch-plugin": {
      "kModelPropertiesKey": {
      }
    }
  },
  "verticalRulerData": {
    "_class": "rulerData",
    "base": 0,
    "do_objectID": "FB712C2A-2F91-47AB-B4C0-C1D09DADCEDC",
    "guides": [
    ]
  }
}