{
  "_class": "group",
  "booleanOperation": 0,
  "clippingMaskMode": 0,
  "do_objectID": "01A13725-2E30-486D-8513-DFD6231A0E42",
  "exportOptions": {
    "_class": "exportOptions",
    "exportFormats": [
    ],
    "includedLayerIds": [
    ],
    "layerOptions": 0,
    "shouldTrim": false
  },
  "frame": {
    "_class": "rect",
    "constrainProportions": true,
    "height": 15,
    "width": 15,
    "x": 251,
    "y": 784
  },
  "groupLayout": {
    "_class": "MSImmutableFreeformGroupLayout"
  },
  "hasClickThrough": false,
  "hasClippingMask": false,
  "isFixedToViewport": false,
  "isFlippedHorizontal": false,
  "isFlippedVertical": false,
  "isLocked": false,
  "isVisible": true,
  "layerListExpandedType": 2,
  "layers": [
    {
      "class": "shapePath",
      "id": "C35A4E60-F695-4F8E-A9E3-2978259ABABC"
    },
    {
      "class": "shapePath",
      "id": "65974437-3014-429F-9742-287788F7FAAD"
    },
    {
      "class": "shapePath",
      "id": "7BF2DA87-EB42-4D6E-BF5B-6D2CD2FAE738"
    },
    {
      "class": "shapePath",
      "id": "9B1223B8-45CE-4944-BC28-B70FAF210C96"
    },
    {
      "class": "shapePath",
      "id": "FF7BB915-BC9F-405E-912A-8B201F91BB38"
    },
    {
      "class": "shapePath",
      "id": "6720CDEA-D863-478F-8283-644C7000FDC1"
    }
  ],
  "maintainScrollPosition": false,
  "name": "Group",
  "nameIsFixed": false,
  "resizingConstraint": 45,
  "resizingType": 0,
  "rotation": 0,
  "shouldBreakMaskChain": false,
  "style": {
    "_class": "style",
    "blur": {
      "_class": "blur",
      "center": "{0.5, 0.5}",
      "isEnabled": false,
      "motionAngle": 0,
      "radius": 10,
      "saturation": 1,
      "type": 0
    },
    "borderOptions": {
      "_class": "borderOptions",
      "dashPattern": [
      ],
      "isEnabled": true,
      "lineCapStyle": 0,
      "lineJoinStyle": 0
    },
    "borders": [
    ],
    "colorControls": {
      "_class": "colorControls",
      "brightness": 0,
      "contrast": 1,
      "hue": 0,
      "isEnabled": false,
      "saturation": 1
    },
    "contextSettings": {
      "_class": "graphicsContextSettings",
      "blendMode": 0,
      "opacity": 1
    },
    "do_objectID": "C6866804-B798-481D-913F-301AA171E836",
    "endMarkerType": 0,
    "fills": [
    ],
    "innerShadows": [
    ],
    "miterLimit": 10,
    "shadows": [
    ],
    "startMarkerType": 0,
    "windingRule": 1
  },
  "userInfo": {
    "com.animaapp.stc-sketch-plugin": {
      "kModelPropertiesKey": {
        "constraints": {
          "aspectRatio": {
            "constant": 11,
            "enabled": 1,
            "modelID": "constraint_806881b1-e97e-4a28-ace9-046f4c291640",
            "model_class": "ADModelConstraint",
            "model_version": 0,
            "multiplier": 11
          },
          "automatic": 1,
          "modelID": "viewConstraints_f7eb216f-5d1b-4ca4-856f-56108703a9c3",
          "model_class": "ADModelViewConstraints",
          "model_version": 0,
          "scaleFactor": 1
        }
      }
    }
  }
}