{
  "_class": "group",
  "booleanOperation": 0,
  "clippingMaskMode": 0,
  "do_objectID": "BB60430D-9C37-4D80-BBF0-69964A86088C",
  "exportOptions": {
    "_class": "exportOptions",
    "do_objectID": "536FE8C2-2E4A-4009-8B1A-61C20D18471E",
    "exportFormats": [
    ],
    "includedLayerIds": [
    ],
    "layerOptions": 0,
    "shouldTrim": false
  },
  "frame": {
    "_class": "rect",
    "constrainProportions": false,
    "do_objectID": "9E194BA3-62FE-4D56-B27A-AF611DA0F910",
    "height": 44,
    "width": 44,
    "x": 59,
    "y": 0
  },
  "groupLayout": {
    "_class": "MSImmutableFreeformGroupLayout",
    "do_objectID": "DE5F8F66-96BF-455F-AF7C-574CAE4BF45B"
  },
  "hasClickThrough": false,
  "hasClippingMask": false,
  "isFixedToViewport": false,
  "isFlippedHorizontal": false,
  "isFlippedVertical": false,
  "isLocked": false,
  "isVisible": true,
  "layerListExpandedType": 0,
  "layers": [
    {
      "class": "group",
      "id": "D66F6CE2-B368-47F3-9922-78CA014F26C0"
    }
  ],
  "name": "Color",
  "nameIsFixed": true,
  "resizingConstraint": 63,
  "resizingType": 0,
  "rotation": 0,
  "shouldBreakMaskChain": false,
  "style": {
    "_class": "style",
    "do_objectID": "EEDC9341-421A-40EA-A611-D37413B4FDC0",
    "endMarkerType": 0,
    "miterLimit": 10,
    "startMarkerType": 0,
    "windingRule": 1
  }
}