{
  "_class": "group",
  "booleanOperation": 0,
  "clippingMaskMode": 0,
  "do_objectID": "FDC11D54-E7CF-40D2-A8CE-A693CE7D887D",
  "exportOptions": {
    "_class": "exportOptions",
    "do_objectID": "D985A6DF-48D8-46D1-A017-516CD9C03010",
    "exportFormats": [
    ],
    "includedLayerIds": [
    ],
    "layerOptions": 0,
    "shouldTrim": false
  },
  "frame": {
    "_class": "rect",
    "constrainProportions": true,
    "do_objectID": "919F7F7C-B23F-4D3E-8DD2-B8B21D805717",
    "height": 24,
    "width": 25,
    "x": 16.8125,
    "y": 0
  },
  "groupLayout": {
    "_class": "MSImmutableFreeformGroupLayout",
    "do_objectID": "37E49D3E-ED9C-4DF4-9989-BE2C4F39DB46"
  },
  "hasClickThrough": false,
  "hasClippingMask": false,
  "isFixedToViewport": false,
  "isFlippedHorizontal": false,
  "isFlippedVertical": false,
  "isLocked": false,
  "isVisible": true,
  "layerListExpandedType": 0,
  "layers": [
    {
      "class": "shapePath",
      "id": "6631E508-BA71-4041-9C69-8AF8132FB453"
    },
    {
      "class": "shapePath",
      "id": "642D3AB8-A664-4E4C-938E-F3F6B57408FC"
    }
  ],
  "name": "upload",
  "nameIsFixed": false,
  "resizingConstraint": 63,
  "resizingType": 0,
  "rotation": 0,
  "shouldBreakMaskChain": false,
  "style": {
    "_class": "style",
    "do_objectID": "98605E95-1D60-4320-9D63-66D50A590ED9",
    "endMarkerType": 0,
    "miterLimit": 10,
    "startMarkerType": 0,
    "windingRule": 1
  }
}