{
  "_class": "group",
  "booleanOperation": 0,
  "clippingMaskMode": 0,
  "do_objectID": "E8FBDF5A-A9E8-484A-B1B9-938B2A3D44BC",
  "exportOptions": {
    "_class": "exportOptions",
    "do_objectID": "19DF07EC-5E61-41C2-8900-75CC7A8F84FA",
    "exportFormats": [
    ],
    "includedLayerIds": [
    ],
    "layerOptions": 0,
    "shouldTrim": false
  },
  "frame": {
    "_class": "rect",
    "constrainProportions": true,
    "do_objectID": "0BA15990-30B6-468C-B2FD-70DDD9437B1A",
    "height": 24,
    "width": 25,
    "x": 18,
    "y": 13
  },
  "groupLayout": {
    "_class": "MSImmutableFreeformGroupLayout",
    "do_objectID": "00881613-B925-4966-8597-1937782F7262"
  },
  "hasClickThrough": false,
  "hasClippingMask": false,
  "isFixedToViewport": false,
  "isFlippedHorizontal": false,
  "isFlippedVertical": false,
  "isLocked": false,
  "isVisible": true,
  "layerListExpandedType": 0,
  "layers": [
    {
      "class": "shapeGroup",
      "id": "CE03BB50-8AB0-4916-A4AB-99F6D3002D60"
    },
    {
      "class": "shapePath",
      "id": "0566936B-A4DB-4927-87AB-92303FB54C5B"
    },
    {
      "class": "oval",
      "id": "C546D95A-1A0F-4A0B-9289-B84874FD7ED3"
    },
    {
      "class": "oval",
      "id": "EBDD1960-C230-446F-B28F-A5C57D0C7790"
    },
    {
      "class": "oval",
      "id": "FCB3E6E1-EF9E-4A23-976C-9B01CD65672A"
    }
  ],
  "name": "telephone",
  "nameIsFixed": false,
  "resizingConstraint": 63,
  "resizingType": 0,
  "rotation": 0,
  "shouldBreakMaskChain": false,
  "style": {
    "_class": "style",
    "do_objectID": "A150B13D-442A-497C-B600-DAA18CF5D9B9",
    "endMarkerType": 0,
    "miterLimit": 10,
    "startMarkerType": 0,
    "windingRule": 1
  }
}