{
  "_class": "shapePath",
  "booleanOperation": -1,
  "clippingMaskMode": 0,
  "do_objectID": "F9DC79C1-E0D8-4851-BFE5-53E30DA26C02",
  "edited": true,
  "exportOptions": {
    "_class": "exportOptions",
    "exportFormats": [
    ],
    "includedLayerIds": [
    ],
    "layerOptions": 0,
    "shouldTrim": false
  },
  "frame": {
    "_class": "rect",
    "constrainProportions": false,
    "height": 15,
    "width": 18.00058987854041,
    "x": -1.942890293094024e-16,
    "y": 0
  },
  "hasClippingMask": false,
  "isClosed": true,
  "isFixedToViewport": false,
  "isFlippedHorizontal": false,
  "isFlippedVertical": false,
  "isLocked": false,
  "isVisible": true,
  "layerListExpandedType": 0,
  "maintainScrollPosition": false,
  "name": "Path",
  "nameIsFixed": false,
  "pointRadiusBehaviour": 1,
  "points": [
    {
      "_class": "curvePoint",
      "cornerRadius": 0,
      "curveFrom": "{0.94440852423128863, 0}",
      "curveMode": 1,
      "curveTo": "{0.94440852423128863, 0}",
      "hasCurveFrom": false,
      "hasCurveTo": false,
      "point": "{0.94440852423128863, 0}"
    },
    {
      "_class": "curvePoint",
      "cornerRadius": 0,
      "curveFrom": "{0.039604842246582131, 0}",
      "curveMode": 4,
      "curveTo": "{0.055548764192281816, 0}",
      "hasCurveFrom": true,
      "hasCurveTo": false,
      "point": "{0.055548764192281816, 0}"
    },
    {
      "_class": "curvePoint",
      "cornerRadius": 0,
      "curveFrom": "{0.0033282532899901666, 0.036933333333333353}",
      "curveMode": 2,
      "curveTo": "{0.02438311885591414, 0.0082666666666667034}",
      "hasCurveFrom": true,
      "hasCurveTo": true,
      "point": "{0.013827909205450913, 0.022666666666666658}"
    },
    {
      "_class": "curvePoint",
      "cornerRadius": 0,
      "curveFrom": "{0.00043945906986339188, 0.075133333333333371}",
      "curveMode": 4,
      "curveTo": "{-0.0015604753902243751, 0.056066666666666619}",
      "hasCurveFrom": false,
      "hasCurveTo": true,
      "point": "{0.00043945906986339188, 0.075133333333333371}"
    },
    {
      "_class": "curvePoint",
      "cornerRadius": 0,
      "curveFrom": "{0.097658495324129763, 0.97506666666666664}",
      "curveMode": 4,
      "curveTo": "{0.09399194881396887, 0.94193333333333329}",
      "hasCurveFrom": true,
      "hasCurveTo": false,
      "point": "{0.09399194881396887, 0.94193333333333329}"
    },
    {
      "_class": "curvePoint",
      "cornerRadius": 0,
      "curveFrom": "{0.14910125393638726, 1}",
      "curveMode": 4,
      "curveTo": "{0.12132438643516831, 1}",
      "hasCurveFrom": false,
      "hasCurveTo": true,
      "point": "{0.14910125393638726, 1}"
    },
    {
      "_class": "curvePoint",
      "cornerRadius": 0,
      "curveFrom": "{0.87868845572340448, 1}",
      "curveMode": 4,
      "curveTo": "{0.85085603448718305, 1}",
      "hasCurveFrom": true,
      "hasCurveTo": false,
      "point": "{0.85085603448718305, 1}"
    },
    {
      "_class": "curvePoint",
      "cornerRadius": 0,
      "curveFrom": "{0.90596533960960157, 0.94193333333333329}",
      "curveMode": 4,
      "curveTo": "{0.90235434683444304, 0.97499999999999998}",
      "hasCurveFrom": false,
      "hasCurveTo": true,
      "point": "{0.90596533960960157, 0.94193333333333329}"
    },
    {
      "_class": "curvePoint",
      "cornerRadius": 0,
      "curveFrom": "{1.0016288712837995, 0.056266666666666625}",
      "curveMode": 4,
      "curveTo": "{0.99951782935370714, 0.075266666666666635}",
      "hasCurveFrom": true,
      "hasCurveTo": false,
      "point": "{0.99951782935370714, 0.075266666666666635}"
    },
    {
      "_class": "curvePoint",
      "cornerRadius": 0,
      "curveFrom": "{0.97551861583265387, 0.0081999999999999556}",
      "curveMode": 2,
      "curveTo": "{0.99674014260358523, 0.037066666666666727}",
      "hasCurveFrom": true,
      "hasCurveTo": true,
      "point": "{0.98618493295312193, 0.022666666666666658}"
    },
    {
      "_class": "curvePoint",
      "cornerRadius": 0,
      "curveFrom": "{0.94440852423128863, 0}",
      "curveMode": 4,
      "curveTo": "{0.96029689244198579, 0}",
      "hasCurveFrom": false,
      "hasCurveTo": true,
      "point": "{0.94440852423128863, 0}"
    }
  ],
  "resizingConstraint": 63,
  "resizingType": 0,
  "rotation": 0,
  "shouldBreakMaskChain": false,
  "style": {
    "_class": "style",
    "blur": {
      "_class": "blur",
      "center": "{0.5, 0.5}",
      "isEnabled": false,
      "motionAngle": 0,
      "radius": 10,
      "saturation": 1,
      "type": 0
    },
    "borderOptions": {
      "_class": "borderOptions",
      "dashPattern": [
      ],
      "isEnabled": true,
      "lineCapStyle": 0,
      "lineJoinStyle": 0
    },
    "borders": [
    ],
    "colorControls": {
      "_class": "colorControls",
      "brightness": 0,
      "contrast": 1,
      "hue": 0,
      "isEnabled": false,
      "saturation": 1
    },
    "contextSettings": {
      "_class": "graphicsContextSettings",
      "blendMode": 0,
      "opacity": 1
    },
    "do_objectID": "AC7FDCC0-713F-4393-9B98-8E9A5AE8AE71",
    "endMarkerType": 0,
    "fills": [
    ],
    "innerShadows": [
    ],
    "miterLimit": 10,
    "shadows": [
    ],
    "startMarkerType": 0,
    "windingRule": 1
  }
}