{
  "_class": "symbolMaster",
  "allowsOverrides": true,
  "backgroundColor": {
    "_class": "color",
    "alpha": 1,
    "blue": 1,
    "do_objectID": "44C14E09-6074-4AE4-A223-F8DC2861E0F9",
    "green": 1,
    "red": 1
  },
  "booleanOperation": -1,
  "changeIdentifier": 872,
  "clippingMaskMode": 0,
  "do_objectID": "98869F11-A6CD-4C32-B1D8-542CE7FE701F",
  "exportOptions": {
    "_class": "exportOptions",
    "do_objectID": "356C6776-539B-4285-AB06-097FFF1CFB3F",
    "exportFormats": [
    ],
    "includedLayerIds": [
    ],
    "layerOptions": 0,
    "shouldTrim": false
  },
  "frame": {
    "_class": "rect",
    "constrainProportions": false,
    "do_objectID": "E6368F18-9868-4374-81BC-30B5B4050980",
    "height": 24,
    "width": 200,
    "x": 18429,
    "y": 0
  },
  "groupLayout": {
    "_class": "MSImmutableFreeformGroupLayout"
  },
  "hasBackgroundColor": false,
  "hasClickThrough": true,
  "hasClippingMask": false,
  "horizontalRulerData": {
    "_class": "rulerData",
    "base": 0,
    "do_objectID": "E2B8E7FD-4E2A-4EA6-A11E-9B491F30A0D8",
    "guides": [
    ]
  },
  "includeBackgroundColorInExport": true,
  "includeBackgroundColorInInstance": false,
  "includeInCloudUpload": true,
  "isFixedToViewport": false,
  "isFlippedHorizontal": false,
  "isFlippedVertical": false,
  "isFlowHome": false,
  "isLocked": false,
  "isVisible": true,
  "layerListExpandedType": 0,
  "layers": [
    {
      "class": "rectangle",
      "id": "A5A5213A-2262-4FEF-BE84-DCD1B77800EC"
    },
    {
      "class": "rectangle",
      "id": "6C7C6D1E-60FD-4D9A-AB5E-D409F79426A0"
    },
    {
      "class": "text",
      "id": "45298550-1CCE-4725-9605-CE8161B6FBDF"
    },
    {
      "class": "symbolInstance",
      "id": "EDBC2ED7-1C65-4291-803B-A68457F026B9"
    }
  ],
  "name": "data table / cell / 24 compact / expandable / 01 enabled",
  "nameIsFixed": true,
  "overrideProperties": [
    {
      "_class": "MSImmutableOverrideProperty",
      "canOverride": false,
      "overrideName": "A5A5213A-2262-4FEF-BE84-DCD1B77800EC_layerStyle"
    },
    {
      "_class": "MSImmutableOverrideProperty",
      "canOverride": false,
      "overrideName": "6C7C6D1E-60FD-4D9A-AB5E-D409F79426A0_layerStyle"
    },
    {
      "_class": "MSImmutableOverrideProperty",
      "canOverride": false,
      "overrideName": "45298550-1CCE-4725-9605-CE8161B6FBDF_textStyle"
    },
    {
      "_class": "MSImmutableOverrideProperty",
      "canOverride": true,
      "overrideName": "45298550-1CCE-4725-9605-CE8161B6FBDF_stringValue"
    },
    {
      "_class": "MSImmutableOverrideProperty",
      "canOverride": true,
      "overrideName": "EDBC2ED7-1C65-4291-803B-A68457F026B9_symbolID"
    },
    {
      "_class": "MSImmutableOverrideProperty",
      "canOverride": false,
      "overrideName": "EDBC2ED7-1C65-4291-803B-A68457F026B9/91727CC7-E827-4EEC-9582-21DE23B309B4_layerStyle"
    }
  ],
  "resizesContent": true,
  "resizingConstraint": 63,
  "resizingType": 0,
  "rotation": 0,
  "shouldBreakMaskChain": true,
  "style": {
    "_class": "style",
    "do_objectID": "B782836F-D1B4-49D1-84A7-9F41CF041901",
    "endMarkerType": 0,
    "miterLimit": 10,
    "startMarkerType": 0,
    "windingRule": 1
  },
  "symbolID": "65C70B66-E783-4770-931C-258696ADED9E",
  "verticalRulerData": {
    "_class": "rulerData",
    "base": 0,
    "do_objectID": "0B281BA4-0F78-4BFA-A1FC-BC92DB6ECA12",
    "guides": [
    ]
  }
}