{
  "_class": "symbolMaster",
  "allowsOverrides": true,
  "backgroundColor": {
    "_class": "color",
    "alpha": 1,
    "blue": 1,
    "do_objectID": "DF26E999-DEDE-46B8-BFFD-6D34553828C0",
    "green": 1,
    "red": 1
  },
  "booleanOperation": -1,
  "changeIdentifier": 712,
  "clippingMaskMode": 0,
  "do_objectID": "87B3BCEB-DF1D-4550-8608-A5110E033AD4",
  "exportOptions": {
    "_class": "exportOptions",
    "do_objectID": "E692EDF0-D32F-4A96-B7F1-0124E2E6EB5A",
    "exportFormats": [
    ],
    "includedLayerIds": [
    ],
    "layerOptions": 0,
    "shouldTrim": false
  },
  "frame": {
    "_class": "rect",
    "constrainProportions": false,
    "do_objectID": "9631F9FF-3BC8-40DD-9C82-DCF34CE7DA3F",
    "height": 32,
    "width": 576,
    "x": 95550,
    "y": 0
  },
  "groupLayout": {
    "_class": "MSImmutableFreeformGroupLayout",
    "do_objectID": "7FEA6EC3-6D6B-4E52-8C85-A628546E42AF"
  },
  "hasBackgroundColor": false,
  "hasClickThrough": true,
  "hasClippingMask": false,
  "horizontalRulerData": {
    "_class": "rulerData",
    "base": 0,
    "do_objectID": "0E7247AD-81FF-4976-9F9F-95045ED0B40F",
    "guides": [
    ]
  },
  "includeBackgroundColorInExport": true,
  "includeBackgroundColorInInstance": false,
  "includeInCloudUpload": true,
  "isFixedToViewport": false,
  "isFlippedHorizontal": false,
  "isFlippedVertical": false,
  "isFlowHome": false,
  "isLocked": false,
  "isVisible": true,
  "layerListExpandedType": 2,
  "layers": [
    {
      "class": "rectangle",
      "id": "70B6DC02-5172-4779-89FE-460FB97F1221"
    },
    {
      "class": "text",
      "id": "9DA4C12B-D64F-4E14-B099-36D163763EC3"
    },
    {
      "class": "text",
      "id": "A8C7D7B1-33AD-490C-A3A0-4A5470F0F7BA"
    },
    {
      "class": "rectangle",
      "id": "9545753F-ED1F-4466-90BC-F519DE894D5D"
    }
  ],
  "name": "structured list / item / header / 2 column even",
  "nameIsFixed": true,
  "overrideProperties": [
    {
      "_class": "MSImmutableOverrideProperty",
      "canOverride": false,
      "overrideName": "9DA4C12B-D64F-4E14-B099-36D163763EC3_textStyle"
    },
    {
      "_class": "MSImmutableOverrideProperty",
      "canOverride": false,
      "overrideName": "9545753F-ED1F-4466-90BC-F519DE894D5D_layerStyle"
    },
    {
      "_class": "MSImmutableOverrideProperty",
      "canOverride": true,
      "overrideName": "9DA4C12B-D64F-4E14-B099-36D163763EC3_stringValue"
    },
    {
      "_class": "MSImmutableOverrideProperty",
      "canOverride": true,
      "overrideName": "A8C7D7B1-33AD-490C-A3A0-4A5470F0F7BA_stringValue"
    },
    {
      "_class": "MSImmutableOverrideProperty",
      "canOverride": false,
      "overrideName": "A8C7D7B1-33AD-490C-A3A0-4A5470F0F7BA_textStyle"
    }
  ],
  "resizesContent": true,
  "resizingConstraint": 63,
  "resizingType": 0,
  "rotation": 0,
  "shouldBreakMaskChain": true,
  "style": {
    "_class": "style",
    "do_objectID": "536E4D47-D93C-4A84-A07F-AB5E549CD014",
    "endMarkerType": 0,
    "miterLimit": 10,
    "startMarkerType": 0,
    "windingRule": 1
  },
  "symbolID": "437B76EC-F16C-467A-BD4C-240092759DDD",
  "verticalRulerData": {
    "_class": "rulerData",
    "base": 0,
    "do_objectID": "E86E48D4-DF9C-4AB7-B2B8-567485CFC580",
    "guides": [
    ]
  }
}