{
  "_class": "text",
  "attributedString": {
    "_class": "attributedString",
    "attributes": [
      {
        "_class": "stringAttribute",
        "attributes": {
          "MSAttributedStringColorAttribute": {
            "_class": "color",
            "alpha": 1,
            "blue": 0.1764705882,
            "green": 0.1764705882,
            "red": 0.1764705882
          },
          "MSAttributedStringFontAttribute": {
            "_class": "UIFontDescriptor",
            "attributes": {
              "name": "Lato-Regular",
              "size": 14
            }
          },
          "MSAttributedStringStrokeColorAttribute": {
            "_class": "color",
            "alpha": 1,
            "blue": 0.2,
            "green": 0.2,
            "red": 0.2
          },
          "kerning": 0,
          "paragraphStyle": {
            "_class": "paragraphStyle",
            "alignment": 0,
            "baseWritingDirection": 0,
            "headIndent": 36,
            "maximumLineHeight": 28,
            "minimumLineHeight": 28,
            "paragraphSpacing": 10,
            "tabStops": [
              {
                "_class": "textTab",
                "alignment": 0,
                "location": 11,
                "options": {
                }
              },
              {
                "_class": "textTab",
                "alignment": 0,
                "location": 36,
                "options": {
                }
              },
              {
                "_class": "textTab",
                "alignment": 0,
                "location": 56,
                "options": {
                }
              },
              {
                "_class": "textTab",
                "alignment": 0,
                "location": 85,
                "options": {
                }
              },
              {
                "_class": "textTab",
                "alignment": 0,
                "location": 113,
                "options": {
                }
              },
              {
                "_class": "textTab",
                "alignment": 0,
                "location": 141,
                "options": {
                }
              },
              {
                "_class": "textTab",
                "alignment": 0,
                "location": 170,
                "options": {
                }
              },
              {
                "_class": "textTab",
                "alignment": 0,
                "location": 198,
                "options": {
                }
              },
              {
                "_class": "textTab",
                "alignment": 0,
                "location": 226,
                "options": {
                }
              },
              {
                "_class": "textTab",
                "alignment": 0,
                "location": 255,
                "options": {
                }
              },
              {
                "_class": "textTab",
                "alignment": 0,
                "location": 283,
                "options": {
                }
              },
              {
                "_class": "textTab",
                "alignment": 0,
                "location": 311,
                "options": {
                }
              },
              {
                "_class": "textTab",
                "alignment": 0,
                "location": 340,
                "options": {
                }
              }
            ],
            "textLists": [
              {
                "_class": "textList",
                "listOptions": 0,
                "markerFormat": "{disc}"
              }
            ]
          },
          "strokeWidth": 0
        },
        "length": 57,
        "location": 0
      }
    ],
    "string": "\t• \tOuter : cow leather 100%\n\t• \tLining :  polyester 100%"
  },
  "automaticallyDrawOnUnderlyingPath": false,
  "booleanOperation": 0,
  "clippingMaskMode": 0,
  "do_objectID": "AD4BF4E3-F797-4B04-A8E3-D42CB0F7B0BA",
  "dontSynchroniseWithSymbol": false,
  "exportOptions": {
    "_class": "exportOptions",
    "do_objectID": "95E3B0EB-C956-4926-9CB9-586E3D51CF39",
    "exportFormats": [
    ],
    "includedLayerIds": [
    ],
    "layerOptions": 0,
    "shouldTrim": false
  },
  "frame": {
    "_class": "rect",
    "constrainProportions": false,
    "do_objectID": "6AF90796-C684-41F0-8F2D-14D65BA961DE",
    "height": 66,
    "width": 857,
    "x": 0,
    "y": 0
  },
  "glyphBounds": "{{0, 0}, {194, 66}}",
  "hasClippingMask": false,
  "isFixedToViewport": false,
  "isFlippedHorizontal": false,
  "isFlippedVertical": false,
  "isLocked": false,
  "isVisible": true,
  "layerListExpandedType": 0,
  "lineSpacingBehaviour": 2,
  "name": "• Outer : cow leathe",
  "nameIsFixed": false,
  "resizingConstraint": 63,
  "resizingType": 0,
  "rotation": 0,
  "shouldBreakMaskChain": false,
  "style": {
    "_class": "style",
    "do_objectID": "082DC8BE-00C9-4870-B8D9-4A94863D4BD5",
    "endMarkerType": 0,
    "miterLimit": 10,
    "startMarkerType": 0,
    "textStyle": {
      "_class": "textStyle",
      "do_objectID": "09D5EA75-1812-4906-A4BC-A32724A658B1",
      "encodedAttributes": {
        "MSAttributedStringColorAttribute": {
          "_class": "color",
          "alpha": 1,
          "blue": 0.1764705882,
          "green": 0.1764705882,
          "red": 0.1764705882
        },
        "MSAttributedStringFontAttribute": {
          "_class": "UIFontDescriptor",
          "attributes": {
            "name": "Lato-Regular",
            "size": 14
          }
        },
        "kerning": 0,
        "paragraphStyle": {
          "_class": "paragraphStyle",
          "alignment": 0,
          "baseWritingDirection": 0,
          "headIndent": 36,
          "maximumLineHeight": 28,
          "minimumLineHeight": 28,
          "paragraphSpacing": 10,
          "tabStops": [
            {
              "_class": "textTab",
              "alignment": 0,
              "location": 11,
              "options": {
              }
            },
            {
              "_class": "textTab",
              "alignment": 0,
              "location": 36,
              "options": {
              }
            },
            {
              "_class": "textTab",
              "alignment": 0,
              "location": 56,
              "options": {
              }
            },
            {
              "_class": "textTab",
              "alignment": 0,
              "location": 85,
              "options": {
              }
            },
            {
              "_class": "textTab",
              "alignment": 0,
              "location": 113,
              "options": {
              }
            },
            {
              "_class": "textTab",
              "alignment": 0,
              "location": 141,
              "options": {
              }
            },
            {
              "_class": "textTab",
              "alignment": 0,
              "location": 170,
              "options": {
              }
            },
            {
              "_class": "textTab",
              "alignment": 0,
              "location": 198,
              "options": {
              }
            },
            {
              "_class": "textTab",
              "alignment": 0,
              "location": 226,
              "options": {
              }
            },
            {
              "_class": "textTab",
              "alignment": 0,
              "location": 255,
              "options": {
              }
            },
            {
              "_class": "textTab",
              "alignment": 0,
              "location": 283,
              "options": {
              }
            },
            {
              "_class": "textTab",
              "alignment": 0,
              "location": 311,
              "options": {
              }
            },
            {
              "_class": "textTab",
              "alignment": 0,
              "location": 340,
              "options": {
              }
            }
          ],
          "textLists": [
            {
              "_class": "textList",
              "listOptions": 0,
              "markerFormat": "{disc}"
            }
          ]
        },
        "strokeColor": {
          "_archive": "YnBsaXN0MDDUAQIDBAUGBwpYJHZlcnNpb25ZJGFyY2hpdmVyVCR0b3BYJG9iamVjdHMSAAGGoF8QD05TS2V5ZWRBcmNoaXZlctEICVRyb290gAGjCwwTVSRudWxs0w0ODxARElVOU1JHQlxOU0NvbG9yU3BhY2VWJGNsYXNzTDAuMiAwLjIgMC4yABACgALSFBUWF1okY2xhc3NuYW1lWCRjbGFzc2VzV05TQ29sb3KiFhhYTlNPYmplY3QIERokKTI3SUxRU1ddZGp3fouNj5SfqLCzAAAAAAAAAQEAAAAAAAAAGQAAAAAAAAAAAAAAAAAAALw="
        },
        "strokeWidth": 0
      },
      "verticalAlignment": 0
    },
    "windingRule": 1
  },
  "textBehaviour": 1,
  "userInfo": {
    "com.invisionlabs.duplicate": {
      "type-duplicate": {
        "action": "article",
        "options": {
          "section": "cooking",
          "type": "body"
        },
        "title": "Cooking"
      }
    }
  }
}