{
  "_class": "shapePath",
  "booleanOperation": -1,
  "clippingMaskMode": 0,
  "do_objectID": "B0BBECC6-768D-4D44-8B17-4C34C9C3BDB6",
  "edited": true,
  "exportOptions": {
    "_class": "exportOptions",
    "do_objectID": "38D6319F-F002-44FE-99B3-902191BF7D35",
    "exportFormats": [
    ],
    "includedLayerIds": [
    ],
    "layerOptions": 0,
    "shouldTrim": false
  },
  "frame": {
    "_class": "rect",
    "constrainProportions": false,
    "do_objectID": "31BFC5D1-CF19-4E17-B2A0-AFCFF1AA2357",
    "height": 4.076969696969696,
    "width": 1,
    "x": 3.272121212121213,
    "y": 0.2278787878787876
  },
  "hasClippingMask": false,
  "isClosed": true,
  "isFixedToViewport": false,
  "isFlippedHorizontal": false,
  "isFlippedVertical": false,
  "isLocked": false,
  "isVisible": true,
  "layerListExpandedType": 0,
  "name": "Shape",
  "nameIsFixed": false,
  "pointRadiusBehaviour": 0,
  "points": [
    {
      "_class": "curvePoint",
      "cornerRadius": 0,
      "curveFrom": "{0.13575757575757597, 1}",
      "curveMode": 2,
      "curveTo": "{0.47090909090909178, 1}",
      "hasCurveFrom": true,
      "hasCurveTo": true,
      "point": "{0.30303030303030321, 1}"
    },
    {
      "_class": "curvePoint",
      "cornerRadius": 0,
      "curveFrom": "{0, 0.9256726624052326}",
      "curveMode": 4,
      "curveTo": "{0, 0.96670135275754421}",
      "hasCurveFrom": false,
      "hasCurveTo": true,
      "point": "{0, 0.9256726624052326}"
    },
    {
      "_class": "curvePoint",
      "cornerRadius": 0,
      "curveFrom": "{0, 0.033298647242455806}",
      "curveMode": 4,
      "curveTo": "{0, 0.074327337594767354}",
      "hasCurveFrom": true,
      "hasCurveTo": false,
      "point": "{0, 0.074327337594767354}"
    },
    {
      "_class": "curvePoint",
      "cornerRadius": 0,
      "curveFrom": "{0.47030303030303044, 0}",
      "curveMode": 2,
      "curveTo": "{0.13575757575757597, 0}",
      "hasCurveFrom": true,
      "hasCurveTo": true,
      "point": "{0.30303030303030321, 0}"
    },
    {
      "_class": "curvePoint",
      "cornerRadius": 0,
      "curveFrom": "{0.60606060606060641, 0.074327337594767354}",
      "curveMode": 4,
      "curveTo": "{0.60606060606060641, 0.033298647242455806}",
      "hasCurveFrom": false,
      "hasCurveTo": true,
      "point": "{0.60606060606060641, 0.074327337594767354}"
    },
    {
      "_class": "curvePoint",
      "cornerRadius": 0,
      "curveFrom": "{0.60606060606060641, 0.96670135275754421}",
      "curveMode": 4,
      "curveTo": "{0.60606060606060641, 0.9256726624052326}",
      "hasCurveFrom": true,
      "hasCurveTo": false,
      "point": "{0.60606060606060641, 0.9256726624052326}"
    }
  ],
  "resizingConstraint": 63,
  "resizingType": 0,
  "rotation": 0,
  "shouldBreakMaskChain": false,
  "style": {
    "_class": "style",
    "do_objectID": "6A5CAAD4-3AFC-40CA-B48C-94A6BF113373",
    "endMarkerType": 0,
    "fills": [
      {
        "_class": "fill",
        "color": {
          "_class": "color",
          "alpha": 1,
          "blue": 0.1764705882352941,
          "green": 0.1764705882352941,
          "red": 0.1764705882352941
        },
        "fillType": 0,
        "isEnabled": true,
        "noiseIndex": 0,
        "noiseIntensity": 0,
        "patternFillType": 1,
        "patternTileScale": 1
      }
    ],
    "miterLimit": 10,
    "startMarkerType": 0,
    "windingRule": 0
  }
}