{
  "_class": "symbolMaster",
  "allowsOverrides": true,
  "backgroundColor": {
    "_class": "color",
    "alpha": 1,
    "blue": 1,
    "do_objectID": "4D0476FF-000D-4D61-BC2C-8722A00B0A7C",
    "green": 1,
    "red": 1
  },
  "booleanOperation": -1,
  "changeIdentifier": 1063,
  "clippingMaskMode": 0,
  "do_objectID": "228F1CD7-DD23-49F0-9199-CFADA1DFBBBD",
  "exportOptions": {
    "_class": "exportOptions",
    "do_objectID": "5E3428D9-877F-46B4-9411-C1AA466E0026",
    "exportFormats": [
    ],
    "includedLayerIds": [
    ],
    "layerOptions": 0,
    "shouldTrim": false
  },
  "frame": {
    "_class": "rect",
    "constrainProportions": false,
    "do_objectID": "8C857C73-C195-409A-A972-17E2D2DF45F8",
    "height": 24,
    "width": 383,
    "x": 3420,
    "y": 222
  },
  "groupLayout": {
    "_class": "MSImmutableFreeformGroupLayout"
  },
  "hasBackgroundColor": false,
  "hasClickThrough": true,
  "hasClippingMask": false,
  "horizontalRulerData": {
    "_class": "rulerData",
    "base": 0,
    "do_objectID": "98B543F4-BED5-432D-87A0-8B0531BC516B",
    "guides": [
    ]
  },
  "includeBackgroundColorInExport": true,
  "includeBackgroundColorInInstance": false,
  "includeInCloudUpload": true,
  "isFixedToViewport": false,
  "isFlippedHorizontal": false,
  "isFlippedVertical": false,
  "isFlowHome": false,
  "isLocked": false,
  "isVisible": true,
  "layerListExpandedType": 2,
  "layers": [
    {
      "class": "text",
      "id": "16DF5232-9F37-487E-884D-4205C36422A6"
    },
    {
      "class": "symbolInstance",
      "id": "0AD70CA8-5B71-4816-803C-4F602A6DE16B"
    },
    {
      "class": "text",
      "id": "5F3AB553-D854-4615-8077-91E1944626A9"
    },
    {
      "class": "text",
      "id": "51B2216F-3AA1-486E-BAC7-6DCE36394679"
    },
    {
      "class": "symbolInstance",
      "id": "2E86237E-D6D8-447D-A93D-69B33AE01670"
    },
    {
      "class": "text",
      "id": "2C706F4B-50DB-404F-8357-0B2C9284B2B7"
    },
    {
      "class": "text",
      "id": "DA16B6F8-C79D-4BD8-AC63-02E03077F3BB"
    },
    {
      "class": "text",
      "id": "05F6AEFD-FC1E-4074-BB25-8C3ABCEB4929"
    },
    {
      "class": "text",
      "id": "73A0A9EC-5090-4A87-9BD7-B267BA3965F9"
    },
    {
      "class": "symbolInstance",
      "id": "AC41BC96-38C5-48DC-9CA3-C81AF7E93A47"
    },
    {
      "class": "text",
      "id": "6025EF1E-4D4A-4BE1-A716-EFDF6FBA9201"
    }
  ],
  "name": "breadcrumb / group / overflow",
  "nameIsFixed": true,
  "overrideProperties": [
    {
      "_class": "MSImmutableOverrideProperty",
      "canOverride": true,
      "overrideName": "2E86237E-D6D8-447D-A93D-69B33AE01670_symbolID"
    },
    {
      "_class": "MSImmutableOverrideProperty",
      "canOverride": false,
      "overrideName": "05F6AEFD-FC1E-4074-BB25-8C3ABCEB4929_textStyle"
    },
    {
      "_class": "MSImmutableOverrideProperty",
      "canOverride": true,
      "overrideName": "5F3AB553-D854-4615-8077-91E1944626A9_stringValue"
    },
    {
      "_class": "MSImmutableOverrideProperty",
      "canOverride": false,
      "overrideName": "2C706F4B-50DB-404F-8357-0B2C9284B2B7_textStyle"
    },
    {
      "_class": "MSImmutableOverrideProperty",
      "canOverride": true,
      "overrideName": "0AD70CA8-5B71-4816-803C-4F602A6DE16B_symbolID"
    },
    {
      "_class": "MSImmutableOverrideProperty",
      "canOverride": true,
      "overrideName": "6025EF1E-4D4A-4BE1-A716-EFDF6FBA9201_stringValue"
    },
    {
      "_class": "MSImmutableOverrideProperty",
      "canOverride": false,
      "overrideName": "73A0A9EC-5090-4A87-9BD7-B267BA3965F9_textStyle"
    },
    {
      "_class": "MSImmutableOverrideProperty",
      "canOverride": false,
      "overrideName": "5F3AB553-D854-4615-8077-91E1944626A9_textStyle"
    },
    {
      "_class": "MSImmutableOverrideProperty",
      "canOverride": true,
      "overrideName": "AC41BC96-38C5-48DC-9CA3-C81AF7E93A47_symbolID"
    },
    {
      "_class": "MSImmutableOverrideProperty",
      "canOverride": false,
      "overrideName": "51B2216F-3AA1-486E-BAC7-6DCE36394679_textStyle"
    },
    {
      "_class": "MSImmutableOverrideProperty",
      "canOverride": true,
      "overrideName": "73A0A9EC-5090-4A87-9BD7-B267BA3965F9_stringValue"
    },
    {
      "_class": "MSImmutableOverrideProperty",
      "canOverride": true,
      "overrideName": "05F6AEFD-FC1E-4074-BB25-8C3ABCEB4929_stringValue"
    },
    {
      "_class": "MSImmutableOverrideProperty",
      "canOverride": true,
      "overrideName": "51B2216F-3AA1-486E-BAC7-6DCE36394679_stringValue"
    },
    {
      "_class": "MSImmutableOverrideProperty",
      "canOverride": false,
      "overrideName": "16DF5232-9F37-487E-884D-4205C36422A6_textStyle"
    },
    {
      "_class": "MSImmutableOverrideProperty",
      "canOverride": true,
      "overrideName": "2C706F4B-50DB-404F-8357-0B2C9284B2B7_stringValue"
    },
    {
      "_class": "MSImmutableOverrideProperty",
      "canOverride": false,
      "overrideName": "6025EF1E-4D4A-4BE1-A716-EFDF6FBA9201_textStyle"
    },
    {
      "_class": "MSImmutableOverrideProperty",
      "canOverride": true,
      "overrideName": "16DF5232-9F37-487E-884D-4205C36422A6_stringValue"
    },
    {
      "_class": "MSImmutableOverrideProperty",
      "canOverride": true,
      "overrideName": "DA16B6F8-C79D-4BD8-AC63-02E03077F3BB_stringValue"
    }
  ],
  "resizesContent": false,
  "resizingConstraint": 63,
  "resizingType": 0,
  "rotation": 0,
  "shouldBreakMaskChain": true,
  "style": {
    "_class": "style",
    "do_objectID": "35E9E7E4-39AE-4337-84CB-590665ACFE8C",
    "endMarkerType": 0,
    "miterLimit": 10,
    "startMarkerType": 0,
    "windingRule": 1
  },
  "symbolID": "2742E041-5102-4AD5-9B1C-BD00928C7760",
  "verticalRulerData": {
    "_class": "rulerData",
    "base": 0,
    "do_objectID": "54EAE196-597C-46F4-B484-41C4A2834DC7",
    "guides": [
    ]
  }
}