{
  "_class": "group",
  "booleanOperation": -1,
  "clippingMaskMode": 0,
  "do_objectID": "208ACE81-E135-4C74-907D-A2DF25808654",
  "exportOptions": {
    "_class": "exportOptions",
    "do_objectID": "85C3AF59-E24F-4BD5-8A83-3D023A78EBF8",
    "exportFormats": [
    ],
    "includedLayerIds": [
    ],
    "layerOptions": 0,
    "shouldTrim": false
  },
  "frame": {
    "_class": "rect",
    "constrainProportions": false,
    "do_objectID": "ABAA501B-67A3-4574-8C7B-E995E1063B7C",
    "height": 40,
    "width": 470,
    "x": 0,
    "y": 0
  },
  "groupLayout": {
    "_class": "MSImmutableFreeformGroupLayout",
    "do_objectID": "13424510-F882-45A8-BA8A-B5041EFCD398"
  },
  "hasClickThrough": false,
  "hasClippingMask": false,
  "isFixedToViewport": false,
  "isFlippedHorizontal": false,
  "isFlippedVertical": false,
  "isLocked": false,
  "isVisible": true,
  "layerListExpandedType": 1,
  "layers": [
    {
      "class": "rectangle",
      "id": "2310B067-643F-47E9-8AC9-52EE25038726"
    }
  ],
  "name": "state",
  "nameIsFixed": false,
  "resizingConstraint": 63,
  "resizingType": 0,
  "rotation": 0,
  "shouldBreakMaskChain": false,
  "style": {
    "_class": "style",
    "do_objectID": "DA263CD1-68EE-4580-B8A6-0F9F01C5C8B3",
    "endMarkerType": 0,
    "miterLimit": 10,
    "startMarkerType": 0,
    "windingRule": 1
  }
}