{
  "_class": "symbolInstance",
  "booleanOperation": -1,
  "clippingMaskMode": 0,
  "do_objectID": "6D9467D0-78B6-456B-9F6E-2A8057FB07DD",
  "exportOptions": {
    "_class": "exportOptions",
    "do_objectID": "17854294-26E6-47D4-906F-65E47AEEBE6D",
    "exportFormats": [
    ],
    "includedLayerIds": [
    ],
    "layerOptions": 0,
    "shouldTrim": false
  },
  "frame": {
    "_class": "rect",
    "constrainProportions": false,
    "do_objectID": "B3C6E14D-5901-4C2E-A199-5798ABF9DBCA",
    "height": 16,
    "width": 14.81374321880651,
    "x": 7.406871609403255,
    "y": 8
  },
  "hasClippingMask": false,
  "horizontalSpacing": 0,
  "isFixedToViewport": false,
  "isFlippedHorizontal": false,
  "isFlippedVertical": false,
  "isLocked": false,
  "isVisible": true,
  "layerListExpandedType": 0,
  "name": "icon/image/search/16",
  "nameIsFixed": false,
  "overrideValues": [
    {
      "_class": "overrideValue",
      "do_objectID": "A5DC1BA1-4550-4116-A27F-0C1DE5043155",
      "overrideName": "2E263EF5-BDBF-4557-9D0B-7C965E3A09F2_layerStyle",
      "value": "E36C350A-5952-4CFA-86A6-CA31D97B0B31"
    }
  ],
  "resizingConstraint": 9,
  "resizingType": 0,
  "rotation": 0,
  "scale": 1,
  "shouldBreakMaskChain": false,
  "style": {
    "_class": "style",
    "do_objectID": "F3913D6E-9058-4A14-A9D8-C3062F1DB1F7",
    "endMarkerType": 0,
    "miterLimit": 10,
    "startMarkerType": 0,
    "windingRule": 1
  },
  "symbolID": "E2EA40B6-A7F9-4917-8FF4-D7F29DD825A6",
  "verticalSpacing": 0
}