{
  "_class": "shapePath",
  "booleanOperation": -1,
  "clippingMaskMode": 0,
  "do_objectID": "1D20EFE1-5D4B-4BEA-A5CA-EA26C6F557BD",
  "edited": true,
  "exportOptions": {
    "_class": "exportOptions",
    "do_objectID": "78595537-F32B-4442-9F53-9EF94D036BBC",
    "exportFormats": [
    ],
    "includedLayerIds": [
    ],
    "layerOptions": 0,
    "shouldTrim": false
  },
  "frame": {
    "_class": "rect",
    "constrainProportions": false,
    "do_objectID": "FAC6662D-108F-4457-A491-DB0920103899",
    "height": 6.992908587257632,
    "width": 7.338878787878762,
    "x": 2.363878787878829,
    "y": 2.475900277008264
  },
  "hasClippingMask": false,
  "isClosed": true,
  "isFixedToViewport": false,
  "isFlippedHorizontal": false,
  "isFlippedVertical": false,
  "isLocked": false,
  "isVisible": true,
  "layerListExpandedType": 0,
  "name": "Path",
  "nameIsFixed": false,
  "pointRadiusBehaviour": 0,
  "points": [
    {
      "_class": "curvePoint",
      "cornerRadius": 0,
      "curveFrom": "{0.49958915365653245, 0.8031088082901553}",
      "curveMode": 1,
      "curveTo": "{0.49958915365653245, 0.8031088082901553}",
      "hasCurveFrom": false,
      "hasCurveTo": false,
      "point": "{0.49958915365653245, 0.8031088082901553}"
    },
    {
      "_class": "curvePoint",
      "cornerRadius": 0,
      "curveFrom": "{0.19063270336894003, 0.99913644214162334}",
      "curveMode": 1,
      "curveTo": "{0.19063270336894003, 0.99913644214162334}",
      "hasCurveFrom": false,
      "hasCurveTo": false,
      "point": "{0.19063270336894003, 0.99913644214162334}"
    },
    {
      "_class": "curvePoint",
      "cornerRadius": 0,
      "curveFrom": "{0.27280197206244866, 0.62953367875647659}",
      "curveMode": 1,
      "curveTo": "{0.27280197206244866, 0.62953367875647659}",
      "hasCurveFrom": false,
      "hasCurveTo": false,
      "point": "{0.27280197206244866, 0.62953367875647659}"
    },
    {
      "_class": "curvePoint",
      "cornerRadius": 0,
      "curveFrom": "{0, 0.38082901554404147}",
      "curveMode": 1,
      "curveTo": "{0, 0.38082901554404147}",
      "hasCurveFrom": false,
      "hasCurveTo": false,
      "point": "{0, 0.38082901554404147}"
    },
    {
      "_class": "curvePoint",
      "cornerRadius": 0,
      "curveFrom": "{0.35990139687756784, 0.34801381692573402}",
      "curveMode": 1,
      "curveTo": "{0.35990139687756784, 0.34801381692573402}",
      "hasCurveFrom": false,
      "hasCurveTo": false,
      "point": "{0.35990139687756784, 0.34801381692573402}"
    },
    {
      "_class": "curvePoint",
      "cornerRadius": 0,
      "curveFrom": "{0.49958915365653245, 0}",
      "curveMode": 1,
      "curveTo": "{0.49958915365653245, 0}",
      "hasCurveFrom": false,
      "hasCurveTo": false,
      "point": "{0.49958915365653245, 0}"
    },
    {
      "_class": "curvePoint",
      "cornerRadius": 0,
      "curveFrom": "{0.64009860312243227, 0.34887737478411052}",
      "curveMode": 1,
      "curveTo": "{0.64009860312243227, 0.34887737478411052}",
      "hasCurveFrom": false,
      "hasCurveTo": false,
      "point": "{0.64009860312243227, 0.34887737478411052}"
    },
    {
      "_class": "curvePoint",
      "cornerRadius": 0,
      "curveFrom": "{1, 0.38169257340241797}",
      "curveMode": 1,
      "curveTo": "{1, 0.38169257340241797}",
      "hasCurveFrom": false,
      "hasCurveTo": false,
      "point": "{1, 0.38169257340241797}"
    },
    {
      "_class": "curvePoint",
      "cornerRadius": 0,
      "curveFrom": "{0.72719802793755128, 0.63039723661485325}",
      "curveMode": 1,
      "curveTo": "{0.72719802793755128, 0.63039723661485325}",
      "hasCurveFrom": false,
      "hasCurveTo": false,
      "point": "{0.72719802793755128, 0.63039723661485325}"
    },
    {
      "_class": "curvePoint",
      "cornerRadius": 0,
      "curveFrom": "{0.80936729663106, 1}",
      "curveMode": 1,
      "curveTo": "{0.80936729663106, 1}",
      "hasCurveFrom": false,
      "hasCurveTo": false,
      "point": "{0.80936729663106, 1}"
    },
    {
      "_class": "curvePoint",
      "cornerRadius": 0,
      "curveFrom": "{0.49958915365653245, 0.8031088082901553}",
      "curveMode": 1,
      "curveTo": "{0.49958915365653245, 0.8031088082901553}",
      "hasCurveFrom": false,
      "hasCurveTo": false,
      "point": "{0.49958915365653245, 0.8031088082901553}"
    }
  ],
  "resizingConstraint": 63,
  "resizingType": 0,
  "rotation": 0,
  "shouldBreakMaskChain": false,
  "style": {
    "_class": "style",
    "do_objectID": "B43B7D67-7A55-4A49-A47A-BFE307FA6EF1",
    "endMarkerType": 0,
    "fills": [
      {
        "_class": "fill",
        "color": {
          "_class": "color",
          "alpha": 1,
          "blue": 0,
          "green": 0.6235294117647059,
          "red": 1
        },
        "fillType": 0,
        "isEnabled": true,
        "noiseIndex": 0,
        "noiseIntensity": 0,
        "patternFillType": 0,
        "patternTileScale": 1
      }
    ],
    "miterLimit": 10,
    "startMarkerType": 0,
    "windingRule": 1
  }
}