{
  "_class": "symbolInstance",
  "booleanOperation": -1,
  "clippingMaskMode": 0,
  "do_objectID": "C007A687-E6E0-4362-9641-B531D089925F",
  "exportOptions": {
    "_class": "exportOptions",
    "do_objectID": "3207B94D-BFCF-4F54-AF66-98326FD3E257",
    "exportFormats": [
    ],
    "includedLayerIds": [
    ],
    "layerOptions": 0,
    "shouldTrim": false
  },
  "frame": {
    "_class": "rect",
    "constrainProportions": false,
    "do_objectID": "6C611311-88D7-4750-99A8-3B4B1F6CF478",
    "height": 24,
    "width": 124,
    "x": 0,
    "y": 24
  },
  "hasClippingMask": false,
  "horizontalSpacing": 0,
  "isFixedToViewport": false,
  "isFlippedHorizontal": false,
  "isFlippedVertical": false,
  "isLocked": false,
  "isVisible": true,
  "layerListExpandedType": 0,
  "name": "Item 1",
  "nameIsFixed": true,
  "overrideValues": [
  ],
  "resizingConstraint": 26,
  "resizingType": 0,
  "rotation": 0,
  "scale": 1,
  "shouldBreakMaskChain": false,
  "style": {
    "_class": "style",
    "do_objectID": "31375397-9FA7-4F9C-B21C-C0EF46DCEFC0",
    "endMarkerType": 0,
    "miterLimit": 10,
    "startMarkerType": 0,
    "windingRule": 1
  },
  "symbolID": "10849CD7-90C0-432F-BE45-9BB1A93EBAB8",
  "userInfo": {
    "com.animaapp.stc-sketch-plugin": {
      "kModelPropertiesKey": {
      }
    }
  },
  "verticalSpacing": 0
}