{
  "_class": "symbolMaster",
  "allowsOverrides": true,
  "backgroundColor": {
    "_class": "color",
    "alpha": 1,
    "blue": 1,
    "do_objectID": "CBD2AF31-1D6F-4713-9638-A6746BA590DD",
    "green": 1,
    "red": 1
  },
  "booleanOperation": -1,
  "changeIdentifier": 1232,
  "clippingMaskMode": 0,
  "do_objectID": "D8198789-88CD-4BA0-AA04-3626C2F94748",
  "exportOptions": {
    "_class": "exportOptions",
    "do_objectID": "22160AAC-1E26-4C58-A6A5-C199C963420A",
    "exportFormats": [
    ],
    "includedLayerIds": [
    ],
    "layerOptions": 0,
    "shouldTrim": false
  },
  "frame": {
    "_class": "rect",
    "constrainProportions": false,
    "do_objectID": "017D796F-0764-4CB4-9938-9604020C8FEA",
    "height": 112,
    "width": 127,
    "x": 14417,
    "y": 228
  },
  "grid": {
    "_class": "simpleGrid",
    "gridSize": 8,
    "isEnabled": true,
    "thickGridTimes": 0
  },
  "groupLayout": {
    "_class": "MSImmutableFreeformGroupLayout"
  },
  "hasBackgroundColor": false,
  "hasClickThrough": true,
  "hasClippingMask": false,
  "horizontalRulerData": {
    "_class": "rulerData",
    "base": 0,
    "do_objectID": "D7D66642-625A-46D8-B608-7B9B291E4842",
    "guides": [
    ]
  },
  "includeBackgroundColorInExport": true,
  "includeBackgroundColorInInstance": false,
  "includeInCloudUpload": true,
  "isFixedToViewport": false,
  "isFlippedHorizontal": false,
  "isFlippedVertical": false,
  "isFlowHome": false,
  "isLocked": false,
  "isVisible": true,
  "layerListExpandedType": 2,
  "layers": [
    {
      "class": "symbolInstance",
      "id": "98AF2D67-665F-4AA1-80DE-33D905E68FFD"
    },
    {
      "class": "symbolInstance",
      "id": "2966E28C-68CB-4DED-8CB6-77F1B8BF6637"
    },
    {
      "class": "symbolInstance",
      "id": "C007A687-E6E0-4362-9641-B531D089925F"
    },
    {
      "class": "text",
      "id": "7CB50224-0542-43E7-AE79-55D2B06A6B01"
    }
  ],
  "name": "checkbox / group / 3",
  "nameIsFixed": true,
  "overrideProperties": [
    {
      "_class": "MSImmutableOverrideProperty",
      "canOverride": true,
      "overrideName": "98AF2D67-665F-4AA1-80DE-33D905E68FFD_symbolID"
    },
    {
      "_class": "MSImmutableOverrideProperty",
      "canOverride": false,
      "overrideName": "7CB50224-0542-43E7-AE79-55D2B06A6B01_textStyle"
    },
    {
      "_class": "MSImmutableOverrideProperty",
      "canOverride": true,
      "overrideName": "2966E28C-68CB-4DED-8CB6-77F1B8BF6637_symbolID"
    },
    {
      "_class": "MSImmutableOverrideProperty",
      "canOverride": true,
      "overrideName": "C007A687-E6E0-4362-9641-B531D089925F_symbolID"
    },
    {
      "_class": "MSImmutableOverrideProperty",
      "canOverride": true,
      "overrideName": "7CB50224-0542-43E7-AE79-55D2B06A6B01_stringValue"
    }
  ],
  "resizesContent": false,
  "resizingConstraint": 63,
  "resizingType": 0,
  "rotation": 0,
  "shouldBreakMaskChain": true,
  "style": {
    "_class": "style",
    "do_objectID": "E67634F7-06A8-4A52-B570-C887A532B817",
    "endMarkerType": 0,
    "miterLimit": 10,
    "startMarkerType": 0,
    "windingRule": 1
  },
  "symbolID": "07811816-F5AB-4DB0-9984-F4EEB7E38027",
  "userInfo": {
    "com.animaapp.stc-sketch-plugin": {
      "kModelPropertiesKey": {
      }
    }
  },
  "verticalRulerData": {
    "_class": "rulerData",
    "base": 0,
    "do_objectID": "C99BA05B-2078-4546-974C-D05D17C25E44",
    "guides": [
    ]
  }
}