{
  "_class": "artboard",
  "backgroundColor": {
    "_class": "color",
    "alpha": 1,
    "blue": 1,
    "do_objectID": "CC0BFDD6-8DEB-404C-83DF-743A62A926D7",
    "green": 1,
    "red": 1
  },
  "booleanOperation": 0,
  "clippingMaskMode": 0,
  "do_objectID": "863D6CDB-C7E2-4B54-866C-4814EAED95AE",
  "exportOptions": {
    "_class": "exportOptions",
    "do_objectID": "AF4A829F-540B-420E-B1AC-6CD8D0DF344E",
    "exportFormats": [
      {
        "_class": "exportFormat",
        "absoluteSize": 0,
        "fileFormat": "jpg",
        "name": "",
        "namingScheme": 0,
        "scale": 2,
        "visibleScaleType": 0
      }
    ],
    "includedLayerIds": [
    ],
    "layerOptions": 0,
    "shouldTrim": false
  },
  "frame": {
    "_class": "rect",
    "constrainProportions": false,
    "do_objectID": "FF0F88E7-5889-43A6-BBE7-7171163103FD",
    "height": 5159,
    "width": 1366,
    "x": 9007,
    "y": 531
  },
  "groupLayout": {
    "_class": "MSImmutableFreeformGroupLayout",
    "do_objectID": "19E595A3-6F26-4B59-9AD6-E3E17D1E9567"
  },
  "hasBackgroundColor": true,
  "hasClickThrough": true,
  "hasClippingMask": false,
  "horizontalRulerData": {
    "_class": "rulerData",
    "base": 0,
    "do_objectID": "9CF8A121-55F1-4B96-AD88-CE30B6C79A18",
    "guides": [
      0,
      1351,
      1366,
      15,
      683,
      1326,
      40,
      677,
      690
    ]
  },
  "includeBackgroundColorInExport": true,
  "includeInCloudUpload": true,
  "isFixedToViewport": false,
  "isFlippedHorizontal": false,
  "isFlippedVertical": false,
  "isFlowHome": false,
  "isLocked": false,
  "isVisible": true,
  "layerListExpandedType": 1,
  "layers": [
    {
      "class": "symbolInstance",
      "id": "4B259860-5E1E-49F7-BE12-FF3488F6F32C"
    },
    {
      "class": "symbolInstance",
      "id": "0A0D02D0-B5E7-4855-9DD6-31A0CA176991"
    },
    {
      "class": "symbolInstance",
      "id": "09C6B88F-54A4-4FAA-A299-5E4741FF07B9"
    },
    {
      "class": "symbolInstance",
      "id": "D61A90F0-69FC-4096-A318-F26CF9987EDD"
    },
    {
      "class": "rectangle",
      "id": "48A8E745-25DA-45A2-B3A8-2058EFFD15CE"
    },
    {
      "class": "text",
      "id": "9DD68452-4D23-420E-93D7-F1F0A08FA8E9"
    },
    {
      "class": "symbolInstance",
      "id": "15B7A9BB-E131-4903-93C5-7F80FCD9753D"
    },
    {
      "class": "symbolInstance",
      "id": "32D35DE1-BA66-47B3-ACBF-B8261E356A72"
    },
    {
      "class": "symbolInstance",
      "id": "CD62E432-DBA5-4EC2-B6D5-A826884FC497"
    },
    {
      "class": "symbolInstance",
      "id": "FE0D4EE5-8738-47F3-9961-4FB40379A092"
    },
    {
      "class": "symbolInstance",
      "id": "7ECF285F-64DB-42F2-B813-F438F2236B8E"
    },
    {
      "class": "symbolInstance",
      "id": "1210B3C7-12D6-42AC-AD5D-81A8AA9948FC"
    },
    {
      "class": "symbolInstance",
      "id": "B1C7D418-AA5B-4258-A233-297E50389A85"
    }
  ],
  "layout": {
    "_class": "layoutGrid",
    "columnWidth": 67.5,
    "do_objectID": "62A708FE-631C-4A5B-B23B-FBD2859E654C",
    "drawHorizontal": true,
    "drawHorizontalLines": false,
    "drawVertical": true,
    "gutterHeight": 12,
    "gutterWidth": 30,
    "guttersOutside": true,
    "horizontalOffset": 98,
    "isEnabled": false,
    "numberOfColumns": 12,
    "rowHeightMultiplication": 5,
    "totalWidth": 1170
  },
  "name": "07 Category Landing Page - Handbags",
  "nameIsFixed": true,
  "resizesContent": false,
  "resizingConstraint": 63,
  "resizingType": 0,
  "rotation": 0,
  "shouldBreakMaskChain": true,
  "style": {
    "_class": "style",
    "do_objectID": "278861DA-371F-4713-9CB0-D90AF55E9699",
    "endMarkerType": 0,
    "miterLimit": 10,
    "startMarkerType": 0,
    "windingRule": 1
  },
  "verticalRulerData": {
    "_class": "rulerData",
    "base": 0,
    "do_objectID": "AB1493E4-2FE7-43D5-B77E-A6720DAF1D69",
    "guides": [
      -36,
      -232,
      70,
      90,
      -171,
      80,
      88,
      -68,
      -48,
      -217,
      -34,
      0,
      215,
      300,
      200,
      157,
      570,
      590
    ]
  }
}