{
  "_class": "rectangle",
  "booleanOperation": -1,
  "clippingMaskMode": 0,
  "do_objectID": "363BBB94-5DE3-4EF1-B5D1-F33BFCF75F37",
  "edited": true,
  "exportOptions": {
    "_class": "exportOptions",
    "do_objectID": "0B771DE1-6CF7-4994-BB3E-C7FC836FA64B",
    "exportFormats": [
    ],
    "includedLayerIds": [
    ],
    "layerOptions": 0,
    "shouldTrim": false
  },
  "fixedRadius": 0,
  "frame": {
    "_class": "rect",
    "constrainProportions": false,
    "do_objectID": "DB838A84-CC8A-49EC-A4C7-B0BA086A680C",
    "height": 120,
    "width": 288,
    "x": 0,
    "y": 24
  },
  "hasClippingMask": false,
  "hasConvertedToNewRoundCorners": true,
  "isClosed": true,
  "isFixedToViewport": false,
  "isFlippedHorizontal": false,
  "isFlippedVertical": false,
  "isLocked": false,
  "isVisible": true,
  "layerListExpandedType": 0,
  "name": "Field color",
  "nameIsFixed": true,
  "pointRadiusBehaviour": 0,
  "points": [
    {
      "_class": "curvePoint",
      "cornerRadius": 0,
      "curveFrom": "{0, 0}",
      "curveMode": 1,
      "curveTo": "{0, 0}",
      "hasCurveFrom": false,
      "hasCurveTo": false,
      "point": "{0, 0}"
    },
    {
      "_class": "curvePoint",
      "cornerRadius": 0,
      "curveFrom": "{1, 0}",
      "curveMode": 1,
      "curveTo": "{1, 0}",
      "hasCurveFrom": false,
      "hasCurveTo": false,
      "point": "{1, 0}"
    },
    {
      "_class": "curvePoint",
      "cornerRadius": 0,
      "curveFrom": "{1, 1.0000000000000002}",
      "curveMode": 1,
      "curveTo": "{1, 1.0000000000000002}",
      "hasCurveFrom": false,
      "hasCurveTo": false,
      "point": "{1, 1.0000000000000002}"
    },
    {
      "_class": "curvePoint",
      "cornerRadius": 0,
      "curveFrom": "{0, 1.0000000000000002}",
      "curveMode": 1,
      "curveTo": "{0, 1.0000000000000002}",
      "hasCurveFrom": false,
      "hasCurveTo": false,
      "point": "{0, 1.0000000000000002}"
    }
  ],
  "resizingConstraint": 27,
  "resizingType": 0,
  "rotation": 0,
  "sharedStyleID": "D110154E-BEC2-48DB-B123-BA4EEACF38FE",
  "shouldBreakMaskChain": false,
  "style": {
    "_class": "style",
    "do_objectID": "BE732796-9312-4A14-9BCF-62CAA16CD90A",
    "endMarkerType": 0,
    "fills": [
      {
        "_class": "fill",
        "color": {
          "_class": "color",
          "alpha": 1,
          "blue": 0.9529411764705882,
          "green": 0.9529411764705882,
          "red": 0.9529411764705882
        },
        "fillType": 0,
        "isEnabled": true,
        "noiseIndex": 0,
        "noiseIntensity": 0,
        "patternFillType": 0,
        "patternTileScale": 1
      }
    ],
    "miterLimit": 10,
    "startMarkerType": 0,
    "windingRule": 1
  }
}