{
  "_class": "symbolInstance",
  "booleanOperation": -1,
  "clippingMaskMode": 0,
  "do_objectID": "722080B8-6EBD-4BEE-A1BC-57AC935C381E",
  "exportOptions": {
    "_class": "exportOptions",
    "do_objectID": "A606BB09-2FC4-42AE-B35D-656F9F2EC2AD",
    "exportFormats": [
    ],
    "includedLayerIds": [
    ],
    "layerOptions": 0,
    "shouldTrim": false
  },
  "frame": {
    "_class": "rect",
    "constrainProportions": false,
    "do_objectID": "4E82F7D2-2B62-424F-9D37-7FBD0C028890",
    "height": 32,
    "width": 256,
    "x": 0,
    "y": 176
  },
  "hasClippingMask": false,
  "horizontalSpacing": 0,
  "isFixedToViewport": false,
  "isFlippedHorizontal": false,
  "isFlippedVertical": false,
  "isLocked": false,
  "isVisible": true,
  "layerListExpandedType": 0,
  "name": "Sub-menu",
  "nameIsFixed": true,
  "overrideValues": [
    {
      "_class": "overrideValue",
      "do_objectID": "D4D20346-ECF2-48FA-BC3B-5D01159C58AE",
      "overrideName": "F4899B64-336B-4625-91E2-24B9CFBAC1E1_stringValue",
      "value": "Sub-menu 3"
    }
  ],
  "resizingConstraint": 63,
  "resizingType": 0,
  "rotation": 0,
  "scale": 1,
  "shouldBreakMaskChain": false,
  "style": {
    "_class": "style",
    "do_objectID": "325A6838-043D-4E06-8C63-8186D02D82A9",
    "endMarkerType": 0,
    "miterLimit": 10,
    "startMarkerType": 0,
    "windingRule": 1
  },
  "symbolID": "61A93371-E871-4533-9904-4D69AC647FAD",
  "verticalSpacing": 0
}