{
  "_class": "symbolMaster",
  "allowsOverrides": true,
  "backgroundColor": {
    "_class": "color",
    "alpha": 1,
    "blue": 0.984313725490196,
    "green": 0.9686274509803923,
    "red": 0.9568627450980391
  },
  "booleanOperation": -1,
  "changeIdentifier": 938,
  "clippingMaskMode": 0,
  "do_objectID": "2FCD82BB-692E-41C5-9272-6CC90B302CF2",
  "exportOptions": {
    "_class": "exportOptions",
    "exportFormats": [
    ],
    "includedLayerIds": [
    ],
    "layerOptions": 0,
    "shouldTrim": false
  },
  "frame": {
    "_class": "rect",
    "constrainProportions": false,
    "height": 64,
    "width": 120,
    "x": 52218,
    "y": 228
  },
  "groupLayout": {
    "_class": "MSImmutableFreeformGroupLayout"
  },
  "hasBackgroundColor": false,
  "hasClickThrough": true,
  "hasClippingMask": false,
  "horizontalRulerData": {
    "_class": "rulerData",
    "base": 0,
    "guides": [
    ]
  },
  "includeBackgroundColorInExport": false,
  "includeBackgroundColorInInstance": false,
  "includeInCloudUpload": true,
  "isFixedToViewport": false,
  "isFlippedHorizontal": false,
  "isFlippedVertical": false,
  "isFlowHome": false,
  "isLocked": false,
  "isVisible": true,
  "layerListExpandedType": 2,
  "layers": [
    {
      "class": "group",
      "id": "940DDC86-2CC1-4778-8355-971B714EEAF1"
    },
    {
      "class": "text",
      "id": "4E06B58A-0F6B-4EA2-B525-17F97DC09BBF"
    },
    {
      "class": "text",
      "id": "9DD20ED3-D72F-4858-B60D-25A0331B009C"
    },
    {
      "class": "rectangle",
      "id": "0AE46D2D-E097-46D8-B447-7FA84345DF6D"
    }
  ],
  "name": "date picker / 01 simple date / mm-dd-yyyy / 03 focus",
  "nameIsFixed": true,
  "overrideProperties": [
    {
      "_class": "MSImmutableOverrideProperty",
      "canOverride": false,
      "overrideName": "47793CB7-A656-4C05-BE57-328D49CD73C3_layerStyle"
    },
    {
      "_class": "MSImmutableOverrideProperty",
      "canOverride": false,
      "overrideName": "701D4441-476A-4CFE-B0E7-6B78F4F2B10A_layerStyle"
    },
    {
      "_class": "MSImmutableOverrideProperty",
      "canOverride": true,
      "overrideName": "3368C81A-8470-4165-AE9F-0ABEE70634C0_layerStyle"
    },
    {
      "_class": "MSImmutableOverrideProperty",
      "canOverride": false,
      "overrideName": "4E06B58A-0F6B-4EA2-B525-17F97DC09BBF_textStyle"
    },
    {
      "_class": "MSImmutableOverrideProperty",
      "canOverride": true,
      "overrideName": "9DD20ED3-D72F-4858-B60D-25A0331B009C_stringValue"
    },
    {
      "_class": "MSImmutableOverrideProperty",
      "canOverride": false,
      "overrideName": "9DD20ED3-D72F-4858-B60D-25A0331B009C_textStyle"
    },
    {
      "_class": "MSImmutableOverrideProperty",
      "canOverride": true,
      "overrideName": "4E06B58A-0F6B-4EA2-B525-17F97DC09BBF_stringValue"
    }
  ],
  "resizesContent": true,
  "resizingConstraint": 63,
  "resizingType": 0,
  "rotation": 0,
  "shouldBreakMaskChain": true,
  "style": {
    "_class": "style",
    "endMarkerType": 0,
    "miterLimit": 10,
    "startMarkerType": 0,
    "windingRule": 1
  },
  "symbolID": "92461961-E5B6-43DA-B9DB-F60FEF12A4C0",
  "verticalRulerData": {
    "_class": "rulerData",
    "base": 0,
    "guides": [
    ]
  }
}