{
  "_class": "shapePath",
  "booleanOperation": -1,
  "clippingMaskMode": 0,
  "do_objectID": "B7398294-4AD3-424B-88A6-D7AB18093647",
  "edited": true,
  "exportOptions": {
    "_class": "exportOptions",
    "do_objectID": "A73E3C36-F365-4EAC-AAB3-C79AC55E5A79",
    "exportFormats": [
    ],
    "includedLayerIds": [
    ],
    "layerOptions": 0,
    "shouldTrim": false
  },
  "frame": {
    "_class": "rect",
    "constrainProportions": false,
    "do_objectID": "058335E6-9D8A-4113-B58D-EFD92BF43ED3",
    "height": 1.018503095919177,
    "width": 2.181959403204218,
    "x": 26.2359465980037,
    "y": 8.651482782344212
  },
  "hasClippingMask": false,
  "isClosed": true,
  "isFixedToViewport": false,
  "isFlippedHorizontal": false,
  "isFlippedVertical": false,
  "isLocked": false,
  "isVisible": true,
  "layerListExpandedType": 0,
  "name": "Path",
  "nameIsFixed": false,
  "pointRadiusBehaviour": 0,
  "points": [
    {
      "_class": "curvePoint",
      "cornerRadius": 0,
      "curveFrom": "{0, 1}",
      "curveMode": 1,
      "curveTo": "{0, 1}",
      "hasCurveFrom": false,
      "hasCurveTo": false,
      "point": "{0, 1}"
    },
    {
      "_class": "curvePoint",
      "cornerRadius": 0,
      "curveFrom": "{0.84407427635172094, 1}",
      "curveMode": 4,
      "curveTo": "{0.65401419989077114, 1}",
      "hasCurveFrom": true,
      "hasCurveTo": false,
      "point": "{0.65401419989077114, 1}"
    },
    {
      "_class": "curvePoint",
      "cornerRadius": 0,
      "curveFrom": "{1, 0.2229806598407279}",
      "curveMode": 2,
      "curveTo": "{1, 0.7770193401592721}",
      "hasCurveFrom": true,
      "hasCurveTo": true,
      "point": "{1, 0.5}"
    },
    {
      "_class": "curvePoint",
      "cornerRadius": 0,
      "curveFrom": "{0.65401419989077114, 0}",
      "curveMode": 4,
      "curveTo": "{0.84407427635172094, 0}",
      "hasCurveFrom": false,
      "hasCurveTo": true,
      "point": "{0.65401419989077114, 0}"
    },
    {
      "_class": "curvePoint",
      "cornerRadius": 0,
      "curveFrom": "{0, 0}",
      "curveMode": 1,
      "curveTo": "{0, 0}",
      "hasCurveFrom": false,
      "hasCurveTo": false,
      "point": "{0, 0}"
    },
    {
      "_class": "curvePoint",
      "cornerRadius": 0,
      "curveFrom": "{0, 1}",
      "curveMode": 1,
      "curveTo": "{0, 1}",
      "hasCurveFrom": false,
      "hasCurveTo": false,
      "point": "{0, 1}"
    }
  ],
  "resizingConstraint": 63,
  "resizingType": 0,
  "rotation": 0,
  "shouldBreakMaskChain": false,
  "style": {
    "_class": "style",
    "blur": {
      "_class": "blur",
      "center": "{0.5, 0.5}",
      "do_objectID": "B5285ADA-9DC1-4F32-94EA-8C55C18B153C",
      "isEnabled": false,
      "motionAngle": 0,
      "radius": 7.447977209189739,
      "saturation": 1,
      "type": 0
    },
    "do_objectID": "5DF4240B-EDC6-48C2-8F8B-743393EAFD1F",
    "endMarkerType": 0,
    "fills": [
      {
        "_class": "fill",
        "color": {
          "_class": "color",
          "alpha": 1,
          "blue": 1,
          "green": 1,
          "red": 1
        },
        "fillType": 0,
        "isEnabled": true,
        "noiseIndex": 0,
        "noiseIntensity": 0,
        "patternFillType": 1,
        "patternTileScale": 1
      }
    ],
    "miterLimit": 10,
    "startMarkerType": 0,
    "windingRule": 1
  }
}