{
  "_class": "symbolInstance",
  "booleanOperation": -1,
  "clippingMaskMode": 0,
  "do_objectID": "CCED8176-6F80-4231-BE4B-5F6C3FF9872C",
  "exportOptions": {
    "_class": "exportOptions",
    "do_objectID": "E3D776A5-7D8E-4FED-A3E4-BB3E5B45410F",
    "exportFormats": [
    ],
    "includedLayerIds": [
    ],
    "layerOptions": 0,
    "shouldTrim": false
  },
  "frame": {
    "_class": "rect",
    "constrainProportions": false,
    "do_objectID": "3A4C058D-76BC-4F19-AA27-18E038DBCA8E",
    "height": 20,
    "width": 20,
    "x": 16,
    "y": 6
  },
  "hasClippingMask": false,
  "horizontalSpacing": 0,
  "isFixedToViewport": false,
  "isFlippedHorizontal": false,
  "isFlippedVertical": false,
  "isLocked": false,
  "isVisible": true,
  "layerListExpandedType": 0,
  "name": "icon",
  "nameIsFixed": true,
  "overrideValues": [
  ],
  "resizingConstraint": 9,
  "resizingType": 0,
  "rotation": 0,
  "scale": 1,
  "shouldBreakMaskChain": false,
  "style": {
    "_class": "style",
    "do_objectID": "4EAEF671-AAEF-481B-B69A-BC624AA48B61",
    "endMarkerType": 0,
    "miterLimit": 10,
    "startMarkerType": 0,
    "windingRule": 1
  },
  "symbolID": "726EF849-A615-4D91-B47B-422070830A61",
  "verticalSpacing": 0
}