{
  "_class": "symbolMaster",
  "allowsOverrides": true,
  "backgroundColor": {
    "_class": "color",
    "alpha": 1,
    "blue": 1,
    "do_objectID": "9963CCFD-C6B4-4E7D-B2E7-5B60681C0106",
    "green": 1,
    "red": 1
  },
  "booleanOperation": -1,
  "changeIdentifier": 872,
  "clippingMaskMode": 0,
  "do_objectID": "E1097E21-D909-4AD9-9197-2ABE38CEE2A6",
  "exportOptions": {
    "_class": "exportOptions",
    "do_objectID": "1C14C798-80F3-4D3A-9B92-8FCFB7A00E25",
    "exportFormats": [
    ],
    "includedLayerIds": [
    ],
    "layerOptions": 0,
    "shouldTrim": false
  },
  "frame": {
    "_class": "rect",
    "constrainProportions": false,
    "do_objectID": "19459874-0D1A-4C08-A8A3-2874051A55A7",
    "height": 32,
    "width": 200,
    "x": 19629,
    "y": 246
  },
  "groupLayout": {
    "_class": "MSImmutableFreeformGroupLayout"
  },
  "hasBackgroundColor": false,
  "hasClickThrough": true,
  "hasClippingMask": false,
  "horizontalRulerData": {
    "_class": "rulerData",
    "base": 0,
    "do_objectID": "86257351-6936-46A1-B710-399612125C9A",
    "guides": [
    ]
  },
  "includeBackgroundColorInExport": true,
  "includeBackgroundColorInInstance": false,
  "includeInCloudUpload": true,
  "isFixedToViewport": false,
  "isFlippedHorizontal": false,
  "isFlippedVertical": false,
  "isFlowHome": false,
  "isLocked": false,
  "isVisible": true,
  "layerListExpandedType": 0,
  "layers": [
    {
      "class": "rectangle",
      "id": "D2F065E5-A1B4-43FF-96AC-EBB46B97609B"
    },
    {
      "class": "text",
      "id": "BFF45C29-DD65-4797-8ACB-D2C07A3CB603"
    },
    {
      "class": "symbolInstance",
      "id": "CCED8176-6F80-4231-BE4B-5F6C3FF9872C"
    }
  ],
  "name": "data table / cell / 32 short / column header / selectable",
  "nameIsFixed": true,
  "overrideProperties": [
    {
      "_class": "MSImmutableOverrideProperty",
      "canOverride": false,
      "overrideName": "BFF45C29-DD65-4797-8ACB-D2C07A3CB603_textStyle"
    },
    {
      "_class": "MSImmutableOverrideProperty",
      "canOverride": true,
      "overrideName": "BFF45C29-DD65-4797-8ACB-D2C07A3CB603_stringValue"
    },
    {
      "_class": "MSImmutableOverrideProperty",
      "canOverride": false,
      "overrideName": "D2F065E5-A1B4-43FF-96AC-EBB46B97609B_layerStyle"
    },
    {
      "_class": "MSImmutableOverrideProperty",
      "canOverride": false,
      "overrideName": "CCED8176-6F80-4231-BE4B-5F6C3FF9872C/74936C75-DA0D-4A08-ABE8-7BFD43255E4E/A19EB3DE-5561-4192-ABC4-C256708F5390_layerStyle"
    },
    {
      "_class": "MSImmutableOverrideProperty",
      "canOverride": true,
      "overrideName": "CCED8176-6F80-4231-BE4B-5F6C3FF9872C_symbolID"
    }
  ],
  "resizesContent": true,
  "resizingConstraint": 63,
  "resizingType": 0,
  "rotation": 0,
  "shouldBreakMaskChain": true,
  "style": {
    "_class": "style",
    "do_objectID": "28FB060A-A129-4FA9-B697-DB6336A21B5B",
    "endMarkerType": 0,
    "miterLimit": 10,
    "startMarkerType": 0,
    "windingRule": 1
  },
  "symbolID": "F403CB21-F4A7-4B6B-B4E0-D05E0CC8C9FA",
  "verticalRulerData": {
    "_class": "rulerData",
    "base": 0,
    "do_objectID": "AABEF911-DA13-4C59-931B-106D95F31DA7",
    "guides": [
    ]
  }
}