{
  "_class": "group",
  "booleanOperation": -1,
  "clippingMaskMode": 0,
  "do_objectID": "1A3F9DEC-4679-4D6A-97CF-3CD3752C6D4F",
  "exportOptions": {
    "_class": "exportOptions",
    "exportFormats": [
    ],
    "includedLayerIds": [
    ],
    "layerOptions": 0,
    "shouldTrim": false
  },
  "frame": {
    "_class": "rect",
    "constrainProportions": false,
    "height": 1872,
    "width": 196,
    "x": 32,
    "y": 24
  },
  "groupLayout": {
    "_class": "MSImmutableFreeformGroupLayout"
  },
  "hasClickThrough": false,
  "hasClippingMask": false,
  "isFixedToViewport": false,
  "isFlippedHorizontal": false,
  "isFlippedVertical": false,
  "isLocked": true,
  "isVisible": true,
  "layerListExpandedType": 0,
  "layers": [
    {
      "class": "text",
      "id": "F16B02E8-14A7-41C9-95AD-AFC603F389F7"
    },
    {
      "class": "text",
      "id": "2FA2D2D2-68B6-433E-96EE-4931A2081A67"
    },
    {
      "class": "text",
      "id": "D160756C-8418-4768-BE00-43DEC1A3F7D5"
    },
    {
      "class": "text",
      "id": "7702C418-7C09-45BD-9550-18C6352E257A"
    },
    {
      "class": "text",
      "id": "1D589A61-1715-4124-8DEA-277420234F1D"
    }
  ],
  "name": "labels",
  "nameIsFixed": true,
  "resizingConstraint": 63,
  "resizingType": 0,
  "rotation": 0,
  "shouldBreakMaskChain": false,
  "style": {
    "_class": "style",
    "endMarkerType": 0,
    "miterLimit": 10,
    "startMarkerType": 0,
    "windingRule": 1
  }
}