{
  "_class": "shapePath",
  "booleanOperation": -1,
  "clippingMaskMode": 0,
  "do_objectID": "028454C2-782C-46B2-BDEF-4D3DBDE5A973",
  "edited": true,
  "exportOptions": {
    "_class": "exportOptions",
    "do_objectID": "89A2C0D4-55FA-4EF0-A368-44D14D6DDC96",
    "exportFormats": [
    ],
    "includedLayerIds": [
    ],
    "layerOptions": 0,
    "shouldTrim": false
  },
  "frame": {
    "_class": "rect",
    "constrainProportions": false,
    "do_objectID": "BC13B4A5-E547-456E-8E19-65BD4B5E6763",
    "height": 0.105890603085554,
    "width": 0.1153802106731554,
    "x": 27.61642590165713,
    "y": 2.124257065461264
  },
  "hasClippingMask": false,
  "isClosed": true,
  "isFixedToViewport": false,
  "isFlippedHorizontal": false,
  "isFlippedVertical": false,
  "isLocked": false,
  "isVisible": true,
  "layerListExpandedType": 0,
  "name": "Path",
  "nameIsFixed": false,
  "pointRadiusBehaviour": 0,
  "points": [
    {
      "_class": "curvePoint",
      "cornerRadius": 0,
      "curveFrom": "{1.1195736890682981, 0.53000000000002956}",
      "curveMode": 4,
      "curveTo": "{0.77626067431484613, 0.23400000000003729}",
      "hasCurveFrom": true,
      "hasCurveTo": true,
      "point": "{0.94017856865409977, 0}"
    },
    {
      "_class": "curvePoint",
      "cornerRadius": 0,
      "curveFrom": "{0.36118961139569083, 1.2040000000000077}",
      "curveMode": 4,
      "curveTo": "{0.86419945883161153, 0.68299999999999272}",
      "hasCurveFrom": true,
      "hasCurveTo": true,
      "point": "{0.58771992031088049, 0.81700000000000728}"
    },
    {
      "_class": "curvePoint",
      "cornerRadius": 0,
      "curveFrom": "{0.13043824082371624, 0.047000000000025466}",
      "curveMode": 3,
      "curveTo": "{-0.083428883121078712, 0.54599999999999227}",
      "hasCurveFrom": true,
      "hasCurveTo": true,
      "point": "{0.013655534985454, 0.31900000000001683}"
    }
  ],
  "resizingConstraint": 63,
  "resizingType": 0,
  "rotation": 0,
  "shouldBreakMaskChain": false,
  "style": {
    "_class": "style",
    "do_objectID": "DCB05E68-14EC-4073-880B-A6FAD012B7A9",
    "endMarkerType": 0,
    "fills": [
      {
        "_class": "fill",
        "color": {
          "_class": "color",
          "alpha": 1,
          "blue": 0.1764705882352941,
          "green": 0.1764705882352941,
          "red": 0.1764705882352941
        },
        "fillType": 0,
        "isEnabled": true,
        "noiseIndex": 0,
        "noiseIntensity": 0,
        "patternFillType": 1,
        "patternTileScale": 1
      }
    ],
    "miterLimit": 10,
    "startMarkerType": 0,
    "windingRule": 1
  }
}