{
  "_class": "shapePath",
  "booleanOperation": -1,
  "clippingMaskMode": 0,
  "do_objectID": "039AF01B-EDC4-4C5B-98A2-7ABF61C587EB",
  "edited": true,
  "exportOptions": {
    "_class": "exportOptions",
    "do_objectID": "FA715D6D-F7E9-4D6E-8E4B-BA126DE2CC9D",
    "exportFormats": [
    ],
    "includedLayerIds": [
    ],
    "layerOptions": 0,
    "shouldTrim": false
  },
  "frame": {
    "_class": "rect",
    "constrainProportions": false,
    "do_objectID": "C870FFD4-9306-4E3D-9977-ECCE197DACEE",
    "height": 0.1058906030855553,
    "width": 0.1059863482545573,
    "x": 25.29293466223663,
    "y": 11.80863625653911
  },
  "hasClippingMask": false,
  "isClosed": true,
  "isFixedToViewport": false,
  "isFlippedHorizontal": false,
  "isFlippedVertical": false,
  "isLocked": false,
  "isVisible": true,
  "layerListExpandedType": 0,
  "name": "Path",
  "nameIsFixed": false,
  "pointRadiusBehaviour": 0,
  "points": [
    {
      "_class": "curvePoint",
      "cornerRadius": 0,
      "curveFrom": "{0.060000000000002274, 0}",
      "curveMode": 4,
      "curveTo": "{0.03999999999996362, 0.0080000000000381988}",
      "hasCurveFrom": false,
      "hasCurveTo": true,
      "point": "{0.060000000000002274, 0}"
    },
    {
      "_class": "curvePoint",
      "cornerRadius": 0,
      "curveFrom": "{0.077999999999974534, 0.040999999999996817}",
      "curveMode": 1,
      "curveTo": "{0.077999999999974534, 0.040999999999996817}",
      "hasCurveFrom": false,
      "hasCurveTo": false,
      "point": "{0.077999999999974534, 0.040999999999996817}"
    },
    {
      "_class": "curvePoint",
      "cornerRadius": 0,
      "curveFrom": "{0.01999999999998181, 0.015000000000043201}",
      "curveMode": 4,
      "curveTo": "{0, 0.02199999999999136}",
      "hasCurveFrom": true,
      "hasCurveTo": false,
      "point": "{0, 0.02199999999999136}"
    }
  ],
  "resizingConstraint": 63,
  "resizingType": 0,
  "rotation": 0,
  "shouldBreakMaskChain": false,
  "style": {
    "_class": "style",
    "do_objectID": "6ED463B2-642C-4CBC-8139-309B62D13F0D",
    "endMarkerType": 0,
    "fills": [
      {
        "_class": "fill",
        "color": {
          "_class": "color",
          "alpha": 1,
          "blue": 0.1764705882352941,
          "green": 0.1764705882352941,
          "red": 0.1764705882352941
        },
        "fillType": 0,
        "isEnabled": true,
        "noiseIndex": 0,
        "noiseIntensity": 0,
        "patternFillType": 1,
        "patternTileScale": 1
      }
    ],
    "miterLimit": 10,
    "startMarkerType": 0,
    "windingRule": 1
  }
}