{
  "_class": "shapePath",
  "booleanOperation": -1,
  "clippingMaskMode": 0,
  "do_objectID": "06C0D745-D85C-4923-9CAA-026245A760A8",
  "edited": true,
  "exportOptions": {
    "_class": "exportOptions",
    "do_objectID": "CAAA534E-6E75-49F7-A42B-793537553A3C",
    "exportFormats": [
    ],
    "includedLayerIds": [
    ],
    "layerOptions": 0,
    "shouldTrim": false
  },
  "frame": {
    "_class": "rect",
    "constrainProportions": false,
    "do_objectID": "7B818DFE-AA71-4CB7-BAA7-E24B1644A267",
    "height": 0.163977586215065,
    "width": 0.1339663907794453,
    "x": 17.29415748394716,
    "y": 15.41132876402007
  },
  "hasClippingMask": false,
  "isClosed": true,
  "isFixedToViewport": false,
  "isFlippedHorizontal": false,
  "isFlippedVertical": false,
  "isLocked": false,
  "isVisible": true,
  "layerListExpandedType": 0,
  "name": "Path",
  "nameIsFixed": false,
  "pointRadiusBehaviour": 0,
  "points": [
    {
      "_class": "curvePoint",
      "cornerRadius": 0,
      "curveFrom": "{-0.19140427334919607, -0.47628127861955666}",
      "curveMode": 4,
      "curveTo": "{-0.089006003048665586, 0.59396082755554791}",
      "hasCurveFrom": true,
      "hasCurveTo": true,
      "point": "{0.28423266266212754, 0.52472150460522404}"
    },
    {
      "_class": "curvePoint",
      "cornerRadius": 0,
      "curveFrom": "{0.37511870139038928, 0.73095577367872377}",
      "curveMode": 4,
      "curveTo": "{2.1104361341755991, 0.20523148584869091}",
      "hasCurveFrom": true,
      "hasCurveTo": true,
      "point": "{0.28423266266212754, 0.52472150460522404}"
    },
    {
      "_class": "curvePoint",
      "cornerRadius": 0,
      "curveFrom": "{-0.018720799765457458, 0.79426029751901905}",
      "curveMode": 4,
      "curveTo": "{0.44298027697418235, 0.93125524364216672}",
      "hasCurveFrom": true,
      "hasCurveTo": true,
      "point": "{0.072771145887662328, 1}"
    }
  ],
  "resizingConstraint": 63,
  "resizingType": 0,
  "rotation": 0,
  "shouldBreakMaskChain": false,
  "style": {
    "_class": "style",
    "do_objectID": "712879CB-CB72-4BE3-9D03-A317B55E0D22",
    "endMarkerType": 0,
    "fills": [
      {
        "_class": "fill",
        "color": {
          "_class": "color",
          "alpha": 1,
          "blue": 0.1764705882352941,
          "green": 0.1764705882352941,
          "red": 0.1764705882352941
        },
        "fillType": 0,
        "isEnabled": true,
        "noiseIndex": 0,
        "noiseIntensity": 0,
        "patternFillType": 1,
        "patternTileScale": 1
      }
    ],
    "miterLimit": 10,
    "startMarkerType": 0,
    "windingRule": 1
  }
}