{
  "_class": "shapePath",
  "booleanOperation": -1,
  "clippingMaskMode": 0,
  "do_objectID": "0BBDB287-2E3C-40D8-827B-F3E2786E443D",
  "edited": true,
  "exportOptions": {
    "_class": "exportOptions",
    "do_objectID": "BDA52EEC-6A55-43E6-9369-32B829848D17",
    "exportFormats": [
    ],
    "includedLayerIds": [
    ],
    "layerOptions": 0,
    "shouldTrim": false
  },
  "frame": {
    "_class": "rect",
    "constrainProportions": false,
    "do_objectID": "E4C53322-6DC6-4636-86CC-B494358803A5",
    "height": 0.1058906030855589,
    "width": 0.1059863482545822,
    "x": 38.64291261811084,
    "y": 27.21248429823965
  },
  "hasClippingMask": false,
  "isClosed": true,
  "isFixedToViewport": false,
  "isFlippedHorizontal": false,
  "isFlippedVertical": false,
  "isLocked": false,
  "isVisible": true,
  "layerListExpandedType": 0,
  "name": "Path",
  "nameIsFixed": false,
  "pointRadiusBehaviour": 0,
  "points": [
    {
      "_class": "curvePoint",
      "cornerRadius": 0,
      "curveFrom": "{-0.30300181696338768, 0.78845790895945811}",
      "curveMode": 3,
      "curveTo": "{0.46099818303662232, 1.0644579089594686}",
      "hasCurveFrom": true,
      "hasCurveTo": true,
      "point": "{0.19599818303663596, 0.96945790895944128}"
    },
    {
      "_class": "curvePoint",
      "cornerRadius": 0,
      "curveFrom": "{1.0399981830366301, 0.18645790895942582}",
      "curveMode": 3,
      "curveTo": "{0.2769981830365964, -0.089542091040527794}",
      "hasCurveFrom": true,
      "hasCurveTo": true,
      "point": "{0.5419981830366396, 0.0074579089594521975}"
    }
  ],
  "resizingConstraint": 63,
  "resizingType": 0,
  "rotation": 0,
  "shouldBreakMaskChain": false,
  "style": {
    "_class": "style",
    "do_objectID": "DBA86024-C063-4B03-A248-EAE93B074CBD",
    "endMarkerType": 0,
    "fills": [
      {
        "_class": "fill",
        "color": {
          "_class": "color",
          "alpha": 1,
          "blue": 0.1764705882352941,
          "green": 0.1764705882352941,
          "red": 0.1764705882352941
        },
        "fillType": 0,
        "isEnabled": true,
        "noiseIndex": 0,
        "noiseIntensity": 0,
        "patternFillType": 1,
        "patternTileScale": 1
      }
    ],
    "miterLimit": 10,
    "startMarkerType": 0,
    "windingRule": 1
  }
}