{
  "_class": "shapePath",
  "booleanOperation": -1,
  "clippingMaskMode": 0,
  "do_objectID": "0D7C0B7B-A64E-4699-9F78-B47888CD09BF",
  "edited": true,
  "exportOptions": {
    "_class": "exportOptions",
    "do_objectID": "F0A64FF3-C60F-48FF-A6B6-B0A8B5C6D530",
    "exportFormats": [
    ],
    "includedLayerIds": [
    ],
    "layerOptions": 0,
    "shouldTrim": false
  },
  "frame": {
    "_class": "rect",
    "constrainProportions": false,
    "do_objectID": "6481919E-EC66-42FC-9794-BDDD21159D6D",
    "height": 0.2457394567146238,
    "width": 0.5450643653944454,
    "x": 36.01856757150912,
    "y": 29.49765496265377
  },
  "hasClippingMask": false,
  "isClosed": true,
  "isFixedToViewport": false,
  "isFlippedHorizontal": false,
  "isFlippedVertical": false,
  "isLocked": false,
  "isVisible": true,
  "layerListExpandedType": 0,
  "name": "Path",
  "nameIsFixed": false,
  "pointRadiusBehaviour": 0,
  "points": [
    {
      "_class": "curvePoint",
      "cornerRadius": 0,
      "curveFrom": "{0.97110945644080182, 0.95622302479736654}",
      "curveMode": 4,
      "curveTo": "{0.98585256887564754, 0.81365631757503309}",
      "hasCurveFrom": true,
      "hasCurveTo": true,
      "point": "{1, 0.94335241928424218}"
    },
    {
      "_class": "curvePoint",
      "cornerRadius": 0,
      "curveFrom": "{0.85882352941175999, 1.0116656331616145}",
      "curveMode": 3,
      "curveTo": "{0.94221891288160364, 0.97833406503787179}",
      "hasCurveFrom": true,
      "hasCurveTo": true,
      "point": "{0.91288160833953336, 0.98988460844709802}"
    },
    {
      "_class": "curvePoint",
      "cornerRadius": 0,
      "curveFrom": "{0.74638868205509701, 0.87503920540686986}",
      "curveMode": 4,
      "curveTo": "{0.80595681310499012, 1.0123256642135732}",
      "hasCurveFrom": true,
      "hasCurveTo": true,
      "point": "{0.80461653015636547, 0.84401774596497225}"
    },
    {
      "_class": "curvePoint",
      "cornerRadius": 0,
      "curveFrom": "{0.6120625465376015, 0.82124667467250856}",
      "curveMode": 4,
      "curveTo": "{0.68771407297095655, 0.9067206959007259}",
      "hasCurveFrom": true,
      "hasCurveTo": true,
      "point": "{0.62978406552494737, 0.93774215534262351}"
    },
    {
      "_class": "curvePoint",
      "cornerRadius": 0,
      "curveFrom": "{0.51422189128816309, 0.72521215661301208}",
      "curveMode": 4,
      "curveTo": "{0.59180938198064448, 0.71498167530770285}",
      "hasCurveFrom": true,
      "hasCurveTo": true,
      "point": "{0.5213700670141499, 0.79022521523061096}"
    },
    {
      "_class": "curvePoint",
      "cornerRadius": 0,
      "curveFrom": "{0.41265822784810152, 0.64369832169652685}",
      "curveMode": 4,
      "curveTo": "{0.50737155621742713, 0.66085912904737176}",
      "hasCurveFrom": true,
      "hasCurveTo": true,
      "point": "{0.50037230081906148, 0.59650610148173133}"
    },
    {
      "_class": "curvePoint",
      "cornerRadius": 0,
      "curveFrom": "{0.20655249441548681, 0.40113691010296498}",
      "curveMode": 4,
      "curveTo": "{0.32524199553239247, 0.69023051085938258}",
      "hasCurveFrom": true,
      "hasCurveTo": true,
      "point": "{0.2384214445271767, 0.7370927155482081}"
    },
    {
      "_class": "curvePoint",
      "cornerRadius": 0,
      "curveFrom": "{0.012360387192855761, -0.35789879964564425}",
      "curveMode": 4,
      "curveTo": "{0.11690245718540898, 0.27738108786134452}",
      "hasCurveFrom": true,
      "hasCurveTo": true,
      "point": "{0, 0.24932976815323188}"
    },
    {
      "_class": "curvePoint",
      "cornerRadius": 0,
      "curveFrom": "{0.44437825763217026, 0.13679447379486773}",
      "curveMode": 4,
      "curveTo": "{0.24720774385703903, 0.38298605617419174}",
      "hasCurveFrom": true,
      "hasCurveTo": true,
      "point": "{0.43678332092330285, 0.015018744709103898}"
    },
    {
      "_class": "curvePoint",
      "cornerRadius": 0,
      "curveFrom": "{0.39121370067014105, 0.45096925452559428}",
      "curveMode": 4,
      "curveTo": "{0.44869694713328656, 0.25229990788703555}",
      "hasCurveFrom": true,
      "hasCurveTo": true,
      "point": "{0.37036485480268228, 0.25659010972473739}"
    },
    {
      "_class": "curvePoint",
      "cornerRadius": 0,
      "curveFrom": "{0.58734177215189842, 0.5499739123188756}",
      "curveMode": 4,
      "curveTo": "{0.46641846612062399, 0.44766909926582071}",
      "hasCurveFrom": true,
      "hasCurveTo": true,
      "point": "{0.50037230081906148, 0.59650610148173133}"
    },
    {
      "_class": "curvePoint",
      "cornerRadius": 0,
      "curveFrom": "{0.77855547282203785, 0.4932112418507294}",
      "curveMode": 4,
      "curveTo": "{0.67475800446760748, 0.50311170763004998}",
      "hasCurveFrom": true,
      "hasCurveTo": true,
      "point": "{0.76217423678331653, 0.45591948741525457}"
    },
    {
      "_class": "curvePoint",
      "cornerRadius": 0,
      "curveFrom": "{0.81355174981384903, 0.70046099216469182}",
      "curveMode": 3,
      "curveTo": "{0.76485480268056583, 0.61861714172223659}",
      "hasCurveFrom": true,
      "hasCurveTo": true,
      "point": "{0.78332092330603464, 0.64963860116413419}"
    },
    {
      "_class": "curvePoint",
      "cornerRadius": 0,
      "curveFrom": "{0.97185405807892478, 0.6846202469177638}",
      "curveMode": 4,
      "curveTo": "{0.92137006701414481, 0.52456271681859679}",
      "hasCurveFrom": true,
      "hasCurveTo": true,
      "point": "{0.9578555472822019, 0.55624420731245283}"
    }
  ],
  "resizingConstraint": 63,
  "resizingType": 0,
  "rotation": 0,
  "shouldBreakMaskChain": false,
  "style": {
    "_class": "style",
    "do_objectID": "9D79BD38-0323-483D-969A-1489A1BAEC4E",
    "endMarkerType": 0,
    "fills": [
      {
        "_class": "fill",
        "color": {
          "_class": "color",
          "alpha": 1,
          "blue": 0.1764705882352941,
          "green": 0.1764705882352941,
          "red": 0.1764705882352941
        },
        "fillType": 0,
        "isEnabled": true,
        "noiseIndex": 0,
        "noiseIntensity": 0,
        "patternFillType": 1,
        "patternTileScale": 1
      }
    ],
    "miterLimit": 10,
    "startMarkerType": 0,
    "windingRule": 1
  }
}