{
  "_class": "shapePath",
  "booleanOperation": -1,
  "clippingMaskMode": 0,
  "do_objectID": "0EB0DAC4-7E42-48A9-820E-8F2C2EC21B70",
  "edited": true,
  "exportOptions": {
    "_class": "exportOptions",
    "do_objectID": "27837FCD-8BD3-4633-A993-88ED2683F0D0",
    "exportFormats": [
    ],
    "includedLayerIds": [
    ],
    "layerOptions": 0,
    "shouldTrim": false
  },
  "frame": {
    "_class": "rect",
    "constrainProportions": false,
    "do_objectID": "6A256683-FDBB-43FC-962C-EAFE7DE43BEC",
    "height": 0.1058906030855624,
    "width": 0.1059863482545431,
    "x": 28.40756267373408,
    "y": 29.32307411742137
  },
  "hasClippingMask": false,
  "isClosed": true,
  "isFixedToViewport": false,
  "isFlippedHorizontal": false,
  "isFlippedVertical": false,
  "isLocked": false,
  "isVisible": true,
  "layerListExpandedType": 0,
  "name": "Path",
  "nameIsFixed": false,
  "pointRadiusBehaviour": 0,
  "points": [
    {
      "_class": "curvePoint",
      "cornerRadius": 0,
      "curveFrom": "{0.9418856416641006, 0.24422811626391194}",
      "curveMode": 3,
      "curveTo": "{0.36088564166408332, -0.1077718837360635}",
      "hasCurveFrom": true,
      "hasCurveTo": true,
      "point": "{0.5638856416641147, 0.016228116263903303}"
    },
    {
      "_class": "curvePoint",
      "cornerRadius": 0,
      "curveFrom": "{-0.25711435833591167, 0.51222811626394105}",
      "curveMode": 3,
      "curveTo": "{0.32188564166409606, 0.86422811626391649}",
      "hasCurveFrom": true,
      "hasCurveTo": true,
      "point": "{0.11888564166412152, 0.74222811626390239}"
    }
  ],
  "resizingConstraint": 63,
  "resizingType": 0,
  "rotation": 0,
  "shouldBreakMaskChain": false,
  "style": {
    "_class": "style",
    "do_objectID": "097347AE-81E9-4763-8F81-8A54B215E044",
    "endMarkerType": 0,
    "fills": [
      {
        "_class": "fill",
        "color": {
          "_class": "color",
          "alpha": 1,
          "blue": 0.1764705882352941,
          "green": 0.1764705882352941,
          "red": 0.1764705882352941
        },
        "fillType": 0,
        "isEnabled": true,
        "noiseIndex": 0,
        "noiseIntensity": 0,
        "patternFillType": 1,
        "patternTileScale": 1
      }
    ],
    "miterLimit": 10,
    "startMarkerType": 0,
    "windingRule": 1
  }
}