{
  "_class": "shapePath",
  "booleanOperation": -1,
  "clippingMaskMode": 0,
  "do_objectID": "10FB69D4-AE0E-4DC8-BA0C-64D035359061",
  "edited": true,
  "exportOptions": {
    "_class": "exportOptions",
    "do_objectID": "86C81580-0CE7-41C2-8C89-24521664B8AF",
    "exportFormats": [
    ],
    "includedLayerIds": [
    ],
    "layerOptions": 0,
    "shouldTrim": false
  },
  "frame": {
    "_class": "rect",
    "constrainProportions": false,
    "do_objectID": "23F33C81-6DC7-47E5-969A-D8351341992D",
    "height": 0.2335617678560986,
    "width": 0.3404516173748533,
    "x": 31.51143777030264,
    "y": 16.41612871451708
  },
  "hasClippingMask": false,
  "isClosed": true,
  "isFixedToViewport": false,
  "isFlippedHorizontal": false,
  "isFlippedVertical": false,
  "isLocked": false,
  "isVisible": true,
  "layerListExpandedType": 0,
  "name": "Path",
  "nameIsFixed": false,
  "pointRadiusBehaviour": 0,
  "points": [
    {
      "_class": "curvePoint",
      "cornerRadius": 0,
      "curveFrom": "{0.77826751718140508, 0.08055555555555545}",
      "curveMode": 3,
      "curveTo": "{0.64403591736757126, 0.16006944444443924}",
      "hasCurveFrom": true,
      "hasCurveTo": true,
      "point": "{0.73058311227418338, 0.10868055555555162}"
    },
    {
      "_class": "curvePoint",
      "cornerRadius": 0,
      "curveFrom": "{0.91297596104431333, 0.14826388888888653}",
      "curveMode": 4,
      "curveTo": "{0.8226140137451321, 0.042708333333330087}",
      "hasCurveFrom": true,
      "hasCurveTo": true,
      "point": "{0.87005999662780975, 0.013194444444438387}"
    },
    {
      "_class": "curvePoint",
      "cornerRadius": 0,
      "curveFrom": "{0.74202736945191761, 0.56284722222222638}",
      "curveMode": 4,
      "curveTo": "{0.95684561355896591, 0.28368055555555854}",
      "hasCurveFrom": true,
      "hasCurveTo": true,
      "point": "{1, 0.41909722222222068}"
    },
    {
      "_class": "curvePoint",
      "cornerRadius": 0,
      "curveFrom": "{0.40299125056155982, 0.65034722222221997}",
      "curveMode": 4,
      "curveTo": "{0.78661228804017524, 0.86701388888888531}",
      "hasCurveFrom": true,
      "hasCurveTo": true,
      "point": "{0.5083737854065139, 1}"
    },
    {
      "_class": "curvePoint",
      "cornerRadius": 0,
      "curveFrom": "{-0.045718999615422751, 0.4267361111111066}",
      "curveMode": 4,
      "curveTo": "{0.23609583338627721, 0.546180555555559}",
      "hasCurveFrom": true,
      "hasCurveTo": true,
      "point": "{0.03510606670232224, 0.58194444444444104}"
    },
    {
      "_class": "curvePoint",
      "cornerRadius": 0,
      "curveFrom": "{0.24777851258854197, 0.18958333333333094}",
      "curveMode": 4,
      "curveTo": "{0.027476561917157017, 0.35347222222222302}",
      "hasCurveFrom": true,
      "hasCurveTo": true,
      "point": "{0.10901689430852056, 0.28437499999999644}"
    },
    {
      "_class": "curvePoint",
      "cornerRadius": 0,
      "curveFrom": "{0.55534292424013054, 0.18645833333333575}",
      "curveMode": 4,
      "curveTo": "{0.38725539694216837, 0.094791666666665469}",
      "hasCurveFrom": true,
      "hasCurveTo": true,
      "point": "{0.52649385927126435, 0}"
    }
  ],
  "resizingConstraint": 63,
  "resizingType": 0,
  "rotation": 0,
  "shouldBreakMaskChain": false,
  "style": {
    "_class": "style",
    "do_objectID": "4328075F-F404-40BE-A674-05C6267419D2",
    "endMarkerType": 0,
    "fills": [
      {
        "_class": "fill",
        "color": {
          "_class": "color",
          "alpha": 1,
          "blue": 0.1764705882352941,
          "green": 0.1764705882352941,
          "red": 0.1764705882352941
        },
        "fillType": 0,
        "isEnabled": true,
        "noiseIndex": 0,
        "noiseIntensity": 0,
        "patternFillType": 1,
        "patternTileScale": 1
      }
    ],
    "miterLimit": 10,
    "startMarkerType": 0,
    "windingRule": 1
  }
}