{
  "_class": "shapePath",
  "booleanOperation": -1,
  "clippingMaskMode": 0,
  "do_objectID": "1FD24812-B917-484C-9CBE-7B030665A66B",
  "edited": true,
  "exportOptions": {
    "_class": "exportOptions",
    "do_objectID": "E0FD7ADE-9400-4FB3-A5B5-1362E1B4BD0E",
    "exportFormats": [
    ],
    "includedLayerIds": [
    ],
    "layerOptions": 0,
    "shouldTrim": false
  },
  "frame": {
    "_class": "rect",
    "constrainProportions": false,
    "do_objectID": "084F1CD9-A8ED-403A-AEAF-9ED766CDBA8C",
    "height": 0.1058906030855526,
    "width": 0.1155148870604243,
    "x": 29.44410113383672,
    "y": 5.467677552754152
  },
  "hasClippingMask": false,
  "isClosed": true,
  "isFixedToViewport": false,
  "isFlippedHorizontal": false,
  "isFlippedVertical": false,
  "isLocked": false,
  "isVisible": true,
  "layerListExpandedType": 0,
  "name": "Path",
  "nameIsFixed": false,
  "pointRadiusBehaviour": 0,
  "points": [
    {
      "_class": "curvePoint",
      "cornerRadius": 0,
      "curveFrom": "{0.13147247045392393, 0.046999999999968622}",
      "curveMode": 3,
      "curveTo": "{-0.082848000358919691, 0.54399999999998272}",
      "hasCurveFrom": true,
      "hasCurveTo": true,
      "point": "{0.013420538989798402, 0.31899999999995998}"
    },
    {
      "_class": "curvePoint",
      "cornerRadius": 0,
      "curveFrom": "{1.1201573964659253, 0.53100000000000591}",
      "curveMode": 4,
      "curveTo": "{0.77724464316538355, 0.23599999999999}",
      "hasCurveFrom": true,
      "hasCurveTo": true,
      "point": "{0.93956604892858608, 0}"
    },
    {
      "_class": "curvePoint",
      "cornerRadius": 0,
      "curveFrom": "{0.36265750290449977, 1.200999999999965}",
      "curveMode": 4,
      "curveTo": "{0.86437821162701334, 0.68399999999996908}",
      "hasCurveFrom": true,
      "hasCurveTo": true,
      "point": "{0.58892370487740042, 0.81700000000000728}"
    }
  ],
  "resizingConstraint": 63,
  "resizingType": 0,
  "rotation": 0,
  "shouldBreakMaskChain": false,
  "style": {
    "_class": "style",
    "do_objectID": "D718B30C-9A95-4096-973D-0112BE7DFFA0",
    "endMarkerType": 0,
    "fills": [
      {
        "_class": "fill",
        "color": {
          "_class": "color",
          "alpha": 1,
          "blue": 0.1764705882352941,
          "green": 0.1764705882352941,
          "red": 0.1764705882352941
        },
        "fillType": 0,
        "isEnabled": true,
        "noiseIndex": 0,
        "noiseIntensity": 0,
        "patternFillType": 1,
        "patternTileScale": 1
      }
    ],
    "miterLimit": 10,
    "startMarkerType": 0,
    "windingRule": 1
  }
}