{
  "_class": "shapePath",
  "booleanOperation": -1,
  "clippingMaskMode": 0,
  "do_objectID": "28DC7137-1E90-4899-91F4-69A1F686282B",
  "edited": true,
  "exportOptions": {
    "_class": "exportOptions",
    "do_objectID": "D91F1983-06B0-4E8E-9E98-468F2EFC5778",
    "exportFormats": [
    ],
    "includedLayerIds": [
    ],
    "layerOptions": 0,
    "shouldTrim": false
  },
  "frame": {
    "_class": "rect",
    "constrainProportions": false,
    "do_objectID": "A239B70B-A8C3-439B-9C5A-D5681788B355",
    "height": 0.4139233552560873,
    "width": 0.4264732949788002,
    "x": 9.112680711989716,
    "y": 6.217670340647625
  },
  "hasClippingMask": false,
  "isClosed": true,
  "isFixedToViewport": false,
  "isFlippedHorizontal": false,
  "isFlippedVertical": false,
  "isLocked": false,
  "isVisible": true,
  "layerListExpandedType": 0,
  "name": "Path",
  "nameIsFixed": false,
  "pointRadiusBehaviour": 0,
  "points": [
    {
      "_class": "curvePoint",
      "cornerRadius": 0,
      "curveFrom": "{0.16996574038827558, 0.54976489028212994}",
      "curveMode": 4,
      "curveTo": "{0.084316711077273968, 0.67633228840125559}",
      "hasCurveFrom": true,
      "hasCurveTo": true,
      "point": "{0.059192995812715407, 0.603252351097182}"
    },
    {
      "_class": "curvePoint",
      "cornerRadius": 0,
      "curveFrom": "{0.34050247430529118, 0.32836990595611143}",
      "curveMode": 4,
      "curveTo": "{0.28130947849257848, 0.49647335423197475}",
      "hasCurveFrom": true,
      "hasCurveTo": true,
      "point": "{0.39265321659687868, 0.44278996865203712}"
    },
    {
      "_class": "curvePoint",
      "cornerRadius": 0,
      "curveFrom": "{0.42938713361248537, -0.010775862068966885}",
      "curveMode": 4,
      "curveTo": "{0.28873239436619613, 0.21414576802507135}",
      "hasCurveFrom": true,
      "hasCurveTo": true,
      "point": "{0.23658165207460866, 0.099725705329156755}"
    },
    {
      "_class": "curvePoint",
      "cornerRadius": 0,
      "curveFrom": "{0.75694708793300347, 0.10756269592476093}",
      "curveMode": 4,
      "curveTo": "{0.53502093642938797, 0.12695924764889688}",
      "hasCurveFrom": true,
      "hasCurveTo": true,
      "point": "{0.73296535972592225, 0}"
    },
    {
      "_class": "curvePoint",
      "cornerRadius": 0,
      "curveFrom": "{0.93110011419870409, 0.13734326018808132}",
      "curveMode": 4,
      "curveTo": "{0.82546631138180415, 0.087382445141060125}",
      "hasCurveFrom": true,
      "hasCurveTo": true,
      "point": "{0.89607917776931745, 0.061128526645770523}"
    },
    {
      "_class": "curvePoint",
      "cornerRadius": 0,
      "curveFrom": "{0.83802816901408483, 0.35619122257053076}",
      "curveMode": 4,
      "curveTo": "{0.96555005709935338, 0.21375391849530004}",
      "hasCurveFrom": true,
      "hasCurveTo": true,
      "point": "{1, 0.28977272727272518}"
    },
    {
      "_class": "curvePoint",
      "cornerRadius": 0,
      "curveFrom": "{0.63399314807765517, 0.63146551724138378}",
      "curveMode": 4,
      "curveTo": "{0.67662733155690968, 0.42280564263323311}",
      "hasCurveFrom": true,
      "hasCurveTo": true,
      "point": "{0.71869052150742152, 0.5646551724137957}"
    },
    {
      "_class": "curvePoint",
      "cornerRadius": 0,
      "curveFrom": "{0.45127521888085131, 0.52840909090909305}",
      "curveMode": 4,
      "curveTo": "{0.59383326988960827, 0.57053291536049888}",
      "hasCurveFrom": true,
      "hasCurveTo": true,
      "point": "{0.55557670346402632, 0.50391849529780763}"
    },
    {
      "_class": "curvePoint",
      "cornerRadius": 0,
      "curveFrom": "{0.42234488009136018, 0.70689655172414079}",
      "curveMode": 4,
      "curveTo": "{0.47087933003425991, 0.59894200626959748}",
      "hasCurveFrom": true,
      "hasCurveTo": true,
      "point": "{0.49619337647506601, 0.67163009404388863}"
    },
    {
      "_class": "curvePoint",
      "cornerRadius": 0,
      "curveFrom": "{0.33764750666159105, 0.86402821316614054}",
      "curveMode": 4,
      "curveTo": "{0.34849638370765157, 0.74275078369906111}",
      "hasCurveFrom": true,
      "hasCurveTo": true,
      "point": "{0.27388656261895811, 0.77880094043886705}"
    },
    {
      "_class": "curvePoint",
      "cornerRadius": 0,
      "curveFrom": "{0.17910163684811603, 0.96610501567398077}",
      "curveMode": 3,
      "curveTo": "{0.28149980966882332, 0.91026645768025638}",
      "hasCurveFrom": true,
      "hasCurveTo": true,
      "point": "{0.21507422915873514, 0.94651253918495915}"
    },
    {
      "_class": "curvePoint",
      "cornerRadius": 0,
      "curveFrom": "{0.069280548153788354, 0.92378526645767811}",
      "curveMode": 4,
      "curveTo": "{0.14027407689379406, 0.98040752351096727}",
      "hasCurveFrom": true,
      "hasCurveTo": true,
      "point": "{0.10392082223068252, 1}"
    },
    {
      "_class": "curvePoint",
      "cornerRadius": 0,
      "curveFrom": "{0.10373049105443495, 0.74666927899686319}",
      "curveMode": 4,
      "curveTo": "{0.034640274076894177, 0.84757053291535611}",
      "hasCurveFrom": true,
      "hasCurveTo": true,
      "point": "{0, 0.7711598746081485}"
    }
  ],
  "resizingConstraint": 63,
  "resizingType": 0,
  "rotation": 0,
  "shouldBreakMaskChain": false,
  "style": {
    "_class": "style",
    "do_objectID": "941A9A6C-DF79-4B61-AA5A-448B99C63985",
    "endMarkerType": 0,
    "fills": [
      {
        "_class": "fill",
        "color": {
          "_class": "color",
          "alpha": 1,
          "blue": 0.1764705882352941,
          "green": 0.1764705882352941,
          "red": 0.1764705882352941
        },
        "fillType": 0,
        "isEnabled": true,
        "noiseIndex": 0,
        "noiseIntensity": 0,
        "patternFillType": 1,
        "patternTileScale": 1
      }
    ],
    "miterLimit": 10,
    "startMarkerType": 0,
    "windingRule": 1
  }
}