{
  "_class": "shapePath",
  "booleanOperation": -1,
  "clippingMaskMode": 0,
  "do_objectID": "2C384DE2-21B1-40F5-8F7E-4E3DC105BBC2",
  "edited": true,
  "exportOptions": {
    "_class": "exportOptions",
    "do_objectID": "416AA528-3F41-4254-BDDB-8AD74E4636E5",
    "exportFormats": [
    ],
    "includedLayerIds": [
    ],
    "layerOptions": 0,
    "shouldTrim": false
  },
  "frame": {
    "_class": "rect",
    "constrainProportions": false,
    "do_objectID": "8368D8DC-D37B-4492-AB06-721EBC2FD442",
    "height": 2.499921894420893,
    "width": 3.582895173270657,
    "x": 32.22592611079553,
    "y": 25.08029712794572
  },
  "hasClippingMask": false,
  "isClosed": true,
  "isFixedToViewport": false,
  "isFlippedHorizontal": false,
  "isFlippedVertical": false,
  "isLocked": false,
  "isVisible": true,
  "layerListExpandedType": 0,
  "name": "Path",
  "nameIsFixed": false,
  "pointRadiusBehaviour": 0,
  "points": [
    {
      "_class": "curvePoint",
      "cornerRadius": 0,
      "curveFrom": "{0.63285002265518886, 0.85833387400246652}",
      "curveMode": 4,
      "curveTo": "{0.62836429542365202, 0.85424641536365409}",
      "hasCurveFrom": true,
      "hasCurveTo": true,
      "point": "{0.63241957408246552, 0.85165120352948864}"
    },
    {
      "_class": "curvePoint",
      "cornerRadius": 0,
      "curveFrom": "{0.62895333031264178, 0.86741711542204658}",
      "curveMode": 4,
      "curveTo": "{0.63146805618486634, 0.86332965678323592}",
      "hasCurveFrom": false,
      "hasCurveTo": true,
      "point": "{0.62895333031264178, 0.86741711542204658}"
    },
    {
      "_class": "curvePoint",
      "cornerRadius": 0,
      "curveFrom": "{0.7675124603534208, 1}",
      "curveMode": 1,
      "curveTo": "{0.7675124603534208, 1}",
      "hasCurveFrom": false,
      "hasCurveTo": false,
      "point": "{0.7675124603534208, 1}"
    },
    {
      "_class": "curvePoint",
      "cornerRadius": 0,
      "curveFrom": "{1, 0.50175176798806209}",
      "curveMode": 1,
      "curveTo": "{1, 0.50175176798806209}",
      "hasCurveFrom": false,
      "hasCurveTo": false,
      "point": "{1, 0.50175176798806209}"
    },
    {
      "_class": "curvePoint",
      "cornerRadius": 0,
      "curveFrom": "{0.90156320797462686, 0.40748069811198318}",
      "curveMode": 1,
      "curveTo": "{0.90156320797462686, 0.40748069811198318}",
      "hasCurveFrom": false,
      "hasCurveTo": false,
      "point": "{0.90156320797462686, 0.40748069811198318}"
    },
    {
      "_class": "curvePoint",
      "cornerRadius": 0,
      "curveFrom": "{0.79297689170820163, 0.64017387919288926}",
      "curveMode": 1,
      "curveTo": "{0.79297689170820163, 0.64017387919288926}",
      "hasCurveFrom": false,
      "hasCurveTo": false,
      "point": "{0.79297689170820163, 0.64017387919288926}"
    },
    {
      "_class": "curvePoint",
      "cornerRadius": 0,
      "curveFrom": "{0.12392387856819277, 0}",
      "curveMode": 1,
      "curveTo": "{0.12392387856819277, 0}",
      "hasCurveFrom": false,
      "hasCurveTo": false,
      "point": "{0.12392387856819277, 0}"
    },
    {
      "_class": "curvePoint",
      "cornerRadius": 0,
      "curveFrom": "{0.11295876755777054, 0.024005709466035488}",
      "curveMode": 4,
      "curveTo": "{0.11295876755777054, 0.02348666709920166}",
      "hasCurveFrom": true,
      "hasCurveTo": false,
      "point": "{0.11295876755777054, 0.02348666709920166}"
    },
    {
      "_class": "curvePoint",
      "cornerRadius": 0,
      "curveFrom": "{0.112233801540553, 0.026471160708492019}",
      "curveMode": 4,
      "curveTo": "{0.11300407793384687, 0.024686952572502696}",
      "hasCurveFrom": true,
      "hasCurveTo": true,
      "point": "{0.11293611236973301, 0.024751832868357155}"
    },
    {
      "_class": "curvePoint",
      "cornerRadius": 0,
      "curveFrom": "{0.1107612143180791, 0.028125608252772424}",
      "curveMode": 4,
      "curveTo": "{0.11150883552333546, 0.027314604554596299}",
      "hasCurveFrom": false,
      "hasCurveTo": true,
      "point": "{0.1107612143180791, 0.028125608252772424}"
    },
    {
      "_class": "curvePoint",
      "cornerRadius": 0,
      "curveFrom": "{0.035817852288174391, 0.20294556543177769}",
      "curveMode": 4,
      "curveTo": "{0.033121884911644528, 0.19460844741452119}",
      "hasCurveFrom": true,
      "hasCurveTo": false,
      "point": "{0.033121884911644528, 0.19460844741452119}"
    },
    {
      "_class": "curvePoint",
      "cornerRadius": 0,
      "curveFrom": "{0.031694608065246974, 0.22607539090378259}",
      "curveMode": 4,
      "curveTo": "{0.038559130040779308, 0.21125024330110787}",
      "hasCurveFrom": true,
      "hasCurveTo": true,
      "point": "{0.041255097417309171, 0.2195549211704399}"
    },
    {
      "_class": "curvePoint",
      "cornerRadius": 0,
      "curveFrom": "{0.012460353420933655, 0.23888924933497646}",
      "curveMode": 4,
      "curveTo": "{0.022043497961033384, 0.23249854019334268}",
      "hasCurveFrom": false,
      "hasCurveTo": true,
      "point": "{0.012460353420933655, 0.23888924933497646}"
    },
    {
      "_class": "curvePoint",
      "cornerRadius": 0,
      "curveFrom": "{0, 0.26555505093103188}",
      "curveMode": 1,
      "curveTo": "{0, 0.26555505093103188}",
      "hasCurveFrom": false,
      "hasCurveTo": false,
      "point": "{0, 0.26555505093103188}"
    },
    {
      "_class": "curvePoint",
      "cornerRadius": 0,
      "curveFrom": "{0.6237879474399638, 0.85616038409135231}",
      "curveMode": 4,
      "curveTo": "{0.61905301314000905, 0.85791215207941351}",
      "hasCurveFrom": true,
      "hasCurveTo": false,
      "point": "{0.61905301314000905, 0.85791215207941351}"
    }
  ],
  "resizingConstraint": 63,
  "resizingType": 0,
  "rotation": 0,
  "shouldBreakMaskChain": false,
  "style": {
    "_class": "style",
    "do_objectID": "19B39688-C18D-4040-ABB0-2E36AD82012D",
    "endMarkerType": 0,
    "fills": [
      {
        "_class": "fill",
        "color": {
          "_class": "color",
          "alpha": 1,
          "blue": 0.1764705882352941,
          "green": 0.1764705882352941,
          "red": 0.1764705882352941
        },
        "fillType": 0,
        "isEnabled": true,
        "noiseIndex": 0,
        "noiseIntensity": 0,
        "patternFillType": 1,
        "patternTileScale": 1
      }
    ],
    "miterLimit": 10,
    "startMarkerType": 0,
    "windingRule": 1
  }
}