{
  "_class": "shapePath",
  "booleanOperation": -1,
  "clippingMaskMode": 0,
  "do_objectID": "3193E5A7-3389-46A2-95D3-DCBBD943127C",
  "edited": true,
  "exportOptions": {
    "_class": "exportOptions",
    "do_objectID": "9DB8B3A1-2E9D-4E81-9D72-37938EB65FE8",
    "exportFormats": [
    ],
    "includedLayerIds": [
    ],
    "layerOptions": 0,
    "shouldTrim": false
  },
  "frame": {
    "_class": "rect",
    "constrainProportions": false,
    "do_objectID": "327FD675-BACB-4A97-B6F7-F3405E6DA19A",
    "height": 0.1058906030855589,
    "width": 0.1059863482545325,
    "x": 36.44541543155929,
    "y": 15.69904679773717
  },
  "hasClippingMask": false,
  "isClosed": true,
  "isFixedToViewport": false,
  "isFlippedHorizontal": false,
  "isFlippedVertical": false,
  "isLocked": false,
  "isVisible": true,
  "layerListExpandedType": 0,
  "name": "Path",
  "nameIsFixed": false,
  "pointRadiusBehaviour": 0,
  "points": [
    {
      "_class": "curvePoint",
      "cornerRadius": 0,
      "curveFrom": "{0.936385490936118, 0.24518311619638666}",
      "curveMode": 3,
      "curveTo": "{0.36138549093612937, -0.10781688380362198}",
      "hasCurveFrom": true,
      "hasCurveTo": true,
      "point": "{0.561385490936118, 0.016183116196344827}"
    },
    {
      "_class": "curvePoint",
      "cornerRadius": 0,
      "curveFrom": "{-0.25661450906386563, 0.51418311619633528}",
      "curveMode": 3,
      "curveTo": "{0.3193854909361562, 0.86618311619636756}",
      "hasCurveFrom": true,
      "hasCurveTo": true,
      "point": "{0.11838549093613437, 0.74418311619635347}"
    }
  ],
  "resizingConstraint": 63,
  "resizingType": 0,
  "rotation": 0,
  "shouldBreakMaskChain": false,
  "style": {
    "_class": "style",
    "do_objectID": "CFD9D33C-9A6B-4142-9390-E1ADAC3E28C9",
    "endMarkerType": 0,
    "fills": [
      {
        "_class": "fill",
        "color": {
          "_class": "color",
          "alpha": 1,
          "blue": 0.1764705882352941,
          "green": 0.1764705882352941,
          "red": 0.1764705882352941
        },
        "fillType": 0,
        "isEnabled": true,
        "noiseIndex": 0,
        "noiseIntensity": 0,
        "patternFillType": 1,
        "patternTileScale": 1
      }
    ],
    "miterLimit": 10,
    "startMarkerType": 0,
    "windingRule": 1
  }
}