{
  "_class": "shapePath",
  "booleanOperation": -1,
  "clippingMaskMode": 0,
  "do_objectID": "339AB516-EC98-4110-8BBB-0925D844D7DB",
  "edited": true,
  "exportOptions": {
    "_class": "exportOptions",
    "do_objectID": "857E3814-FFB1-4915-9CB8-F4B3E305D304",
    "exportFormats": [
    ],
    "includedLayerIds": [
    ],
    "layerOptions": 0,
    "shouldTrim": false
  },
  "frame": {
    "_class": "rect",
    "constrainProportions": false,
    "do_objectID": "BD40E25A-B8B3-45EA-8458-FDF53CEBE9A6",
    "height": 1.221037104630962,
    "width": 0.7741296425573196,
    "x": 25.43376663155296,
    "y": 17.85031586036412
  },
  "hasClippingMask": false,
  "isClosed": true,
  "isFixedToViewport": false,
  "isFlippedHorizontal": false,
  "isFlippedVertical": false,
  "isLocked": false,
  "isVisible": true,
  "layerListExpandedType": 0,
  "name": "Path",
  "nameIsFixed": false,
  "pointRadiusBehaviour": 0,
  "points": [
    {
      "_class": "curvePoint",
      "cornerRadius": 0,
      "curveFrom": "{0.94065188962688473, 0.23135402423393001}",
      "curveMode": 4,
      "curveTo": "{0.93278778398403484, 0.1651360999412847}",
      "hasCurveFrom": true,
      "hasCurveTo": true,
      "point": "{0.89095074196406743, 0.19834468785133705}"
    },
    {
      "_class": "curvePoint",
      "cornerRadius": 0,
      "curveFrom": "{0.85299332539457684, 0.26476186367144172}",
      "curveMode": 3,
      "curveTo": "{0.86924581038979931, 0.23640172959625752}",
      "hasCurveFrom": true,
      "hasCurveTo": true,
      "point": "{0.85834091723171424, 0.25539704188080753}"
    },
    {
      "_class": "curvePoint",
      "cornerRadius": 0,
      "curveFrom": "{0.88161866993455107, 0.30348307717456263}",
      "curveMode": 2,
      "curveTo": "{0.89262841783454439, 0.28462059924165345}",
      "hasCurveFrom": true,
      "hasCurveTo": true,
      "point": "{0.8870711165135966, 0.29411825538392844}"
    },
    {
      "_class": "curvePoint",
      "cornerRadius": 0,
      "curveFrom": "{0.82090777437174056, 0.3220134692283716}",
      "curveMode": 4,
      "curveTo": "{0.83055441062697544, 0.30275248824054179}",
      "hasCurveFrom": true,
      "hasCurveTo": true,
      "point": "{0.82604565672507357, 0.31231656155863718}"
    },
    {
      "_class": "curvePoint",
      "cornerRadius": 0,
      "curveFrom": "{0.84942826416981265, 0.35993767662165121}",
      "curveMode": 2,
      "curveTo": "{0.8600185931021912, 0.34134086739202185}",
      "hasCurveFrom": true,
      "hasCurveTo": true,
      "point": "{0.85456614652314555, 0.3509049407101173}"
    },
    {
      "_class": "curvePoint",
      "cornerRadius": 0,
      "curveFrom": "{0.78850765912319765, 0.37979641219186294}",
      "curveMode": 4,
      "curveTo": "{0.79700089321747258, 0.35993767662165121}",
      "hasCurveFrom": true,
      "hasCurveTo": true,
      "point": "{0.79322612250890989, 0.36910324688482604}"
    },
    {
      "_class": "curvePoint",
      "cornerRadius": 0,
      "curveFrom": "{0.81985922695269475, 0.41599377301382107}",
      "curveMode": 4,
      "curveTo": "{0.82436798085459662, 0.39673279202598938}",
      "hasCurveFrom": true,
      "hasCurveTo": true,
      "point": "{0.82195632179079237, 0.40795729473958781}"
    },
    {
      "_class": "curvePoint",
      "cornerRadius": 0,
      "curveFrom": "{0.75589783439083846, 0.43419207918852981}",
      "curveMode": 2,
      "curveTo": "{0.76522990642035482, 0.41805270546424284}",
      "hasCurveFrom": true,
      "hasCurveTo": true,
      "point": "{0.76061629777655071, 0.42595634938683524}"
    },
    {
      "_class": "curvePoint",
      "cornerRadius": 0,
      "curveFrom": "{0.77162604567654403, 0.48460271563598833}",
      "curveMode": 3,
      "curveTo": "{0.79584749105652453, 0.45730525637392522}",
      "hasCurveFrom": true,
      "hasCurveTo": true,
      "point": "{0.78924164231653093, 0.46467756288995615}"
    },
    {
      "_class": "curvePoint",
      "cornerRadius": 0,
      "curveFrom": "{0.66058487399948518, 0.50532487449186181}",
      "curveMode": 3,
      "curveTo": "{0.69130731337755713, 0.48380570952614704}",
      "hasCurveFrom": true,
      "hasCurveTo": true,
      "point": "{0.66666644902995587, 0.50100775806355513}"
    },
    {
      "_class": "curvePoint",
      "cornerRadius": 0,
      "curveFrom": "{0.69046847544232159, 0.54829678724746889}",
      "curveMode": 2,
      "curveTo": "{0.69875200005279214, 0.53381784291868684}",
      "hasCurveFrom": true,
      "hasCurveTo": true,
      "point": "{0.69529179356993609, 0.53979538874249455}"
    },
    {
      "_class": "curvePoint",
      "cornerRadius": 0,
      "curveFrom": "{0.62776533978332161, 0.56257648004879168}",
      "curveMode": 4,
      "curveTo": "{0.64391297003664194, 0.55048855404953156}",
      "hasCurveFrom": true,
      "hasCurveTo": true,
      "point": "{0.63426633378141295, 0.55792727774138484}"
    },
    {
      "_class": "curvePoint",
      "cornerRadius": 0,
      "curveFrom": "{0.64642948384235432, 0.62514145967133072}",
      "curveMode": 3,
      "curveTo": "{0.66645673954615148, 0.59047169389323484}",
      "hasCurveFrom": true,
      "hasCurveTo": true,
      "point": "{0.66278682357948504, 0.59678132559614461}"
    },
    {
      "_class": "curvePoint",
      "cornerRadius": 0,
      "curveFrom": "{0.47320945021582439, 0.73552680588434327}",
      "curveMode": 4,
      "curveTo": "{0.50445616330341925, 0.62467653944058965}",
      "hasCurveFrom": true,
      "hasCurveTo": true,
      "point": "{0.47908131576248469, 0.65104415824117068}"
    },
    {
      "_class": "curvePoint",
      "cornerRadius": 0,
      "curveFrom": "{0.27975245140168692, 0.88051550069963314}",
      "curveMode": 4,
      "curveTo": "{0.46471621612154346, 0.81954453329677668}",
      "hasCurveFrom": true,
      "hasCurveTo": true,
      "point": "{0.25888635776266028, 0.85793366092079737}"
    },
    {
      "_class": "curvePoint",
      "cornerRadius": 0,
      "curveFrom": "{0.36258769750638625, 0.90342942635756918}",
      "curveMode": 4,
      "curveTo": "{0.30187680194357575, 0.90130407673132507}",
      "hasCurveFrom": true,
      "hasCurveTo": true,
      "point": "{0.34864201683306578, 0.87858940260085039}"
    },
    {
      "_class": "curvePoint",
      "cornerRadius": 0,
      "curveFrom": "{0.23959308525219641, 0.96094670061777887}",
      "curveMode": 4,
      "curveTo": "{0.37349259066447138, 0.92720677530116691}",
      "hasCurveFrom": true,
      "hasCurveTo": true,
      "point": "{0.3160321921007066, 0.93550892227867999}"
    },
    {
      "_class": "curvePoint",
      "cornerRadius": 0,
      "curveFrom": "{0.1538219063741699, 0.97356596402359863}",
      "curveMode": 4,
      "curveTo": "{0.20939491958364745, 0.96639290903502706}",
      "hasCurveFrom": true,
      "hasCurveTo": true,
      "point": "{0.198909445393183, 0.96008327733211718}"
    },
    {
      "_class": "curvePoint",
      "cornerRadius": 0,
      "curveFrom": "{0.042675879955208863, 0.97097569416661533}",
      "curveMode": 4,
      "curveTo": "{0.1091537863227775, 0.98665014766015935}",
      "hasCurveFrom": true,
      "hasCurveTo": true,
      "point": "{0.064066247303764395, 1}"
    },
    {
      "_class": "curvePoint",
      "cornerRadius": 0,
      "curveFrom": "{0.045926376954254562, 0.89937797863254232}",
      "curveMode": 4,
      "curveTo": "{0.021390367348555532, 0.94208422268486969}",
      "hasCurveFrom": true,
      "hasCurveTo": true,
      "point": "{0, 0.91305991685148313}"
    },
    {
      "_class": "curvePoint",
      "cornerRadius": 0,
      "curveFrom": "{0.15612871069607195, 0.89771754923703928}",
      "curveMode": 4,
      "curveTo": "{0.091433334940882446, 0.88589529194106087}",
      "hasCurveFrom": true,
      "hasCurveTo": true,
      "point": "{0.1375694213789414, 0.87241260524957942}"
    },
    {
      "_class": "curvePoint",
      "cornerRadius": 0,
      "curveFrom": "{0.19492496520080405, 0.92547992872984353}",
      "curveMode": 4,
      "curveTo": "{0.17500256423891508, 0.92342099627941987}",
      "hasCurveFrom": true,
      "hasCurveTo": true,
      "point": "{0.19387641778175818, 0.94872594026687973}"
    },
    {
      "_class": "curvePoint",
      "cornerRadius": 0,
      "curveFrom": "{0.23781055463981729, 0.84279054483381288}",
      "curveMode": 4,
      "curveTo": "{0.22449400241792195, 0.87726105908444763}",
      "hasCurveFrom": true,
      "hasCurveTo": true,
      "point": "{0.16892098920844439, 0.83741075359238515}"
    },
    {
      "_class": "curvePoint",
      "cornerRadius": 0,
      "curveFrom": "{0.22921246580363419, 0.76089816704762359}",
      "curveMode": 3,
      "curveTo": "{0.1940861272655626, 0.78567177362852381}",
      "hasCurveFrom": true,
      "hasCurveTo": true,
      "point": "{0.20153081394079764, 0.78049123391455544}"
    },
    {
      "_class": "curvePoint",
      "cornerRadius": 0,
      "curveFrom": "{0.32997787277403301, 0.74024242536757057}",
      "curveMode": 3,
      "curveTo": "{0.29527095320358215, 0.76335560255296786}",
      "hasCurveFrom": true,
      "hasCurveTo": true,
      "point": "{0.32410600722736677, 0.7441610387409584}"
    },
    {
      "_class": "curvePoint",
      "cornerRadius": 0,
      "curveFrom": "{0.3118380024245232, 0.67701327398683098}",
      "curveMode": 4,
      "curveTo": "{0.29212531094643862, 0.7110852851825451}",
      "hasCurveFrom": true,
      "hasCurveTo": true,
      "point": "{0.29548066268739248, 0.705506242413656}"
    },
    {
      "_class": "curvePoint",
      "cornerRadius": 0,
      "curveFrom": "{0.42266946461776572, 0.60588047868349904}",
      "curveMode": 4,
      "curveTo": "{0.453601613479648, 0.67741177704175159}",
      "hasCurveFrom": true,
      "hasCurveTo": true,
      "point": "{0.47908131576248469, 0.65104415824117068}"
    },
    {
      "_class": "curvePoint",
      "cornerRadius": 0,
      "curveFrom": "{0.57806419212050442, 0.56702643082873916}",
      "curveMode": 3,
      "curveTo": "{0.55656897003004668, 0.6044857179912777}",
      "hasCurveFrom": true,
      "hasCurveTo": true,
      "point": "{0.5729263097671774, 0.57605916674027313}"
    },
    {
      "_class": "curvePoint",
      "cornerRadius": 0,
      "curveFrom": "{0.55174565190242619, 0.52717612533667479}",
      "curveMode": 2,
      "curveTo": "{0.53800968071291611, 0.54577293456630427}",
      "hasCurveFrom": true,
      "hasCurveTo": true,
      "point": "{0.54440581996909931, 0.53720511888551137}"
    },
    {
      "_class": "curvePoint",
      "cornerRadius": 0,
      "curveFrom": "{0.61906239620523629, 0.5050592057885801}",
      "curveMode": 2,
      "curveTo": "{0.59641377195382461, 0.52870372038053892}",
      "hasCurveFrom": true,
      "hasCurveTo": true,
      "point": "{0.60553613449953059, 0.51907322988662308}"
    },
    {
      "_class": "curvePoint",
      "cornerRadius": 0,
      "curveFrom": "{0.70084909489088387, 0.43372715895778874}",
      "curveMode": 4,
      "curveTo": "{0.55981946702909235, 0.46235296173625273}",
      "hasCurveFrom": true,
      "hasCurveTo": true,
      "point": "{0.63814595923188377, 0.46222012738461377}"
    },
    {
      "_class": "curvePoint",
      "cornerRadius": 0,
      "curveFrom": "{0.73922593042799523, 0.33516407004075283}",
      "curveMode": 4,
      "curveTo": "{0.70189764230992968, 0.39095449772964097}",
      "hasCurveFrom": true,
      "hasCurveTo": true,
      "point": "{0.70336560869659626, 0.34851392238059342}"
    },
    {
      "_class": "curvePoint",
      "cornerRadius": 0,
      "curveFrom": "{0.72936958468895585, 0.28116690609900852}",
      "curveMode": 4,
      "curveTo": "{0.77141633619273364, 0.32115004594271179}",
      "hasCurveFrom": true,
      "hasCurveTo": true,
      "point": "{0.73587057868704731, 0.29166081987858417}"
    },
    {
      "_class": "curvePoint",
      "cornerRadius": 0,
      "curveFrom": "{0.71196369753277933, 0.27890872212112361}",
      "curveMode": 4,
      "curveTo": "{0.72653850665753095, 0.27372818240715524}",
      "hasCurveFrom": true,
      "hasCurveTo": true,
      "point": "{0.72580452346419766, 0.267219299176786}"
    },
    {
      "_class": "curvePoint",
      "cornerRadius": 0,
      "curveFrom": "{0.63929936139283783, 0.26841480834154791}",
      "curveMode": 3,
      "curveTo": "{0.68962963750708617, 0.28787504085683902}",
      "hasCurveFrom": true,
      "hasCurveTo": true,
      "point": "{0.67882959909090324, 0.28375717595599176}"
    },
    {
      "_class": "curvePoint",
      "cornerRadius": 0,
      "curveFrom": "{0.73398319333275996, 0.23852707922250158}",
      "curveMode": 4,
      "curveTo": "{0.70420444663183179, 0.2271033249814419}",
      "hasCurveFrom": true,
      "hasCurveTo": true,
      "point": "{0.72538510449657689, 0.23533905478313644}"
    },
    {
      "_class": "curvePoint",
      "cornerRadius": 0,
      "curveFrom": "{0.74436381278132824, 0.24390687046392931}",
      "curveMode": 4,
      "curveTo": "{0.73691912610609311, 0.24324269870572887}",
      "hasCurveFrom": true,
      "hasCurveTo": true,
      "point": "{0.73723369033180575, 0.24835682124387681}"
    },
    {
      "_class": "curvePoint",
      "cornerRadius": 0,
      "curveFrom": "{0.78840280438128951, 0.22796674826710359}",
      "curveMode": 2,
      "curveTo": "{0.75380073955274673, 0.23965617121144309}",
      "hasCurveFrom": true,
      "hasCurveTo": true,
      "point": "{0.76848040341940049, 0.23460846584911368}"
    },
    {
      "_class": "curvePoint",
      "cornerRadius": 0,
      "curveFrom": "{0.80150964711937456, 0.17762252899546549}",
      "curveMode": 4,
      "curveTo": "{0.809793171729845, 0.22311829443223544}",
      "hasCurveFrom": true,
      "hasCurveTo": true,
      "point": "{0.82982042743364215, 0.21654299402604579}"
    },
    {
      "_class": "curvePoint",
      "cornerRadius": 0,
      "curveFrom": "{0.75222791842417802, 0.14501169566779318}",
      "curveMode": 4,
      "curveTo": "{0.74614634339370733, 0.18506125268731685}",
      "hasCurveFrom": true,
      "hasCurveTo": true,
      "point": "{0.71154427856515867, 0.15716603884287184}"
    },
    {
      "_class": "curvePoint",
      "cornerRadius": 0,
      "curveFrom": "{0.89650804328501521, 0.092475709594090585}",
      "curveMode": 4,
      "curveTo": "{0.79280670354128924, 0.13299018684435346}",
      "hasCurveFrom": true,
      "hasCurveTo": true,
      "point": "{0.83390976236792336, 0.1209022608450952}"
    },
    {
      "_class": "curvePoint",
      "cornerRadius": 0,
      "curveFrom": "{0.93792566633736785, -0.0018366800704591102}",
      "curveMode": 4,
      "curveTo": "{0.89766144544596926, 0.049570214014301971}",
      "hasCurveFrom": true,
      "hasCurveTo": true,
      "point": "{0.89891970234882546, 0.0070632214894358822}"
    },
    {
      "_class": "curvePoint",
      "cornerRadius": 0,
      "curveFrom": "{1.0029356063182699, 0.052359735398746471}",
      "curveMode": 4,
      "curveTo": "{0.97588308290685855, -0.0086112320041081564}",
      "hasCurveFrom": true,
      "hasCurveTo": true,
      "point": "{0.9887802161611331, 0.027586128817848062}"
    },
    {
      "_class": "curvePoint",
      "cornerRadius": 0,
      "curveFrom": "{0.97546366393924377, 0.13192751203123237}",
      "curveMode": 4,
      "curveTo": "{1.0136307899925447, 0.076269918693985056}",
      "hasCurveFrom": true,
      "hasCurveTo": true,
      "point": "{0.95627524617068205, 0.084638482847318564}"
    }
  ],
  "resizingConstraint": 63,
  "resizingType": 0,
  "rotation": 0,
  "shouldBreakMaskChain": false,
  "style": {
    "_class": "style",
    "do_objectID": "8D49BEB6-69A8-4F92-8C8B-41FB193654A5",
    "endMarkerType": 0,
    "fills": [
      {
        "_class": "fill",
        "color": {
          "_class": "color",
          "alpha": 1,
          "blue": 0.1764705882352941,
          "green": 0.1764705882352941,
          "red": 0.1764705882352941
        },
        "fillType": 0,
        "isEnabled": true,
        "noiseIndex": 0,
        "noiseIntensity": 0,
        "patternFillType": 1,
        "patternTileScale": 1
      }
    ],
    "miterLimit": 10,
    "startMarkerType": 0,
    "windingRule": 1
  }
}