{
  "_class": "shapePath",
  "booleanOperation": -1,
  "clippingMaskMode": 0,
  "do_objectID": "345C8B6D-95E0-48E1-83CC-21729E6AC2AD",
  "edited": true,
  "exportOptions": {
    "_class": "exportOptions",
    "do_objectID": "F6B5E5FD-CCB9-454F-91F8-5BF73325D053",
    "exportFormats": [
    ],
    "includedLayerIds": [
    ],
    "layerOptions": 0,
    "shouldTrim": false
  },
  "frame": {
    "_class": "rect",
    "constrainProportions": false,
    "do_objectID": "B7459F41-0FDC-4E77-BD55-F0F3442CB798",
    "height": 0.105890603085566,
    "width": 0.105986348254568,
    "x": 27.80607440559913,
    "y": 21.91441846787873
  },
  "hasClippingMask": false,
  "isClosed": true,
  "isFixedToViewport": false,
  "isFlippedHorizontal": false,
  "isFlippedVertical": false,
  "isLocked": false,
  "isVisible": true,
  "layerListExpandedType": 0,
  "name": "Path",
  "nameIsFixed": false,
  "pointRadiusBehaviour": 0,
  "points": [
    {
      "_class": "curvePoint",
      "cornerRadius": 0,
      "curveFrom": "{1.0430081463758825, 0.18776985713844851}",
      "curveMode": 4,
      "curveTo": "{0.28100814637588201, -0.085230142861576041}",
      "hasCurveFrom": true,
      "hasCurveTo": true,
      "point": "{0.54400814637591566, 0.0067698571384653405}"
    },
    {
      "_class": "curvePoint",
      "cornerRadius": 0,
      "curveFrom": "{-0.30299185362412118, 0.78776985713847125}",
      "curveMode": 3,
      "curveTo": "{0.46300814637589838, 1.0657698571384913}",
      "hasCurveFrom": true,
      "hasCurveTo": true,
      "point": "{0.19400814637589292, 0.96776985713842123}"
    }
  ],
  "resizingConstraint": 63,
  "resizingType": 0,
  "rotation": 0,
  "shouldBreakMaskChain": false,
  "style": {
    "_class": "style",
    "do_objectID": "36F9947A-FA04-43E0-A1BE-1983A98AC3B8",
    "endMarkerType": 0,
    "fills": [
      {
        "_class": "fill",
        "color": {
          "_class": "color",
          "alpha": 1,
          "blue": 0.1764705882352941,
          "green": 0.1764705882352941,
          "red": 0.1764705882352941
        },
        "fillType": 0,
        "isEnabled": true,
        "noiseIndex": 0,
        "noiseIntensity": 0,
        "patternFillType": 1,
        "patternTileScale": 1
      }
    ],
    "miterLimit": 10,
    "startMarkerType": 0,
    "windingRule": 1
  }
}