{
  "_class": "shapePath",
  "booleanOperation": -1,
  "clippingMaskMode": 0,
  "do_objectID": "3ACE7A6A-C9E9-4CE4-9D86-77A69E0B29B3",
  "edited": true,
  "exportOptions": {
    "_class": "exportOptions",
    "do_objectID": "48DA905D-BABA-4C13-9791-5E43195EAF70",
    "exportFormats": [
    ],
    "includedLayerIds": [
    ],
    "layerOptions": 0,
    "shouldTrim": false
  },
  "frame": {
    "_class": "rect",
    "constrainProportions": false,
    "do_objectID": "9A31FBE1-04BB-488E-9F6E-6842274E21A2",
    "height": 0.1058906030855589,
    "width": 0.1059863482545502,
    "x": 21.00512999594586,
    "y": 22.54032373507929
  },
  "hasClippingMask": false,
  "isClosed": true,
  "isFixedToViewport": false,
  "isFlippedHorizontal": false,
  "isFlippedVertical": false,
  "isLocked": false,
  "isVisible": true,
  "layerListExpandedType": 0,
  "name": "Path",
  "nameIsFixed": false,
  "pointRadiusBehaviour": 0,
  "points": [
    {
      "_class": "curvePoint",
      "cornerRadius": 0,
      "curveFrom": "{-0.27076462129457468, 0.70286642592230919}",
      "curveMode": 3,
      "curveTo": "{0.41123537870544169, 0.94786642592231374}",
      "hasCurveFrom": true,
      "hasCurveTo": true,
      "point": "{0.1742353787054185, 0.8628664259223342}"
    },
    {
      "_class": "curvePoint",
      "cornerRadius": 0,
      "curveFrom": "{0.92723537870546124, 0.16486642592235512}",
      "curveMode": 4,
      "curveTo": "{0.24923537870540713, -0.081133574077682624}",
      "hasCurveFrom": true,
      "hasCurveTo": true,
      "point": "{0.48623537870543032, 0.0068664259223396584}"
    }
  ],
  "resizingConstraint": 63,
  "resizingType": 0,
  "rotation": 0,
  "shouldBreakMaskChain": false,
  "style": {
    "_class": "style",
    "do_objectID": "87E3C729-C2FF-4096-85E0-D679F4F1944C",
    "endMarkerType": 0,
    "fills": [
      {
        "_class": "fill",
        "color": {
          "_class": "color",
          "alpha": 1,
          "blue": 0.1764705882352941,
          "green": 0.1764705882352941,
          "red": 0.1764705882352941
        },
        "fillType": 0,
        "isEnabled": true,
        "noiseIndex": 0,
        "noiseIntensity": 0,
        "patternFillType": 1,
        "patternTileScale": 1
      }
    ],
    "miterLimit": 10,
    "startMarkerType": 0,
    "windingRule": 1
  }
}