{
  "_class": "shapePath",
  "booleanOperation": -1,
  "clippingMaskMode": 0,
  "do_objectID": "4046CB4E-C3FA-4F98-B111-61B10F059772",
  "edited": true,
  "exportOptions": {
    "_class": "exportOptions",
    "do_objectID": "09A3EFBA-02D8-40F6-B99C-BB2FE57F69A4",
    "exportFormats": [
    ],
    "includedLayerIds": [
    ],
    "layerOptions": 0,
    "shouldTrim": false
  },
  "frame": {
    "_class": "rect",
    "constrainProportions": false,
    "do_objectID": "FF77D5F7-8CC3-447A-AC4F-9CD9FC279BA9",
    "height": 0.1058906030855606,
    "width": 0.1059863482545751,
    "x": 28.64296853026688,
    "y": 9.077166949786477
  },
  "hasClippingMask": false,
  "isClosed": true,
  "isFixedToViewport": false,
  "isFlippedHorizontal": false,
  "isFlippedVertical": false,
  "isLocked": false,
  "isVisible": true,
  "layerListExpandedType": 0,
  "name": "Path",
  "nameIsFixed": false,
  "pointRadiusBehaviour": 0,
  "points": [
    {
      "_class": "curvePoint",
      "cornerRadius": 0,
      "curveFrom": "{0.94176883532321654, 0.24516141462964924}",
      "curveMode": 3,
      "curveTo": "{0.3607688353232561, -0.1078385853703594}",
      "hasCurveFrom": true,
      "hasCurveTo": true,
      "point": "{0.56376883532323063, 0.01616141462966425}"
    },
    {
      "_class": "curvePoint",
      "cornerRadius": 0,
      "curveFrom": "{-0.25923116467674845, 0.51516141462963105}",
      "curveMode": 3,
      "curveTo": "{0.32076883532323563, 0.86716141462966334}",
      "hasCurveFrom": true,
      "hasCurveTo": true,
      "point": "{0.120768835323247, 0.74416141462961605}"
    }
  ],
  "resizingConstraint": 63,
  "resizingType": 0,
  "rotation": 0,
  "shouldBreakMaskChain": false,
  "style": {
    "_class": "style",
    "do_objectID": "0C06D24C-3741-4DA9-A39E-5CC5B00DAEE9",
    "endMarkerType": 0,
    "fills": [
      {
        "_class": "fill",
        "color": {
          "_class": "color",
          "alpha": 1,
          "blue": 0.1764705882352941,
          "green": 0.1764705882352941,
          "red": 0.1764705882352941
        },
        "fillType": 0,
        "isEnabled": true,
        "noiseIndex": 0,
        "noiseIntensity": 0,
        "patternFillType": 1,
        "patternTileScale": 1
      }
    ],
    "miterLimit": 10,
    "startMarkerType": 0,
    "windingRule": 1
  }
}