{
  "_class": "shapePath",
  "booleanOperation": -1,
  "clippingMaskMode": 0,
  "do_objectID": "4EBA4A44-D2E7-46B9-BCB5-59CFB4FD12D2",
  "edited": true,
  "exportOptions": {
    "_class": "exportOptions",
    "do_objectID": "98AB10BE-20E4-495C-8F00-943DC5E2DB96",
    "exportFormats": [
    ],
    "includedLayerIds": [
    ],
    "layerOptions": 0,
    "shouldTrim": false
  },
  "frame": {
    "_class": "rect",
    "constrainProportions": false,
    "do_objectID": "C7C41DE3-6C17-4476-A98B-20C360AF031F",
    "height": 0.1058906030855589,
    "width": 0.1059863482545786,
    "x": 23.52100730716592,
    "y": 19.97121455392956
  },
  "hasClippingMask": false,
  "isClosed": true,
  "isFixedToViewport": false,
  "isFlippedHorizontal": false,
  "isFlippedVertical": false,
  "isLocked": false,
  "isVisible": true,
  "layerListExpandedType": 0,
  "name": "Path",
  "nameIsFixed": false,
  "pointRadiusBehaviour": 0,
  "points": [
    {
      "_class": "curvePoint",
      "cornerRadius": 0,
      "curveFrom": "{0.12981878656830781, 0.044000000000011141}",
      "curveMode": 3,
      "curveTo": "{-0.08402385816239609, 0.48699999999999477}",
      "hasCurveFrom": true,
      "hasCurveTo": true,
      "point": "{0.013822960828787936, 0.28400000000002024}"
    },
    {
      "_class": "curvePoint",
      "cornerRadius": 0,
      "curveFrom": "{1.1185451107290243, 0.47300000000001319}",
      "curveMode": 4,
      "curveTo": "{0.7776594187598348, 0.20900000000000318}",
      "hasCurveFrom": true,
      "hasCurveTo": true,
      "point": "{0.9410004794950817, 0}"
    },
    {
      "_class": "curvePoint",
      "cornerRadius": 0,
      "curveFrom": "{0.36181043804734758, 1.0720000000000027}",
      "curveMode": 4,
      "curveTo": "{0.86445901625196353, 0.61000000000001364}",
      "hasCurveFrom": true,
      "hasCurveTo": true,
      "point": "{0.58906756602683708, 0.73099999999999454}"
    }
  ],
  "resizingConstraint": 63,
  "resizingType": 0,
  "rotation": 0,
  "shouldBreakMaskChain": false,
  "style": {
    "_class": "style",
    "do_objectID": "DA4F6F43-B1DC-41B6-B933-F9291E2F6AB0",
    "endMarkerType": 0,
    "fills": [
      {
        "_class": "fill",
        "color": {
          "_class": "color",
          "alpha": 1,
          "blue": 0.1764705882352941,
          "green": 0.1764705882352941,
          "red": 0.1764705882352941
        },
        "fillType": 0,
        "isEnabled": true,
        "noiseIndex": 0,
        "noiseIntensity": 0,
        "patternFillType": 1,
        "patternTileScale": 1
      }
    ],
    "miterLimit": 10,
    "startMarkerType": 0,
    "windingRule": 1
  }
}