{
  "_class": "shapePath",
  "booleanOperation": -1,
  "clippingMaskMode": 0,
  "do_objectID": "4F02A32B-1437-47B9-9B4C-55DC024917D9",
  "edited": true,
  "exportOptions": {
    "_class": "exportOptions",
    "do_objectID": "F2BD3272-2018-4FFA-BAA8-2ACA6BD800BC",
    "exportFormats": [
    ],
    "includedLayerIds": [
    ],
    "layerOptions": 0,
    "shouldTrim": false
  },
  "frame": {
    "_class": "rect",
    "constrainProportions": false,
    "do_objectID": "CFC2F1ED-EC08-47BD-978B-C7CFE4D13EA6",
    "height": 0.1058906030855606,
    "width": 0.105986348254568,
    "x": 28.05992004758448,
    "y": 13.95071216591601
  },
  "hasClippingMask": false,
  "isClosed": true,
  "isFixedToViewport": false,
  "isFlippedHorizontal": false,
  "isFlippedVertical": false,
  "isLocked": false,
  "isVisible": true,
  "layerListExpandedType": 0,
  "name": "Path",
  "nameIsFixed": false,
  "pointRadiusBehaviour": 0,
  "points": [
    {
      "_class": "curvePoint",
      "cornerRadius": 0,
      "curveFrom": "{0.93971971192092951, 0.24652199102095551}",
      "curveMode": 3,
      "curveTo": "{0.36171971192095498, -0.10547800897907678}",
      "hasCurveFrom": true,
      "hasCurveTo": true,
      "point": "{0.56271971192097681, 0.015521991020960968}"
    },
    {
      "_class": "curvePoint",
      "cornerRadius": 0,
      "curveFrom": "{-0.25828028807904957, 0.51352199102095142}",
      "curveMode": 3,
      "curveTo": "{0.32071971192095816, 0.86852199102096961}",
      "hasCurveFrom": true,
      "hasCurveTo": true,
      "point": "{0.11971971192093633, 0.74352199102096961}"
    }
  ],
  "resizingConstraint": 63,
  "resizingType": 0,
  "rotation": 0,
  "shouldBreakMaskChain": false,
  "style": {
    "_class": "style",
    "do_objectID": "8CE97CDE-770C-4261-BDAC-A502874B41B0",
    "endMarkerType": 0,
    "fills": [
      {
        "_class": "fill",
        "color": {
          "_class": "color",
          "alpha": 1,
          "blue": 0.1764705882352941,
          "green": 0.1764705882352941,
          "red": 0.1764705882352941
        },
        "fillType": 0,
        "isEnabled": true,
        "noiseIndex": 0,
        "noiseIntensity": 0,
        "patternFillType": 1,
        "patternTileScale": 1
      }
    ],
    "miterLimit": 10,
    "startMarkerType": 0,
    "windingRule": 1
  }
}