{
  "_class": "shapePath",
  "booleanOperation": -1,
  "clippingMaskMode": 0,
  "do_objectID": "54EFF519-F5A4-4F38-A910-E76093D742C5",
  "edited": true,
  "exportOptions": {
    "_class": "exportOptions",
    "do_objectID": "3B4D58FC-C751-42A6-A091-61F53C6DFD8F",
    "exportFormats": [
    ],
    "includedLayerIds": [
    ],
    "layerOptions": 0,
    "shouldTrim": false
  },
  "frame": {
    "_class": "rect",
    "constrainProportions": false,
    "do_objectID": "9FE8147E-D616-4CFF-BB9F-051E0798159A",
    "height": 0.1058906030855873,
    "width": 0.1059863482545591,
    "x": 14.76649654452547,
    "y": 21.2997119263924
  },
  "hasClippingMask": false,
  "isClosed": true,
  "isFixedToViewport": false,
  "isFlippedHorizontal": false,
  "isFlippedVertical": false,
  "isLocked": false,
  "isVisible": true,
  "layerListExpandedType": 0,
  "name": "Path",
  "nameIsFixed": false,
  "pointRadiusBehaviour": 0,
  "points": [
    {
      "_class": "curvePoint",
      "cornerRadius": 0,
      "curveFrom": "{0.92699069347338536, 0.1695842065973352}",
      "curveMode": 3,
      "curveTo": "{0.24599069347340219, -0.07941579340268845}",
      "hasCurveFrom": true,
      "hasCurveTo": true,
      "point": "{0.48399069347340173, 0.0065842065973242825}"
    },
    {
      "_class": "curvePoint",
      "cornerRadius": 0,
      "curveFrom": "{-0.27000930652661737, 0.70258420659729381}",
      "curveMode": 3,
      "curveTo": "{0.41099069347339423, 0.95158420659726062}",
      "hasCurveFrom": true,
      "hasCurveTo": true,
      "point": "{0.17499069347340424, 0.86358420659729518}"
    }
  ],
  "resizingConstraint": 63,
  "resizingType": 0,
  "rotation": 0,
  "shouldBreakMaskChain": false,
  "style": {
    "_class": "style",
    "do_objectID": "E8B7FF49-D137-46BE-9522-E3EF440DF26A",
    "endMarkerType": 0,
    "fills": [
      {
        "_class": "fill",
        "color": {
          "_class": "color",
          "alpha": 1,
          "blue": 0.1764705882352941,
          "green": 0.1764705882352941,
          "red": 0.1764705882352941
        },
        "fillType": 0,
        "isEnabled": true,
        "noiseIndex": 0,
        "noiseIntensity": 0,
        "patternFillType": 1,
        "patternTileScale": 1
      }
    ],
    "miterLimit": 10,
    "startMarkerType": 0,
    "windingRule": 1
  }
}