{
  "_class": "shapePath",
  "booleanOperation": -1,
  "clippingMaskMode": 0,
  "do_objectID": "59D69A45-25C8-4494-8A7B-705F41FF8388",
  "edited": true,
  "exportOptions": {
    "_class": "exportOptions",
    "do_objectID": "6BDD947E-E557-427E-BF36-BBD616DE3965",
    "exportFormats": [
    ],
    "includedLayerIds": [
    ],
    "layerOptions": 0,
    "shouldTrim": false
  },
  "frame": {
    "_class": "rect",
    "constrainProportions": false,
    "do_objectID": "486148E4-E5D4-4417-B099-3004CFE50874",
    "height": 0.105890603085566,
    "width": 0.1527189688432316,
    "x": 32.56210106194795,
    "y": 23.3281694623757
  },
  "hasClippingMask": false,
  "isClosed": true,
  "isFixedToViewport": false,
  "isFlippedHorizontal": false,
  "isFlippedVertical": false,
  "isLocked": false,
  "isVisible": true,
  "layerListExpandedType": 0,
  "name": "Path",
  "nameIsFixed": false,
  "pointRadiusBehaviour": 0,
  "points": [
    {
      "_class": "curvePoint",
      "cornerRadius": 0,
      "curveFrom": "{0.80812606070212278, 0.49441735779712276}",
      "curveMode": 4,
      "curveTo": "{0.32392340502242412, -1.1154613108184521}",
      "hasCurveFrom": true,
      "hasCurveTo": true,
      "point": "{0.6135945876189286, 0.54538723201254813}"
    },
    {
      "_class": "curvePoint",
      "cornerRadius": 0,
      "curveFrom": "{0.80600003367388129, 1.0233500147496344}",
      "curveMode": 4,
      "curveTo": "{0.99255890540118485, 0.46845157281940986}",
      "hasCurveFrom": true,
      "hasCurveTo": true,
      "point": "{1, 0.9771886192337732}"
    },
    {
      "_class": "curvePoint",
      "cornerRadius": 0,
      "curveFrom": "{-0.60887095361412391, 1.6522990286532149}",
      "curveMode": 4,
      "curveTo": "{0.62103568221774375, 1.0483541039874562}",
      "hasCurveFrom": true,
      "hasCurveTo": true,
      "point": "{0.6135945876189286, 0.54538723201254813}"
    }
  ],
  "resizingConstraint": 63,
  "resizingType": 0,
  "rotation": 0,
  "shouldBreakMaskChain": false,
  "style": {
    "_class": "style",
    "do_objectID": "6C9431FA-F91E-40C5-ABFE-26E01A895CBC",
    "endMarkerType": 0,
    "fills": [
      {
        "_class": "fill",
        "color": {
          "_class": "color",
          "alpha": 1,
          "blue": 0.1764705882352941,
          "green": 0.1764705882352941,
          "red": 0.1764705882352941
        },
        "fillType": 0,
        "isEnabled": true,
        "noiseIndex": 0,
        "noiseIntensity": 0,
        "patternFillType": 1,
        "patternTileScale": 1
      }
    ],
    "miterLimit": 10,
    "startMarkerType": 0,
    "windingRule": 1
  }
}