{
  "_class": "shapePath",
  "booleanOperation": -1,
  "clippingMaskMode": 0,
  "do_objectID": "5ACBA459-6CF2-4D81-852B-1051D7C81D90",
  "edited": true,
  "exportOptions": {
    "_class": "exportOptions",
    "do_objectID": "F1AA7F3E-8FE4-4947-8BC0-567660374B06",
    "exportFormats": [
    ],
    "includedLayerIds": [
    ],
    "layerOptions": 0,
    "shouldTrim": false
  },
  "frame": {
    "_class": "rect",
    "constrainProportions": false,
    "do_objectID": "B771C74A-9D74-4592-A7DE-425A3BC72049",
    "height": 0.1058906030855535,
    "width": 0.1059863482545556,
    "x": 13.61651227625081,
    "y": 13.32687710850895
  },
  "hasClippingMask": false,
  "isClosed": true,
  "isFixedToViewport": false,
  "isFlippedHorizontal": false,
  "isFlippedVertical": false,
  "isLocked": false,
  "isVisible": true,
  "layerListExpandedType": 0,
  "name": "Path",
  "nameIsFixed": false,
  "pointRadiusBehaviour": 0,
  "points": [
    {
      "_class": "curvePoint",
      "cornerRadius": 0,
      "curveFrom": "{1.0413897232660929, 0.1878981098693373}",
      "curveMode": 3,
      "curveTo": "{0.27738972326608291, -0.086101890130663605}",
      "hasCurveFrom": true,
      "hasCurveTo": true,
      "point": "{0.54138972326609291, 0.0068981098693541298}"
    },
    {
      "_class": "curvePoint",
      "cornerRadius": 0,
      "curveFrom": "{-0.30261027673390117, 0.78889810986933639}",
      "curveMode": 3,
      "curveTo": "{0.46238972326608518, 1.0648981098693469}",
      "hasCurveFrom": true,
      "hasCurveTo": true,
      "point": "{0.19538972326608928, 0.96789810986936686}"
    }
  ],
  "resizingConstraint": 63,
  "resizingType": 0,
  "rotation": 0,
  "shouldBreakMaskChain": false,
  "style": {
    "_class": "style",
    "do_objectID": "6D1F4388-9A11-46A8-B000-8D8F73FB867F",
    "endMarkerType": 0,
    "fills": [
      {
        "_class": "fill",
        "color": {
          "_class": "color",
          "alpha": 1,
          "blue": 0.1764705882352941,
          "green": 0.1764705882352941,
          "red": 0.1764705882352941
        },
        "fillType": 0,
        "isEnabled": true,
        "noiseIndex": 0,
        "noiseIntensity": 0,
        "patternFillType": 1,
        "patternTileScale": 1
      }
    ],
    "miterLimit": 10,
    "startMarkerType": 0,
    "windingRule": 1
  }
}