{
  "_class": "shapePath",
  "booleanOperation": -1,
  "clippingMaskMode": 0,
  "do_objectID": "5AFAA183-F59B-4125-8446-3868AB4F3AEB",
  "edited": true,
  "exportOptions": {
    "_class": "exportOptions",
    "do_objectID": "A4509895-FEC7-404A-B792-581A7FBC1C08",
    "exportFormats": [
    ],
    "includedLayerIds": [
    ],
    "layerOptions": 0,
    "shouldTrim": false
  },
  "frame": {
    "_class": "rect",
    "constrainProportions": false,
    "do_objectID": "D335D59C-D41A-4F0E-B467-EE4A10BD993D",
    "height": 0.3765513544357368,
    "width": 0.6042210251810483,
    "x": 2.889515194450205,
    "y": 22.50518343789232
  },
  "hasClippingMask": false,
  "isClosed": true,
  "isFixedToViewport": false,
  "isFlippedHorizontal": false,
  "isFlippedVertical": false,
  "isLocked": false,
  "isVisible": true,
  "layerListExpandedType": 0,
  "name": "Path",
  "nameIsFixed": false,
  "pointRadiusBehaviour": 0,
  "points": [
    {
      "_class": "curvePoint",
      "cornerRadius": 0,
      "curveFrom": "{0.18635614556595212, 0.70558931580070827}",
      "curveMode": 4,
      "curveTo": "{0.017759214289497994, 0.84191847680885357}",
      "hasCurveFrom": true,
      "hasCurveTo": true,
      "point": "{0.069211504870279994, 0.79302950437781206}"
    },
    {
      "_class": "curvePoint",
      "cornerRadius": 0,
      "curveFrom": "{0.58306270975668628, 0.40859419253015949}",
      "curveMode": 3,
      "curveTo": "{0.30403814699876097, 0.61728764753316112}",
      "hasCurveFrom": true,
      "hasCurveTo": true,
      "point": "{0.42118278769443313, 0.5302781988012546}"
    },
    {
      "_class": "curvePoint",
      "cornerRadius": 0,
      "curveFrom": "{0.87243146670448135, 0.10319964227806794}",
      "curveMode": 4,
      "curveTo": "{0.74467395145037096, 0.28691018625903986}",
      "hasCurveFrom": true,
      "hasCurveTo": true,
      "point": "{0.90668821369690877, 0.16587228975575291}"
    },
    {
      "_class": "curvePoint",
      "cornerRadius": 0,
      "curveFrom": "{1.0204743497854805, 0.041173104568191135}",
      "curveMode": 3,
      "curveTo": "{0.95370727819631862, -0.023868612058140053}",
      "hasCurveFrom": true,
      "hasCurveTo": true,
      "point": "{0.98205305708024826, 0.0039141079577453258}"
    },
    {
      "_class": "curvePoint",
      "cornerRadius": 0,
      "curveFrom": "{0.98809836537302975, 0.24878970995818728}",
      "curveMode": 4,
      "curveTo": "{0.99011346813729029, 0.12064460600897385}",
      "hasCurveFrom": true,
      "hasCurveTo": true,
      "point": "{0.95720012298770285, 0.15962656200023326}"
    },
    {
      "_class": "curvePoint",
      "cornerRadius": 0,
      "curveFrom": "{0.60912470550778697, 0.56107609773359435}",
      "curveMode": 4,
      "curveTo": "{0.94913971193066182, 0.29703257262142069}",
      "hasCurveFrom": true,
      "hasCurveTo": true,
      "point": "{0.9023893277998194, 0.34096803683258342}"
    },
    {
      "_class": "curvePoint",
      "cornerRadius": 0,
      "curveFrom": "{-0.028991169841344453, 0.89188429885292508}",
      "curveMode": 4,
      "curveTo": "{0.31559140284718717, 0.78118415863461765}",
      "hasCurveFrom": true,
      "hasCurveTo": true,
      "point": "{0.022058100186586407, 1}"
    }
  ],
  "resizingConstraint": 63,
  "resizingType": 0,
  "rotation": 0,
  "shouldBreakMaskChain": false,
  "style": {
    "_class": "style",
    "do_objectID": "36C578FD-AC25-427A-9795-F30AF969252E",
    "endMarkerType": 0,
    "fills": [
      {
        "_class": "fill",
        "color": {
          "_class": "color",
          "alpha": 1,
          "blue": 0.1764705882352941,
          "green": 0.1764705882352941,
          "red": 0.1764705882352941
        },
        "fillType": 0,
        "isEnabled": true,
        "noiseIndex": 0,
        "noiseIntensity": 0,
        "patternFillType": 1,
        "patternTileScale": 1
      }
    ],
    "miterLimit": 10,
    "startMarkerType": 0,
    "windingRule": 1
  }
}