{
  "_class": "shapePath",
  "booleanOperation": -1,
  "clippingMaskMode": 0,
  "do_objectID": "6366B130-393A-4840-8C37-4B8CF5060144",
  "edited": true,
  "exportOptions": {
    "_class": "exportOptions",
    "do_objectID": "7FE29DE1-745B-4C3C-AFAF-E39381276004",
    "exportFormats": [
    ],
    "includedLayerIds": [
    ],
    "layerOptions": 0,
    "shouldTrim": false
  },
  "frame": {
    "_class": "rect",
    "constrainProportions": false,
    "do_objectID": "EE41A22D-0F51-4A61-BC71-6792CED637AD",
    "height": 0.1166997860919867,
    "width": 0.1059863482545502,
    "x": 12.181660667655,
    "y": 15.17662938815853
  },
  "hasClippingMask": false,
  "isClosed": true,
  "isFixedToViewport": false,
  "isFlippedHorizontal": false,
  "isFlippedVertical": false,
  "isLocked": false,
  "isVisible": true,
  "layerListExpandedType": 0,
  "name": "Path",
  "nameIsFixed": false,
  "pointRadiusBehaviour": 0,
  "points": [
    {
      "_class": "curvePoint",
      "cornerRadius": 0,
      "curveFrom": "{0.074545968974657026, 0.085476025017368645}",
      "curveMode": 3,
      "curveTo": "{-0.090528787456689658, 0.35788742182070815}",
      "hasCurveFrom": true,
      "hasCurveTo": true,
      "point": "{0.011454569919738757, 0.18971507991659101}"
    },
    {
      "_class": "curvePoint",
      "cornerRadius": 0,
      "curveFrom": "{0.47383674107562068, 0.19318971507989577}",
      "curveMode": 4,
      "curveTo": "{0.43235198553266341, 0.096594857539967632}",
      "hasCurveFrom": true,
      "hasCurveTo": true,
      "point": "{0.51532149661857796, 0}"
    },
    {
      "_class": "curvePoint",
      "cornerRadius": 0,
      "curveFrom": "{0.92325492612429161, 0.91591382904796115}",
      "curveMode": 4,
      "curveTo": "{1.0891939482961206, 0.64072272411396203}",
      "hasCurveFrom": true,
      "hasCurveTo": true,
      "point": "{0.98893912240063242, 0.80958999305072432}"
    },
    {
      "_class": "curvePoint",
      "cornerRadius": 0,
      "curveFrom": "{0.52309988828287013, 0.80750521195274938}",
      "curveMode": 4,
      "curveTo": "{0.5645846438258274, 0.90340514246007186}",
      "hasCurveFrom": true,
      "hasCurveTo": true,
      "point": "{0.48334366422087766, 1}"
    }
  ],
  "resizingConstraint": 63,
  "resizingType": 0,
  "rotation": 0,
  "shouldBreakMaskChain": false,
  "style": {
    "_class": "style",
    "do_objectID": "5E7D409A-D8F7-4B65-9BAA-7613E75E7DEA",
    "endMarkerType": 0,
    "fills": [
      {
        "_class": "fill",
        "color": {
          "_class": "color",
          "alpha": 1,
          "blue": 0.1764705882352941,
          "green": 0.1764705882352941,
          "red": 0.1764705882352941
        },
        "fillType": 0,
        "isEnabled": true,
        "noiseIndex": 0,
        "noiseIntensity": 0,
        "patternFillType": 1,
        "patternTileScale": 1
      }
    ],
    "miterLimit": 10,
    "startMarkerType": 0,
    "windingRule": 1
  }
}