{
  "_class": "shapePath",
  "booleanOperation": -1,
  "clippingMaskMode": 0,
  "do_objectID": "665236E0-A29A-4282-89C0-6017191308B2",
  "edited": true,
  "exportOptions": {
    "_class": "exportOptions",
    "do_objectID": "DE26B0D3-18B9-4B7E-8DAB-899D66F2C5FD",
    "exportFormats": [
    ],
    "includedLayerIds": [
    ],
    "layerOptions": 0,
    "shouldTrim": false
  },
  "frame": {
    "_class": "rect",
    "constrainProportions": false,
    "do_objectID": "76161E05-BEC1-47B4-A1A1-52E1325B94AD",
    "height": 0.1058906030855589,
    "width": 0.1059863482545609,
    "x": 20.13432955805642,
    "y": 13.72018338141145
  },
  "hasClippingMask": false,
  "isClosed": true,
  "isFixedToViewport": false,
  "isFlippedHorizontal": false,
  "isFlippedVertical": false,
  "isLocked": false,
  "isVisible": true,
  "layerListExpandedType": 0,
  "name": "Path",
  "nameIsFixed": false,
  "pointRadiusBehaviour": 0,
  "points": [
    {
      "_class": "curvePoint",
      "cornerRadius": 0,
      "curveFrom": "{-0.28981153598192577, 0.57712292467260795}",
      "curveMode": 3,
      "curveTo": "{0.35818846401807036, 0.97112292467261341}",
      "hasCurveFrom": true,
      "hasCurveTo": true,
      "point": "{0.13418846401808082, 0.8361229246726225}"
    },
    {
      "_class": "curvePoint",
      "cornerRadius": 0,
      "curveFrom": "{1.0571884640180826, 0.27512292467258703}",
      "curveMode": 3,
      "curveTo": "{0.40618846401807218, -0.12087707532742797}",
      "hasCurveFrom": true,
      "hasCurveTo": true,
      "point": "{0.63418846401808082, 0.01812292467258203}"
    }
  ],
  "resizingConstraint": 63,
  "resizingType": 0,
  "rotation": 0,
  "shouldBreakMaskChain": false,
  "style": {
    "_class": "style",
    "do_objectID": "C6BE2DF1-04F1-40DE-AD8D-7949E32A2294",
    "endMarkerType": 0,
    "fills": [
      {
        "_class": "fill",
        "color": {
          "_class": "color",
          "alpha": 1,
          "blue": 0.1764705882352941,
          "green": 0.1764705882352941,
          "red": 0.1764705882352941
        },
        "fillType": 0,
        "isEnabled": true,
        "noiseIndex": 0,
        "noiseIntensity": 0,
        "patternFillType": 1,
        "patternTileScale": 1
      }
    ],
    "miterLimit": 10,
    "startMarkerType": 0,
    "windingRule": 1
  }
}