{
  "_class": "shapePath",
  "booleanOperation": -1,
  "clippingMaskMode": 0,
  "do_objectID": "68CFB30D-6D1F-4CF2-9128-27C02AAD7779",
  "edited": true,
  "exportOptions": {
    "_class": "exportOptions",
    "do_objectID": "B568C3E7-E244-432D-BEAE-EB22433AD1F2",
    "exportFormats": [
    ],
    "includedLayerIds": [
    ],
    "layerOptions": 0,
    "shouldTrim": false
  },
  "frame": {
    "_class": "rect",
    "constrainProportions": false,
    "do_objectID": "A9AD704B-3CB7-4851-90CA-5B63984CF563",
    "height": 0.1058906030855624,
    "width": 0.1153777069530229,
    "x": 26.87767615034094,
    "y": 8.1786971144422
  },
  "hasClippingMask": false,
  "isClosed": true,
  "isFixedToViewport": false,
  "isFlippedHorizontal": false,
  "isFlippedVertical": false,
  "isLocked": false,
  "isVisible": true,
  "layerListExpandedType": 0,
  "name": "Path",
  "nameIsFixed": false,
  "pointRadiusBehaviour": 0,
  "points": [
    {
      "_class": "curvePoint",
      "cornerRadius": 0,
      "curveFrom": "{0.13053631441507624, 0.048000000000001819}",
      "curveMode": 3,
      "curveTo": "{-0.084038976033097346, 0.54700000000002547}",
      "hasCurveFrom": true,
      "hasCurveTo": true,
      "point": "{0.013751074367878416, 0.31799999999998363}"
    },
    {
      "_class": "curvePoint",
      "cornerRadius": 0,
      "curveFrom": "{1.1203967526464522, 0.53300000000001546}",
      "curveMode": 4,
      "curveTo": "{0.7777798134718189, 0.23599999999999}",
      "hasCurveFrom": true,
      "hasCurveTo": true,
      "point": "{0.93959068823602454, 0}"
    },
    {
      "_class": "curvePoint",
      "cornerRadius": 0,
      "curveFrom": "{0.36410679450947186, 1.2019999999999982}",
      "curveMode": 4,
      "curveTo": "{0.86360992965109629, 0.68200000000001637}",
      "hasCurveFrom": true,
      "hasCurveTo": true,
      "point": "{0.58782791700951831, 0.81700000000000728}"
    }
  ],
  "resizingConstraint": 63,
  "resizingType": 0,
  "rotation": 0,
  "shouldBreakMaskChain": false,
  "style": {
    "_class": "style",
    "do_objectID": "D5CE0BC9-EBE9-4C22-B93E-0E7A5D29C43A",
    "endMarkerType": 0,
    "fills": [
      {
        "_class": "fill",
        "color": {
          "_class": "color",
          "alpha": 1,
          "blue": 0.1764705882352941,
          "green": 0.1764705882352941,
          "red": 0.1764705882352941
        },
        "fillType": 0,
        "isEnabled": true,
        "noiseIndex": 0,
        "noiseIntensity": 0,
        "patternFillType": 1,
        "patternTileScale": 1
      }
    ],
    "miterLimit": 10,
    "startMarkerType": 0,
    "windingRule": 1
  }
}