{
  "_class": "shapePath",
  "booleanOperation": -1,
  "clippingMaskMode": 0,
  "do_objectID": "6BA75323-4A02-4981-8D40-FC8391D1FDBD",
  "edited": true,
  "exportOptions": {
    "_class": "exportOptions",
    "do_objectID": "38482D58-40A0-4A2E-8C9D-7D7366337E1F",
    "exportFormats": [
    ],
    "includedLayerIds": [
    ],
    "layerOptions": 0,
    "shouldTrim": false
  },
  "frame": {
    "_class": "rect",
    "constrainProportions": false,
    "do_objectID": "2D76E2BF-0B4B-49F0-BBC8-71C62DD383D3",
    "height": 0.2082494426662187,
    "width": 0.1653189513997217,
    "x": 3.033447565027101,
    "y": 19.47247266249232
  },
  "hasClippingMask": false,
  "isClosed": true,
  "isFixedToViewport": false,
  "isFlippedHorizontal": false,
  "isFlippedVertical": false,
  "isLocked": false,
  "isVisible": true,
  "layerListExpandedType": 0,
  "name": "Path",
  "nameIsFixed": false,
  "pointRadiusBehaviour": 0,
  "points": [
    {
      "_class": "curvePoint",
      "cornerRadius": 0,
      "curveFrom": "{0.55826396514152787, 0.18609877079250398}",
      "curveMode": 4,
      "curveTo": "{0.47577641356388828, 0.36873976433236533}",
      "hasCurveFrom": true,
      "hasCurveTo": true,
      "point": "{0.71341912168041988, 0.28072939217882797}"
    },
    {
      "_class": "curvePoint",
      "cornerRadius": 0,
      "curveFrom": "{1.0669371998703083, 0.067323711027771224}",
      "curveMode": 3,
      "curveTo": "{0.84647939833244656, -0.04015798239866606}",
      "hasCurveFrom": true,
      "hasCurveTo": true,
      "point": "{0.94173288051138926, 0.0061837622308514939}"
    },
    {
      "_class": "curvePoint",
      "cornerRadius": 0,
      "curveFrom": "{0.88575918479799209, 0.57007322629422874}",
      "curveMode": 4,
      "curveTo": "{0.9672647417139919, 0.19661328427987945}",
      "hasCurveFrom": true,
      "hasCurveTo": true,
      "point": "{0.85924532893374972, 0.25931093877863914}"
    },
    {
      "_class": "curvePoint",
      "cornerRadius": 0,
      "curveFrom": "{0.17872302841821858, 0.84851312049678296}",
      "curveMode": 4,
      "curveTo": "{0.75024392149186769, 0.83566204845666969}",
      "hasCurveFrom": true,
      "hasCurveTo": true,
      "point": "{0.26808454262732961, 1}"
    },
    {
      "_class": "curvePoint",
      "cornerRadius": 0,
      "curveFrom": "{0.23715171078571343, 0.45636071006045376}",
      "curveMode": 4,
      "curveTo": "{0.08936151420910754, 0.69702624099357702}",
      "hasCurveFrom": true,
      "hasCurveTo": true,
      "point": "{0, 0.54437108221399111}"
    }
  ],
  "resizingConstraint": 63,
  "resizingType": 0,
  "rotation": 0,
  "shouldBreakMaskChain": false,
  "style": {
    "_class": "style",
    "do_objectID": "7EF88D5C-2B8F-453A-9C8E-C76BBAA1C181",
    "endMarkerType": 0,
    "fills": [
      {
        "_class": "fill",
        "color": {
          "_class": "color",
          "alpha": 1,
          "blue": 0.1764705882352941,
          "green": 0.1764705882352941,
          "red": 0.1764705882352941
        },
        "fillType": 0,
        "isEnabled": true,
        "noiseIndex": 0,
        "noiseIntensity": 0,
        "patternFillType": 1,
        "patternTileScale": 1
      }
    ],
    "miterLimit": 10,
    "startMarkerType": 0,
    "windingRule": 1
  }
}