{
  "_class": "shapePath",
  "booleanOperation": -1,
  "clippingMaskMode": 0,
  "do_objectID": "756CE9EF-3C09-44C5-B771-555619A047A8",
  "edited": true,
  "exportOptions": {
    "_class": "exportOptions",
    "do_objectID": "C624887C-ECA8-491A-A10A-76D38FBBFC1A",
    "exportFormats": [
    ],
    "includedLayerIds": [
    ],
    "layerOptions": 0,
    "shouldTrim": false
  },
  "frame": {
    "_class": "rect",
    "constrainProportions": false,
    "do_objectID": "23EC4230-BA1A-475F-9349-AF07F4695DBB",
    "height": 0.1058906030855553,
    "width": 0.1059863482545609,
    "x": 32.73257566643779,
    "y": 3.909549675458333
  },
  "hasClippingMask": false,
  "isClosed": true,
  "isFixedToViewport": false,
  "isFlippedHorizontal": false,
  "isFlippedVertical": false,
  "isLocked": false,
  "isVisible": true,
  "layerListExpandedType": 0,
  "name": "Path",
  "nameIsFixed": false,
  "pointRadiusBehaviour": 0,
  "points": [
    {
      "_class": "curvePoint",
      "cornerRadius": 0,
      "curveFrom": "{0.94125685526984171, 0.24494023333757298}",
      "curveMode": 3,
      "curveTo": "{0.36225685526983398, -0.10705976666240247}",
      "hasCurveFrom": true,
      "hasCurveTo": true,
      "point": "{0.56225685526987945, 0.015940233337587983}"
    },
    {
      "_class": "curvePoint",
      "cornerRadius": 0,
      "curveFrom": "{-0.25674314473013737, 0.51494023333755479}",
      "curveMode": 3,
      "curveTo": "{0.32125685526983716, 0.86694023333758707}",
      "hasCurveFrom": true,
      "hasCurveTo": true,
      "point": "{0.11825685526986263, 0.74394023333759662}"
    }
  ],
  "resizingConstraint": 63,
  "resizingType": 0,
  "rotation": 0,
  "shouldBreakMaskChain": false,
  "style": {
    "_class": "style",
    "do_objectID": "62BE92EC-8979-431D-95D6-00CE9816DF3D",
    "endMarkerType": 0,
    "fills": [
      {
        "_class": "fill",
        "color": {
          "_class": "color",
          "alpha": 1,
          "blue": 0.1764705882352941,
          "green": 0.1764705882352941,
          "red": 0.1764705882352941
        },
        "fillType": 0,
        "isEnabled": true,
        "noiseIndex": 0,
        "noiseIntensity": 0,
        "patternFillType": 1,
        "patternTileScale": 1
      }
    ],
    "miterLimit": 10,
    "startMarkerType": 0,
    "windingRule": 1
  }
}