{
  "_class": "shapePath",
  "booleanOperation": -1,
  "clippingMaskMode": 0,
  "do_objectID": "79812C0D-CD76-45CA-BF02-B0F0E89D66E6",
  "edited": true,
  "exportOptions": {
    "_class": "exportOptions",
    "do_objectID": "E5F15239-7183-4F33-B6F7-40AE4B3CC273",
    "exportFormats": [
    ],
    "includedLayerIds": [
    ],
    "layerOptions": 0,
    "shouldTrim": false
  },
  "frame": {
    "_class": "rect",
    "constrainProportions": false,
    "do_objectID": "A19E6A81-9D83-443F-B5E0-A7B6B61ECB77",
    "height": 0.1058906030855553,
    "width": 0.1059863482545467,
    "x": 26.65610435672645,
    "y": 13.77574536803828
  },
  "hasClippingMask": false,
  "isClosed": true,
  "isFixedToViewport": false,
  "isFlippedHorizontal": false,
  "isFlippedVertical": false,
  "isLocked": false,
  "isVisible": true,
  "layerListExpandedType": 0,
  "name": "Path",
  "nameIsFixed": false,
  "pointRadiusBehaviour": 0,
  "points": [
    {
      "_class": "curvePoint",
      "cornerRadius": 0,
      "curveFrom": "{0.1319521716745482, 0.03999999999996362}",
      "curveMode": 3,
      "curveTo": "{-0.083454827351931202, 0.48699999999996635}",
      "hasCurveFrom": true,
      "hasCurveTo": true,
      "point": "{0.013596677703959063, 0.28399999999999181}"
    },
    {
      "_class": "curvePoint",
      "cornerRadius": 0,
      "curveFrom": "{1.1198260280158894, 0.47399999999998954}",
      "curveMode": 4,
      "curveTo": "{0.77817316875407616, 0.20900000000000318}",
      "hasCurveFrom": true,
      "hasCurveTo": true,
      "point": "{0.93992567718055986, 0}"
    },
    {
      "_class": "curvePoint",
      "cornerRadius": 0,
      "curveFrom": "{0.36313990323047235, 1.0699999999999932}",
      "curveMode": 4,
      "curveTo": "{0.86417816103941336, 0.60800000000000409}",
      "hasCurveFrom": true,
      "hasCurveTo": true,
      "point": "{0.58880437840109756, 0.72499999999996589}"
    }
  ],
  "resizingConstraint": 63,
  "resizingType": 0,
  "rotation": 0,
  "shouldBreakMaskChain": false,
  "style": {
    "_class": "style",
    "do_objectID": "BABBCB74-6CE9-4CD5-AD0C-D13F4855CAEB",
    "endMarkerType": 0,
    "fills": [
      {
        "_class": "fill",
        "color": {
          "_class": "color",
          "alpha": 1,
          "blue": 0.1764705882352941,
          "green": 0.1764705882352941,
          "red": 0.1764705882352941
        },
        "fillType": 0,
        "isEnabled": true,
        "noiseIndex": 0,
        "noiseIntensity": 0,
        "patternFillType": 1,
        "patternTileScale": 1
      }
    ],
    "miterLimit": 10,
    "startMarkerType": 0,
    "windingRule": 1
  }
}