{
  "_class": "shapePath",
  "booleanOperation": -1,
  "clippingMaskMode": 0,
  "do_objectID": "848755F1-815C-4B78-93E8-B82AD32C437E",
  "edited": true,
  "exportOptions": {
    "_class": "exportOptions",
    "do_objectID": "7B7005EB-2A82-4C43-8E2D-376B5C2C08CB",
    "exportFormats": [
    ],
    "includedLayerIds": [
    ],
    "layerOptions": 0,
    "shouldTrim": false
  },
  "frame": {
    "_class": "rect",
    "constrainProportions": false,
    "do_objectID": "553141AE-589E-43F3-A665-DDFEF3AD47D1",
    "height": 0.1058906030855624,
    "width": 0.1059863482545715,
    "x": 24.15535775394914,
    "y": 28.82977448039676
  },
  "hasClippingMask": false,
  "isClosed": true,
  "isFixedToViewport": false,
  "isFlippedHorizontal": false,
  "isFlippedVertical": false,
  "isLocked": false,
  "isVisible": true,
  "layerListExpandedType": 0,
  "name": "Path",
  "nameIsFixed": false,
  "pointRadiusBehaviour": 0,
  "points": [
    {
      "_class": "curvePoint",
      "cornerRadius": 0,
      "curveFrom": "{0.36159420841200113, 1.0710000000000264}",
      "curveMode": 4,
      "curveTo": "{0.8650105670521897, 0.60899999999998045}",
      "hasCurveFrom": true,
      "hasCurveTo": true,
      "point": "{0.58840817219492547, 0.72899999999998499}"
    },
    {
      "_class": "curvePoint",
      "cornerRadius": 0,
      "curveFrom": "{0.12924819673192786, 0.043000000000006366}",
      "curveMode": 3,
      "curveTo": "{-0.084130793586549832, 0.48500000000001364}",
      "hasCurveFrom": true,
      "hasCurveTo": true,
      "point": "{0.013865483448607548, 0.28399999999999181}"
    },
    {
      "_class": "curvePoint",
      "cornerRadius": 0,
      "curveFrom": "{1.1202750628775748, 0.47399999999998954}",
      "curveMode": 4,
      "curveTo": "{0.77649780069785257, 0.20699999999999363}",
      "hasCurveFrom": true,
      "hasCurveTo": true,
      "point": "{0.9392980673852741, 0}"
    }
  ],
  "resizingConstraint": 63,
  "resizingType": 0,
  "rotation": 0,
  "shouldBreakMaskChain": false,
  "style": {
    "_class": "style",
    "do_objectID": "A37A7BA4-34EA-425B-8F5D-EC7102EEEE3C",
    "endMarkerType": 0,
    "fills": [
      {
        "_class": "fill",
        "color": {
          "_class": "color",
          "alpha": 1,
          "blue": 0.1764705882352941,
          "green": 0.1764705882352941,
          "red": 0.1764705882352941
        },
        "fillType": 0,
        "isEnabled": true,
        "noiseIndex": 0,
        "noiseIntensity": 0,
        "patternFillType": 1,
        "patternTileScale": 1
      }
    ],
    "miterLimit": 10,
    "startMarkerType": 0,
    "windingRule": 1
  }
}