{
  "_class": "shapePath",
  "booleanOperation": -1,
  "clippingMaskMode": 0,
  "do_objectID": "84F0F949-F328-4541-BA0F-C30CCB1E1532",
  "edited": true,
  "exportOptions": {
    "_class": "exportOptions",
    "do_objectID": "B8E07045-B558-4A9A-95EA-72585F9DB766",
    "exportFormats": [
    ],
    "includedLayerIds": [
    ],
    "layerOptions": 0,
    "shouldTrim": false
  },
  "frame": {
    "_class": "rect",
    "constrainProportions": false,
    "do_objectID": "50BD0DAE-D511-49C7-9916-27D257CB0831",
    "height": 0.1058906030855873,
    "width": 0.10598634825456,
    "x": 3.848106969541444,
    "y": 20.91740407195564
  },
  "hasClippingMask": false,
  "isClosed": true,
  "isFixedToViewport": false,
  "isFlippedHorizontal": false,
  "isFlippedVertical": false,
  "isLocked": false,
  "isVisible": true,
  "layerListExpandedType": 0,
  "name": "Path",
  "nameIsFixed": false,
  "pointRadiusBehaviour": 0,
  "points": [
    {
      "_class": "curvePoint",
      "cornerRadius": 0,
      "curveFrom": "{-0.2683154310311906, 0.70074025569954301}",
      "curveMode": 4,
      "curveTo": "{0.41068456896880434, 0.94874025569953346}",
      "hasCurveFrom": true,
      "hasCurveTo": true,
      "point": "{0.1726845689688048, 0.86374025569955393}"
    },
    {
      "_class": "curvePoint",
      "cornerRadius": 0,
      "curveFrom": "{0.92768456896880735, 0.1667402556995512}",
      "curveMode": 3,
      "curveTo": "{0.24668456896880997, -0.080259744300462899}",
      "hasCurveFrom": true,
      "hasCurveTo": true,
      "point": "{0.48368456896880474, 0.0067402556995261875}"
    }
  ],
  "resizingConstraint": 63,
  "resizingType": 0,
  "rotation": 0,
  "shouldBreakMaskChain": false,
  "style": {
    "_class": "style",
    "do_objectID": "961327C8-2552-4C4A-8AE6-A724EF7035DB",
    "endMarkerType": 0,
    "fills": [
      {
        "_class": "fill",
        "color": {
          "_class": "color",
          "alpha": 1,
          "blue": 0.1764705882352941,
          "green": 0.1764705882352941,
          "red": 0.1764705882352941
        },
        "fillType": 0,
        "isEnabled": true,
        "noiseIndex": 0,
        "noiseIntensity": 0,
        "patternFillType": 1,
        "patternTileScale": 1
      }
    ],
    "miterLimit": 10,
    "startMarkerType": 0,
    "windingRule": 1
  }
}