{
  "_class": "shapePath",
  "booleanOperation": -1,
  "clippingMaskMode": 0,
  "do_objectID": "940841EC-67A8-488E-9F14-2101BD44A39D",
  "edited": true,
  "exportOptions": {
    "_class": "exportOptions",
    "do_objectID": "9E6E01A5-CCF1-48E3-8827-4E8CE0542B4F",
    "exportFormats": [
    ],
    "includedLayerIds": [
    ],
    "layerOptions": 0,
    "shouldTrim": false
  },
  "frame": {
    "_class": "rect",
    "constrainProportions": false,
    "do_objectID": "6EC76EC9-0B8B-41CC-9C4D-BA92212C6509",
    "height": 0.105890603085566,
    "width": 0.105986348254568,
    "x": 38.13697260621716,
    "y": 19.36606250124128
  },
  "hasClippingMask": false,
  "isClosed": true,
  "isFixedToViewport": false,
  "isFlippedHorizontal": false,
  "isFlippedVertical": false,
  "isLocked": false,
  "isVisible": true,
  "layerListExpandedType": 0,
  "name": "Path",
  "nameIsFixed": false,
  "pointRadiusBehaviour": 0,
  "points": [
    {
      "_class": "curvePoint",
      "cornerRadius": 0,
      "curveFrom": "{0.29000000000002046, 0.043000000000006366}",
      "curveMode": 4,
      "curveTo": "{0.40399999999999636, 0}",
      "hasCurveFrom": true,
      "hasCurveTo": false,
      "point": "{0.40399999999999636, 0}"
    },
    {
      "_class": "curvePoint",
      "cornerRadius": 0,
      "curveFrom": "{0.016000000000019554, 0.13900000000001}",
      "curveMode": 4,
      "curveTo": "{0.16200000000003456, 0.098999999999989541}",
      "hasCurveFrom": true,
      "hasCurveTo": true,
      "point": "{0.016999999999995907, 0.17199999999999704}"
    },
    {
      "_class": "curvePoint",
      "cornerRadius": 0,
      "curveFrom": "{0, 0.097000000000008413}",
      "curveMode": 4,
      "curveTo": "{0.0029999999999859028, 0.12700000000000955}",
      "hasCurveFrom": false,
      "hasCurveTo": true,
      "point": "{0, 0.097000000000008413}"
    }
  ],
  "resizingConstraint": 63,
  "resizingType": 0,
  "rotation": 0,
  "shouldBreakMaskChain": false,
  "style": {
    "_class": "style",
    "do_objectID": "970EF8EE-4096-4413-A0E9-C81B1A113A25",
    "endMarkerType": 0,
    "fills": [
      {
        "_class": "fill",
        "color": {
          "_class": "color",
          "alpha": 1,
          "blue": 0.1764705882352941,
          "green": 0.1764705882352941,
          "red": 0.1764705882352941
        },
        "fillType": 0,
        "isEnabled": true,
        "noiseIndex": 0,
        "noiseIntensity": 0,
        "patternFillType": 1,
        "patternTileScale": 1
      }
    ],
    "miterLimit": 10,
    "startMarkerType": 0,
    "windingRule": 1
  }
}