{
  "_class": "shapePath",
  "booleanOperation": -1,
  "clippingMaskMode": 0,
  "do_objectID": "951CC251-DBB3-403A-AE6E-FBA8CC7C6E83",
  "edited": true,
  "exportOptions": {
    "_class": "exportOptions",
    "do_objectID": "4315AE52-5F18-4A8D-AEDE-AA9A47D92673",
    "exportFormats": [
    ],
    "includedLayerIds": [
    ],
    "layerOptions": 0,
    "shouldTrim": false
  },
  "frame": {
    "_class": "rect",
    "constrainProportions": false,
    "do_objectID": "36F7CEFF-3CD1-4472-BF5C-78347BC33EA0",
    "height": 0.1295943420257331,
    "width": 0.1851370653713715,
    "x": 40.47285168701036,
    "y": 16.05208052843859
  },
  "hasClippingMask": false,
  "isClosed": true,
  "isFixedToViewport": false,
  "isFlippedHorizontal": false,
  "isFlippedVertical": false,
  "isLocked": false,
  "isVisible": true,
  "layerListExpandedType": 0,
  "name": "Path",
  "nameIsFixed": false,
  "pointRadiusBehaviour": 0,
  "points": [
    {
      "_class": "curvePoint",
      "cornerRadius": 0,
      "curveFrom": "{0.48526198765640571, 0.17772215269089256}",
      "curveMode": 4,
      "curveTo": "{0.074883821453315721, 0.34042553191491559}",
      "hasCurveFrom": true,
      "hasCurveTo": true,
      "point": "{0.22877563377949314, 0.26595744680851557}"
    },
    {
      "_class": "curvePoint",
      "cornerRadius": 0,
      "curveFrom": "{1.0017422011042909, 0.31351689612016836}",
      "curveMode": 4,
      "curveTo": "{0.74350209438034831, 0.088235294117658569}",
      "hasCurveFrom": true,
      "hasCurveTo": true,
      "point": "{0.99998844825726085, 0}"
    },
    {
      "_class": "curvePoint",
      "cornerRadius": 0,
      "curveFrom": "{0.69527389108724591, 0.882352941176479}",
      "curveMode": 4,
      "curveTo": "{0.80312969117907129, 0.45494367959951582}",
      "hasCurveFrom": true,
      "hasCurveTo": true,
      "point": "{0.86758010830713927, 0.82290362953694851}"
    },
    {
      "_class": "curvePoint",
      "cornerRadius": 0,
      "curveFrom": "{0.346715512741679, 0.6733416770963786}",
      "curveMode": 4,
      "curveTo": "{0.52428298850263755, 0.9411764705882395}",
      "hasCurveFrom": true,
      "hasCurveTo": true,
      "point": "{0.35329208591802924, 1}"
    },
    {
      "_class": "curvePoint",
      "cornerRadius": 0,
      "curveFrom": "{-0.066731720943676215, 0.42490613266584787}",
      "curveMode": 4,
      "curveTo": "{0.19501589147430157, 0.68898623279101801}",
      "hasCurveFrom": true,
      "hasCurveTo": true,
      "point": "{0.033670629548308698, 0.72215269086360678}"
    }
  ],
  "resizingConstraint": 63,
  "resizingType": 0,
  "rotation": 0,
  "shouldBreakMaskChain": false,
  "style": {
    "_class": "style",
    "do_objectID": "2D3042D9-534D-45F3-BE0B-935F58714EA5",
    "endMarkerType": 0,
    "fills": [
      {
        "_class": "fill",
        "color": {
          "_class": "color",
          "alpha": 1,
          "blue": 0.1764705882352941,
          "green": 0.1764705882352941,
          "red": 0.1764705882352941
        },
        "fillType": 0,
        "isEnabled": true,
        "noiseIndex": 0,
        "noiseIntensity": 0,
        "patternFillType": 1,
        "patternTileScale": 1
      }
    ],
    "miterLimit": 10,
    "startMarkerType": 0,
    "windingRule": 1
  }
}