{
  "_class": "shapePath",
  "booleanOperation": -1,
  "clippingMaskMode": 0,
  "do_objectID": "95B5F2DE-643F-4CBF-851E-B3D0BBCD585F",
  "edited": true,
  "exportOptions": {
    "_class": "exportOptions",
    "do_objectID": "410EFC62-5B36-4079-A357-CCD8F53B723D",
    "exportFormats": [
    ],
    "includedLayerIds": [
    ],
    "layerOptions": 0,
    "shouldTrim": false
  },
  "frame": {
    "_class": "rect",
    "constrainProportions": false,
    "do_objectID": "4864CABA-D969-475A-958B-79AC4396E7A1",
    "height": 0.1058906030855571,
    "width": 0.1059863482545715,
    "x": 31.33663172157702,
    "y": 11.0438885094295
  },
  "hasClippingMask": false,
  "isClosed": true,
  "isFixedToViewport": false,
  "isFlippedHorizontal": false,
  "isFlippedVertical": false,
  "isLocked": false,
  "isVisible": true,
  "layerListExpandedType": 0,
  "name": "Path",
  "nameIsFixed": false,
  "pointRadiusBehaviour": 0,
  "points": [
    {
      "_class": "curvePoint",
      "cornerRadius": 0,
      "curveFrom": "{0.94079201784859379, 0.24494023333755877}",
      "curveMode": 3,
      "curveTo": "{0.3607920178486097, -0.10705976666241668}",
      "hasCurveFrom": true,
      "hasCurveTo": true,
      "point": "{0.56179201784857469, 0.015940233337573773}"
    },
    {
      "_class": "curvePoint",
      "cornerRadius": 0,
      "curveFrom": "{-0.25920798215139484, 0.51494023333759742}",
      "curveMode": 4,
      "curveTo": "{0.31979201784861289, 0.86694023333757286}",
      "hasCurveFrom": true,
      "hasCurveTo": true,
      "point": "{0.12079201784860061, 0.74394023333758241}"
    }
  ],
  "resizingConstraint": 63,
  "resizingType": 0,
  "rotation": 0,
  "shouldBreakMaskChain": false,
  "style": {
    "_class": "style",
    "do_objectID": "3E20694D-1691-4A9E-9CDF-BA7B8360CBE4",
    "endMarkerType": 0,
    "fills": [
      {
        "_class": "fill",
        "color": {
          "_class": "color",
          "alpha": 1,
          "blue": 0.1764705882352941,
          "green": 0.1764705882352941,
          "red": 0.1764705882352941
        },
        "fillType": 0,
        "isEnabled": true,
        "noiseIndex": 0,
        "noiseIntensity": 0,
        "patternFillType": 1,
        "patternTileScale": 1
      }
    ],
    "miterLimit": 10,
    "startMarkerType": 0,
    "windingRule": 1
  }
}