{
  "_class": "shapePath",
  "booleanOperation": -1,
  "clippingMaskMode": 0,
  "do_objectID": "9889231D-6E6E-4728-BF43-FE4612D49E4F",
  "edited": true,
  "exportOptions": {
    "_class": "exportOptions",
    "do_objectID": "465E2E68-6397-477B-B82B-F86DE9607F0E",
    "exportFormats": [
    ],
    "includedLayerIds": [
    ],
    "layerOptions": 0,
    "shouldTrim": false
  },
  "frame": {
    "_class": "rect",
    "constrainProportions": false,
    "do_objectID": "3A01FF33-9FE1-41D0-985B-F88367055448",
    "height": 0.1058906030855642,
    "width": 0.1073160319259934,
    "x": 17.42755561725027,
    "y": 8.840293261029029
  },
  "hasClippingMask": false,
  "isClosed": true,
  "isFixedToViewport": false,
  "isFlippedHorizontal": false,
  "isFlippedVertical": false,
  "isLocked": false,
  "isVisible": true,
  "layerListExpandedType": 0,
  "name": "Path",
  "nameIsFixed": false,
  "pointRadiusBehaviour": 0,
  "points": [
    {
      "_class": "curvePoint",
      "cornerRadius": 0,
      "curveFrom": "{0.082963047609032822, 0.2551645440512893}",
      "curveMode": 3,
      "curveTo": "{-0.057722702777616167, 0.76647503424640551}",
      "hasCurveFrom": true,
      "hasCurveTo": true,
      "point": "{0.0050564223949171637, 0.53584554250771876}"
    },
    {
      "_class": "curvePoint",
      "cornerRadius": 0,
      "curveFrom": "{1.144913550527566, 0.43574252907223354}",
      "curveMode": 4,
      "curveTo": "{0.76067504947156406, 0.25712734823630867}",
      "hasCurveFrom": true,
      "hasCurveTo": true,
      "point": "{0.88850242482287778, 0}"
    },
    {
      "_class": "curvePoint",
      "cornerRadius": 0,
      "curveFrom": "{0.48157267370451318, 1.2512876679438441}",
      "curveMode": 4,
      "curveTo": "{0.91346279989146606, 0.64379977268328137}",
      "hasCurveFrom": true,
      "hasCurveTo": true,
      "point": "{0.65326979917638761, 0.84008019118426891}"
    }
  ],
  "resizingConstraint": 63,
  "resizingType": 0,
  "rotation": 0,
  "shouldBreakMaskChain": false,
  "style": {
    "_class": "style",
    "do_objectID": "A23E7897-26BE-494A-A103-357A4E1D1329",
    "endMarkerType": 0,
    "fills": [
      {
        "_class": "fill",
        "color": {
          "_class": "color",
          "alpha": 1,
          "blue": 0.1764705882352941,
          "green": 0.1764705882352941,
          "red": 0.1764705882352941
        },
        "fillType": 0,
        "isEnabled": true,
        "noiseIndex": 0,
        "noiseIntensity": 0,
        "patternFillType": 1,
        "patternTileScale": 1
      }
    ],
    "miterLimit": 10,
    "startMarkerType": 0,
    "windingRule": 1
  }
}