{
  "_class": "shapePath",
  "booleanOperation": -1,
  "clippingMaskMode": 0,
  "do_objectID": "9B2C7722-5161-48C1-895E-1945985ED611",
  "edited": true,
  "exportOptions": {
    "_class": "exportOptions",
    "do_objectID": "958CCE13-1538-43F3-83A6-9CB6801F45F1",
    "exportFormats": [
    ],
    "includedLayerIds": [
    ],
    "layerOptions": 0,
    "shouldTrim": false
  },
  "frame": {
    "_class": "rect",
    "constrainProportions": false,
    "do_objectID": "320DC695-2E08-4CC4-9C61-EBE50401F3F3",
    "height": 0.1058906030855553,
    "width": 0.1059863482545467,
    "x": 24.97682093986003,
    "y": 35.33834756099289
  },
  "hasClippingMask": false,
  "isClosed": true,
  "isFixedToViewport": false,
  "isFlippedHorizontal": false,
  "isFlippedVertical": false,
  "isLocked": false,
  "isVisible": true,
  "layerListExpandedType": 0,
  "name": "Path",
  "nameIsFixed": false,
  "pointRadiusBehaviour": 0,
  "points": [
    {
      "_class": "curvePoint",
      "cornerRadius": 0,
      "curveFrom": "{-0.25759086132421771, 0.5141831161963637}",
      "curveMode": 3,
      "curveTo": "{0.31940913867583731, 0.86418311619638644}",
      "hasCurveFrom": true,
      "hasCurveTo": true,
      "point": "{0.11940913867579184, 0.74418311619638189}"
    },
    {
      "_class": "curvePoint",
      "cornerRadius": 0,
      "curveFrom": "{0.94240913867582776, 0.24518311619641509}",
      "curveMode": 3,
      "curveTo": "{0.36040913867583413, -0.10781688380359356}",
      "hasCurveFrom": true,
      "hasCurveTo": true,
      "point": "{0.56440913867578502, 0.016183116196373248}"
    }
  ],
  "resizingConstraint": 63,
  "resizingType": 0,
  "rotation": 0,
  "shouldBreakMaskChain": false,
  "style": {
    "_class": "style",
    "do_objectID": "668ED3F3-ADDC-44BA-A458-DCACB5E935EE",
    "endMarkerType": 0,
    "fills": [
      {
        "_class": "fill",
        "color": {
          "_class": "color",
          "alpha": 1,
          "blue": 0.1764705882352941,
          "green": 0.1764705882352941,
          "red": 0.1764705882352941
        },
        "fillType": 0,
        "isEnabled": true,
        "noiseIndex": 0,
        "noiseIntensity": 0,
        "patternFillType": 1,
        "patternTileScale": 1
      }
    ],
    "miterLimit": 10,
    "startMarkerType": 0,
    "windingRule": 1
  }
}