{
  "_class": "shapePath",
  "booleanOperation": -1,
  "clippingMaskMode": 0,
  "do_objectID": "9B97AD7C-FD43-4124-B6E6-620363F0B037",
  "edited": true,
  "exportOptions": {
    "_class": "exportOptions",
    "do_objectID": "9E04206B-B986-485A-845F-B12045EBBDDF",
    "exportFormats": [
    ],
    "includedLayerIds": [
    ],
    "layerOptions": 0,
    "shouldTrim": false
  },
  "frame": {
    "_class": "rect",
    "constrainProportions": false,
    "do_objectID": "60D8725B-9CC3-4F29-B967-B1617EDBBB4A",
    "height": 0.1058906030855589,
    "width": 0.1155126584252066,
    "x": 24.44026150992573,
    "y": 11.42350263308473
  },
  "hasClippingMask": false,
  "isClosed": true,
  "isFixedToViewport": false,
  "isFlippedHorizontal": false,
  "isFlippedVertical": false,
  "isLocked": false,
  "isVisible": true,
  "layerListExpandedType": 0,
  "name": "Path",
  "nameIsFixed": false,
  "pointRadiusBehaviour": 0,
  "points": [
    {
      "_class": "curvePoint",
      "cornerRadius": 0,
      "curveFrom": "{0.36233601557628259, 1.2029999999999745}",
      "curveMode": 4,
      "curveTo": "{0.86617451508812771, 0.68099999999998317}",
      "hasCurveFrom": true,
      "hasCurveTo": true,
      "point": "{0.59001199025108675, 0.81700000000000728}"
    },
    {
      "_class": "curvePoint",
      "cornerRadius": 0,
      "curveFrom": "{0.13114652277378416, 0.048000000000001819}",
      "curveMode": 4,
      "curveTo": "{-0.081772675764680142, 0.54599999999999227}",
      "hasCurveFrom": true,
      "hasCurveTo": true,
      "point": "{0.01309231368318489, 0.31899999999995998}"
    },
    {
      "_class": "curvePoint",
      "cornerRadius": 0,
      "curveFrom": "{1.1191478202823146, 0.53100000000000591}",
      "curveMode": 4,
      "curveTo": "{0.77833656189569123, 0.23300000000000409}",
      "hasCurveFrom": true,
      "hasCurveTo": true,
      "point": "{0.93995839576974727, 0}"
    }
  ],
  "resizingConstraint": 63,
  "resizingType": 0,
  "rotation": 0,
  "shouldBreakMaskChain": false,
  "style": {
    "_class": "style",
    "do_objectID": "8F8F5B30-FB57-473D-B2DE-32FDE10124E7",
    "endMarkerType": 0,
    "fills": [
      {
        "_class": "fill",
        "color": {
          "_class": "color",
          "alpha": 1,
          "blue": 0.1764705882352941,
          "green": 0.1764705882352941,
          "red": 0.1764705882352941
        },
        "fillType": 0,
        "isEnabled": true,
        "noiseIndex": 0,
        "noiseIntensity": 0,
        "patternFillType": 1,
        "patternTileScale": 1
      }
    ],
    "miterLimit": 10,
    "startMarkerType": 0,
    "windingRule": 1
  }
}