{
  "_class": "shapePath",
  "booleanOperation": -1,
  "clippingMaskMode": 0,
  "do_objectID": "9BA6EDF0-ECF0-41F8-BDC1-50A7301393B7",
  "edited": true,
  "exportOptions": {
    "_class": "exportOptions",
    "do_objectID": "2F620D8F-C681-4CE5-BF52-76A5D7822748",
    "exportFormats": [
    ],
    "includedLayerIds": [
    ],
    "layerOptions": 0,
    "shouldTrim": false
  },
  "frame": {
    "_class": "rect",
    "constrainProportions": false,
    "do_objectID": "31068D47-E111-48D1-BF67-2D3B1F073CB2",
    "height": 0.1058906030855553,
    "width": 0.1059863482545609,
    "x": 2.862482163060653,
    "y": 29.67681620698563
  },
  "hasClippingMask": false,
  "isClosed": true,
  "isFixedToViewport": false,
  "isFlippedHorizontal": false,
  "isFlippedVertical": false,
  "isLocked": false,
  "isVisible": true,
  "layerListExpandedType": 0,
  "name": "Path",
  "nameIsFixed": false,
  "pointRadiusBehaviour": 0,
  "points": [
    {
      "_class": "curvePoint",
      "cornerRadius": 0,
      "curveFrom": "{-0.30176677858247558, 0.78931037905596213}",
      "curveMode": 3,
      "curveTo": "{0.46123322141752254, 1.0673103790559821}",
      "hasCurveFrom": true,
      "hasCurveTo": true,
      "point": "{0.19423322141752664, 0.97031037905600215}"
    },
    {
      "_class": "curvePoint",
      "cornerRadius": 0,
      "curveFrom": "{1.0422332214175256, 0.19031037905597259}",
      "curveMode": 3,
      "curveTo": "{0.27723322141752504, -0.088689620944023773}",
      "hasCurveFrom": true,
      "hasCurveTo": true,
      "point": "{0.54523322141752573, 0.0073103790559798654}"
    }
  ],
  "resizingConstraint": 63,
  "resizingType": 0,
  "rotation": 0,
  "shouldBreakMaskChain": false,
  "style": {
    "_class": "style",
    "do_objectID": "83E1DAE6-1194-4B57-BCA9-9A2DD054ACBA",
    "endMarkerType": 0,
    "fills": [
      {
        "_class": "fill",
        "color": {
          "_class": "color",
          "alpha": 1,
          "blue": 0.1764705882352941,
          "green": 0.1764705882352941,
          "red": 0.1764705882352941
        },
        "fillType": 0,
        "isEnabled": true,
        "noiseIndex": 0,
        "noiseIntensity": 0,
        "patternFillType": 1,
        "patternTileScale": 1
      }
    ],
    "miterLimit": 10,
    "startMarkerType": 0,
    "windingRule": 1
  }
}