{
  "_class": "shapePath",
  "booleanOperation": -1,
  "clippingMaskMode": 0,
  "do_objectID": "A41188A3-3A19-4D87-9A9E-CD4AC5B9929C",
  "edited": true,
  "exportOptions": {
    "_class": "exportOptions",
    "do_objectID": "A37B7A27-01CA-4147-8047-978EF0368876",
    "exportFormats": [
    ],
    "includedLayerIds": [
    ],
    "layerOptions": 0,
    "shouldTrim": false
  },
  "frame": {
    "_class": "rect",
    "constrainProportions": false,
    "do_objectID": "48825481-F202-48A7-8E10-46D451D9076A",
    "height": 0.1058906030855695,
    "width": 0.1059863482545573,
    "x": 4.585559181356715,
    "y": 23.11120556958761
  },
  "hasClippingMask": false,
  "isClosed": true,
  "isFixedToViewport": false,
  "isFlippedHorizontal": false,
  "isFlippedVertical": false,
  "isLocked": false,
  "isVisible": true,
  "layerListExpandedType": 0,
  "name": "Path",
  "nameIsFixed": false,
  "pointRadiusBehaviour": 0,
  "points": [
    {
      "_class": "curvePoint",
      "cornerRadius": 0,
      "curveFrom": "{-0.2694655834460562, 0.7024451264696836}",
      "curveMode": 3,
      "curveTo": "{0.41053441655394352, 0.94944512646964085}",
      "hasCurveFrom": true,
      "hasCurveTo": true,
      "point": "{0.17353441655394874, 0.86244512646965177}"
    },
    {
      "_class": "curvePoint",
      "cornerRadius": 0,
      "curveFrom": "{0.92753441655394653, 0.16644512646962539}",
      "curveMode": 3,
      "curveTo": "{0.24753441655394681, -0.078554873530379155}",
      "hasCurveFrom": true,
      "hasCurveTo": true,
      "point": "{0.48553441655394636, 0.0064451264696572252}"
    }
  ],
  "resizingConstraint": 63,
  "resizingType": 0,
  "rotation": 0,
  "shouldBreakMaskChain": false,
  "style": {
    "_class": "style",
    "do_objectID": "63A97607-67C6-4CFF-ABC3-D7F637C616D7",
    "endMarkerType": 0,
    "fills": [
      {
        "_class": "fill",
        "color": {
          "_class": "color",
          "alpha": 1,
          "blue": 0.1764705882352941,
          "green": 0.1764705882352941,
          "red": 0.1764705882352941
        },
        "fillType": 0,
        "isEnabled": true,
        "noiseIndex": 0,
        "noiseIntensity": 0,
        "patternFillType": 1,
        "patternTileScale": 1
      }
    ],
    "miterLimit": 10,
    "startMarkerType": 0,
    "windingRule": 1
  }
}