{
  "_class": "shapePath",
  "booleanOperation": -1,
  "clippingMaskMode": 0,
  "do_objectID": "ADD053DA-866A-4273-B650-166E1C211FB0",
  "edited": true,
  "exportOptions": {
    "_class": "exportOptions",
    "do_objectID": "71FA26E2-7ED2-43E1-8FCA-88E8CAF73DBB",
    "exportFormats": [
    ],
    "includedLayerIds": [
    ],
    "layerOptions": 0,
    "shouldTrim": false
  },
  "frame": {
    "_class": "rect",
    "constrainProportions": false,
    "do_objectID": "D52E38F5-7C79-4C8D-AEE3-1C65B6C1EF2D",
    "height": 0.1106165951897391,
    "width": 0.1203959965343842,
    "x": 12.80491167054846,
    "y": 3.291254926381163
  },
  "hasClippingMask": false,
  "isClosed": true,
  "isFixedToViewport": false,
  "isFlippedHorizontal": false,
  "isFlippedVertical": false,
  "isLocked": false,
  "isVisible": true,
  "layerListExpandedType": 0,
  "name": "Path",
  "nameIsFixed": false,
  "pointRadiusBehaviour": 0,
  "points": [
    {
      "_class": "curvePoint",
      "cornerRadius": 0,
      "curveFrom": "{-0.11325113356394657, 0.27712823721010871}",
      "curveMode": 4,
      "curveTo": "{0.16182308661536643, 0.95528596054161397}",
      "hasCurveFrom": true,
      "hasCurveTo": true,
      "point": "{0.057321851008025289, 0.59897822698580749}"
    },
    {
      "_class": "curvePoint",
      "cornerRadius": 0,
      "curveFrom": "{0.38565799127110389, 0}",
      "curveMode": 4,
      "curveTo": "{0.12609040605285832, 0.011730295754938246}",
      "hasCurveFrom": true,
      "hasCurveTo": true,
      "point": "{0.39172580495152071, 0}"
    },
    {
      "_class": "curvePoint",
      "cornerRadius": 0,
      "curveFrom": "{1.1124472298821568, 0.73460977165211683}",
      "curveMode": 4,
      "curveTo": "{0.67893565249170573, 0.74047491952960687}",
      "hasCurveFrom": true,
      "hasCurveTo": true,
      "point": "{0.94254844683021644, 0.36583859885670678}"
    },
    {
      "_class": "curvePoint",
      "cornerRadius": 0,
      "curveFrom": "{0.23059164166019946, 1.0645243397593436}",
      "curveMode": 3,
      "curveTo": "{0.87715089938561708, 0.89370190782830272}",
      "hasCurveFrom": true,
      "hasCurveTo": true,
      "point": "{0.60679608984663902, 0.96481682584251427}"
    }
  ],
  "resizingConstraint": 63,
  "resizingType": 0,
  "rotation": 0,
  "shouldBreakMaskChain": false,
  "style": {
    "_class": "style",
    "do_objectID": "ED8C9EDD-E66A-4541-B109-9E4E4C69EABA",
    "endMarkerType": 0,
    "fills": [
      {
        "_class": "fill",
        "color": {
          "_class": "color",
          "alpha": 1,
          "blue": 0.1764705882352941,
          "green": 0.1764705882352941,
          "red": 0.1764705882352941
        },
        "fillType": 0,
        "isEnabled": true,
        "noiseIndex": 0,
        "noiseIntensity": 0,
        "patternFillType": 1,
        "patternTileScale": 1
      }
    ],
    "miterLimit": 10,
    "startMarkerType": 0,
    "windingRule": 1
  }
}