{
  "_class": "shapePath",
  "booleanOperation": -1,
  "clippingMaskMode": 0,
  "do_objectID": "B1229E53-8F63-4556-B4CF-DB4975473D8B",
  "edited": true,
  "exportOptions": {
    "_class": "exportOptions",
    "do_objectID": "87EAECD4-6EF9-41BD-A027-87D6D81A4575",
    "exportFormats": [
    ],
    "includedLayerIds": [
    ],
    "layerOptions": 0,
    "shouldTrim": false
  },
  "frame": {
    "_class": "rect",
    "constrainProportions": false,
    "do_objectID": "FFCD6603-9764-49A2-AE12-6C770B10D8FE",
    "height": 0.1058906030855606,
    "width": 0.1059863482545502,
    "x": 20.14789373809776,
    "y": 15.1526587679634
  },
  "hasClippingMask": false,
  "isClosed": true,
  "isFixedToViewport": false,
  "isFlippedHorizontal": false,
  "isFlippedVertical": false,
  "isLocked": false,
  "isVisible": true,
  "layerListExpandedType": 0,
  "name": "Path",
  "nameIsFixed": false,
  "pointRadiusBehaviour": 0,
  "points": [
    {
      "_class": "curvePoint",
      "cornerRadius": 0,
      "curveFrom": "{0.92608256834679992, 0.1685765697256727}",
      "curveMode": 3,
      "curveTo": "{0.24808256834680265, -0.079423430274317752}",
      "hasCurveFrom": true,
      "hasCurveTo": true,
      "point": "{0.48408256834682106, 0.0065765697256949807}"
    },
    {
      "_class": "curvePoint",
      "cornerRadius": 0,
      "curveFrom": "{-0.27091743165317439, 0.70357656972569771}",
      "curveMode": 3,
      "curveTo": "{0.41008256834680878, 0.94957656972567861}",
      "hasCurveFrom": true,
      "hasCurveTo": true,
      "point": "{0.17508256834682356, 0.86357656972566588}"
    }
  ],
  "resizingConstraint": 63,
  "resizingType": 0,
  "rotation": 0,
  "shouldBreakMaskChain": false,
  "style": {
    "_class": "style",
    "do_objectID": "7D115F04-0E67-4753-9833-9D159256F6E2",
    "endMarkerType": 0,
    "fills": [
      {
        "_class": "fill",
        "color": {
          "_class": "color",
          "alpha": 1,
          "blue": 0.1764705882352941,
          "green": 0.1764705882352941,
          "red": 0.1764705882352941
        },
        "fillType": 0,
        "isEnabled": true,
        "noiseIndex": 0,
        "noiseIntensity": 0,
        "patternFillType": 1,
        "patternTileScale": 1
      }
    ],
    "miterLimit": 10,
    "startMarkerType": 0,
    "windingRule": 1
  }
}