{
  "_class": "shapePath",
  "booleanOperation": -1,
  "clippingMaskMode": 0,
  "do_objectID": "C74084A3-630F-42D5-9988-DBA2339E3774",
  "edited": true,
  "exportOptions": {
    "_class": "exportOptions",
    "do_objectID": "82F59268-3C14-47B1-9086-193A96EF40A6",
    "exportFormats": [
    ],
    "includedLayerIds": [
    ],
    "layerOptions": 0,
    "shouldTrim": false
  },
  "frame": {
    "_class": "rect",
    "constrainProportions": false,
    "do_objectID": "D215DCA6-727A-4DED-BC2D-FC8A15DF8DE2",
    "height": 0.113618068321669,
    "width": 0.1438361382784485,
    "x": 26.47815388735638,
    "y": 12.09669577022831
  },
  "hasClippingMask": false,
  "isClosed": true,
  "isFixedToViewport": false,
  "isFlippedHorizontal": false,
  "isFlippedVertical": false,
  "isLocked": false,
  "isVisible": true,
  "layerListExpandedType": 0,
  "name": "Path",
  "nameIsFixed": false,
  "pointRadiusBehaviour": 0,
  "points": [
    {
      "_class": "curvePoint",
      "cornerRadius": 0,
      "curveFrom": "{0.52173442669722492, 0.73947180585295758}",
      "curveMode": 4,
      "curveTo": "{0.93256725358922965, 0.46895074946465193}",
      "hasCurveFrom": true,
      "hasCurveTo": true,
      "point": "{0.74013044868515976, 0.61099214846537342}"
    },
    {
      "_class": "curvePoint",
      "cornerRadius": 0,
      "curveFrom": "{-0.1086230837950929, 0.68236973590293371}",
      "curveMode": 4,
      "curveTo": "{0.30108108148459778, 0.87152034261241584}",
      "hasCurveFrom": true,
      "hasCurveTo": true,
      "point": "{0.083249390302819998, 1}"
    },
    {
      "_class": "curvePoint",
      "cornerRadius": 0,
      "curveFrom": "{0.47602363139741488, 0.25838686652392612}",
      "curveMode": 4,
      "curveTo": "{0.065755135311535082, 0.53104925053530749}",
      "hasCurveFrom": true,
      "hasCurveTo": true,
      "point": "{0.25762760940948004, 0.38972162740898514}"
    },
    {
      "_class": "curvePoint",
      "cornerRadius": 0,
      "curveFrom": "{1.1086384651143928, 0.31834403997142485}",
      "curveMode": 4,
      "curveTo": "{0.69780563822235608, 0.12919343326194277}",
      "hasCurveFrom": true,
      "hasCurveTo": true,
      "point": "{0.91789465262882608, 0}"
    }
  ],
  "resizingConstraint": 63,
  "resizingType": 0,
  "rotation": 0,
  "shouldBreakMaskChain": false,
  "style": {
    "_class": "style",
    "do_objectID": "1934FB54-12E4-48BD-9A5E-F07B4DECD479",
    "endMarkerType": 0,
    "fills": [
      {
        "_class": "fill",
        "color": {
          "_class": "color",
          "alpha": 1,
          "blue": 0.1764705882352941,
          "green": 0.1764705882352941,
          "red": 0.1764705882352941
        },
        "fillType": 0,
        "isEnabled": true,
        "noiseIndex": 0,
        "noiseIntensity": 0,
        "patternFillType": 1,
        "patternTileScale": 1
      }
    ],
    "miterLimit": 10,
    "startMarkerType": 0,
    "windingRule": 1
  }
}