{
  "_class": "shapePath",
  "booleanOperation": -1,
  "clippingMaskMode": 0,
  "do_objectID": "D3155731-173F-4375-98E6-2B651D8B5861",
  "edited": true,
  "exportOptions": {
    "_class": "exportOptions",
    "do_objectID": "50F3365F-DF67-43A5-AD30-37377DF9BD6B",
    "exportFormats": [
    ],
    "includedLayerIds": [
    ],
    "layerOptions": 0,
    "shouldTrim": false
  },
  "frame": {
    "_class": "rect",
    "constrainProportions": false,
    "do_objectID": "76BC8AC3-9EAF-4A25-8494-17FEA11375A1",
    "height": 0.1058906030855589,
    "width": 0.1059863482545609,
    "x": 17.65508118876933,
    "y": 4.28304672763012
  },
  "hasClippingMask": false,
  "isClosed": true,
  "isFixedToViewport": false,
  "isFlippedHorizontal": false,
  "isFlippedVertical": false,
  "isLocked": false,
  "isVisible": true,
  "layerListExpandedType": 0,
  "name": "Path",
  "nameIsFixed": false,
  "pointRadiusBehaviour": 0,
  "points": [
    {
      "_class": "curvePoint",
      "cornerRadius": 0,
      "curveFrom": "{0.94065058837472293, 0.24642829476776029}",
      "curveMode": 3,
      "curveTo": "{0.36265058837474839, -0.10857170523220105}",
      "hasCurveFrom": true,
      "hasCurveTo": true,
      "point": "{0.5636505883747418, 0.016428294767798945}"
    },
    {
      "_class": "curvePoint",
      "cornerRadius": 0,
      "curveFrom": "{-0.25734941162525615, 0.51342829476781304}",
      "curveMode": 3,
      "curveTo": "{0.3206505883747468, 0.86642829476776484}",
      "hasCurveFrom": true,
      "hasCurveTo": true,
      "point": "{0.1186505883747202, 0.74342829476777439}"
    }
  ],
  "resizingConstraint": 63,
  "resizingType": 0,
  "rotation": 0,
  "shouldBreakMaskChain": false,
  "style": {
    "_class": "style",
    "do_objectID": "B174A003-C809-44B1-839C-AF30DC07DC2D",
    "endMarkerType": 0,
    "fills": [
      {
        "_class": "fill",
        "color": {
          "_class": "color",
          "alpha": 1,
          "blue": 0.1764705882352941,
          "green": 0.1764705882352941,
          "red": 0.1764705882352941
        },
        "fillType": 0,
        "isEnabled": true,
        "noiseIndex": 0,
        "noiseIntensity": 0,
        "patternFillType": 1,
        "patternTileScale": 1
      }
    ],
    "miterLimit": 10,
    "startMarkerType": 0,
    "windingRule": 1
  }
}