{
  "_class": "shapePath",
  "booleanOperation": -1,
  "clippingMaskMode": 0,
  "do_objectID": "D6331CDC-A697-45E7-A346-FD399EAE3366",
  "edited": true,
  "exportOptions": {
    "_class": "exportOptions",
    "do_objectID": "CC4AAC09-D937-443C-83CC-CABBBA84A9F3",
    "exportFormats": [
    ],
    "includedLayerIds": [
    ],
    "layerOptions": 0,
    "shouldTrim": false
  },
  "frame": {
    "_class": "rect",
    "constrainProportions": false,
    "do_objectID": "B65D5618-AE4B-472A-A30F-49642ECC4EE5",
    "height": 0.1066436544203846,
    "width": 0.1059863482545627,
    "x": 11.31405259276264,
    "y": 17.64800484428591
  },
  "hasClippingMask": false,
  "isClosed": true,
  "isFixedToViewport": false,
  "isFlippedHorizontal": false,
  "isFlippedVertical": false,
  "isLocked": false,
  "isVisible": true,
  "layerListExpandedType": 0,
  "name": "Path",
  "nameIsFixed": false,
  "pointRadiusBehaviour": 0,
  "points": [
    {
      "_class": "curvePoint",
      "cornerRadius": 0,
      "curveFrom": "{0.1218778311401536, 0.015209125475292979}",
      "curveMode": 4,
      "curveTo": "{-0.12512216885986049, 0.2631178707224367}",
      "hasCurveFrom": true,
      "hasCurveTo": true,
      "point": "{0.027877831140159515, 0.10798479087452179}"
    },
    {
      "_class": "curvePoint",
      "cornerRadius": 0,
      "curveFrom": "{0.51687783114016383, 0.18859315589352918}",
      "curveMode": 4,
      "curveTo": "{0.49987783114013951, 0.083650190114057346}",
      "hasCurveFrom": true,
      "hasCurveTo": true,
      "point": "{0.61387783114014383, 0}"
    },
    {
      "_class": "curvePoint",
      "cornerRadius": 0,
      "curveFrom": "{0.8028778311401652, 0.98707224334601074}",
      "curveMode": 3,
      "curveTo": "{1.0518778311401604, 0.73840304182509908}",
      "hasCurveFrom": true,
      "hasCurveTo": true,
      "point": "{0.89787783114016406, 0.89201520912547816}"
    },
    {
      "_class": "curvePoint",
      "cornerRadius": 0,
      "curveFrom": "{0.40587783114014542, 0.81216730038023865}",
      "curveMode": 4,
      "curveTo": "{0.42587783114015565, 0.91711026615968894}",
      "hasCurveFrom": true,
      "hasCurveTo": true,
      "point": "{0.31187783114015133, 1}"
    }
  ],
  "resizingConstraint": 63,
  "resizingType": 0,
  "rotation": 0,
  "shouldBreakMaskChain": false,
  "style": {
    "_class": "style",
    "do_objectID": "7037D59D-8B07-4C2D-AE3A-7B0706F0C04F",
    "endMarkerType": 0,
    "fills": [
      {
        "_class": "fill",
        "color": {
          "_class": "color",
          "alpha": 1,
          "blue": 0.1764705882352941,
          "green": 0.1764705882352941,
          "red": 0.1764705882352941
        },
        "fillType": 0,
        "isEnabled": true,
        "noiseIndex": 0,
        "noiseIntensity": 0,
        "patternFillType": 1,
        "patternTileScale": 1
      }
    ],
    "miterLimit": 10,
    "startMarkerType": 0,
    "windingRule": 1
  }
}