{
  "_class": "shapePath",
  "booleanOperation": -1,
  "clippingMaskMode": 0,
  "do_objectID": "DAD1DBC4-9A5D-451E-BF03-2B7F9EA73C03",
  "edited": true,
  "exportOptions": {
    "_class": "exportOptions",
    "do_objectID": "FB421984-C976-44AB-96E1-C2174500BC38",
    "exportFormats": [
    ],
    "includedLayerIds": [
    ],
    "layerOptions": 0,
    "shouldTrim": false
  },
  "frame": {
    "_class": "rect",
    "constrainProportions": false,
    "do_objectID": "48F46B7F-66F3-4DAD-9B40-5E92EA406F9E",
    "height": 0.110580141701301,
    "width": 0.1206755782138025,
    "x": 27.41547622103501,
    "y": 1.50576117650901
  },
  "hasClippingMask": false,
  "isClosed": true,
  "isFixedToViewport": false,
  "isFlippedHorizontal": false,
  "isFlippedVertical": false,
  "isLocked": false,
  "isVisible": true,
  "layerListExpandedType": 0,
  "name": "Path",
  "nameIsFixed": false,
  "pointRadiusBehaviour": 0,
  "points": [
    {
      "_class": "curvePoint",
      "cornerRadius": 0,
      "curveFrom": "{0.76885354058498123, -0.064141882206885811}",
      "curveMode": 3,
      "curveTo": "{0.12311959449861712, 0.1060034773189745}",
      "hasCurveFrom": true,
      "hasCurveTo": true,
      "point": "{0.3928480448951216, 0.034865115793057497}"
    },
    {
      "_class": "curvePoint",
      "cornerRadius": 0,
      "curveFrom": "{1.1159355366064225, 0.79025184127417902}",
      "curveMode": 4,
      "curveTo": "{0.83746277235668054, 0.044399123007892172}",
      "hasCurveFrom": true,
      "hasCurveTo": true,
      "point": "{0.94104925954136787, 0.40302447131880442}"
    },
    {
      "_class": "curvePoint",
      "cornerRadius": 0,
      "curveFrom": "{0.59800310068298579, 0.56803613465207103}",
      "curveMode": 4,
      "curveTo": "{0.87109474871531545, 0.90099300200005672}",
      "hasCurveFrom": true,
      "hasCurveTo": true,
      "point": "{0.60674741453622327, 1}"
    },
    {
      "_class": "curvePoint",
      "cornerRadius": 0,
      "curveFrom": "{-0.11297687953921418, 0.26588144445960576}",
      "curveMode": 4,
      "curveTo": "{0.33298312697669785, 0.59150446010389812}",
      "hasCurveFrom": true,
      "hasCurveTo": true,
      "point": "{0.057873560362781247, 0.63624095549645243}"
    }
  ],
  "resizingConstraint": 63,
  "resizingType": 0,
  "rotation": 0,
  "shouldBreakMaskChain": false,
  "style": {
    "_class": "style",
    "do_objectID": "BE0A0E03-7A50-4B17-9D03-205D8C09F98A",
    "endMarkerType": 0,
    "fills": [
      {
        "_class": "fill",
        "color": {
          "_class": "color",
          "alpha": 1,
          "blue": 0.1764705882352941,
          "green": 0.1764705882352941,
          "red": 0.1764705882352941
        },
        "fillType": 0,
        "isEnabled": true,
        "noiseIndex": 0,
        "noiseIntensity": 0,
        "patternFillType": 1,
        "patternTileScale": 1
      }
    ],
    "miterLimit": 10,
    "startMarkerType": 0,
    "windingRule": 1
  }
}