{
  "_class": "shapePath",
  "booleanOperation": -1,
  "clippingMaskMode": 0,
  "do_objectID": "DE29BE51-D0BE-47C4-9AEA-B007D0497A00",
  "edited": true,
  "exportOptions": {
    "_class": "exportOptions",
    "do_objectID": "74D602D9-74CB-445E-A8DA-77F8C51751B2",
    "exportFormats": [
    ],
    "includedLayerIds": [
    ],
    "layerOptions": 0,
    "shouldTrim": false
  },
  "frame": {
    "_class": "rect",
    "constrainProportions": false,
    "do_objectID": "7545F3CD-F959-4FF0-80E6-AA67E72DABFC",
    "height": 0.1058906030855606,
    "width": 0.1059863482545609,
    "x": 39.66416476130558,
    "y": 9.432860356304683
  },
  "hasClippingMask": false,
  "isClosed": true,
  "isFixedToViewport": false,
  "isFlippedHorizontal": false,
  "isFlippedVertical": false,
  "isLocked": false,
  "isVisible": true,
  "layerListExpandedType": 0,
  "name": "Path",
  "nameIsFixed": false,
  "pointRadiusBehaviour": 0,
  "points": [
    {
      "_class": "curvePoint",
      "cornerRadius": 0,
      "curveFrom": "{0.94153335623678913, 0.24618240712531758}",
      "curveMode": 3,
      "curveTo": "{0.36353335623675775, -0.10781759287466741}",
      "hasCurveFrom": true,
      "hasCurveTo": true,
      "point": "{0.56353335623674639, 0.016182407125299392}"
    },
    {
      "_class": "curvePoint",
      "cornerRadius": 0,
      "curveFrom": "{-0.25746664376322315, 0.51418240712528984}",
      "curveMode": 3,
      "curveTo": "{0.32053335623675139, 0.86818240712533168}",
      "hasCurveFrom": true,
      "hasCurveTo": true,
      "point": "{0.11853335623675321, 0.74518240712528439}"
    }
  ],
  "resizingConstraint": 63,
  "resizingType": 0,
  "rotation": 0,
  "shouldBreakMaskChain": false,
  "style": {
    "_class": "style",
    "do_objectID": "67270885-7A31-4B43-AE98-EA61EAB90E68",
    "endMarkerType": 0,
    "fills": [
      {
        "_class": "fill",
        "color": {
          "_class": "color",
          "alpha": 1,
          "blue": 0.1764705882352941,
          "green": 0.1764705882352941,
          "red": 0.1764705882352941
        },
        "fillType": 0,
        "isEnabled": true,
        "noiseIndex": 0,
        "noiseIntensity": 0,
        "patternFillType": 1,
        "patternTileScale": 1
      }
    ],
    "miterLimit": 10,
    "startMarkerType": 0,
    "windingRule": 1
  }
}