{
  "_class": "shapePath",
  "booleanOperation": -1,
  "clippingMaskMode": 0,
  "do_objectID": "E7340C35-0469-4754-A7F8-A2E3D6683214",
  "edited": true,
  "exportOptions": {
    "_class": "exportOptions",
    "do_objectID": "72967BA4-BCAB-47F6-9731-2E9D90CF2CE9",
    "exportFormats": [
    ],
    "includedLayerIds": [
    ],
    "layerOptions": 0,
    "shouldTrim": false
  },
  "frame": {
    "_class": "rect",
    "constrainProportions": false,
    "do_objectID": "6711DED3-D761-49AF-884D-162B2F437DFE",
    "height": 0.105890603085566,
    "width": 0.1185264397003394,
    "x": 38.94563191858883,
    "y": 19.40533299560073
  },
  "hasClippingMask": false,
  "isClosed": true,
  "isFixedToViewport": false,
  "isFlippedHorizontal": false,
  "isFlippedVertical": false,
  "isLocked": false,
  "isVisible": true,
  "layerListExpandedType": 0,
  "name": "Path",
  "nameIsFixed": false,
  "pointRadiusBehaviour": 0,
  "points": [
    {
      "_class": "curvePoint",
      "cornerRadius": 0,
      "curveFrom": "{0.60032962271723411, 0.57513617960305097}",
      "curveMode": 4,
      "curveTo": "{0.91946316338186052, 0.84564580469981465}",
      "hasCurveFrom": true,
      "hasCurveTo": true,
      "point": "{0.68593411323885989, 1}"
    },
    {
      "_class": "curvePoint",
      "cornerRadius": 0,
      "curveFrom": "{-0.12628129283031053, 0.4301367840180283}",
      "curveMode": 4,
      "curveTo": "{0.35378869001494262, 0.65309284389606648}",
      "hasCurveFrom": true,
      "hasCurveTo": true,
      "point": "{0.099714562146770519, 0.7583343406916363}"
    },
    {
      "_class": "curvePoint",
      "cornerRadius": 0,
      "curveFrom": "{0.65374682480275004, -0.089834166816416094}",
      "curveMode": 3,
      "curveTo": "{0.069581781483170083, 0.22043335706980036}",
      "hasCurveFrom": true,
      "hasCurveTo": true,
      "point": "{0.3126985345645607, 0.091025294343389698}"
    },
    {
      "_class": "curvePoint",
      "cornerRadius": 0,
      "curveFrom": "{1.1317622998754939, 0.68037767639862079}",
      "curveMode": 4,
      "curveTo": "{0.73661197162767067, 0.0029342636922774874}",
      "hasCurveFrom": true,
      "hasCurveTo": true,
      "point": "{0.89960292158084576, 0.33269095365175333}"
    }
  ],
  "resizingConstraint": 63,
  "resizingType": 0,
  "rotation": 0,
  "shouldBreakMaskChain": false,
  "style": {
    "_class": "style",
    "do_objectID": "3CE29FDD-198E-4A40-8D12-29B3243A40EF",
    "endMarkerType": 0,
    "fills": [
      {
        "_class": "fill",
        "color": {
          "_class": "color",
          "alpha": 1,
          "blue": 0.1764705882352941,
          "green": 0.1764705882352941,
          "red": 0.1764705882352941
        },
        "fillType": 0,
        "isEnabled": true,
        "noiseIndex": 0,
        "noiseIntensity": 0,
        "patternFillType": 1,
        "patternTileScale": 1
      }
    ],
    "miterLimit": 10,
    "startMarkerType": 0,
    "windingRule": 1
  }
}