{
  "_class": "shapePath",
  "booleanOperation": -1,
  "clippingMaskMode": 0,
  "do_objectID": "EE9E578E-B54A-44F0-8458-E2C31EB79B63",
  "edited": true,
  "exportOptions": {
    "_class": "exportOptions",
    "do_objectID": "35F55212-E385-4F66-B07D-D76646CF993B",
    "exportFormats": [
    ],
    "includedLayerIds": [
    ],
    "layerOptions": 0,
    "shouldTrim": false
  },
  "frame": {
    "_class": "rect",
    "constrainProportions": false,
    "do_objectID": "9AF93540-3655-41B2-8002-86DF9D6B79EB",
    "height": 0.1296754398617921,
    "width": 0.1426989060854318,
    "x": 25.21963710126101,
    "y": 16.98162392537147
  },
  "hasClippingMask": false,
  "isClosed": true,
  "isFixedToViewport": false,
  "isFlippedHorizontal": false,
  "isFlippedVertical": false,
  "isLocked": false,
  "isVisible": true,
  "layerListExpandedType": 0,
  "name": "Path",
  "nameIsFixed": false,
  "pointRadiusBehaviour": 0,
  "points": [
    {
      "_class": "curvePoint",
      "cornerRadius": 0,
      "curveFrom": "{0.10864618885098574, 0.75609756097560321}",
      "curveMode": 4,
      "curveTo": "{0.73947667804324524, 0.86741713570980916}",
      "hasCurveFrom": true,
      "hasCurveTo": true,
      "point": "{0.16154721274174905, 1}"
    },
    {
      "_class": "curvePoint",
      "cornerRadius": 0,
      "curveFrom": "{0.33447098976110839, 0.17698561601001395}",
      "curveMode": 4,
      "curveTo": "{0.054038680318559892, 0.51031894934333544}",
      "hasCurveFrom": true,
      "hasCurveTo": true,
      "point": "{0, 0.26579111944966016}"
    },
    {
      "_class": "curvePoint",
      "cornerRadius": 0,
      "curveFrom": "{0.95563139931742014, 0.48968105065666456}",
      "curveMode": 4,
      "curveTo": "{0.66666666666668817, 0.088805503439663994}",
      "hasCurveFrom": true,
      "hasCurveTo": true,
      "point": "{1, 0}"
    }
  ],
  "resizingConstraint": 63,
  "resizingType": 0,
  "rotation": 0,
  "shouldBreakMaskChain": false,
  "style": {
    "_class": "style",
    "do_objectID": "0058ED82-ED4C-49BD-8634-EDB296C95B7B",
    "endMarkerType": 0,
    "fills": [
      {
        "_class": "fill",
        "color": {
          "_class": "color",
          "alpha": 1,
          "blue": 0.1764705882352941,
          "green": 0.1764705882352941,
          "red": 0.1764705882352941
        },
        "fillType": 0,
        "isEnabled": true,
        "noiseIndex": 0,
        "noiseIntensity": 0,
        "patternFillType": 1,
        "patternTileScale": 1
      }
    ],
    "miterLimit": 10,
    "startMarkerType": 0,
    "windingRule": 1
  }
}