{
  "_class": "shapePath",
  "booleanOperation": -1,
  "clippingMaskMode": 0,
  "do_objectID": "F5918539-C66F-43B4-B967-58188ED04700",
  "edited": true,
  "exportOptions": {
    "_class": "exportOptions",
    "do_objectID": "5AAD1473-E388-45FC-8145-7CB72CE55115",
    "exportFormats": [
    ],
    "includedLayerIds": [
    ],
    "layerOptions": 0,
    "shouldTrim": false
  },
  "frame": {
    "_class": "rect",
    "constrainProportions": false,
    "do_objectID": "FE195769-1C06-4F6D-B5F5-637ED7C13BB2",
    "height": 0.1058906030855624,
    "width": 0.1876895739239894,
    "x": 2.356236544850464,
    "y": 21.69679854545628
  },
  "hasClippingMask": false,
  "isClosed": true,
  "isFixedToViewport": false,
  "isFlippedHorizontal": false,
  "isFlippedVertical": false,
  "isLocked": false,
  "isVisible": true,
  "layerListExpandedType": 0,
  "name": "Path",
  "nameIsFixed": false,
  "pointRadiusBehaviour": 0,
  "points": [
    {
      "_class": "curvePoint",
      "cornerRadius": 0,
      "curveFrom": "{0.23483425882708367, 0.63772486946096762}",
      "curveMode": 4,
      "curveTo": "{0.86927598571351439, 2.232961932313406}",
      "hasCurveFrom": true,
      "hasCurveTo": true,
      "point": "{0.41560906580631191, 0.49908791488494958}"
    },
    {
      "_class": "curvePoint",
      "cornerRadius": 0,
      "curveFrom": "{0.17990985574966148, 0.043045301147837854}",
      "curveMode": 4,
      "curveTo": "{0.060546586069596786, 0.74261467062051167}",
      "hasCurveFrom": true,
      "hasCurveTo": true,
      "point": "{0, 0.18168225572385593}"
    },
    {
      "_class": "curvePoint",
      "cornerRadius": 0,
      "curveFrom": "{1.4652273828842743, -1.2311377616336963}",
      "curveMode": 4,
      "curveTo": "{0.35592743096627877, -0.05819615910184367}",
      "hasCurveFrom": true,
      "hasCurveTo": true,
      "point": "{0.41560906580631191, 0.49908791488494958}"
    }
  ],
  "resizingConstraint": 63,
  "resizingType": 0,
  "rotation": 0,
  "shouldBreakMaskChain": false,
  "style": {
    "_class": "style",
    "do_objectID": "65E3B50D-040B-4BA9-A413-08205624AFBD",
    "endMarkerType": 0,
    "fills": [
      {
        "_class": "fill",
        "color": {
          "_class": "color",
          "alpha": 1,
          "blue": 0.1764705882352941,
          "green": 0.1764705882352941,
          "red": 0.1764705882352941
        },
        "fillType": 0,
        "isEnabled": true,
        "noiseIndex": 0,
        "noiseIntensity": 0,
        "patternFillType": 1,
        "patternTileScale": 1
      }
    ],
    "miterLimit": 10,
    "startMarkerType": 0,
    "windingRule": 1
  }
}