{
  "_class": "shapePath",
  "booleanOperation": -1,
  "clippingMaskMode": 0,
  "do_objectID": "FD442382-51C1-47CB-99BE-C1107933B289",
  "edited": true,
  "exportOptions": {
    "_class": "exportOptions",
    "do_objectID": "3E07AB4D-0332-4975-B58D-4093363A5B19",
    "exportFormats": [
    ],
    "includedLayerIds": [
    ],
    "layerOptions": 0,
    "shouldTrim": false
  },
  "frame": {
    "_class": "rect",
    "constrainProportions": false,
    "do_objectID": "171AA8D0-2E04-419E-A8D5-20DC32B2E9E4",
    "height": 0.1058906030855518,
    "width": 0.105986348254504,
    "x": 37.11080903565884,
    "y": 8.213208704783971
  },
  "hasClippingMask": false,
  "isClosed": true,
  "isFixedToViewport": false,
  "isFlippedHorizontal": false,
  "isFlippedVertical": false,
  "isLocked": false,
  "isVisible": true,
  "layerListExpandedType": 0,
  "name": "Path",
  "nameIsFixed": false,
  "pointRadiusBehaviour": 0,
  "points": [
    {
      "_class": "curvePoint",
      "cornerRadius": 0,
      "curveFrom": "{0.92497187301540862, 0.16744499116178702}",
      "curveMode": 3,
      "curveTo": "{0.2479718730153877, -0.078555008838250728}",
      "hasCurveFrom": true,
      "hasCurveTo": true,
      "point": "{0.48297187301540134, 0.0064449911617856515}"
    },
    {
      "_class": "curvePoint",
      "cornerRadius": 0,
      "curveFrom": "{-0.26902812698460821, 0.70244499116175518}",
      "curveMode": 3,
      "curveTo": "{0.40797187301541271, 0.94944499116176928}",
      "hasCurveFrom": true,
      "hasCurveTo": true,
      "point": "{0.17297187301539907, 0.86344499116175655}"
    }
  ],
  "resizingConstraint": 63,
  "resizingType": 0,
  "rotation": 0,
  "shouldBreakMaskChain": false,
  "style": {
    "_class": "style",
    "do_objectID": "9D10D77D-3FB4-4565-9565-7CF2EE7ED393",
    "endMarkerType": 0,
    "fills": [
      {
        "_class": "fill",
        "color": {
          "_class": "color",
          "alpha": 1,
          "blue": 0.1764705882352941,
          "green": 0.1764705882352941,
          "red": 0.1764705882352941
        },
        "fillType": 0,
        "isEnabled": true,
        "noiseIndex": 0,
        "noiseIntensity": 0,
        "patternFillType": 1,
        "patternTileScale": 1
      }
    ],
    "miterLimit": 10,
    "startMarkerType": 0,
    "windingRule": 1
  }
}