{
  "_class": "symbolInstance",
  "booleanOperation": -1,
  "clippingMaskMode": 0,
  "do_objectID": "D4739E89-2AE0-45DD-B4D1-3E80FF39B862",
  "exportOptions": {
    "_class": "exportOptions",
    "do_objectID": "807A38F6-2447-41E8-BAF5-03C07C340B3A",
    "exportFormats": [
    ],
    "includedLayerIds": [
    ],
    "layerOptions": 0,
    "shouldTrim": false
  },
  "frame": {
    "_class": "rect",
    "constrainProportions": false,
    "do_objectID": "807E4C46-DA13-4A63-943F-F5D64E71FB60",
    "height": 64,
    "width": 1024,
    "x": 0,
    "y": 152
  },
  "hasClippingMask": false,
  "horizontalSpacing": 0,
  "isFixedToViewport": false,
  "isFlippedHorizontal": false,
  "isFlippedVertical": false,
  "isLocked": false,
  "isVisible": true,
  "layerListExpandedType": 0,
  "name": "components/data table/row/64 tall/1 line/default/01 enabled",
  "nameIsFixed": false,
  "overrideValues": [
    {
      "_class": "overrideValue",
      "do_objectID": "D776C101-761B-458B-9437-9930030B5E3F",
      "overrideName": "AB9BF922-120D-4152-8ADA-6FB2C177D6EF_symbolID",
      "value": "C542318D-EC3A-4B43-81E0-A1A34247053F"
    },
    {
      "_class": "overrideValue",
      "do_objectID": "60887894-9214-4D88-808E-10C1F61DDCFD",
      "overrideName": "AB9BF922-120D-4152-8ADA-6FB2C177D6EF/62EADFAC-2FDE-4283-A280-2FA0A8230C17/4377E393-3C86-4E41-9EAD-81982B982CAA_symbolID",
      "value": "BCB0FFBA-54EF-4C7A-86F8-7B60D6456A78"
    },
    {
      "_class": "overrideValue",
      "do_objectID": "87056D26-03F4-469B-90F2-747E8097C052",
      "overrideName": "AB9BF922-120D-4152-8ADA-6FB2C177D6EF/62EADFAC-2FDE-4283-A280-2FA0A8230C17/4377E393-3C86-4E41-9EAD-81982B982CAA/7D8A198D-96CF-4EE7-8B35-81F3F7C86863_layerStyle",
      "value": "AA548218-7EE1-496E-8D83-CA21A26FCE01"
    },
    {
      "_class": "overrideValue",
      "do_objectID": "71FDF6CF-317D-46CB-AF7E-007487A6D46F",
      "overrideName": "AB9BF922-120D-4152-8ADA-6FB2C177D6EF/C34F60E5-6A0A-40CC-841E-0E89E0BE55EF_symbolID",
      "value": "786AF617-7103-46A3-88F2-AB927CC460E5"
    }
  ],
  "resizingConstraint": 63,
  "resizingType": 0,
  "rotation": 0,
  "scale": 1,
  "shouldBreakMaskChain": false,
  "style": {
    "_class": "style",
    "do_objectID": "3A60B1BA-0D9B-453B-B771-1697734BCC0B",
    "endMarkerType": 0,
    "miterLimit": 10,
    "startMarkerType": 0,
    "windingRule": 1
  },
  "symbolID": "4FCA5EA1-D8EA-4BCF-AD21-F6D5DB799DE2",
  "verticalSpacing": 0
}