{
  "_class": "text",
  "attributedString": {
    "_class": "attributedString",
    "attributes": [
      {
        "_class": "stringAttribute",
        "attributes": {
          "MSAttributedStringColorAttribute": {
            "_class": "color",
            "alpha": 1,
            "blue": 1,
            "green": 1,
            "red": 1
          },
          "MSAttributedStringFontAttribute": {
            "_class": "UIFontDescriptor",
            "attributes": {
              "name": "Lato-Regular",
              "size": 14
            }
          },
          "kerning": 1.169999957084656,
          "paragraphStyle": {
            "_class": "paragraphStyle",
            "alignment": 1,
            "maximumLineHeight": 28,
            "minimumLineHeight": 28
          },
          "strikethroughStyle": 1,
          "underlineStyle": 0
        },
        "length": 7,
        "location": 0
      }
    ],
    "string": "₹32,999"
  },
  "automaticallyDrawOnUnderlyingPath": false,
  "booleanOperation": 0,
  "clippingMaskMode": 0,
  "do_objectID": "C52DDA1B-C029-4325-BF95-36E70546D70D",
  "dontSynchroniseWithSymbol": false,
  "exportOptions": {
    "_class": "exportOptions",
    "do_objectID": "F0096BAE-3879-4233-A91E-D1C39DA55AF9",
    "exportFormats": [
    ],
    "includedLayerIds": [
    ],
    "layerOptions": 0,
    "shouldTrim": false
  },
  "frame": {
    "_class": "rect",
    "constrainProportions": false,
    "do_objectID": "0515F31B-1B73-41C7-9800-84E06252F0A1",
    "height": 28,
    "width": 75.4494382022472,
    "x": 342,
    "y": 23
  },
  "glyphBounds": "{{0, 0}, {59, 27}}",
  "hasClippingMask": false,
  "isFixedToViewport": false,
  "isFlippedHorizontal": false,
  "isFlippedVertical": false,
  "isLocked": false,
  "isVisible": true,
  "layerListExpandedType": 0,
  "lineSpacingBehaviour": 2,
  "name": "₹32,999",
  "nameIsFixed": false,
  "resizingConstraint": 63,
  "resizingType": 0,
  "rotation": 0,
  "shouldBreakMaskChain": false,
  "style": {
    "_class": "style",
    "do_objectID": "D40012A9-C8E2-4B0E-9127-DB2DD5D3B056",
    "endMarkerType": 0,
    "miterLimit": 10,
    "startMarkerType": 0,
    "textStyle": {
      "_class": "textStyle",
      "do_objectID": "44A5F0B0-2C9C-43E0-B32C-9D1E920A57E8",
      "encodedAttributes": {
        "MSAttributedStringColorAttribute": {
          "_class": "color",
          "alpha": 1,
          "blue": 1,
          "green": 1,
          "red": 1
        },
        "MSAttributedStringFontAttribute": {
          "_class": "UIFontDescriptor",
          "attributes": {
            "name": "Lato-Regular",
            "size": 14
          }
        },
        "kerning": 1.169999957084656,
        "paragraphStyle": {
          "_class": "paragraphStyle",
          "alignment": 1,
          "maximumLineHeight": 28,
          "minimumLineHeight": 28
        },
        "strikethroughStyle": 1,
        "underlineStyle": 0
      },
      "verticalAlignment": 0
    },
    "windingRule": 1
  },
  "textBehaviour": 1
}