{
  "_class": "group",
  "booleanOperation": -1,
  "clippingMaskMode": 0,
  "do_objectID": "E4358718-277A-43F1-96C7-9B89D4D9E471",
  "exportOptions": {
    "_class": "exportOptions",
    "exportFormats": [
    ],
    "includedLayerIds": [
    ],
    "layerOptions": 0,
    "shouldTrim": false
  },
  "frame": {
    "_class": "rect",
    "constrainProportions": false,
    "height": 155,
    "width": 335,
    "x": 20,
    "y": 1184
  },
  "groupLayout": {
    "_class": "MSImmutableFreeformGroupLayout"
  },
  "hasClickThrough": false,
  "hasClippingMask": false,
  "isFixedToViewport": false,
  "isFlippedHorizontal": false,
  "isFlippedVertical": false,
  "isLocked": false,
  "isVisible": true,
  "layerListExpandedType": 0,
  "layers": [
    {
      "class": "rectangle",
      "id": "953763F7-0ACE-4636-BEF6-AD9FAA4C75FB"
    },
    {
      "class": "text",
      "id": "680FB8C4-516D-4DCD-8487-6D4EE7ADB69F"
    },
    {
      "class": "text",
      "id": "9CC31F11-6DA3-446E-965B-A8452CB72E1D"
    },
    {
      "class": "text",
      "id": "68EAD748-AFA9-4B1B-B628-0A4EEC799016"
    },
    {
      "class": "text",
      "id": "2300EEB1-6D8E-4A84-9267-9ACC1ACC0C84"
    },
    {
      "class": "text",
      "id": "C4EB620B-4958-461B-987D-1E6455128A84"
    },
    {
      "class": "text",
      "id": "2E44622D-8FD3-4C5C-AA86-3A983AF1134D"
    },
    {
      "class": "text",
      "id": "CD282773-386A-4DE7-9B9A-D15485937394"
    },
    {
      "class": "text",
      "id": "EA16DD1A-21B6-4C56-AEB9-F036BBF386CB"
    },
    {
      "class": "text",
      "id": "A660BCE5-4E85-4233-8D2D-1E8C94EB7F2C"
    },
    {
      "class": "text",
      "id": "3BC1FC06-4DF9-4D4F-8B6C-FE8228FBCAB4"
    }
  ],
  "maintainScrollPosition": false,
  "name": "Group 6",
  "nameIsFixed": false,
  "resizingConstraint": 63,
  "resizingType": 0,
  "rotation": 0,
  "shouldBreakMaskChain": false,
  "style": {
    "_class": "style",
    "blur": {
      "_class": "blur",
      "center": "{0.5, 0.5}",
      "isEnabled": false,
      "motionAngle": 0,
      "radius": 10,
      "saturation": 1,
      "type": 0
    },
    "borderOptions": {
      "_class": "borderOptions",
      "dashPattern": [
      ],
      "isEnabled": true,
      "lineCapStyle": 0,
      "lineJoinStyle": 0
    },
    "borders": [
    ],
    "colorControls": {
      "_class": "colorControls",
      "brightness": 0,
      "contrast": 1,
      "hue": 0,
      "isEnabled": true,
      "saturation": 1
    },
    "contextSettings": {
      "_class": "graphicsContextSettings",
      "blendMode": 0,
      "opacity": 1
    },
    "do_objectID": "F6E7A1AE-CD2B-4303-A5A3-4A0254F70DF1",
    "endMarkerType": 0,
    "fills": [
    ],
    "innerShadows": [
    ],
    "miterLimit": 10,
    "shadows": [
    ],
    "startMarkerType": 0,
    "windingRule": 1
  }
}