{
  "_class": "shapePath",
  "booleanOperation": -1,
  "clippingMaskMode": 0,
  "do_objectID": "1FFFCF8C-10D3-4A87-8E76-0A4B141F2283",
  "edited": true,
  "exportOptions": {
    "_class": "exportOptions",
    "exportFormats": [
    ],
    "includedLayerIds": [
    ],
    "layerOptions": 0,
    "shouldTrim": false
  },
  "frame": {
    "_class": "rect",
    "constrainProportions": true,
    "height": 60,
    "width": 60,
    "x": 4,
    "y": 0
  },
  "hasClippingMask": false,
  "isClosed": true,
  "isFixedToViewport": false,
  "isFlippedHorizontal": false,
  "isFlippedVertical": false,
  "isLocked": false,
  "isVisible": true,
  "layerListExpandedType": 0,
  "maintainScrollPosition": false,
  "name": "Icon",
  "nameIsFixed": true,
  "pointRadiusBehaviour": 0,
  "points": [
    {
      "_class": "curvePoint",
      "cornerRadius": 0,
      "curveFrom": "{0.90625, 1.7045543720467749e-17}",
      "curveMode": 4,
      "curveTo": "{0.76086956521739135, 1.7045543720467749e-17}",
      "hasCurveFrom": true,
      "hasCurveTo": false,
      "point": "{0.76171875, 1.7045543720467749e-17}"
    },
    {
      "_class": "curvePoint",
      "cornerRadius": 0,
      "curveFrom": "{1, 0.23913043478260879}",
      "curveMode": 4,
      "curveTo": "{1, 0.09375}",
      "hasCurveFrom": false,
      "hasCurveTo": true,
      "point": "{1, 0.23828125000000006}"
    },
    {
      "_class": "curvePoint",
      "cornerRadius": 0,
      "curveFrom": "{1, 0.90625}",
      "curveMode": 4,
      "curveTo": "{1, 0.76086956262588501}",
      "hasCurveFrom": true,
      "hasCurveTo": false,
      "point": "{1, 0.76171875}"
    },
    {
      "_class": "curvePoint",
      "cornerRadius": 0,
      "curveFrom": "{0.76086956521739135, 1}",
      "curveMode": 4,
      "curveTo": "{0.90625, 1}",
      "hasCurveFrom": false,
      "hasCurveTo": true,
      "point": "{0.76171875, 1}"
    },
    {
      "_class": "curvePoint",
      "cornerRadius": 0,
      "curveFrom": "{0.09375, 1}",
      "curveMode": 4,
      "curveTo": "{0.23913043737411499, 1}",
      "hasCurveFrom": true,
      "hasCurveTo": false,
      "point": "{0.23828125, 1}"
    },
    {
      "_class": "curvePoint",
      "cornerRadius": 0,
      "curveFrom": "{0, 0.76171875}",
      "curveMode": 4,
      "curveTo": "{0, 0.90625}",
      "hasCurveFrom": false,
      "hasCurveTo": true,
      "point": "{0, 0.76171875}"
    },
    {
      "_class": "curvePoint",
      "cornerRadius": 0,
      "curveFrom": "{0, 0.09375}",
      "curveMode": 4,
      "curveTo": "{0, 0.23828125}",
      "hasCurveFrom": true,
      "hasCurveTo": false,
      "point": "{0, 0.23828125}"
    },
    {
      "_class": "curvePoint",
      "cornerRadius": 0,
      "curveFrom": "{0.23828125, 1.7045543880594853e-17}",
      "curveMode": 4,
      "curveTo": "{0.09375, 1.7045543792396506e-17}",
      "hasCurveFrom": false,
      "hasCurveTo": true,
      "point": "{0.23828125, 1.7045543792396506e-17}"
    }
  ],
  "resizingConstraint": 63,
  "resizingType": 0,
  "rotation": 0,
  "shouldBreakMaskChain": false,
  "style": {
    "_class": "style",
    "blur": {
      "_class": "blur",
      "center": "{0.5, 0.5}",
      "isEnabled": false,
      "motionAngle": 0,
      "radius": 9.456521739130437,
      "saturation": 1,
      "type": 0
    },
    "borderOptions": {
      "_class": "borderOptions",
      "dashPattern": [
      ],
      "isEnabled": true,
      "lineCapStyle": 0,
      "lineJoinStyle": 0
    },
    "borders": [
    ],
    "colorControls": {
      "_class": "colorControls",
      "brightness": 0,
      "contrast": 1,
      "hue": 0,
      "isEnabled": false,
      "saturation": 1
    },
    "contextSettings": {
      "_class": "graphicsContextSettings",
      "blendMode": 0,
      "opacity": 1
    },
    "do_objectID": "9D4FEC79-9E69-4D81-9B5B-9D650817562B",
    "endMarkerType": 0,
    "fills": [
      {
        "_class": "fill",
        "color": {
          "_class": "color",
          "alpha": 1,
          "blue": 1,
          "green": 1,
          "red": 1
        },
        "contextSettings": {
          "_class": "graphicsContextSettings",
          "blendMode": 0,
          "opacity": 1
        },
        "fillType": 0,
        "gradient": {
          "_class": "gradient",
          "elipseLength": 1,
          "from": "{0.5, 0}",
          "gradientType": 0,
          "stops": [
            {
              "_class": "gradientStop",
              "color": {
                "_class": "color",
                "alpha": 1,
                "blue": 0.2431372549019608,
                "green": 0.2431372549019608,
                "red": 0.9803921568627451
              },
              "position": 0
            },
            {
              "_class": "gradientStop",
              "color": {
                "_class": "color",
                "alpha": 1,
                "blue": 0.7019607843137254,
                "green": 0.7019607843137254,
                "red": 0.6705882352941176
              },
              "position": 1
            }
          ],
          "to": "{0.5, 1}"
        },
        "image": {
          "_class": "MSJSONFileReference",
          "_ref": "images/3da4d0c8f7b3a906fe07bfabf23aaec21150d820.png",
          "_ref_class": "MSImageData"
        },
        "isEnabled": true,
        "noiseIndex": 0,
        "noiseIntensity": 0,
        "patternFillType": 1,
        "patternTileScale": 1
      }
    ],
    "innerShadows": [
    ],
    "miterLimit": 10,
    "shadows": [
    ],
    "startMarkerType": 0,
    "windingRule": 1
  }
}