{
  "_class": "shapeGroup",
  "booleanOperation": 0,
  "clippingMaskMode": 0,
  "do_objectID": "868CD71F-9D70-4DF2-9B2D-BF95F934ED96",
  "exportOptions": {
    "_class": "exportOptions",
    "exportFormats": [
    ],
    "includedLayerIds": [
    ],
    "layerOptions": 0,
    "shouldTrim": false
  },
  "frame": {
    "_class": "rect",
    "constrainProportions": false,
    "height": 54.88795031055901,
    "width": 31.75242236024845,
    "x": 0.00006832298136387307,
    "y": -0.00001708074534703657
  },
  "groupLayout": {
    "_class": "MSImmutableFreeformGroupLayout"
  },
  "hasClickThrough": false,
  "hasClippingMask": false,
  "isFixedToViewport": false,
  "isFlippedHorizontal": false,
  "isFlippedVertical": false,
  "isLocked": false,
  "isVisible": true,
  "layerListExpandedType": 1,
  "layers": [
    {
      "class": "shapePath",
      "id": "A92F6CB0-9CD1-4E11-924E-7CC2C577BD81"
    },
    {
      "class": "shapePath",
      "id": "619AED60-727F-4472-8509-F2F8A80022AA"
    },
    {
      "class": "shapePath",
      "id": "1ACAAD4D-8AF7-432C-A636-1ABC83688C0F"
    },
    {
      "class": "shapePath",
      "id": "4495910B-5673-46D0-A2D4-35ED4EAC81DB"
    },
    {
      "class": "shapePath",
      "id": "C87F9CE5-30C5-4386-A0EB-EFCB0FEF52E4"
    },
    {
      "class": "shapePath",
      "id": "AB6B5EF3-F2BA-4354-A309-D2B7137A741B"
    },
    {
      "class": "shapePath",
      "id": "48DA0DB8-25AC-409A-AD57-650ACA2408E6"
    },
    {
      "class": "shapePath",
      "id": "C307A1DD-1089-4761-AAC2-8E0C424544A7"
    },
    {
      "class": "shapePath",
      "id": "1ADEA601-E40A-4942-85C5-34703392869B"
    },
    {
      "class": "shapePath",
      "id": "7F0007F0-0225-46C0-A202-A8106FDCDE45"
    },
    {
      "class": "shapePath",
      "id": "EC8184C6-3B42-403D-9D0D-F8F77EB4F3BA"
    },
    {
      "class": "shapePath",
      "id": "504356F0-B098-4DDC-A060-0436E1462FCE"
    },
    {
      "class": "shapePath",
      "id": "F956796F-E6DC-4886-A5CC-76DE3D8A7F61"
    },
    {
      "class": "shapePath",
      "id": "26E47D83-27F5-4825-9229-F8911AF1E55B"
    },
    {
      "class": "shapePath",
      "id": "949CB578-5DF3-474F-B925-9C636E987C6B"
    },
    {
      "class": "shapePath",
      "id": "F527D6C9-91FC-4E44-9CFD-764E992A542C"
    },
    {
      "class": "shapePath",
      "id": "365E6795-6BED-4A4C-8E35-B5E654972FDA"
    },
    {
      "class": "shapePath",
      "id": "F0F9A367-92B9-48AB-BB72-635AD4BB63C1"
    },
    {
      "class": "shapePath",
      "id": "E8CB4F80-DF6E-4A55-87F8-770635CC83E3"
    },
    {
      "class": "shapePath",
      "id": "F135F63E-8345-4197-A362-438D5039D944"
    },
    {
      "class": "shapePath",
      "id": "0731114C-F04C-4468-928C-8572BF39839B"
    },
    {
      "class": "shapePath",
      "id": "43125C12-0D4E-4B32-A133-6F3B3CA65F8D"
    },
    {
      "class": "shapePath",
      "id": "CF7ED6E0-5B55-4F1B-B151-FBE82F88F6AB"
    },
    {
      "class": "shapePath",
      "id": "E019A58A-454F-4C15-B3D0-4841C77FB456"
    },
    {
      "class": "shapePath",
      "id": "5786B8EB-57F9-4A3B-8ED1-86A768E20162"
    },
    {
      "class": "shapePath",
      "id": "D9DFE059-AC67-4727-BB91-6B0EF569F0AB"
    },
    {
      "class": "shapePath",
      "id": "FCF46F40-5CE0-4796-AECC-0D7A80EE037A"
    },
    {
      "class": "shapePath",
      "id": "535BDD84-6B24-404F-8617-CF97F1908244"
    },
    {
      "class": "shapePath",
      "id": "AB6C2332-E02C-43F6-B973-94B108A5FCCC"
    },
    {
      "class": "shapePath",
      "id": "79B79515-4025-4A68-BDB8-6316D2DE3E88"
    },
    {
      "class": "shapePath",
      "id": "7D544E4E-AD71-4CB6-A8AB-E52CD87D50FF"
    },
    {
      "class": "shapePath",
      "id": "DAB61832-E7DB-4B61-9F60-DE428285CE9A"
    },
    {
      "class": "shapePath",
      "id": "39E6A544-2A48-4D42-9715-5FF5D286AE86"
    },
    {
      "class": "shapePath",
      "id": "E65B8798-741A-4809-BBF9-3ACC5B52D392"
    },
    {
      "class": "shapePath",
      "id": "F4D58CA1-DFCF-4B41-B557-B4B42320F0DB"
    },
    {
      "class": "shapePath",
      "id": "648F63EB-1253-461F-8F17-D0802616EB55"
    },
    {
      "class": "shapePath",
      "id": "0808BD53-B730-422A-B589-BBA612B4651B"
    },
    {
      "class": "shapePath",
      "id": "280B96CA-0B86-4333-914D-D4AD57A49786"
    },
    {
      "class": "shapePath",
      "id": "5487F0ED-9EB0-4B02-8A79-E28F624F4A67"
    },
    {
      "class": "shapePath",
      "id": "872D4767-367B-4509-886F-1E5E9405FA1C"
    },
    {
      "class": "shapePath",
      "id": "7BE40D32-B974-48F0-B588-70960811D975"
    },
    {
      "class": "shapePath",
      "id": "2925D70E-7DFD-4250-892C-B3007DE266D2"
    },
    {
      "class": "shapePath",
      "id": "14BD243D-6781-4232-BAF2-5344E8499DA8"
    },
    {
      "class": "shapePath",
      "id": "80F0D0BD-F487-48DE-B8E5-444C8AB3A86C"
    },
    {
      "class": "shapePath",
      "id": "E8D8857F-812F-4724-87B6-07990E4C2890"
    },
    {
      "class": "shapePath",
      "id": "15290429-19FA-4047-A826-1A0EA16BA0D6"
    },
    {
      "class": "shapePath",
      "id": "FA5D818F-BEE0-4861-8B00-5D6463A05A63"
    },
    {
      "class": "shapePath",
      "id": "13F1F88C-563C-4F12-9718-EBF5D1A16637"
    }
  ],
  "maintainScrollPosition": false,
  "name": "Fill 2",
  "nameIsFixed": false,
  "resizingConstraint": 63,
  "resizingType": 0,
  "rotation": 0,
  "shouldBreakMaskChain": false,
  "style": {
    "_class": "style",
    "blur": {
      "_class": "blur",
      "center": "{0.5, 0.5}",
      "isEnabled": false,
      "motionAngle": 0,
      "radius": 10,
      "saturation": 1,
      "type": 0
    },
    "borderOptions": {
      "_class": "borderOptions",
      "dashPattern": [
      ],
      "isEnabled": true,
      "lineCapStyle": 0,
      "lineJoinStyle": 0
    },
    "borders": [
    ],
    "colorControls": {
      "_class": "colorControls",
      "brightness": 0,
      "contrast": 1,
      "hue": 0,
      "isEnabled": false,
      "saturation": 1
    },
    "contextSettings": {
      "_class": "graphicsContextSettings",
      "blendMode": 0,
      "opacity": 1
    },
    "do_objectID": "CCB0DC0F-3795-4D8D-9B6A-9486B2585045",
    "endMarkerType": 0,
    "fills": [
      {
        "_class": "fill",
        "color": {
          "_class": "color",
          "alpha": 1,
          "blue": 0.1252310872077942,
          "green": 0.1220022812485695,
          "red": 0.1366096138954163
        },
        "contextSettings": {
          "_class": "graphicsContextSettings",
          "blendMode": 0,
          "opacity": 1
        },
        "fillType": 0,
        "gradient": {
          "_class": "gradient",
          "elipseLength": 0,
          "from": "{0.5, 0}",
          "gradientType": 0,
          "stops": [
            {
              "_class": "gradientStop",
              "color": {
                "_class": "color",
                "alpha": 1,
                "blue": 1,
                "green": 1,
                "red": 1
              },
              "position": 0
            },
            {
              "_class": "gradientStop",
              "color": {
                "_class": "color",
                "alpha": 1,
                "blue": 0,
                "green": 0,
                "red": 0
              },
              "position": 1
            }
          ],
          "to": "{0.5, 1}"
        },
        "isEnabled": true,
        "noiseIndex": 0,
        "noiseIntensity": 0,
        "patternFillType": 1,
        "patternTileScale": 1
      }
    ],
    "innerShadows": [
    ],
    "miterLimit": 10,
    "shadows": [
    ],
    "startMarkerType": 0,
    "windingRule": 1
  },
  "windingRule": 1
}