{
  "_class": "shapePath",
  "booleanOperation": -1,
  "clippingMaskMode": 0,
  "do_objectID": "D04E5819-F6D1-428C-80B4-DD36270A48A1",
  "edited": true,
  "exportOptions": {
    "_class": "exportOptions",
    "do_objectID": "A7C53A9A-67D5-499B-88F5-84BD0437BC4F",
    "exportFormats": [
    ],
    "includedLayerIds": [
    ],
    "layerOptions": 0,
    "shouldTrim": false
  },
  "frame": {
    "_class": "rect",
    "constrainProportions": false,
    "do_objectID": "8DAD79FD-0905-4DBA-8736-404A21CFF6EB",
    "height": 10.92229264090571,
    "width": 5.977768915898737,
    "x": 3,
    "y": -2.47058823529412
  },
  "hasClippingMask": false,
  "isClosed": true,
  "isFixedToViewport": false,
  "isFlippedHorizontal": false,
  "isFlippedVertical": false,
  "isLocked": false,
  "isVisible": true,
  "layerListExpandedType": 0,
  "name": "Right",
  "nameIsFixed": true,
  "pointRadiusBehaviour": 0,
  "points": [
    {
      "_class": "curvePoint",
      "cornerRadius": 0,
      "curveFrom": "{0.98457688902561857, 0.48006496568344986}",
      "curveMode": 4,
      "curveTo": "{1.0052066858340529, 0.4909624351652962}",
      "hasCurveFrom": false,
      "hasCurveTo": true,
      "point": "{0.98457688902561857, 0.48006496568344986}"
    },
    {
      "_class": "curvePoint",
      "cornerRadius": 0,
      "curveFrom": "{0.0705181996672921, -0.0027767590506627576}",
      "curveMode": 4,
      "curveTo": "{0.091544723337427247, 0.0083302771519882697}",
      "hasCurveFrom": true,
      "hasCurveTo": false,
      "point": "{0.091544723337427247, 0.0083302771519882697}"
    },
    {
      "_class": "curvePoint",
      "cornerRadius": 0,
      "curveFrom": "{-0.0052566309175343696, 0.019437313354639302}",
      "curveMode": 2,
      "curveTo": "{0.036796416422735838, -0.0027767590506627576}",
      "hasCurveFrom": true,
      "hasCurveTo": true,
      "point": "{0.015769892752600732, 0.0083302771519882697}"
    },
    {
      "_class": "curvePoint",
      "cornerRadius": 0,
      "curveFrom": "{0.015769892752600732, 0.048357520825692925}",
      "curveMode": 4,
      "curveTo": "{-0.0052566309175343696, 0.037250484623041889}",
      "hasCurveFrom": false,
      "hasCurveTo": true,
      "point": "{0.015769892752600732, 0.048357520825692925}"
    },
    {
      "_class": "curvePoint",
      "cornerRadius": 0,
      "curveFrom": "{0.87071627971752852, 0.49997380415989984}",
      "curveMode": 1,
      "curveTo": "{0.87071627971752852, 0.49997380415989984}",
      "hasCurveFrom": false,
      "hasCurveTo": false,
      "point": "{0.87071627971752852, 0.49997380415989984}"
    },
    {
      "_class": "curvePoint",
      "cornerRadius": 0,
      "curveFrom": "{-0.0052566309175343696, 0.96269712369675786}",
      "curveMode": 4,
      "curveTo": "{0.015769892752600732, 0.95159008749410678}",
      "hasCurveFrom": true,
      "hasCurveTo": false,
      "point": "{0.015769892752600732, 0.95159008749410678}"
    },
    {
      "_class": "curvePoint",
      "cornerRadius": 0,
      "curveFrom": "{0.026084791156817937, 0.99706606590873459}",
      "curveMode": 3,
      "curveTo": "{-0.0052566309175343696, 0.9805102949651604}",
      "hasCurveFrom": true,
      "hasCurveTo": true,
      "point": "{0.015769892752600732, 0.99161733116781148}"
    },
    {
      "_class": "curvePoint",
      "cornerRadius": 0,
      "curveFrom": "{0.066947657911986216, 1.0000000000000009}",
      "curveMode": 2,
      "curveTo": "{0.039970231316341122, 1.0000000000000009}",
      "hasCurveFrom": true,
      "hasCurveTo": true,
      "point": "{0.053458944614163673, 1.0000000000000009}"
    },
    {
      "_class": "curvePoint",
      "cornerRadius": 0,
      "curveFrom": "{0.091147996475726606, 0.99161733116781148}",
      "curveMode": 4,
      "curveTo": "{0.080833098071509402, 0.99727563262953933}",
      "hasCurveFrom": false,
      "hasCurveTo": true,
      "point": "{0.091147996475726606, 0.99161733116781148}"
    },
    {
      "_class": "curvePoint",
      "cornerRadius": 0,
      "curveFrom": "{1.0052066858340529, 0.50898517315450353}",
      "curveMode": 4,
      "curveTo": "{0.98418016216391779, 0.51988264263634987}",
      "hasCurveFrom": true,
      "hasCurveTo": false,
      "point": "{0.98418016216391779, 0.51988264263634987}"
    }
  ],
  "resizingConstraint": 63,
  "resizingType": 0,
  "rotation": 90,
  "shouldBreakMaskChain": false,
  "style": {
    "_class": "style",
    "do_objectID": "E5202F34-7329-4801-A929-8836E693BADA",
    "endMarkerType": 0,
    "fills": [
      {
        "_class": "fill",
        "color": {
          "_class": "color",
          "alpha": 1,
          "blue": 0.1772959183673469,
          "green": 0.1772959183673469,
          "red": 0.1772959183673469
        },
        "fillType": 0,
        "isEnabled": true,
        "noiseIndex": 0,
        "noiseIntensity": 0,
        "patternFillType": 1,
        "patternTileScale": 1
      }
    ],
    "miterLimit": 10,
    "startMarkerType": 0,
    "windingRule": 0
  }
}