{
  "_class": "symbolInstance",
  "booleanOperation": -1,
  "clippingMaskMode": 0,
  "do_objectID": "72333D83-150D-4F31-BCE0-1C34B52DBB5A",
  "exportOptions": {
    "_class": "exportOptions",
    "do_objectID": "C3891F39-6A58-4DE3-96A4-80001BB27065",
    "exportFormats": [
    ],
    "includedLayerIds": [
    ],
    "layerOptions": 0,
    "shouldTrim": false
  },
  "frame": {
    "_class": "rect",
    "constrainProportions": false,
    "do_objectID": "9EDC0FFC-0326-4FA7-BF28-07A03418A3D4",
    "height": 32,
    "width": 256,
    "x": 0,
    "y": 16
  },
  "hasClippingMask": false,
  "horizontalSpacing": 0,
  "isFixedToViewport": false,
  "isFlippedHorizontal": false,
  "isFlippedVertical": false,
  "isLocked": false,
  "isVisible": true,
  "layerListExpandedType": 0,
  "name": "link 1",
  "nameIsFixed": true,
  "overrideValues": [
  ],
  "resizingConstraint": 63,
  "resizingType": 0,
  "rotation": 0,
  "scale": 1,
  "shouldBreakMaskChain": false,
  "style": {
    "_class": "style",
    "do_objectID": "3F7C3E65-3202-4302-B22B-875BC5C79377",
    "endMarkerType": 0,
    "miterLimit": 10,
    "startMarkerType": 0,
    "windingRule": 1
  },
  "symbolID": "4EFBA424-42EF-4B61-B57C-65826FD2851B",
  "verticalSpacing": 0
}