{
  "_class": "symbolInstance",
  "booleanOperation": -1,
  "clippingMaskMode": 0,
  "do_objectID": "B1299973-D3F6-44E1-A315-BD6D41BBFF54",
  "exportOptions": {
    "_class": "exportOptions",
    "do_objectID": "3041ACB6-8538-4513-87E5-3E0DDD87D35C",
    "exportFormats": [
    ],
    "includedLayerIds": [
    ],
    "layerOptions": 0,
    "shouldTrim": false
  },
  "frame": {
    "_class": "rect",
    "constrainProportions": false,
    "do_objectID": "A1C39E37-7773-40DD-928F-F47043692762",
    "height": 32,
    "width": 32,
    "x": 128,
    "y": 0
  },
  "hasClippingMask": false,
  "horizontalSpacing": 0,
  "isFixedToViewport": false,
  "isFlippedHorizontal": false,
  "isFlippedVertical": false,
  "isLocked": false,
  "isVisible": true,
  "layerListExpandedType": 0,
  "name": "icon button 2",
  "nameIsFixed": true,
  "overrideValues": [
    {
      "_class": "overrideValue",
      "do_objectID": "2F877780-E740-43D2-8402-779184CA6984",
      "overrideName": "9F9BACD0-2D1A-419E-8F23-39B00148FEC4_symbolID",
      "value": "BCB0FFBA-54EF-4C7A-86F8-7B60D6456A78"
    }
  ],
  "resizingConstraint": 12,
  "resizingType": 0,
  "rotation": 0,
  "scale": 1,
  "shouldBreakMaskChain": false,
  "style": {
    "_class": "style",
    "do_objectID": "3C323373-8302-4E81-9823-17235F52B595",
    "endMarkerType": 0,
    "miterLimit": 10,
    "startMarkerType": 0,
    "windingRule": 1
  },
  "symbolID": "2E9300CF-84EC-44FA-9847-8EF11773C40A",
  "verticalSpacing": 0
}