{
  "_class": "symbolInstance",
  "booleanOperation": -1,
  "clippingMaskMode": 0,
  "do_objectID": "C7C009DC-74F7-4158-B7C9-ED35DE55CF10",
  "exportOptions": {
    "_class": "exportOptions",
    "do_objectID": "32F7A7AF-C30E-4B20-B25B-F0272360BD08",
    "exportFormats": [
    ],
    "includedLayerIds": [
    ],
    "layerOptions": 0,
    "shouldTrim": false
  },
  "frame": {
    "_class": "rect",
    "constrainProportions": false,
    "do_objectID": "0263635D-7E14-4916-BA91-49F12215F8E2",
    "height": 404,
    "width": 288,
    "x": 320,
    "y": 756
  },
  "hasClippingMask": false,
  "horizontalSpacing": 0,
  "isFixedToViewport": false,
  "isFlippedHorizontal": false,
  "isFlippedVertical": false,
  "isLocked": false,
  "isVisible": true,
  "layerListExpandedType": 0,
  "name": "Date Picker / single date / group / open",
  "nameIsFixed": true,
  "overrideValues": [
    {
      "_class": "overrideValue",
      "do_objectID": "B871BDB5-DDF4-48CC-A492-B8948F8FE9A7",
      "overrideName": "C9E8578A-2D65-4B9F-9CF7-433DDEA1E75E/CCE872C2-18EF-4729-A883-06DDD686A591_symbolID",
      "value": "E10A2127-8263-499D-A09D-2D8031DA16C6"
    },
    {
      "_class": "overrideValue",
      "do_objectID": "301B7F2B-52B1-4CD1-A74B-B9C14004DF03",
      "overrideName": "C9E8578A-2D65-4B9F-9CF7-433DDEA1E75E/93F3556A-4954-4F9D-A1DD-BBF422367468_symbolID",
      "value": "4679EB64-B584-49C5-9AA0-BECDDCCCC69E"
    }
  ],
  "resizingConstraint": 63,
  "resizingType": 0,
  "rotation": 0,
  "scale": 1,
  "shouldBreakMaskChain": false,
  "style": {
    "_class": "style",
    "do_objectID": "E630D94F-64B4-4EF2-B599-04F4E4B5DCE0",
    "endMarkerType": 0,
    "miterLimit": 10,
    "startMarkerType": 0,
    "windingRule": 1
  },
  "symbolID": "470A86CC-FB92-4D59-9B1B-C7E80FA721A6",
  "verticalSpacing": 0
}