{
  "_class": "group",
  "booleanOperation": 0,
  "clippingMaskMode": 0,
  "do_objectID": "643AA2EF-6379-4A70-86B0-D273CD2D1DC4",
  "exportOptions": {
    "_class": "exportOptions",
    "do_objectID": "3D7A56A8-64E0-43CA-B3A4-DC6DCCCDB5AE",
    "exportFormats": [
    ],
    "includedLayerIds": [
    ],
    "layerOptions": 0,
    "shouldTrim": false
  },
  "frame": {
    "_class": "rect",
    "constrainProportions": false,
    "do_objectID": "BE309259-5914-4110-879A-2B0095D03926",
    "height": 30,
    "width": 100,
    "x": 0,
    "y": 91
  },
  "groupLayout": {
    "_class": "MSImmutableFreeformGroupLayout",
    "do_objectID": "50C828F8-63E7-48C7-AE50-B2CF4AA94C29"
  },
  "hasClickThrough": false,
  "hasClippingMask": false,
  "isFixedToViewport": false,
  "isFlippedHorizontal": false,
  "isFlippedVertical": false,
  "isLocked": false,
  "isVisible": true,
  "layerListExpandedType": 0,
  "layers": [
    {
      "class": "text",
      "id": "D773F144-050F-448D-B7C4-439081877703"
    }
  ],
  "name": "author",
  "nameIsFixed": true,
  "resizingConstraint": 63,
  "resizingType": 0,
  "rotation": 0,
  "shouldBreakMaskChain": false,
  "style": {
    "_class": "style",
    "do_objectID": "13F2FA79-CEDA-495B-8F9E-E565443F5667",
    "endMarkerType": 0,
    "miterLimit": 10,
    "startMarkerType": 0,
    "windingRule": 1
  }
}