{
  "_class": "shapePath",
  "booleanOperation": -1,
  "clippingMaskMode": 0,
  "do_objectID": "005B2D37-8D62-4C96-B8AD-67DBC6A7F0BA",
  "edited": true,
  "exportOptions": {
    "_class": "exportOptions",
    "do_objectID": "955BB469-8B88-4FD7-9189-AA6F5E447B1C",
    "exportFormats": [
    ],
    "includedLayerIds": [
    ],
    "layerOptions": 0,
    "shouldTrim": false
  },
  "frame": {
    "_class": "rect",
    "constrainProportions": false,
    "do_objectID": "9783F460-63F6-4FC0-B344-95F953907048",
    "height": 0.2248032015614747,
    "width": 0.1224526447418519,
    "x": 31.34635681610155,
    "y": 17.21729423696517
  },
  "hasClippingMask": false,
  "isClosed": true,
  "isFixedToViewport": false,
  "isFlippedHorizontal": false,
  "isFlippedVertical": false,
  "isLocked": false,
  "isVisible": true,
  "layerListExpandedType": 0,
  "name": "Path",
  "nameIsFixed": false,
  "pointRadiusBehaviour": 0,
  "points": [
    {
      "_class": "curvePoint",
      "cornerRadius": 0,
      "curveFrom": "{0.024514750630986397, 0.51479076479075836}",
      "curveMode": 3,
      "curveTo": "{-0.036470025090971636, 0.70779220779220908}",
      "hasCurveFrom": true,
      "hasCurveTo": true,
      "point": "{0.0046284107216416071, 0.57683982683982915}"
    },
    {
      "_class": "curvePoint",
      "cornerRadius": 0,
      "curveFrom": "{0.42754457279331309, 0.29725829725829955}",
      "curveMode": 4,
      "curveTo": "{0.61182465595303548, 0.49963924963925305}",
      "hasCurveFrom": true,
      "hasCurveTo": true,
      "point": "{0.29894624137966569, 0.31421356421356533}"
    },
    {
      "_class": "curvePoint",
      "cornerRadius": 0,
      "curveFrom": "{0.65358596976264827, 0.13095238095237985}",
      "curveMode": 4,
      "curveTo": "{0.55746866020088415, 0.28030303030303377}",
      "hasCurveFrom": true,
      "hasCurveTo": true,
      "point": "{0.68805562560545475, 0.26262626262626387}"
    },
    {
      "_class": "curvePoint",
      "cornerRadius": 0,
      "curveFrom": "{1.0175059901032848, 0.13167388167388402}",
      "curveMode": 4,
      "curveTo": "{0.63369962985330341, 0.0046897546897565427}",
      "hasCurveFrom": true,
      "hasCurveTo": true,
      "point": "{0.98237345626347883, 0}"
    },
    {
      "_class": "curvePoint",
      "cornerRadius": 0,
      "curveFrom": "{0.86968419677729214, 0.62445887445886805}",
      "curveMode": 4,
      "curveTo": "{1.0340779400277074, 0.25793650793650735}",
      "hasCurveFrom": true,
      "hasCurveTo": true,
      "point": "{0.68805562560545475, 0.26262626262626387}"
    },
    {
      "_class": "curvePoint",
      "cornerRadius": 0,
      "curveFrom": "{0.21012058978467013, 0.86652236652236581}",
      "curveMode": 4,
      "curveTo": "{0.63104811786538073, 0.84523809523809557}",
      "hasCurveFrom": true,
      "hasCurveTo": true,
      "point": "{0.19288576186324805, 1}"
    }
  ],
  "resizingConstraint": 63,
  "resizingType": 0,
  "rotation": 0,
  "shouldBreakMaskChain": false,
  "style": {
    "_class": "style",
    "do_objectID": "409EF6F2-5032-42B7-BD58-162913D25313",
    "endMarkerType": 0,
    "fills": [
      {
        "_class": "fill",
        "color": {
          "_class": "color",
          "alpha": 1,
          "blue": 0.1764705882352941,
          "green": 0.1764705882352941,
          "red": 0.1764705882352941
        },
        "fillType": 0,
        "isEnabled": true,
        "noiseIndex": 0,
        "noiseIntensity": 0,
        "patternFillType": 1,
        "patternTileScale": 1
      }
    ],
    "miterLimit": 10,
    "startMarkerType": 0,
    "windingRule": 1
  }
}