{
  "_class": "shapePath",
  "booleanOperation": -1,
  "clippingMaskMode": 0,
  "do_objectID": "060AF99D-69DA-44E9-91E9-6B91D0A7874E",
  "edited": true,
  "exportOptions": {
    "_class": "exportOptions",
    "do_objectID": "8DDDAE8C-9E62-4C1A-8D19-E1B3B77FACC3",
    "exportFormats": [
    ],
    "includedLayerIds": [
    ],
    "layerOptions": 0,
    "shouldTrim": false
  },
  "frame": {
    "_class": "rect",
    "constrainProportions": false,
    "do_objectID": "B9B9BBF7-2A16-43CE-88DB-343CCC30AC1F",
    "height": 0.105890603085566,
    "width": 0.105986348254568,
    "x": 34.01849694613949,
    "y": 17.74587689930741
  },
  "hasClippingMask": false,
  "isClosed": true,
  "isFixedToViewport": false,
  "isFlippedHorizontal": false,
  "isFlippedVertical": false,
  "isLocked": false,
  "isVisible": true,
  "layerListExpandedType": 0,
  "name": "Path",
  "nameIsFixed": false,
  "pointRadiusBehaviour": 0,
  "points": [
    {
      "_class": "curvePoint",
      "cornerRadius": 0,
      "curveFrom": "{0.93816197359888065, 0.24716070841003557}",
      "curveMode": 3,
      "curveTo": "{0.36216197359891567, -0.10783929158998262}",
      "hasCurveFrom": true,
      "hasCurveTo": true,
      "point": "{0.5651619735988902, 0.016160708410012603}"
    },
    {
      "_class": "curvePoint",
      "cornerRadius": 0,
      "curveFrom": "{-0.25783802640108888, 0.51516070841003625}",
      "curveMode": 3,
      "curveTo": "{0.32116197359891885, 0.86716070841004012}",
      "hasCurveFrom": true,
      "hasCurveTo": true,
      "point": "{0.11916197359892067, 0.74516070841002602}"
    }
  ],
  "resizingConstraint": 63,
  "resizingType": 0,
  "rotation": 0,
  "shouldBreakMaskChain": false,
  "style": {
    "_class": "style",
    "do_objectID": "9A1B7CC0-4EF7-4B4C-983B-2C63990EFA04",
    "endMarkerType": 0,
    "fills": [
      {
        "_class": "fill",
        "color": {
          "_class": "color",
          "alpha": 1,
          "blue": 0.1764705882352941,
          "green": 0.1764705882352941,
          "red": 0.1764705882352941
        },
        "fillType": 0,
        "isEnabled": true,
        "noiseIndex": 0,
        "noiseIntensity": 0,
        "patternFillType": 1,
        "patternTileScale": 1
      }
    ],
    "miterLimit": 10,
    "startMarkerType": 0,
    "windingRule": 1
  }
}