{
  "_class": "shapePath",
  "booleanOperation": -1,
  "clippingMaskMode": 0,
  "do_objectID": "08923EB5-82BD-4CAF-8FFB-11803DF476D7",
  "edited": true,
  "exportOptions": {
    "_class": "exportOptions",
    "do_objectID": "27102A94-379F-4DBB-B44D-DEAF8CF3E1F7",
    "exportFormats": [
    ],
    "includedLayerIds": [
    ],
    "layerOptions": 0,
    "shouldTrim": false
  },
  "frame": {
    "_class": "rect",
    "constrainProportions": false,
    "do_objectID": "79F7FC9E-0A94-4D91-8F20-F0A36F44B617",
    "height": 0.1058906030855562,
    "width": 0.1059863482545431,
    "x": 18.05042041163683,
    "y": 7.218326513542822
  },
  "hasClippingMask": false,
  "isClosed": true,
  "isFixedToViewport": false,
  "isFlippedHorizontal": false,
  "isFlippedVertical": false,
  "isLocked": false,
  "isVisible": true,
  "layerListExpandedType": 0,
  "name": "Path",
  "nameIsFixed": false,
  "pointRadiusBehaviour": 0,
  "points": [
    {
      "_class": "curvePoint",
      "cornerRadius": 0,
      "curveFrom": "{-0.28978866632479594, 0.57712363169942194}",
      "curveMode": 3,
      "curveTo": "{0.35821133367520019, 0.97112363169942739}",
      "hasCurveFrom": true,
      "hasCurveTo": true,
      "point": "{0.13421133367521065, 0.83512363169940329}"
    },
    {
      "_class": "curvePoint",
      "cornerRadius": 0,
      "curveFrom": "{1.0562113336752077, 0.27512363169940102}",
      "curveMode": 3,
      "curveTo": "{0.40621133367520201, -0.12087636830061399}",
      "hasCurveFrom": true,
      "hasCurveTo": true,
      "point": "{0.6322113336752011, 0.018123631699396014}"
    }
  ],
  "resizingConstraint": 63,
  "resizingType": 0,
  "rotation": 0,
  "shouldBreakMaskChain": false,
  "style": {
    "_class": "style",
    "do_objectID": "46C6334A-0CFA-4BF0-AEB9-EAE98C7F66F5",
    "endMarkerType": 0,
    "fills": [
      {
        "_class": "fill",
        "color": {
          "_class": "color",
          "alpha": 1,
          "blue": 0.1764705882352941,
          "green": 0.1764705882352941,
          "red": 0.1764705882352941
        },
        "fillType": 0,
        "isEnabled": true,
        "noiseIndex": 0,
        "noiseIntensity": 0,
        "patternFillType": 1,
        "patternTileScale": 1
      }
    ],
    "miterLimit": 10,
    "startMarkerType": 0,
    "windingRule": 1
  }
}