{
  "_class": "shapePath",
  "booleanOperation": -1,
  "clippingMaskMode": 0,
  "do_objectID": "0C00A708-66D7-43AD-AF52-018589AC8F82",
  "edited": true,
  "exportOptions": {
    "_class": "exportOptions",
    "do_objectID": "D0AE02B3-508D-40E3-9DA1-960177FB2A27",
    "exportFormats": [
    ],
    "includedLayerIds": [
    ],
    "layerOptions": 0,
    "shouldTrim": false
  },
  "frame": {
    "_class": "rect",
    "constrainProportions": false,
    "do_objectID": "5E9ECD52-2062-4003-BEFB-A6EB9BEF0B65",
    "height": 0.1265882583720959,
    "width": 0.3593447424573775,
    "x": 24.09127675228877,
    "y": 1.36209604317722
  },
  "hasClippingMask": false,
  "isClosed": true,
  "isFixedToViewport": false,
  "isFlippedHorizontal": false,
  "isFlippedVertical": false,
  "isLocked": false,
  "isVisible": true,
  "layerListExpandedType": 0,
  "name": "Path",
  "nameIsFixed": false,
  "pointRadiusBehaviour": 0,
  "points": [
    {
      "_class": "curvePoint",
      "cornerRadius": 0,
      "curveFrom": "{0.9006098938332967, 0.7393297214095168}",
      "curveMode": 4,
      "curveTo": "{0.99570815450643657, 0.2940830864742176}",
      "hasCurveFrom": true,
      "hasCurveTo": true,
      "point": "{1, 0.67078095890866807}"
    },
    {
      "_class": "curvePoint",
      "cornerRadius": 0,
      "curveFrom": "{0.65258640162638271, 0.90461552257973266}",
      "curveMode": 4,
      "curveTo": "{0.8012197876665933, 0.80787848391032901}",
      "hasCurveFrom": true,
      "hasCurveTo": true,
      "point": "{0.70228145470974079, 0.87514596113078225}"
    },
    {
      "_class": "curvePoint",
      "cornerRadius": 0,
      "curveFrom": "{0.46238988028010297, 1.0263376242167206}",
      "curveMode": 4,
      "curveTo": "{0.60424666817257711, 0.95138243531393096}",
      "hasCurveFrom": true,
      "hasCurveTo": true,
      "point": "{0.55387395527444916, 0.97700814092173138}"
    },
    {
      "_class": "curvePoint",
      "cornerRadius": 0,
      "curveFrom": "{0.27671109103230562, 0.69576602187625258}",
      "curveMode": 4,
      "curveTo": "{0.37180935170544549, 1.0269782668569001}",
      "hasCurveFrom": true,
      "hasCurveTo": true,
      "point": "{0.36887282584143449, 0.65796810610478618}"
    },
    {
      "_class": "curvePoint",
      "cornerRadius": 0,
      "curveFrom": "{0.091935848204209886, 0.37544470177891187}",
      "curveMode": 4,
      "curveTo": "{0.18771176869211958, 0.71562594372229149}",
      "hasCurveFrom": true,
      "hasCurveTo": true,
      "point": "{0.18454935622317672, 0.33956871392802046}"
    },
    {
      "_class": "curvePoint",
      "cornerRadius": 0,
      "curveFrom": "{0.092839394623898674, -0.019191164581002541}",
      "curveMode": 4,
      "curveTo": "{0.002710639259092026, 0.39658590890534623}",
      "hasCurveFrom": true,
      "hasCurveTo": true,
      "point": "{0, 0.019888036470895747}"
    },
    {
      "_class": "curvePoint",
      "cornerRadius": 0,
      "curveFrom": "{0.27693697763722458, 0.29920822759576315}",
      "curveMode": 4,
      "curveTo": "{0.18116105714931491, -0.038410443786825503}",
      "hasCurveFrom": true,
      "hasCurveTo": true,
      "point": "{0.18454935622317672, 0.33956871392802046}"
    },
    {
      "_class": "curvePoint",
      "cornerRadius": 0,
      "curveFrom": "{0.51795798509148305, 0.55546528367362114}",
      "curveMode": 4,
      "curveTo": "{0.36616218658234245, 0.28127023367029924}",
      "hasCurveFrom": true,
      "hasCurveTo": true,
      "point": "{0.36887282584143449, 0.65796810610478618}"
    },
    {
      "_class": "curvePoint",
      "cornerRadius": 0,
      "curveFrom": "{0.90783826519087107, 0.3139430083202201}",
      "curveMode": 4,
      "curveTo": "{0.66613959792184285, 0.453603103882672}",
      "hasCurveFrom": true,
      "hasCurveTo": true,
      "point": "{0.81522475717190424, 0.35110028145154337}"
    }
  ],
  "resizingConstraint": 63,
  "resizingType": 0,
  "rotation": 0,
  "shouldBreakMaskChain": false,
  "style": {
    "_class": "style",
    "do_objectID": "86E0611A-63B2-471F-BF28-679B42DD8D0A",
    "endMarkerType": 0,
    "fills": [
      {
        "_class": "fill",
        "color": {
          "_class": "color",
          "alpha": 1,
          "blue": 0.1764705882352941,
          "green": 0.1764705882352941,
          "red": 0.1764705882352941
        },
        "fillType": 0,
        "isEnabled": true,
        "noiseIndex": 0,
        "noiseIntensity": 0,
        "patternFillType": 1,
        "patternTileScale": 1
      }
    ],
    "miterLimit": 10,
    "startMarkerType": 0,
    "windingRule": 1
  }
}