{
  "_class": "shapePath",
  "booleanOperation": -1,
  "clippingMaskMode": 0,
  "do_objectID": "0F41BB80-4E3B-44A1-B25D-0881A145AA16",
  "edited": true,
  "exportOptions": {
    "_class": "exportOptions",
    "do_objectID": "1DC8602E-933C-4036-86BD-D605D2BEBD21",
    "exportFormats": [
    ],
    "includedLayerIds": [
    ],
    "layerOptions": 0,
    "shouldTrim": false
  },
  "frame": {
    "_class": "rect",
    "constrainProportions": false,
    "do_objectID": "5913DBDA-E0A3-4A30-AC1D-285D4F4005A2",
    "height": 0.1058906030855535,
    "width": 0.1059863482545573,
    "x": 12.85012033278886,
    "y": 12.94648716173125
  },
  "hasClippingMask": false,
  "isClosed": true,
  "isFixedToViewport": false,
  "isFlippedHorizontal": false,
  "isFlippedVertical": false,
  "isLocked": false,
  "isVisible": true,
  "layerListExpandedType": 0,
  "name": "Path",
  "nameIsFixed": false,
  "pointRadiusBehaviour": 0,
  "points": [
    {
      "_class": "curvePoint",
      "cornerRadius": 0,
      "curveFrom": "{0.93906712336996634, 0.24540485151550229}",
      "curveMode": 4,
      "curveTo": "{0.36306712336997293, -0.10859514848448271}",
      "hasCurveFrom": true,
      "hasCurveTo": true,
      "point": "{0.56306712336998999, 0.016404851515517294}"
    },
    {
      "_class": "curvePoint",
      "cornerRadius": 0,
      "curveFrom": "{-0.25793287663000797, 0.51440485151550774}",
      "curveMode": 3,
      "curveTo": "{0.32206712336997612, 0.86740485151551638}",
      "hasCurveFrom": true,
      "hasCurveTo": true,
      "point": "{0.11906712336997316, 0.74540485151550229}"
    }
  ],
  "resizingConstraint": 63,
  "resizingType": 0,
  "rotation": 0,
  "shouldBreakMaskChain": false,
  "style": {
    "_class": "style",
    "do_objectID": "2E4882D2-ED60-46C6-BA02-779BE6FE9FE0",
    "endMarkerType": 0,
    "fills": [
      {
        "_class": "fill",
        "color": {
          "_class": "color",
          "alpha": 1,
          "blue": 0.1764705882352941,
          "green": 0.1764705882352941,
          "red": 0.1764705882352941
        },
        "fillType": 0,
        "isEnabled": true,
        "noiseIndex": 0,
        "noiseIntensity": 0,
        "patternFillType": 1,
        "patternTileScale": 1
      }
    ],
    "miterLimit": 10,
    "startMarkerType": 0,
    "windingRule": 1
  }
}