{
  "_class": "shapePath",
  "booleanOperation": -1,
  "clippingMaskMode": 0,
  "do_objectID": "1B311191-353A-4FFE-B795-C73129668C5C",
  "edited": true,
  "exportOptions": {
    "_class": "exportOptions",
    "do_objectID": "C6F0C5BD-8D5F-4F83-93D1-B8FE75B1EC0F",
    "exportFormats": [
    ],
    "includedLayerIds": [
    ],
    "layerOptions": 0,
    "shouldTrim": false
  },
  "frame": {
    "_class": "rect",
    "constrainProportions": false,
    "do_objectID": "BF6F114A-0F4A-4D00-B057-C94CE7825014",
    "height": 0.1683122573664271,
    "width": 0.1380236446380714,
    "x": 6.247735899207072,
    "y": 10.23163213889246
  },
  "hasClippingMask": false,
  "isClosed": true,
  "isFixedToViewport": false,
  "isFlippedHorizontal": false,
  "isFlippedVertical": false,
  "isLocked": false,
  "isVisible": true,
  "layerListExpandedType": 0,
  "name": "Path",
  "nameIsFixed": false,
  "pointRadiusBehaviour": 0,
  "points": [
    {
      "_class": "curvePoint",
      "cornerRadius": 0,
      "curveFrom": "{0.39173417882051326, -0.11674775820041623}",
      "curveMode": 4,
      "curveTo": "{0.35997699069138728, 0.32364454191891312}",
      "hasCurveFrom": true,
      "hasCurveTo": true,
      "point": "{0.074162297529186821, 0.082729716908335707}"
    },
    {
      "_class": "curvePoint",
      "cornerRadius": 0,
      "curveFrom": "{0.7010727150413345, 0.31256245996844206}",
      "curveMode": 4,
      "curveTo": "{0.47583191775506989, 0.086584354108523359}",
      "hasCurveFrom": true,
      "hasCurveTo": true,
      "point": "{0.63814643485953415, 0.25040643511570393}"
    },
    {
      "_class": "curvePoint",
      "cornerRadius": 0,
      "curveFrom": "{0.84750863808122334, 1.2227386688584083}",
      "curveMode": 3,
      "curveTo": "{1.0280541335561109, 0.81511078494050959}",
      "hasCurveFrom": true,
      "hasCurveTo": true,
      "point": "{0.998061233656373, 0.88160327664341775}"
    },
    {
      "_class": "curvePoint",
      "cornerRadius": 0,
      "curveFrom": "{0.38879369843818878, 0.70766277298578573}",
      "curveMode": 4,
      "curveTo": "{0.46701047660808809, 0.71874485493625673}",
      "hasCurveFrom": true,
      "hasCurveTo": true,
      "point": "{0.4340770963260257, 0.71344472878603982}"
    },
    {
      "_class": "curvePoint",
      "cornerRadius": 0,
      "curveFrom": "{-0.15519517229233043, 0.67008006028412048}",
      "curveMode": 4,
      "curveTo": "{0.071809913223322225, 0.88304876559347445}",
      "hasCurveFrom": true,
      "hasCurveTo": true,
      "point": "{0.049462262317637909, 0.86088460169250502}"
    }
  ],
  "resizingConstraint": 63,
  "resizingType": 0,
  "rotation": 0,
  "shouldBreakMaskChain": false,
  "style": {
    "_class": "style",
    "do_objectID": "6B43DFCB-4919-4C27-ACAE-CDB646A26B44",
    "endMarkerType": 0,
    "fills": [
      {
        "_class": "fill",
        "color": {
          "_class": "color",
          "alpha": 1,
          "blue": 0.1764705882352941,
          "green": 0.1764705882352941,
          "red": 0.1764705882352941
        },
        "fillType": 0,
        "isEnabled": true,
        "noiseIndex": 0,
        "noiseIntensity": 0,
        "patternFillType": 1,
        "patternTileScale": 1
      }
    ],
    "miterLimit": 10,
    "startMarkerType": 0,
    "windingRule": 1
  }
}