{
  "_class": "shapePath",
  "booleanOperation": -1,
  "clippingMaskMode": 0,
  "do_objectID": "1E5703C4-EE14-48DB-A7BD-0A3F1F6C3329",
  "edited": true,
  "exportOptions": {
    "_class": "exportOptions",
    "do_objectID": "77F20060-156F-45B0-9EFC-56C96C99DB36",
    "exportFormats": [
    ],
    "includedLayerIds": [
    ],
    "layerOptions": 0,
    "shouldTrim": false
  },
  "frame": {
    "_class": "rect",
    "constrainProportions": false,
    "do_objectID": "794311CC-25A4-4004-88DB-E25ACCEC3F9D",
    "height": 0.1058906030855802,
    "width": 0.1059863482545591,
    "x": 6.497638007951808,
    "y": 17.18735729066932
  },
  "hasClippingMask": false,
  "isClosed": true,
  "isFixedToViewport": false,
  "isFlippedHorizontal": false,
  "isFlippedVertical": false,
  "isLocked": false,
  "isVisible": true,
  "layerListExpandedType": 0,
  "name": "Path",
  "nameIsFixed": false,
  "pointRadiusBehaviour": 0,
  "points": [
    {
      "_class": "curvePoint",
      "cornerRadius": 0,
      "curveFrom": "{1.0554002500987281, 0.27514605555276717}",
      "curveMode": 3,
      "curveTo": "{0.40540025009873659, -0.12085394444721942}",
      "hasCurveFrom": true,
      "hasCurveTo": true,
      "point": "{0.63140025009873568, 0.018146055552762164}"
    },
    {
      "_class": "curvePoint",
      "cornerRadius": 0,
      "curveFrom": "{-0.28859974990126602, 0.57614605555275489}",
      "curveMode": 3,
      "curveTo": "{0.36140025009872545, 0.97214605555276989}",
      "hasCurveFrom": true,
      "hasCurveTo": true,
      "point": "{0.13340025009873102, 0.83414605555276466}"
    }
  ],
  "resizingConstraint": 63,
  "resizingType": 0,
  "rotation": 0,
  "shouldBreakMaskChain": false,
  "style": {
    "_class": "style",
    "do_objectID": "F657DA12-505A-4DED-9747-5BA509DAB98A",
    "endMarkerType": 0,
    "fills": [
      {
        "_class": "fill",
        "color": {
          "_class": "color",
          "alpha": 1,
          "blue": 0.1764705882352941,
          "green": 0.1764705882352941,
          "red": 0.1764705882352941
        },
        "fillType": 0,
        "isEnabled": true,
        "noiseIndex": 0,
        "noiseIntensity": 0,
        "patternFillType": 1,
        "patternTileScale": 1
      }
    ],
    "miterLimit": 10,
    "startMarkerType": 0,
    "windingRule": 1
  }
}