{
  "_class": "shapePath",
  "booleanOperation": -1,
  "clippingMaskMode": 0,
  "do_objectID": "1F55F742-C281-40E5-8339-AF556CD65E03",
  "edited": true,
  "exportOptions": {
    "_class": "exportOptions",
    "do_objectID": "5A8F2BAE-2EFC-4765-8F8C-DB6478613CEC",
    "exportFormats": [
    ],
    "includedLayerIds": [
    ],
    "layerOptions": 0,
    "shouldTrim": false
  },
  "frame": {
    "_class": "rect",
    "constrainProportions": false,
    "do_objectID": "3ABE2492-B8EA-49BF-820F-E2AAA315F031",
    "height": 0.1058906030855589,
    "width": 0.1153907125656239,
    "x": 20.88446337690614,
    "y": 10.98387126379726
  },
  "hasClippingMask": false,
  "isClosed": true,
  "isFixedToViewport": false,
  "isFlippedHorizontal": false,
  "isFlippedVertical": false,
  "isLocked": false,
  "isVisible": true,
  "layerListExpandedType": 0,
  "name": "Path",
  "nameIsFixed": false,
  "pointRadiusBehaviour": 0,
  "points": [
    {
      "_class": "curvePoint",
      "cornerRadius": 0,
      "curveFrom": "{0.13000066738020807, 0.045999999999992269}",
      "curveMode": 3,
      "curveTo": "{-0.084550438425688185, 0.54499999999995907}",
      "hasCurveFrom": true,
      "hasCurveTo": true,
      "point": "{0.0139320363704891, 0.31899999999995998}"
    },
    {
      "_class": "curvePoint",
      "cornerRadius": 0,
      "curveFrom": "{1.1204529853300391, 0.53099999999994907}",
      "curveMode": 4,
      "curveTo": "{0.77717121604061312, 0.23699999999996635}",
      "hasCurveFrom": true,
      "hasCurveTo": true,
      "point": "{0.93966729945425165, 0}"
    },
    {
      "_class": "curvePoint",
      "cornerRadius": 0,
      "curveFrom": "{0.3635448218967805, 1.2019999999999982}",
      "curveMode": 4,
      "curveTo": "{0.86299165836297964, 0.68599999999997863}",
      "hasCurveFrom": true,
      "hasCurveTo": true,
      "point": "{0.58935106767939305, 0.81899999999995998}"
    }
  ],
  "resizingConstraint": 63,
  "resizingType": 0,
  "rotation": 0,
  "shouldBreakMaskChain": false,
  "style": {
    "_class": "style",
    "do_objectID": "EB294B4B-AF33-4ED9-ACD1-91E28FD3A221",
    "endMarkerType": 0,
    "fills": [
      {
        "_class": "fill",
        "color": {
          "_class": "color",
          "alpha": 1,
          "blue": 0.1764705882352941,
          "green": 0.1764705882352941,
          "red": 0.1764705882352941
        },
        "fillType": 0,
        "isEnabled": true,
        "noiseIndex": 0,
        "noiseIntensity": 0,
        "patternFillType": 1,
        "patternTileScale": 1
      }
    ],
    "miterLimit": 10,
    "startMarkerType": 0,
    "windingRule": 1
  }
}