{
  "_class": "shapePath",
  "booleanOperation": -1,
  "clippingMaskMode": 0,
  "do_objectID": "1F9ABD37-634C-49FB-8F40-2F114DC8CE79",
  "edited": true,
  "exportOptions": {
    "_class": "exportOptions",
    "do_objectID": "75E81023-1227-412D-B479-731420359DFA",
    "exportFormats": [
    ],
    "includedLayerIds": [
    ],
    "layerOptions": 0,
    "shouldTrim": false
  },
  "frame": {
    "_class": "rect",
    "constrainProportions": false,
    "do_objectID": "D44CEC87-E502-4E60-8B6A-CEE67BF22E54",
    "height": 0.1058906030855589,
    "width": 0.1059863482545609,
    "x": 19.59824641852052,
    "y": 10.85078971482092
  },
  "hasClippingMask": false,
  "isClosed": true,
  "isFixedToViewport": false,
  "isFlippedHorizontal": false,
  "isFlippedVertical": false,
  "isLocked": false,
  "isVisible": true,
  "layerListExpandedType": 0,
  "name": "Path",
  "nameIsFixed": false,
  "pointRadiusBehaviour": 0,
  "points": [
    {
      "_class": "curvePoint",
      "cornerRadius": 0,
      "curveFrom": "{0.36188016876466145, 1.0679999999999836}",
      "curveMode": 4,
      "curveTo": "{0.86411479296788296, 0.60500000000001819}",
      "hasCurveFrom": true,
      "hasCurveTo": true,
      "point": "{0.59045624182722323, 0.72699999999997544}"
    },
    {
      "_class": "curvePoint",
      "cornerRadius": 0,
      "curveFrom": "{0.13014041302993828, 0.038000000000010914}",
      "curveMode": 4,
      "curveTo": "{-0.084199088007964454, 0.48300000000000409}",
      "hasCurveFrom": true,
      "hasCurveTo": true,
      "point": "{0.013875074828567769, 0.28399999999999181}"
    },
    {
      "_class": "curvePoint",
      "cornerRadius": 0,
      "curveFrom": "{1.1187912480756641, 0.47199999999997999}",
      "curveMode": 4,
      "curveTo": "{0.77790444015188875, 0.20499999999998408}",
      "hasCurveFrom": true,
      "hasCurveTo": true,
      "point": "{0.94083409776743798, 0}"
    }
  ],
  "resizingConstraint": 63,
  "resizingType": 0,
  "rotation": 0,
  "shouldBreakMaskChain": false,
  "style": {
    "_class": "style",
    "do_objectID": "70FC7C43-7F1F-49B2-941C-3687174A0DE7",
    "endMarkerType": 0,
    "fills": [
      {
        "_class": "fill",
        "color": {
          "_class": "color",
          "alpha": 1,
          "blue": 0.1764705882352941,
          "green": 0.1764705882352941,
          "red": 0.1764705882352941
        },
        "fillType": 0,
        "isEnabled": true,
        "noiseIndex": 0,
        "noiseIntensity": 0,
        "patternFillType": 1,
        "patternTileScale": 1
      }
    ],
    "miterLimit": 10,
    "startMarkerType": 0,
    "windingRule": 1
  }
}