{
  "_class": "shapePath",
  "booleanOperation": -1,
  "clippingMaskMode": 0,
  "do_objectID": "2B7EE7A3-3531-438E-A6B8-089006BF6370",
  "edited": true,
  "exportOptions": {
    "_class": "exportOptions",
    "do_objectID": "ADC7B920-7DD0-4699-BFFE-A8720293A003",
    "exportFormats": [
    ],
    "includedLayerIds": [
    ],
    "layerOptions": 0,
    "shouldTrim": false
  },
  "frame": {
    "_class": "rect",
    "constrainProportions": false,
    "do_objectID": "B3808F9C-B859-442E-8562-41BB96E0EC5E",
    "height": 0.1058906030855624,
    "width": 0.1059863482545467,
    "x": 32.53762990676147,
    "y": 32.47263580448964
  },
  "hasClippingMask": false,
  "isClosed": true,
  "isFixedToViewport": false,
  "isFlippedHorizontal": false,
  "isFlippedVertical": false,
  "isLocked": false,
  "isVisible": true,
  "layerListExpandedType": 0,
  "name": "Path",
  "nameIsFixed": false,
  "pointRadiusBehaviour": 0,
  "points": [
    {
      "_class": "curvePoint",
      "cornerRadius": 0,
      "curveFrom": "{-0.28908040664401824, 0.5776593489592301}",
      "curveMode": 3,
      "curveTo": "{0.36091959335601587, 0.97765934895920736}",
      "hasCurveFrom": true,
      "hasCurveTo": true,
      "point": "{0.13291959335600723, 0.83665934895924465}"
    },
    {
      "_class": "curvePoint",
      "cornerRadius": 0,
      "curveFrom": "{1.0549195933559758, 0.27765934895921873}",
      "curveMode": 3,
      "curveTo": "{0.40891959335601769, -0.11934065104077263}",
      "hasCurveFrom": true,
      "hasCurveTo": true,
      "point": "{0.63191959335597403, 0.017659348959227827}"
    }
  ],
  "resizingConstraint": 63,
  "resizingType": 0,
  "rotation": 0,
  "shouldBreakMaskChain": false,
  "style": {
    "_class": "style",
    "do_objectID": "396B8DC7-79E3-4586-B905-C8332C44DD8E",
    "endMarkerType": 0,
    "fills": [
      {
        "_class": "fill",
        "color": {
          "_class": "color",
          "alpha": 1,
          "blue": 0.1764705882352941,
          "green": 0.1764705882352941,
          "red": 0.1764705882352941
        },
        "fillType": 0,
        "isEnabled": true,
        "noiseIndex": 0,
        "noiseIntensity": 0,
        "patternFillType": 1,
        "patternTileScale": 1
      }
    ],
    "miterLimit": 10,
    "startMarkerType": 0,
    "windingRule": 1
  }
}