{
  "_class": "shapePath",
  "booleanOperation": -1,
  "clippingMaskMode": 0,
  "do_objectID": "2E556568-B33B-4A53-A88F-3199821E4BC0",
  "edited": true,
  "exportOptions": {
    "_class": "exportOptions",
    "do_objectID": "C0F49ED1-42C1-4FDC-9EBB-59BFB9E41964",
    "exportFormats": [
    ],
    "includedLayerIds": [
    ],
    "layerOptions": 0,
    "shouldTrim": false
  },
  "frame": {
    "_class": "rect",
    "constrainProportions": false,
    "do_objectID": "B8158BDA-8B86-45D4-B792-0F43EE17BD69",
    "height": 0.1058906030855589,
    "width": 0.1059863482545538,
    "x": 12.2237462945122,
    "y": 17.46809498079553
  },
  "hasClippingMask": false,
  "isClosed": true,
  "isFixedToViewport": false,
  "isFlippedHorizontal": false,
  "isFlippedVertical": false,
  "isLocked": false,
  "isVisible": true,
  "layerListExpandedType": 0,
  "name": "Path",
  "nameIsFixed": false,
  "pointRadiusBehaviour": 0,
  "points": [
    {
      "_class": "curvePoint",
      "cornerRadius": 0,
      "curveFrom": "{0.92577350534710945, 0.16742988948209359}",
      "curveMode": 3,
      "curveTo": "{0.2467735053471074, -0.078570110517915737}",
      "hasCurveFrom": true,
      "hasCurveTo": true,
      "point": "{0.48277350534712582, 0.0064298894820922214}"
    },
    {
      "_class": "curvePoint",
      "cornerRadius": 0,
      "curveFrom": "{-0.26922649465288373, 0.7044298894820713}",
      "curveMode": 3,
      "curveTo": "{0.40877350534711354, 0.94942988948207585}",
      "hasCurveFrom": true,
      "hasCurveTo": true,
      "point": "{0.1737735053470999, 0.86442988948206789}"
    }
  ],
  "resizingConstraint": 63,
  "resizingType": 0,
  "rotation": 0,
  "shouldBreakMaskChain": false,
  "style": {
    "_class": "style",
    "do_objectID": "B2DA2DAE-2F39-4E0A-B8E2-4B71E3579FB3",
    "endMarkerType": 0,
    "fills": [
      {
        "_class": "fill",
        "color": {
          "_class": "color",
          "alpha": 1,
          "blue": 0.1764705882352941,
          "green": 0.1764705882352941,
          "red": 0.1764705882352941
        },
        "fillType": 0,
        "isEnabled": true,
        "noiseIndex": 0,
        "noiseIntensity": 0,
        "patternFillType": 1,
        "patternTileScale": 1
      }
    ],
    "miterLimit": 10,
    "startMarkerType": 0,
    "windingRule": 1
  }
}