{
  "_class": "shapePath",
  "booleanOperation": -1,
  "clippingMaskMode": 0,
  "do_objectID": "3CA03C02-5EE6-440C-995D-56E060158C47",
  "edited": true,
  "exportOptions": {
    "_class": "exportOptions",
    "do_objectID": "319340C4-6AE0-4D1E-9BCF-2A3EC7D9A421",
    "exportFormats": [
    ],
    "includedLayerIds": [
    ],
    "layerOptions": 0,
    "shouldTrim": false
  },
  "frame": {
    "_class": "rect",
    "constrainProportions": false,
    "do_objectID": "628BCBBC-9A2A-45A2-A1E5-4D67189BFFE2",
    "height": 0.3718335783403681,
    "width": 0.2766313264727351,
    "x": 27.04168621667575,
    "y": 16.18199926180854
  },
  "hasClippingMask": false,
  "isClosed": true,
  "isFixedToViewport": false,
  "isFlippedHorizontal": false,
  "isFlippedVertical": false,
  "isLocked": false,
  "isVisible": true,
  "layerListExpandedType": 0,
  "name": "Path",
  "nameIsFixed": false,
  "pointRadiusBehaviour": 0,
  "points": [
    {
      "_class": "curvePoint",
      "cornerRadius": 0,
      "curveFrom": "{0.24119718309859126, 0.74176663031624968}",
      "curveMode": 4,
      "curveTo": "{0.26437793427230233, 0.73718647764449063}",
      "hasCurveFrom": false,
      "hasCurveTo": true,
      "point": "{0.24119718309859126, 0.74176663031624968}"
    },
    {
      "_class": "curvePoint",
      "cornerRadius": 0,
      "curveFrom": "{0, 0}",
      "curveMode": 1,
      "curveTo": "{0, 0}",
      "hasCurveFrom": false,
      "hasCurveTo": false,
      "point": "{0, 0}"
    },
    {
      "_class": "curvePoint",
      "cornerRadius": 0,
      "curveFrom": "{0.88204225352113119, 0.90294438386040987}",
      "curveMode": 4,
      "curveTo": "{1, 0.88615049073063934}",
      "hasCurveFrom": true,
      "hasCurveTo": false,
      "point": "{1, 0.88615049073063934}"
    },
    {
      "_class": "curvePoint",
      "cornerRadius": 0,
      "curveFrom": "{0.65757042253520404, 0.80458015267175276}",
      "curveMode": 4,
      "curveTo": "{0.78286384976525658, 0.89705561613958396}",
      "hasCurveFrom": true,
      "hasCurveTo": true,
      "point": "{0.77142018779342936, 0.78407851690294272}"
    },
    {
      "_class": "curvePoint",
      "cornerRadius": 0,
      "curveFrom": "{0.44131455399061392, 0.91908396946564697}",
      "curveMode": 4,
      "curveTo": "{0.5419600938967053, 0.82529989094874268}",
      "hasCurveFrom": true,
      "hasCurveTo": true,
      "point": "{0.42723004694835992, 0.84601962922573259}"
    },
    {
      "_class": "curvePoint",
      "cornerRadius": 0,
      "curveFrom": "{0.32541079812205853, 1}",
      "curveMode": 4,
      "curveTo": "{0.44307511737088734, 0.98691384950926886}",
      "hasCurveFrom": false,
      "hasCurveTo": true,
      "point": "{0.32541079812205853, 1}"
    },
    {
      "_class": "curvePoint",
      "cornerRadius": 0,
      "curveFrom": "{0.32071596244131828, 0.826172300981456}",
      "curveMode": 4,
      "curveTo": "{0.27758215962441962, 0.85299890948745793}",
      "hasCurveFrom": true,
      "hasCurveTo": false,
      "point": "{0.27758215962441962, 0.85299890948745793}"
    },
    {
      "_class": "curvePoint",
      "cornerRadius": 0,
      "curveFrom": "{0.28491784037558665, 0.73195201744819816}",
      "curveMode": 4,
      "curveTo": "{0.34008215962440919, 0.78844056706652188}",
      "hasCurveFrom": true,
      "hasCurveTo": true,
      "point": "{0.29724178403755053, 0.72257360959650652}"
    }
  ],
  "resizingConstraint": 63,
  "resizingType": 0,
  "rotation": 0,
  "shouldBreakMaskChain": false,
  "style": {
    "_class": "style",
    "do_objectID": "9C7B5D80-0B1B-40D4-9659-5C9CF5DE243A",
    "endMarkerType": 0,
    "fills": [
      {
        "_class": "fill",
        "color": {
          "_class": "color",
          "alpha": 1,
          "blue": 0.1764705882352941,
          "green": 0.1764705882352941,
          "red": 0.1764705882352941
        },
        "fillType": 0,
        "isEnabled": true,
        "noiseIndex": 0,
        "noiseIntensity": 0,
        "patternFillType": 1,
        "patternTileScale": 1
      }
    ],
    "miterLimit": 10,
    "startMarkerType": 0,
    "windingRule": 1
  }
}