{
  "_class": "shapePath",
  "booleanOperation": -1,
  "clippingMaskMode": 0,
  "do_objectID": "41A18ED0-34A9-4D67-838F-305B64451E7E",
  "edited": true,
  "exportOptions": {
    "_class": "exportOptions",
    "do_objectID": "D4CB6453-0A3F-4186-9A8F-F09A2713BA2B",
    "exportFormats": [
    ],
    "includedLayerIds": [
    ],
    "layerOptions": 0,
    "shouldTrim": false
  },
  "frame": {
    "_class": "rect",
    "constrainProportions": false,
    "do_objectID": "27292440-2EA6-4FCE-BA84-D2542D25FAA7",
    "height": 0.1058906030855553,
    "width": 0.1155606003725929,
    "x": 16.95048301980385,
    "y": 34.19561280338252
  },
  "hasClippingMask": false,
  "isClosed": true,
  "isFixedToViewport": false,
  "isFlippedHorizontal": false,
  "isFlippedVertical": false,
  "isLocked": false,
  "isVisible": true,
  "layerListExpandedType": 0,
  "name": "Path",
  "nameIsFixed": false,
  "pointRadiusBehaviour": 0,
  "points": [
    {
      "_class": "curvePoint",
      "cornerRadius": 0,
      "curveFrom": "{0.36388498472341779, 1.200999999999965}",
      "curveMode": 4,
      "curveTo": "{0.86540722341992338, 0.68500000000000227}",
      "hasCurveFrom": true,
      "hasCurveTo": true,
      "point": "{0.58795444430910371, 0.81700000000000728}"
    },
    {
      "_class": "curvePoint",
      "cornerRadius": 0,
      "curveFrom": "{0.13068416785051692, 0.045999999999992269}",
      "curveMode": 3,
      "curveTo": "{-0.082849110249937893, 0.54199999999997317}",
      "hasCurveFrom": true,
      "hasCurveTo": true,
      "point": "{0.013381347315078378, 0.31899999999995998}"
    },
    {
      "_class": "curvePoint",
      "cornerRadius": 0,
      "curveFrom": "{1.1210852274612826, 0.53300000000001546}",
      "curveMode": 4,
      "curveTo": "{0.7790105352411002, 0.2319999999999709}",
      "hasCurveFrom": true,
      "hasCurveTo": true,
      "point": "{0.93845808171744316, 0}"
    }
  ],
  "resizingConstraint": 63,
  "resizingType": 0,
  "rotation": 0,
  "shouldBreakMaskChain": false,
  "style": {
    "_class": "style",
    "do_objectID": "BC318950-37B5-4C43-ACC8-5F25589CF2FC",
    "endMarkerType": 0,
    "fills": [
      {
        "_class": "fill",
        "color": {
          "_class": "color",
          "alpha": 1,
          "blue": 0.1764705882352941,
          "green": 0.1764705882352941,
          "red": 0.1764705882352941
        },
        "fillType": 0,
        "isEnabled": true,
        "noiseIndex": 0,
        "noiseIntensity": 0,
        "patternFillType": 1,
        "patternTileScale": 1
      }
    ],
    "miterLimit": 10,
    "startMarkerType": 0,
    "windingRule": 1
  }
}