{
  "_class": "shapePath",
  "booleanOperation": -1,
  "clippingMaskMode": 0,
  "do_objectID": "41C58181-6326-4D8A-A242-F1A7FBC25EFE",
  "edited": true,
  "exportOptions": {
    "_class": "exportOptions",
    "do_objectID": "37F44DFC-01A8-4D3E-A625-E550039CC263",
    "exportFormats": [
    ],
    "includedLayerIds": [
    ],
    "layerOptions": 0,
    "shouldTrim": false
  },
  "frame": {
    "_class": "rect",
    "constrainProportions": false,
    "do_objectID": "B46D5CB8-8D3C-46E8-B183-DCFCF004E8A5",
    "height": 0.1823398353723675,
    "width": 0.1336094464468616,
    "x": 20.2799862821604,
    "y": 22.96177835652036
  },
  "hasClippingMask": false,
  "isClosed": true,
  "isFixedToViewport": false,
  "isFlippedHorizontal": false,
  "isFlippedVertical": false,
  "isLocked": false,
  "isVisible": true,
  "layerListExpandedType": 0,
  "name": "Path",
  "nameIsFixed": false,
  "pointRadiusBehaviour": 0,
  "points": [
    {
      "_class": "curvePoint",
      "cornerRadius": 0,
      "curveFrom": "{0.42207794519460373, 0.6729249574563001}",
      "curveMode": 4,
      "curveTo": "{0.53447018777551214, 0.54083063335548454}",
      "hasCurveFrom": true,
      "hasCurveTo": true,
      "point": "{0.44455639371078881, 0.6480182835517535}"
    },
    {
      "_class": "curvePoint",
      "cornerRadius": 0,
      "curveFrom": "{0.13836347338225222, 0.95668313515433878}",
      "curveMode": 4,
      "curveTo": "{0.49619607273443639, 1.1159079433296955}",
      "hasCurveFrom": true,
      "hasCurveTo": true,
      "point": "{0.17420748588104371, 0.97091552024260774}"
    },
    {
      "_class": "curvePoint",
      "cornerRadius": 0,
      "curveFrom": "{0.091583999443173122, 0.342022004153263}",
      "curveMode": 4,
      "curveTo": "{-0.020808243137735258, 0.47456109028807736}",
      "hasCurveFrom": true,
      "hasCurveTo": true,
      "point": "{0.0022777310140252422, 0.44965441638355613}"
    },
    {
      "_class": "curvePoint",
      "cornerRadius": 0,
      "curveFrom": "{0.68149139158404393, 0.16144861834545238}",
      "curveMode": 4,
      "curveTo": "{0.58975502061261187, 0.41629726383285309}",
      "hasCurveFrom": true,
      "hasCurveTo": true,
      "point": "{0.714905301540534, 0.32378676075890256}"
    },
    {
      "_class": "curvePoint",
      "cornerRadius": 0,
      "curveFrom": "{1.0168455424200429, 0.16278290444747442}",
      "curveMode": 4,
      "curveTo": "{0.66448067378801989, 0.0053371444081387826}",
      "hasCurveFrom": true,
      "hasCurveTo": true,
      "point": "{0.98282410682799481, 0}"
    },
    {
      "_class": "curvePoint",
      "cornerRadius": 0,
      "curveFrom": "{0.92207154327075125, 0.56484778319200801}",
      "curveMode": 4,
      "curveTo": "{1.0314261576737829, 0.31889437838478801}",
      "hasCurveFrom": true,
      "hasCurveTo": true,
      "point": "{0.714905301540534, 0.32378676075890256}"
    }
  ],
  "resizingConstraint": 63,
  "resizingType": 0,
  "rotation": 0,
  "shouldBreakMaskChain": false,
  "style": {
    "_class": "style",
    "do_objectID": "0A8663DD-2E91-4FB7-B41F-573DDE549262",
    "endMarkerType": 0,
    "fills": [
      {
        "_class": "fill",
        "color": {
          "_class": "color",
          "alpha": 1,
          "blue": 0.1764705882352941,
          "green": 0.1764705882352941,
          "red": 0.1764705882352941
        },
        "fillType": 0,
        "isEnabled": true,
        "noiseIndex": 0,
        "noiseIntensity": 0,
        "patternFillType": 1,
        "patternTileScale": 1
      }
    ],
    "miterLimit": 10,
    "startMarkerType": 0,
    "windingRule": 1
  }
}