{
  "_class": "shapePath",
  "booleanOperation": -1,
  "clippingMaskMode": 0,
  "do_objectID": "47DCE6D7-E342-43A0-9FC2-71CDB68E27D6",
  "edited": true,
  "exportOptions": {
    "_class": "exportOptions",
    "do_objectID": "775E71D5-0A01-481D-997D-8443A315A8EB",
    "exportFormats": [
    ],
    "includedLayerIds": [
    ],
    "layerOptions": 0,
    "shouldTrim": false
  },
  "frame": {
    "_class": "rect",
    "constrainProportions": false,
    "do_objectID": "3E7956AD-E9A6-43F9-B01F-A76748F50058",
    "height": 0.105890603085566,
    "width": 0.1059863482545573,
    "x": 8.810073350839842,
    "y": 16.46609515759915
  },
  "hasClippingMask": false,
  "isClosed": true,
  "isFixedToViewport": false,
  "isFlippedHorizontal": false,
  "isFlippedVertical": false,
  "isLocked": false,
  "isVisible": true,
  "layerListExpandedType": 0,
  "name": "Path",
  "nameIsFixed": false,
  "pointRadiusBehaviour": 0,
  "points": [
    {
      "_class": "curvePoint",
      "cornerRadius": 0,
      "curveFrom": "{0.92901555033006389, 0.16687452108595835}",
      "curveMode": 4,
      "curveTo": "{0.24801555033005229, -0.081125478914032101}",
      "hasCurveFrom": true,
      "hasCurveTo": true,
      "point": "{0.4840155503300565, 0.00687452108596176}"
    },
    {
      "_class": "curvePoint",
      "cornerRadius": 0,
      "curveFrom": "{-0.26998444966994839, 0.70187452108595494}",
      "curveMode": 3,
      "curveTo": "{0.41101555033006321, 0.94787452108596426}",
      "hasCurveFrom": true,
      "hasCurveTo": true,
      "point": "{0.17401555033005423, 0.86187452108597995}"
    }
  ],
  "resizingConstraint": 63,
  "resizingType": 0,
  "rotation": 0,
  "shouldBreakMaskChain": false,
  "style": {
    "_class": "style",
    "do_objectID": "E7E0BA43-1010-4071-A479-E4170D085A85",
    "endMarkerType": 0,
    "fills": [
      {
        "_class": "fill",
        "color": {
          "_class": "color",
          "alpha": 1,
          "blue": 0.1764705882352941,
          "green": 0.1764705882352941,
          "red": 0.1764705882352941
        },
        "fillType": 0,
        "isEnabled": true,
        "noiseIndex": 0,
        "noiseIntensity": 0,
        "patternFillType": 1,
        "patternTileScale": 1
      }
    ],
    "miterLimit": 10,
    "startMarkerType": 0,
    "windingRule": 1
  }
}