{
  "_class": "shapePath",
  "booleanOperation": -1,
  "clippingMaskMode": 0,
  "do_objectID": "48200665-3881-4C1F-8F31-EBC54B2FFD2D",
  "edited": true,
  "exportOptions": {
    "_class": "exportOptions",
    "do_objectID": "C862FBA6-49D2-4F53-94A1-B4C918D06CC9",
    "exportFormats": [
    ],
    "includedLayerIds": [
    ],
    "layerOptions": 0,
    "shouldTrim": false
  },
  "frame": {
    "_class": "rect",
    "constrainProportions": false,
    "do_objectID": "C947B5BB-509A-4134-918E-9CF48D415EE9",
    "height": 0.105890603085566,
    "width": 0.1059863482545502,
    "x": 28.95058847743254,
    "y": 18.47706802233898
  },
  "hasClippingMask": false,
  "isClosed": true,
  "isFixedToViewport": false,
  "isFlippedHorizontal": false,
  "isFlippedVertical": false,
  "isLocked": false,
  "isVisible": true,
  "layerListExpandedType": 0,
  "name": "Path",
  "nameIsFixed": false,
  "pointRadiusBehaviour": 0,
  "points": [
    {
      "_class": "curvePoint",
      "cornerRadius": 0,
      "curveFrom": "{0.084999999999979536, 0.031000000000005912}",
      "curveMode": 4,
      "curveTo": "{0.11299999999999955, 0.36600000000001387}",
      "hasCurveFrom": true,
      "hasCurveTo": true,
      "point": "{0, 0.039000000000015689}"
    },
    {
      "_class": "curvePoint",
      "cornerRadius": 0,
      "curveFrom": "{0.23000000000001819, 0}",
      "curveMode": 4,
      "curveTo": "{0.15100000000001046, 0.01300000000000523}",
      "hasCurveFrom": false,
      "hasCurveTo": true,
      "point": "{0.23000000000001819, 0}"
    },
    {
      "_class": "curvePoint",
      "cornerRadius": 0,
      "curveFrom": "{0.24900000000002365, 0.65200000000001523}",
      "curveMode": 4,
      "curveTo": "{0.65199999999998681, 0.50300000000001432}",
      "hasCurveFrom": true,
      "hasCurveTo": false,
      "point": "{0.65199999999998681, 0.50300000000001432}"
    }
  ],
  "resizingConstraint": 63,
  "resizingType": 0,
  "rotation": 0,
  "shouldBreakMaskChain": false,
  "style": {
    "_class": "style",
    "do_objectID": "B4FFA933-4331-4021-8BC5-C992CCA25311",
    "endMarkerType": 0,
    "fills": [
      {
        "_class": "fill",
        "color": {
          "_class": "color",
          "alpha": 1,
          "blue": 0.1764705882352941,
          "green": 0.1764705882352941,
          "red": 0.1764705882352941
        },
        "fillType": 0,
        "isEnabled": true,
        "noiseIndex": 0,
        "noiseIntensity": 0,
        "patternFillType": 1,
        "patternTileScale": 1
      }
    ],
    "miterLimit": 10,
    "startMarkerType": 0,
    "windingRule": 1
  }
}