{
  "_class": "shapePath",
  "booleanOperation": -1,
  "clippingMaskMode": 0,
  "do_objectID": "54F566ED-0338-49D2-9D7A-4034040FD1E7",
  "edited": true,
  "exportOptions": {
    "_class": "exportOptions",
    "do_objectID": "156A203F-125B-46D2-AA8A-868123A718A9",
    "exportFormats": [
    ],
    "includedLayerIds": [
    ],
    "layerOptions": 0,
    "shouldTrim": false
  },
  "frame": {
    "_class": "rect",
    "constrainProportions": false,
    "do_objectID": "08C9F006-6C20-4BBD-82E4-BCEB1D707AB6",
    "height": 0.1058906030855624,
    "width": 0.1059863482545396,
    "x": 39.21594735985028,
    "y": 11.53765374176409
  },
  "hasClippingMask": false,
  "isClosed": true,
  "isFixedToViewport": false,
  "isFlippedHorizontal": false,
  "isFlippedVertical": false,
  "isLocked": false,
  "isVisible": true,
  "layerListExpandedType": 0,
  "name": "Path",
  "nameIsFixed": false,
  "pointRadiusBehaviour": 0,
  "points": [
    {
      "_class": "curvePoint",
      "cornerRadius": 0,
      "curveFrom": "{1.0414130494617666, 0.18842719382453765}",
      "curveMode": 3,
      "curveTo": "{0.2784130494617898, -0.089572806175482356}",
      "hasCurveFrom": true,
      "hasCurveTo": true,
      "point": "{0.54341304946177615, 0.0074271938244976354}"
    },
    {
      "_class": "curvePoint",
      "cornerRadius": 0,
      "curveFrom": "{-0.30058695053821793, 0.79242719382452265}",
      "curveMode": 3,
      "curveTo": "{0.46041304946174932, 1.0684271938245331}",
      "hasCurveFrom": true,
      "hasCurveTo": true,
      "point": "{0.19241304946177706, 0.96942719382454356}"
    }
  ],
  "resizingConstraint": 63,
  "resizingType": 0,
  "rotation": 0,
  "shouldBreakMaskChain": false,
  "style": {
    "_class": "style",
    "do_objectID": "C28A8354-0392-4E1A-8310-39CC04C09D3E",
    "endMarkerType": 0,
    "fills": [
      {
        "_class": "fill",
        "color": {
          "_class": "color",
          "alpha": 1,
          "blue": 0.1764705882352941,
          "green": 0.1764705882352941,
          "red": 0.1764705882352941
        },
        "fillType": 0,
        "isEnabled": true,
        "noiseIndex": 0,
        "noiseIntensity": 0,
        "patternFillType": 1,
        "patternTileScale": 1
      }
    ],
    "miterLimit": 10,
    "startMarkerType": 0,
    "windingRule": 1
  }
}