{
  "_class": "shapePath",
  "booleanOperation": -1,
  "clippingMaskMode": 0,
  "do_objectID": "5B3B948F-8C21-4A94-A0FB-C194969CF19E",
  "edited": true,
  "exportOptions": {
    "_class": "exportOptions",
    "do_objectID": "1E8FD604-7CCD-48B0-920E-B81BAEFAB9A1",
    "exportFormats": [
    ],
    "includedLayerIds": [
    ],
    "layerOptions": 0,
    "shouldTrim": false
  },
  "frame": {
    "_class": "rect",
    "constrainProportions": false,
    "do_objectID": "B53C1AF3-1E5C-4735-983A-B4F22870076D",
    "height": 0.1058906030855553,
    "width": 0.1059863482545715,
    "x": 23.41235504611734,
    "y": 14.31934912264886
  },
  "hasClippingMask": false,
  "isClosed": true,
  "isFixedToViewport": false,
  "isFlippedHorizontal": false,
  "isFlippedVertical": false,
  "isLocked": false,
  "isVisible": true,
  "layerListExpandedType": 0,
  "name": "Path",
  "nameIsFixed": false,
  "pointRadiusBehaviour": 0,
  "points": [
    {
      "_class": "curvePoint",
      "cornerRadius": 0,
      "curveFrom": "{0.93807504578262524, 0.24693884556040757}",
      "curveMode": 3,
      "curveTo": "{0.3600750457826507, -0.10706115443957742}",
      "hasCurveFrom": true,
      "hasCurveTo": true,
      "point": "{0.56307504578262524, 0.015938845560413029}"
    },
    {
      "_class": "curvePoint",
      "cornerRadius": 0,
      "curveFrom": "{-0.25592495421739159, 0.51493884556037983}",
      "curveMode": 3,
      "curveTo": "{0.32007504578263024, 0.86793884556038847}",
      "hasCurveFrom": true,
      "hasCurveTo": true,
      "point": "{0.11807504578263206, 0.74593884556043122}"
    }
  ],
  "resizingConstraint": 63,
  "resizingType": 0,
  "rotation": 0,
  "shouldBreakMaskChain": false,
  "style": {
    "_class": "style",
    "do_objectID": "A10AC22F-E5AB-401C-BBE1-EAC1E46AEAA6",
    "endMarkerType": 0,
    "fills": [
      {
        "_class": "fill",
        "color": {
          "_class": "color",
          "alpha": 1,
          "blue": 0.1764705882352941,
          "green": 0.1764705882352941,
          "red": 0.1764705882352941
        },
        "fillType": 0,
        "isEnabled": true,
        "noiseIndex": 0,
        "noiseIntensity": 0,
        "patternFillType": 1,
        "patternTileScale": 1
      }
    ],
    "miterLimit": 10,
    "startMarkerType": 0,
    "windingRule": 1
  }
}