{
  "_class": "shapePath",
  "booleanOperation": -1,
  "clippingMaskMode": 0,
  "do_objectID": "5E7D1F7A-3911-4F08-A72A-9574C0DBCC85",
  "edited": true,
  "exportOptions": {
    "_class": "exportOptions",
    "do_objectID": "5FDE616A-BE22-4213-9044-79069367703F",
    "exportFormats": [
    ],
    "includedLayerIds": [
    ],
    "layerOptions": 0,
    "shouldTrim": false
  },
  "frame": {
    "_class": "rect",
    "constrainProportions": false,
    "do_objectID": "A8C8EF99-375E-41DD-BF58-85078C2B02D8",
    "height": 0.1058906030855535,
    "width": 0.1206234910890345,
    "x": 30.33297483035571,
    "y": 4.457117417596206
  },
  "hasClippingMask": false,
  "isClosed": true,
  "isFixedToViewport": false,
  "isFlippedHorizontal": false,
  "isFlippedVertical": false,
  "isLocked": false,
  "isVisible": true,
  "layerListExpandedType": 0,
  "name": "Path",
  "nameIsFixed": false,
  "pointRadiusBehaviour": 0,
  "points": [
    {
      "_class": "curvePoint",
      "cornerRadius": 0,
      "curveFrom": "{0.48012852457543459, 1.2509922687234643}",
      "curveMode": 4,
      "curveTo": "{0.91147664401424422, 0.64341740725399588}",
      "hasCurveFrom": true,
      "hasCurveTo": true,
      "point": "{0.65172567037403195, 0.83924009641824893}"
    },
    {
      "_class": "curvePoint",
      "cornerRadius": 0,
      "curveFrom": "{0.085791554230407074, 0.25264623735923797}",
      "curveMode": 4,
      "curveTo": "{-0.05754253226020354, 0.7693034217167406}",
      "hasCurveFrom": true,
      "hasCurveTo": true,
      "point": "{0.0050399562075332397, 0.53414135303286736}"
    },
    {
      "_class": "curvePoint",
      "cornerRadius": 0,
      "curveFrom": "{1.1463292082640864, 0.43710421688451395}",
      "curveMode": 4,
      "curveTo": "{0.76006739772138443, 0.25526886266053272}",
      "hasCurveFrom": true,
      "hasCurveTo": true,
      "point": "{0.88792409459092825, 0}"
    }
  ],
  "resizingConstraint": 63,
  "resizingType": 0,
  "rotation": 0,
  "shouldBreakMaskChain": false,
  "style": {
    "_class": "style",
    "do_objectID": "6B84E787-2E50-4A00-9360-0DBF14FE5308",
    "endMarkerType": 0,
    "fills": [
      {
        "_class": "fill",
        "color": {
          "_class": "color",
          "alpha": 1,
          "blue": 0.1764705882352941,
          "green": 0.1764705882352941,
          "red": 0.1764705882352941
        },
        "fillType": 0,
        "isEnabled": true,
        "noiseIndex": 0,
        "noiseIntensity": 0,
        "patternFillType": 1,
        "patternTileScale": 1
      }
    ],
    "miterLimit": 10,
    "startMarkerType": 0,
    "windingRule": 1
  }
}