{
  "_class": "shapePath",
  "booleanOperation": -1,
  "clippingMaskMode": 0,
  "do_objectID": "62DC5B38-0320-4760-901B-14B9CE50BE83",
  "edited": true,
  "exportOptions": {
    "_class": "exportOptions",
    "do_objectID": "4E4C0054-313E-4889-A980-21A2D2A4073C",
    "exportFormats": [
    ],
    "includedLayerIds": [
    ],
    "layerOptions": 0,
    "shouldTrim": false
  },
  "frame": {
    "_class": "rect",
    "constrainProportions": false,
    "do_objectID": "5DBC4F52-0EE9-4B1F-86C8-BD8EF972585F",
    "height": 0.1058906030855589,
    "width": 0.115398218333139,
    "x": 11.7481981026996,
    "y": 8.051941196678627
  },
  "hasClippingMask": false,
  "isClosed": true,
  "isFixedToViewport": false,
  "isFlippedHorizontal": false,
  "isFlippedVertical": false,
  "isLocked": false,
  "isVisible": true,
  "layerListExpandedType": 0,
  "name": "Path",
  "nameIsFixed": false,
  "pointRadiusBehaviour": 0,
  "points": [
    {
      "_class": "curvePoint",
      "cornerRadius": 0,
      "curveFrom": "{0.36250367656368065, 1.2019999999999982}",
      "curveMode": 4,
      "curveTo": "{0.86543503032428992, 0.68099999999998317}",
      "hasCurveFrom": true,
      "hasCurveTo": true,
      "point": "{0.58899863587964818, 0.81900000000001683}"
    },
    {
      "_class": "curvePoint",
      "cornerRadius": 0,
      "curveFrom": "{0.13038151328956563, 0.046999999999968622}",
      "curveMode": 3,
      "curveTo": "{-0.083452237120539965, 0.54500000000001592}",
      "hasCurveFrom": true,
      "hasCurveTo": true,
      "point": "{0.013617031157734679, 0.31799999999998363}"
    },
    {
      "_class": "curvePoint",
      "cornerRadius": 0,
      "curveFrom": "{1.1193626089363016, 0.52999999999997272}",
      "curveMode": 4,
      "curveTo": "{0.77680656798325654, 0.23300000000000409}",
      "hasCurveFrom": true,
      "hasCurveTo": true,
      "point": "{0.9399954827699144, 0}"
    }
  ],
  "resizingConstraint": 63,
  "resizingType": 0,
  "rotation": 0,
  "shouldBreakMaskChain": false,
  "style": {
    "_class": "style",
    "do_objectID": "CBABD401-CF66-4BDA-8967-AD562AAD125A",
    "endMarkerType": 0,
    "fills": [
      {
        "_class": "fill",
        "color": {
          "_class": "color",
          "alpha": 1,
          "blue": 0.1764705882352941,
          "green": 0.1764705882352941,
          "red": 0.1764705882352941
        },
        "fillType": 0,
        "isEnabled": true,
        "noiseIndex": 0,
        "noiseIntensity": 0,
        "patternFillType": 1,
        "patternTileScale": 1
      }
    ],
    "miterLimit": 10,
    "startMarkerType": 0,
    "windingRule": 1
  }
}