{
  "_class": "shapePath",
  "booleanOperation": -1,
  "clippingMaskMode": 0,
  "do_objectID": "631E5351-5391-4ECE-A56B-905B1567370C",
  "edited": true,
  "exportOptions": {
    "_class": "exportOptions",
    "do_objectID": "61CB7AD5-C3D9-442C-8167-5886B1171B60",
    "exportFormats": [
    ],
    "includedLayerIds": [
    ],
    "layerOptions": 0,
    "shouldTrim": false
  },
  "frame": {
    "_class": "rect",
    "constrainProportions": false,
    "do_objectID": "745EDB1A-66DA-4229-AAD6-69918C90B608",
    "height": 0.1281633475590729,
    "width": 0.2457901549805648,
    "x": 18.64996778218919,
    "y": 6.921084204059551
  },
  "hasClippingMask": false,
  "isClosed": true,
  "isFixedToViewport": false,
  "isFlippedHorizontal": false,
  "isFlippedVertical": false,
  "isLocked": false,
  "isVisible": true,
  "layerListExpandedType": 0,
  "name": "Path",
  "nameIsFixed": false,
  "pointRadiusBehaviour": 0,
  "points": [
    {
      "_class": "curvePoint",
      "cornerRadius": 0,
      "curveFrom": "{0.71993582189241023, 0.77157027047394844}",
      "curveMode": 4,
      "curveTo": "{0.96167574006912682, 0.52921961560282405}",
      "hasCurveFrom": true,
      "hasCurveTo": true,
      "point": "{0.84906192572723826, 0.65514071304240384}"
    },
    {
      "_class": "curvePoint",
      "cornerRadius": 0,
      "curveFrom": "{0.42304485680925635, 0.65514071304240384}",
      "curveMode": 4,
      "curveTo": "{0.59213070121701472, 0.88546875057004815}",
      "hasCurveFrom": true,
      "hasCurveTo": true,
      "point": "{0.46333484317204715, 1}"
    },
    {
      "_class": "curvePoint",
      "cornerRadius": 0,
      "curveFrom": "{0.12020946750864203, 0.55706146629296971}",
      "curveMode": 4,
      "curveTo": "{0.3034958808803353, 0.7203159544307306}",
      "hasCurveFrom": true,
      "hasCurveTo": true,
      "point": "{0.18097469284267931, 0.80384150650120367}"
    },
    {
      "_class": "curvePoint",
      "cornerRadius": 0,
      "curveFrom": "{0.38473634518562844, -0.27249913040691115}",
      "curveMode": 4,
      "curveTo": "{0.060434979544186189, 0.3115469647525122}",
      "hasCurveFrom": true,
      "hasCurveTo": true,
      "point": "{0, 0.064766924544314278}"
    },
    {
      "_class": "curvePoint",
      "cornerRadius": 0,
      "curveFrom": "{1.0633914433456664, 0.39570528615683753}",
      "curveMode": 4,
      "curveTo": "{0.49173598109990763, 0.85383028387668114}",
      "hasCurveFrom": true,
      "hasCurveTo": true,
      "point": "{0.95143812058349886, 0.11475570191979172}"
    }
  ],
  "resizingConstraint": 63,
  "resizingType": 0,
  "rotation": 0,
  "shouldBreakMaskChain": false,
  "style": {
    "_class": "style",
    "do_objectID": "68AC3044-C96E-40BD-986D-9DB521A86870",
    "endMarkerType": 0,
    "fills": [
      {
        "_class": "fill",
        "color": {
          "_class": "color",
          "alpha": 1,
          "blue": 0.1764705882352941,
          "green": 0.1764705882352941,
          "red": 0.1764705882352941
        },
        "fillType": 0,
        "isEnabled": true,
        "noiseIndex": 0,
        "noiseIntensity": 0,
        "patternFillType": 1,
        "patternTileScale": 1
      }
    ],
    "miterLimit": 10,
    "startMarkerType": 0,
    "windingRule": 1
  }
}