{
  "_class": "shapePath",
  "booleanOperation": -1,
  "clippingMaskMode": 0,
  "do_objectID": "6A71E927-4FD9-454E-8DD4-BB2AF067A08E",
  "edited": true,
  "exportOptions": {
    "_class": "exportOptions",
    "do_objectID": "B944B8C7-128E-4368-ADE9-5550DEAA8020",
    "exportFormats": [
    ],
    "includedLayerIds": [
    ],
    "layerOptions": 0,
    "shouldTrim": false
  },
  "frame": {
    "_class": "rect",
    "constrainProportions": false,
    "do_objectID": "186D508D-2F09-4CAB-ADF1-CDB0CB5EE63D",
    "height": 0.1271700244342249,
    "width": 0.1850163175015638,
    "x": 20.02206589425754,
    "y": 16.95014934748937
  },
  "hasClippingMask": false,
  "isClosed": true,
  "isFixedToViewport": false,
  "isFlippedHorizontal": false,
  "isFlippedVertical": false,
  "isLocked": false,
  "isVisible": true,
  "layerListExpandedType": 0,
  "name": "Path",
  "nameIsFixed": false,
  "pointRadiusBehaviour": 0,
  "points": [
    {
      "_class": "curvePoint",
      "cornerRadius": 0,
      "curveFrom": "{0.77313630863124738, 0.86416736838832875}",
      "curveMode": 4,
      "curveTo": "{1.2421326401439503, -0.39531360547579192}",
      "hasCurveFrom": true,
      "hasCurveTo": true,
      "point": "{0.9648588501383133, 0.79656990852524501}"
    },
    {
      "_class": "curvePoint",
      "cornerRadius": 0,
      "curveFrom": "{0.38179418729418241, 0.62247456378352295}",
      "curveMode": 4,
      "curveTo": "{0.58053631842164022, 0.93176482825141238}",
      "hasCurveFrom": true,
      "hasCurveTo": true,
      "point": "{0.38793632821203317, 1}"
    },
    {
      "_class": "curvePoint",
      "cornerRadius": 0,
      "curveFrom": "{-0.22013562265475251, -0.093038171748408768}",
      "curveMode": 4,
      "curveTo": "{0.20893679289193307, 0.64351905600504189}",
      "hasCurveFrom": true,
      "hasCurveTo": true,
      "point": "{0.028621084518027404, 0.6817817691350927}"
    }
  ],
  "resizingConstraint": 63,
  "resizingType": 0,
  "rotation": 0,
  "shouldBreakMaskChain": false,
  "style": {
    "_class": "style",
    "do_objectID": "D651F2F7-4ECB-45A5-B530-44799611687B",
    "endMarkerType": 0,
    "fills": [
      {
        "_class": "fill",
        "color": {
          "_class": "color",
          "alpha": 1,
          "blue": 0.1764705882352941,
          "green": 0.1764705882352941,
          "red": 0.1764705882352941
        },
        "fillType": 0,
        "isEnabled": true,
        "noiseIndex": 0,
        "noiseIntensity": 0,
        "patternFillType": 1,
        "patternTileScale": 1
      }
    ],
    "miterLimit": 10,
    "startMarkerType": 0,
    "windingRule": 1
  }
}