{
  "_class": "shapePath",
  "booleanOperation": -1,
  "clippingMaskMode": 0,
  "do_objectID": "6DFC676A-154C-4E84-8063-3310DE96DAC6",
  "edited": true,
  "exportOptions": {
    "_class": "exportOptions",
    "do_objectID": "BE2EBA38-F8F7-4055-921B-26D62581C05F",
    "exportFormats": [
    ],
    "includedLayerIds": [
    ],
    "layerOptions": 0,
    "shouldTrim": false
  },
  "frame": {
    "_class": "rect",
    "constrainProportions": false,
    "do_objectID": "45C42AE3-57D2-441A-A681-0A774AD22C91",
    "height": 3.063470757209828,
    "width": 2.972000993976675,
    "x": 23.11795332631035,
    "y": 24.55064716063035
  },
  "hasClippingMask": false,
  "isClosed": true,
  "isFixedToViewport": false,
  "isFlippedHorizontal": false,
  "isFlippedVertical": false,
  "isLocked": false,
  "isVisible": true,
  "layerListExpandedType": 0,
  "name": "Path",
  "nameIsFixed": false,
  "pointRadiusBehaviour": 0,
  "points": [
    {
      "_class": "curvePoint",
      "cornerRadius": 0,
      "curveFrom": "{0.19151144371005641, 0.46729318332230302}",
      "curveMode": 1,
      "curveTo": "{0.19151144371005641, 0.46729318332230302}",
      "hasCurveFrom": false,
      "hasCurveTo": false,
      "point": "{0.19151144371005641, 0.46729318332230302}"
    },
    {
      "_class": "curvePoint",
      "cornerRadius": 0,
      "curveFrom": "{0.14368820669689264, 0.57085373924553362}",
      "curveMode": 4,
      "curveTo": "{0.12902168569399664, 0.56405029781601512}",
      "hasCurveFrom": true,
      "hasCurveTo": false,
      "point": "{0.12902168569399664, 0.56405029781601512}"
    },
    {
      "_class": "curvePoint",
      "cornerRadius": 0,
      "curveFrom": "{0.18156989129841122, 0.59605559232296579}",
      "curveMode": 4,
      "curveTo": "{0.15477686130988083, 0.5834017207147576}",
      "hasCurveFrom": true,
      "hasCurveTo": true,
      "point": "{0.17460534221882276, 0.58205162144275413}"
    },
    {
      "_class": "curvePoint",
      "cornerRadius": 0,
      "curveFrom": "{0.14691101764352496, 0.61508934480476429}",
      "curveMode": 4,
      "curveTo": "{0.17171027475828868, 0.60007941760423467}",
      "hasCurveFrom": true,
      "hasCurveTo": true,
      "point": "{0.16100398754574713, 0.60367968232958424}"
    },
    {
      "_class": "curvePoint",
      "cornerRadius": 0,
      "curveFrom": "{0.11837002239580505, 0.646962276637989}",
      "curveMode": 4,
      "curveTo": "{0.13268148795542709, 0.62649900727994734}",
      "hasCurveFrom": true,
      "hasCurveTo": true,
      "point": "{0.13374665428524593, 0.64690933156849684}"
    },
    {
      "_class": "curvePoint",
      "cornerRadius": 0,
      "curveFrom": "{0.086660840115802801, 0.61000661813368529}",
      "curveMode": 4,
      "curveTo": "{0.11146009723056809, 0.63367306419589597}",
      "hasCurveFrom": true,
      "hasCurveTo": true,
      "point": "{0.093488829409515598, 0.63796161482461955}"
    },
    {
      "_class": "curvePoint",
      "cornerRadius": 0,
      "curveFrom": "{0.11826077456710513, 0.58075446724023827}",
      "curveMode": 4,
      "curveTo": "{0.11856120609602915, 0.60489741892786175}",
      "hasCurveFrom": false,
      "hasCurveTo": true,
      "point": "{0.11826077456710513, 0.58075446724023827}"
    },
    {
      "_class": "curvePoint",
      "cornerRadius": 0,
      "curveFrom": "{0, 0.76383851753805432}",
      "curveMode": 1,
      "curveTo": "{0, 0.76383851753805432}",
      "hasCurveFrom": false,
      "hasCurveTo": false,
      "point": "{0, 0.76383851753805432}"
    },
    {
      "_class": "curvePoint",
      "cornerRadius": 0,
      "curveFrom": "{0.33626481673676789, 0.72534745201853057}",
      "curveMode": 4,
      "curveTo": "{0.33899601245425209, 0.73270681667769721}",
      "hasCurveFrom": true,
      "hasCurveTo": false,
      "point": "{0.33899601245425209, 0.73270681667769721}"
    },
    {
      "_class": "curvePoint",
      "cornerRadius": 0,
      "curveFrom": "{0.35898836510624388, 0.71674387822634034}",
      "curveMode": 2,
      "curveTo": "{0.34628830501993724, 0.71224354731965556}",
      "hasCurveFrom": true,
      "hasCurveTo": true,
      "point": "{0.35153220079750885, 0.71407015221707493}"
    },
    {
      "_class": "curvePoint",
      "cornerRadius": 0,
      "curveFrom": "{0.35185994428360706, 0.73151555261416279}",
      "curveMode": 4,
      "curveTo": "{0.35642104113180806, 0.72563864990072846}",
      "hasCurveFrom": false,
      "hasCurveTo": true,
      "point": "{0.35185994428360706, 0.73151555261416279}"
    },
    {
      "_class": "curvePoint",
      "cornerRadius": 0,
      "curveFrom": "{0.35950729229256623, 0.73082726671078724}",
      "curveMode": 1,
      "curveTo": "{0.35950729229256623, 0.73082726671078724}",
      "hasCurveFrom": false,
      "hasCurveTo": false,
      "point": "{0.35950729229256623, 0.73082726671078724}"
    },
    {
      "_class": "curvePoint",
      "cornerRadius": 0,
      "curveFrom": "{0.41101764352433462, 0.78168100595631984}",
      "curveMode": 4,
      "curveTo": "{0.40861419129294868, 0.78798146922567935}",
      "hasCurveFrom": true,
      "hasCurveTo": false,
      "point": "{0.40861419129294868, 0.78798146922567935}"
    },
    {
      "_class": "curvePoint",
      "cornerRadius": 0,
      "curveFrom": "{0.43005407767520598, 0.78019854401058897}",
      "curveMode": 2,
      "curveTo": "{0.41699896214562687, 0.77561879549966894}",
      "hasCurveFrom": true,
      "hasCurveTo": true,
      "point": "{0.42063145244988315, 0.77688947716743872}"
    },
    {
      "_class": "curvePoint",
      "cornerRadius": 0,
      "curveFrom": "{0.41724476976020092, 0.79801455989410985}",
      "curveMode": 4,
      "curveTo": "{0.42360845578194134, 0.7933553937789547}",
      "hasCurveFrom": false,
      "hasCurveTo": true,
      "point": "{0.41724476976020092, 0.79801455989410985}"
    },
    {
      "_class": "curvePoint",
      "cornerRadius": 0,
      "curveFrom": "{0.49303545092041384, 0.87759099933818741}",
      "curveMode": 4,
      "curveTo": "{0.49183372480471932, 0.88473858371939151}",
      "hasCurveFrom": true,
      "hasCurveTo": false,
      "point": "{0.49183372480471932, 0.88473858371939151}"
    },
    {
      "_class": "curvePoint",
      "cornerRadius": 0,
      "curveFrom": "{0.51532200797509164, 0.87433487756452632}",
      "curveMode": 2,
      "curveTo": "{0.50049161522914731, 0.86917273328921363}",
      "hasCurveFrom": true,
      "hasCurveTo": true,
      "point": "{0.50477959250560001, 0.87068166776968914}"
    },
    {
      "_class": "curvePoint",
      "cornerRadius": 0,
      "curveFrom": "{0.4990167695417061, 0.89313037723362065}",
      "curveMode": 4,
      "curveTo": "{0.50589938274976887, 0.89056254136333657}",
      "hasCurveFrom": false,
      "hasCurveTo": true,
      "point": "{0.4990167695417061, 0.89313037723362065}"
    },
    {
      "_class": "curvePoint",
      "cornerRadius": 0,
      "curveFrom": "{0.53938384224613634, 0.92675049636002649}",
      "curveMode": 4,
      "curveTo": "{0.53020702463538605, 0.92939774983454737}",
      "hasCurveFrom": true,
      "hasCurveTo": false,
      "point": "{0.53020702463538605, 0.92939774983454737}"
    },
    {
      "_class": "curvePoint",
      "cornerRadius": 0,
      "curveFrom": "{0.56448353088982406, 0.93339510258107161}",
      "curveMode": 4,
      "curveTo": "{0.55088217621674851, 0.9249503639973532}",
      "hasCurveFrom": true,
      "hasCurveTo": true,
      "point": "{0.55405036324903079, 0.92013236267372611}"
    },
    {
      "_class": "curvePoint",
      "cornerRadius": 0,
      "curveFrom": "{0.54446386628065813, 0.9457048312375913}",
      "curveMode": 4,
      "curveTo": "{0.55495165783580136, 0.93972203838517565}",
      "hasCurveFrom": true,
      "hasCurveTo": true,
      "point": "{0.54451849019500809, 0.94562541363335606}"
    },
    {
      "_class": "curvePoint",
      "cornerRadius": 0,
      "curveFrom": "{0.544327306494784, 0.94583719391131715}",
      "curveMode": 4,
      "curveTo": "{0.54438193040913396, 0.94573130377233583}",
      "hasCurveFrom": false,
      "hasCurveTo": true,
      "point": "{0.544327306494784, 0.94583719391131715}"
    },
    {
      "_class": "curvePoint",
      "cornerRadius": 0,
      "curveFrom": "{0.59089419347790473, 1}",
      "curveMode": 1,
      "curveTo": "{0.59089419347790473, 1}",
      "hasCurveFrom": false,
      "hasCurveTo": false,
      "point": "{0.59089419347790473, 1}"
    },
    {
      "_class": "curvePoint",
      "cornerRadius": 0,
      "curveFrom": "{0.66086742775987373, 0.68818001323626732}",
      "curveMode": 4,
      "curveTo": "{0.66236958540449076, 0.69008603573792193}",
      "hasCurveFrom": true,
      "hasCurveTo": false,
      "point": "{0.66236958540449076, 0.69008603573792193}"
    },
    {
      "_class": "curvePoint",
      "cornerRadius": 0,
      "curveFrom": "{0.64732069700114814, 0.66972865651886149}",
      "curveMode": 4,
      "curveTo": "{0.65936527011525681, 0.68590337524818112}",
      "hasCurveFrom": true,
      "hasCurveTo": true,
      "point": "{0.65769924072759145, 0.68301786896095307}"
    },
    {
      "_class": "curvePoint",
      "cornerRadius": 0,
      "curveFrom": "{0.66764079313923663, 0.65932495036399785}",
      "curveMode": 4,
      "curveTo": "{0.65682525809799519, 0.66348113831899413}",
      "hasCurveFrom": true,
      "hasCurveTo": true,
      "point": "{0.6672038018244385, 0.65749834546657848}"
    },
    {
      "_class": "curvePoint",
      "cornerRadius": 0,
      "curveFrom": "{0.66878789534058114, 0.66215751158173375}",
      "curveMode": 4,
      "curveTo": "{0.66818703228273313, 0.66080741230972873}",
      "hasCurveFrom": false,
      "hasCurveTo": true,
      "point": "{0.66878789534058114, 0.66215751158173375}"
    },
    {
      "_class": "curvePoint",
      "cornerRadius": 0,
      "curveFrom": "{0.66974381384170012, 0.65802779616148355}",
      "curveMode": 1,
      "curveTo": "{0.66974381384170012, 0.65802779616148355}",
      "hasCurveFrom": false,
      "hasCurveTo": false,
      "point": "{0.66974381384170012, 0.65802779616148355}"
    },
    {
      "_class": "curvePoint",
      "cornerRadius": 0,
      "curveFrom": "{0.99814278691211056, 0.52735936465916622}",
      "curveMode": 4,
      "curveTo": "{1, 0.53000661813368699}",
      "hasCurveFrom": true,
      "hasCurveTo": false,
      "point": "{1, 0.53000661813368699}"
    },
    {
      "_class": "curvePoint",
      "cornerRadius": 0,
      "curveFrom": "{0.99552083902332478, 0.52256783587028366}",
      "curveMode": 4,
      "curveTo": "{0.99655869339596936, 0.5248444738583713}",
      "hasCurveFrom": false,
      "hasCurveTo": true,
      "point": "{0.99552083902332478, 0.52256783587028366}"
    },
    {
      "_class": "curvePoint",
      "cornerRadius": 0,
      "curveFrom": "{0.69413339159884302, 0.3493845135671737}",
      "curveMode": 1,
      "curveTo": "{0.69413339159884302, 0.3493845135671737}",
      "hasCurveFrom": false,
      "hasCurveTo": false,
      "point": "{0.69413339159884302, 0.3493845135671737}"
    },
    {
      "_class": "curvePoint",
      "cornerRadius": 0,
      "curveFrom": "{0.68236193805648104, 0.18835208471211004}",
      "curveMode": 4,
      "curveTo": "{0.68315398481455158, 0.18814030443415042}",
      "hasCurveFrom": true,
      "hasCurveTo": false,
      "point": "{0.68315398481455158, 0.18814030443415042}"
    },
    {
      "_class": "curvePoint",
      "cornerRadius": 0,
      "curveFrom": "{0.67266619325940991, 0.18536068828590374}",
      "curveMode": 2,
      "curveTo": "{0.6815698912984105, 0.18848444738583742}",
      "hasCurveFrom": true,
      "hasCurveTo": true,
      "point": "{0.68088709236903977, 0.18824619457313022}"
    },
    {
      "_class": "curvePoint",
      "cornerRadius": 0,
      "curveFrom": "{0.68189763478450871, 0.1693712772998007}",
      "curveMode": 4,
      "curveTo": "{0.67654449117823867, 0.17506287227001996}",
      "hasCurveFrom": false,
      "hasCurveTo": true,
      "point": "{0.68189763478450871, 0.1693712772998007}"
    },
    {
      "_class": "curvePoint",
      "cornerRadius": 0,
      "curveFrom": "{0.67042661277107229, 0}",
      "curveMode": 1,
      "curveTo": "{0.67042661277107229, 0}",
      "hasCurveFrom": false,
      "hasCurveTo": false,
      "point": "{0.67042661277107229, 0}"
    },
    {
      "_class": "curvePoint",
      "cornerRadius": 0,
      "curveFrom": "{0.39900038236740015, 0.23158173395102569}",
      "curveMode": 1,
      "curveTo": "{0.39900038236740015, 0.23158173395102569}",
      "hasCurveFrom": false,
      "hasCurveTo": false,
      "point": "{0.39900038236740015, 0.23158173395102569}"
    },
    {
      "_class": "curvePoint",
      "cornerRadius": 0,
      "curveFrom": "{0.048451412028185994, 0.14589013898080813}",
      "curveMode": 1,
      "curveTo": "{0.048451412028185994, 0.14589013898080813}",
      "hasCurveFrom": false,
      "hasCurveTo": false,
      "point": "{0.048451412028185994, 0.14589013898080813}"
    }
  ],
  "resizingConstraint": 63,
  "resizingType": 0,
  "rotation": 0,
  "shouldBreakMaskChain": false,
  "style": {
    "_class": "style",
    "do_objectID": "AC76EAD1-CBF1-48DB-AC16-A963F5D5C8D3",
    "endMarkerType": 0,
    "fills": [
      {
        "_class": "fill",
        "color": {
          "_class": "color",
          "alpha": 1,
          "blue": 0.1764705882352941,
          "green": 0.1764705882352941,
          "red": 0.1764705882352941
        },
        "fillType": 0,
        "isEnabled": true,
        "noiseIndex": 0,
        "noiseIntensity": 0,
        "patternFillType": 1,
        "patternTileScale": 1
      }
    ],
    "miterLimit": 10,
    "startMarkerType": 0,
    "windingRule": 1
  }
}