{
  "_class": "shapePath",
  "booleanOperation": -1,
  "clippingMaskMode": 0,
  "do_objectID": "741937C6-BB1E-441F-9C5B-DD93AC106194",
  "edited": true,
  "exportOptions": {
    "_class": "exportOptions",
    "do_objectID": "1CF14605-23EB-4483-8449-2CA673AEAA67",
    "exportFormats": [
    ],
    "includedLayerIds": [
    ],
    "layerOptions": 0,
    "shouldTrim": false
  },
  "frame": {
    "_class": "rect",
    "constrainProportions": false,
    "do_objectID": "8454B9A6-80EB-4720-A334-F4FE95A3C9F2",
    "height": 0.105890603085566,
    "width": 0.1059863482545556,
    "x": 10.67599523623155,
    "y": 25.19204994603799
  },
  "hasClippingMask": false,
  "isClosed": true,
  "isFixedToViewport": false,
  "isFlippedHorizontal": false,
  "isFlippedVertical": false,
  "isLocked": false,
  "isVisible": true,
  "layerListExpandedType": 0,
  "name": "Path",
  "nameIsFixed": false,
  "pointRadiusBehaviour": 0,
  "points": [
    {
      "_class": "curvePoint",
      "cornerRadius": 0,
      "curveFrom": "{0.12901110086887282, 0.04199999999997317}",
      "curveMode": 4,
      "curveTo": "{-0.084010575493364506, 0.48399999999998045}",
      "hasCurveFrom": true,
      "hasCurveTo": true,
      "point": "{0.013821601798914802, 0.28399999999999181}"
    },
    {
      "_class": "curvePoint",
      "cornerRadius": 0,
      "curveFrom": "{1.1207453497107884, 0.47200000000003683}",
      "curveMode": 4,
      "curveTo": "{0.77517685250095913, 0.20699999999999363}",
      "hasCurveFrom": true,
      "hasCurveTo": true,
      "point": "{0.93928244021704554, 0}"
    },
    {
      "_class": "curvePoint",
      "cornerRadius": 0,
      "curveFrom": "{0.36175700652389126, 1.0690000000000168}",
      "curveMode": 4,
      "curveTo": "{0.8635413997326945, 0.60499999999996135}",
      "hasCurveFrom": true,
      "hasCurveTo": true,
      "point": "{0.58819115880522865, 0.72800000000000864}"
    }
  ],
  "resizingConstraint": 63,
  "resizingType": 0,
  "rotation": 0,
  "shouldBreakMaskChain": false,
  "style": {
    "_class": "style",
    "do_objectID": "E1C909A4-387E-436F-9E97-CB506EC14F3A",
    "endMarkerType": 0,
    "fills": [
      {
        "_class": "fill",
        "color": {
          "_class": "color",
          "alpha": 1,
          "blue": 0.1764705882352941,
          "green": 0.1764705882352941,
          "red": 0.1764705882352941
        },
        "fillType": 0,
        "isEnabled": true,
        "noiseIndex": 0,
        "noiseIntensity": 0,
        "patternFillType": 1,
        "patternTileScale": 1
      }
    ],
    "miterLimit": 10,
    "startMarkerType": 0,
    "windingRule": 1
  }
}