{
  "_class": "shapePath",
  "booleanOperation": -1,
  "clippingMaskMode": 0,
  "do_objectID": "7CC8063E-5A14-405D-82B8-CF9868091948",
  "edited": true,
  "exportOptions": {
    "_class": "exportOptions",
    "do_objectID": "EF234880-D3C8-4B84-8417-3F17473B6301",
    "exportFormats": [
    ],
    "includedLayerIds": [
    ],
    "layerOptions": 0,
    "shouldTrim": false
  },
  "frame": {
    "_class": "rect",
    "constrainProportions": false,
    "do_objectID": "1252E0FA-47A4-4CD4-A2C2-3B3029377399",
    "height": 0.105890603085566,
    "width": 0.1059863482545467,
    "x": 38.26353421985122,
    "y": 26.22909688455396
  },
  "hasClippingMask": false,
  "isClosed": true,
  "isFixedToViewport": false,
  "isFlippedHorizontal": false,
  "isFlippedVertical": false,
  "isLocked": false,
  "isVisible": true,
  "layerListExpandedType": 0,
  "name": "Path",
  "nameIsFixed": false,
  "pointRadiusBehaviour": 0,
  "points": [
    {
      "_class": "curvePoint",
      "cornerRadius": 0,
      "curveFrom": "{-0.28919427045508428, 0.57939691606475208}",
      "curveMode": 3,
      "curveTo": "{0.35980572954491663, 0.97439691606473389}",
      "hasCurveFrom": true,
      "hasCurveTo": true,
      "point": "{0.13380572954491754, 0.83839691606476663}"
    },
    {
      "_class": "curvePoint",
      "cornerRadius": 0,
      "curveFrom": "{1.055805729544943, 0.27639691606475481}",
      "curveMode": 3,
      "curveTo": "{0.40580572954496574, -0.118603083935227}",
      "hasCurveFrom": true,
      "hasCurveTo": true,
      "point": "{0.63180572954496483, 0.017396916064740253}"
    }
  ],
  "resizingConstraint": 63,
  "resizingType": 0,
  "rotation": 0,
  "shouldBreakMaskChain": false,
  "style": {
    "_class": "style",
    "do_objectID": "57D11178-F236-4589-BB5C-5D29D7B79704",
    "endMarkerType": 0,
    "fills": [
      {
        "_class": "fill",
        "color": {
          "_class": "color",
          "alpha": 1,
          "blue": 0.1764705882352941,
          "green": 0.1764705882352941,
          "red": 0.1764705882352941
        },
        "fillType": 0,
        "isEnabled": true,
        "noiseIndex": 0,
        "noiseIntensity": 0,
        "patternFillType": 1,
        "patternTileScale": 1
      }
    ],
    "miterLimit": 10,
    "startMarkerType": 0,
    "windingRule": 1
  }
}