{
  "_class": "shapePath",
  "booleanOperation": -1,
  "clippingMaskMode": 0,
  "do_objectID": "8576F5BC-A886-4CE6-A422-0AA105166331",
  "edited": true,
  "exportOptions": {
    "_class": "exportOptions",
    "do_objectID": "CD7CB051-3F32-453D-A1A8-47E4A5DAE2F1",
    "exportFormats": [
    ],
    "includedLayerIds": [
    ],
    "layerOptions": 0,
    "shouldTrim": false
  },
  "frame": {
    "_class": "rect",
    "constrainProportions": false,
    "do_objectID": "D97DE1C0-8839-435A-950D-3046375533A5",
    "height": 0.1058906030855589,
    "width": 0.1559298057964007,
    "x": 29.74720227966357,
    "y": 14.74038249250061
  },
  "hasClippingMask": false,
  "isClosed": true,
  "isFixedToViewport": false,
  "isFlippedHorizontal": false,
  "isFlippedVertical": false,
  "isLocked": false,
  "isVisible": true,
  "layerListExpandedType": 0,
  "name": "Path",
  "nameIsFixed": false,
  "pointRadiusBehaviour": 0,
  "points": [
    {
      "_class": "curvePoint",
      "cornerRadius": 0,
      "curveFrom": "{0.28370640291512822, 0.6202667825191952}",
      "curveMode": 4,
      "curveTo": "{0.5731389901093199, 1.0822667825191843}",
      "hasCurveFrom": true,
      "hasCurveTo": true,
      "point": "{0.50130140551794344, 0.46826678251920839}"
    },
    {
      "_class": "curvePoint",
      "cornerRadius": 0,
      "curveFrom": "{0.21707444039561419, -0.030733217480815256}",
      "curveMode": 4,
      "curveTo": "{0.07235814679854792, 0.7312667825191852}",
      "hasCurveFrom": true,
      "hasCurveTo": true,
      "point": "{0, 0.11826678251918565}"
    },
    {
      "_class": "curvePoint",
      "cornerRadius": 0,
      "curveFrom": "{0.71733472149921473, 0.31726678251919793}",
      "curveMode": 4,
      "curveTo": "{0.42738157209785155, -0.14573321748082435}",
      "hasCurveFrom": true,
      "hasCurveTo": true,
      "point": "{0.50130140551794344, 0.46826678251920839}"
    },
    {
      "_class": "curvePoint",
      "cornerRadius": 0,
      "curveFrom": "{0.78344612181155726, 0.96526678251922249}",
      "curveMode": 4,
      "curveTo": "{0.92920353982299597, 0.20226678251918884}",
      "hasCurveFrom": true,
      "hasCurveTo": true,
      "point": "{1, 0.81826678251917428}"
    }
  ],
  "resizingConstraint": 63,
  "resizingType": 0,
  "rotation": 0,
  "shouldBreakMaskChain": false,
  "style": {
    "_class": "style",
    "do_objectID": "FA8C6017-93CE-4781-9A2D-F8A8ECA15648",
    "endMarkerType": 0,
    "fills": [
      {
        "_class": "fill",
        "color": {
          "_class": "color",
          "alpha": 1,
          "blue": 0.1764705882352941,
          "green": 0.1764705882352941,
          "red": 0.1764705882352941
        },
        "fillType": 0,
        "isEnabled": true,
        "noiseIndex": 0,
        "noiseIntensity": 0,
        "patternFillType": 1,
        "patternTileScale": 1
      }
    ],
    "miterLimit": 10,
    "startMarkerType": 0,
    "windingRule": 1
  }
}