{
  "_class": "shapePath",
  "booleanOperation": -1,
  "clippingMaskMode": 0,
  "do_objectID": "870EF2BD-5070-4B1C-9BEE-86511D1582CD",
  "edited": true,
  "exportOptions": {
    "_class": "exportOptions",
    "do_objectID": "1713A1E3-FB38-47D6-A8EB-05E98FA54655",
    "exportFormats": [
    ],
    "includedLayerIds": [
    ],
    "layerOptions": 0,
    "shouldTrim": false
  },
  "frame": {
    "_class": "rect",
    "constrainProportions": false,
    "do_objectID": "12267071-6349-4E0C-89DC-F2F47B799A8D",
    "height": 0.1058906030855837,
    "width": 0.1059863482545822,
    "x": 36.8809303481837,
    "y": 27.27405801870489
  },
  "hasClippingMask": false,
  "isClosed": true,
  "isFixedToViewport": false,
  "isFlippedHorizontal": false,
  "isFlippedVertical": false,
  "isLocked": false,
  "isVisible": true,
  "layerListExpandedType": 0,
  "name": "Path",
  "nameIsFixed": false,
  "pointRadiusBehaviour": 0,
  "points": [
    {
      "_class": "curvePoint",
      "cornerRadius": 0,
      "curveFrom": "{0.94299591347487421, 0.24420558539787862}",
      "curveMode": 4,
      "curveTo": "{0.36299591347489013, -0.10779441460209682}",
      "hasCurveFrom": true,
      "hasCurveTo": true,
      "point": "{0.56399591347491196, 0.016205585397926825}"
    },
    {
      "_class": "curvePoint",
      "cornerRadius": 0,
      "curveFrom": "{-0.25900408652512397, 0.51320558539788408}",
      "curveMode": 3,
      "curveTo": "{0.32099591347486012, 0.86520558539791637}",
      "hasCurveFrom": true,
      "hasCurveTo": true,
      "point": "{0.11999591347489513, 0.74320558539790227}"
    }
  ],
  "resizingConstraint": 63,
  "resizingType": 0,
  "rotation": 0,
  "shouldBreakMaskChain": false,
  "style": {
    "_class": "style",
    "do_objectID": "861B525C-DBB1-48A1-B8BC-52054672E84F",
    "endMarkerType": 0,
    "fills": [
      {
        "_class": "fill",
        "color": {
          "_class": "color",
          "alpha": 1,
          "blue": 0.1764705882352941,
          "green": 0.1764705882352941,
          "red": 0.1764705882352941
        },
        "fillType": 0,
        "isEnabled": true,
        "noiseIndex": 0,
        "noiseIntensity": 0,
        "patternFillType": 1,
        "patternTileScale": 1
      }
    ],
    "miterLimit": 10,
    "startMarkerType": 0,
    "windingRule": 1
  }
}