{
  "_class": "shapePath",
  "booleanOperation": -1,
  "clippingMaskMode": 0,
  "do_objectID": "8A25D390-39EB-45FF-8C31-BD1D3792611B",
  "edited": true,
  "exportOptions": {
    "_class": "exportOptions",
    "do_objectID": "E2C11989-C0F0-4779-A95D-F0D2C4E5FF18",
    "exportFormats": [
    ],
    "includedLayerIds": [
    ],
    "layerOptions": 0,
    "shouldTrim": false
  },
  "frame": {
    "_class": "rect",
    "constrainProportions": false,
    "do_objectID": "0C01CD5F-34FF-4045-96D7-CBFE4187BC58",
    "height": 0.1196622075278513,
    "width": 0.1330598188557808,
    "x": 30.10721892108003,
    "y": 3.557255828661726
  },
  "hasClippingMask": false,
  "isClosed": true,
  "isFixedToViewport": false,
  "isFlippedHorizontal": false,
  "isFlippedVertical": false,
  "isLocked": false,
  "isVisible": true,
  "layerListExpandedType": 0,
  "name": "Path",
  "nameIsFixed": false,
  "pointRadiusBehaviour": 0,
  "points": [
    {
      "_class": "curvePoint",
      "cornerRadius": 0,
      "curveFrom": "{0.39818362008410163, 0.41747739779943632}",
      "curveMode": 4,
      "curveTo": "{0.080355317441629312, 0.15248768588455339}",
      "hasCurveFrom": true,
      "hasCurveTo": true,
      "point": "{0.31216866677780536, 0}"
    },
    {
      "_class": "curvePoint",
      "cornerRadius": 0,
      "curveFrom": "{1.1320558812720765, 0.57606459111938113}",
      "curveMode": 4,
      "curveTo": "{0.64585788279591738, 0.33818380113946395}",
      "hasCurveFrom": true,
      "hasCurveTo": true,
      "point": "{0.8984124265463781, 0.23788078997987863}"
    },
    {
      "_class": "curvePoint",
      "cornerRadius": 0,
      "curveFrom": "{0.3817126715786443, 1.1467073978517306}",
      "curveMode": 4,
      "curveTo": "{0.92098372635018499, 0.736684953584405}",
      "hasCurveFrom": true,
      "hasCurveTo": true,
      "point": "{0.68490013110518155, 0.88849491642056011}"
    },
    {
      "_class": "curvePoint",
      "cornerRadius": 0,
      "curveFrom": "{-0.13254694286978427, 0.31175260225281931}",
      "curveMode": 4,
      "curveTo": "{0.23713434580846909, 0.90950433092021155}",
      "hasCurveFrom": true,
      "hasCurveTo": true,
      "point": "{0.10170654698573163, 0.65264729558583767}"
    }
  ],
  "resizingConstraint": 63,
  "resizingType": 0,
  "rotation": 0,
  "shouldBreakMaskChain": false,
  "style": {
    "_class": "style",
    "do_objectID": "C34DFEEB-2577-4227-AE57-AAFA7B30EE38",
    "endMarkerType": 0,
    "fills": [
      {
        "_class": "fill",
        "color": {
          "_class": "color",
          "alpha": 1,
          "blue": 0.1764705882352941,
          "green": 0.1764705882352941,
          "red": 0.1764705882352941
        },
        "fillType": 0,
        "isEnabled": true,
        "noiseIndex": 0,
        "noiseIntensity": 0,
        "patternFillType": 1,
        "patternTileScale": 1
      }
    ],
    "miterLimit": 10,
    "startMarkerType": 0,
    "windingRule": 1
  }
}