{
  "_class": "shapePath",
  "booleanOperation": -1,
  "clippingMaskMode": 0,
  "do_objectID": "9315E814-8887-4A45-8B04-4A548BEAD4BA",
  "edited": true,
  "exportOptions": {
    "_class": "exportOptions",
    "do_objectID": "26D958F3-DCF3-4914-83EF-46936330B92F",
    "exportFormats": [
    ],
    "includedLayerIds": [
    ],
    "layerOptions": 0,
    "shouldTrim": false
  },
  "frame": {
    "_class": "rect",
    "constrainProportions": false,
    "do_objectID": "D0F621C3-5260-460A-98E9-0F4DFB4D3090",
    "height": 0.1058906030855553,
    "width": 0.1075499238831341,
    "x": 17.60531062348376,
    "y": 16.12509557683436
  },
  "hasClippingMask": false,
  "isClosed": true,
  "isFixedToViewport": false,
  "isFlippedHorizontal": false,
  "isFlippedVertical": false,
  "isLocked": false,
  "isVisible": true,
  "layerListExpandedType": 0,
  "name": "Path",
  "nameIsFixed": false,
  "pointRadiusBehaviour": 0,
  "points": [
    {
      "_class": "curvePoint",
      "cornerRadius": 0,
      "curveFrom": "{0.76892379541607914, -0.064436127236435728}",
      "curveMode": 3,
      "curveTo": "{0.12212010717623105, 0.10584074937715715}",
      "hasCurveFrom": true,
      "hasCurveTo": true,
      "point": "{0.39155874976855953, 0.035097699189874133}"
    },
    {
      "_class": "curvePoint",
      "cornerRadius": 0,
      "curveFrom": "{1.1160996374118031, 0.78941603665181626}",
      "curveMode": 4,
      "curveTo": "{0.83609477354133654, 0.044968822471819513}",
      "hasCurveFrom": true,
      "hasCurveTo": true,
      "point": "{0.94100225623135458, 0.39868407340818784}"
    },
    {
      "_class": "curvePoint",
      "cornerRadius": 0,
      "curveFrom": "{0.59835479478340092, 0.56731576280806861}",
      "curveMode": 4,
      "curveTo": "{0.87081235774092403, 0.90046617357369019}",
      "hasCurveFrom": true,
      "hasCurveTo": true,
      "point": "{0.60590209569636588, 1}"
    },
    {
      "_class": "curvePoint",
      "cornerRadius": 0,
      "curveFrom": "{-0.11109149103393418, 0.26542390910190183}",
      "curveMode": 4,
      "curveTo": "{0.33268980264754422, 0.58952579019243401}",
      "hasCurveFrom": true,
      "hasCurveTo": true,
      "point": "{0.056458589233570874, 0.63230065774754629}"
    }
  ],
  "resizingConstraint": 63,
  "resizingType": 0,
  "rotation": 0,
  "shouldBreakMaskChain": false,
  "style": {
    "_class": "style",
    "do_objectID": "B6C8F9AC-8277-4468-B7FD-A647E0428DA9",
    "endMarkerType": 0,
    "fills": [
      {
        "_class": "fill",
        "color": {
          "_class": "color",
          "alpha": 1,
          "blue": 0.1764705882352941,
          "green": 0.1764705882352941,
          "red": 0.1764705882352941
        },
        "fillType": 0,
        "isEnabled": true,
        "noiseIndex": 0,
        "noiseIntensity": 0,
        "patternFillType": 1,
        "patternTileScale": 1
      }
    ],
    "miterLimit": 10,
    "startMarkerType": 0,
    "windingRule": 1
  }
}