{
  "_class": "shapePath",
  "booleanOperation": -1,
  "clippingMaskMode": 0,
  "do_objectID": "97FD326A-CE85-4957-A84A-72DBB5953323",
  "edited": true,
  "exportOptions": {
    "_class": "exportOptions",
    "do_objectID": "40C3E683-AF11-4F62-9F26-98105A9C1246",
    "exportFormats": [
    ],
    "includedLayerIds": [
    ],
    "layerOptions": 0,
    "shouldTrim": false
  },
  "frame": {
    "_class": "rect",
    "constrainProportions": false,
    "do_objectID": "41655157-C7CA-411C-8367-FDCFE288821E",
    "height": 0.1058906030855535,
    "width": 0.1154650087793598,
    "x": 19.58622773109277,
    "y": 15.19633616232139
  },
  "hasClippingMask": false,
  "isClosed": true,
  "isFixedToViewport": false,
  "isFlippedHorizontal": false,
  "isFlippedVertical": false,
  "isLocked": false,
  "isVisible": true,
  "layerListExpandedType": 0,
  "name": "Path",
  "nameIsFixed": false,
  "pointRadiusBehaviour": 0,
  "points": [
    {
      "_class": "curvePoint",
      "cornerRadius": 0,
      "curveFrom": "{0.13048188213090672, 0.045000000000015916}",
      "curveMode": 3,
      "curveTo": "{-0.081822189450772825, 0.54399999999998272}",
      "hasCurveFrom": true,
      "hasCurveTo": true,
      "point": "{0.013081948507920951, 0.31900000000001683}"
    },
    {
      "_class": "curvePoint",
      "cornerRadius": 0,
      "curveFrom": "{1.1202968913594349, 0.53100000000000591}",
      "curveMode": 4,
      "curveTo": "{0.77653301386458462, 0.23399999999998045}",
      "hasCurveFrom": true,
      "hasCurveTo": true,
      "point": "{0.93962753243064667, 0}"
    },
    {
      "_class": "curvePoint",
      "cornerRadius": 0,
      "curveFrom": "{0.3631727685333615, 1.1979999999999791}",
      "curveMode": 4,
      "curveTo": "{0.86370422206368358, 0.68200000000001637}",
      "hasCurveFrom": true,
      "hasCurveTo": true,
      "point": "{0.58883371879071378, 0.81599999999997408}"
    }
  ],
  "resizingConstraint": 63,
  "resizingType": 0,
  "rotation": 0,
  "shouldBreakMaskChain": false,
  "style": {
    "_class": "style",
    "do_objectID": "C4EBA788-F3CC-4C57-87C3-838B0A865192",
    "endMarkerType": 0,
    "fills": [
      {
        "_class": "fill",
        "color": {
          "_class": "color",
          "alpha": 1,
          "blue": 0.1764705882352941,
          "green": 0.1764705882352941,
          "red": 0.1764705882352941
        },
        "fillType": 0,
        "isEnabled": true,
        "noiseIndex": 0,
        "noiseIntensity": 0,
        "patternFillType": 1,
        "patternTileScale": 1
      }
    ],
    "miterLimit": 10,
    "startMarkerType": 0,
    "windingRule": 1
  }
}