{
  "_class": "shapePath",
  "booleanOperation": -1,
  "clippingMaskMode": 0,
  "do_objectID": "9D92F1AC-46C3-4551-B713-0E65E302E961",
  "edited": true,
  "exportOptions": {
    "_class": "exportOptions",
    "do_objectID": "2780B2BC-B593-4018-BAE2-386C98160B1E",
    "exportFormats": [
    ],
    "includedLayerIds": [
    ],
    "layerOptions": 0,
    "shouldTrim": false
  },
  "frame": {
    "_class": "rect",
    "constrainProportions": false,
    "do_objectID": "35B8D51F-E3E9-44C8-AA7F-6160C7F65409",
    "height": 0.1058906030855548,
    "width": 0.1059863482545502,
    "x": 25.26277088502113,
    "y": 0.9623299797608812
  },
  "hasClippingMask": false,
  "isClosed": true,
  "isFixedToViewport": false,
  "isFlippedHorizontal": false,
  "isFlippedVertical": false,
  "isLocked": false,
  "isVisible": true,
  "layerListExpandedType": 0,
  "name": "Path",
  "nameIsFixed": false,
  "pointRadiusBehaviour": 0,
  "points": [
    {
      "_class": "curvePoint",
      "cornerRadius": 0,
      "curveFrom": "{-0.30339294428006269, 0.78647335976157073}",
      "curveMode": 3,
      "curveTo": "{0.45960705571991411, 1.0654733597615671}",
      "hasCurveFrom": true,
      "hasCurveTo": true,
      "point": "{0.19660705571993731, 0.96947335976156346}"
    },
    {
      "_class": "curvePoint",
      "cornerRadius": 0,
      "curveFrom": "{1.0406070557199314, 0.18747335976158119}",
      "curveMode": 3,
      "curveTo": "{0.27660705571992139, -0.089526640238405619}",
      "hasCurveFrom": true,
      "hasCurveTo": true,
      "point": "{0.54260705571994094, 0.0074733597615743719}"
    }
  ],
  "resizingConstraint": 63,
  "resizingType": 0,
  "rotation": 0,
  "shouldBreakMaskChain": false,
  "style": {
    "_class": "style",
    "do_objectID": "04ED97B8-47D3-4834-83AB-862E3FED7CF7",
    "endMarkerType": 0,
    "fills": [
      {
        "_class": "fill",
        "color": {
          "_class": "color",
          "alpha": 1,
          "blue": 0.1764705882352941,
          "green": 0.1764705882352941,
          "red": 0.1764705882352941
        },
        "fillType": 0,
        "isEnabled": true,
        "noiseIndex": 0,
        "noiseIntensity": 0,
        "patternFillType": 1,
        "patternTileScale": 1
      }
    ],
    "miterLimit": 10,
    "startMarkerType": 0,
    "windingRule": 1
  }
}