{
  "_class": "shapePath",
  "booleanOperation": -1,
  "clippingMaskMode": 0,
  "do_objectID": "9FF52D51-DA2D-4009-8E99-655B333AFE6A",
  "edited": true,
  "exportOptions": {
    "_class": "exportOptions",
    "do_objectID": "BE465DEF-7BB4-4065-8948-75051B8F1DEC",
    "exportFormats": [
    ],
    "includedLayerIds": [
    ],
    "layerOptions": 0,
    "shouldTrim": false
  },
  "frame": {
    "_class": "rect",
    "constrainProportions": false,
    "do_objectID": "20B30B4B-7DD9-4675-A861-11E9A68FF980",
    "height": 0.1058906030855535,
    "width": 0.1436945331752639,
    "x": 24.53616135047892,
    "y": 7.48166121349666
  },
  "hasClippingMask": false,
  "isClosed": true,
  "isFixedToViewport": false,
  "isFlippedHorizontal": false,
  "isFlippedVertical": false,
  "isLocked": false,
  "isVisible": true,
  "layerListExpandedType": 0,
  "name": "Path",
  "nameIsFixed": false,
  "pointRadiusBehaviour": 0,
  "points": [
    {
      "_class": "curvePoint",
      "cornerRadius": 0,
      "curveFrom": "{0.51527814455911192, 0.18657453109572444}",
      "curveMode": 4,
      "curveTo": "{0.097261815494110004, 0.39980256663374331}",
      "hasCurveFrom": true,
      "hasCurveTo": true,
      "point": "{0.29440735447205524, 0.28035538005922833}"
    },
    {
      "_class": "curvePoint",
      "cornerRadius": 0,
      "curveFrom": "{1.0852490581085228, 0.4669299111549528}",
      "curveMode": 4,
      "curveTo": "{0.7361489346461364, 0.093780848963447794}",
      "hasCurveFrom": true,
      "hasCurveTo": true,
      "point": "{0.95701972473319308, 0}"
    },
    {
      "_class": "curvePoint",
      "cornerRadius": 0,
      "curveFrom": "{0.48703379800065971, 0.81243830207304835}",
      "curveMode": 4,
      "curveTo": "{0.90448524013447396, 0.60217176702859898}",
      "hasCurveFrom": true,
      "hasCurveTo": true,
      "point": "{0.70508015343187436, 0.71964461994077167}"
    },
    {
      "_class": "curvePoint",
      "cornerRadius": 0,
      "curveFrom": "{-0.08519666327343757, 0.53307008884499107}",
      "curveMode": 4,
      "curveTo": "{0.26333857325776111, 0.90621915103649608}",
      "hasCurveFrom": true,
      "hasCurveTo": true,
      "point": "{0.042467783170736594, 1}"
    }
  ],
  "resizingConstraint": 63,
  "resizingType": 0,
  "rotation": 0,
  "shouldBreakMaskChain": false,
  "style": {
    "_class": "style",
    "do_objectID": "6E61FC84-37E8-4242-9241-59A8C89BC7BE",
    "endMarkerType": 0,
    "fills": [
      {
        "_class": "fill",
        "color": {
          "_class": "color",
          "alpha": 1,
          "blue": 0.1764705882352941,
          "green": 0.1764705882352941,
          "red": 0.1764705882352941
        },
        "fillType": 0,
        "isEnabled": true,
        "noiseIndex": 0,
        "noiseIntensity": 0,
        "patternFillType": 1,
        "patternTileScale": 1
      }
    ],
    "miterLimit": 10,
    "startMarkerType": 0,
    "windingRule": 1
  }
}