{
  "_class": "shapePath",
  "booleanOperation": -1,
  "clippingMaskMode": 0,
  "do_objectID": "A076ABA9-8CE2-4A6E-BC85-F87CDB105411",
  "edited": true,
  "exportOptions": {
    "_class": "exportOptions",
    "do_objectID": "905E8A2F-51ED-4FAC-A05E-D303D0E71CB6",
    "exportFormats": [
    ],
    "includedLayerIds": [
    ],
    "layerOptions": 0,
    "shouldTrim": false
  },
  "frame": {
    "_class": "rect",
    "constrainProportions": false,
    "do_objectID": "25133A5E-5A3B-4D58-A893-0BC647F57E67",
    "height": 0.1726097037263674,
    "width": 0.3150334728581896,
    "x": 24.8624577914027,
    "y": 15.62372175836362
  },
  "hasClippingMask": false,
  "isClosed": true,
  "isFixedToViewport": false,
  "isFlippedHorizontal": false,
  "isFlippedVertical": false,
  "isLocked": false,
  "isVisible": true,
  "layerListExpandedType": 0,
  "name": "Path",
  "nameIsFixed": false,
  "pointRadiusBehaviour": 0,
  "points": [
    {
      "_class": "curvePoint",
      "cornerRadius": 0,
      "curveFrom": "{0.35874425631246543, 0.55534329852188313}",
      "curveMode": 4,
      "curveTo": "{0.15725503178239497, -0.25089113486520892}",
      "hasCurveFrom": true,
      "hasCurveTo": true,
      "point": "{0.29767910770168671, 0.56051146796665674}"
    },
    {
      "_class": "curvePoint",
      "cornerRadius": 0,
      "curveFrom": "{0.44840953781689469, 0.33358184598185425}",
      "curveMode": 4,
      "curveTo": "{0.42006706377813591, 0.50882977351878678}",
      "hasCurveFrom": true,
      "hasCurveTo": true,
      "point": "{0.48061689467911661, 0.4717129202334801}"
    },
    {
      "_class": "curvePoint",
      "cornerRadius": 0,
      "curveFrom": "{0.75270464545116322, 0.099134886622777307}",
      "curveMode": 4,
      "curveTo": "{0.5798155538147578, 0.11886789723014099}",
      "hasCurveFrom": true,
      "hasCurveTo": true,
      "point": "{0.63830411387654651, 0.14987691389888969}"
    },
    {
      "_class": "curvePoint",
      "cornerRadius": 0,
      "curveFrom": "{1.04411681034054, 0.24948163410754579}",
      "curveMode": 4,
      "curveTo": "{0.86452858847678971, 0.049802360104328057}",
      "hasCurveFrom": true,
      "hasCurveTo": true,
      "point": "{0.97764082577691869, 0}"
    },
    {
      "_class": "curvePoint",
      "cornerRadius": 0,
      "curveFrom": "{0.8184076534500947, 0.36553052982236056}",
      "curveMode": 4,
      "curveTo": "{0.95084430486755389, 0.31948683840514303}",
      "hasCurveFrom": true,
      "hasCurveTo": true,
      "point": "{0.84881139832803099, 0.38385403967206111}"
    },
    {
      "_class": "curvePoint",
      "cornerRadius": 0,
      "curveFrom": "{0.75966143453339974, 0.44869107452485801}",
      "curveMode": 4,
      "curveTo": "{0.77202905956849344, 0.39372054497575631}",
      "hasCurveFrom": true,
      "hasCurveTo": true,
      "point": "{0.722816218283025, 0.43177706543282057}"
    },
    {
      "_class": "curvePoint",
      "cornerRadius": 0,
      "curveFrom": "{0.68674397859732528, 0.68125869954036633}",
      "curveMode": 4,
      "curveTo": "{0.78542732002318316, 0.49802360104330728}",
      "hasCurveFrom": true,
      "hasCurveTo": true,
      "point": "{0.78748859086236056, 0.63662450888083866}"
    },
    {
      "_class": "curvePoint",
      "cornerRadius": 0,
      "curveFrom": "{0.44222572529934784, 0.78086341974904916}",
      "curveMode": 4,
      "curveTo": "{0.58625702518719636, 0.72542305661401529}",
      "hasCurveFrom": true,
      "hasCurveTo": true,
      "point": "{0.48499709521237777, 0.77005724727356961}"
    },
    {
      "_class": "curvePoint",
      "cornerRadius": 0,
      "curveFrom": "{0.34483067814797774, 0.89973131697919018}",
      "curveMode": 4,
      "curveTo": "{0.401257967370589, 0.78697125636560705}",
      "hasCurveFrom": true,
      "hasCurveTo": true,
      "point": "{0.3680199750887857, 0.77005724727356961}"
    },
    {
      "_class": "curvePoint",
      "cornerRadius": 0,
      "curveFrom": "{0.12040981553202022, 0.89080447884727931}",
      "curveMode": 4,
      "curveTo": "{0.25104285496519368, 1.0359830568872475}",
      "hasCurveFrom": true,
      "hasCurveTo": true,
      "point": "{0.21162105016582886, 0.99134886622771967}"
    },
    {
      "_class": "curvePoint",
      "cornerRadius": 0,
      "curveFrom": "{0.30205930823494781, 0.59058081746362112}",
      "curveMode": 4,
      "curveTo": "{0.23068780542826742, 0.64696084777041263}",
      "hasCurveFrom": true,
      "hasCurveTo": true,
      "point": "{0.30360526136434185, 0.60796466014153738}"
    },
    {
      "_class": "curvePoint",
      "cornerRadius": 0,
      "curveFrom": "{-0.29545157627298313, 1.1017597589118553}",
      "curveMode": 4,
      "curveTo": "{0.29793676655659301, 0.58118414574583144}",
      "hasCurveFrom": true,
      "hasCurveTo": true,
      "point": "{0.29767910770168671, 0.56051146796665674}"
    }
  ],
  "resizingConstraint": 63,
  "resizingType": 0,
  "rotation": 0,
  "shouldBreakMaskChain": false,
  "style": {
    "_class": "style",
    "do_objectID": "08E773E9-8E90-4544-91B5-31DF4CBC39B6",
    "endMarkerType": 0,
    "fills": [
      {
        "_class": "fill",
        "color": {
          "_class": "color",
          "alpha": 1,
          "blue": 0.1764705882352941,
          "green": 0.1764705882352941,
          "red": 0.1764705882352941
        },
        "fillType": 0,
        "isEnabled": true,
        "noiseIndex": 0,
        "noiseIntensity": 0,
        "patternFillType": 1,
        "patternTileScale": 1
      }
    ],
    "miterLimit": 10,
    "startMarkerType": 0,
    "windingRule": 1
  }
}