{
  "_class": "shapePath",
  "booleanOperation": -1,
  "clippingMaskMode": 0,
  "do_objectID": "A4385052-13DA-4F15-AA77-A5A65224896B",
  "edited": true,
  "exportOptions": {
    "_class": "exportOptions",
    "do_objectID": "7FCE7C77-CA0C-4AFE-BB7B-50B1939B3521",
    "exportFormats": [
    ],
    "includedLayerIds": [
    ],
    "layerOptions": 0,
    "shouldTrim": false
  },
  "frame": {
    "_class": "rect",
    "constrainProportions": false,
    "do_objectID": "ADD885CE-973A-4EFE-BF73-45B9F62E2102",
    "height": 0.1058906030855518,
    "width": 0.1059863482545662,
    "x": 12.42712566393245,
    "y": 13.9047801893114
  },
  "hasClippingMask": false,
  "isClosed": true,
  "isFixedToViewport": false,
  "isFlippedHorizontal": false,
  "isFlippedVertical": false,
  "isLocked": false,
  "isVisible": true,
  "layerListExpandedType": 0,
  "name": "Path",
  "nameIsFixed": false,
  "pointRadiusBehaviour": 0,
  "points": [
    {
      "_class": "curvePoint",
      "cornerRadius": 0,
      "curveFrom": "{0.94221168116007448, 0.24389933023815047}",
      "curveMode": 4,
      "curveTo": "{0.36221168116009039, -0.11010066976183452}",
      "hasCurveFrom": true,
      "hasCurveTo": true,
      "point": "{0.56621168116009812, 0.016899330238175025}"
    },
    {
      "_class": "curvePoint",
      "cornerRadius": 0,
      "curveFrom": "{-0.25678831883990938, 0.51289933023815593}",
      "curveMode": 4,
      "curveTo": "{0.32221168116009835, 0.86489933023813137}",
      "hasCurveFrom": true,
      "hasCurveTo": true,
      "point": "{0.11821168116009062, 0.74389933023815047}"
    }
  ],
  "resizingConstraint": 63,
  "resizingType": 0,
  "rotation": 0,
  "shouldBreakMaskChain": false,
  "style": {
    "_class": "style",
    "do_objectID": "B52DB6F1-8F8F-428F-ABF1-D440A9E06252",
    "endMarkerType": 0,
    "fills": [
      {
        "_class": "fill",
        "color": {
          "_class": "color",
          "alpha": 1,
          "blue": 0.1764705882352941,
          "green": 0.1764705882352941,
          "red": 0.1764705882352941
        },
        "fillType": 0,
        "isEnabled": true,
        "noiseIndex": 0,
        "noiseIntensity": 0,
        "patternFillType": 1,
        "patternTileScale": 1
      }
    ],
    "miterLimit": 10,
    "startMarkerType": 0,
    "windingRule": 1
  }
}