{
  "_class": "shapePath",
  "booleanOperation": -1,
  "clippingMaskMode": 0,
  "do_objectID": "A601C8A9-4B0C-4716-9083-865867CEC87E",
  "edited": true,
  "exportOptions": {
    "_class": "exportOptions",
    "do_objectID": "7D0EBBFF-DBF9-43B4-962A-73099FF68950",
    "exportFormats": [
    ],
    "includedLayerIds": [
    ],
    "layerOptions": 0,
    "shouldTrim": false
  },
  "frame": {
    "_class": "rect",
    "constrainProportions": false,
    "do_objectID": "E5686868-4C55-4664-A43E-DB85946F2EF9",
    "height": 0.1058906030855553,
    "width": 0.1059863482545893,
    "x": 24.91956648947107,
    "y": 17.21640216076848
  },
  "hasClippingMask": false,
  "isClosed": true,
  "isFixedToViewport": false,
  "isFlippedHorizontal": false,
  "isFlippedVertical": false,
  "isLocked": false,
  "isVisible": true,
  "layerListExpandedType": 0,
  "name": "Path",
  "nameIsFixed": false,
  "pointRadiusBehaviour": 0,
  "points": [
    {
      "_class": "curvePoint",
      "cornerRadius": 0,
      "curveFrom": "{1.1193229787812986, 0.47200000000000841}",
      "curveMode": 4,
      "curveTo": "{0.77746992452625496, 0.20799999999999841}",
      "hasCurveFrom": true,
      "hasCurveTo": true,
      "point": "{0.94010671246285105, 0}"
    },
    {
      "_class": "curvePoint",
      "cornerRadius": 0,
      "curveFrom": "{0.3629829649791127, 1.0689999999999884}",
      "curveMode": 4,
      "curveTo": "{0.86510431025906576, 0.60900000000000887}",
      "hasCurveFrom": true,
      "hasCurveTo": true,
      "point": "{0.58956916953156302, 0.72800000000000864}"
    },
    {
      "_class": "curvePoint",
      "cornerRadius": 0,
      "curveFrom": "{0.13087026763274176, 0.043000000000006366}",
      "curveMode": 4,
      "curveTo": "{-0.082294454420046043, 0.48599999999999}",
      "hasCurveFrom": true,
      "hasCurveTo": true,
      "point": "{0.013234921018416886, 0.28399999999999181}"
    }
  ],
  "resizingConstraint": 63,
  "resizingType": 0,
  "rotation": 0,
  "shouldBreakMaskChain": false,
  "style": {
    "_class": "style",
    "do_objectID": "7DE07D8A-B285-44D7-8070-3771F90DDCF3",
    "endMarkerType": 0,
    "fills": [
      {
        "_class": "fill",
        "color": {
          "_class": "color",
          "alpha": 1,
          "blue": 0.1764705882352941,
          "green": 0.1764705882352941,
          "red": 0.1764705882352941
        },
        "fillType": 0,
        "isEnabled": true,
        "noiseIndex": 0,
        "noiseIntensity": 0,
        "patternFillType": 1,
        "patternTileScale": 1
      }
    ],
    "miterLimit": 10,
    "startMarkerType": 0,
    "windingRule": 1
  }
}