{
  "_class": "shapePath",
  "booleanOperation": -1,
  "clippingMaskMode": 0,
  "do_objectID": "A7250533-0321-4774-9D5C-454C65874BFD",
  "edited": true,
  "exportOptions": {
    "_class": "exportOptions",
    "do_objectID": "CBA67B20-F980-4FCD-A3F6-E7A8E433DFE1",
    "exportFormats": [
    ],
    "includedLayerIds": [
    ],
    "layerOptions": 0,
    "shouldTrim": false
  },
  "frame": {
    "_class": "rect",
    "constrainProportions": false,
    "do_objectID": "7D228834-7F7F-4CAC-9321-9B09C7070476",
    "height": 0.1058906030855589,
    "width": 0.1059863482545573,
    "x": 31.52643951880492,
    "y": 18.02787831744508
  },
  "hasClippingMask": false,
  "isClosed": true,
  "isFixedToViewport": false,
  "isFlippedHorizontal": false,
  "isFlippedVertical": false,
  "isLocked": false,
  "isVisible": true,
  "layerListExpandedType": 0,
  "name": "Path",
  "nameIsFixed": false,
  "pointRadiusBehaviour": 0,
  "points": [
    {
      "_class": "curvePoint",
      "cornerRadius": 0,
      "curveFrom": "{-0.28757284198462685, 0.57486178362685791}",
      "curveMode": 4,
      "curveTo": "{0.36142715801537406, 0.9718617836268777}",
      "hasCurveFrom": true,
      "hasCurveTo": true,
      "point": "{0.13242715801533222, 0.83386178362687247}"
    },
    {
      "_class": "curvePoint",
      "cornerRadius": 0,
      "curveFrom": "{1.0544271580153577, 0.27086178362688429}",
      "curveMode": 4,
      "curveTo": "{0.40542715801535678, -0.12313821637312117}",
      "hasCurveFrom": true,
      "hasCurveTo": true,
      "point": "{0.63442715801534177, 0.01886178362687474}"
    }
  ],
  "resizingConstraint": 63,
  "resizingType": 0,
  "rotation": 0,
  "shouldBreakMaskChain": false,
  "style": {
    "_class": "style",
    "do_objectID": "108E3AE9-A30E-4032-B9CA-51D641128A02",
    "endMarkerType": 0,
    "fills": [
      {
        "_class": "fill",
        "color": {
          "_class": "color",
          "alpha": 1,
          "blue": 0.1764705882352941,
          "green": 0.1764705882352941,
          "red": 0.1764705882352941
        },
        "fillType": 0,
        "isEnabled": true,
        "noiseIndex": 0,
        "noiseIntensity": 0,
        "patternFillType": 1,
        "patternTileScale": 1
      }
    ],
    "miterLimit": 10,
    "startMarkerType": 0,
    "windingRule": 1
  }
}