{
  "_class": "shapePath",
  "booleanOperation": -1,
  "clippingMaskMode": 0,
  "do_objectID": "A97163CB-D41B-4F93-A892-BAE4BA4C7679",
  "edited": true,
  "exportOptions": {
    "_class": "exportOptions",
    "do_objectID": "AFDC2BF1-CF13-480A-8DE1-77BE63877AF3",
    "exportFormats": [
    ],
    "includedLayerIds": [
    ],
    "layerOptions": 0,
    "shouldTrim": false
  },
  "frame": {
    "_class": "rect",
    "constrainProportions": false,
    "do_objectID": "8FDE92BE-556C-4FAC-B7A1-4B5098D3762D",
    "height": 0.1058906030855766,
    "width": 0.1072918376187681,
    "x": 2.491350711045031,
    "y": 23.19817854863862
  },
  "hasClippingMask": false,
  "isClosed": true,
  "isFixedToViewport": false,
  "isFlippedHorizontal": false,
  "isFlippedVertical": false,
  "isLocked": false,
  "isVisible": true,
  "layerListExpandedType": 0,
  "name": "Path",
  "nameIsFixed": false,
  "pointRadiusBehaviour": 0,
  "points": [
    {
      "_class": "curvePoint",
      "cornerRadius": 0,
      "curveFrom": "{0.084310428838591536, 0.25493075378366764}",
      "curveMode": 3,
      "curveTo": "{-0.060946319569697552, 0.76675326714918068}",
      "hasCurveFrom": true,
      "hasCurveTo": true,
      "point": "{0.0056296901174356165, 0.53339357714730695}"
    },
    {
      "_class": "curvePoint",
      "cornerRadius": 0,
      "curveFrom": "{1.1449873104449524, 0.43632379012965206}",
      "curveMode": 4,
      "curveTo": "{0.7599056180500583, 0.25591125668281223}",
      "hasCurveFrom": true,
      "hasCurveTo": true,
      "point": "{0.89003145516581761, 0}"
    },
    {
      "_class": "curvePoint",
      "cornerRadius": 0,
      "curveFrom": "{0.48149685026750555, 1.2511216993380878}",
      "curveMode": 4,
      "curveTo": "{0.91045818541073409, 0.64320990185406457}",
      "hasCurveFrom": true,
      "hasCurveTo": true,
      "point": "{0.65474578456697463, 0.84029098458680818}"
    }
  ],
  "resizingConstraint": 63,
  "resizingType": 0,
  "rotation": 0,
  "shouldBreakMaskChain": false,
  "style": {
    "_class": "style",
    "do_objectID": "09A7F0ED-9F09-4058-BC70-45812F5DF0BC",
    "endMarkerType": 0,
    "fills": [
      {
        "_class": "fill",
        "color": {
          "_class": "color",
          "alpha": 1,
          "blue": 0.1764705882352941,
          "green": 0.1764705882352941,
          "red": 0.1764705882352941
        },
        "fillType": 0,
        "isEnabled": true,
        "noiseIndex": 0,
        "noiseIntensity": 0,
        "patternFillType": 1,
        "patternTileScale": 1
      }
    ],
    "miterLimit": 10,
    "startMarkerType": 0,
    "windingRule": 1
  }
}