{
  "_class": "shapePath",
  "booleanOperation": -1,
  "clippingMaskMode": 0,
  "do_objectID": "AA726498-2B0B-458A-B28F-ED7EB95B8642",
  "edited": true,
  "exportOptions": {
    "_class": "exportOptions",
    "do_objectID": "65ED50F3-80FA-4CC7-9A2F-1657C9CDA403",
    "exportFormats": [
    ],
    "includedLayerIds": [
    ],
    "layerOptions": 0,
    "shouldTrim": false
  },
  "frame": {
    "_class": "rect",
    "constrainProportions": false,
    "do_objectID": "E178893A-6878-48C4-89CE-6F7BFC1AF7B2",
    "height": 0.1058906030855571,
    "width": 0.1156118320127941,
    "x": 11.79227631092845,
    "y": 11.03553058536822
  },
  "hasClippingMask": false,
  "isClosed": true,
  "isFixedToViewport": false,
  "isFlippedHorizontal": false,
  "isFlippedVertical": false,
  "isLocked": false,
  "isVisible": true,
  "layerListExpandedType": 0,
  "name": "Path",
  "nameIsFixed": false,
  "pointRadiusBehaviour": 0,
  "points": [
    {
      "_class": "curvePoint",
      "cornerRadius": 0,
      "curveFrom": "{1.120083186072933, 0.53399999999999181}",
      "curveMode": 4,
      "curveTo": "{0.77605377658798036, 0.2349999999999568}",
      "hasCurveFrom": true,
      "hasCurveTo": true,
      "point": "{0.93964327130225356, 0}"
    },
    {
      "_class": "curvePoint",
      "cornerRadius": 0,
      "curveFrom": "{0.36392058604173605, 1.2029999999999745}",
      "curveMode": 4,
      "curveTo": "{0.86451848188411273, 0.68199999999995953}",
      "hasCurveFrom": true,
      "hasCurveTo": true,
      "point": "{0.58718865178909785, 0.81999999999999318}"
    },
    {
      "_class": "curvePoint",
      "cornerRadius": 0,
      "curveFrom": "{0.13082310859477739, 0.048000000000001819}",
      "curveMode": 4,
      "curveTo": "{-0.081211343781653622, 0.54699999999996862}",
      "hasCurveFrom": true,
      "hasCurveTo": true,
      "point": "{0.012870168199954147, 0.31899999999995998}"
    }
  ],
  "resizingConstraint": 63,
  "resizingType": 0,
  "rotation": 0,
  "shouldBreakMaskChain": false,
  "style": {
    "_class": "style",
    "do_objectID": "2FC468C4-E06E-44E1-88B1-2923D4BC688B",
    "endMarkerType": 0,
    "fills": [
      {
        "_class": "fill",
        "color": {
          "_class": "color",
          "alpha": 1,
          "blue": 0.1764705882352941,
          "green": 0.1764705882352941,
          "red": 0.1764705882352941
        },
        "fillType": 0,
        "isEnabled": true,
        "noiseIndex": 0,
        "noiseIntensity": 0,
        "patternFillType": 1,
        "patternTileScale": 1
      }
    ],
    "miterLimit": 10,
    "startMarkerType": 0,
    "windingRule": 1
  }
}