{
  "_class": "shapePath",
  "booleanOperation": -1,
  "clippingMaskMode": 0,
  "do_objectID": "BC3B1BBA-310C-40E5-A606-01F796DDCEE6",
  "edited": true,
  "exportOptions": {
    "_class": "exportOptions",
    "do_objectID": "B4006EBC-F9A1-46D7-88B4-F2D0298354C1",
    "exportFormats": [
    ],
    "includedLayerIds": [
    ],
    "layerOptions": 0,
    "shouldTrim": false
  },
  "frame": {
    "_class": "rect",
    "constrainProportions": false,
    "do_objectID": "6ED53083-B742-4419-9ED7-D572AA8BF5AE",
    "height": 0.1058906030855695,
    "width": 0.1059863482545467,
    "x": 30.08990447472428,
    "y": 20.45809307054991
  },
  "hasClippingMask": false,
  "isClosed": true,
  "isFixedToViewport": false,
  "isFlippedHorizontal": false,
  "isFlippedVertical": false,
  "isLocked": false,
  "isVisible": true,
  "layerListExpandedType": 0,
  "name": "Path",
  "nameIsFixed": false,
  "pointRadiusBehaviour": 0,
  "points": [
    {
      "_class": "curvePoint",
      "cornerRadius": 0,
      "curveFrom": "{-0.25896970841648681, 0.51440557297627265}",
      "curveMode": 3,
      "curveTo": "{0.32203029158353047, 0.86640557297627652}",
      "hasCurveFrom": true,
      "hasCurveTo": true,
      "point": "{0.12003029158353229, 0.74440557297629084}"
    },
    {
      "_class": "curvePoint",
      "cornerRadius": 0,
      "curveFrom": "{0.93903029158354911, 0.24440557297629084}",
      "curveMode": 4,
      "curveTo": "{0.36303029158352729, -0.1085944270237178}",
      "hasCurveFrom": true,
      "hasCurveTo": true,
      "point": "{0.56103029158350637, 0.016405572976282201}"
    }
  ],
  "resizingConstraint": 63,
  "resizingType": 0,
  "rotation": 0,
  "shouldBreakMaskChain": false,
  "style": {
    "_class": "style",
    "do_objectID": "878C0185-4404-40A6-9821-59A124C45A40",
    "endMarkerType": 0,
    "fills": [
      {
        "_class": "fill",
        "color": {
          "_class": "color",
          "alpha": 1,
          "blue": 0.1764705882352941,
          "green": 0.1764705882352941,
          "red": 0.1764705882352941
        },
        "fillType": 0,
        "isEnabled": true,
        "noiseIndex": 0,
        "noiseIntensity": 0,
        "patternFillType": 1,
        "patternTileScale": 1
      }
    ],
    "miterLimit": 10,
    "startMarkerType": 0,
    "windingRule": 1
  }
}