{
  "_class": "shapePath",
  "booleanOperation": -1,
  "clippingMaskMode": 0,
  "do_objectID": "BF6509A3-8C12-41D0-A381-B4ECCB15EDCD",
  "edited": true,
  "exportOptions": {
    "_class": "exportOptions",
    "do_objectID": "622795BC-0AEE-43C8-AEC9-3D96B48C827E",
    "exportFormats": [
    ],
    "includedLayerIds": [
    ],
    "layerOptions": 0,
    "shouldTrim": false
  },
  "frame": {
    "_class": "rect",
    "constrainProportions": false,
    "do_objectID": "0D256B88-7B70-497A-8227-5990CCBDA5CA",
    "height": 0.2322153546925385,
    "width": 0.5138518251817379,
    "x": 4.242329708559478,
    "y": 20.73126347349464
  },
  "hasClippingMask": false,
  "isClosed": true,
  "isFixedToViewport": false,
  "isFlippedHorizontal": false,
  "isFlippedVertical": false,
  "isLocked": false,
  "isVisible": true,
  "layerListExpandedType": 0,
  "name": "Path",
  "nameIsFixed": false,
  "pointRadiusBehaviour": 0,
  "points": [
    {
      "_class": "curvePoint",
      "cornerRadius": 0,
      "curveFrom": "{0.27391320076117198, 0.81406785571441631}",
      "curveMode": 4,
      "curveTo": "{0.12969016022198468, 0.62128988216043257}",
      "hasCurveFrom": true,
      "hasCurveTo": true,
      "point": "{0.15212134505940519, 0.83502198327465404}"
    },
    {
      "_class": "curvePoint",
      "cornerRadius": 0,
      "curveFrom": "{0.5768921621567471, 0.30278714324514205}",
      "curveMode": 4,
      "curveTo": "{0.45494234036457515, 0.43305196957780118}",
      "hasCurveFrom": true,
      "hasCurveTo": true,
      "point": "{0.58431656840575186, 0.36634799684447267}"
    },
    {
      "_class": "curvePoint",
      "cornerRadius": 0,
      "curveFrom": "{0.60516809233912783, 0.12467705898329087}",
      "curveMode": 3,
      "curveTo": "{0.56946775590774112, 0.22700304856902934}",
      "hasCurveFrom": true,
      "hasCurveTo": true,
      "point": "{0.5710474168117845, 0.22246298759763725}"
    },
    {
      "_class": "curvePoint",
      "cornerRadius": 0,
      "curveFrom": "{0.84827790547144832, 0.074387152838768178}",
      "curveMode": 4,
      "curveTo": "{0.736279947374753, 0.19452415085066696}",
      "hasCurveFrom": true,
      "hasCurveTo": true,
      "point": "{0.77877282569352735, 0.11140611152848297}"
    },
    {
      "_class": "curvePoint",
      "cornerRadius": 0,
      "curveFrom": "{1.0264636554475739, 0.18160243885520758}",
      "curveMode": 4,
      "curveTo": "{0.91730908697815616, 0.037018958689714783}",
      "hasCurveFrom": true,
      "hasCurveTo": true,
      "point": "{0.98665620066567317, 0}"
    },
    {
      "_class": "curvePoint",
      "cornerRadius": 0,
      "curveFrom": "{0.87371044602655157, 0.30767643967586283}",
      "curveMode": 4,
      "curveTo": "{0.97038569335402425, 0.24376635061720356}",
      "hasCurveFrom": true,
      "hasCurveTo": true,
      "point": "{0.90814705373470295, 0.28567460573761927}"
    },
    {
      "_class": "curvePoint",
      "cornerRadius": 0,
      "curveFrom": "{0.77972062223595362, 0.31989968075264497}",
      "curveMode": 4,
      "curveTo": "{0.83816807568556884, 0.31920120983396777}",
      "hasCurveFrom": true,
      "hasCurveTo": true,
      "point": "{0.80388943406782154, 0.34120304377221133}"
    },
    {
      "_class": "curvePoint",
      "cornerRadius": 0,
      "curveFrom": "{0.69742028913527854, 0.44248132697991405}",
      "curveMode": 4,
      "curveTo": "{0.73059316812019559, 0.37298347057185677}",
      "hasCurveFrom": true,
      "hasCurveTo": true,
      "point": "{0.6847830019029294, 0.41559019661096958}"
    },
    {
      "_class": "curvePoint",
      "cornerRadius": 0,
      "curveFrom": "{0.6140141934017731, 0.63700547783060091}",
      "curveMode": 4,
      "curveTo": "{0.70895181373479732, 0.47810334383227437}",
      "hasCurveFrom": true,
      "hasCurveTo": true,
      "point": "{0.7176399487070374, 0.5294409563548228}"
    },
    {
      "_class": "curvePoint",
      "cornerRadius": 0,
      "curveFrom": "{0.3720101429022829, 0.88286724120379645}",
      "curveMode": 4,
      "curveTo": "{0.51070437027731685, 0.74422076384705016}",
      "hasCurveFrom": true,
      "hasCurveTo": true,
      "point": "{0.40723658106245647, 0.8507375789448024}"
    },
    {
      "_class": "curvePoint",
      "cornerRadius": 0,
      "curveFrom": "{0.23900269478180639, 1.0148782448331783}",
      "curveMode": 3,
      "curveTo": "{0.33899523000777088, 0.92582320270225782}",
      "hasCurveFrom": true,
      "hasCurveTo": true,
      "point": "{0.30392675793800128, 0.95725439404257451}"
    },
    {
      "_class": "curvePoint",
      "cornerRadius": 0,
      "curveFrom": "{0.086407451451188069, 0.88775653763451723}",
      "curveMode": 4,
      "curveTo": "{0.17328880117359038, 1.0463094361734953}",
      "hasCurveFrom": true,
      "hasCurveTo": true,
      "point": "{0.15212134505940519, 0.83502198327465404}"
    },
    {
      "_class": "curvePoint",
      "cornerRadius": 0,
      "curveFrom": "{0.066029825789025123, 0.66249966636219093}",
      "curveMode": 4,
      "curveTo": "{0.022431184837419415, 0.92791861545826959}",
      "hasCurveFrom": true,
      "hasCurveTo": true,
      "point": "{0, 0.71383727888471948}"
    }
  ],
  "resizingConstraint": 63,
  "resizingType": 0,
  "rotation": 0,
  "shouldBreakMaskChain": false,
  "style": {
    "_class": "style",
    "do_objectID": "680BE036-AE4D-450A-8EE2-3A95DE08D857",
    "endMarkerType": 0,
    "fills": [
      {
        "_class": "fill",
        "color": {
          "_class": "color",
          "alpha": 1,
          "blue": 0.1764705882352941,
          "green": 0.1764705882352941,
          "red": 0.1764705882352941
        },
        "fillType": 0,
        "isEnabled": true,
        "noiseIndex": 0,
        "noiseIntensity": 0,
        "patternFillType": 1,
        "patternTileScale": 1
      }
    ],
    "miterLimit": 10,
    "startMarkerType": 0,
    "windingRule": 1
  }
}