{
  "_class": "shapePath",
  "booleanOperation": -1,
  "clippingMaskMode": 0,
  "do_objectID": "C115023D-DA96-49DF-8BAF-8C47B3BCFF46",
  "edited": true,
  "exportOptions": {
    "_class": "exportOptions",
    "do_objectID": "111EF099-0F7D-43A2-8529-C3A5260D0AA9",
    "exportFormats": [
    ],
    "includedLayerIds": [
    ],
    "layerOptions": 0,
    "shouldTrim": false
  },
  "frame": {
    "_class": "rect",
    "constrainProportions": false,
    "do_objectID": "E5156811-4B28-42B3-A767-F46D8A082B52",
    "height": 0.1058906030855589,
    "width": 0.1059863482545396,
    "x": 20.3881233239935,
    "y": 16.44451077011009
  },
  "hasClippingMask": false,
  "isClosed": true,
  "isFixedToViewport": false,
  "isFlippedHorizontal": false,
  "isFlippedVertical": false,
  "isLocked": false,
  "isVisible": true,
  "layerListExpandedType": 0,
  "name": "Path",
  "nameIsFixed": false,
  "pointRadiusBehaviour": 0,
  "points": [
    {
      "_class": "curvePoint",
      "cornerRadius": 0,
      "curveFrom": "{-0.30246087588875525, 0.79002696777769188}",
      "curveMode": 3,
      "curveTo": "{0.46053912411124998, 1.0660269677777023}",
      "hasCurveFrom": true,
      "hasCurveTo": true,
      "point": "{0.1955391241112352, 0.9700269677776987}"
    },
    {
      "_class": "curvePoint",
      "cornerRadius": 0,
      "curveFrom": "{1.0375391241112482, 0.18902696777769279}",
      "curveMode": 4,
      "curveTo": "{0.27653912411122406, -0.086973032222289248}",
      "hasCurveFrom": true,
      "hasCurveTo": true,
      "point": "{0.54253912411124361, 0.00702696777770484}"
    }
  ],
  "resizingConstraint": 63,
  "resizingType": 0,
  "rotation": 0,
  "shouldBreakMaskChain": false,
  "style": {
    "_class": "style",
    "do_objectID": "68F6A08D-9E46-4663-8FD1-7CC000ED5C3A",
    "endMarkerType": 0,
    "fills": [
      {
        "_class": "fill",
        "color": {
          "_class": "color",
          "alpha": 1,
          "blue": 0.1764705882352941,
          "green": 0.1764705882352941,
          "red": 0.1764705882352941
        },
        "fillType": 0,
        "isEnabled": true,
        "noiseIndex": 0,
        "noiseIntensity": 0,
        "patternFillType": 1,
        "patternTileScale": 1
      }
    ],
    "miterLimit": 10,
    "startMarkerType": 0,
    "windingRule": 1
  }
}