{
  "_class": "shapePath",
  "booleanOperation": -1,
  "clippingMaskMode": 0,
  "do_objectID": "C462ACA8-99D7-4674-BA10-2CAFCAB8A8FB",
  "edited": true,
  "exportOptions": {
    "_class": "exportOptions",
    "do_objectID": "65D19571-AFB9-4100-8F63-60D4988D8ABE",
    "exportFormats": [
    ],
    "includedLayerIds": [
    ],
    "layerOptions": 0,
    "shouldTrim": false
  },
  "frame": {
    "_class": "rect",
    "constrainProportions": false,
    "do_objectID": "5BE94405-20A5-4835-83E9-B11C5D24A1A4",
    "height": 0.119862601698375,
    "width": 0.1059863482545644,
    "x": 21.90003720304141,
    "y": 1.654619496831168
  },
  "hasClippingMask": false,
  "isClosed": true,
  "isFixedToViewport": false,
  "isFlippedHorizontal": false,
  "isFlippedVertical": false,
  "isLocked": false,
  "isVisible": true,
  "layerListExpandedType": 0,
  "name": "Path",
  "nameIsFixed": false,
  "pointRadiusBehaviour": 0,
  "points": [
    {
      "_class": "curvePoint",
      "cornerRadius": 0,
      "curveFrom": "{0.86556741258281034, 0.98646820027064841}",
      "curveMode": 4,
      "curveTo": "{1.1322513967913381, 0.7381596752368077}",
      "hasCurveFrom": true,
      "hasCurveTo": true,
      "point": "{0.9710898523775241, 0.8917456021650717}"
    },
    {
      "_class": "curvePoint",
      "cornerRadius": 0,
      "curveFrom": "{0.43868117886761615, 0.81258457374831849}",
      "curveMode": 4,
      "curveTo": "{0.45978566682661343, 0.91610284167792766}",
      "hasCurveFrom": true,
      "hasCurveTo": true,
      "point": "{0.336036623794564, 1}"
    },
    {
      "_class": "curvePoint",
      "cornerRadius": 0,
      "curveFrom": "{0.13266610346286439, 0.014884979702294474}",
      "curveMode": 4,
      "curveTo": "{-0.13497717565292039, 0.26454668470907799}",
      "hasCurveFrom": true,
      "hasCurveTo": true,
      "point": "{0.030021548389757687, 0.10825439783492834}"
    },
    {
      "_class": "curvePoint",
      "cornerRadius": 0,
      "curveFrom": "{0.56243022189966563, 0.19012178619756717}",
      "curveMode": 4,
      "curveTo": "{0.53844784921906119, 0.083220568335581682}",
      "hasCurveFrom": true,
      "hasCurveTo": true,
      "point": "{0.66411548206551541, 0}"
    }
  ],
  "resizingConstraint": 63,
  "resizingType": 0,
  "rotation": 0,
  "shouldBreakMaskChain": false,
  "style": {
    "_class": "style",
    "do_objectID": "A31D9589-A585-4328-AB47-58D28493DAD6",
    "endMarkerType": 0,
    "fills": [
      {
        "_class": "fill",
        "color": {
          "_class": "color",
          "alpha": 1,
          "blue": 0.1764705882352941,
          "green": 0.1764705882352941,
          "red": 0.1764705882352941
        },
        "fillType": 0,
        "isEnabled": true,
        "noiseIndex": 0,
        "noiseIntensity": 0,
        "patternFillType": 1,
        "patternTileScale": 1
      }
    ],
    "miterLimit": 10,
    "startMarkerType": 0,
    "windingRule": 1
  }
}