{
  "_class": "shapePath",
  "booleanOperation": -1,
  "clippingMaskMode": 0,
  "do_objectID": "CA59BE9B-3865-4FED-9D9A-821B65274185",
  "edited": true,
  "exportOptions": {
    "_class": "exportOptions",
    "do_objectID": "F8B3E82E-14A7-4B1E-BB35-2E97555A327D",
    "exportFormats": [
    ],
    "includedLayerIds": [
    ],
    "layerOptions": 0,
    "shouldTrim": false
  },
  "frame": {
    "_class": "rect",
    "constrainProportions": false,
    "do_objectID": "72E08712-1291-4A59-AAFC-CD0270DDD3A2",
    "height": 0.130973005238733,
    "width": 0.1059863482545467,
    "x": 31.01803849218086,
    "y": 19.24555111685443
  },
  "hasClippingMask": false,
  "isClosed": true,
  "isFixedToViewport": false,
  "isFlippedHorizontal": false,
  "isFlippedVertical": false,
  "isLocked": false,
  "isVisible": true,
  "layerListExpandedType": 0,
  "name": "Path",
  "nameIsFixed": false,
  "pointRadiusBehaviour": 0,
  "points": [
    {
      "_class": "curvePoint",
      "cornerRadius": 0,
      "curveFrom": "{0.074596082127309754, 0.085448916408655387}",
      "curveMode": 3,
      "curveTo": "{-0.090405713562967865, 0.35789473684209377}",
      "hasCurveFrom": true,
      "hasCurveTo": true,
      "point": "{0.01137109499365648, 0.19009287925696075}"
    },
    {
      "_class": "curvePoint",
      "cornerRadius": 0,
      "curveFrom": "{0.47707709778302959, 0.19133126934984596}",
      "curveMode": 4,
      "curveTo": "{0.43312802136083989, 0.096594427244569264}",
      "hasCurveFrom": true,
      "hasCurveTo": true,
      "point": "{0.51639995563444163, 0}"
    },
    {
      "_class": "curvePoint",
      "cornerRadius": 0,
      "curveFrom": "{0.92890444486015766, 0.91517027863776956}",
      "curveMode": 4,
      "curveTo": "{1.0915931312650684, 0.63962848297213581}",
      "hasCurveFrom": true,
      "hasCurveTo": true,
      "point": "{0.98827424985151813, 0.81052631578948187}"
    },
    {
      "_class": "curvePoint",
      "cornerRadius": 0,
      "curveFrom": "{0.52565239277595299, 0.80619195046440129}",
      "curveMode": 4,
      "curveTo": "{0.56728835991277571, 0.9040247678018557}",
      "hasCurveFrom": true,
      "hasCurveTo": true,
      "point": "{0.48324538921068916, 1}"
    }
  ],
  "resizingConstraint": 63,
  "resizingType": 0,
  "rotation": 0,
  "shouldBreakMaskChain": false,
  "style": {
    "_class": "style",
    "do_objectID": "84E70EEB-AACE-4D75-9DDC-B029FAE12DE1",
    "endMarkerType": 0,
    "fills": [
      {
        "_class": "fill",
        "color": {
          "_class": "color",
          "alpha": 1,
          "blue": 0.1764705882352941,
          "green": 0.1764705882352941,
          "red": 0.1764705882352941
        },
        "fillType": 0,
        "isEnabled": true,
        "noiseIndex": 0,
        "noiseIntensity": 0,
        "patternFillType": 1,
        "patternTileScale": 1
      }
    ],
    "miterLimit": 10,
    "startMarkerType": 0,
    "windingRule": 1
  }
}