{
  "_class": "shapePath",
  "booleanOperation": -1,
  "clippingMaskMode": 0,
  "do_objectID": "EB619BD0-8A97-4E85-9440-43F10BCBB10C",
  "edited": true,
  "exportOptions": {
    "_class": "exportOptions",
    "do_objectID": "21256300-733F-4D25-8D3F-BD86A83A1500",
    "exportFormats": [
    ],
    "includedLayerIds": [
    ],
    "layerOptions": 0,
    "shouldTrim": false
  },
  "frame": {
    "_class": "rect",
    "constrainProportions": false,
    "do_objectID": "D43B703A-2348-45C7-8E1A-40766F8409DC",
    "height": 0.105890603085566,
    "width": 0.1059863482545467,
    "x": 36.4628822967233,
    "y": 19.26332125991908
  },
  "hasClippingMask": false,
  "isClosed": true,
  "isFixedToViewport": false,
  "isFlippedHorizontal": false,
  "isFlippedVertical": false,
  "isLocked": false,
  "isVisible": true,
  "layerListExpandedType": 0,
  "name": "Path",
  "nameIsFixed": false,
  "pointRadiusBehaviour": 0,
  "points": [
    {
      "_class": "curvePoint",
      "cornerRadius": 0,
      "curveFrom": "{1.0561998963111137, 0.27688018216326782}",
      "curveMode": 3,
      "curveTo": "{0.40619989631107956, -0.12011981783672354}",
      "hasCurveFrom": true,
      "hasCurveTo": true,
      "point": "{0.63319989631111184, 0.017880182163281688}"
    },
    {
      "_class": "curvePoint",
      "cornerRadius": 0,
      "curveFrom": "{-0.28980010368888998, 0.57788018216328396}",
      "curveMode": 3,
      "curveTo": "{0.35819989631107774, 0.97288018216326577}",
      "hasCurveFrom": true,
      "hasCurveTo": true,
      "point": "{0.1341998963110882, 0.83588018216326532}"
    }
  ],
  "resizingConstraint": 63,
  "resizingType": 0,
  "rotation": 0,
  "shouldBreakMaskChain": false,
  "style": {
    "_class": "style",
    "do_objectID": "92FE5AFE-39DE-4B5B-9D4A-3B965EFE9091",
    "endMarkerType": 0,
    "fills": [
      {
        "_class": "fill",
        "color": {
          "_class": "color",
          "alpha": 1,
          "blue": 0.1764705882352941,
          "green": 0.1764705882352941,
          "red": 0.1764705882352941
        },
        "fillType": 0,
        "isEnabled": true,
        "noiseIndex": 0,
        "noiseIntensity": 0,
        "patternFillType": 1,
        "patternTileScale": 1
      }
    ],
    "miterLimit": 10,
    "startMarkerType": 0,
    "windingRule": 1
  }
}