{
  "_class": "shapePath",
  "booleanOperation": -1,
  "clippingMaskMode": 0,
  "do_objectID": "EFF1E6B8-4583-4365-B671-EFDE4F2EC75D",
  "edited": true,
  "exportOptions": {
    "_class": "exportOptions",
    "do_objectID": "226BA1AF-5E71-4219-B973-DA34966AF719",
    "exportFormats": [
    ],
    "includedLayerIds": [
    ],
    "layerOptions": 0,
    "shouldTrim": false
  },
  "frame": {
    "_class": "rect",
    "constrainProportions": false,
    "do_objectID": "8A6AECE5-1060-4715-95ED-62D49B06DFC4",
    "height": 0.1058906030855589,
    "width": 0.1076437748202679,
    "x": 32.22549725567266,
    "y": 3.879834192863716
  },
  "hasClippingMask": false,
  "isClosed": true,
  "isFixedToViewport": false,
  "isFlippedHorizontal": false,
  "isFlippedVertical": false,
  "isLocked": false,
  "isVisible": true,
  "layerListExpandedType": 0,
  "name": "Path",
  "nameIsFixed": false,
  "pointRadiusBehaviour": 0,
  "points": [
    {
      "_class": "curvePoint",
      "cornerRadius": 0,
      "curveFrom": "{0.76936717046873826, -0.063886274033532309}",
      "curveMode": 3,
      "curveTo": "{0.12161926417589701, 0.1072570708999574}",
      "hasCurveFrom": true,
      "hasCurveTo": true,
      "point": "{0.39308520860597501, 0.034850271120395064}"
    },
    {
      "_class": "curvePoint",
      "cornerRadius": 0,
      "curveFrom": "{1.1139781054813471, 0.78853923246200941}",
      "curveMode": 4,
      "curveTo": "{0.83647958450839288, 0.043901121092857896}",
      "hasCurveFrom": true,
      "hasCurveTo": true,
      "point": "{0.9428037460768508, 0.40017548818992632}"
    },
    {
      "_class": "curvePoint",
      "cornerRadius": 0,
      "curveFrom": "{0.59743873899639843, 0.56638200586569631}",
      "curveMode": 4,
      "curveTo": "{0.87116689963004967, 0.90044065030314269}",
      "hasCurveFrom": true,
      "hasCurveTo": true,
      "point": "{0.6072416758785778, 1}"
    },
    {
      "_class": "curvePoint",
      "cornerRadius": 0,
      "curveFrom": "{-0.11214307686110746, 0.2652355431462412}",
      "curveMode": 4,
      "curveTo": "{0.33200537110919676, 0.59024333761122483}",
      "hasCurveFrom": true,
      "hasCurveTo": true,
      "point": "{0.057523138407702012, 0.63385197838753882}"
    }
  ],
  "resizingConstraint": 63,
  "resizingType": 0,
  "rotation": 0,
  "shouldBreakMaskChain": false,
  "style": {
    "_class": "style",
    "do_objectID": "7088BC0E-A963-4A98-854E-FCED1E55FF92",
    "endMarkerType": 0,
    "fills": [
      {
        "_class": "fill",
        "color": {
          "_class": "color",
          "alpha": 1,
          "blue": 0.1764705882352941,
          "green": 0.1764705882352941,
          "red": 0.1764705882352941
        },
        "fillType": 0,
        "isEnabled": true,
        "noiseIndex": 0,
        "noiseIntensity": 0,
        "patternFillType": 1,
        "patternTileScale": 1
      }
    ],
    "miterLimit": 10,
    "startMarkerType": 0,
    "windingRule": 1
  }
}