{
  "_class": "shapePath",
  "booleanOperation": -1,
  "clippingMaskMode": 0,
  "do_objectID": "FBF592EA-4061-4E61-B952-0DAB6F920320",
  "edited": true,
  "exportOptions": {
    "_class": "exportOptions",
    "do_objectID": "FDCD3FE3-E7B4-4719-B775-773206608793",
    "exportFormats": [
    ],
    "includedLayerIds": [
    ],
    "layerOptions": 0,
    "shouldTrim": false
  },
  "frame": {
    "_class": "rect",
    "constrainProportions": false,
    "do_objectID": "22E6EF5B-85F9-4637-A8A9-3D9568D7D71F",
    "height": 0.105890603085566,
    "width": 0.105986348254568,
    "x": 31.26711799327845,
    "y": 27.69520085661514
  },
  "hasClippingMask": false,
  "isClosed": true,
  "isFixedToViewport": false,
  "isFlippedHorizontal": false,
  "isFlippedVertical": false,
  "isLocked": false,
  "isVisible": true,
  "layerListExpandedType": 0,
  "name": "Path",
  "nameIsFixed": false,
  "pointRadiusBehaviour": 0,
  "points": [
    {
      "_class": "curvePoint",
      "cornerRadius": 0,
      "curveFrom": "{1.0541765389443754, 0.2751836952368194}",
      "curveMode": 3,
      "curveTo": "{0.40717653894438399, -0.1178163047632097}",
      "hasCurveFrom": true,
      "hasCurveTo": true,
      "point": "{0.63017653894434034, 0.017183695236781205}"
    },
    {
      "_class": "curvePoint",
      "cornerRadius": 0,
      "curveFrom": "{-0.28882346105564238, 0.57918369523679303}",
      "curveMode": 4,
      "curveTo": "{0.35917653894438217, 0.97318369523679848}",
      "hasCurveFrom": true,
      "hasCurveTo": true,
      "point": "{0.13317653894438308, 0.83118369523680258}"
    }
  ],
  "resizingConstraint": 63,
  "resizingType": 0,
  "rotation": 0,
  "shouldBreakMaskChain": false,
  "style": {
    "_class": "style",
    "do_objectID": "CDC8221E-9B51-4742-BCBD-AC9489B57B08",
    "endMarkerType": 0,
    "fills": [
      {
        "_class": "fill",
        "color": {
          "_class": "color",
          "alpha": 1,
          "blue": 0.1764705882352941,
          "green": 0.1764705882352941,
          "red": 0.1764705882352941
        },
        "fillType": 0,
        "isEnabled": true,
        "noiseIndex": 0,
        "noiseIntensity": 0,
        "patternFillType": 1,
        "patternTileScale": 1
      }
    ],
    "miterLimit": 10,
    "startMarkerType": 0,
    "windingRule": 1
  }
}