{
  "_class": "symbolInstance",
  "booleanOperation": -1,
  "clippingMaskMode": 0,
  "do_objectID": "09A86D79-A9C8-4E11-B81F-CB44B1B8BFC4",
  "exportOptions": {
    "_class": "exportOptions",
    "do_objectID": "5B08216E-2FA1-4CEB-9B89-4A2D8CDF508C",
    "exportFormats": [
    ],
    "includedLayerIds": [
    ],
    "layerOptions": 0,
    "shouldTrim": false
  },
  "frame": {
    "_class": "rect",
    "constrainProportions": false,
    "do_objectID": "49992A6E-8C5B-4CCE-AB56-B5232C248D44",
    "height": 24,
    "width": 576,
    "x": 0,
    "y": 34
  },
  "hasClippingMask": false,
  "horizontalSpacing": 0,
  "isFixedToViewport": false,
  "isFlippedHorizontal": false,
  "isFlippedVertical": false,
  "isLocked": false,
  "isVisible": true,
  "layerListExpandedType": 0,
  "name": "Spacer",
  "nameIsFixed": true,
  "overrideValues": [
  ],
  "resizingConstraint": 34,
  "resizingType": 0,
  "rotation": 0,
  "scale": 1,
  "shouldBreakMaskChain": false,
  "style": {
    "_class": "style",
    "do_objectID": "EA3EB494-8FA8-4D53-91A1-F212B96DD327",
    "endMarkerType": 0,
    "miterLimit": 10,
    "startMarkerType": 0,
    "windingRule": 1
  },
  "symbolID": "71640CD4-3459-475A-8087-B73CEFD06E81",
  "verticalSpacing": 0
}