{
  "_class": "symbolInstance",
  "booleanOperation": -1,
  "clippingMaskMode": 0,
  "do_objectID": "515325A2-0A64-4948-A412-0AEC1F8958DB",
  "exportOptions": {
    "_class": "exportOptions",
    "do_objectID": "0D848810-B186-43CC-BF50-D1D283A88310",
    "exportFormats": [
    ],
    "includedLayerIds": [
    ],
    "layerOptions": 0,
    "shouldTrim": false
  },
  "frame": {
    "_class": "rect",
    "constrainProportions": false,
    "do_objectID": "73622383-2C38-48F5-B05D-28CE693BCD7A",
    "height": 48,
    "width": 1024,
    "x": 0,
    "y": 564
  },
  "hasClippingMask": false,
  "horizontalSpacing": 0,
  "isFixedToViewport": false,
  "isFlippedHorizontal": false,
  "isFlippedVertical": false,
  "isLocked": false,
  "isVisible": true,
  "layerListExpandedType": 0,
  "name": "row 9",
  "nameIsFixed": true,
  "overrideValues": [
  ],
  "resizingConstraint": 63,
  "resizingType": 0,
  "rotation": 0,
  "scale": 1,
  "shouldBreakMaskChain": false,
  "style": {
    "_class": "style",
    "do_objectID": "3F427A2D-B12A-47D8-A34A-6A0FC3E13CAC",
    "endMarkerType": 0,
    "miterLimit": 10,
    "startMarkerType": 0,
    "windingRule": 1
  },
  "symbolID": "5D5D2D9A-DA6C-4549-9E05-DFAFE5CB7FE7",
  "verticalSpacing": 0
}