{
  "_class": "symbolInstance",
  "booleanOperation": -1,
  "clippingMaskMode": 0,
  "do_objectID": "61D0E174-9FC4-4075-A562-8ACBFD0D9973",
  "exportOptions": {
    "_class": "exportOptions",
    "do_objectID": "25D33E91-B8AC-4150-A83D-2CFE45D4DF30",
    "exportFormats": [
    ],
    "includedLayerIds": [
    ],
    "layerOptions": 0,
    "shouldTrim": false
  },
  "frame": {
    "_class": "rect",
    "constrainProportions": false,
    "do_objectID": "089BAB55-AB85-4261-AFAF-562048A474AE",
    "height": 48,
    "width": 1024,
    "x": 0,
    "y": 276
  },
  "hasClippingMask": false,
  "horizontalSpacing": 0,
  "isFixedToViewport": false,
  "isFlippedHorizontal": false,
  "isFlippedVertical": false,
  "isLocked": false,
  "isVisible": true,
  "layerListExpandedType": 0,
  "name": "row 3",
  "nameIsFixed": true,
  "overrideValues": [
  ],
  "resizingConstraint": 63,
  "resizingType": 0,
  "rotation": 0,
  "scale": 1,
  "shouldBreakMaskChain": false,
  "style": {
    "_class": "style",
    "do_objectID": "C7931AC1-03A0-4A96-A649-1E531D3B8599",
    "endMarkerType": 0,
    "miterLimit": 10,
    "startMarkerType": 0,
    "windingRule": 1
  },
  "symbolID": "5D5D2D9A-DA6C-4549-9E05-DFAFE5CB7FE7",
  "verticalSpacing": 0
}