{
  "_class": "symbolInstance",
  "booleanOperation": -1,
  "clippingMaskMode": 0,
  "do_objectID": "CA951446-8CCB-44C5-9209-BAD876690875",
  "exportOptions": {
    "_class": "exportOptions",
    "do_objectID": "BF550E3D-06E8-4805-94B1-63E8378CD93D",
    "exportFormats": [
    ],
    "includedLayerIds": [
    ],
    "layerOptions": 0,
    "shouldTrim": false
  },
  "frame": {
    "_class": "rect",
    "constrainProportions": false,
    "do_objectID": "857090E0-99A5-4D35-88A4-E901728EF716",
    "height": 32,
    "width": 200,
    "x": 200,
    "y": 0
  },
  "hasClippingMask": false,
  "horizontalSpacing": 0,
  "isFixedToViewport": false,
  "isFlippedHorizontal": false,
  "isFlippedVertical": false,
  "isLocked": false,
  "isVisible": true,
  "layerListExpandedType": 0,
  "name": "column 2",
  "nameIsFixed": true,
  "overrideValues": [
  ],
  "resizingConstraint": 63,
  "resizingType": 0,
  "rotation": 0,
  "scale": 1,
  "shouldBreakMaskChain": false,
  "style": {
    "_class": "style",
    "do_objectID": "A4AD1ADF-6935-41DA-AEEF-F290401214F0",
    "endMarkerType": 0,
    "miterLimit": 10,
    "startMarkerType": 0,
    "windingRule": 1
  },
  "symbolID": "A074DBBB-B7BC-4637-A976-2731957B9CD8",
  "verticalSpacing": 0
}