{
  "_class": "symbolInstance",
  "booleanOperation": -1,
  "clippingMaskMode": 0,
  "do_objectID": "B93DB1B6-9D44-42D9-8179-C84DB042CA42",
  "exportOptions": {
    "_class": "exportOptions",
    "do_objectID": "3AF0A73C-4754-425E-9403-18783B0CA381",
    "exportFormats": [
    ],
    "includedLayerIds": [
    ],
    "layerOptions": 0,
    "shouldTrim": false
  },
  "frame": {
    "_class": "rect",
    "constrainProportions": false,
    "do_objectID": "F56EA1DD-AA05-4511-BC80-90794719BFCF",
    "height": 264,
    "width": 470,
    "x": 0,
    "y": 720
  },
  "hasClippingMask": false,
  "horizontalSpacing": 0,
  "isFixedToViewport": false,
  "isFlippedHorizontal": false,
  "isFlippedVertical": false,
  "isLocked": false,
  "isVisible": true,
  "layerListExpandedType": 0,
  "name": "accordion / group / open / item 1",
  "nameIsFixed": false,
  "overrideValues": [
  ],
  "resizingConstraint": 63,
  "resizingType": 0,
  "rotation": 0,
  "scale": 1,
  "shouldBreakMaskChain": false,
  "style": {
    "_class": "style",
    "do_objectID": "4AAD83EC-7B2A-43DF-B476-05A1B589B8BB",
    "endMarkerType": 0,
    "miterLimit": 10,
    "startMarkerType": 0,
    "windingRule": 1
  },
  "symbolID": "A83832D1-3B60-4C61-9F9D-F6E8D143FB14",
  "verticalSpacing": 0
}