{
  "_class": "rectangle",
  "booleanOperation": -1,
  "clippingMaskMode": 0,
  "do_objectID": "B4404A6A-CCCF-458B-81A8-C1C7032CF25C",
  "edited": true,
  "exportOptions": {
    "_class": "exportOptions",
    "do_objectID": "8B3D2E57-CCFD-4E50-BAF4-50C5635F5439",
    "exportFormats": [
    ],
    "includedLayerIds": [
    ],
    "layerOptions": 0,
    "shouldTrim": false
  },
  "fixedRadius": 0,
  "frame": {
    "_class": "rect",
    "constrainProportions": false,
    "do_objectID": "34D08C65-22B8-420B-ACF2-8124A85CBE18",
    "height": 44.04909027165616,
    "width": 55.80481872343933,
    "x": 52.67626060328381,
    "y": 42.84428023155544
  },
  "hasClippingMask": false,
  "hasConvertedToNewRoundCorners": true,
  "isClosed": true,
  "isFixedToViewport": false,
  "isFlippedHorizontal": false,
  "isFlippedVertical": false,
  "isLocked": false,
  "isVisible": true,
  "layerListExpandedType": 0,
  "name": "Rectangle 15",
  "nameIsFixed": false,
  "pointRadiusBehaviour": 0,
  "points": [
    {
      "_class": "curvePoint",
      "cornerRadius": 0,
      "curveFrom": "{0.027255909596808924, 0.060048254725891113}",
      "curveMode": 1,
      "curveTo": "{0.0083482235448674915, 0.18558843199900685}",
      "hasCurveFrom": false,
      "hasCurveTo": false,
      "point": "{0.0083482235448674915, 0.060048254725891113}"
    },
    {
      "_class": "curvePoint",
      "cornerRadius": 0,
      "curveFrom": "{0.11839940929213862, -0.0015055232447596216}",
      "curveMode": 2,
      "curveTo": "{0.011743154109244867, 0.001561908318919167}",
      "hasCurveFrom": true,
      "hasCurveTo": true,
      "point": "{0.065071281700691735, 2.8192537079744878e-05}"
    },
    {
      "_class": "curvePoint",
      "cornerRadius": 0,
      "curveFrom": "{0.12107485833563462, 0.18531929927554144}",
      "curveMode": 1,
      "curveTo": "{0.11884171350579514, 0.026206376399462765}",
      "hasCurveFrom": false,
      "hasCurveTo": false,
      "point": "{0.12107485833563462, 0.0600482547258911}"
    },
    {
      "_class": "curvePoint",
      "cornerRadius": 0,
      "curveFrom": "{0.9918657020141568, 0.87864804382208794}",
      "curveMode": 2,
      "curveTo": "{0.0071628482522620033, 0.8531262626464079}",
      "hasCurveFrom": true,
      "hasCurveTo": true,
      "point": "{0.4995142751332094, 0.86588715323424792}"
    },
    {
      "_class": "curvePoint",
      "cornerRadius": 0,
      "curveFrom": "{0.85944096716000185, 0.061461107991675534}",
      "curveMode": 1,
      "curveTo": "{0.8779541833799116, -0.083358127308324648}",
      "hasCurveFrom": false,
      "hasCurveTo": false,
      "point": "{0.8779541833799116, 0.061461107991675534}"
    },
    {
      "_class": "curvePoint",
      "cornerRadius": 0,
      "curveFrom": "{0.98014365745400034, 2.8192537079700894e-05}",
      "curveMode": 2,
      "curveTo": "{0.88958432695344813, 2.8192537079694145e-05}",
      "hasCurveFrom": true,
      "hasCurveTo": true,
      "point": "{0.93486399220372451, 2.8192537079699782e-05}"
    },
    {
      "_class": "curvePoint",
      "cornerRadius": 0,
      "curveFrom": "{0.99186570201415203, -0.083088994584859577}",
      "curveMode": 1,
      "curveTo": "{1.0109280307244985, 0.061461107991675534}",
      "hasCurveFrom": false,
      "hasCurveTo": false,
      "point": "{0.99186570201415203, 0.061461107991675534}"
    },
    {
      "_class": "curvePoint",
      "cornerRadius": 0,
      "curveFrom": "{-0.10448849585028129, 0.98366479903782233}",
      "curveMode": 2,
      "curveTo": "{1.1035170461166999, 1.0159307296368114}",
      "hasCurveFrom": true,
      "hasCurveTo": true,
      "point": "{0.4995142751332094, 0.99979776433731704}"
    }
  ],
  "resizingConstraint": 63,
  "resizingType": 0,
  "rotation": 0,
  "shouldBreakMaskChain": false,
  "style": {
    "_class": "style",
    "borders": [
      {
        "_class": "border",
        "color": {
          "_class": "color",
          "alpha": 1,
          "blue": 0.6078431372549019,
          "green": 0.6078431372549019,
          "red": 0.6078431372549019
        },
        "fillType": 0,
        "isEnabled": false,
        "position": 1,
        "thickness": 1
      }
    ],
    "do_objectID": "B891A26B-B660-4EC6-9458-C06D3BD46B0F",
    "endMarkerType": 0,
    "fills": [
      {
        "_class": "fill",
        "color": {
          "_class": "color",
          "alpha": 1,
          "blue": 0.1764705882352941,
          "green": 0.1764705882352941,
          "red": 0.1764705882352941
        },
        "fillType": 0,
        "isEnabled": true,
        "noiseIndex": 0,
        "noiseIntensity": 0,
        "patternFillType": 1,
        "patternTileScale": 1
      }
    ],
    "miterLimit": 10,
    "shadows": [
      {
        "_class": "shadow",
        "blurRadius": 4,
        "color": {
          "_class": "color",
          "alpha": 0.2,
          "blue": 0,
          "green": 0,
          "red": 0
        },
        "contextSettings": {
          "_class": "graphicsContextSettings",
          "blendMode": 0,
          "opacity": 1
        },
        "isEnabled": false,
        "offsetX": 0,
        "offsetY": 2,
        "spread": 0
      }
    ],
    "startMarkerType": 0,
    "windingRule": 1
  }
}