{
  "_class": "rectangle",
  "booleanOperation": -1,
  "clippingMaskMode": 0,
  "do_objectID": "F1AA9684-24AE-44D7-BEDA-69B346D1C655",
  "edited": true,
  "exportOptions": {
    "_class": "exportOptions",
    "do_objectID": "C060EF0E-B8FD-49E0-B7A3-17C6A07A6A5B",
    "exportFormats": [
    ],
    "includedLayerIds": [
    ],
    "layerOptions": 0,
    "shouldTrim": false
  },
  "fixedRadius": 0,
  "frame": {
    "_class": "rect",
    "constrainProportions": false,
    "do_objectID": "C24149E3-4123-4C69-9F97-471B0EBF09CB",
    "height": 93.91382535893382,
    "width": 150.0778761581365,
    "x": 5.063291139240507,
    "y": 18.49123793220542
  },
  "hasClippingMask": false,
  "hasConvertedToNewRoundCorners": true,
  "isClosed": true,
  "isFixedToViewport": false,
  "isFlippedHorizontal": false,
  "isFlippedVertical": false,
  "isLocked": false,
  "isVisible": true,
  "layerListExpandedType": 0,
  "name": "Rectangle 3",
  "nameIsFixed": false,
  "pointRadiusBehaviour": 0,
  "points": [
    {
      "_class": "curvePoint",
      "cornerRadius": 0,
      "curveFrom": "{0, 0}",
      "curveMode": 1,
      "curveTo": "{0, 0}",
      "hasCurveFrom": false,
      "hasCurveTo": false,
      "point": "{0, 0}"
    },
    {
      "_class": "curvePoint",
      "cornerRadius": 0,
      "curveFrom": "{0.99999999999999989, 0}",
      "curveMode": 1,
      "curveTo": "{0.99999999999999989, 0}",
      "hasCurveFrom": false,
      "hasCurveTo": false,
      "point": "{0.99999999999999989, 0}"
    },
    {
      "_class": "curvePoint",
      "cornerRadius": 0,
      "curveFrom": "{0.84330667559131989, 0.56210611469911709}",
      "curveMode": 1,
      "curveTo": "{0.99999999999999989, 0.56210611469911698}",
      "hasCurveFrom": false,
      "hasCurveTo": false,
      "point": "{0.99999999999999989, 0.56210611469911698}"
    },
    {
      "_class": "curvePoint",
      "cornerRadius": 0,
      "curveFrom": "{0.089080520999362131, 1.0000000000000002}",
      "curveMode": 2,
      "curveTo": "{0.91091947900064907, 1.0000000000000002}",
      "hasCurveFrom": true,
      "hasCurveTo": true,
      "point": "{0.50000000000000555, 1.0000000000000002}"
    },
    {
      "_class": "curvePoint",
      "cornerRadius": 0,
      "curveFrom": "{0, 0.56210611469911698}",
      "curveMode": 1,
      "curveTo": "{0.17664000892465326, 0.56210611469911709}",
      "hasCurveFrom": false,
      "hasCurveTo": false,
      "point": "{0, 0.56210611469911698}"
    }
  ],
  "resizingConstraint": 63,
  "resizingType": 0,
  "rotation": 0,
  "shouldBreakMaskChain": false,
  "style": {
    "_class": "style",
    "borders": [
      {
        "_class": "border",
        "color": {
          "_class": "color",
          "alpha": 1,
          "blue": 0.6078431372549019,
          "green": 0.6078431372549019,
          "red": 0.6078431372549019
        },
        "fillType": 0,
        "isEnabled": false,
        "position": 1,
        "thickness": 1
      }
    ],
    "contextSettings": {
      "_class": "graphicsContextSettings",
      "blendMode": 0,
      "do_objectID": "6E9E38D8-B862-4956-8F21-623525D6C8FD",
      "opacity": 0.2958559782608696
    },
    "do_objectID": "3BA1DA83-2171-4E68-9DF7-D1771AAB5295",
    "endMarkerType": 0,
    "fills": [
      {
        "_class": "fill",
        "color": {
          "_class": "color",
          "alpha": 1,
          "blue": 0.6079225540161133,
          "green": 0.6078033447265625,
          "red": 0.6078922152519226
        },
        "fillType": 0,
        "isEnabled": true,
        "noiseIndex": 0,
        "noiseIntensity": 0,
        "patternFillType": 1,
        "patternTileScale": 1
      }
    ],
    "miterLimit": 10,
    "startMarkerType": 0,
    "windingRule": 1
  }
}