{
  "_class": "shapePath",
  "booleanOperation": -1,
  "clippingMaskMode": 0,
  "do_objectID": "981CB9AA-2244-435B-AB20-23654E5028FF",
  "edited": true,
  "exportOptions": {
    "_class": "exportOptions",
    "do_objectID": "05A85640-3349-4ACE-8F89-457E28227B16",
    "exportFormats": [
    ],
    "includedLayerIds": [
    ],
    "layerOptions": 0,
    "shouldTrim": false
  },
  "frame": {
    "_class": "rect",
    "constrainProportions": false,
    "do_objectID": "C5FF2FA0-E9CD-410C-89B0-AD98559D304E",
    "height": 54.25112843660244,
    "width": 54.5391875256461,
    "x": 128.8637669265489,
    "y": 121.2195322117356
  },
  "hasClippingMask": false,
  "isClosed": true,
  "isFixedToViewport": false,
  "isFlippedHorizontal": false,
  "isFlippedVertical": false,
  "isLocked": false,
  "isVisible": true,
  "layerListExpandedType": 0,
  "name": "Path",
  "nameIsFixed": false,
  "pointRadiusBehaviour": 0,
  "points": [
    {
      "_class": "curvePoint",
      "cornerRadius": 0,
      "curveFrom": "{0.32922535211267495, 1}",
      "curveMode": 3,
      "curveTo": "{0.59330985915492762, 1}",
      "hasCurveFrom": true,
      "hasCurveTo": true,
      "point": "{0.50352112676056349, 1}"
    },
    {
      "_class": "curvePoint",
      "cornerRadius": 0,
      "curveFrom": "{0.022887323943660082, 0.6725663716814162}",
      "curveMode": 4,
      "curveTo": "{0.15845070422535271, 0.90442477876106253}",
      "hasCurveFrom": true,
      "hasCurveTo": true,
      "point": "{0.06866197183098581, 0.74867256637168167}"
    },
    {
      "_class": "curvePoint",
      "cornerRadius": 0,
      "curveFrom": "{0, 0.3221238938053107}",
      "curveMode": 3,
      "curveTo": "{0, 0.58938053097345122}",
      "hasCurveFrom": true,
      "hasCurveTo": true,
      "point": "{0, 0.4991150442477883}"
    },
    {
      "_class": "curvePoint",
      "cornerRadius": 0,
      "curveFrom": "{0.32394366197182967, 0.021238938053098146}",
      "curveMode": 4,
      "curveTo": "{0.095070422535209406, 0.15221238938053114}",
      "hasCurveFrom": true,
      "hasCurveTo": true,
      "point": "{0.24823943661971684, 0.065486725663716494}"
    },
    {
      "_class": "curvePoint",
      "cornerRadius": 0,
      "curveFrom": "{0.69542253521126685, 0}",
      "curveMode": 3,
      "curveTo": "{0.41021126760563309, 0}",
      "hasCurveFrom": true,
      "hasCurveTo": true,
      "point": "{0.50352112676056349, 0}"
    },
    {
      "_class": "curvePoint",
      "cornerRadius": 0,
      "curveFrom": "{0.97887323943661886, 0.31681415929203616}",
      "curveMode": 4,
      "curveTo": "{0.85387323943661964, 0.088495575221239478}",
      "hasCurveFrom": true,
      "hasCurveTo": true,
      "point": "{0.9383802816901412, 0.2407079646017706}"
    },
    {
      "_class": "curvePoint",
      "cornerRadius": 0,
      "curveFrom": "{1, 0.67787610619469074}",
      "curveMode": 3,
      "curveTo": "{1, 0.40353982300885083}",
      "hasCurveFrom": true,
      "hasCurveTo": true,
      "point": "{1, 0.4991150442477883}"
    },
    {
      "_class": "curvePoint",
      "cornerRadius": 0,
      "curveFrom": "{0.67605633802816756, 0.97699115044247842}",
      "curveMode": 3,
      "curveTo": "{0.91021126760563309, 0.84070796460177089}",
      "hasCurveFrom": true,
      "hasCurveTo": true,
      "point": "{0.7552816901408439, 0.93097345132743381}"
    }
  ],
  "resizingConstraint": 63,
  "resizingType": 0,
  "rotation": 0,
  "shouldBreakMaskChain": false,
  "style": {
    "_class": "style",
    "do_objectID": "4DA2E781-9352-4723-A5EC-A4CAFACBE275",
    "endMarkerType": 0,
    "fills": [
      {
        "_class": "fill",
        "color": {
          "_class": "color",
          "alpha": 1,
          "blue": 0.419607843137255,
          "green": 0.615686274509804,
          "red": 0.7254901960784313
        },
        "fillType": 1,
        "gradient": {
          "_class": "gradient",
          "elipseLength": 0,
          "from": "{2.7755575615628914e-16, 0.075306725971607924}",
          "gradientType": 0,
          "stops": [
            {
              "_class": "gradientStop",
              "color": {
                "_class": "color",
                "alpha": 1,
                "blue": 0.9265252976190477,
                "green": 0.5401791888111952,
                "red": 0.1870671538792877
              },
              "position": 0
            },
            {
              "_class": "gradientStop",
              "color": {
                "_class": "color",
                "alpha": 1,
                "blue": 0.9598121951227108,
                "green": 0.583983142381141,
                "red": 0.7261670768607007
              },
              "position": 0.3686598617851218
            },
            {
              "_class": "gradientStop",
              "color": {
                "_class": "color",
                "alpha": 1,
                "blue": 0.9678996598639455,
                "green": 0.5946258563794835,
                "red": 0.8571480917971271
              },
              "position": 0.6586645592181204
            },
            {
              "_class": "gradientStop",
              "color": {
                "_class": "color",
                "alpha": 1,
                "blue": 0.9143597368024587,
                "green": 0.6776316662260651,
                "red": 0.5366447696147074
              },
              "position": 0.7729254689422581
            },
            {
              "_class": "gradientStop",
              "color": {
                "_class": "color",
                "alpha": 1,
                "blue": 0.8784313725490196,
                "green": 0.7333333333333334,
                "red": 0.3215686274509803
              },
              "position": 1
            }
          ],
          "to": "{0.96123888685135161, 1}"
        },
        "isEnabled": true,
        "noiseIndex": 0,
        "noiseIntensity": 0,
        "patternFillType": 1,
        "patternTileScale": 1
      }
    ],
    "miterLimit": 10,
    "shadows": [
      {
        "_class": "shadow",
        "blurRadius": 2,
        "color": {
          "_class": "color",
          "alpha": 0.5,
          "blue": 0.7906303146258503,
          "green": 0.7906303146258503,
          "red": 0.7906303146258503
        },
        "contextSettings": {
          "_class": "graphicsContextSettings",
          "blendMode": 0,
          "opacity": 1
        },
        "isEnabled": true,
        "offsetX": 0,
        "offsetY": 10,
        "spread": 0
      }
    ],
    "startMarkerType": 0,
    "textStyle": {
      "_class": "textStyle",
      "do_objectID": "3D69DEC2-4654-4683-9C36-A56BD665B6BA",
      "encodedAttributes": {
        "MSAttributedStringColorAttribute": {
          "_class": "color",
          "alpha": 1,
          "blue": 0.1764705882,
          "green": 0.1764705882,
          "red": 0.1764705882
        },
        "MSAttributedStringFontAttribute": {
          "_class": "UIFontDescriptor",
          "attributes": {
            "name": "ArgonPERSONAL-Regular",
            "size": 72
          }
        },
        "kerning": 2,
        "paragraphStyle": {
          "_class": "paragraphStyle",
          "alignment": 2
        }
      },
      "verticalAlignment": 0
    },
    "windingRule": 1
  }
}