{
  "_class": "shapePath",
  "booleanOperation": -1,
  "clippingMaskMode": 0,
  "do_objectID": "939D38E8-2D5D-4D30-BE3C-28207E35EE51",
  "edited": true,
  "exportOptions": {
    "_class": "exportOptions",
    "exportFormats": [
    ],
    "includedLayerIds": [
    ],
    "layerOptions": 0,
    "shouldTrim": false
  },
  "frame": {
    "_class": "rect",
    "constrainProportions": false,
    "height": 18.17101015994786,
    "width": 20.873272379999,
    "x": 1.349390765231135,
    "y": 1.38673868906767
  },
  "hasClippingMask": false,
  "isClosed": true,
  "isFixedToViewport": false,
  "isFlippedHorizontal": false,
  "isFlippedVertical": false,
  "isLocked": false,
  "isVisible": true,
  "layerListExpandedType": 0,
  "maintainScrollPosition": false,
  "name": "Path",
  "nameIsFixed": false,
  "pointRadiusBehaviour": 0,
  "points": [
    {
      "_class": "curvePoint",
      "cornerRadius": 0,
      "curveFrom": "{0.92745246135853632, 0.49872572003858034}",
      "curveMode": 4,
      "curveTo": "{0.97437302467412468, 0.44353390922339314}",
      "hasCurveFrom": false,
      "hasCurveTo": true,
      "point": "{0.92745246135853632, 0.49872572003858034}"
    },
    {
      "_class": "curvePoint",
      "cornerRadius": 0,
      "curveFrom": "{0.49963113014099581, 1}",
      "curveMode": 1,
      "curveTo": "{0.49963113014099581, 1}",
      "hasCurveFrom": false,
      "hasCurveTo": false,
      "point": "{0.49963113014099581, 1}"
    },
    {
      "_class": "curvePoint",
      "cornerRadius": 0,
      "curveFrom": "{0.025855836918597028, 0.44269260284002498}",
      "curveMode": 4,
      "curveTo": "{0.072779392807902757, 0.49788793376560281}",
      "hasCurveFrom": true,
      "hasCurveTo": false,
      "point": "{0.072779392807902757, 0.49788793376560281}"
    },
    {
      "_class": "curvePoint",
      "cornerRadius": 0,
      "curveFrom": "{0, 0.21345949408973461}",
      "curveMode": 2,
      "curveTo": "{0, 0.36947430671425852}",
      "hasCurveFrom": true,
      "hasCurveTo": true,
      "point": "{0, 0.29146514034680121}"
    },
    {
      "_class": "curvePoint",
      "cornerRadius": 0,
      "curveFrom": "{0.11922114432870219, 0.030413753775318346}",
      "curveMode": 2,
      "curveTo": "{0.025610445873767748, 0.14024119796396806}",
      "hasCurveFrom": true,
      "hasCurveTo": true,
      "point": "{0.07253400176307348, 0.085334516090424459}"
    },
    {
      "_class": "curvePoint",
      "cornerRadius": 0,
      "curveFrom": "{0.31385514633664574, 0}",
      "curveMode": 2,
      "curveTo": "{0.18146967022496802, 0}",
      "hasCurveFrom": true,
      "hasCurveTo": true,
      "point": "{0.24753971275839223, 0}"
    },
    {
      "_class": "curvePoint",
      "cornerRadius": 0,
      "curveFrom": "{0.42326064887217685, 0.085609084700896204}",
      "curveMode": 4,
      "curveTo": "{0.37633709298287116, 0.030413753775318346}",
      "hasCurveFrom": false,
      "hasCurveTo": true,
      "point": "{0.42326064887217685, 0.085609084700896204}"
    },
    {
      "_class": "curvePoint",
      "cornerRadius": 0,
      "curveFrom": "{0.49005489424521914, 0.16417794862046869}",
      "curveMode": 4,
      "curveTo": "{0.47737236683074991, 0.14924564034328106}",
      "hasCurveFrom": true,
      "hasCurveTo": false,
      "point": "{0.47737236683074991, 0.14924564034328106}"
    },
    {
      "_class": "curvePoint",
      "cornerRadius": 0,
      "curveFrom": "{0.52310188580680095, 0.14924564034328106}",
      "curveMode": 4,
      "curveTo": "{0.510407388097462, 0.16417794862046869}",
      "hasCurveFrom": false,
      "hasCurveTo": true,
      "point": "{0.52310188580680095, 0.14924564034328106}"
    },
    {
      "_class": "curvePoint",
      "cornerRadius": 0,
      "curveFrom": "{0.62364637756502117, 0.03097697143782413}",
      "curveMode": 4,
      "curveTo": "{0.57672282167571542, 0.086172302363401981}",
      "hasCurveFrom": true,
      "hasCurveTo": false,
      "point": "{0.57672282167571542, 0.086172302363401981}"
    },
    {
      "_class": "curvePoint",
      "cornerRadius": 0,
      "curveFrom": "{0.81828037957296473, 0.00056321766250578414}",
      "curveMode": 2,
      "curveTo": "{0.68612832421124659, 0.00056321766250578414}",
      "hasCurveFrom": true,
      "hasCurveTo": true,
      "point": "{0.75221033703954054, 0.00056321766250578414}"
    },
    {
      "_class": "curvePoint",
      "cornerRadius": 0,
      "curveFrom": "{0.97437302467412468, 0.1410930646785083}",
      "curveMode": 2,
      "curveTo": "{0.88052890546923068, 0.03097697143782413}",
      "hasCurveFrom": true,
      "hasCurveTo": true,
      "point": "{0.92745246135853632, 0.085883653311367728}"
    },
    {
      "_class": "curvePoint",
      "cornerRadius": 0,
      "curveFrom": "{1.0002318541664392, 0.37031209298723605}",
      "curveMode": 2,
      "curveTo": "{0.99999843341647954, 0.21430080047310282}",
      "hasCurveFrom": true,
      "hasCurveTo": true,
      "point": "{0.99999843341647954, 0.29230644673016942}"
    }
  ],
  "resizingConstraint": 63,
  "resizingType": 0,
  "rotation": 0,
  "shouldBreakMaskChain": false,
  "style": {
    "_class": "style",
    "blur": {
      "_class": "blur",
      "center": "{0.5, 0.5}",
      "isEnabled": false,
      "motionAngle": 0,
      "radius": 10,
      "saturation": 1,
      "type": 0
    },
    "borderOptions": {
      "_class": "borderOptions",
      "dashPattern": [
      ],
      "isEnabled": true,
      "lineCapStyle": 0,
      "lineJoinStyle": 0
    },
    "borders": [
    ],
    "colorControls": {
      "_class": "colorControls",
      "brightness": 0,
      "contrast": 1,
      "hue": 0,
      "isEnabled": false,
      "saturation": 1
    },
    "contextSettings": {
      "_class": "graphicsContextSettings",
      "blendMode": 0,
      "opacity": 1
    },
    "do_objectID": "FD2DBAA8-5597-400C-9216-AB74B22E5D0F",
    "endMarkerType": 0,
    "fills": [
      {
        "_class": "fill",
        "color": {
          "_class": "color",
          "alpha": 1,
          "blue": 0.1764705882352941,
          "green": 0.1764705882352941,
          "red": 0.1764705882352941
        },
        "contextSettings": {
          "_class": "graphicsContextSettings",
          "blendMode": 0,
          "opacity": 1
        },
        "fillType": 0,
        "gradient": {
          "_class": "gradient",
          "elipseLength": 0,
          "from": "{0.5, 0}",
          "gradientType": 0,
          "stops": [
            {
              "_class": "gradientStop",
              "color": {
                "_class": "color",
                "alpha": 1,
                "blue": 1,
                "green": 1,
                "red": 1
              },
              "position": 0
            },
            {
              "_class": "gradientStop",
              "color": {
                "_class": "color",
                "alpha": 1,
                "blue": 0,
                "green": 0,
                "red": 0
              },
              "position": 1
            }
          ],
          "to": "{0.5, 1}"
        },
        "isEnabled": true,
        "noiseIndex": 0,
        "noiseIntensity": 0,
        "patternFillType": 1,
        "patternTileScale": 1
      }
    ],
    "innerShadows": [
    ],
    "miterLimit": 10,
    "shadows": [
    ],
    "startMarkerType": 0,
    "windingRule": 1
  }
}