{
  "_class": "shapePath",
  "booleanOperation": -1,
  "clippingMaskMode": 0,
  "do_objectID": "3B50C2E6-4D73-4EC3-9311-58F412E61F0A",
  "edited": true,
  "exportOptions": {
    "_class": "exportOptions",
    "exportFormats": [
    ],
    "includedLayerIds": [
    ],
    "layerOptions": 0,
    "shouldTrim": false
  },
  "frame": {
    "_class": "rect",
    "constrainProportions": false,
    "height": 3.6758423,
    "width": 2.384948699999995,
    "x": 42.54858420000001,
    "y": 2.828979480000001
  },
  "hasClippingMask": false,
  "isClosed": true,
  "isFixedToViewport": false,
  "isFlippedHorizontal": false,
  "isFlippedVertical": false,
  "isLocked": false,
  "isVisible": true,
  "layerListExpandedType": 0,
  "maintainScrollPosition": false,
  "name": "Download-on-path",
  "nameIsFixed": false,
  "pointRadiusBehaviour": 1,
  "points": [
    {
      "_class": "curvePoint",
      "cornerRadius": 0,
      "curveFrom": "{0, 0.68659262123405018}",
      "curveMode": 4,
      "curveTo": "{0, 0.55043585520521376}",
      "hasCurveFrom": true,
      "hasCurveTo": false,
      "point": "{0, 0.55043585520521376}"
    },
    {
      "_class": "curvePoint",
      "cornerRadius": 0,
      "curveFrom": "{0.21433182189621036, 0.95911206528092896}",
      "curveMode": 2,
      "curveTo": "{0.042865827680065444, 0.79555790519087299}",
      "hasCurveFrom": true,
      "hasCurveTo": true,
      "point": "{0.12859882478813792, 0.87733499883822541}"
    },
    {
      "_class": "curvePoint",
      "cornerRadius": 0,
      "curveFrom": "{0.64043562027141132, 1}",
      "curveMode": 3,
      "curveTo": "{0.3474079337639433, 1}",
      "hasCurveFrom": true,
      "hasCurveTo": true,
      "point": "{0.52783110177589643, 1}"
    },
    {
      "_class": "curvePoint",
      "cornerRadius": 0,
      "curveFrom": "{0.88867601219263193, 0.91697783117627252}",
      "curveMode": 2,
      "curveTo": "{0.73512436556811533, 0.9833957784315176}",
      "hasCurveFrom": true,
      "hasCurveTo": true,
      "point": "{0.81190018888037363, 0.95018679120157035}"
    },
    {
      "_class": "curvePoint",
      "cornerRadius": 0,
      "curveFrom": "{1, 0.81070983377061656}",
      "curveMode": 4,
      "curveTo": "{0.95137530631161893, 0.87048598357987261}",
      "hasCurveFrom": false,
      "hasCurveTo": true,
      "point": "{1, 0.81070983377061656}"
    },
    {
      "_class": "curvePoint",
      "cornerRadius": 0,
      "curveFrom": "{0.95137530631161893, 0.12619317210643125}",
      "curveMode": 4,
      "curveTo": "{1, 0.18181819171078126}",
      "hasCurveFrom": true,
      "hasCurveTo": false,
      "point": "{1, 0.18181819171078126}"
    },
    {
      "_class": "curvePoint",
      "cornerRadius": 0,
      "curveFrom": "{0.73352487623737761, 0.01639667730032926}",
      "curveMode": 2,
      "curveTo": "{0.888356131098335, 0.081984393073663508}",
      "hasCurveFrom": true,
      "hasCurveTo": true,
      "point": "{0.81094050366785631, 0.049190548789320866}"
    },
    {
      "_class": "curvePoint",
      "cornerRadius": 0,
      "curveFrom": "{0.34996710830719224, 0}",
      "curveMode": 3,
      "curveTo": "{0.64043562027141132, 0}",
      "hasCurveFrom": true,
      "hasCurveTo": true,
      "point": "{0.53166984262596551, 0}"
    },
    {
      "_class": "curvePoint",
      "cornerRadius": 0,
      "curveFrom": "{0.043185750703982929, 0.24283985197079849}",
      "curveMode": 2,
      "curveTo": "{0.21593131122694206, 0.048567399096527936}",
      "hasCurveFrom": true,
      "hasCurveTo": true,
      "point": "{0.12955851000065519, 0.14570361193133874}"
    },
    {
      "_class": "curvePoint",
      "cornerRadius": 0,
      "curveFrom": "{0, 0.52428394439010606}",
      "curveMode": 4,
      "curveTo": "{0, 0.36903201750521253}",
      "hasCurveFrom": false,
      "hasCurveTo": true,
      "point": "{0, 0.52428394439010606}"
    }
  ],
  "resizingConstraint": 63,
  "resizingType": 0,
  "rotation": 0,
  "shouldBreakMaskChain": false,
  "style": {
    "_class": "style",
    "blur": {
      "_class": "blur",
      "center": "{0.5, 0.5}",
      "isEnabled": false,
      "motionAngle": 0,
      "radius": 10,
      "saturation": 1,
      "type": 0
    },
    "borderOptions": {
      "_class": "borderOptions",
      "dashPattern": [
      ],
      "isEnabled": true,
      "lineCapStyle": 0,
      "lineJoinStyle": 0
    },
    "borders": [
    ],
    "colorControls": {
      "_class": "colorControls",
      "brightness": 0,
      "contrast": 1,
      "hue": 0,
      "isEnabled": true,
      "saturation": 1
    },
    "contextSettings": {
      "_class": "graphicsContextSettings",
      "blendMode": 0,
      "opacity": 1
    },
    "do_objectID": "6DD43862-314B-4429-B9E5-1A80D3AEC85C",
    "endMarkerType": 0,
    "fills": [
      {
        "_class": "fill",
        "color": {
          "_class": "color",
          "alpha": 1,
          "blue": 1,
          "green": 1,
          "red": 1
        },
        "contextSettings": {
          "_class": "graphicsContextSettings",
          "blendMode": 0,
          "opacity": 1
        },
        "fillType": 0,
        "gradient": {
          "_class": "gradient",
          "elipseLength": 0,
          "from": "{0.5, 0}",
          "gradientType": 0,
          "stops": [
            {
              "_class": "gradientStop",
              "color": {
                "_class": "color",
                "alpha": 1,
                "blue": 1,
                "green": 1,
                "red": 1
              },
              "position": 0
            },
            {
              "_class": "gradientStop",
              "color": {
                "_class": "color",
                "alpha": 1,
                "blue": 0,
                "green": 0,
                "red": 0
              },
              "position": 1
            }
          ],
          "to": "{0.5, 1}"
        },
        "isEnabled": true,
        "noiseIndex": 0,
        "noiseIntensity": 0,
        "patternFillType": 1,
        "patternTileScale": 1
      }
    ],
    "innerShadows": [
    ],
    "miterLimit": 10,
    "shadows": [
    ],
    "startMarkerType": 0,
    "windingRule": 0
  }
}