{
  "_class": "symbolInstance",
  "booleanOperation": -1,
  "clippingMaskMode": 0,
  "do_objectID": "6466056A-7F6C-4393-AD84-FD877A84CED9",
  "exportOptions": {
    "_class": "exportOptions",
    "do_objectID": "6CFD0249-1C94-46D3-987F-760322247437",
    "exportFormats": [
    ],
    "includedLayerIds": [
    ],
    "layerOptions": 0,
    "shouldTrim": false
  },
  "frame": {
    "_class": "rect",
    "constrainProportions": false,
    "do_objectID": "7636A37A-385F-43D8-B7E2-8BCE9A73139B",
    "height": 40,
    "width": 224,
    "x": 0,
    "y": 115
  },
  "hasClippingMask": false,
  "horizontalSpacing": 0,
  "isFixedToViewport": false,
  "isFlippedHorizontal": false,
  "isFlippedVertical": false,
  "isLocked": false,
  "isVisible": true,
  "layerListExpandedType": 0,
  "name": "component / file uploader / item / 01 uploaded",
  "nameIsFixed": false,
  "overrideValues": [
  ],
  "resizingConstraint": 63,
  "resizingType": 0,
  "rotation": 0,
  "scale": 1,
  "shouldBreakMaskChain": false,
  "style": {
    "_class": "style",
    "do_objectID": "9C162E64-39E4-4C47-83F9-9D7ADA0A9437",
    "endMarkerType": 0,
    "miterLimit": 10,
    "startMarkerType": 0,
    "windingRule": 1
  },
  "symbolID": "04368593-58B4-4DAA-A238-FF9CC990EE99",
  "verticalSpacing": 0
}