{
  "_class": "group",
  "booleanOperation": -1,
  "clippingMaskMode": 0,
  "do_objectID": "721DBD70-EB9E-416B-B3D2-B7635DE769F4",
  "exportOptions": {
    "_class": "exportOptions",
    "do_objectID": "9EF534C4-F196-4E31-80E6-2F0C7AD87D84",
    "exportFormats": [
    ],
    "includedLayerIds": [
    ],
    "layerOptions": 0,
    "shouldTrim": false
  },
  "frame": {
    "_class": "rect",
    "constrainProportions": false,
    "do_objectID": "21DE6A7A-BD6F-4275-830A-362A1B82534E",
    "height": 155,
    "width": 224,
    "x": 0,
    "y": 659
  },
  "groupLayout": {
    "_class": "MSImmutableFreeformGroupLayout",
    "do_objectID": "27FD843B-22B7-4C2F-862B-2B392107CA48"
  },
  "hasClickThrough": false,
  "hasClippingMask": false,
  "isFixedToViewport": false,
  "isFlippedHorizontal": false,
  "isFlippedVertical": false,
  "isLocked": false,
  "isVisible": true,
  "layerListExpandedType": 0,
  "layers": [
    {
      "class": "symbolInstance",
      "id": "6466056A-7F6C-4393-AD84-FD877A84CED9"
    },
    {
      "class": "symbolInstance",
      "id": "2CCAA959-324A-44BC-ACAC-56A5F06A1626"
    },
    {
      "class": "symbolInstance",
      "id": "C1D38113-A952-4BFF-B489-B3E6B673A4A5"
    }
  ],
  "name": "error group",
  "nameIsFixed": true,
  "resizingConstraint": 63,
  "resizingType": 0,
  "rotation": 0,
  "shouldBreakMaskChain": false,
  "style": {
    "_class": "style",
    "do_objectID": "54728C7F-1FAD-4036-A909-58527AF4DC73",
    "endMarkerType": 0,
    "miterLimit": 10,
    "startMarkerType": 0,
    "windingRule": 1
  }
}