{
  "_class": "group",
  "booleanOperation": 0,
  "clippingMaskMode": 0,
  "do_objectID": "DB5F5462-D7DB-4ABD-92C9-4E474FD1F423",
  "exportOptions": {
    "_class": "exportOptions",
    "do_objectID": "B2E3AC4B-FC49-4B3D-B792-F017E67F32AB",
    "exportFormats": [
    ],
    "includedLayerIds": [
    ],
    "layerOptions": 0,
    "shouldTrim": false
  },
  "frame": {
    "_class": "rect",
    "constrainProportions": false,
    "do_objectID": "7B5EFFB5-98AD-4D0E-A7F8-4842FF9F8B1E",
    "height": 15,
    "width": 80,
    "x": 185,
    "y": 7.833333333333334
  },
  "groupLayout": {
    "_class": "MSImmutableFreeformGroupLayout",
    "do_objectID": "4C74D2F4-C23C-4DC6-94B9-758F4FCA35C1"
  },
  "hasClickThrough": false,
  "hasClippingMask": false,
  "isFixedToViewport": false,
  "isFlippedHorizontal": false,
  "isFlippedVertical": false,
  "isLocked": false,
  "isVisible": true,
  "layerListExpandedType": 0,
  "layers": [
    {
      "class": "shapePath",
      "id": "F7CEACFD-2B5E-4C17-A16B-612880C4BFDC"
    },
    {
      "class": "shapePath",
      "id": "A73096E2-7842-4FD5-929E-24E529AF2BD2"
    },
    {
      "class": "shapePath",
      "id": "A94C1648-BEA8-4903-B5D4-070E2E3D5ED4"
    },
    {
      "class": "shapePath",
      "id": "0B71FCE1-5321-47B1-939A-18E9AD03C3AB"
    },
    {
      "class": "shapePath",
      "id": "654D0415-D7F3-40D3-8B49-285D2F0BF1F9"
    }
  ],
  "name": "Group 2",
  "nameIsFixed": false,
  "resizingConstraint": 63,
  "resizingType": 0,
  "rotation": 0,
  "shouldBreakMaskChain": false,
  "style": {
    "_class": "style",
    "do_objectID": "B6201776-482E-4047-BF39-B86A7107FBDD",
    "endMarkerType": 0,
    "miterLimit": 10,
    "startMarkerType": 0,
    "windingRule": 1
  }
}