{
  "_class": "group",
  "booleanOperation": -1,
  "clippingMaskMode": 0,
  "do_objectID": "5DCBB45A-0C85-4C29-A706-A8F4882B9652",
  "exportOptions": {
    "_class": "exportOptions",
    "do_objectID": "99495C7D-F719-4B2F-B9EC-BAD17EA8BEEC",
    "exportFormats": [
    ],
    "includedLayerIds": [
    ],
    "layerOptions": 0,
    "shouldTrim": false
  },
  "frame": {
    "_class": "rect",
    "constrainProportions": false,
    "do_objectID": "78F12668-1C30-478C-ACAE-C2833C48F4B7",
    "height": 57,
    "width": 512,
    "x": 0,
    "y": 1754
  },
  "groupLayout": {
    "_class": "MSImmutableFreeformGroupLayout",
    "do_objectID": "8EAB3484-6477-4124-8034-30C608DF7C56"
  },
  "hasClickThrough": false,
  "hasClippingMask": false,
  "isFixedToViewport": false,
  "isFlippedHorizontal": false,
  "isFlippedVertical": false,
  "isLocked": false,
  "isVisible": true,
  "layerListExpandedType": 0,
  "layers": [
    {
      "class": "rectangle",
      "id": "3B262452-6EAE-473E-84FA-CA7B72C3348E"
    },
    {
      "class": "rectangle",
      "id": "EBCEB046-4F0D-42BC-8476-EAC928FCCFC0"
    },
    {
      "class": "rectangle",
      "id": "7B5E23B8-42AE-4238-8702-6AEFF6609292"
    },
    {
      "class": "rectangle",
      "id": "242C4FA8-5AA3-456A-A9B7-2616295BAE25"
    },
    {
      "class": "text",
      "id": "703D3172-8B2E-48F8-8339-896C1F014E61"
    },
    {
      "class": "rectangle",
      "id": "5589A8A3-9716-497B-A822-F4E7F07EC636"
    },
    {
      "class": "symbolInstance",
      "id": "406A0A4C-6965-4C1F-A8FF-2C0EA495421D"
    },
    {
      "class": "symbolInstance",
      "id": "99301D42-1842-4F83-B803-2B85A4D1B567"
    },
    {
      "class": "group",
      "id": "B7B63B6C-20FA-4E99-BE61-EE70A17086EF"
    }
  ],
  "name": "Focus field (active icon)",
  "nameIsFixed": true,
  "resizingConstraint": 63,
  "resizingType": 0,
  "rotation": 0,
  "shouldBreakMaskChain": false,
  "style": {
    "_class": "style",
    "do_objectID": "F2038792-287A-4CEC-9CB7-2495F21AB6A5",
    "endMarkerType": 0,
    "miterLimit": 10,
    "startMarkerType": 0,
    "windingRule": 1
  }
}