{
  "_class": "shapePath",
  "booleanOperation": -1,
  "clippingMaskMode": 0,
  "do_objectID": "51BC9F07-8C22-4108-9547-905DF661A458",
  "edited": true,
  "exportOptions": {
    "_class": "exportOptions",
    "exportFormats": [
    ],
    "includedLayerIds": [
    ],
    "layerOptions": 0,
    "shouldTrim": false
  },
  "frame": {
    "_class": "rect",
    "constrainProportions": false,
    "height": 15.26813607677708,
    "width": 14.30830507773055,
    "x": 2.438603085534737,
    "y": 2.477368266706002
  },
  "hasClippingMask": false,
  "isClosed": true,
  "isFixedToViewport": false,
  "isFlippedHorizontal": false,
  "isFlippedVertical": false,
  "isLocked": false,
  "isVisible": true,
  "layerListExpandedType": 0,
  "name": "Fill",
  "nameIsFixed": true,
  "pointRadiusBehaviour": 1,
  "points": [
    {
      "_class": "curvePoint",
      "cornerRadius": 0,
      "curveFrom": "{0.18233444844041866, 0.75605376289852277}",
      "curveMode": 4,
      "curveTo": "{0.2021830607293765, 0.77956678362317045}",
      "hasCurveFrom": true,
      "hasCurveTo": false,
      "point": "{0.2021830607293765, 0.77956678362317045}"
    },
    {
      "_class": "curvePoint",
      "cornerRadius": 0,
      "curveFrom": "{0.090988898223278381, 0.61661303553703295}",
      "curveMode": 3,
      "curveTo": "{0.15822257787812843, 0.70797978737793399}",
      "hasCurveFrom": true,
      "hasCurveTo": true,
      "point": "{0.1153104372252407, 0.64962295878277787}"
    },
    {
      "_class": "curvePoint",
      "cornerRadius": 0,
      "curveFrom": "{-0.0028726732699270309, 0.4949871873875325}",
      "curveMode": 2,
      "curveTo": "{0.030674277077607205, 0.55445744593343782}",
      "hasCurveFrom": true,
      "hasCurveTo": true,
      "point": "{0.012712680745698221, 0.52288843203572155}"
    },
    {
      "_class": "curvePoint",
      "cornerRadius": 0,
      "curveFrom": "{0.0090784277913820294, 0.41822601666528442}",
      "curveMode": 3,
      "curveTo": "{-0.0011953257525503748, 0.48247747441146632}",
      "hasCurveFrom": true,
      "hasCurveTo": true,
      "point": "{0.002508816681656474, 0.45935742896355386}"
    },
    {
      "_class": "curvePoint",
      "cornerRadius": 0,
      "curveFrom": "{0.13837396558917056, 0.39373055774879923}",
      "curveMode": 3,
      "curveTo": "{0.054087252840990592, 0.38619853161137713}",
      "hasCurveFrom": true,
      "hasCurveTo": true,
      "point": "{0.10210132552589905, 0.39052125965546269}"
    },
    {
      "_class": "curvePoint",
      "cornerRadius": 0,
      "curveFrom": "{0.2135051564716694, 0.45018800583973578}",
      "curveMode": 3,
      "curveTo": "{0.16912533674107699, 0.41619564440215312}",
      "hasCurveFrom": true,
      "hasCurveTo": true,
      "point": "{0.19680157077779287, 0.43741630934584641}"
    },
    {
      "_class": "curvePoint",
      "cornerRadius": 0,
      "curveFrom": "{0.25781508672237091, 0.50186425473039598}",
      "curveMode": 2,
      "curveTo": "{0.23405266355953408, 0.47501094415350043}",
      "hasCurveFrom": true,
      "hasCurveTo": true,
      "point": "{0.24642310150018748, 0.48902706235705073}"
    },
    {
      "_class": "curvePoint",
      "cornerRadius": 0,
      "curveFrom": "{0.28884601579384023, 0.54247169999301859}",
      "curveMode": 2,
      "curveTo": "{0.26061066591799881, 0.50716942096631934}",
      "hasCurveFrom": true,
      "hasCurveTo": true,
      "point": "{0.27277143541897997, 0.52236446500007483}"
    },
    {
      "_class": "curvePoint",
      "cornerRadius": 0,
      "curveFrom": "{0.28276563104334962, 0.49780351020413371}",
      "curveMode": 4,
      "curveTo": "{0.29387805834597031, 0.55242707367030675}",
      "hasCurveFrom": true,
      "hasCurveTo": true,
      "point": "{0.28772778411558908, 0.5302894664142318}"
    },
    {
      "_class": "curvePoint",
      "cornerRadius": 0,
      "curveFrom": "{0.2539711653283826, 0.35607042706168929}",
      "curveMode": 3,
      "curveTo": "{0.27465845137602884, 0.44232850030503457}",
      "hasCurveFrom": true,
      "hasCurveTo": true,
      "point": "{0.26291701875439177, 0.39327208659260821}"
    },
    {
      "_class": "curvePoint",
      "cornerRadius": 0,
      "curveFrom": "{0.23426233199920618, 0.29129500227986066}",
      "curveMode": 2,
      "curveTo": "{0.25180459145177098, 0.35024129379011931}",
      "hasCurveFrom": true,
      "hasCurveTo": true,
      "point": "{0.243278074905106, 0.32168509034737175}"
    },
    {
      "_class": "curvePoint",
      "cornerRadius": 0,
      "curveFrom": "{0.21532228294882749, 0.2149923027138034}",
      "curveMode": 2,
      "curveTo": "{0.22964962632642028, 0.2700088414567115}",
      "hasCurveFrom": true,
      "hasCurveTo": true,
      "point": "{0.22119299925964597, 0.23778486876443694}"
    },
    {
      "_class": "curvePoint",
      "cornerRadius": 0,
      "curveFrom": "{0.19791980245604401, 0.10640013457601578}",
      "curveMode": 2,
      "curveTo": "{0.20476897148533232, 0.16842473242069908}",
      "hasCurveFrom": true,
      "hasCurveTo": true,
      "point": "{0.20190350280981376, 0.14222638063836174}"
    },
    {
      "_class": "curvePoint",
      "cornerRadius": 0,
      "curveFrom": "{0.23957393247089914, 0.00010032221918244709}",
      "curveMode": 2,
      "curveTo": "{0.19582311805932318, 0.04797781010140359}",
      "hasCurveFrom": true,
      "hasCurveTo": true,
      "point": "{0.2203543255009576, 0.021124499524508164}"
    },
    {
      "_class": "curvePoint",
      "cornerRadius": 0,
      "curveFrom": "{0.34678439462322769, 0.023678838823285905}",
      "curveMode": 2,
      "curveTo": "{0.28367419428192869, -0.0062527780880344136}",
      "hasCurveFrom": true,
      "hasCurveTo": true,
      "point": "{0.31100098091919104, 0.0067154060442225346}"
    },
    {
      "_class": "curvePoint",
      "cornerRadius": 0,
      "curveFrom": "{0.39312111979075948, 0.12683484896623864}",
      "curveMode": 3,
      "curveTo": "{0.36712223327142024, 0.072407773138433121}",
      "hasCurveFrom": true,
      "hasCurveTo": true,
      "point": "{0.37641753409688294, 0.091860049336818544}"
    },
    {
      "_class": "curvePoint",
      "cornerRadius": 0,
      "curveFrom": "{0.42394238042255655, 0.28782372066870093}",
      "curveMode": 3,
      "curveTo": "{0.40346476281458254, 0.16724580659049387}",
      "hasCurveFrom": true,
      "hasCurveTo": true,
      "point": "{0.41248050572048234, 0.22029746894972665}"
    },
    {
      "_class": "curvePoint",
      "cornerRadius": 0,
      "curveFrom": "{0.44644679294736078, 0.42097684360242971}",
      "curveMode": 2,
      "curveTo": "{0.44504900334954689, 0.38154832417001239}",
      "hasCurveFrom": true,
      "hasCurveTo": true,
      "point": "{0.44574789814845384, 0.40126258388622105}"
    },
    {
      "_class": "curvePoint",
      "cornerRadius": 0,
      "curveFrom": "{0.44952193006255148, 0.28199458739713079}",
      "curveMode": 2,
      "curveTo": "{0.4409954135158865, 0.32620430602982486}",
      "hasCurveFrom": true,
      "hasCurveTo": true,
      "point": "{0.44546834022889109, 0.30301876470245648}"
    },
    {
      "_class": "curvePoint",
      "cornerRadius": 0,
      "curveFrom": "{0.51200312508483414, 0.24538239078131471}",
      "curveMode": 2,
      "curveTo": "{0.46839208963303947, 0.25756462436010152}",
      "hasCurveFrom": true,
      "hasCurveTo": true,
      "point": "{0.49201473383609501, 0.25094954053506141}"
    },
    {
      "_class": "curvePoint",
      "cornerRadius": 0,
      "curveFrom": "{0.57790890462176092, 0.25153900345016406}",
      "curveMode": 2,
      "curveTo": "{0.53541610084821745, 0.24335201851818367}",
      "hasCurveFrom": true,
      "hasCurveTo": true,
      "point": "{0.55603349741597297, 0.24734726716499009}"
    },
    {
      "_class": "curvePoint",
      "cornerRadius": 0,
      "curveFrom": "{0.63486883073267875, 0.32089913979390161}",
      "curveMode": 3,
      "curveTo": "{0.60097243298569092, 0.2662100804482726}",
      "hasCurveFrom": true,
      "hasCurveTo": true,
      "point": "{0.60956883901224646, 0.28002971101345564}"
    },
    {
      "_class": "curvePoint",
      "cornerRadius": 0,
      "curveFrom": "{0.64241689456087392, 0.37532621562170715}",
      "curveMode": 3,
      "curveTo": "{0.6353580570919134, 0.40440638610010143}",
      "hasCurveFrom": true,
      "hasCurveTo": true,
      "point": "{0.63640639929027387, 0.39995266629710424}"
    },
    {
      "_class": "curvePoint",
      "cornerRadius": 0,
      "curveFrom": "{0.66603953876392918, 0.28088115744638148}",
      "curveMode": 2,
      "curveTo": "{0.64136855236251344, 0.31945823044587318}",
      "hasCurveFrom": true,
      "hasCurveTo": true,
      "point": "{0.65625501157923161, 0.29620719323904887}"
    },
    {
      "_class": "curvePoint",
      "cornerRadius": 0,
      "curveFrom": "{0.72481659135200505, 0.26142888124799607}",
      "curveMode": 2,
      "curveTo": "{0.69099008308490784, 0.26706152688119872}",
      "hasCurveFrom": true,
      "hasCurveTo": true,
      "point": "{0.70426908426414025, 0.26483466697969987}"
    },
    {
      "_class": "curvePoint",
      "cornerRadius": 0,
      "curveFrom": "{0.78904502337155513, 0.26751999803738946}",
      "curveMode": 2,
      "curveTo": "{0.7500466935925465, 0.26038094717670274}",
      "hasCurveFrom": true,
      "hasCurveTo": true,
      "point": "{0.77164254287877188, 0.26431069994405321}"
    },
    {
      "_class": "curvePoint",
      "cornerRadius": 0,
      "curveFrom": "{0.83419362738094516, 0.31873777577185874}",
      "curveMode": 3,
      "curveTo": "{0.81259777809471989, 0.28690677835631917}",
      "hasCurveFrom": true,
      "hasCurveTo": true,
      "point": "{0.81895772076477336, 0.29620719323904887}"
    },
    {
      "_class": "curvePoint",
      "cornerRadius": 0,
      "curveFrom": "{0.84649417584170761, 0.41403428038011048}",
      "curveMode": 3,
      "curveTo": "{0.84285992288739142, 0.38246526648239415}",
      "hasCurveFrom": true,
      "hasCurveTo": true,
      "point": "{0.84544583364334713, 0.40479936137683648}"
    },
    {
      "_class": "curvePoint",
      "cornerRadius": 0,
      "curveFrom": "{0.89429858008694418, 0.3147425271250523}",
      "curveMode": 3,
      "curveTo": "{0.85061765515525878, 0.37912497663014605}",
      "hasCurveFrom": true,
      "hasCurveTo": true,
      "point": "{0.8659234512513212, 0.35659439409733618}"
    },
    {
      "_class": "curvePoint",
      "cornerRadius": 0,
      "curveFrom": "{1.0003209210811308, 0.44128056623374118}",
      "curveMode": 3,
      "curveTo": "{0.99472976268987512, 0.30662103807252783}",
      "hasCurveFrom": true,
      "hasCurveTo": true,
      "point": "{0.99857368408386338, 0.39844626106961983}"
    },
    {
      "_class": "curvePoint",
      "cornerRadius": 0,
      "curveFrom": "{0.99997147368167727, 0.50199524648930771}",
      "curveMode": 2,
      "curveTo": "{0.99997147368167727, 0.43931568985006586}",
      "hasCurveFrom": true,
      "hasCurveTo": true,
      "point": "{0.99997147368167727, 0.46813387681063684}"
    },
    {
      "_class": "curvePoint",
      "cornerRadius": 0,
      "curveFrom": "{0.99500932060943781, 0.57305827569889733}",
      "curveMode": 2,
      "curveTo": "{0.99913279992298887, 0.52236446500007483}",
      "hasCurveFrom": true,
      "hasCurveTo": true,
      "point": "{0.99717589448604926, 0.54685992391656002}"
    },
    {
      "_class": "curvePoint",
      "cornerRadius": 0,
      "curveFrom": "{0.97425214508190106, 0.68066800564484753}",
      "curveMode": 2,
      "curveTo": "{0.98899882533883798, 0.63226655072697946}",
      "hasCurveFrom": true,
      "hasCurveTo": true,
      "point": "{0.98026264035250088, 0.66095374592863876}"
    },
    {
      "_class": "curvePoint",
      "cornerRadius": 0,
      "curveFrom": "{0.93469469946376671, 0.75160004309552553}",
      "curveMode": 4,
      "curveTo": "{0.95433364331305237, 0.72500871603645323}",
      "hasCurveFrom": true,
      "hasCurveTo": true,
      "point": "{0.93469469946376671, 0.75160004309552553}"
    },
    {
      "_class": "curvePoint",
      "cornerRadius": 0,
      "curveFrom": "{0.84320937028684517, 0.90715275680315277}",
      "curveMode": 2,
      "curveTo": "{0.85963339806115879, 0.83346989241532932}",
      "hasCurveFrom": true,
      "hasCurveTo": true,
      "point": "{0.85145632891394718, 0.87034407254896884}"
    },
    {
      "_class": "curvePoint",
      "cornerRadius": 0,
      "curveFrom": "{0.84272014392761019, 0.95961495624728299}",
      "curveMode": 2,
      "curveTo": "{0.84593506000258212, 0.90741474032097602}",
      "hasCurveFrom": true,
      "hasCurveTo": true,
      "point": "{0.84432760196509615, 0.93354759622385741}"
    },
    {
      "_class": "curvePoint",
      "cornerRadius": 0,
      "curveFrom": "{0.85278422903187057, 0.99393479708214472}",
      "curveMode": 2,
      "curveTo": "{0.85278422903187057, 0.99393479708214472}",
      "hasCurveFrom": true,
      "hasCurveTo": true,
      "point": "{0.85278422903187057, 0.99393479708214472}"
    },
    {
      "_class": "curvePoint",
      "cornerRadius": 0,
      "curveFrom": "{0.73921382420948845, 0.99210091245738119}",
      "curveMode": 2,
      "curveTo": "{0.79673286615953176, 1.0007463685455524}",
      "hasCurveFrom": true,
      "hasCurveTo": true,
      "point": "{0.76654061084675096, 0.99622715286309926}"
    },
    {
      "_class": "curvePoint",
      "cornerRadius": 0,
      "curveFrom": "{0.68463014041485459, 0.90407445046872803}",
      "curveMode": 2,
      "curveTo": "{0.70538731594239146, 0.94114511824073532}",
      "hasCurveFrom": true,
      "hasCurveTo": true,
      "point": "{0.69665113095605447, 0.92555709893024452}"
    },
    {
      "_class": "curvePoint",
      "cornerRadius": 0,
      "curveFrom": "{0.63326137269519267, 0.94913561553434811}",
      "curveMode": 3,
      "curveTo": "{0.65898070129496888, 0.90820069087444621}",
      "hasCurveFrom": true,
      "hasCurveTo": true,
      "point": "{0.64898650567059923, 0.92405069370276016}"
    },
    {
      "_class": "curvePoint",
      "cornerRadius": 0,
      "curveFrom": "{0.52884648973849213, 1.0024492614114044}",
      "curveMode": 3,
      "curveTo": "{0.59943486442809546, 0.99413128472051226}",
      "hasCurveFrom": true,
      "hasCurveTo": true,
      "point": "{0.57553266230547739, 0.99694760753711342}"
    },
    {
      "_class": "curvePoint",
      "cornerRadius": 0,
      "curveFrom": "{0.3561495849285809, 0.99825752512623045}",
      "curveMode": 3,
      "curveTo": "{0.43197967060998665, 0.99897797980024461}",
      "hasCurveFrom": true,
      "hasCurveTo": true,
      "point": "{0.3561495849285809, 0.99825752512623045}"
    },
    {
      "_class": "curvePoint",
      "cornerRadius": 0,
      "curveFrom": "{0.31896838162673036, 0.89235068804613216}",
      "curveMode": 2,
      "curveTo": "{0.36907913870835979, 0.93204119099637306}",
      "hasCurveFrom": true,
      "hasCurveTo": true,
      "point": "{0.34028467299339288, 0.90931412082519547}"
    },
    {
      "_class": "curvePoint",
      "cornerRadius": 0,
      "curveFrom": "{0.26033110799843606, 0.83988848860200183}",
      "curveMode": 4,
      "curveTo": "{0.28227640468411475, 0.85796535133181451}",
      "hasCurveFrom": false,
      "hasCurveTo": true,
      "point": "{0.26033110799843606, 0.83988848860200183}"
    }
  ],
  "resizingConstraint": 45,
  "resizingType": 0,
  "rotation": 0,
  "shouldBreakMaskChain": false,
  "style": {
    "_class": "style",
    "borders": [
      {
        "_class": "border",
        "color": {
          "_class": "color",
          "alpha": 1,
          "blue": 0,
          "green": 0,
          "red": 0
        },
        "fillType": 0,
        "isEnabled": true,
        "position": 0,
        "thickness": 0.75
      }
    ],
    "endMarkerType": 0,
    "fills": [
      {
        "_class": "fill",
        "color": {
          "_class": "color",
          "alpha": 1,
          "blue": 1,
          "green": 1,
          "red": 1
        },
        "fillType": 0,
        "isEnabled": true,
        "noiseIndex": 0,
        "noiseIntensity": 0,
        "patternFillType": 1,
        "patternTileScale": 1
      }
    ],
    "miterLimit": 10,
    "startMarkerType": 0,
    "windingRule": 1
  }
}