{
  "_class": "group",
  "booleanOperation": 0,
  "clippingMaskMode": 0,
  "do_objectID": "22DC9465-AB26-4145-8021-1BE8433132F4",
  "exportOptions": {
    "_class": "exportOptions",
    "exportFormats": [
    ],
    "includedLayerIds": [
    ],
    "layerOptions": 0,
    "shouldTrim": false
  },
  "frame": {
    "_class": "rect",
    "constrainProportions": false,
    "height": 20,
    "width": 20,
    "x": 482,
    "y": 21
  },
  "groupLayout": {
    "_class": "MSImmutableFreeformGroupLayout"
  },
  "hasClickThrough": false,
  "hasClippingMask": false,
  "isFixedToViewport": false,
  "isFlippedHorizontal": false,
  "isFlippedVertical": false,
  "isLocked": false,
  "isVisible": true,
  "layerListExpandedType": 0,
  "layers": [
    {
      "class": "rectangle",
      "id": "D08D6FF5-A416-4D66-A2DD-656094F8CB50"
    },
    {
      "class": "shapePath",
      "id": "8B47E196-6431-4F6A-A79F-0B1533248CBA"
    },
    {
      "class": "shapePath",
      "id": "CB6E68BE-591E-412A-AE07-C8135D14EFE2"
    },
    {
      "class": "shapePath",
      "id": "A3C0245D-A28E-4D7E-9F78-5A5D9B2D93C0"
    },
    {
      "class": "shapePath",
      "id": "51BC9F07-8C22-4108-9547-905DF661A458"
    },
    {
      "class": "shapePath",
      "id": "44C07495-AFB9-4956-B0CC-783BFBE1F768"
    },
    {
      "class": "shapePath",
      "id": "D3F1C4B8-C2E1-4A24-95DF-82116B0BD73A"
    },
    {
      "class": "shapePath",
      "id": "2697E64D-670D-4838-9F91-979818F59927"
    }
  ],
  "name": "Cursor - Pointer",
  "nameIsFixed": true,
  "resizingConstraint": 63,
  "resizingType": 0,
  "rotation": 0,
  "shouldBreakMaskChain": false,
  "style": {
    "_class": "style",
    "endMarkerType": 0,
    "miterLimit": 10,
    "startMarkerType": 0,
    "windingRule": 1
  }
}