{
  "_class": "symbolInstance",
  "booleanOperation": -1,
  "clippingMaskMode": 0,
  "do_objectID": "B0109582-232D-4304-B622-0F197812513B",
  "exportOptions": {
    "_class": "exportOptions",
    "do_objectID": "AB30B7D2-1C66-406D-BCF1-12D44FE6EB08",
    "exportFormats": [
    ],
    "includedLayerIds": [
    ],
    "layerOptions": 0,
    "shouldTrim": false
  },
  "frame": {
    "_class": "rect",
    "constrainProportions": false,
    "do_objectID": "D0859ABB-DE16-4552-9BFA-47DD2E4F2880",
    "height": 16,
    "width": 16,
    "x": 58,
    "y": 4
  },
  "hasClippingMask": false,
  "horizontalSpacing": 0,
  "isFixedToViewport": false,
  "isFlippedHorizontal": false,
  "isFlippedVertical": false,
  "isLocked": true,
  "isVisible": true,
  "layerListExpandedType": 0,
  "name": "icon/navigation/close/16",
  "nameIsFixed": false,
  "overrideValues": [
    {
      "_class": "overrideValue",
      "overrideName": "0102D184-77A7-423A-9B10-676DDC10DDDA_layerStyle",
      "value": "241DDE81-520F-4DE8-8CDF-29EA4BDC4082"
    }
  ],
  "resizingConstraint": 12,
  "resizingType": 0,
  "rotation": 0,
  "scale": 1,
  "shouldBreakMaskChain": false,
  "style": {
    "_class": "style",
    "do_objectID": "155002E9-9026-4FF6-82CB-6308648FF61D",
    "endMarkerType": 0,
    "miterLimit": 10,
    "startMarkerType": 0,
    "windingRule": 1
  },
  "symbolID": "4CA331EF-386E-44F2-B4FB-265D74D3A575",
  "verticalSpacing": 0
}