{
  "_class": "shapePath",
  "booleanOperation": -1,
  "clippingMaskMode": 0,
  "do_objectID": "F7E1C2C1-EE82-436C-A3C4-665377EEC76B",
  "edited": true,
  "exportOptions": {
    "_class": "exportOptions",
    "exportFormats": [
    ],
    "includedLayerIds": [
    ],
    "layerOptions": 0,
    "shouldTrim": false
  },
  "frame": {
    "_class": "rect",
    "constrainProportions": false,
    "height": 10.45812905579807,
    "width": 4.370279580354687,
    "x": 6.181992843747132,
    "y": 2.123426526784897
  },
  "hasClippingMask": false,
  "isClosed": true,
  "isFixedToViewport": false,
  "isFlippedHorizontal": false,
  "isFlippedVertical": false,
  "isLocked": false,
  "isVisible": true,
  "layerListExpandedType": 0,
  "maintainScrollPosition": false,
  "name": "Path",
  "nameIsFixed": false,
  "pointRadiusBehaviour": 1,
  "points": [
    {
      "_class": "curvePoint",
      "cornerRadius": 0,
      "curveFrom": "{0.13114952649082803, 0.28663847610165683}",
      "curveMode": 2,
      "curveTo": "{0.13348199450353662, 0.28707248714912315}",
      "hasCurveFrom": true,
      "hasCurveTo": true,
      "point": "{0.13334377234409817, 0.2870467676349116}"
    },
    {
      "_class": "curvePoint",
      "cornerRadius": 0,
      "curveFrom": "{0.12134043835531906, 0.28454830071429982}",
      "curveMode": 4,
      "curveTo": "{0.12792788757116494, 0.2860058006247807}",
      "hasCurveFrom": true,
      "hasCurveTo": true,
      "point": "{0.12275361765177945, 0.28498966139553544}"
    },
    {
      "_class": "curvePoint",
      "cornerRadius": 0,
      "curveFrom": "{0.11351379768520339, 0.28258016249932172}",
      "curveMode": 4,
      "curveTo": "{0.12011138973179174, 0.28416444727184537}",
      "hasCurveFrom": true,
      "hasCurveTo": true,
      "point": "{0.11903674546991065, 0.28382779282315446}"
    },
    {
      "_class": "curvePoint",
      "cornerRadius": 0,
      "curveFrom": "{0.10043574681077187, 0.27802366067528356}",
      "curveMode": 4,
      "curveTo": "{0.11296296229987174, 0.28238824686433078}",
      "hasCurveFrom": false,
      "hasCurveTo": true,
      "point": "{0.10043574681077187, 0.27802366067528356}"
    },
    {
      "_class": "curvePoint",
      "cornerRadius": 0,
      "curveFrom": "{0, 0.23596469472102338}",
      "curveMode": 1,
      "curveTo": "{0, 0.23596469472102338}",
      "hasCurveFrom": false,
      "hasCurveTo": false,
      "point": "{0, 0.23596469472102338}"
    },
    {
      "_class": "curvePoint",
      "cornerRadius": 0,
      "curveFrom": "{0, 1}",
      "curveMode": 1,
      "curveTo": "{0, 1}",
      "hasCurveFrom": false,
      "hasCurveTo": false,
      "point": "{0, 1}"
    },
    {
      "_class": "curvePoint",
      "cornerRadius": 0,
      "curveFrom": "{1, 1}",
      "curveMode": 1,
      "curveTo": "{1, 1}",
      "hasCurveFrom": false,
      "hasCurveTo": false,
      "point": "{1, 1}"
    },
    {
      "_class": "curvePoint",
      "cornerRadius": 0,
      "curveFrom": "{0.999999999999998, 0}",
      "curveMode": 1,
      "curveTo": "{0.999999999999998, 0}",
      "hasCurveFrom": false,
      "hasCurveTo": false,
      "point": "{0.999999999999998, 0}"
    },
    {
      "_class": "curvePoint",
      "cornerRadius": 0,
      "curveFrom": "{0.65316750665381884, 0}",
      "curveMode": 1,
      "curveTo": "{0.65316750665381884, 0}",
      "hasCurveFrom": false,
      "hasCurveTo": false,
      "point": "{0.65316750665381884, 0}"
    },
    {
      "_class": "curvePoint",
      "cornerRadius": 0,
      "curveFrom": "{0.24137079898221733, 0.28724145864557821}",
      "curveMode": 4,
      "curveTo": "{0.26589718674429724, 0.26904917696649733}",
      "hasCurveFrom": true,
      "hasCurveTo": false,
      "point": "{0.26589718674429724, 0.26904917696649733}"
    },
    {
      "_class": "curvePoint",
      "cornerRadius": 0,
      "curveFrom": "{0.14162078487221366, 0.28838370823730641}",
      "curveMode": 4,
      "curveTo": "{0.19030256791713118, 0.29502388514246125}",
      "hasCurveFrom": true,
      "hasCurveTo": true,
      "point": "{0.14631691823153964, 0.28892686319358013}"
    },
    {
      "_class": "curvePoint",
      "cornerRadius": 0,
      "curveFrom": "{0.13361613984421147, 0.28709731628096652}",
      "curveMode": 4,
      "curveTo": "{0.14041508777230133, 0.28824462791895772}",
      "hasCurveFrom": true,
      "hasCurveTo": true,
      "point": "{0.13658204415361649, 0.28760333686433726}"
    }
  ],
  "resizingConstraint": 63,
  "resizingType": 0,
  "rotation": 0,
  "shouldBreakMaskChain": false,
  "style": {
    "_class": "style",
    "blur": {
      "_class": "blur",
      "center": "{0.5, 0.5}",
      "isEnabled": false,
      "motionAngle": 0,
      "radius": 10,
      "saturation": 1,
      "type": 0
    },
    "borderOptions": {
      "_class": "borderOptions",
      "dashPattern": [
      ],
      "isEnabled": true,
      "lineCapStyle": 0,
      "lineJoinStyle": 0
    },
    "borders": [
    ],
    "colorControls": {
      "_class": "colorControls",
      "brightness": 0,
      "contrast": 1,
      "hue": 0,
      "isEnabled": false,
      "saturation": 1
    },
    "contextSettings": {
      "_class": "graphicsContextSettings",
      "blendMode": 0,
      "opacity": 1
    },
    "do_objectID": "D194E890-F4AC-4075-9EF4-991DAEB6E421",
    "endMarkerType": 0,
    "fills": [
      {
        "_class": "fill",
        "color": {
          "_class": "color",
          "alpha": 1,
          "blue": 0.1772959183673469,
          "green": 0.1772959183673469,
          "red": 0.1772959183673469
        },
        "contextSettings": {
          "_class": "graphicsContextSettings",
          "blendMode": 0,
          "opacity": 1
        },
        "fillType": 0,
        "gradient": {
          "_class": "gradient",
          "elipseLength": 0,
          "from": "{0.5, 0}",
          "gradientType": 0,
          "stops": [
            {
              "_class": "gradientStop",
              "color": {
                "_class": "color",
                "alpha": 1,
                "blue": 1,
                "green": 1,
                "red": 1
              },
              "position": 0
            },
            {
              "_class": "gradientStop",
              "color": {
                "_class": "color",
                "alpha": 1,
                "blue": 0,
                "green": 0,
                "red": 0
              },
              "position": 1
            }
          ],
          "to": "{0.5, 1}"
        },
        "isEnabled": true,
        "noiseIndex": 0,
        "noiseIntensity": 0,
        "patternFillType": 1,
        "patternTileScale": 1
      }
    ],
    "innerShadows": [
    ],
    "miterLimit": 10,
    "shadows": [
    ],
    "startMarkerType": 0,
    "windingRule": 0
  }
}