{
  "_class": "symbolInstance",
  "booleanOperation": -1,
  "clippingMaskMode": 0,
  "do_objectID": "EB904289-82AC-4BC0-9E95-172CA46F116A",
  "exportOptions": {
    "_class": "exportOptions",
    "do_objectID": "9E4E60DB-EB6C-4F9B-9A0E-1F3D6FF4564B",
    "exportFormats": [
    ],
    "includedLayerIds": [
    ],
    "layerOptions": 0,
    "shouldTrim": false
  },
  "frame": {
    "_class": "rect",
    "constrainProportions": false,
    "do_objectID": "76046663-6F73-4C02-A000-1211F3D872A8",
    "height": 40,
    "width": 125,
    "x": 1,
    "y": 576
  },
  "hasClippingMask": false,
  "horizontalSpacing": 0,
  "isFixedToViewport": false,
  "isFlippedHorizontal": false,
  "isFlippedVertical": false,
  "isLocked": false,
  "isVisible": true,
  "layerListExpandedType": 0,
  "name": "tab / item / focus",
  "nameIsFixed": true,
  "overrideValues": [
  ],
  "resizingConstraint": 63,
  "resizingType": 0,
  "rotation": 0,
  "scale": 1,
  "shouldBreakMaskChain": false,
  "style": {
    "_class": "style",
    "do_objectID": "B1210065-5F2D-4494-8597-3C195422AF88",
    "endMarkerType": 0,
    "miterLimit": 10,
    "startMarkerType": 0,
    "windingRule": 1
  },
  "symbolID": "3195F9F7-1F28-4E20-A475-CCAB3D4CB2EE",
  "verticalSpacing": 0
}