{
  "_class": "artboard",
  "backgroundColor": {
    "_class": "color",
    "alpha": 1,
    "blue": 1,
    "do_objectID": "41C58EE6-216C-42FE-84A1-E12A45B8B8A2",
    "green": 1,
    "red": 1
  },
  "booleanOperation": -1,
  "clippingMaskMode": 0,
  "do_objectID": "FB92BAC7-C80D-460C-B938-FD2A84291983",
  "exportOptions": {
    "_class": "exportOptions",
    "do_objectID": "CCEF7F4D-AEBB-4221-861C-BE62E6E869F3",
    "exportFormats": [
    ],
    "includedLayerIds": [
    ],
    "layerOptions": 0,
    "shouldTrim": false
  },
  "frame": {
    "_class": "rect",
    "constrainProportions": false,
    "do_objectID": "D6787B6A-3F70-4685-B6A6-4AB0C22231D3",
    "height": 1547,
    "width": 1440,
    "x": 1705,
    "y": -1056
  },
  "grid": {
    "_class": "simpleGrid",
    "do_objectID": "F8B62CA7-ABFD-4F9C-B2D8-91F53D25A13F",
    "gridSize": 8,
    "isEnabled": false,
    "thickGridTimes": 16
  },
  "groupLayout": {
    "_class": "MSImmutableFreeformGroupLayout",
    "do_objectID": "B33D284E-1F0E-4B95-A562-057266E3BF83"
  },
  "hasBackgroundColor": false,
  "hasClickThrough": false,
  "hasClippingMask": false,
  "horizontalRulerData": {
    "_class": "rulerData",
    "base": 0,
    "do_objectID": "EA542AC6-6B19-4CEE-8D37-03DB9DED34C5",
    "guides": [
    ]
  },
  "includeBackgroundColorInExport": true,
  "includeInCloudUpload": true,
  "isFixedToViewport": false,
  "isFlippedHorizontal": false,
  "isFlippedVertical": false,
  "isFlowHome": false,
  "isLocked": false,
  "isVisible": true,
  "layerListExpandedType": 1,
  "layers": [
    {
      "class": "group",
      "id": "9DA39FC9-C2F8-4A4C-B4CF-E2F8238782AC"
    },
    {
      "class": "group",
      "id": "8B265A58-6384-4246-9A3C-C70CF1E6D05C"
    },
    {
      "class": "symbolInstance",
      "id": "9B14883A-E30D-446D-8921-75AE5D43D498"
    },
    {
      "class": "rectangle",
      "id": "59507F8B-AA51-4FFA-AF3D-10B5B306763B"
    },
    {
      "class": "group",
      "id": "C96632B7-86F1-47BB-B5E6-001E017C73AE"
    },
    {
      "class": "group",
      "id": "FCC55497-3D3A-42A5-8174-471692BB78EE"
    },
    {
      "class": "symbolInstance",
      "id": "64646609-1C97-4D6F-A379-1B583D1FA58E"
    }
  ],
  "layout": {
    "_class": "layoutGrid",
    "columnWidth": 75,
    "do_objectID": "4396F137-C2F3-4928-87A5-CA44BA424DE8",
    "drawHorizontal": true,
    "drawHorizontalLines": false,
    "drawVertical": true,
    "gutterHeight": 4,
    "gutterWidth": 20,
    "guttersOutside": false,
    "horizontalOffset": 160,
    "isEnabled": false,
    "numberOfColumns": 12,
    "rowHeightMultiplication": 1,
    "totalWidth": 1120
  },
  "name": "Desktop HD Copy",
  "nameIsFixed": false,
  "presetDictionary": {
    "allowResizedMatching": 0,
    "height": 1024,
    "name": "Desktop HD",
    "offersLandscapeVariant": 0,
    "width": 1440
  },
  "resizesContent": false,
  "resizingConstraint": 63,
  "resizingType": 0,
  "rotation": 0,
  "shouldBreakMaskChain": true,
  "style": {
    "_class": "style",
    "do_objectID": "7781B707-4412-4DCD-A50C-DF8C8D684EA3",
    "endMarkerType": 0,
    "miterLimit": 10,
    "startMarkerType": 0,
    "windingRule": 1
  },
  "verticalRulerData": {
    "_class": "rulerData",
    "base": 0,
    "do_objectID": "3F233B4D-3555-4E18-B0C1-48B2D8C803B6",
    "guides": [
    ]
  }
}