{
  "_class": "shapePath",
  "booleanOperation": -1,
  "clippingMaskMode": 0,
  "do_objectID": "491520FF-3392-4C40-A67E-253B2BCA43DB",
  "edited": true,
  "exportOptions": {
    "_class": "exportOptions",
    "exportFormats": [
    ],
    "includedLayerIds": [
    ],
    "layerOptions": 0,
    "shouldTrim": false
  },
  "frame": {
    "_class": "rect",
    "constrainProportions": false,
    "height": 16.11811764705881,
    "width": 14.01482352941177,
    "x": 103.7061117647059,
    "y": 0.3013705882352924
  },
  "hasClippingMask": false,
  "isClosed": true,
  "isFixedToViewport": false,
  "isFlippedHorizontal": false,
  "isFlippedVertical": false,
  "isLocked": false,
  "isVisible": true,
  "layerListExpandedType": 0,
  "maintainScrollPosition": false,
  "name": "Fill 19",
  "nameIsFixed": false,
  "pointRadiusBehaviour": 1,
  "points": [
    {
      "_class": "curvePoint",
      "cornerRadius": 0,
      "curveFrom": "{0.89190856739922508, 0.031780094011853673}",
      "curveMode": 4,
      "curveTo": "{1, 0.027718168812589261}",
      "hasCurveFrom": true,
      "hasCurveTo": false,
      "point": "{1, 0.027718168812589261}"
    },
    {
      "_class": "curvePoint",
      "cornerRadius": 0,
      "curveFrom": "{0.87169467622517283, 0.16091865930921709}",
      "curveMode": 4,
      "curveTo": "{0.87169467622517283, 0.059498262824442927}",
      "hasCurveFrom": false,
      "hasCurveTo": true,
      "point": "{0.87169467622517283, 0.16091865930921709}"
    },
    {
      "_class": "curvePoint",
      "cornerRadius": 0,
      "curveFrom": "{0.87169467622517283, 0.70588085019415492}",
      "curveMode": 4,
      "curveTo": "{0.87169467622517283, 0.57740649908031871}",
      "hasCurveFrom": true,
      "hasCurveTo": false,
      "point": "{0.87169467622517283, 0.57740649908031871}"
    },
    {
      "_class": "curvePoint",
      "cornerRadius": 0,
      "curveFrom": "{0.75349629803737261, 0.94860004087471916}",
      "curveMode": 2,
      "curveTo": "{0.85380185685744514, 0.80053137134682217}",
      "hasCurveFrom": true,
      "hasCurveTo": true,
      "point": "{0.8063814784345994, 0.87086143470263644}"
    },
    {
      "_class": "curvePoint",
      "cornerRadius": 0,
      "curveFrom": "{0.41291573627923295, 1}",
      "curveMode": 3,
      "curveTo": "{0.64543424609237332, 1}",
      "hasCurveFrom": true,
      "hasCurveTo": true,
      "point": "{0.51477846985544762, 1}"
    },
    {
      "_class": "curvePoint",
      "cornerRadius": 0,
      "curveFrom": "{0.15319073921729928, 0.84853361945636629}",
      "curveMode": 3,
      "curveTo": "{0.31725232107180634, 0.98173410995299415}",
      "hasCurveFrom": true,
      "hasCurveTo": true,
      "point": "{0.24729697966858707, 0.92494379726139397}"
    },
    {
      "_class": "curvePoint",
      "cornerRadius": 0,
      "curveFrom": "{0.1290986014807852, 0.58146842427958312}",
      "curveMode": 4,
      "curveTo": "{0.1290986014807852, 0.77010525240138983}",
      "hasCurveFrom": false,
      "hasCurveTo": true,
      "point": "{0.1290986014807852, 0.58146842427958312}"
    },
    {
      "_class": "curvePoint",
      "cornerRadius": 0,
      "curveFrom": "{0.1290986014807852, 0.045984058859595278}",
      "curveMode": 4,
      "curveTo": "{0.1290986014807852, 0.14671469446147548}",
      "hasCurveFrom": true,
      "hasCurveTo": false,
      "point": "{0.1290986014807852, 0.14671469446147548}"
    },
    {
      "_class": "curvePoint",
      "cornerRadius": 0,
      "curveFrom": "{0, 0.027718168812589261}",
      "curveMode": 4,
      "curveTo": "{0.10888471030673455, 0.031780094011853673}",
      "hasCurveFrom": false,
      "hasCurveTo": true,
      "point": "{0, 0.027718168812589261}"
    },
    {
      "_class": "curvePoint",
      "cornerRadius": 0,
      "curveFrom": "{0.045099306616524414, 0.002707950132842698}",
      "curveMode": 4,
      "curveTo": "{0, 0}",
      "hasCurveFrom": true,
      "hasCurveTo": false,
      "point": "{0, 0}"
    },
    {
      "_class": "curvePoint",
      "cornerRadius": 0,
      "curveFrom": "{0.27761781642966304, 0.004036378499897483}",
      "curveMode": 2,
      "curveTo": "{0.12131272770008282, 0.004036378499897483}",
      "hasCurveFrom": true,
      "hasCurveTo": true,
      "point": "{0.20372546715242759, 0.004036378499897483}"
    },
    {
      "_class": "curvePoint",
      "cornerRadius": 0,
      "curveFrom": "{0.40668703725467104, 0}",
      "curveMode": 4,
      "curveTo": "{0.35691620636972687, 0.002707950132842698}",
      "hasCurveFrom": false,
      "hasCurveTo": true,
      "point": "{0.40668703725467104, 0}"
    },
    {
      "_class": "curvePoint",
      "cornerRadius": 0,
      "curveFrom": "{0.29783170760371369, 0.031780094011853673}",
      "curveMode": 4,
      "curveTo": "{0.40668703725467104, 0.027718168812589261}",
      "hasCurveFrom": true,
      "hasCurveTo": false,
      "point": "{0.40668703725467104, 0.027718168812589261}"
    },
    {
      "_class": "curvePoint",
      "cornerRadius": 0,
      "curveFrom": "{0.27761781642966304, 0.14671469446147548}",
      "curveMode": 4,
      "curveTo": "{0.27761781642966304, 0.045984058859595278}",
      "hasCurveFrom": false,
      "hasCurveTo": true,
      "point": "{0.27761781642966304, 0.14671469446147548}"
    },
    {
      "_class": "curvePoint",
      "cornerRadius": 0,
      "curveFrom": "{0.27761781642966304, 0.79514101778050272}",
      "curveMode": 4,
      "curveTo": "{0.27761781642966304, 0.60512466789290831}",
      "hasCurveFrom": true,
      "hasCurveTo": false,
      "point": "{0.27761781642966304, 0.60512466789290831}"
    },
    {
      "_class": "curvePoint",
      "cornerRadius": 0,
      "curveFrom": "{0.76903866494300188, 0.9513079910075618}",
      "curveMode": 3,
      "curveTo": "{0.30250323187213513, 0.9513079910075618}",
      "hasCurveFrom": true,
      "hasCurveTo": true,
      "point": "{0.52879304266071192, 0.9513079910075618}"
    },
    {
      "_class": "curvePoint",
      "cornerRadius": 0,
      "curveFrom": "{0.83438124338935249, 0.59296443899448203}",
      "curveMode": 4,
      "curveTo": "{0.83438124338935249, 0.79920294297976702}",
      "hasCurveFrom": false,
      "hasCurveTo": true,
      "point": "{0.83438124338935249, 0.59296443899448203}"
    },
    {
      "_class": "curvePoint",
      "cornerRadius": 0,
      "curveFrom": "{0.83438124338935249, 0.059498262824442927}",
      "curveMode": 4,
      "curveTo": "{0.83438124338935249, 0.16091865930921709}",
      "hasCurveFrom": true,
      "hasCurveTo": false,
      "point": "{0.83438124338935249, 0.16091865930921709}"
    },
    {
      "_class": "curvePoint",
      "cornerRadius": 0,
      "curveFrom": "{0.689740275002938, 0.027718168812589261}",
      "curveMode": 4,
      "curveTo": "{0.79783170760371291, 0.031780094011853673}",
      "hasCurveFrom": false,
      "hasCurveTo": true,
      "point": "{0.689740275002938, 0.027718168812589261}"
    },
    {
      "_class": "curvePoint",
      "cornerRadius": 0,
      "curveFrom": "{0.72784698554471805, 0.002707950132842698}",
      "curveMode": 4,
      "curveTo": "{0.689740275002938, 0}",
      "hasCurveFrom": true,
      "hasCurveTo": false,
      "point": "{0.689740275002938, 0}"
    },
    {
      "_class": "curvePoint",
      "cornerRadius": 0,
      "curveFrom": "{0.90668703725467192, 0.004036378499897483}",
      "curveMode": 2,
      "curveTo": "{0.79783170760371291, 0.004036378499897483}",
      "hasCurveFrom": true,
      "hasCurveTo": true,
      "point": "{0.85224468210130466, 0.004036378499897483}"
    },
    {
      "_class": "curvePoint",
      "cornerRadius": 0,
      "curveFrom": "{1, 0}",
      "curveMode": 4,
      "curveTo": "{0.96500763897050257, 0.002707950132842698}",
      "hasCurveFrom": false,
      "hasCurveTo": true,
      "point": "{1, 0}"
    }
  ],
  "resizingConstraint": 63,
  "resizingType": 0,
  "rotation": 0,
  "shouldBreakMaskChain": false,
  "style": {
    "_class": "style",
    "blur": {
      "_class": "blur",
      "center": "{0.5, 0.5}",
      "isEnabled": false,
      "motionAngle": 0,
      "radius": 10,
      "saturation": 1,
      "type": 0
    },
    "borderOptions": {
      "_class": "borderOptions",
      "dashPattern": [
      ],
      "isEnabled": true,
      "lineCapStyle": 0,
      "lineJoinStyle": 0
    },
    "borders": [
    ],
    "colorControls": {
      "_class": "colorControls",
      "brightness": 0,
      "contrast": 1,
      "hue": 0,
      "isEnabled": true,
      "saturation": 1
    },
    "contextSettings": {
      "_class": "graphicsContextSettings",
      "blendMode": 0,
      "opacity": 1
    },
    "do_objectID": "AA419C7E-CC73-4FF4-99AE-0D79B6049A82",
    "endMarkerType": 0,
    "fills": [
      {
        "_class": "fill",
        "color": {
          "_class": "color",
          "alpha": 1,
          "blue": 0.1764705882352941,
          "green": 0.1764705882352941,
          "red": 0.1764705882352941
        },
        "contextSettings": {
          "_class": "graphicsContextSettings",
          "blendMode": 0,
          "opacity": 1
        },
        "fillType": 0,
        "gradient": {
          "_class": "gradient",
          "elipseLength": 0,
          "from": "{0.5, 0}",
          "gradientType": 0,
          "stops": [
            {
              "_class": "gradientStop",
              "color": {
                "_class": "color",
                "alpha": 1,
                "blue": 1,
                "green": 1,
                "red": 1
              },
              "position": 0
            },
            {
              "_class": "gradientStop",
              "color": {
                "_class": "color",
                "alpha": 1,
                "blue": 0,
                "green": 0,
                "red": 0
              },
              "position": 1
            }
          ],
          "to": "{0.5, 1}"
        },
        "isEnabled": true,
        "noiseIndex": 0,
        "noiseIntensity": 0,
        "patternFillType": 1,
        "patternTileScale": 1
      }
    ],
    "innerShadows": [
    ],
    "miterLimit": 10,
    "shadows": [
    ],
    "startMarkerType": 0,
    "windingRule": 1
  }
}