{
  "_class": "symbolInstance",
  "booleanOperation": -1,
  "clippingMaskMode": 0,
  "do_objectID": "53718BF6-831C-4D5D-8508-F4A716545AC9",
  "exportOptions": {
    "_class": "exportOptions",
    "do_objectID": "7494A11A-13EE-470A-9F4A-FC394590BB11",
    "exportFormats": [
    ],
    "includedLayerIds": [
    ],
    "layerOptions": 0,
    "shouldTrim": false
  },
  "frame": {
    "_class": "rect",
    "constrainProportions": false,
    "do_objectID": "285313D2-AF30-454A-A862-8BACC188EF17",
    "height": 24,
    "width": 100,
    "x": 0,
    "y": 124
  },
  "hasClippingMask": false,
  "horizontalSpacing": 0,
  "isFixedToViewport": false,
  "isFlippedHorizontal": false,
  "isFlippedVertical": false,
  "isLocked": false,
  "isVisible": true,
  "layerListExpandedType": 0,
  "name": "tag / 02 filterable / gray / 01 enabled copy",
  "nameIsFixed": false,
  "overrideValues": [
    {
      "_class": "overrideValue",
      "do_objectID": "9CEEE66F-0CCA-48A0-9424-E5B4F9380690",
      "overrideName": "4E619736-A7AA-4972-ABA8-8A9E9294E1D0_stringValue",
      "value": "Component"
    }
  ],
  "resizingConstraint": 63,
  "resizingType": 0,
  "rotation": 0,
  "scale": 1,
  "shouldBreakMaskChain": false,
  "style": {
    "_class": "style",
    "do_objectID": "97932387-69C6-4322-B9B5-799524873678",
    "endMarkerType": 0,
    "miterLimit": 10,
    "startMarkerType": 0,
    "windingRule": 1
  },
  "symbolID": "2EB51609-EE01-43A4-8533-832222E8FE9E",
  "verticalSpacing": 0
}