{
  "_class": "symbolInstance",
  "booleanOperation": -1,
  "clippingMaskMode": 0,
  "do_objectID": "AC5FC993-C061-496C-9CA0-D05CEB3D88D0",
  "exportOptions": {
    "_class": "exportOptions",
    "do_objectID": "68E04AAE-E549-4337-BBC2-F28EB6D630D7",
    "exportFormats": [
    ],
    "includedLayerIds": [
    ],
    "layerOptions": 0,
    "shouldTrim": false
  },
  "frame": {
    "_class": "rect",
    "constrainProportions": false,
    "do_objectID": "4B2EFDBB-B611-4551-95CB-6E3CE5E0BEDE",
    "height": 400,
    "width": 256,
    "x": 0,
    "y": 0
  },
  "hasClippingMask": false,
  "horizontalSpacing": 0,
  "isFixedToViewport": false,
  "isFlippedHorizontal": false,
  "isFlippedVertical": false,
  "isLocked": false,
  "isVisible": true,
  "layerListExpandedType": 0,
  "name": "base",
  "nameIsFixed": true,
  "overrideValues": [
  ],
  "resizingConstraint": 63,
  "resizingType": 0,
  "rotation": 0,
  "scale": 1,
  "shouldBreakMaskChain": false,
  "style": {
    "_class": "style",
    "do_objectID": "C7871B81-4E72-4A2D-9B9A-1F04B275E732",
    "endMarkerType": 0,
    "miterLimit": 10,
    "startMarkerType": 0,
    "windingRule": 1
  },
  "symbolID": "706B7F4E-0DF3-4548-8486-22CB4AC8A300",
  "verticalSpacing": 0
}