{
  "_class": "group",
  "booleanOperation": 0,
  "clippingMaskMode": 0,
  "do_objectID": "B08A3875-67D8-4015-8F74-F480476BEBDD",
  "exportOptions": {
    "_class": "exportOptions",
    "exportFormats": [
    ],
    "includedLayerIds": [
    ],
    "layerOptions": 0,
    "shouldTrim": false
  },
  "frame": {
    "_class": "rect",
    "constrainProportions": false,
    "height": 20,
    "width": 549,
    "x": 447,
    "y": 82
  },
  "groupLayout": {
    "_class": "MSImmutableFreeformGroupLayout"
  },
  "hasClickThrough": false,
  "hasClippingMask": false,
  "isFixedToViewport": false,
  "isFlippedHorizontal": false,
  "isFlippedVertical": false,
  "isLocked": false,
  "isVisible": true,
  "layerListExpandedType": 0,
  "layers": [
    {
      "class": "text",
      "id": "968FF3E0-D9D6-4A4C-8487-8F62C5C1B52A"
    },
    {
      "class": "text",
      "id": "8200258A-EBBF-441F-8852-9C8638C8DE5C"
    },
    {
      "class": "text",
      "id": "B0872587-5C4B-47C6-8AD9-508E10C23F9E"
    },
    {
      "class": "text",
      "id": "25BD8EFE-A9F0-42E0-A27B-87505206ECE4"
    },
    {
      "class": "text",
      "id": "3911D4C4-9C31-420C-9D9D-193A85C9CB31"
    },
    {
      "class": "text",
      "id": "363D5DF0-3196-41CE-A4F4-28814D32C7CC"
    },
    {
      "class": "text",
      "id": "374DA8DE-EFAD-4E2B-8795-5C7A96CBC134"
    }
  ],
  "maintainScrollPosition": false,
  "name": "Nav",
  "nameIsFixed": true,
  "resizingConstraint": 63,
  "resizingType": 0,
  "rotation": 0,
  "shouldBreakMaskChain": false,
  "style": {
    "_class": "style",
    "blur": {
      "_class": "blur",
      "center": "{0.5, 0.5}",
      "isEnabled": false,
      "motionAngle": 0,
      "radius": 10,
      "saturation": 1,
      "type": 0
    },
    "borderOptions": {
      "_class": "borderOptions",
      "dashPattern": [
      ],
      "isEnabled": true,
      "lineCapStyle": 0,
      "lineJoinStyle": 0
    },
    "borders": [
    ],
    "colorControls": {
      "_class": "colorControls",
      "brightness": 0,
      "contrast": 1,
      "hue": 0,
      "isEnabled": true,
      "saturation": 1
    },
    "contextSettings": {
      "_class": "graphicsContextSettings",
      "blendMode": 0,
      "opacity": 1
    },
    "do_objectID": "EC4C31D2-AED7-49B2-8617-5D691835E7F1",
    "endMarkerType": 0,
    "fills": [
    ],
    "innerShadows": [
    ],
    "miterLimit": 10,
    "shadows": [
    ],
    "startMarkerType": 0,
    "windingRule": 1
  }
}