{
  "_class": "shapePath",
  "booleanOperation": -1,
  "clippingMaskMode": 0,
  "do_objectID": "011E31A2-C08A-48D0-BF0C-43DE86F348EC",
  "edited": true,
  "exportOptions": {
    "_class": "exportOptions",
    "do_objectID": "74B13F88-388A-4555-8591-C812CFC8B0C4",
    "exportFormats": [
    ],
    "includedLayerIds": [
    ],
    "layerOptions": 0,
    "shouldTrim": false
  },
  "frame": {
    "_class": "rect",
    "constrainProportions": false,
    "do_objectID": "2B31ABDB-1E59-457F-BFF9-D98E9A83F63D",
    "height": 0.3844848407658841,
    "width": 0.4817014699217523,
    "x": 40.1909753670223,
    "y": 12.46301469571651
  },
  "hasClippingMask": false,
  "isClosed": true,
  "isFixedToViewport": false,
  "isFlippedHorizontal": false,
  "isFlippedVertical": false,
  "isLocked": false,
  "isVisible": true,
  "layerListExpandedType": 0,
  "name": "Path",
  "nameIsFixed": false,
  "pointRadiusBehaviour": 0,
  "points": [
    {
      "_class": "curvePoint",
      "cornerRadius": 0,
      "curveFrom": "{0.080448552764556397, 0.51255009491668724}",
      "curveMode": 4,
      "curveTo": "{0.062755079236547287, 0.63488715460873235}",
      "hasCurveFrom": true,
      "hasCurveTo": true,
      "point": "{0.10724152696413111, 0.65091752794769508}"
    },
    {
      "_class": "curvePoint",
      "cornerRadius": 0,
      "curveFrom": "{0.21188578468696312, 0.17907614427335838}",
      "curveMode": 4,
      "curveTo": "{0.053655578564991271, 0.37333895802573025}",
      "hasCurveFrom": true,
      "hasCurveTo": true,
      "point": "{0.026862604365426139, 0.23497152499472249}"
    },
    {
      "_class": "curvePoint",
      "cornerRadius": 0,
      "curveFrom": "{0.65557069706091353, 0.044716304577091276}",
      "curveMode": 3,
      "curveTo": "{0.39640343719340676, 0.1231807635519943}",
      "hasCurveFrom": true,
      "hasCurveTo": true,
      "point": "{0.58159512678664471, 0.067074456865636914}"
    },
    {
      "_class": "curvePoint",
      "cornerRadius": 0,
      "curveFrom": "{0.80571245814150649, 0.1244463193419061}",
      "curveMode": 4,
      "curveTo": "{0.72937775806349103, 0.022358152288545638}",
      "hasCurveFrom": true,
      "hasCurveTo": true,
      "point": "{0.8030163097943771, 0}"
    },
    {
      "_class": "curvePoint",
      "cornerRadius": 0,
      "curveFrom": "{1.1086921286498124, 0.46973212402446368}",
      "curveMode": 4,
      "curveTo": "{0.87193660191778888, 0.11727483653237394}",
      "hasCurveFrom": true,
      "hasCurveTo": true,
      "point": "{0.94102540331290174, 0.10440835266821474}"
    },
    {
      "_class": "curvePoint",
      "cornerRadius": 0,
      "curveFrom": "{0.7795935210287166, 0.88799831259227857}",
      "curveMode": 4,
      "curveTo": "{0.8540746191180788, 0.5117063910567381}",
      "hasCurveFrom": true,
      "hasCurveTo": true,
      "point": "{0.96394266426347841, 0.83231385783590772}"
    },
    {
      "_class": "curvePoint",
      "cornerRadius": 0,
      "curveFrom": "{0.37247512061266252, 0.95886943682767478}",
      "curveMode": 4,
      "curveTo": "{0.59457034070718917, 0.94410461927863587}",
      "hasCurveFrom": true,
      "hasCurveTo": true,
      "point": "{0.40971566965734363, 1}"
    },
    {
      "_class": "curvePoint",
      "cornerRadius": 0,
      "curveFrom": "{0.32950525633033961, 0.7068129086690591}",
      "curveMode": 4,
      "curveTo": "{0.39926809481223718, 0.74836532377135889}",
      "hasCurveFrom": true,
      "hasCurveTo": true,
      "point": "{0.35612972125821335, 0.72242143007804727}"
    },
    {
      "_class": "curvePoint",
      "cornerRadius": 0,
      "curveFrom": "{0.19250721844199212, 0.73444421008226923}",
      "curveMode": 4,
      "curveTo": "{0.27389719667086465, 0.76734866062011975}",
      "hasCurveFrom": true,
      "hasCurveTo": true,
      "point": "{0.24474509266756242, 0.75616958447584703}"
    },
    {
      "_class": "curvePoint",
      "cornerRadius": 0,
      "curveFrom": "{-0.047955512267328457, 0.76861421641004357}",
      "curveMode": 3,
      "curveTo": "{0.069663959376057613, 0.85867960345919403}",
      "hasCurveFrom": true,
      "hasCurveTo": true,
      "point": "{0.023323909659820487, 0.82324404134149587}"
    }
  ],
  "resizingConstraint": 63,
  "resizingType": 0,
  "rotation": 0,
  "shouldBreakMaskChain": false,
  "style": {
    "_class": "style",
    "do_objectID": "396A5264-2464-4A38-8686-2B746D7A3B23",
    "endMarkerType": 0,
    "fills": [
      {
        "_class": "fill",
        "color": {
          "_class": "color",
          "alpha": 1,
          "blue": 0.1764705882352941,
          "green": 0.1764705882352941,
          "red": 0.1764705882352941
        },
        "fillType": 0,
        "isEnabled": true,
        "noiseIndex": 0,
        "noiseIntensity": 0,
        "patternFillType": 1,
        "patternTileScale": 1
      }
    ],
    "miterLimit": 10,
    "startMarkerType": 0,
    "windingRule": 1
  }
}