{
  "_class": "shapePath",
  "booleanOperation": -1,
  "clippingMaskMode": 0,
  "do_objectID": "0500FD93-E9A5-4128-B21E-D6001B2D1BC7",
  "edited": true,
  "exportOptions": {
    "_class": "exportOptions",
    "do_objectID": "6EF194C8-599E-4D98-980B-BD3F32086C97",
    "exportFormats": [
    ],
    "includedLayerIds": [
    ],
    "layerOptions": 0,
    "shouldTrim": false
  },
  "frame": {
    "_class": "rect",
    "constrainProportions": false,
    "do_objectID": "08101335-3820-43D2-95DD-B44B9498AC29",
    "height": 0.1058906030855553,
    "width": 0.1059863482545644,
    "x": 25.18627547176862,
    "y": 34.3309296472606
  },
  "hasClippingMask": false,
  "isClosed": true,
  "isFixedToViewport": false,
  "isFlippedHorizontal": false,
  "isFlippedVertical": false,
  "isLocked": false,
  "isVisible": true,
  "layerListExpandedType": 0,
  "name": "Path",
  "nameIsFixed": false,
  "pointRadiusBehaviour": 0,
  "points": [
    {
      "_class": "curvePoint",
      "cornerRadius": 0,
      "curveFrom": "{-0.25699653643761167, 0.51743705861588296}",
      "curveMode": 3,
      "curveTo": "{0.32100346356241971, 0.8674370586159057}",
      "hasCurveFrom": true,
      "hasCurveTo": true,
      "point": "{0.11900346356242153, 0.7454370586158916}"
    },
    {
      "_class": "curvePoint",
      "cornerRadius": 0,
      "curveFrom": "{0.94100346356242426, 0.2454370586158916}",
      "curveMode": 4,
      "curveTo": "{0.36000346356240698, -0.10556294138410749}",
      "hasCurveFrom": true,
      "hasCurveTo": true,
      "point": "{0.56400346356241471, 0.015437058615873411}"
    }
  ],
  "resizingConstraint": 63,
  "resizingType": 0,
  "rotation": 0,
  "shouldBreakMaskChain": false,
  "style": {
    "_class": "style",
    "do_objectID": "2C9A841D-E0C7-44F4-BCDC-AC3FB8C62EC6",
    "endMarkerType": 0,
    "fills": [
      {
        "_class": "fill",
        "color": {
          "_class": "color",
          "alpha": 1,
          "blue": 0.1764705882352941,
          "green": 0.1764705882352941,
          "red": 0.1764705882352941
        },
        "fillType": 0,
        "isEnabled": true,
        "noiseIndex": 0,
        "noiseIntensity": 0,
        "patternFillType": 1,
        "patternTileScale": 1
      }
    ],
    "miterLimit": 10,
    "startMarkerType": 0,
    "windingRule": 1
  }
}