{
  "_class": "shapePath",
  "booleanOperation": -1,
  "clippingMaskMode": 0,
  "do_objectID": "07211CFD-6184-4839-843B-4E02732421D6",
  "edited": true,
  "exportOptions": {
    "_class": "exportOptions",
    "do_objectID": "439DF74D-D7CB-48A6-A23D-15CE3513EB61",
    "exportFormats": [
    ],
    "includedLayerIds": [
    ],
    "layerOptions": 0,
    "shouldTrim": false
  },
  "frame": {
    "_class": "rect",
    "constrainProportions": false,
    "do_objectID": "EE4C691F-4311-4C2E-9659-C9AFD9EBCF6F",
    "height": 0.158384073827424,
    "width": 0.2394549334197436,
    "x": 42.32621637360501,
    "y": 12.15784353861841
  },
  "hasClippingMask": false,
  "isClosed": true,
  "isFixedToViewport": false,
  "isFlippedHorizontal": false,
  "isFlippedVertical": false,
  "isLocked": false,
  "isVisible": true,
  "layerListExpandedType": 0,
  "name": "Path",
  "nameIsFixed": false,
  "pointRadiusBehaviour": 0,
  "points": [
    {
      "_class": "curvePoint",
      "cornerRadius": 0,
      "curveFrom": "{0.29694915254239884, 0.21710189452124101}",
      "curveMode": 4,
      "curveTo": "{0.03627118644070608, 0.5504352278545841}",
      "hasCurveFrom": true,
      "hasCurveTo": true,
      "point": "{0, 0.32565284178186155}"
    },
    {
      "_class": "curvePoint",
      "cornerRadius": 0,
      "curveFrom": "{0.92813559322034378, 0.22427035330260825}",
      "curveMode": 4,
      "curveTo": "{0.59322033898304172, 0.10855094726062051}",
      "hasCurveFrom": true,
      "hasCurveTo": true,
      "point": "{0.89186440677967627, 0}"
    },
    {
      "_class": "curvePoint",
      "cornerRadius": 0,
      "curveFrom": "{0.70169491525424343, 0.78289810547875893}",
      "curveMode": 4,
      "curveTo": "{0.96406779661017195, 0.44956477214541596}",
      "hasCurveFrom": true,
      "hasCurveTo": true,
      "point": "{1, 0.67383512544802415}"
    },
    {
      "_class": "curvePoint",
      "cornerRadius": 0,
      "curveFrom": "{0.07220338983053419, 0.77572964669739175}",
      "curveMode": 4,
      "curveTo": "{0.40508474576272258, 0.89144905273937947}",
      "hasCurveFrom": true,
      "hasCurveTo": true,
      "point": "{0.10813559322036229, 1}"
    }
  ],
  "resizingConstraint": 63,
  "resizingType": 0,
  "rotation": 0,
  "shouldBreakMaskChain": false,
  "style": {
    "_class": "style",
    "do_objectID": "45E427FB-CA97-433B-AE76-15E0BE7E9996",
    "endMarkerType": 0,
    "fills": [
      {
        "_class": "fill",
        "color": {
          "_class": "color",
          "alpha": 1,
          "blue": 0.1764705882352941,
          "green": 0.1764705882352941,
          "red": 0.1764705882352941
        },
        "fillType": 0,
        "isEnabled": true,
        "noiseIndex": 0,
        "noiseIntensity": 0,
        "patternFillType": 1,
        "patternTileScale": 1
      }
    ],
    "miterLimit": 10,
    "startMarkerType": 0,
    "windingRule": 1
  }
}