{
  "_class": "shapePath",
  "booleanOperation": -1,
  "clippingMaskMode": 0,
  "do_objectID": "0E59E746-B2F7-443F-97E1-FB55B3ACB71E",
  "edited": true,
  "exportOptions": {
    "_class": "exportOptions",
    "do_objectID": "4D8D5574-1D5E-447C-B34A-D221963153F6",
    "exportFormats": [
    ],
    "includedLayerIds": [
    ],
    "layerOptions": 0,
    "shouldTrim": false
  },
  "frame": {
    "_class": "rect",
    "constrainProportions": false,
    "do_objectID": "3DB94978-21D4-49E9-8EAA-83718DD2D8F3",
    "height": 0.1058906030855539,
    "width": 0.1059863482545467,
    "x": 24.14276388131347,
    "y": 0.9017102932675144
  },
  "hasClippingMask": false,
  "isClosed": true,
  "isFixedToViewport": false,
  "isFlippedHorizontal": false,
  "isFlippedVertical": false,
  "isLocked": false,
  "isVisible": true,
  "layerListExpandedType": 0,
  "name": "Path",
  "nameIsFixed": false,
  "pointRadiusBehaviour": 0,
  "points": [
    {
      "_class": "curvePoint",
      "cornerRadius": 0,
      "curveFrom": "{-0.25830320041302457, 0.51396169530313074}",
      "curveMode": 3,
      "curveTo": "{0.32169679958695951, 0.86596169530310618}",
      "hasCurveFrom": true,
      "hasCurveTo": true,
      "point": "{0.11969679958696133, 0.74396169530309209}"
    },
    {
      "_class": "curvePoint",
      "cornerRadius": 0,
      "curveFrom": "{0.94269679958694041, 0.24596169530310164}",
      "curveMode": 3,
      "curveTo": "{0.36169679958697998, -0.10703830469690701}",
      "hasCurveFrom": true,
      "hasCurveTo": true,
      "point": "{0.56469679958695451, 0.015961695303083445}"
    }
  ],
  "resizingConstraint": 63,
  "resizingType": 0,
  "rotation": 0,
  "shouldBreakMaskChain": false,
  "style": {
    "_class": "style",
    "do_objectID": "4A273B67-9497-44AF-B796-8445621AF208",
    "endMarkerType": 0,
    "fills": [
      {
        "_class": "fill",
        "color": {
          "_class": "color",
          "alpha": 1,
          "blue": 0.1764705882352941,
          "green": 0.1764705882352941,
          "red": 0.1764705882352941
        },
        "fillType": 0,
        "isEnabled": true,
        "noiseIndex": 0,
        "noiseIntensity": 0,
        "patternFillType": 1,
        "patternTileScale": 1
      }
    ],
    "miterLimit": 10,
    "startMarkerType": 0,
    "windingRule": 1
  }
}