{
  "_class": "shapePath",
  "booleanOperation": -1,
  "clippingMaskMode": 0,
  "do_objectID": "16FB8722-7507-4E88-A1CA-BDB13934AB79",
  "edited": true,
  "exportOptions": {
    "_class": "exportOptions",
    "do_objectID": "F84E3370-660F-47BE-8C3F-CB5239C87986",
    "exportFormats": [
    ],
    "includedLayerIds": [
    ],
    "layerOptions": 0,
    "shouldTrim": false
  },
  "frame": {
    "_class": "rect",
    "constrainProportions": false,
    "do_objectID": "0E23C2C2-6D05-44C1-9048-0F34B5AF099D",
    "height": 0.1058906030855553,
    "width": 0.1059863482545715,
    "x": 17.60854174972289,
    "y": 16.38919110361032
  },
  "hasClippingMask": false,
  "isClosed": true,
  "isFixedToViewport": false,
  "isFlippedHorizontal": false,
  "isFlippedVertical": false,
  "isLocked": false,
  "isVisible": true,
  "layerListExpandedType": 0,
  "name": "Path",
  "nameIsFixed": false,
  "pointRadiusBehaviour": 0,
  "points": [
    {
      "_class": "curvePoint",
      "cornerRadius": 0,
      "curveFrom": "{0.0049999999999954525, 0.003161895003842119}",
      "curveMode": 4,
      "curveTo": "{0.014999999999986358, 0.09116189500383598}",
      "hasCurveFrom": true,
      "hasCurveTo": true,
      "point": "{0, 0.0021618950038373441}"
    },
    {
      "_class": "curvePoint",
      "cornerRadius": 0,
      "curveFrom": "{0.019000000000005457, 0.10216189500386008}",
      "curveMode": 4,
      "curveTo": "{0.01300000000000523, -0.00083810499614855871}",
      "hasCurveFrom": true,
      "hasCurveTo": true,
      "point": "{0.016999999999995907, 0.00016189500385621614}"
    },
    {
      "_class": "curvePoint",
      "cornerRadius": 0,
      "curveFrom": "{0.031999999999982265, 0.17816189500385349}",
      "curveMode": 4,
      "curveTo": "{0.04399999999998272, 0.16716189500385781}",
      "hasCurveFrom": true,
      "hasCurveTo": true,
      "point": "{0.068999999999988404, 0.23116189500385076}"
    }
  ],
  "resizingConstraint": 63,
  "resizingType": 0,
  "rotation": 0,
  "shouldBreakMaskChain": false,
  "style": {
    "_class": "style",
    "do_objectID": "8BDAFD7A-B8A3-4377-99FE-7E1168C24B29",
    "endMarkerType": 0,
    "fills": [
      {
        "_class": "fill",
        "color": {
          "_class": "color",
          "alpha": 1,
          "blue": 0.1764705882352941,
          "green": 0.1764705882352941,
          "red": 0.1764705882352941
        },
        "fillType": 0,
        "isEnabled": true,
        "noiseIndex": 0,
        "noiseIntensity": 0,
        "patternFillType": 1,
        "patternTileScale": 1
      }
    ],
    "miterLimit": 10,
    "startMarkerType": 0,
    "windingRule": 1
  }
}