{
  "_class": "shapePath",
  "booleanOperation": -1,
  "clippingMaskMode": 0,
  "do_objectID": "1A5DC40B-AE50-4D42-BEBE-511F228D2ADF",
  "edited": true,
  "exportOptions": {
    "_class": "exportOptions",
    "do_objectID": "17D04157-3605-4926-BEC2-D01CF0404DFE",
    "exportFormats": [
    ],
    "includedLayerIds": [
    ],
    "layerOptions": 0,
    "shouldTrim": false
  },
  "frame": {
    "_class": "rect",
    "constrainProportions": false,
    "do_objectID": "8BFB0D07-ADCE-47D7-903D-EE821E817748",
    "height": 0.1499470055174843,
    "width": 0.24648989288103,
    "x": 40.30037339750546,
    "y": 12.88553731495465
  },
  "hasClippingMask": false,
  "isClosed": true,
  "isFixedToViewport": false,
  "isFlippedHorizontal": false,
  "isFlippedVertical": false,
  "isLocked": false,
  "isVisible": true,
  "layerListExpandedType": 0,
  "name": "Path",
  "nameIsFixed": false,
  "pointRadiusBehaviour": 0,
  "points": [
    {
      "_class": "curvePoint",
      "cornerRadius": 0,
      "curveFrom": "{0.8244786841455497, 0.51973113318425468}",
      "curveMode": 4,
      "curveTo": "{0.63216264576094072, 0.32773175512165115}",
      "hasCurveFrom": true,
      "hasCurveTo": true,
      "point": "{0.67793649736275996, 0.37262175055601854}"
    },
    {
      "_class": "curvePoint",
      "cornerRadius": 0,
      "curveFrom": "{0.96970363778871249, 0.75932472327362321}",
      "curveMode": 4,
      "curveTo": "{0.8742042351662308, 0.23795176425294712}",
      "hasCurveFrom": true,
      "hasCurveTo": true,
      "point": "{0.9473106744151677, 0.64250256648063475}"
    },
    {
      "_class": "curvePoint",
      "cornerRadius": 0,
      "curveFrom": "{0.65257975942506397, 0.94158892160349039}",
      "curveMode": 4,
      "curveTo": "{0.98024150290569023, 0.88263699988847677}",
      "hasCurveFrom": true,
      "hasCurveTo": true,
      "point": "{1, 1}"
    },
    {
      "_class": "curvePoint",
      "cornerRadius": 0,
      "curveFrom": "{-0.05642097797573177, 0.34395705467625254}",
      "curveMode": 4,
      "curveTo": "{0.37727803324435388, 0.68901509187042231}",
      "hasCurveFrom": true,
      "hasCurveTo": true,
      "point": "{0.028211251244893563, 0.63114485679241694}"
    },
    {
      "_class": "curvePoint",
      "cornerRadius": 0,
      "curveFrom": "{0.28408378861619121, 0.24660525734873656}",
      "curveMode": 4,
      "curveTo": "{0.06443516258446462, 0.26120802694785628}",
      "hasCurveFrom": true,
      "hasCurveTo": true,
      "point": "{0.19154816055784193, 0.18981670890767791}"
    },
    {
      "_class": "curvePoint",
      "cornerRadius": 0,
      "curveFrom": "{0.67003309852503601, 0.071372022159207849}",
      "curveMode": 4,
      "curveTo": "{0.55115280767427999, -0.076819047106005761}",
      "hasCurveFrom": true,
      "hasCurveTo": true,
      "point": "{0.62557648006284372, 0.01728769031060837}"
    }
  ],
  "resizingConstraint": 63,
  "resizingType": 0,
  "rotation": 0,
  "shouldBreakMaskChain": false,
  "style": {
    "_class": "style",
    "do_objectID": "5D64CBC5-1BE8-462C-A7AD-9A10275754A8",
    "endMarkerType": 0,
    "fills": [
      {
        "_class": "fill",
        "color": {
          "_class": "color",
          "alpha": 1,
          "blue": 0.1764705882352941,
          "green": 0.1764705882352941,
          "red": 0.1764705882352941
        },
        "fillType": 0,
        "isEnabled": true,
        "noiseIndex": 0,
        "noiseIntensity": 0,
        "patternFillType": 1,
        "patternTileScale": 1
      }
    ],
    "miterLimit": 10,
    "startMarkerType": 0,
    "windingRule": 1
  }
}