{
  "_class": "shapePath",
  "booleanOperation": -1,
  "clippingMaskMode": 0,
  "do_objectID": "1F564AAA-6039-4450-A501-8A80B030D080",
  "edited": true,
  "exportOptions": {
    "_class": "exportOptions",
    "do_objectID": "36F3BEF9-F811-4B9B-8B74-517B9B76EF9C",
    "exportFormats": [
    ],
    "includedLayerIds": [
    ],
    "layerOptions": 0,
    "shouldTrim": false
  },
  "frame": {
    "_class": "rect",
    "constrainProportions": false,
    "do_objectID": "AF40990C-B4FA-4641-871D-518CC086B4D0",
    "height": 0.1137240091462388,
    "width": 0.1208046002089453,
    "x": 17.6104763318463,
    "y": 34.33331692901432
  },
  "hasClippingMask": false,
  "isClosed": true,
  "isFixedToViewport": false,
  "isFlippedHorizontal": false,
  "isFlippedVertical": false,
  "isLocked": false,
  "isVisible": true,
  "layerListExpandedType": 0,
  "name": "Path",
  "nameIsFixed": false,
  "pointRadiusBehaviour": 0,
  "points": [
    {
      "_class": "curvePoint",
      "cornerRadius": 0,
      "curveFrom": "{-0.11478654942340923, 0.20466284229945939}",
      "curveMode": 4,
      "curveTo": "{0.14726269253411192, 0.86357735897079468}",
      "hasCurveFrom": true,
      "hasCurveTo": true,
      "point": "{0.057897181815261774, 0.58332475610081624}"
    },
    {
      "_class": "curvePoint",
      "cornerRadius": 0,
      "curveFrom": "{0.40124888089292099, 0.42144857072811015}",
      "curveMode": 4,
      "curveTo": "{0.12912082193704322, 0.09626997808509348}",
      "hasCurveFrom": true,
      "hasCurveTo": true,
      "point": "{0.39117006389456432, 0}"
    },
    {
      "_class": "curvePoint",
      "cornerRadius": 0,
      "curveFrom": "{1.1148291243772286, 0.73307805534433101}",
      "curveMode": 4,
      "curveTo": "{0.66531388625010579, 0.39791590941840799}",
      "hasCurveFrom": true,
      "hasCurveTo": true,
      "point": "{0.94214539313855772, 0.3551292524916953}"
    },
    {
      "_class": "curvePoint",
      "cornerRadius": 0,
      "curveFrom": "{0.25006662591743756, 1.1210104114798327}",
      "curveMode": 4,
      "curveTo": "{0.87092175301677621, 0.8428971414562203}",
      "hasCurveFrom": true,
      "hasCurveTo": true,
      "point": "{0.60551290539313618, 0.93916711954131382}"
    }
  ],
  "resizingConstraint": 63,
  "resizingType": 0,
  "rotation": 0,
  "shouldBreakMaskChain": false,
  "style": {
    "_class": "style",
    "do_objectID": "A7D51118-B812-4047-B04F-5BDD32AECF20",
    "endMarkerType": 0,
    "fills": [
      {
        "_class": "fill",
        "color": {
          "_class": "color",
          "alpha": 1,
          "blue": 0.1764705882352941,
          "green": 0.1764705882352941,
          "red": 0.1764705882352941
        },
        "fillType": 0,
        "isEnabled": true,
        "noiseIndex": 0,
        "noiseIntensity": 0,
        "patternFillType": 1,
        "patternTileScale": 1
      }
    ],
    "miterLimit": 10,
    "startMarkerType": 0,
    "windingRule": 1
  }
}