{
  "_class": "shapePath",
  "booleanOperation": -1,
  "clippingMaskMode": 0,
  "do_objectID": "1FED9565-32FA-4563-A756-2E79CEC8F14B",
  "edited": true,
  "exportOptions": {
    "_class": "exportOptions",
    "do_objectID": "8050DFEE-2123-44EB-B93D-D6630418F2AF",
    "exportFormats": [
    ],
    "includedLayerIds": [
    ],
    "layerOptions": 0,
    "shouldTrim": false
  },
  "frame": {
    "_class": "rect",
    "constrainProportions": false,
    "do_objectID": "B3F60323-14BC-43A3-8F06-921BB00EB219",
    "height": 0.1387583975005988,
    "width": 0.1391273748751196,
    "x": 23.47924617670061,
    "y": 25.10949234892774
  },
  "hasClippingMask": false,
  "isClosed": true,
  "isFixedToViewport": false,
  "isFlippedHorizontal": false,
  "isFlippedVertical": false,
  "isLocked": false,
  "isVisible": true,
  "layerListExpandedType": 0,
  "name": "Path",
  "nameIsFixed": false,
  "pointRadiusBehaviour": 0,
  "points": [
    {
      "_class": "curvePoint",
      "cornerRadius": 0,
      "curveFrom": "{0.77129521586931371, 0.78901227352422898}",
      "curveMode": 4,
      "curveTo": "{0.89381563593931357, 0.45470485096432345}",
      "hasCurveFrom": true,
      "hasCurveTo": true,
      "point": "{1, 0.68088836937460839}"
    },
    {
      "_class": "curvePoint",
      "cornerRadius": 0,
      "curveFrom": "{0.21178529754959149, 0.77264757451782162}",
      "curveMode": 4,
      "curveTo": "{0.54609101516918279, 0.8936294564582028}",
      "hasCurveFrom": true,
      "hasCurveTo": true,
      "point": "{0.31796966161024476, 1}"
    },
    {
      "_class": "curvePoint",
      "cornerRadius": 0,
      "curveFrom": "{0.22753792298715675, 0.21098772647573777}",
      "curveMode": 4,
      "curveTo": "{0.10618436406065325, 0.54646405610750348}",
      "hasCurveFrom": true,
      "hasCurveTo": true,
      "point": "{0, 0.31969608416128847}"
    },
    {
      "_class": "curvePoint",
      "cornerRadius": 0,
      "curveFrom": "{0.78646441073509765, 0.22618351841025175}",
      "curveMode": 4,
      "curveTo": "{0.45332555425903587, 0.10637054354176398}",
      "hasCurveFrom": true,
      "hasCurveTo": true,
      "point": "{0.6826137689614703, 0}"
    }
  ],
  "resizingConstraint": 63,
  "resizingType": 0,
  "rotation": 0,
  "shouldBreakMaskChain": false,
  "style": {
    "_class": "style",
    "do_objectID": "B5277EA3-D02E-4F06-9E2E-6C75A3D79B73",
    "endMarkerType": 0,
    "fills": [
      {
        "_class": "fill",
        "color": {
          "_class": "color",
          "alpha": 1,
          "blue": 0.1764705882352941,
          "green": 0.1764705882352941,
          "red": 0.1764705882352941
        },
        "fillType": 0,
        "isEnabled": true,
        "noiseIndex": 0,
        "noiseIntensity": 0,
        "patternFillType": 1,
        "patternTileScale": 1
      }
    ],
    "miterLimit": 10,
    "startMarkerType": 0,
    "windingRule": 1
  }
}