{
  "_class": "shapePath",
  "booleanOperation": -1,
  "clippingMaskMode": 0,
  "do_objectID": "2301294D-408F-4802-8E5F-D25F74C75D2D",
  "edited": true,
  "exportOptions": {
    "_class": "exportOptions",
    "do_objectID": "FDE0AADF-EBA9-4854-9627-EF7E0AFAE545",
    "exportFormats": [
    ],
    "includedLayerIds": [
    ],
    "layerOptions": 0,
    "shouldTrim": false
  },
  "frame": {
    "_class": "rect",
    "constrainProportions": false,
    "do_objectID": "AEE7E87D-4985-4BA1-A97A-906F2E1B976B",
    "height": 0.1058906030855624,
    "width": 0.1059863482545538,
    "x": 4.675129827812471,
    "y": 19.55520529930195
  },
  "hasClippingMask": false,
  "isClosed": true,
  "isFixedToViewport": false,
  "isFlippedHorizontal": false,
  "isFlippedVertical": false,
  "isLocked": false,
  "isVisible": true,
  "layerListExpandedType": 0,
  "name": "Path",
  "nameIsFixed": false,
  "pointRadiusBehaviour": 0,
  "points": [
    {
      "_class": "curvePoint",
      "cornerRadius": 0,
      "curveFrom": "{0.94105576497291565, 0.24472077718542096}",
      "curveMode": 3,
      "curveTo": "{0.3630557649729198, -0.10627922281457813}",
      "hasCurveFrom": true,
      "hasCurveTo": true,
      "point": "{0.56405576497292031, 0.015720777185407542}"
    },
    {
      "_class": "curvePoint",
      "cornerRadius": 0,
      "curveFrom": "{-0.25794423502708241, 0.51472077718543119}",
      "curveMode": 3,
      "curveTo": "{0.32305576497292066, 0.86872077718541618}",
      "hasCurveFrom": true,
      "hasCurveTo": true,
      "point": "{0.11905576497292003, 0.74272077718541141}"
    }
  ],
  "resizingConstraint": 63,
  "resizingType": 0,
  "rotation": 0,
  "shouldBreakMaskChain": false,
  "style": {
    "_class": "style",
    "do_objectID": "312E190F-62F5-4F3C-AC80-132C63CB2B7C",
    "endMarkerType": 0,
    "fills": [
      {
        "_class": "fill",
        "color": {
          "_class": "color",
          "alpha": 1,
          "blue": 0.1764705882352941,
          "green": 0.1764705882352941,
          "red": 0.1764705882352941
        },
        "fillType": 0,
        "isEnabled": true,
        "noiseIndex": 0,
        "noiseIntensity": 0,
        "patternFillType": 1,
        "patternTileScale": 1
      }
    ],
    "miterLimit": 10,
    "startMarkerType": 0,
    "windingRule": 1
  }
}