{
  "_class": "shapePath",
  "booleanOperation": -1,
  "clippingMaskMode": 0,
  "do_objectID": "332BD427-D101-4F80-847D-3CB373DEC6AC",
  "edited": true,
  "exportOptions": {
    "_class": "exportOptions",
    "do_objectID": "45323758-F8BE-43DD-9AF0-726102BCD5AF",
    "exportFormats": [
    ],
    "includedLayerIds": [
    ],
    "layerOptions": 0,
    "shouldTrim": false
  },
  "frame": {
    "_class": "rect",
    "constrainProportions": false,
    "do_objectID": "5EB37612-162D-4ED7-B7AA-0D0A492BD413",
    "height": 0.1058906030855553,
    "width": 0.1204937862438733,
    "x": 21.13638530441015,
    "y": 21.50412585115739
  },
  "hasClippingMask": false,
  "isClosed": true,
  "isFixedToViewport": false,
  "isFlippedHorizontal": false,
  "isFlippedVertical": false,
  "isLocked": false,
  "isVisible": true,
  "layerListExpandedType": 0,
  "name": "Path",
  "nameIsFixed": false,
  "pointRadiusBehaviour": 0,
  "points": [
    {
      "_class": "curvePoint",
      "cornerRadius": 0,
      "curveFrom": "{0.48248233060564555, 1.2521480960201643}",
      "curveMode": 4,
      "curveTo": "{0.91092650047806778, 0.64528413037579579}",
      "hasCurveFrom": true,
      "hasCurveTo": true,
      "point": "{0.65359053681256274, 0.83913132515714683}"
    },
    {
      "_class": "curvePoint",
      "cornerRadius": 0,
      "curveFrom": "{0.084352606714810416, 0.25846292637510165}",
      "curveMode": 3,
      "curveTo": "{-0.060483079641448917, 0.76665692350462977}",
      "hasCurveFrom": true,
      "hasCurveTo": true,
      "point": "{0.0055350471627986335, 0.53351637842979382}"
    },
    {
      "_class": "curvePoint",
      "cornerRadius": 0,
      "curveFrom": "{1.1453582160686384, 0.43833915216323349}",
      "curveMode": 4,
      "curveTo": "{0.75800696186010297, 0.25758974081304403}",
      "hasCurveFrom": true,
      "hasCurveTo": true,
      "point": "{0.88936956111343035, 0}"
    }
  ],
  "resizingConstraint": 63,
  "resizingType": 0,
  "rotation": 0,
  "shouldBreakMaskChain": false,
  "style": {
    "_class": "style",
    "do_objectID": "FC92F3A0-27AB-4BE1-A293-13144E81E1A7",
    "endMarkerType": 0,
    "fills": [
      {
        "_class": "fill",
        "color": {
          "_class": "color",
          "alpha": 1,
          "blue": 0.1764705882352941,
          "green": 0.1764705882352941,
          "red": 0.1764705882352941
        },
        "fillType": 0,
        "isEnabled": true,
        "noiseIndex": 0,
        "noiseIntensity": 0,
        "patternFillType": 1,
        "patternTileScale": 1
      }
    ],
    "miterLimit": 10,
    "startMarkerType": 0,
    "windingRule": 1
  }
}