{
  "_class": "shapePath",
  "booleanOperation": -1,
  "clippingMaskMode": 0,
  "do_objectID": "34ADC6F0-4594-41DE-BCAF-5F36D352E8F0",
  "edited": true,
  "exportOptions": {
    "_class": "exportOptions",
    "do_objectID": "C9181FDE-8978-4975-AB43-26B245B3D689",
    "exportFormats": [
    ],
    "includedLayerIds": [
    ],
    "layerOptions": 0,
    "shouldTrim": false
  },
  "frame": {
    "_class": "rect",
    "constrainProportions": false,
    "do_objectID": "3179030B-846E-4692-8B3F-037F6CCF5703",
    "height": 0.1058906030855589,
    "width": 0.1059863482545467,
    "x": 25.87799370530342,
    "y": 16.59292667517175
  },
  "hasClippingMask": false,
  "isClosed": true,
  "isFixedToViewport": false,
  "isFlippedHorizontal": false,
  "isFlippedVertical": false,
  "isLocked": false,
  "isVisible": true,
  "layerListExpandedType": 0,
  "name": "Path",
  "nameIsFixed": false,
  "pointRadiusBehaviour": 0,
  "points": [
    {
      "_class": "curvePoint",
      "cornerRadius": 0,
      "curveFrom": "{-0.25772026868827425, 0.51494231607654228}",
      "curveMode": 4,
      "curveTo": "{0.32127973131173349, 0.86694231607654615}",
      "hasCurveFrom": true,
      "hasCurveTo": true,
      "point": "{0.1192797313117353, 0.74094231607654137}"
    },
    {
      "_class": "curvePoint",
      "cornerRadius": 0,
      "curveFrom": "{0.94027973131170484, 0.2469423160765416}",
      "curveMode": 3,
      "curveTo": "{0.36127973131169711, -0.10705768392344339}",
      "hasCurveFrom": true,
      "hasCurveTo": true,
      "point": "{0.56527973131170484, 0.015942316076547058}"
    }
  ],
  "resizingConstraint": 63,
  "resizingType": 0,
  "rotation": 0,
  "shouldBreakMaskChain": false,
  "style": {
    "_class": "style",
    "do_objectID": "E1CD52E5-3184-4308-AE53-9404B97C6556",
    "endMarkerType": 0,
    "fills": [
      {
        "_class": "fill",
        "color": {
          "_class": "color",
          "alpha": 1,
          "blue": 0.1764705882352941,
          "green": 0.1764705882352941,
          "red": 0.1764705882352941
        },
        "fillType": 0,
        "isEnabled": true,
        "noiseIndex": 0,
        "noiseIntensity": 0,
        "patternFillType": 1,
        "patternTileScale": 1
      }
    ],
    "miterLimit": 10,
    "startMarkerType": 0,
    "windingRule": 1
  }
}