{
  "_class": "shapePath",
  "booleanOperation": -1,
  "clippingMaskMode": 0,
  "do_objectID": "3F66AD93-CCBF-44DF-9CDB-40ED09E212A7",
  "edited": true,
  "exportOptions": {
    "_class": "exportOptions",
    "do_objectID": "A5224F44-3B45-4828-B790-A481EAE359F2",
    "exportFormats": [
    ],
    "includedLayerIds": [
    ],
    "layerOptions": 0,
    "shouldTrim": false
  },
  "frame": {
    "_class": "rect",
    "constrainProportions": false,
    "do_objectID": "B3F1FC85-A1C7-4248-9EB8-E34329D38A49",
    "height": 0.1243660756939988,
    "width": 0.1083033639818289,
    "x": 9.957747599897367,
    "y": 22.55320745844431
  },
  "hasClippingMask": false,
  "isClosed": true,
  "isFixedToViewport": false,
  "isFlippedHorizontal": false,
  "isFlippedVertical": false,
  "isLocked": false,
  "isVisible": true,
  "layerListExpandedType": 0,
  "name": "Path",
  "nameIsFixed": false,
  "pointRadiusBehaviour": 0,
  "points": [
    {
      "_class": "curvePoint",
      "cornerRadius": 0,
      "curveFrom": "{2.0551294281713339, 0.94879050263934206}",
      "curveMode": 4,
      "curveTo": "{0.33882110282684635, 0.12976584881459985}",
      "hasCurveFrom": true,
      "hasCurveTo": true,
      "point": "{0.59439365258338905, 0}"
    },
    {
      "_class": "curvePoint",
      "cornerRadius": 0,
      "curveFrom": "{0.10648242122999321, 0.26670468424707033}",
      "curveMode": 4,
      "curveTo": "{-1.0042463727265669, 1.3961240317188124}",
      "hasCurveFrom": true,
      "hasCurveTo": true,
      "point": "{0.35980653213237274, 0.5575366871179448}"
    }
  ],
  "resizingConstraint": 63,
  "resizingType": 0,
  "rotation": 0,
  "shouldBreakMaskChain": false,
  "style": {
    "_class": "style",
    "do_objectID": "7BB11CF9-AE33-4A7F-B9E7-AEA3A32F5ACB",
    "endMarkerType": 0,
    "fills": [
      {
        "_class": "fill",
        "color": {
          "_class": "color",
          "alpha": 1,
          "blue": 0.1764705882352941,
          "green": 0.1764705882352941,
          "red": 0.1764705882352941
        },
        "fillType": 0,
        "isEnabled": true,
        "noiseIndex": 0,
        "noiseIntensity": 0,
        "patternFillType": 1,
        "patternTileScale": 1
      }
    ],
    "miterLimit": 10,
    "startMarkerType": 0,
    "windingRule": 1
  }
}