{
  "_class": "shapePath",
  "booleanOperation": -1,
  "clippingMaskMode": 0,
  "do_objectID": "40AC1668-C865-4F97-9A05-676919C6FC45",
  "edited": true,
  "exportOptions": {
    "_class": "exportOptions",
    "do_objectID": "BF328A4D-1FDF-476B-8CF4-E9522F7F2870",
    "exportFormats": [
    ],
    "includedLayerIds": [
    ],
    "layerOptions": 0,
    "shouldTrim": false
  },
  "frame": {
    "_class": "rect",
    "constrainProportions": false,
    "do_objectID": "07B2F242-FD43-48EF-8470-776E3127AE59",
    "height": 0.1058906030855553,
    "width": 0.1673743861309394,
    "x": 8.272722062022789,
    "y": 24.78441667456393
  },
  "hasClippingMask": false,
  "isClosed": true,
  "isFixedToViewport": false,
  "isFlippedHorizontal": false,
  "isFlippedVertical": false,
  "isLocked": false,
  "isVisible": true,
  "layerListExpandedType": 0,
  "name": "Path",
  "nameIsFixed": false,
  "pointRadiusBehaviour": 0,
  "points": [
    {
      "_class": "curvePoint",
      "cornerRadius": 0,
      "curveFrom": "{-0.46508729156906436, 2.1804383277344073}",
      "curveMode": 4,
      "curveTo": "{0.64500367513123014, 1.037438327734435}",
      "hasCurveFrom": true,
      "hasCurveTo": true,
      "point": "{0.58341278270181463, 0.48843832773439999}"
    },
    {
      "_class": "curvePoint",
      "cornerRadius": 0,
      "curveFrom": "{0.7652756540485206, 0.35743832773437134}",
      "curveMode": 4,
      "curveTo": "{0.13142292644813341, -1.2035616722655504}",
      "hasCurveFrom": true,
      "hasCurveTo": true,
      "point": "{0.58341278270181463, 0.48843832773439999}"
    },
    {
      "_class": "curvePoint",
      "cornerRadius": 0,
      "curveFrom": "{0.81910706396714772, 0.93443832773436952}",
      "curveMode": 4,
      "curveTo": "{0.940348978198285, 0.25343832773444319}",
      "hasCurveFrom": true,
      "hasCurveTo": true,
      "point": "{1, 0.80043832773441181}"
    }
  ],
  "resizingConstraint": 63,
  "resizingType": 0,
  "rotation": 0,
  "shouldBreakMaskChain": false,
  "style": {
    "_class": "style",
    "do_objectID": "F18A0450-F3B8-4959-A6F4-73176E2AA1B9",
    "endMarkerType": 0,
    "fills": [
      {
        "_class": "fill",
        "color": {
          "_class": "color",
          "alpha": 1,
          "blue": 0.1764705882352941,
          "green": 0.1764705882352941,
          "red": 0.1764705882352941
        },
        "fillType": 0,
        "isEnabled": true,
        "noiseIndex": 0,
        "noiseIntensity": 0,
        "patternFillType": 1,
        "patternTileScale": 1
      }
    ],
    "miterLimit": 10,
    "startMarkerType": 0,
    "windingRule": 1
  }
}