{
  "_class": "shapePath",
  "booleanOperation": -1,
  "clippingMaskMode": 0,
  "do_objectID": "442D580C-FB97-4617-BA83-AD7916A4D591",
  "edited": true,
  "exportOptions": {
    "_class": "exportOptions",
    "do_objectID": "A0A77F53-278F-4D25-BD21-7A2EBD90C5BF",
    "exportFormats": [
    ],
    "includedLayerIds": [
    ],
    "layerOptions": 0,
    "shouldTrim": false
  },
  "frame": {
    "_class": "rect",
    "constrainProportions": false,
    "do_objectID": "1137FFE0-3C18-406A-8F00-4E11FA486EBE",
    "height": 0.1169430796001762,
    "width": 0.1059863482545591,
    "x": 11.16559565801969,
    "y": 29.66889379012146
  },
  "hasClippingMask": false,
  "isClosed": true,
  "isFixedToViewport": false,
  "isFlippedHorizontal": false,
  "isFlippedVertical": false,
  "isLocked": false,
  "isVisible": true,
  "layerListExpandedType": 0,
  "name": "Path",
  "nameIsFixed": false,
  "pointRadiusBehaviour": 0,
  "points": [
    {
      "_class": "curvePoint",
      "cornerRadius": 0,
      "curveFrom": "{0.92602900884783335, 0.91400832177533209}",
      "curveMode": 4,
      "curveTo": "{1.0919136237700038, 0.64077669902913315}",
      "hasCurveFrom": true,
      "hasCurveTo": true,
      "point": "{0.9882357394436565, 0.80998613037447276}"
    },
    {
      "_class": "curvePoint",
      "cornerRadius": 0,
      "curveFrom": "{0.52514118945254507, 0.80513176144243026}",
      "curveMode": 4,
      "curveTo": "{0.56747632555245975, 0.90429958391124721}",
      "hasCurveFrom": true,
      "hasCurveTo": true,
      "point": "{0.48280605335260574, 1}"
    },
    {
      "_class": "curvePoint",
      "cornerRadius": 0,
      "curveFrom": "{0.07414239263282725, 0.08599167822466787}",
      "curveMode": 3,
      "curveTo": "{-0.089150275181196212, 0.35852981969483833}",
      "hasCurveFrom": true,
      "hasCurveTo": true,
      "point": "{0.011071679667638142, 0.19001386962552727}"
    },
    {
      "_class": "curvePoint",
      "cornerRadius": 0,
      "curveFrom": "{0.47503021202811557, 0.19486823855753033}",
      "curveMode": 4,
      "curveTo": "{0.4335590582975668, 0.096393897364741979}",
      "hasCurveFrom": true,
      "hasCurveTo": true,
      "point": "{0.51822933049744535, 0}"
    }
  ],
  "resizingConstraint": 63,
  "resizingType": 0,
  "rotation": 0,
  "shouldBreakMaskChain": false,
  "style": {
    "_class": "style",
    "do_objectID": "A13151C1-A7E4-4C38-AE34-82001A3F1B03",
    "endMarkerType": 0,
    "fills": [
      {
        "_class": "fill",
        "color": {
          "_class": "color",
          "alpha": 1,
          "blue": 0.1764705882352941,
          "green": 0.1764705882352941,
          "red": 0.1764705882352941
        },
        "fillType": 0,
        "isEnabled": true,
        "noiseIndex": 0,
        "noiseIntensity": 0,
        "patternFillType": 1,
        "patternTileScale": 1
      }
    ],
    "miterLimit": 10,
    "startMarkerType": 0,
    "windingRule": 1
  }
}