{
  "_class": "shapePath",
  "booleanOperation": -1,
  "clippingMaskMode": 0,
  "do_objectID": "499A483E-4623-4236-A12D-063AF19EFCFD",
  "edited": true,
  "exportOptions": {
    "_class": "exportOptions",
    "do_objectID": "145888CC-B9E0-43DC-BE5B-BED631F26E4D",
    "exportFormats": [
    ],
    "includedLayerIds": [
    ],
    "layerOptions": 0,
    "shouldTrim": false
  },
  "frame": {
    "_class": "rect",
    "constrainProportions": false,
    "do_objectID": "D96F7ACF-E974-4A0F-90DA-6C652C9EFA2A",
    "height": 0.1215065861679756,
    "width": 0.1821729079559589,
    "x": 14.32968894008426,
    "y": 5.911531182756837
  },
  "hasClippingMask": false,
  "isClosed": true,
  "isFixedToViewport": false,
  "isFlippedHorizontal": false,
  "isFlippedVertical": false,
  "isLocked": false,
  "isVisible": true,
  "layerListExpandedType": 0,
  "name": "Path",
  "nameIsFixed": false,
  "pointRadiusBehaviour": 0,
  "points": [
    {
      "_class": "curvePoint",
      "cornerRadius": 0,
      "curveFrom": "{0.21401082809054545, -0.28170045046379888}",
      "curveMode": 3,
      "curveTo": "{-0.25027529273125065, 0.85561001974523754}",
      "hasCurveFrom": true,
      "hasCurveTo": true,
      "point": "{0.049149153710443323, 0.12076328987426198}"
    },
    {
      "_class": "curvePoint",
      "cornerRadius": 0,
      "curveFrom": "{0.59631168381521171, 0.49986677994392814}",
      "curveMode": 3,
      "curveTo": "{0.40025996293076943, 0.45047653651934932}",
      "hasCurveFrom": true,
      "hasCurveTo": true,
      "point": "{0.41362712571834565, 0.45381371512911456}"
    },
    {
      "_class": "curvePoint",
      "cornerRadius": 0,
      "curveFrom": "{0.91266786978783976, 1.6058077712211256}",
      "curveMode": 4,
      "curveTo": "{0.81464200934561859, 0.22154608388927113}",
      "hasCurveFrom": true,
      "hasCurveTo": true,
      "point": "{1, 0.24090171982592476}"
    }
  ],
  "resizingConstraint": 63,
  "resizingType": 0,
  "rotation": 0,
  "shouldBreakMaskChain": false,
  "style": {
    "_class": "style",
    "do_objectID": "3AA8DBB8-0248-433A-AD6D-4408730F11D0",
    "endMarkerType": 0,
    "fills": [
      {
        "_class": "fill",
        "color": {
          "_class": "color",
          "alpha": 1,
          "blue": 0.1764705882352941,
          "green": 0.1764705882352941,
          "red": 0.1764705882352941
        },
        "fillType": 0,
        "isEnabled": true,
        "noiseIndex": 0,
        "noiseIntensity": 0,
        "patternFillType": 1,
        "patternTileScale": 1
      }
    ],
    "miterLimit": 10,
    "startMarkerType": 0,
    "windingRule": 1
  }
}