{
  "_class": "shapePath",
  "booleanOperation": -1,
  "clippingMaskMode": 0,
  "do_objectID": "4EF4FD2F-CA10-43EA-8842-4BD2A28AD4BC",
  "edited": true,
  "exportOptions": {
    "_class": "exportOptions",
    "do_objectID": "86176805-C967-4074-9B07-639DC048E4E3",
    "exportFormats": [
    ],
    "includedLayerIds": [
    ],
    "layerOptions": 0,
    "shouldTrim": false
  },
  "frame": {
    "_class": "rect",
    "constrainProportions": false,
    "do_objectID": "0253CEC1-284A-4B8F-A16C-39488AE78E62",
    "height": 0.1807670765802936,
    "width": 0.1606567423400627,
    "x": 21.89389217513405,
    "y": 4.812569233052209
  },
  "hasClippingMask": false,
  "isClosed": true,
  "isFixedToViewport": false,
  "isFlippedHorizontal": false,
  "isFlippedVertical": false,
  "isLocked": false,
  "isVisible": true,
  "layerListExpandedType": 0,
  "name": "Path",
  "nameIsFixed": false,
  "pointRadiusBehaviour": 0,
  "points": [
    {
      "_class": "curvePoint",
      "cornerRadius": 0,
      "curveFrom": "{1.0382803692237974, 0.42036787797219299}",
      "curveMode": 4,
      "curveTo": "{0.66288264935356256, 0.13683266038582723}",
      "hasCurveFrom": true,
      "hasCurveTo": true,
      "point": "{0.9923029903433237, 0}"
    },
    {
      "_class": "curvePoint",
      "cornerRadius": 0,
      "curveFrom": "{0.20563509015769624, 0.80305069537910834}",
      "curveMode": 4,
      "curveTo": "{0.8867065926947707, 0.77882458501570284}",
      "hasCurveFrom": true,
      "hasCurveTo": true,
      "point": "{0.30870525819743444, 1}"
    },
    {
      "_class": "curvePoint",
      "cornerRadius": 0,
      "curveFrom": "{0.33144132467679566, 0.27366532077165445}",
      "curveMode": 4,
      "curveTo": "{0.10357541396148966, 0.6078959174517844}",
      "hasCurveFrom": true,
      "hasCurveTo": true,
      "point": "{0, 0.41184387617766377}"
    }
  ],
  "resizingConstraint": 63,
  "resizingType": 0,
  "rotation": 0,
  "shouldBreakMaskChain": false,
  "style": {
    "_class": "style",
    "do_objectID": "9B40FCA0-1DE5-4EF7-B810-F80C2C78682D",
    "endMarkerType": 0,
    "fills": [
      {
        "_class": "fill",
        "color": {
          "_class": "color",
          "alpha": 1,
          "blue": 0.1764705882352941,
          "green": 0.1764705882352941,
          "red": 0.1764705882352941
        },
        "fillType": 0,
        "isEnabled": true,
        "noiseIndex": 0,
        "noiseIntensity": 0,
        "patternFillType": 1,
        "patternTileScale": 1
      }
    ],
    "miterLimit": 10,
    "startMarkerType": 0,
    "windingRule": 1
  }
}