{
  "_class": "shapePath",
  "booleanOperation": -1,
  "clippingMaskMode": 0,
  "do_objectID": "50197364-7F2D-4708-980A-1CD2F20E9B3C",
  "edited": true,
  "exportOptions": {
    "_class": "exportOptions",
    "do_objectID": "C2B95913-A7D8-44C9-8556-A4AA2A27848F",
    "exportFormats": [
    ],
    "includedLayerIds": [
    ],
    "layerOptions": 0,
    "shouldTrim": false
  },
  "frame": {
    "_class": "rect",
    "constrainProportions": false,
    "do_objectID": "5D2A3A66-26CD-4B85-928B-13CDB43E55AB",
    "height": 0.1058906030855535,
    "width": 0.1059863482545609,
    "x": 8.912244781344427,
    "y": 8.551098377635
  },
  "hasClippingMask": false,
  "isClosed": true,
  "isFixedToViewport": false,
  "isFlippedHorizontal": false,
  "isFlippedVertical": false,
  "isLocked": false,
  "isVisible": true,
  "layerListExpandedType": 0,
  "name": "Path",
  "nameIsFixed": false,
  "pointRadiusBehaviour": 0,
  "points": [
    {
      "_class": "curvePoint",
      "cornerRadius": 0,
      "curveFrom": "{0.36261390541825872, 1.0690000000000168}",
      "curveMode": 4,
      "curveTo": "{0.86552095596372947, 0.60700000000002774}",
      "hasCurveFrom": true,
      "hasCurveTo": true,
      "point": "{0.58998789373395877, 0.72900000000004184}"
    },
    {
      "_class": "curvePoint",
      "cornerRadius": 0,
      "curveFrom": "{0.13050295901265943, 0.03900000000004411}",
      "curveMode": 3,
      "curveTo": "{-0.081081169003331774, 0.48300000000000409}",
      "hasCurveFrom": true,
      "hasCurveTo": true,
      "point": "{0.012868499779887788, 0.28400000000004866}"
    },
    {
      "_class": "curvePoint",
      "cornerRadius": 0,
      "curveFrom": "{1.121316692818892, 0.47100000000000364}",
      "curveMode": 4,
      "curveTo": "{0.77788723130039794, 0.20800000000002683}",
      "hasCurveFrom": true,
      "hasCurveTo": true,
      "point": "{0.93815431334236332, 0}"
    }
  ],
  "resizingConstraint": 63,
  "resizingType": 0,
  "rotation": 0,
  "shouldBreakMaskChain": false,
  "style": {
    "_class": "style",
    "do_objectID": "6E5A804F-C6AC-435F-84D7-368103EF2D88",
    "endMarkerType": 0,
    "fills": [
      {
        "_class": "fill",
        "color": {
          "_class": "color",
          "alpha": 1,
          "blue": 0.1764705882352941,
          "green": 0.1764705882352941,
          "red": 0.1764705882352941
        },
        "fillType": 0,
        "isEnabled": true,
        "noiseIndex": 0,
        "noiseIntensity": 0,
        "patternFillType": 1,
        "patternTileScale": 1
      }
    ],
    "miterLimit": 10,
    "startMarkerType": 0,
    "windingRule": 1
  }
}