{
  "_class": "shapePath",
  "booleanOperation": -1,
  "clippingMaskMode": 0,
  "do_objectID": "58208F7D-02DA-4B3D-8DF8-89A810CFAFD8",
  "edited": true,
  "exportOptions": {
    "_class": "exportOptions",
    "do_objectID": "D8647370-4249-4BC3-B376-B1EE42BF7E4A",
    "exportFormats": [
    ],
    "includedLayerIds": [
    ],
    "layerOptions": 0,
    "shouldTrim": false
  },
  "frame": {
    "_class": "rect",
    "constrainProportions": false,
    "do_objectID": "474C556C-0982-4BA4-BC06-4A7872D90032",
    "height": 0.1065625565843469,
    "width": 0.1059863482545538,
    "x": 25.519171887664,
    "y": 16.37801273156836
  },
  "hasClippingMask": false,
  "isClosed": true,
  "isFixedToViewport": false,
  "isFlippedHorizontal": false,
  "isFlippedVertical": false,
  "isLocked": false,
  "isVisible": true,
  "layerListExpandedType": 0,
  "name": "Path",
  "nameIsFixed": false,
  "pointRadiusBehaviour": 0,
  "points": [
    {
      "_class": "curvePoint",
      "cornerRadius": 0,
      "curveFrom": "{0.120837482697425, 0.012937595129372906}",
      "curveMode": 4,
      "curveTo": "{-0.1251625173025559, 0.26027397260272933}",
      "hasCurveFrom": true,
      "hasCurveTo": true,
      "point": "{0.027837482697464111, 0.10806697108066718}"
    },
    {
      "_class": "curvePoint",
      "cornerRadius": 0,
      "curveFrom": "{0.51683748269744001, 0.18797564687974658}",
      "curveMode": 4,
      "curveTo": "{0.49883748269746775, 0.082952815829535356}",
      "hasCurveFrom": true,
      "hasCurveTo": true,
      "point": "{0.6148374826974532, 0}"
    },
    {
      "_class": "curvePoint",
      "cornerRadius": 0,
      "curveFrom": "{0.80383748269747457, 0.98554033485539916}",
      "curveMode": 3,
      "curveTo": "{1.0508374826974318, 0.73668188736681472}",
      "hasCurveFrom": true,
      "hasCurveTo": true,
      "point": "{0.89783748269746866, 0.89117199391171886}"
    },
    {
      "_class": "curvePoint",
      "cornerRadius": 0,
      "curveFrom": "{0.40683748269742637, 0.81202435312025345}",
      "curveMode": 4,
      "curveTo": "{0.42583748269743182, 0.9170471841704646}",
      "hasCurveFrom": true,
      "hasCurveTo": true,
      "point": "{0.31083748269742273, 1}"
    }
  ],
  "resizingConstraint": 63,
  "resizingType": 0,
  "rotation": 0,
  "shouldBreakMaskChain": false,
  "style": {
    "_class": "style",
    "do_objectID": "A6EB028B-302D-4F3F-A129-D51F53099E5B",
    "endMarkerType": 0,
    "fills": [
      {
        "_class": "fill",
        "color": {
          "_class": "color",
          "alpha": 1,
          "blue": 0.1764705882352941,
          "green": 0.1764705882352941,
          "red": 0.1764705882352941
        },
        "fillType": 0,
        "isEnabled": true,
        "noiseIndex": 0,
        "noiseIntensity": 0,
        "patternFillType": 1,
        "patternTileScale": 1
      }
    ],
    "miterLimit": 10,
    "startMarkerType": 0,
    "windingRule": 1
  }
}