{
  "_class": "shapePath",
  "booleanOperation": -1,
  "clippingMaskMode": 0,
  "do_objectID": "591B14DA-43AE-45A4-8E01-37A1E99170DC",
  "edited": true,
  "exportOptions": {
    "_class": "exportOptions",
    "do_objectID": "B1C22D8E-5330-4B82-AE78-93526DEBD818",
    "exportFormats": [
    ],
    "includedLayerIds": [
    ],
    "layerOptions": 0,
    "shouldTrim": false
  },
  "frame": {
    "_class": "rect",
    "constrainProportions": false,
    "do_objectID": "76D9B6B5-4F00-4650-9FD7-1A2CCEA1D14F",
    "height": 0.1058906030855589,
    "width": 0.105986348254568,
    "x": 26.48587777792536,
    "y": 30.30717935566623
  },
  "hasClippingMask": false,
  "isClosed": true,
  "isFixedToViewport": false,
  "isFlippedHorizontal": false,
  "isFlippedVertical": false,
  "isLocked": false,
  "isVisible": true,
  "layerListExpandedType": 0,
  "name": "Path",
  "nameIsFixed": false,
  "pointRadiusBehaviour": 0,
  "points": [
    {
      "_class": "curvePoint",
      "cornerRadius": 0,
      "curveFrom": "{0.92936317977353156, 0.16643776867817905}",
      "curveMode": 3,
      "curveTo": "{0.24836317977354838, -0.078562231321825493}",
      "hasCurveFrom": true,
      "hasCurveTo": true,
      "point": "{0.48536317977351473, 0.0064377686781540433}"
    },
    {
      "_class": "curvePoint",
      "cornerRadius": 0,
      "curveFrom": "{-0.26963682022648072, 0.70343776867815677}",
      "curveMode": 3,
      "curveTo": "{0.41236317977353565, 0.94843776867816132}",
      "hasCurveFrom": true,
      "hasCurveTo": true,
      "point": "{0.17336317977355975, 0.86143776867817223}"
    }
  ],
  "resizingConstraint": 63,
  "resizingType": 0,
  "rotation": 0,
  "shouldBreakMaskChain": false,
  "style": {
    "_class": "style",
    "do_objectID": "B5E26DB9-431F-4A38-9F6A-4675EF6A087F",
    "endMarkerType": 0,
    "fills": [
      {
        "_class": "fill",
        "color": {
          "_class": "color",
          "alpha": 1,
          "blue": 0.1764705882352941,
          "green": 0.1764705882352941,
          "red": 0.1764705882352941
        },
        "fillType": 0,
        "isEnabled": true,
        "noiseIndex": 0,
        "noiseIntensity": 0,
        "patternFillType": 1,
        "patternTileScale": 1
      }
    ],
    "miterLimit": 10,
    "startMarkerType": 0,
    "windingRule": 1
  }
}