{
  "_class": "shapePath",
  "booleanOperation": -1,
  "clippingMaskMode": 0,
  "do_objectID": "5B0FBEC7-E142-49DC-AB83-8F5A02B3DAA6",
  "edited": true,
  "exportOptions": {
    "_class": "exportOptions",
    "do_objectID": "982655E4-7343-4152-B273-06408D70E110",
    "exportFormats": [
    ],
    "includedLayerIds": [
    ],
    "layerOptions": 0,
    "shouldTrim": false
  },
  "frame": {
    "_class": "rect",
    "constrainProportions": false,
    "do_objectID": "06A73CFC-72A3-4240-AEFD-1EE439F199B1",
    "height": 0.1058906030855731,
    "width": 0.105986348254552,
    "x": 10.00125192759849,
    "y": 25.3158534506126
  },
  "hasClippingMask": false,
  "isClosed": true,
  "isFixedToViewport": false,
  "isFlippedHorizontal": false,
  "isFlippedVertical": false,
  "isLocked": false,
  "isVisible": true,
  "layerListExpandedType": 0,
  "name": "Path",
  "nameIsFixed": false,
  "pointRadiusBehaviour": 0,
  "points": [
    {
      "_class": "curvePoint",
      "cornerRadius": 0,
      "curveFrom": "{-0.25688277501801338, 0.51440557297627265}",
      "curveMode": 4,
      "curveTo": "{0.32211722498199435, 0.86540557297627174}",
      "hasCurveFrom": true,
      "hasCurveTo": true,
      "point": "{0.11811722498198662, 0.74440557297629084}"
    },
    {
      "_class": "curvePoint",
      "cornerRadius": 0,
      "curveFrom": "{0.93911722498198458, 0.24440557297629084}",
      "curveMode": 4,
      "curveTo": "{0.36311722498199117, -0.1085944270237178}",
      "hasCurveFrom": true,
      "hasCurveTo": true,
      "point": "{0.56411722498198458, 0.016405572976282201}"
    }
  ],
  "resizingConstraint": 63,
  "resizingType": 0,
  "rotation": 0,
  "shouldBreakMaskChain": false,
  "style": {
    "_class": "style",
    "do_objectID": "D5126C2B-8B62-4834-B090-C75339EE3F2D",
    "endMarkerType": 0,
    "fills": [
      {
        "_class": "fill",
        "color": {
          "_class": "color",
          "alpha": 1,
          "blue": 0.1764705882352941,
          "green": 0.1764705882352941,
          "red": 0.1764705882352941
        },
        "fillType": 0,
        "isEnabled": true,
        "noiseIndex": 0,
        "noiseIntensity": 0,
        "patternFillType": 1,
        "patternTileScale": 1
      }
    ],
    "miterLimit": 10,
    "startMarkerType": 0,
    "windingRule": 1
  }
}