{
  "_class": "shapePath",
  "booleanOperation": -1,
  "clippingMaskMode": 0,
  "do_objectID": "608D3373-C7D0-4437-91AB-ED5AB72F13D8",
  "edited": true,
  "exportOptions": {
    "_class": "exportOptions",
    "do_objectID": "F8CFBCD3-5D45-4E82-8720-7EC7FC4FA3F8",
    "exportFormats": [
    ],
    "includedLayerIds": [
    ],
    "layerOptions": 0,
    "shouldTrim": false
  },
  "frame": {
    "_class": "rect",
    "constrainProportions": false,
    "do_objectID": "F9BC06D6-853E-4ED2-980C-9BDF9F56C625",
    "height": 0.1058906030855695,
    "width": 0.1059863482545538,
    "x": 31.86462260764939,
    "y": 31.56213232116301
  },
  "hasClippingMask": false,
  "isClosed": true,
  "isFixedToViewport": false,
  "isFlippedHorizontal": false,
  "isFlippedVertical": false,
  "isLocked": false,
  "isVisible": true,
  "layerListExpandedType": 0,
  "name": "Path",
  "nameIsFixed": false,
  "pointRadiusBehaviour": 0,
  "points": [
    {
      "_class": "curvePoint",
      "cornerRadius": 0,
      "curveFrom": "{-0.28886876181957177, 0.57788226326914582}",
      "curveMode": 3,
      "curveTo": "{0.35913123818045278, 0.97088226326911808}",
      "hasCurveFrom": true,
      "hasCurveTo": true,
      "point": "{0.13313123818045369, 0.83288226326914128}"
    },
    {
      "_class": "curvePoint",
      "cornerRadius": 0,
      "curveFrom": "{1.0531312381804696, 0.27288226326908216}",
      "curveMode": 3,
      "curveTo": "{0.4071312381804546, -0.1201177367308901}",
      "hasCurveFrom": true,
      "hasCurveTo": true,
      "point": "{0.63413123818043005, 0.017882263269086707}"
    }
  ],
  "resizingConstraint": 63,
  "resizingType": 0,
  "rotation": 0,
  "shouldBreakMaskChain": false,
  "style": {
    "_class": "style",
    "do_objectID": "81420759-2622-4C2B-9877-80359CF4E6A3",
    "endMarkerType": 0,
    "fills": [
      {
        "_class": "fill",
        "color": {
          "_class": "color",
          "alpha": 1,
          "blue": 0.1764705882352941,
          "green": 0.1764705882352941,
          "red": 0.1764705882352941
        },
        "fillType": 0,
        "isEnabled": true,
        "noiseIndex": 0,
        "noiseIntensity": 0,
        "patternFillType": 1,
        "patternTileScale": 1
      }
    ],
    "miterLimit": 10,
    "startMarkerType": 0,
    "windingRule": 1
  }
}