{
  "_class": "shapePath",
  "booleanOperation": -1,
  "clippingMaskMode": 0,
  "do_objectID": "7880B819-4655-4667-B43F-D3444A94790F",
  "edited": true,
  "exportOptions": {
    "_class": "exportOptions",
    "do_objectID": "D742E0BA-D9CB-488D-ACAC-7A06238A96A2",
    "exportFormats": [
    ],
    "includedLayerIds": [
    ],
    "layerOptions": 0,
    "shouldTrim": false
  },
  "frame": {
    "_class": "rect",
    "constrainProportions": false,
    "do_objectID": "9946AFF8-C6D5-42F5-9F3F-7ABCFCD60412",
    "height": 0.105890603085566,
    "width": 0.1059863482545573,
    "x": 5.975071528803128,
    "y": 18.88841894651016
  },
  "hasClippingMask": false,
  "isClosed": true,
  "isFixedToViewport": false,
  "isFlippedHorizontal": false,
  "isFlippedVertical": false,
  "isLocked": false,
  "isVisible": true,
  "layerListExpandedType": 0,
  "name": "Path",
  "nameIsFixed": false,
  "pointRadiusBehaviour": 0,
  "points": [
    {
      "_class": "curvePoint",
      "cornerRadius": 0,
      "curveFrom": "{0.94023425699401741, 0.24572009525607541}",
      "curveMode": 3,
      "curveTo": "{0.36223425699401446, -0.10627990474392845}",
      "hasCurveFrom": true,
      "hasCurveTo": true,
      "point": "{0.56423425699401264, 0.015720095256085642}"
    },
    {
      "_class": "curvePoint",
      "cornerRadius": 0,
      "curveFrom": "{-0.25676574300598531, 0.51472009525608087}",
      "curveMode": 3,
      "curveTo": "{0.3192342569940223, 0.86772009525608951}",
      "hasCurveFrom": true,
      "hasCurveTo": true,
      "point": "{0.11823425699401469, 0.74372009525606586}"
    }
  ],
  "resizingConstraint": 63,
  "resizingType": 0,
  "rotation": 0,
  "shouldBreakMaskChain": false,
  "style": {
    "_class": "style",
    "do_objectID": "3BCAD3DE-6E9E-4E5D-ABA0-26F08CB4D2F1",
    "endMarkerType": 0,
    "fills": [
      {
        "_class": "fill",
        "color": {
          "_class": "color",
          "alpha": 1,
          "blue": 0.1764705882352941,
          "green": 0.1764705882352941,
          "red": 0.1764705882352941
        },
        "fillType": 0,
        "isEnabled": true,
        "noiseIndex": 0,
        "noiseIntensity": 0,
        "patternFillType": 1,
        "patternTileScale": 1
      }
    ],
    "miterLimit": 10,
    "startMarkerType": 0,
    "windingRule": 1
  }
}