{
  "_class": "shapePath",
  "booleanOperation": -1,
  "clippingMaskMode": 0,
  "do_objectID": "847FF864-ADE1-4674-B11A-4E53BAAA38FB",
  "edited": true,
  "exportOptions": {
    "_class": "exportOptions",
    "do_objectID": "49D37F8D-062F-4FDD-81BE-0F7205AE7C35",
    "exportFormats": [
    ],
    "includedLayerIds": [
    ],
    "layerOptions": 0,
    "shouldTrim": false
  },
  "frame": {
    "_class": "rect",
    "constrainProportions": false,
    "do_objectID": "7BB42DA5-21B3-40F8-9B53-D4F1A3FEA4BE",
    "height": 0.1058906030855624,
    "width": 0.1059863482545644,
    "x": 17.15227226668906,
    "y": 30.08103974411917
  },
  "hasClippingMask": false,
  "isClosed": true,
  "isFixedToViewport": false,
  "isFlippedHorizontal": false,
  "isFlippedVertical": false,
  "isLocked": false,
  "isVisible": true,
  "layerListExpandedType": 0,
  "name": "Path",
  "nameIsFixed": false,
  "pointRadiusBehaviour": 0,
  "points": [
    {
      "_class": "curvePoint",
      "cornerRadius": 0,
      "curveFrom": "{-0.25792151259065577, 0.515916753204408}",
      "curveMode": 3,
      "curveTo": "{0.32207848740935674, 0.86991675320444983}",
      "hasCurveFrom": true,
      "hasCurveTo": true,
      "point": "{0.11907848740935378, 0.74691675320440254}"
    },
    {
      "_class": "curvePoint",
      "cornerRadius": 0,
      "curveFrom": "{0.94107848740935651, 0.24791675320443574}",
      "curveMode": 3,
      "curveTo": "{0.36307848740935356, -0.10708324679558245}",
      "hasCurveFrom": true,
      "hasCurveTo": true,
      "point": "{0.56207848740936583, 0.015916753204407996}"
    }
  ],
  "resizingConstraint": 63,
  "resizingType": 0,
  "rotation": 0,
  "shouldBreakMaskChain": false,
  "style": {
    "_class": "style",
    "do_objectID": "B35A4236-FFD1-4C61-9768-1D6FF95A6F3A",
    "endMarkerType": 0,
    "fills": [
      {
        "_class": "fill",
        "color": {
          "_class": "color",
          "alpha": 1,
          "blue": 0.1764705882352941,
          "green": 0.1764705882352941,
          "red": 0.1764705882352941
        },
        "fillType": 0,
        "isEnabled": true,
        "noiseIndex": 0,
        "noiseIntensity": 0,
        "patternFillType": 1,
        "patternTileScale": 1
      }
    ],
    "miterLimit": 10,
    "startMarkerType": 0,
    "windingRule": 1
  }
}