{
  "_class": "shapePath",
  "booleanOperation": -1,
  "clippingMaskMode": 0,
  "do_objectID": "86424DDE-058D-48C6-95E2-1C920A3C21A0",
  "edited": true,
  "exportOptions": {
    "_class": "exportOptions",
    "do_objectID": "53DF6336-E99E-403C-B0EA-FDAAD3205E82",
    "exportFormats": [
    ],
    "includedLayerIds": [
    ],
    "layerOptions": 0,
    "shouldTrim": false
  },
  "frame": {
    "_class": "rect",
    "constrainProportions": false,
    "do_objectID": "BF77F7BA-E252-4A4D-AA02-425F92CDC075",
    "height": 0.1169430796001407,
    "width": 0.1059863482545715,
    "x": 28.57451915954064,
    "y": 35.03919249409063
  },
  "hasClippingMask": false,
  "isClosed": true,
  "isFixedToViewport": false,
  "isFlippedHorizontal": false,
  "isFlippedVertical": false,
  "isLocked": false,
  "isVisible": true,
  "layerListExpandedType": 0,
  "name": "Path",
  "nameIsFixed": false,
  "pointRadiusBehaviour": 0,
  "points": [
    {
      "_class": "curvePoint",
      "cornerRadius": 0,
      "curveFrom": "{0.926129353388643, 0.91400832177529612}",
      "curveMode": 4,
      "curveTo": "{1.0878283113811058, 0.64008321775311872}",
      "hasCurveFrom": true,
      "hasCurveTo": true,
      "point": "{0.98925247602743893, 0.8099861303744802}"
    },
    {
      "_class": "curvePoint",
      "cornerRadius": 0,
      "curveFrom": "{0.52404370918283305, 0.80721220527044479}",
      "curveMode": 4,
      "curveTo": "{0.56814342499894588, 0.90568654646322921}",
      "hasCurveFrom": true,
      "hasCurveTo": true,
      "point": "{0.48426749491731663, 1}"
    },
    {
      "_class": "curvePoint",
      "cornerRadius": 0,
      "curveFrom": "{0.072670147300165175, 0.08668515950069304}",
      "curveMode": 4,
      "curveTo": "{-0.089893511002397342, 0.36130374479889904}",
      "hasCurveFrom": true,
      "hasCurveTo": true,
      "point": "{0.011276425281617561, 0.18862690707350208}"
    },
    {
      "_class": "curvePoint",
      "cornerRadius": 0,
      "curveFrom": "{0.47475579150597508, 0.19486823855756205}",
      "curveMode": 4,
      "curveTo": "{0.43325017662021026, 0.097087378640766747}",
      "hasCurveFrom": true,
      "hasCurveTo": true,
      "point": "{0.51712610670188863, 0}"
    }
  ],
  "resizingConstraint": 63,
  "resizingType": 0,
  "rotation": 0,
  "shouldBreakMaskChain": false,
  "style": {
    "_class": "style",
    "do_objectID": "61E2F7D9-695C-4354-8C1E-F4557B547DF1",
    "endMarkerType": 0,
    "fills": [
      {
        "_class": "fill",
        "color": {
          "_class": "color",
          "alpha": 1,
          "blue": 0.1764705882352941,
          "green": 0.1764705882352941,
          "red": 0.1764705882352941
        },
        "fillType": 0,
        "isEnabled": true,
        "noiseIndex": 0,
        "noiseIntensity": 0,
        "patternFillType": 1,
        "patternTileScale": 1
      }
    ],
    "miterLimit": 10,
    "startMarkerType": 0,
    "windingRule": 1
  }
}