{
  "_class": "shapePath",
  "booleanOperation": -1,
  "clippingMaskMode": 0,
  "do_objectID": "887F7BA7-9C61-49AF-A072-5433BB8739BB",
  "edited": true,
  "exportOptions": {
    "_class": "exportOptions",
    "do_objectID": "07AAD8F2-C06B-4DAC-96ED-6367BA23B4F7",
    "exportFormats": [
    ],
    "includedLayerIds": [
    ],
    "layerOptions": 0,
    "shouldTrim": false
  },
  "frame": {
    "_class": "rect",
    "constrainProportions": false,
    "do_objectID": "E3F7AFB3-E155-45CA-817C-82A938648D83",
    "height": 0.1378057778651733,
    "width": 0.275770233196063,
    "x": 37.29982260368862,
    "y": 11.54168007023098
  },
  "hasClippingMask": false,
  "isClosed": true,
  "isFixedToViewport": false,
  "isFlippedHorizontal": false,
  "isFlippedVertical": false,
  "isLocked": false,
  "isVisible": true,
  "layerListExpandedType": 0,
  "name": "Path",
  "nameIsFixed": false,
  "pointRadiusBehaviour": 0,
  "points": [
    {
      "_class": "curvePoint",
      "cornerRadius": 0,
      "curveFrom": "{-0.063757254836216262, 0.63897436900940885}",
      "curveMode": 4,
      "curveTo": "{0.38070136575113506, 0.86907541695624202}",
      "hasCurveFrom": true,
      "hasCurveTo": true,
      "point": "{0.048387602411313103, 0.93439822084907742}"
    },
    {
      "_class": "curvePoint",
      "cornerRadius": 0,
      "curveFrom": "{0.24324297117213675, 0.40004591513108512}",
      "curveMode": 4,
      "curveTo": "{0.039557298691042582, 0.50008984902099807}",
      "hasCurveFrom": true,
      "hasCurveTo": true,
      "point": "{0.15023043865186017, 0.37003273496407779}"
    },
    {
      "_class": "curvePoint",
      "cornerRadius": 0,
      "curveFrom": "{0.58379835131754121, 0.055188590075177062}",
      "curveMode": 4,
      "curveTo": "{0.45605329083083707, -0.068983586694105217}",
      "hasCurveFrom": true,
      "hasCurveTo": true,
      "point": "{0.53699774160006719, 0.0086975855027900117}"
    },
    {
      "_class": "curvePoint",
      "cornerRadius": 0,
      "curveFrom": "{0.78071412427974785, 0.50656328003741991}",
      "curveMode": 4,
      "curveTo": "{0.57879451254271785, 0.35943984784633609}",
      "hasCurveFrom": true,
      "hasCurveTo": true,
      "point": "{0.62647815263221551, 0.39239549665712897}"
    },
    {
      "_class": "curvePoint",
      "cornerRadius": 0,
      "curveFrom": "{0.94378039964756744, 0.72607144086651143}",
      "curveMode": 3,
      "curveTo": "{0.79484261023219405, 0.16700239854039947}",
      "hasCurveFrom": true,
      "hasCurveTo": true,
      "point": "{0.90963655859581127, 0.59895679545341018}"
    },
    {
      "_class": "curvePoint",
      "cornerRadius": 0,
      "curveFrom": "{0.66798058011753048, 1.050919979144437}",
      "curveMode": 4,
      "curveTo": "{0.96791656314966035, 0.85965951729603463}",
      "hasCurveFrom": true,
      "hasCurveTo": true,
      "point": "{1, 0.98559717525160162}"
    }
  ],
  "resizingConstraint": 63,
  "resizingType": 0,
  "rotation": 0,
  "shouldBreakMaskChain": false,
  "style": {
    "_class": "style",
    "do_objectID": "FF24529E-6C13-4D59-8AB5-F349F06CD0C5",
    "endMarkerType": 0,
    "fills": [
      {
        "_class": "fill",
        "color": {
          "_class": "color",
          "alpha": 1,
          "blue": 0.1764705882352941,
          "green": 0.1764705882352941,
          "red": 0.1764705882352941
        },
        "fillType": 0,
        "isEnabled": true,
        "noiseIndex": 0,
        "noiseIntensity": 0,
        "patternFillType": 1,
        "patternTileScale": 1
      }
    ],
    "miterLimit": 10,
    "startMarkerType": 0,
    "windingRule": 1
  }
}