{
  "_class": "shapePath",
  "booleanOperation": -1,
  "clippingMaskMode": 0,
  "do_objectID": "932DE9B4-744D-42AB-B728-C6A1B911FA54",
  "edited": true,
  "exportOptions": {
    "_class": "exportOptions",
    "do_objectID": "857839AB-8628-4FF6-B9D8-D6DF74B7CFFF",
    "exportFormats": [
    ],
    "includedLayerIds": [
    ],
    "layerOptions": 0,
    "shouldTrim": false
  },
  "frame": {
    "_class": "rect",
    "constrainProportions": false,
    "do_objectID": "8AD198F9-CF9C-4B7F-908D-87B1B41988A0",
    "height": 0.1058906030855553,
    "width": 0.1059863482545751,
    "x": 27.81292872697662,
    "y": 14.72561791012866
  },
  "hasClippingMask": false,
  "isClosed": true,
  "isFixedToViewport": false,
  "isFlippedHorizontal": false,
  "isFlippedVertical": false,
  "isLocked": false,
  "isVisible": true,
  "layerListExpandedType": 0,
  "name": "Path",
  "nameIsFixed": false,
  "pointRadiusBehaviour": 0,
  "points": [
    {
      "_class": "curvePoint",
      "cornerRadius": 0,
      "curveFrom": "{1.0405653337979288, 0.18632567692469593}",
      "curveMode": 3,
      "curveTo": "{0.27856533379792836, -0.088674323075338179}",
      "hasCurveFrom": true,
      "hasCurveTo": true,
      "point": "{0.54256533379788152, 0.0073256769246654585}"
    },
    {
      "_class": "curvePoint",
      "cornerRadius": 0,
      "curveFrom": "{-0.30243466620208892, 0.78732567692469502}",
      "curveMode": 4,
      "curveTo": "{0.46256533379789744, 1.0643256769246818}",
      "hasCurveFrom": true,
      "hasCurveTo": true,
      "point": "{0.19456533379792518, 0.96932567692471139}"
    }
  ],
  "resizingConstraint": 63,
  "resizingType": 0,
  "rotation": 0,
  "shouldBreakMaskChain": false,
  "style": {
    "_class": "style",
    "do_objectID": "13A119BA-7444-4BC4-AE2A-17DA1108605E",
    "endMarkerType": 0,
    "fills": [
      {
        "_class": "fill",
        "color": {
          "_class": "color",
          "alpha": 1,
          "blue": 0.1764705882352941,
          "green": 0.1764705882352941,
          "red": 0.1764705882352941
        },
        "fillType": 0,
        "isEnabled": true,
        "noiseIndex": 0,
        "noiseIntensity": 0,
        "patternFillType": 1,
        "patternTileScale": 1
      }
    ],
    "miterLimit": 10,
    "startMarkerType": 0,
    "windingRule": 1
  }
}