{
  "_class": "shapePath",
  "booleanOperation": -1,
  "clippingMaskMode": 0,
  "do_objectID": "AA3DC374-F65C-4B87-817E-08529DB6CFF3",
  "edited": true,
  "exportOptions": {
    "_class": "exportOptions",
    "do_objectID": "F6654F81-094F-4737-8965-8CB0672DFF18",
    "exportFormats": [
    ],
    "includedLayerIds": [
    ],
    "layerOptions": 0,
    "shouldTrim": false
  },
  "frame": {
    "_class": "rect",
    "constrainProportions": false,
    "do_objectID": "B772E767-2489-4057-8A78-0EF2CC3DCDBB",
    "height": 0.1058906030855606,
    "width": 0.1059863482545751,
    "x": 42.059304741786,
    "y": 12.48625397089707
  },
  "hasClippingMask": false,
  "isClosed": true,
  "isFixedToViewport": false,
  "isFlippedHorizontal": false,
  "isFlippedVertical": false,
  "isLocked": false,
  "isVisible": true,
  "layerListExpandedType": 0,
  "name": "Path",
  "nameIsFixed": false,
  "pointRadiusBehaviour": 0,
  "points": [
    {
      "_class": "curvePoint",
      "cornerRadius": 0,
      "curveFrom": "{1.0572568031531091, 0.275441488586182}",
      "curveMode": 3,
      "curveTo": "{0.40725680315313184, -0.11855851141382345}",
      "hasCurveFrom": true,
      "hasCurveTo": true,
      "point": "{0.63425680315310728, 0.017441488586143805}"
    },
    {
      "_class": "curvePoint",
      "cornerRadius": 0,
      "curveFrom": "{-0.28674319684682814, 0.57744148858614608}",
      "curveMode": 4,
      "curveTo": "{0.36025680315310638, 0.97144148858615154}",
      "hasCurveFrom": true,
      "hasCurveTo": true,
      "point": "{0.13125680315317823, 0.83444148858615108}"
    }
  ],
  "resizingConstraint": 63,
  "resizingType": 0,
  "rotation": 0,
  "shouldBreakMaskChain": false,
  "style": {
    "_class": "style",
    "do_objectID": "6852BBF1-228A-4AC3-947A-D918D4362737",
    "endMarkerType": 0,
    "fills": [
      {
        "_class": "fill",
        "color": {
          "_class": "color",
          "alpha": 1,
          "blue": 0.1764705882352941,
          "green": 0.1764705882352941,
          "red": 0.1764705882352941
        },
        "fillType": 0,
        "isEnabled": true,
        "noiseIndex": 0,
        "noiseIntensity": 0,
        "patternFillType": 1,
        "patternTileScale": 1
      }
    ],
    "miterLimit": 10,
    "startMarkerType": 0,
    "windingRule": 1
  }
}