{
  "_class": "shapePath",
  "booleanOperation": -1,
  "clippingMaskMode": 0,
  "do_objectID": "AAB84067-F5D5-4DAA-BDB8-C39AEACFBF46",
  "edited": true,
  "exportOptions": {
    "_class": "exportOptions",
    "do_objectID": "F2CCCAE3-820D-4477-8D06-7EEFD85877DD",
    "exportFormats": [
    ],
    "includedLayerIds": [
    ],
    "layerOptions": 0,
    "shouldTrim": false
  },
  "frame": {
    "_class": "rect",
    "constrainProportions": false,
    "do_objectID": "4E9ADA2A-30D3-4A43-A798-D762F6E67C9D",
    "height": 0.1139424596659175,
    "width": 0.1439233433888152,
    "x": 12.74090892652456,
    "y": 17.41460527210192
  },
  "hasClippingMask": false,
  "isClosed": true,
  "isFixedToViewport": false,
  "isFlippedHorizontal": false,
  "isFlippedVertical": false,
  "isLocked": false,
  "isVisible": true,
  "layerListExpandedType": 0,
  "name": "Path",
  "nameIsFixed": false,
  "pointRadiusBehaviour": 0,
  "points": [
    {
      "_class": "curvePoint",
      "cornerRadius": 0,
      "curveFrom": "{0.47742390050691097, 0.25907473309608825}",
      "curveMode": 4,
      "curveTo": "{0.066840002809885835, 0.53096085409253291}",
      "hasCurveFrom": true,
      "hasCurveTo": true,
      "point": "{0.25859621876728733, 0.38861209964414251}"
    },
    {
      "_class": "curvePoint",
      "cornerRadius": 0,
      "curveFrom": "{1.1085274465549406, 0.31886120996441791}",
      "curveMode": 4,
      "curveTo": "{0.69737955998746592, 0.13024911032029965}",
      "hasCurveFrom": true,
      "hasCurveTo": true,
      "point": "{0.91733521946800478, 0}"
    },
    {
      "_class": "curvePoint",
      "cornerRadius": 0,
      "curveFrom": "{0.52085104353255629, 0.74021352313168653}",
      "curveMode": 4,
      "curveTo": "{0.93369089671142802, 0.46832740213524193}",
      "hasCurveFrom": true,
      "hasCurveTo": true,
      "point": "{0.74080670301311125, 0.61138790035587776}"
    },
    {
      "_class": "curvePoint",
      "cornerRadius": 0,
      "curveFrom": "{-0.10912452477454207, 0.68185053380784777}",
      "curveMode": 4,
      "curveTo": "{0.30202336179293271, 0.87117437722421132}",
      "hasCurveFrom": true,
      "hasCurveTo": true,
      "point": "{0.083195680053309046, 1}"
    }
  ],
  "resizingConstraint": 63,
  "resizingType": 0,
  "rotation": 0,
  "shouldBreakMaskChain": false,
  "style": {
    "_class": "style",
    "do_objectID": "908BAED4-8222-458A-AF25-5D4717A97DF7",
    "endMarkerType": 0,
    "fills": [
      {
        "_class": "fill",
        "color": {
          "_class": "color",
          "alpha": 1,
          "blue": 0.1764705882352941,
          "green": 0.1764705882352941,
          "red": 0.1764705882352941
        },
        "fillType": 0,
        "isEnabled": true,
        "noiseIndex": 0,
        "noiseIntensity": 0,
        "patternFillType": 1,
        "patternTileScale": 1
      }
    ],
    "miterLimit": 10,
    "startMarkerType": 0,
    "windingRule": 1
  }
}