{
  "_class": "shapePath",
  "booleanOperation": -1,
  "clippingMaskMode": 0,
  "do_objectID": "AC44014B-CC5E-42EA-94DF-FD8219EF3896",
  "edited": true,
  "exportOptions": {
    "_class": "exportOptions",
    "do_objectID": "2906530C-D462-4BC4-93B5-078FFC13DFE6",
    "exportFormats": [
    ],
    "includedLayerIds": [
    ],
    "layerOptions": 0,
    "shouldTrim": false
  },
  "frame": {
    "_class": "rect",
    "constrainProportions": false,
    "do_objectID": "887028B9-47F4-45AB-A872-14C78BE9DF47",
    "height": 0.1058906030855518,
    "width": 0.1072974736410863,
    "x": 22.52749636507914,
    "y": 8.016501442319916
  },
  "hasClippingMask": false,
  "isClosed": true,
  "isFixedToViewport": false,
  "isFlippedHorizontal": false,
  "isFlippedVertical": false,
  "isLocked": false,
  "isVisible": true,
  "layerListExpandedType": 0,
  "name": "Path",
  "nameIsFixed": false,
  "pointRadiusBehaviour": 0,
  "points": [
    {
      "_class": "curvePoint",
      "cornerRadius": 0,
      "curveFrom": "{0.084895620346072259, 0.20463559511104062}",
      "curveMode": 3,
      "curveTo": "{-0.026310736002744486, 0.51627529911602255}",
      "hasCurveFrom": true,
      "hasCurveTo": true,
      "point": "{0.005462508668358298, 0.42723538368604669}"
    },
    {
      "_class": "curvePoint",
      "cornerRadius": 0,
      "curveFrom": "{1.1031524614716413, 0.29055130298209869}",
      "curveMode": 4,
      "curveTo": "{0.76121182834473788, 0.20541664700080334}",
      "hasCurveFrom": true,
      "hasCurveTo": true,
      "point": "{0.89057432450560114, 0}"
    },
    {
      "_class": "curvePoint",
      "cornerRadius": 0,
      "curveFrom": "{0.72414304289516096, 0.81229396532628273}",
      "curveMode": 4,
      "curveTo": "{0.97378996531077811, 0.45144799226789195}",
      "hasCurveFrom": true,
      "hasCurveTo": true,
      "point": "{0.77634194485480523, 0.58735102108207726}"
    },
    {
      "_class": "curvePoint",
      "cornerRadius": 0,
      "curveFrom": "{0.21198859903035439, 0.92398438555862272}",
      "curveMode": 3,
      "curveTo": "{0.43213179425144982, 1.06301162193177}",
      "hasCurveFrom": true,
      "hasCurveTo": true,
      "point": "{0.31033435634564183, 0.98568748484783553}"
    },
    {
      "_class": "curvePoint",
      "cornerRadius": 0,
      "curveFrom": "{0.084895620346072259, 0.65139727604048947}",
      "curveMode": 4,
      "curveTo": "{0.19988450582235209, 0.82869605501072274}",
      "hasCurveFrom": true,
      "hasCurveTo": true,
      "point": "{0.22560570388941073, 0.73106456879362336}"
    }
  ],
  "resizingConstraint": 63,
  "resizingType": 0,
  "rotation": 0,
  "shouldBreakMaskChain": false,
  "style": {
    "_class": "style",
    "do_objectID": "B7B8C48D-D55B-4B0A-BAC7-A774334386D8",
    "endMarkerType": 0,
    "fills": [
      {
        "_class": "fill",
        "color": {
          "_class": "color",
          "alpha": 1,
          "blue": 0.1764705882352941,
          "green": 0.1764705882352941,
          "red": 0.1764705882352941
        },
        "fillType": 0,
        "isEnabled": true,
        "noiseIndex": 0,
        "noiseIntensity": 0,
        "patternFillType": 1,
        "patternTileScale": 1
      }
    ],
    "miterLimit": 10,
    "startMarkerType": 0,
    "windingRule": 1
  }
}