{
  "_class": "shapePath",
  "booleanOperation": -1,
  "clippingMaskMode": 0,
  "do_objectID": "B7F15B8E-0A5D-4AD9-8FFF-6B5DAAE64E48",
  "edited": true,
  "exportOptions": {
    "_class": "exportOptions",
    "do_objectID": "474A9B22-6B6A-4109-A75A-2C6342D44064",
    "exportFormats": [
    ],
    "includedLayerIds": [
    ],
    "layerOptions": 0,
    "shouldTrim": false
  },
  "frame": {
    "_class": "rect",
    "constrainProportions": false,
    "do_objectID": "8D07976D-3E43-4F0B-95DF-51D6BC3CA569",
    "height": 0.105890603085566,
    "width": 0.1059863482545396,
    "x": 39.69530681745262,
    "y": 22.66645012015717
  },
  "hasClippingMask": false,
  "isClosed": true,
  "isFixedToViewport": false,
  "isFlippedHorizontal": false,
  "isFlippedVertical": false,
  "isLocked": false,
  "isVisible": true,
  "layerListExpandedType": 0,
  "name": "Path",
  "nameIsFixed": false,
  "pointRadiusBehaviour": 0,
  "points": [
    {
      "_class": "curvePoint",
      "cornerRadius": 0,
      "curveFrom": "{-0.25712574955701939, 0.51462905827190752}",
      "curveMode": 3,
      "curveTo": "{0.3218742504429315, 0.86662905827188297}",
      "hasCurveFrom": true,
      "hasCurveTo": true,
      "point": "{0.11887425044295696, 0.74462905827192571}"
    },
    {
      "_class": "curvePoint",
      "cornerRadius": 0,
      "curveFrom": "{0.93887425044295014, 0.24762905827185477}",
      "curveMode": 3,
      "curveTo": "{0.36087425044297561, -0.10937094172811612}",
      "hasCurveFrom": true,
      "hasCurveTo": true,
      "point": "{0.56487425044298334, 0.016629058271860231}"
    }
  ],
  "resizingConstraint": 63,
  "resizingType": 0,
  "rotation": 0,
  "shouldBreakMaskChain": false,
  "style": {
    "_class": "style",
    "do_objectID": "D015A81D-0A28-4689-A178-4893F7D399B3",
    "endMarkerType": 0,
    "fills": [
      {
        "_class": "fill",
        "color": {
          "_class": "color",
          "alpha": 1,
          "blue": 0.1764705882352941,
          "green": 0.1764705882352941,
          "red": 0.1764705882352941
        },
        "fillType": 0,
        "isEnabled": true,
        "noiseIndex": 0,
        "noiseIntensity": 0,
        "patternFillType": 1,
        "patternTileScale": 1
      }
    ],
    "miterLimit": 10,
    "startMarkerType": 0,
    "windingRule": 1
  }
}