{
  "_class": "shapePath",
  "booleanOperation": -1,
  "clippingMaskMode": 0,
  "do_objectID": "C01ACCC0-9E9D-445A-B92C-3B7CA3E7B330",
  "edited": true,
  "exportOptions": {
    "_class": "exportOptions",
    "do_objectID": "D91ACCDF-E9EA-4E45-8120-54DCD9ECAD11",
    "exportFormats": [
    ],
    "includedLayerIds": [
    ],
    "layerOptions": 0,
    "shouldTrim": false
  },
  "frame": {
    "_class": "rect",
    "constrainProportions": false,
    "do_objectID": "D7C6C0DA-46D1-4070-A1B4-572E503331C2",
    "height": 0.1058906030855615,
    "width": 0.1059863482545609,
    "x": 19.82582735010296,
    "y": 4.714652974939302
  },
  "hasClippingMask": false,
  "isClosed": true,
  "isFixedToViewport": false,
  "isFlippedHorizontal": false,
  "isFlippedVertical": false,
  "isLocked": false,
  "isVisible": true,
  "layerListExpandedType": 0,
  "name": "Path",
  "nameIsFixed": false,
  "pointRadiusBehaviour": 0,
  "points": [
    {
      "_class": "curvePoint",
      "cornerRadius": 0,
      "curveFrom": "{0.94082643988019754, 0.24738435041687978}",
      "curveMode": 3,
      "curveTo": "{0.36082643988018503, -0.10861564958311476}",
      "hasCurveFrom": true,
      "hasCurveTo": true,
      "point": "{0.56382643988018799, 0.016384350416885241}"
    },
    {
      "_class": "curvePoint",
      "cornerRadius": 0,
      "curveFrom": "{-0.25817356011981474, 0.51538435041685204}",
      "curveMode": 3,
      "curveTo": "{0.32182643988019777, 0.86538435041687478}",
      "hasCurveFrom": true,
      "hasCurveTo": true,
      "point": "{0.11982643988019959, 0.74338435041686068}"
    }
  ],
  "resizingConstraint": 63,
  "resizingType": 0,
  "rotation": 0,
  "shouldBreakMaskChain": false,
  "style": {
    "_class": "style",
    "do_objectID": "5FDD4538-A612-49AD-A5C3-6CC0D3FEEE03",
    "endMarkerType": 0,
    "fills": [
      {
        "_class": "fill",
        "color": {
          "_class": "color",
          "alpha": 1,
          "blue": 0.1764705882352941,
          "green": 0.1764705882352941,
          "red": 0.1764705882352941
        },
        "fillType": 0,
        "isEnabled": true,
        "noiseIndex": 0,
        "noiseIntensity": 0,
        "patternFillType": 1,
        "patternTileScale": 1
      }
    ],
    "miterLimit": 10,
    "startMarkerType": 0,
    "windingRule": 1
  }
}