{
  "_class": "shapePath",
  "booleanOperation": -1,
  "clippingMaskMode": 0,
  "do_objectID": "C2A54081-52B2-4AE5-9211-755FC9F34285",
  "edited": true,
  "exportOptions": {
    "_class": "exportOptions",
    "do_objectID": "F3B899D0-42A3-48CE-A9C2-C583B9E25850",
    "exportFormats": [
    ],
    "includedLayerIds": [
    ],
    "layerOptions": 0,
    "shouldTrim": false
  },
  "frame": {
    "_class": "rect",
    "constrainProportions": false,
    "do_objectID": "7C2BDD98-AEBE-49E0-B48E-1C0ECDB363BD",
    "height": 0.1058906030855542,
    "width": 0.1059863482545573,
    "x": 22.84085176115498,
    "y": 1.186891140840814
  },
  "hasClippingMask": false,
  "isClosed": true,
  "isFixedToViewport": false,
  "isFlippedHorizontal": false,
  "isFlippedVertical": false,
  "isLocked": false,
  "isVisible": true,
  "layerListExpandedType": 0,
  "name": "Path",
  "nameIsFixed": false,
  "pointRadiusBehaviour": 0,
  "points": [
    {
      "_class": "curvePoint",
      "cornerRadius": 0,
      "curveFrom": "{-0.30120682591945069, 0.78845790895945456}",
      "curveMode": 3,
      "curveTo": "{0.45879317408054021, 1.0654579089594414}",
      "hasCurveFrom": true,
      "hasCurveTo": true,
      "point": "{0.19479317408053021, 0.96945790895943773}"
    },
    {
      "_class": "curvePoint",
      "cornerRadius": 0,
      "curveFrom": "{1.0377931740805479, 0.18745790895945547}",
      "curveMode": 3,
      "curveTo": "{0.27479317408051429, -0.089542091040531346}",
      "hasCurveFrom": true,
      "hasCurveTo": true,
      "point": "{0.54379317408051975, 0.0074579089594486447}"
    }
  ],
  "resizingConstraint": 63,
  "resizingType": 0,
  "rotation": 0,
  "shouldBreakMaskChain": false,
  "style": {
    "_class": "style",
    "do_objectID": "107A61E3-A130-4708-B4B1-EB2831EFAB88",
    "endMarkerType": 0,
    "fills": [
      {
        "_class": "fill",
        "color": {
          "_class": "color",
          "alpha": 1,
          "blue": 0.1764705882352941,
          "green": 0.1764705882352941,
          "red": 0.1764705882352941
        },
        "fillType": 0,
        "isEnabled": true,
        "noiseIndex": 0,
        "noiseIntensity": 0,
        "patternFillType": 1,
        "patternTileScale": 1
      }
    ],
    "miterLimit": 10,
    "startMarkerType": 0,
    "windingRule": 1
  }
}