{
  "_class": "shapePath",
  "booleanOperation": -1,
  "clippingMaskMode": 0,
  "do_objectID": "C5A6C3A0-D635-45C3-883C-F6FFEBE130B3",
  "edited": true,
  "exportOptions": {
    "_class": "exportOptions",
    "do_objectID": "0ED6C80C-0806-480D-A7B9-646107693C95",
    "exportFormats": [
    ],
    "includedLayerIds": [
    ],
    "layerOptions": 0,
    "shouldTrim": false
  },
  "frame": {
    "_class": "rect",
    "constrainProportions": false,
    "do_objectID": "36EADD5D-D00B-4902-A2FF-BF7F337B33A3",
    "height": 0.1058906030855589,
    "width": 0.1059863482545618,
    "x": 4.478257010335706,
    "y": 19.82238534048418
  },
  "hasClippingMask": false,
  "isClosed": true,
  "isFixedToViewport": false,
  "isFlippedHorizontal": false,
  "isFlippedVertical": false,
  "isLocked": false,
  "isVisible": true,
  "layerListExpandedType": 0,
  "name": "Path",
  "nameIsFixed": false,
  "pointRadiusBehaviour": 0,
  "points": [
    {
      "_class": "curvePoint",
      "cornerRadius": 0,
      "curveFrom": "{1.054459172879902, 0.27618106861902447}",
      "curveMode": 4,
      "curveTo": "{0.40445917287990341, -0.11781893138098098}",
      "hasCurveFrom": true,
      "hasCurveTo": true,
      "point": "{0.63145917287990017, 0.017181068619038342}"
    },
    {
      "_class": "curvePoint",
      "cornerRadius": 0,
      "curveFrom": "{-0.28954082712009921, 0.57918106861902174}",
      "curveMode": 4,
      "curveTo": "{0.36045917287989937, 0.97518106861903675}",
      "hasCurveFrom": true,
      "hasCurveTo": true,
      "point": "{0.13445917287990028, 0.83518106861902197}"
    }
  ],
  "resizingConstraint": 63,
  "resizingType": 0,
  "rotation": 0,
  "shouldBreakMaskChain": false,
  "style": {
    "_class": "style",
    "do_objectID": "26852569-BC97-4B7A-8482-E0044FB99921",
    "endMarkerType": 0,
    "fills": [
      {
        "_class": "fill",
        "color": {
          "_class": "color",
          "alpha": 1,
          "blue": 0.1764705882352941,
          "green": 0.1764705882352941,
          "red": 0.1764705882352941
        },
        "fillType": 0,
        "isEnabled": true,
        "noiseIndex": 0,
        "noiseIntensity": 0,
        "patternFillType": 1,
        "patternTileScale": 1
      }
    ],
    "miterLimit": 10,
    "startMarkerType": 0,
    "windingRule": 1
  }
}