{
  "_class": "shapePath",
  "booleanOperation": -1,
  "clippingMaskMode": 0,
  "do_objectID": "C793CD99-3BB1-49E1-AAF0-84DCADBE6D64",
  "edited": true,
  "exportOptions": {
    "_class": "exportOptions",
    "do_objectID": "FAAA05A0-CE8F-401D-82FB-987A1B348D01",
    "exportFormats": [
    ],
    "includedLayerIds": [
    ],
    "layerOptions": 0,
    "shouldTrim": false
  },
  "frame": {
    "_class": "rect",
    "constrainProportions": false,
    "do_objectID": "D29315BC-1F57-4FAF-9813-4B22C7CD8CF8",
    "height": 0.1058906030855606,
    "width": 0.1059863482545591,
    "x": 13.50580442264763,
    "y": 5.266326594662936
  },
  "hasClippingMask": false,
  "isClosed": true,
  "isFixedToViewport": false,
  "isFlippedHorizontal": false,
  "isFlippedVertical": false,
  "isLocked": false,
  "isVisible": true,
  "layerListExpandedType": 0,
  "name": "Path",
  "nameIsFixed": false,
  "pointRadiusBehaviour": 0,
  "points": [
    {
      "_class": "curvePoint",
      "cornerRadius": 0,
      "curveFrom": "{-0.28872871678777301, 0.57681542234247729}",
      "curveMode": 3,
      "curveTo": "{0.36127128321220425, 0.97281542234243545}",
      "hasCurveFrom": true,
      "hasCurveTo": true,
      "point": "{0.13327128321222403, 0.835815422342435}"
    },
    {
      "_class": "curvePoint",
      "cornerRadius": 0,
      "curveFrom": "{1.0532712832122115, 0.27481542234245637}",
      "curveMode": 4,
      "curveTo": "{0.40627128321222017, -0.12318457765751134}",
      "hasCurveFrom": true,
      "hasCurveTo": true,
      "point": "{0.63227128321221926, 0.018815422342484567}"
    }
  ],
  "resizingConstraint": 63,
  "resizingType": 0,
  "rotation": 0,
  "shouldBreakMaskChain": false,
  "style": {
    "_class": "style",
    "do_objectID": "213C7975-38A8-47F8-B1E3-108B2D8F594F",
    "endMarkerType": 0,
    "fills": [
      {
        "_class": "fill",
        "color": {
          "_class": "color",
          "alpha": 1,
          "blue": 0.1764705882352941,
          "green": 0.1764705882352941,
          "red": 0.1764705882352941
        },
        "fillType": 0,
        "isEnabled": true,
        "noiseIndex": 0,
        "noiseIntensity": 0,
        "patternFillType": 1,
        "patternTileScale": 1
      }
    ],
    "miterLimit": 10,
    "startMarkerType": 0,
    "windingRule": 1
  }
}