{
  "_class": "shapePath",
  "booleanOperation": -1,
  "clippingMaskMode": 0,
  "do_objectID": "D52EF21B-E6B8-4923-96A5-46D27E82570D",
  "edited": true,
  "exportOptions": {
    "_class": "exportOptions",
    "do_objectID": "C739CDB5-6A62-49CD-95DA-A1E6C3BC08EC",
    "exportFormats": [
    ],
    "includedLayerIds": [
    ],
    "layerOptions": 0,
    "shouldTrim": false
  },
  "frame": {
    "_class": "rect",
    "constrainProportions": false,
    "do_objectID": "5E969F55-1DF7-4B42-B059-F7DAB5C41477",
    "height": 0.1058906030855553,
    "width": 0.1059863482545502,
    "x": 20.89120939896472,
    "y": 25.75356183581254
  },
  "hasClippingMask": false,
  "isClosed": true,
  "isFixedToViewport": false,
  "isFlippedHorizontal": false,
  "isFlippedVertical": false,
  "isLocked": false,
  "isVisible": true,
  "layerListExpandedType": 0,
  "name": "Path",
  "nameIsFixed": false,
  "pointRadiusBehaviour": 0,
  "points": [
    {
      "_class": "curvePoint",
      "cornerRadius": 0,
      "curveFrom": "{0.94069679958698771, 0.24511747678201345}",
      "curveMode": 3,
      "curveTo": "{0.36169679958697998, -0.10788252321805203}",
      "hasCurveFrom": true,
      "hasCurveTo": true,
      "point": "{0.56469679958701136, 0.016117476781971618}"
    },
    {
      "_class": "curvePoint",
      "cornerRadius": 0,
      "curveFrom": "{-0.25830320041296773, 0.51711747678194797}",
      "curveMode": 3,
      "curveTo": "{0.32069679958698316, 0.86711747678197071}",
      "hasCurveFrom": true,
      "hasCurveTo": true,
      "point": "{0.11969679958701818, 0.74511747678201345}"
    }
  ],
  "resizingConstraint": 63,
  "resizingType": 0,
  "rotation": 0,
  "shouldBreakMaskChain": false,
  "style": {
    "_class": "style",
    "do_objectID": "7EAA7012-F026-4748-9CD0-F909D92D5ECD",
    "endMarkerType": 0,
    "fills": [
      {
        "_class": "fill",
        "color": {
          "_class": "color",
          "alpha": 1,
          "blue": 0.1764705882352941,
          "green": 0.1764705882352941,
          "red": 0.1764705882352941
        },
        "fillType": 0,
        "isEnabled": true,
        "noiseIndex": 0,
        "noiseIntensity": 0,
        "patternFillType": 1,
        "patternTileScale": 1
      }
    ],
    "miterLimit": 10,
    "startMarkerType": 0,
    "windingRule": 1
  }
}