{
  "_class": "shapePath",
  "booleanOperation": -1,
  "clippingMaskMode": 0,
  "do_objectID": "D6BA97F8-133A-4695-8959-9B116A80F029",
  "edited": true,
  "exportOptions": {
    "_class": "exportOptions",
    "do_objectID": "CA3361FB-8BE0-465B-B242-408FA195D5D4",
    "exportFormats": [
    ],
    "includedLayerIds": [
    ],
    "layerOptions": 0,
    "shouldTrim": false
  },
  "frame": {
    "_class": "rect",
    "constrainProportions": false,
    "do_objectID": "343A4838-987E-4C54-90D0-93A2E1F36CC0",
    "height": 0.1058906030855624,
    "width": 0.1059863482545609,
    "x": 6.432224518263981,
    "y": 27.65532162597425
  },
  "hasClippingMask": false,
  "isClosed": true,
  "isFixedToViewport": false,
  "isFlippedHorizontal": false,
  "isFlippedVertical": false,
  "isLocked": false,
  "isVisible": true,
  "layerListExpandedType": 0,
  "name": "Path",
  "nameIsFixed": false,
  "pointRadiusBehaviour": 0,
  "points": [
    {
      "_class": "curvePoint",
      "cornerRadius": 0,
      "curveFrom": "{-0.28872871678777301, 0.57592592385555008}",
      "curveMode": 3,
      "curveTo": "{0.35927128321222312, 0.96992592385555554}",
      "hasCurveFrom": true,
      "hasCurveTo": true,
      "point": "{0.13327128321222403, 0.83192592385557873}"
    },
    {
      "_class": "curvePoint",
      "cornerRadius": 0,
      "curveFrom": "{1.0552712832122211, 0.27592592385559556}",
      "curveMode": 3,
      "curveTo": "{0.40627128321222017, -0.12007407614441945}",
      "hasCurveFrom": true,
      "hasCurveTo": true,
      "point": "{0.63227128321221926, 0.017925923855557357}"
    }
  ],
  "resizingConstraint": 63,
  "resizingType": 0,
  "rotation": 0,
  "shouldBreakMaskChain": false,
  "style": {
    "_class": "style",
    "do_objectID": "5BCF3E55-4BEE-447A-9FA9-B20F0026C42E",
    "endMarkerType": 0,
    "fills": [
      {
        "_class": "fill",
        "color": {
          "_class": "color",
          "alpha": 1,
          "blue": 0.1764705882352941,
          "green": 0.1764705882352941,
          "red": 0.1764705882352941
        },
        "fillType": 0,
        "isEnabled": true,
        "noiseIndex": 0,
        "noiseIntensity": 0,
        "patternFillType": 1,
        "patternTileScale": 1
      }
    ],
    "miterLimit": 10,
    "startMarkerType": 0,
    "windingRule": 1
  }
}