{
  "_class": "shapePath",
  "booleanOperation": -1,
  "clippingMaskMode": 0,
  "do_objectID": "E0DDB8C1-3698-49F3-BB85-11EDB4B9F5E2",
  "edited": true,
  "exportOptions": {
    "_class": "exportOptions",
    "do_objectID": "B58E29AF-DE72-43B6-9A3C-C5CCC8BBEC80",
    "exportFormats": [
    ],
    "includedLayerIds": [
    ],
    "layerOptions": 0,
    "shouldTrim": false
  },
  "frame": {
    "_class": "rect",
    "constrainProportions": false,
    "do_objectID": "C580A725-FBA9-4AFC-B33B-3B4D8C9457F7",
    "height": 0.1058906030855553,
    "width": 0.1059863482545751,
    "x": 17.92981891778777,
    "y": 34.87684402122223
  },
  "hasClippingMask": false,
  "isClosed": true,
  "isFixedToViewport": false,
  "isFlippedHorizontal": false,
  "isFlippedVertical": false,
  "isLocked": false,
  "isVisible": true,
  "layerListExpandedType": 0,
  "name": "Path",
  "nameIsFixed": false,
  "pointRadiusBehaviour": 0,
  "points": [
    {
      "_class": "curvePoint",
      "cornerRadius": 0,
      "curveFrom": "{-0.30302096142227697, 0.79088415318449279}",
      "curveMode": 4,
      "curveTo": "{0.46297903857771416, 1.0638841531845173}",
      "hasCurveFrom": true,
      "hasCurveTo": true,
      "point": "{0.19497903857771348, 0.9648841531845278}"
    },
    {
      "_class": "curvePoint",
      "cornerRadius": 0,
      "curveFrom": "{1.043979038577703, 0.1898841531844937}",
      "curveMode": 4,
      "curveTo": "{0.27897903857771666, -0.086115846815516761}",
      "hasCurveFrom": true,
      "hasCurveTo": true,
      "point": "{0.54397903857770302, 0.006884153184500974}"
    }
  ],
  "resizingConstraint": 63,
  "resizingType": 0,
  "rotation": 0,
  "shouldBreakMaskChain": false,
  "style": {
    "_class": "style",
    "do_objectID": "B7AEC13F-91B5-4286-8117-C90546040488",
    "endMarkerType": 0,
    "fills": [
      {
        "_class": "fill",
        "color": {
          "_class": "color",
          "alpha": 1,
          "blue": 0.1764705882352941,
          "green": 0.1764705882352941,
          "red": 0.1764705882352941
        },
        "fillType": 0,
        "isEnabled": true,
        "noiseIndex": 0,
        "noiseIntensity": 0,
        "patternFillType": 1,
        "patternTileScale": 1
      }
    ],
    "miterLimit": 10,
    "startMarkerType": 0,
    "windingRule": 1
  }
}