{
  "_class": "shapePath",
  "booleanOperation": -1,
  "clippingMaskMode": 0,
  "do_objectID": "FA892B6D-AE10-4907-A39A-116FCBD9F9F6",
  "edited": true,
  "exportOptions": {
    "_class": "exportOptions",
    "do_objectID": "5AE5AA65-DC50-451C-B414-907F375258D0",
    "exportFormats": [
    ],
    "includedLayerIds": [
    ],
    "layerOptions": 0,
    "shouldTrim": false
  },
  "frame": {
    "_class": "rect",
    "constrainProportions": false,
    "do_objectID": "1DB6D3D0-24B5-410C-83D3-C9D9F176D0ED",
    "height": 0.105890603085566,
    "width": 0.1391273748750379,
    "x": 38.31595502255301,
    "y": 25.14014393868685
  },
  "hasClippingMask": false,
  "isClosed": true,
  "isFixedToViewport": false,
  "isFlippedHorizontal": false,
  "isFlippedVertical": false,
  "isLocked": false,
  "isVisible": true,
  "layerListExpandedType": 0,
  "name": "Path",
  "nameIsFixed": false,
  "pointRadiusBehaviour": 0,
  "points": [
    {
      "_class": "curvePoint",
      "cornerRadius": 0,
      "curveFrom": "{0.28238039673281079, 0.55004182937710766}",
      "curveMode": 4,
      "curveTo": "{0.57234539089848036, 0.96204182937708538}",
      "hasCurveFrom": true,
      "hasCurveTo": true,
      "point": "{0.50000000000001654, 0.41504182937711676}"
    },
    {
      "_class": "curvePoint",
      "cornerRadius": 0,
      "curveFrom": "{0.21645274212370946, -0.027958170622923717}",
      "curveMode": 4,
      "curveTo": "{0.073512252042026424, 0.65004182937707355}",
      "hasCurveFrom": true,
      "hasCurveTo": true,
      "point": "{0, 0.10604182937709083}"
    },
    {
      "_class": "curvePoint",
      "cornerRadius": 0,
      "curveFrom": "{0.71586931155194478, 0.2810418293771022}",
      "curveMode": 4,
      "curveTo": "{0.4270711785297715, -0.12895817062292281}",
      "hasCurveFrom": true,
      "hasCurveTo": true,
      "point": "{0.50000000000001654, 0.41504182937711676}"
    },
    {
      "_class": "curvePoint",
      "cornerRadius": 0,
      "curveFrom": "{0.78238039673279425, 0.86004182937705309}",
      "curveMode": 4,
      "curveTo": "{0.92707117852975485, 0.18004182937710311}",
      "hasCurveFrom": true,
      "hasCurveTo": true,
      "point": "{1, 0.72704182937707174}"
    }
  ],
  "resizingConstraint": 63,
  "resizingType": 0,
  "rotation": 0,
  "shouldBreakMaskChain": false,
  "style": {
    "_class": "style",
    "do_objectID": "CF289F3E-E23F-425A-9768-760BBA098F5E",
    "endMarkerType": 0,
    "fills": [
      {
        "_class": "fill",
        "color": {
          "_class": "color",
          "alpha": 1,
          "blue": 0.1764705882352941,
          "green": 0.1764705882352941,
          "red": 0.1764705882352941
        },
        "fillType": 0,
        "isEnabled": true,
        "noiseIndex": 0,
        "noiseIntensity": 0,
        "patternFillType": 1,
        "patternTileScale": 1
      }
    ],
    "miterLimit": 10,
    "startMarkerType": 0,
    "windingRule": 1
  }
}