{
  "_class": "shapePath",
  "booleanOperation": -1,
  "clippingMaskMode": 0,
  "do_objectID": "FB2957E7-06F7-41EA-9602-62E56C246F0A",
  "edited": true,
  "exportOptions": {
    "_class": "exportOptions",
    "do_objectID": "D9EB64D2-555F-4969-80F9-AD40F8491839",
    "exportFormats": [
    ],
    "includedLayerIds": [
    ],
    "layerOptions": 0,
    "shouldTrim": false
  },
  "frame": {
    "_class": "rect",
    "constrainProportions": false,
    "do_objectID": "7C72E4B5-7766-4A77-A022-1064208FEBCA",
    "height": 0.1058906030855589,
    "width": 0.1059863482545644,
    "x": 18.24422024505071,
    "y": 13.10811023176023
  },
  "hasClippingMask": false,
  "isClosed": true,
  "isFixedToViewport": false,
  "isFlippedHorizontal": false,
  "isFlippedVertical": false,
  "isLocked": false,
  "isVisible": true,
  "layerListExpandedType": 0,
  "name": "Path",
  "nameIsFixed": false,
  "pointRadiusBehaviour": 0,
  "points": [
    {
      "_class": "curvePoint",
      "cornerRadius": 0,
      "curveFrom": "{-0.30233399857647214, 0.78746548495658431}",
      "curveMode": 3,
      "curveTo": "{0.46066600142353309, 1.0654654849565475}",
      "hasCurveFrom": true,
      "hasCurveTo": true,
      "point": "{0.19566600142351831, 0.97046548495657703}"
    },
    {
      "_class": "curvePoint",
      "cornerRadius": 0,
      "curveFrom": "{1.0416660014235219, 0.19246548495655702}",
      "curveMode": 4,
      "curveTo": "{0.27566600142353082, -0.089534515043425245}",
      "hasCurveFrom": true,
      "hasCurveTo": true,
      "point": "{0.54466600142353627, 0.0074654849565547465}"
    }
  ],
  "resizingConstraint": 63,
  "resizingType": 0,
  "rotation": 0,
  "shouldBreakMaskChain": false,
  "style": {
    "_class": "style",
    "do_objectID": "3E19EE27-D177-4B23-AEE2-542E8D30EAF3",
    "endMarkerType": 0,
    "fills": [
      {
        "_class": "fill",
        "color": {
          "_class": "color",
          "alpha": 1,
          "blue": 0.1764705882352941,
          "green": 0.1764705882352941,
          "red": 0.1764705882352941
        },
        "fillType": 0,
        "isEnabled": true,
        "noiseIndex": 0,
        "noiseIntensity": 0,
        "patternFillType": 1,
        "patternTileScale": 1
      }
    ],
    "miterLimit": 10,
    "startMarkerType": 0,
    "windingRule": 1
  }
}