{
  "_class": "symbolMaster",
  "allowsOverrides": true,
  "backgroundColor": {
    "_class": "color",
    "alpha": 1,
    "blue": 1,
    "green": 1,
    "red": 1
  },
  "booleanOperation": -1,
  "changeIdentifier": 832,
  "clippingMaskMode": 0,
  "do_objectID": "80D7C55A-B811-4803-9610-912AC08B0BDB",
  "exportOptions": {
    "_class": "exportOptions",
    "exportFormats": [
    ],
    "includedLayerIds": [
    ],
    "layerOptions": 0,
    "shouldTrim": false
  },
  "frame": {
    "_class": "rect",
    "constrainProportions": false,
    "height": 48,
    "width": 560,
    "x": 84423,
    "y": 294
  },
  "groupLayout": {
    "_class": "MSImmutableFreeformGroupLayout"
  },
  "hasBackgroundColor": false,
  "hasClickThrough": true,
  "hasClippingMask": false,
  "horizontalRulerData": {
    "_class": "rulerData",
    "base": 0,
    "guides": [
    ]
  },
  "includeBackgroundColorInExport": true,
  "includeBackgroundColorInInstance": false,
  "includeInCloudUpload": true,
  "isFixedToViewport": false,
  "isFlippedHorizontal": false,
  "isFlippedVertical": false,
  "isFlowHome": false,
  "isLocked": false,
  "isVisible": true,
  "layerListExpandedType": 2,
  "layers": [
    {
      "class": "rectangle",
      "id": "3C760C83-0CD5-4034-8628-D41537B20CB0"
    },
    {
      "class": "text",
      "id": "A6A11AAD-F723-4ADD-9E5A-EDA010F5142F"
    },
    {
      "class": "text",
      "id": "9F4364DF-6058-4F89-B1D2-30C8562ED2A9"
    },
    {
      "class": "rectangle",
      "id": "9956A52A-794C-4B98-AA22-F1BE4BA92563"
    },
    {
      "class": "symbolInstance",
      "id": "5851D8B7-86B7-4E94-9BE9-6900E8E6631E"
    },
    {
      "class": "symbolInstance",
      "id": "961F680D-1B4C-41EE-BCDF-A97AC3EE44ED"
    }
  ],
  "name": "notification / inline / warning",
  "nameIsFixed": true,
  "overrideProperties": [
    {
      "_class": "MSImmutableOverrideProperty",
      "canOverride": false,
      "overrideName": "9956A52A-794C-4B98-AA22-F1BE4BA92563_layerStyle"
    },
    {
      "_class": "MSImmutableOverrideProperty",
      "canOverride": false,
      "overrideName": "961F680D-1B4C-41EE-BCDF-A97AC3EE44ED/8E4FAAE6-F0AF-4BAA-B2D1-78C5288BB957_layerStyle"
    },
    {
      "_class": "MSImmutableOverrideProperty",
      "canOverride": false,
      "overrideName": "9F4364DF-6058-4F89-B1D2-30C8562ED2A9_textStyle"
    },
    {
      "_class": "MSImmutableOverrideProperty",
      "canOverride": false,
      "overrideName": "5851D8B7-86B7-4E94-9BE9-6900E8E6631E_symbolID"
    },
    {
      "_class": "MSImmutableOverrideProperty",
      "canOverride": false,
      "overrideName": "5851D8B7-86B7-4E94-9BE9-6900E8E6631E/CCF8AE43-8C1F-4A67-80FB-52E5D526619F_layerStyle"
    },
    {
      "_class": "MSImmutableOverrideProperty",
      "canOverride": false,
      "overrideName": "5851D8B7-86B7-4E94-9BE9-6900E8E6631E/0A00EA21-C224-4146-B3ED-A0E42D98943B_layerStyle"
    },
    {
      "_class": "MSImmutableOverrideProperty",
      "canOverride": true,
      "overrideName": "A6A11AAD-F723-4ADD-9E5A-EDA010F5142F_stringValue"
    },
    {
      "_class": "MSImmutableOverrideProperty",
      "canOverride": false,
      "overrideName": "961F680D-1B4C-41EE-BCDF-A97AC3EE44ED_symbolID"
    },
    {
      "_class": "MSImmutableOverrideProperty",
      "canOverride": false,
      "overrideName": "A6A11AAD-F723-4ADD-9E5A-EDA010F5142F_textStyle"
    },
    {
      "_class": "MSImmutableOverrideProperty",
      "canOverride": true,
      "overrideName": "9F4364DF-6058-4F89-B1D2-30C8562ED2A9_stringValue"
    },
    {
      "_class": "MSImmutableOverrideProperty",
      "canOverride": false,
      "overrideName": "3C760C83-0CD5-4034-8628-D41537B20CB0_layerStyle"
    }
  ],
  "resizesContent": true,
  "resizingConstraint": 63,
  "resizingType": 0,
  "rotation": 0,
  "shouldBreakMaskChain": true,
  "style": {
    "_class": "style",
    "endMarkerType": 0,
    "miterLimit": 10,
    "startMarkerType": 0,
    "windingRule": 1
  },
  "symbolID": "628182E1-EEFB-4090-A8A4-9A5E66299020",
  "verticalRulerData": {
    "_class": "rulerData",
    "base": 0,
    "guides": [
    ]
  }
}