{
  "_class": "symbolMaster",
  "allowsOverrides": true,
  "backgroundColor": {
    "_class": "color",
    "alpha": 1,
    "blue": 1,
    "green": 1,
    "red": 1
  },
  "booleanOperation": -1,
  "changeIdentifier": 608,
  "clippingMaskMode": 0,
  "do_objectID": "492EFCBE-C306-4BB8-A6BD-FD86D2BB94E9",
  "exportOptions": {
    "_class": "exportOptions",
    "exportFormats": [
    ],
    "includedLayerIds": [
    ],
    "layerOptions": 0,
    "shouldTrim": false
  },
  "frame": {
    "_class": "rect",
    "constrainProportions": false,
    "height": 64,
    "width": 200,
    "x": 23283,
    "y": 114
  },
  "groupLayout": {
    "_class": "MSImmutableFreeformGroupLayout"
  },
  "hasBackgroundColor": false,
  "hasClickThrough": true,
  "hasClippingMask": false,
  "horizontalRulerData": {
    "_class": "rulerData",
    "base": 0,
    "guides": [
    ]
  },
  "includeBackgroundColorInExport": true,
  "includeBackgroundColorInInstance": false,
  "includeInCloudUpload": true,
  "isFixedToViewport": false,
  "isFlippedHorizontal": false,
  "isFlippedVertical": false,
  "isFlowHome": false,
  "isLocked": false,
  "isVisible": true,
  "layerListExpandedType": 0,
  "layers": [
    {
      "class": "rectangle",
      "id": "E8A98899-D11D-49DE-906D-3DF269BA8AB8"
    },
    {
      "class": "rectangle",
      "id": "3E19987C-5BCA-43BC-B834-6C02ED465C74"
    },
    {
      "class": "text",
      "id": "442F82F4-83C8-479D-ABE2-5FF0742FF0BF"
    },
    {
      "class": "symbolInstance",
      "id": "F37FCB45-62BE-4905-8762-3B9F660A57F3"
    }
  ],
  "name": "data table / cell / 64 tall / 1 line / selectable / 02 unselected - hover",
  "nameIsFixed": true,
  "overrideProperties": [
    {
      "_class": "MSImmutableOverrideProperty",
      "canOverride": false,
      "overrideName": "F37FCB45-62BE-4905-8762-3B9F660A57F3/A19EB3DE-5561-4192-ABC4-C256708F5390_layerStyle"
    },
    {
      "_class": "MSImmutableOverrideProperty",
      "canOverride": true,
      "overrideName": "442F82F4-83C8-479D-ABE2-5FF0742FF0BF_stringValue"
    },
    {
      "_class": "MSImmutableOverrideProperty",
      "canOverride": false,
      "overrideName": "442F82F4-83C8-479D-ABE2-5FF0742FF0BF_textStyle"
    },
    {
      "_class": "MSImmutableOverrideProperty",
      "canOverride": false,
      "overrideName": "E8A98899-D11D-49DE-906D-3DF269BA8AB8_layerStyle"
    },
    {
      "_class": "MSImmutableOverrideProperty",
      "canOverride": false,
      "overrideName": "3E19987C-5BCA-43BC-B834-6C02ED465C74_layerStyle"
    },
    {
      "_class": "MSImmutableOverrideProperty",
      "canOverride": false,
      "overrideName": "F37FCB45-62BE-4905-8762-3B9F660A57F3_symbolID"
    }
  ],
  "resizesContent": true,
  "resizingConstraint": 63,
  "resizingType": 0,
  "rotation": 0,
  "shouldBreakMaskChain": true,
  "style": {
    "_class": "style",
    "endMarkerType": 0,
    "miterLimit": 10,
    "startMarkerType": 0,
    "windingRule": 1
  },
  "symbolID": "8E1F8450-3625-461B-8BD4-957BFD0C01BB",
  "verticalRulerData": {
    "_class": "rulerData",
    "base": 0,
    "guides": [
    ]
  }
}