{
  "_class": "symbolInstance",
  "booleanOperation": 0,
  "clippingMaskMode": 0,
  "do_objectID": "07B6E69F-38A7-4CD7-B9B3-2A8F65517BD0",
  "exportOptions": {
    "_class": "exportOptions",
    "do_objectID": "896792FD-C053-4E4C-A1BA-A05FA589DC0A",
    "exportFormats": [
    ],
    "includedLayerIds": [
    ],
    "layerOptions": 0,
    "shouldTrim": false
  },
  "frame": {
    "_class": "rect",
    "constrainProportions": false,
    "do_objectID": "5A5432DE-FE89-4819-8C5C-8DDE8E145F2F",
    "height": 755,
    "width": 1366,
    "x": 31,
    "y": 4726.000000000001
  },
  "hasClippingMask": false,
  "horizontalSpacing": 0,
  "isFixedToViewport": false,
  "isFlippedHorizontal": false,
  "isFlippedVertical": false,
  "isLocked": false,
  "isVisible": true,
  "layerListExpandedType": 0,
  "name": "Footer",
  "nameIsFixed": false,
  "overrideValues": [
  ],
  "resizingConstraint": 63,
  "resizingType": 0,
  "rotation": 0,
  "scale": 1,
  "shouldBreakMaskChain": false,
  "style": {
    "_class": "style",
    "do_objectID": "64FAB98B-6A64-4D6E-A74A-DE163F8ADE7B",
    "endMarkerType": 0,
    "miterLimit": 10,
    "startMarkerType": 0,
    "windingRule": 1
  },
  "symbolID": "C5E036E9-5D86-492E-938C-D5EB71A9D902",
  "verticalSpacing": 0
}