{
  "_class": "symbolMaster",
  "allowsOverrides": true,
  "backgroundColor": {
    "_class": "color",
    "alpha": 1,
    "blue": 1,
    "do_objectID": "C97B01E4-3351-4EB5-92F8-00C7C9B6B720",
    "green": 1,
    "red": 1
  },
  "booleanOperation": -1,
  "changeIdentifier": 490,
  "clippingMaskMode": 0,
  "do_objectID": "F1048F19-5F14-448D-BD1E-739B0769DA8F",
  "exportOptions": {
    "_class": "exportOptions",
    "do_objectID": "654E455E-C048-447B-B74E-4B395F7EB064",
    "exportFormats": [
    ],
    "includedLayerIds": [
    ],
    "layerOptions": 0,
    "shouldTrim": false
  },
  "frame": {
    "_class": "rect",
    "constrainProportions": false,
    "do_objectID": "441558BF-4E92-4576-8D58-0F8678A014D6",
    "height": 16,
    "width": 6,
    "x": 104957,
    "y": 66
  },
  "groupLayout": {
    "_class": "MSImmutableFreeformGroupLayout",
    "do_objectID": "F5D9E2FD-DA78-43B0-A223-A5B73842C95D"
  },
  "hasBackgroundColor": false,
  "hasClickThrough": true,
  "hasClippingMask": false,
  "horizontalRulerData": {
    "_class": "rulerData",
    "base": 0,
    "do_objectID": "9B95250F-6EDC-43BD-AF73-55F656ECF4BC",
    "guides": [
    ]
  },
  "includeBackgroundColorInExport": true,
  "includeBackgroundColorInInstance": false,
  "includeInCloudUpload": true,
  "isFixedToViewport": false,
  "isFlippedHorizontal": false,
  "isFlippedVertical": false,
  "isFlowHome": false,
  "isLocked": false,
  "isVisible": true,
  "layerListExpandedType": 0,
  "layers": [
    {
      "class": "rectangle",
      "id": "80630A37-2946-48F8-87F9-C29B4F59E5A9"
    }
  ],
  "name": "utilities / spacer / horizontal / 6 / on",
  "nameIsFixed": true,
  "overrideProperties": [
  ],
  "resizesContent": true,
  "resizingConstraint": 63,
  "resizingType": 0,
  "rotation": 0,
  "shouldBreakMaskChain": true,
  "style": {
    "_class": "style",
    "do_objectID": "C16AC7B7-995C-4D27-95B7-BD7997139093",
    "endMarkerType": 0,
    "miterLimit": 10,
    "startMarkerType": 0,
    "windingRule": 1
  },
  "symbolID": "C3B288E3-63DE-4BB2-8077-274524CFE203",
  "verticalRulerData": {
    "_class": "rulerData",
    "base": 0,
    "do_objectID": "971FDC19-0804-40E3-87B8-653110F9C7F4",
    "guides": [
    ]
  }
}