{
  "_class": "shapePath",
  "booleanOperation": -1,
  "clippingMaskMode": 0,
  "do_objectID": "8310AAFD-0960-4F3A-A6FD-C7F45CAA3917",
  "edited": true,
  "exportOptions": {
    "_class": "exportOptions",
    "exportFormats": [
    ],
    "includedLayerIds": [
    ],
    "layerOptions": 0,
    "shouldTrim": false
  },
  "frame": {
    "_class": "rect",
    "constrainProportions": false,
    "height": 14.43002028397566,
    "width": 14.32048681541582,
    "x": 0.8032454361054777,
    "y": 4.750507099391479
  },
  "hasClippingMask": false,
  "isClosed": true,
  "isFixedToViewport": false,
  "isFlippedHorizontal": false,
  "isFlippedVertical": false,
  "isLocked": false,
  "isVisible": true,
  "layerListExpandedType": 0,
  "maintainScrollPosition": false,
  "name": "Path",
  "nameIsFixed": false,
  "pointRadiusBehaviour": 1,
  "points": [
    {
      "_class": "curvePoint",
      "cornerRadius": 0,
      "curveFrom": "{0.92124645892351276, 7.9903596936755712e-17}",
      "curveMode": 1,
      "curveTo": "{0.92124645892351276, 7.9903596936755712e-17}",
      "hasCurveFrom": false,
      "hasCurveTo": false,
      "point": "{0.92124645892351276, 7.9903596936755712e-17}"
    },
    {
      "_class": "curvePoint",
      "cornerRadius": 0,
      "curveFrom": "{0.99915014164305949, 0.9465842001686815}",
      "curveMode": 4,
      "curveTo": "{1, 0.88051728985099798}",
      "hasCurveFrom": true,
      "hasCurveTo": false,
      "point": "{1, 0.88051728985099798}"
    },
    {
      "_class": "curvePoint",
      "cornerRadius": 0,
      "curveFrom": "{0.85439093484419271, 1}",
      "curveMode": 4,
      "curveTo": "{0.93427762039660056, 1}",
      "hasCurveFrom": false,
      "hasCurveTo": true,
      "point": "{0.85439093484419271, 1}"
    },
    {
      "_class": "curvePoint",
      "cornerRadius": 0,
      "curveFrom": "{0.065722379603399439, 1}",
      "curveMode": 4,
      "curveTo": "{0.14560906515580738, 1}",
      "hasCurveFrom": true,
      "hasCurveTo": false,
      "point": "{0.14560906515580738, 1}"
    },
    {
      "_class": "curvePoint",
      "cornerRadius": 0,
      "curveFrom": "{0, 0.88051728985099798}",
      "curveMode": 4,
      "curveTo": "{0.00084985835694054211, 0.9465842001686815}",
      "hasCurveFrom": false,
      "hasCurveTo": true,
      "point": "{0, 0.88051728985099798}"
    },
    {
      "_class": "curvePoint",
      "cornerRadius": 0,
      "curveFrom": "{0.078753541076487243, 0}",
      "curveMode": 1,
      "curveTo": "{0.078753541076487243, 0}",
      "hasCurveFrom": false,
      "hasCurveTo": false,
      "point": "{0.078753541076487243, 0}"
    },
    {
      "_class": "curvePoint",
      "cornerRadius": 0,
      "curveFrom": "{0.23087818696883852, 0}",
      "curveMode": 1,
      "curveTo": "{0.23087818696883852, 0}",
      "hasCurveFrom": false,
      "hasCurveTo": false,
      "point": "{0.23087818696883852, 0}"
    },
    {
      "_class": "curvePoint",
      "cornerRadius": 0,
      "curveFrom": "{0.23087818696883852, 0.14422265954456007}",
      "curveMode": 4,
      "curveTo": "{0.23087818696883852, 0.12876019117233628}",
      "hasCurveFrom": true,
      "hasCurveTo": false,
      "point": "{0.23087818696883852, 0.12876019117233628}"
    },
    {
      "_class": "curvePoint",
      "cornerRadius": 0,
      "curveFrom": "{0.27450424929178474, 0.1565926342423391}",
      "curveMode": 2,
      "curveTo": "{0.24334277620396602, 0.1565926342423391}",
      "hasCurveFrom": true,
      "hasCurveTo": true,
      "point": "{0.2589235127478754, 0.1565926342423391}"
    },
    {
      "_class": "curvePoint",
      "cornerRadius": 0,
      "curveFrom": "{0.28696883852691224, 0.12876019117233628}",
      "curveMode": 4,
      "curveTo": "{0.28696883852691224, 0.14422265954456007}",
      "hasCurveFrom": false,
      "hasCurveTo": true,
      "point": "{0.28696883852691224, 0.12876019117233628}"
    },
    {
      "_class": "curvePoint",
      "cornerRadius": 0,
      "curveFrom": "{0.28696883852691224, 3.9951798468377856e-17}",
      "curveMode": 1,
      "curveTo": "{0.28696883852691224, 3.9951798468377856e-17}",
      "hasCurveFrom": false,
      "hasCurveTo": false,
      "point": "{0.28696883852691224, 3.9951798468377856e-17}"
    },
    {
      "_class": "curvePoint",
      "cornerRadius": 0,
      "curveFrom": "{0.71303116147308798, 3.9951798468377856e-17}",
      "curveMode": 1,
      "curveTo": "{0.71303116147308798, 3.9951798468377856e-17}",
      "hasCurveFrom": false,
      "hasCurveTo": false,
      "point": "{0.71303116147308798, 3.9951798468377856e-17}"
    },
    {
      "_class": "curvePoint",
      "cornerRadius": 0,
      "curveFrom": "{0.71303116147308798, 0.14422265954456007}",
      "curveMode": 4,
      "curveTo": "{0.71303116147308798, 0.12876019117233628}",
      "hasCurveFrom": true,
      "hasCurveTo": false,
      "point": "{0.71303116147308798, 0.12876019117233628}"
    },
    {
      "_class": "curvePoint",
      "cornerRadius": 0,
      "curveFrom": "{0.75665722379603406, 0.1565926342423391}",
      "curveMode": 2,
      "curveTo": "{0.72549575070821537, 0.1565926342423391}",
      "hasCurveFrom": true,
      "hasCurveTo": true,
      "point": "{0.74107648725212472, 0.1565926342423391}"
    },
    {
      "_class": "curvePoint",
      "cornerRadius": 0,
      "curveFrom": "{0.76912181303116145, 0.12876019117233628}",
      "curveMode": 4,
      "curveTo": "{0.76912181303116145, 0.14422265954456007}",
      "hasCurveFrom": false,
      "hasCurveTo": true,
      "point": "{0.76912181303116145, 0.12876019117233628}"
    },
    {
      "_class": "curvePoint",
      "cornerRadius": 0,
      "curveFrom": "{0.76912181303116145, 3.9951798468377856e-17}",
      "curveMode": 1,
      "curveTo": "{0.76912181303116145, 3.9951798468377856e-17}",
      "hasCurveFrom": false,
      "hasCurveTo": false,
      "point": "{0.76912181303116145, 3.9951798468377856e-17}"
    },
    {
      "_class": "curvePoint",
      "cornerRadius": 0,
      "curveFrom": "{0.92124645892351276, 7.9903596936755712e-17}",
      "curveMode": 1,
      "curveTo": "{0.92124645892351276, 7.9903596936755712e-17}",
      "hasCurveFrom": false,
      "hasCurveTo": false,
      "point": "{0.92124645892351276, 7.9903596936755712e-17}"
    }
  ],
  "resizingConstraint": 63,
  "resizingType": 0,
  "rotation": 0,
  "shouldBreakMaskChain": false,
  "style": {
    "_class": "style",
    "blur": {
      "_class": "blur",
      "center": "{0.5, 0.5}",
      "isEnabled": false,
      "motionAngle": 0,
      "radius": 10,
      "saturation": 1,
      "type": 0
    },
    "borderOptions": {
      "_class": "borderOptions",
      "dashPattern": [
      ],
      "isEnabled": true,
      "lineCapStyle": 0,
      "lineJoinStyle": 0
    },
    "borders": [
    ],
    "colorControls": {
      "_class": "colorControls",
      "brightness": 0,
      "contrast": 1,
      "hue": 0,
      "isEnabled": false,
      "saturation": 1
    },
    "contextSettings": {
      "_class": "graphicsContextSettings",
      "blendMode": 0,
      "opacity": 1
    },
    "do_objectID": "309B0FD5-E512-46F1-8810-A2F8E2F04CD3",
    "endMarkerType": 0,
    "fills": [
      {
        "_class": "fill",
        "color": {
          "_class": "color",
          "alpha": 1,
          "blue": 0.2902374565601349,
          "green": 0.2901752889156342,
          "red": 0.290221631526947
        },
        "contextSettings": {
          "_class": "graphicsContextSettings",
          "blendMode": 0,
          "opacity": 1
        },
        "fillType": 0,
        "gradient": {
          "_class": "gradient",
          "elipseLength": 0,
          "from": "{0.5, 0}",
          "gradientType": 0,
          "stops": [
            {
              "_class": "gradientStop",
              "color": {
                "_class": "color",
                "alpha": 1,
                "blue": 1,
                "green": 1,
                "red": 1
              },
              "position": 0
            },
            {
              "_class": "gradientStop",
              "color": {
                "_class": "color",
                "alpha": 1,
                "blue": 0,
                "green": 0,
                "red": 0
              },
              "position": 1
            }
          ],
          "to": "{0.5, 1}"
        },
        "isEnabled": true,
        "noiseIndex": 0,
        "noiseIntensity": 0,
        "patternFillType": 1,
        "patternTileScale": 1
      }
    ],
    "innerShadows": [
    ],
    "miterLimit": 10,
    "shadows": [
    ],
    "startMarkerType": 0,
    "windingRule": 0
  }
}