{
  "_class": "symbolInstance",
  "booleanOperation": -1,
  "clippingMaskMode": 0,
  "do_objectID": "57163282-02DB-4C83-AEA1-CC47DF0CED97",
  "exportOptions": {
    "_class": "exportOptions",
    "exportFormats": [
    ],
    "includedLayerIds": [
    ],
    "layerOptions": 0,
    "shouldTrim": false
  },
  "frame": {
    "_class": "rect",
    "constrainProportions": false,
    "height": 16,
    "width": 16,
    "x": 256,
    "y": 12
  },
  "hasClippingMask": false,
  "horizontalSpacing": 0,
  "isFixedToViewport": false,
  "isFlippedHorizontal": false,
  "isFlippedVertical": false,
  "isLocked": true,
  "isVisible": true,
  "layerListExpandedType": 1,
  "name": "error icon",
  "nameIsFixed": true,
  "overrideValues": [
    {
      "_class": "overrideValue",
      "overrideName": "05F26ECE-D8C0-4F06-911B-84E5ED35E9DC_layerStyle",
      "value": "810F6A2B-A415-4D1A-9843-73D01D2B7B49"
    },
    {
      "_class": "overrideValue",
      "overrideName": "3BB1E70A-AC1A-4444-926A-231E4FF23391_layerStyle",
      "value": "A6450B60-7F61-423B-AA75-F38229D69136"
    }
  ],
  "resizingConstraint": 12,
  "resizingType": 0,
  "rotation": 0,
  "scale": 1,
  "shouldBreakMaskChain": false,
  "style": {
    "_class": "style",
    "endMarkerType": 0,
    "miterLimit": 10,
    "startMarkerType": 0,
    "windingRule": 1
  },
  "symbolID": "B9FBD409-C3D6-4FB8-8352-42D85AE4E825",
  "verticalSpacing": 0
}