{
  "_class": "shapePath",
  "booleanOperation": -1,
  "clippingMaskMode": 0,
  "do_objectID": "C7E75A0E-97F0-49EA-BA88-A99A353AD18B",
  "edited": true,
  "exportOptions": {
    "_class": "exportOptions",
    "exportFormats": [
    ],
    "includedLayerIds": [
    ],
    "layerOptions": 0,
    "shouldTrim": false
  },
  "frame": {
    "_class": "rect",
    "constrainProportions": false,
    "height": 13.25494680851064,
    "width": 6.926249999999996,
    "x": 57.7805125,
    "y": 7.882769503546101
  },
  "hasClippingMask": false,
  "isClosed": false,
  "isFixedToViewport": false,
  "isFlippedHorizontal": false,
  "isFlippedVertical": false,
  "isLocked": false,
  "isVisible": true,
  "layerListExpandedType": 0,
  "maintainScrollPosition": false,
  "name": "Fill 1",
  "nameIsFixed": false,
  "pointRadiusBehaviour": 1,
  "points": [
    {
      "_class": "curvePoint",
      "cornerRadius": 0,
      "curveFrom": "{0.71691030499909791, 0}",
      "curveMode": 4,
      "curveTo": "{0.85805811225410655, 0}",
      "hasCurveFrom": true,
      "hasCurveTo": false,
      "point": "{0.85805811225410655, 0}"
    },
    {
      "_class": "curvePoint",
      "cornerRadius": 0,
      "curveFrom": "{0.40241833604042621, 0.091257245053700101}",
      "curveMode": 2,
      "curveTo": "{0.59759971124345823, 0.01830575765236863}",
      "hasCurveFrom": true,
      "hasCurveTo": true,
      "point": "{0.49998195271611667, 0.054870455162598329}"
    },
    {
      "_class": "curvePoint",
      "cornerRadius": 0,
      "curveFrom": "{0.25457498646453713, 0.18638163993370602}",
      "curveMode": 4,
      "curveTo": "{0.322288395596463, 0.13849639971160235}",
      "hasCurveFrom": true,
      "hasCurveTo": true,
      "point": "{0.26038621187511291, 0.19608228695562613}"
    },
    {
      "_class": "curvePoint",
      "cornerRadius": 0,
      "curveFrom": "{0.24842086266016955, 0.096847289717875873}",
      "curveMode": 2,
      "curveTo": "{0.25118209709438755, 0.1644428214275683}",
      "hasCurveFrom": true,
      "hasCurveTo": true,
      "point": "{0.24995488179029113, 0.13066846446997588}"
    },
    {
      "_class": "curvePoint",
      "cornerRadius": 0,
      "curveFrom": "{0.24363833243096927, 0.025440789535286695}",
      "curveMode": 4,
      "curveTo": "{0.24674246525897914, 0.061827579426388467}",
      "hasCurveFrom": false,
      "hasCurveTo": true,
      "point": "{0.24363833243096927, 0.025440789535286695}"
    },
    {
      "_class": "curvePoint",
      "cornerRadius": 0,
      "curveFrom": "{0, 0.03803477625776016}",
      "curveMode": 4,
      "curveTo": "{0, 0.025440789535286695}",
      "hasCurveFrom": true,
      "hasCurveTo": false,
      "point": "{0, 0.025440789535286695}"
    },
    {
      "_class": "curvePoint",
      "cornerRadius": 0,
      "curveFrom": "{0.0068940624436023322, 0.10221260896841669}",
      "curveMode": 4,
      "curveTo": "{0.0011550261685620178, 0.055731902581533176}",
      "hasCurveFrom": true,
      "hasCurveTo": true,
      "point": "{0.0038621187511279327, 0.07901907356948222}"
    },
    {
      "_class": "curvePoint",
      "cornerRadius": 0,
      "curveFrom": "{0.011405883414546208, 0.1807541410339242}",
      "curveMode": 4,
      "curveTo": "{0.0089153582385856061, 0.1272788561476445}",
      "hasCurveFrom": true,
      "hasCurveTo": true,
      "point": "{0.0098718642844256594, 0.15396499901682642}"
    },
    {
      "_class": "curvePoint",
      "cornerRadius": 0,
      "curveFrom": "{0.018823317090777964, 0.25919267395151563}",
      "curveMode": 2,
      "curveTo": "{0.013788124887204664, 0.20718746781276637}",
      "hasCurveFrom": true,
      "hasCurveTo": true,
      "point": "{0.016368886482585086, 0.23297470902740713}"
    },
    {
      "_class": "curvePoint",
      "cornerRadius": 0,
      "curveFrom": "{0.020267099801479716, 0.29969006620036143}",
      "curveMode": 4,
      "curveTo": "{0.020267099801479716, 0.28124385516447092}",
      "hasCurveFrom": false,
      "hasCurveTo": true,
      "point": "{0.020267099801479716, 0.29969006620036143}"
    },
    {
      "_class": "curvePoint",
      "cornerRadius": 0,
      "curveFrom": "{0.020267099801479716, 1}",
      "curveMode": 1,
      "curveTo": "{0.020267099801479716, 1}",
      "hasCurveFrom": false,
      "hasCurveTo": false,
      "point": "{0.020267099801479716, 1}"
    },
    {
      "_class": "curvePoint",
      "cornerRadius": 0,
      "curveFrom": "{0.26406785778740322, 1}",
      "curveMode": 1,
      "curveTo": "{0.26406785778740322, 1}",
      "hasCurveFrom": false,
      "hasCurveTo": false,
      "point": "{0.26406785778740322, 1}"
    },
    {
      "_class": "curvePoint",
      "cornerRadius": 0,
      "curveFrom": "{0.26406785778740322, 0.42034888620466865}",
      "curveMode": 4,
      "curveTo": "{0.26406785778740322, 0.46831839845688539}",
      "hasCurveFrom": true,
      "hasCurveTo": false,
      "point": "{0.26406785778740322, 0.46831839845688539}"
    },
    {
      "_class": "curvePoint",
      "cornerRadius": 0,
      "curveFrom": "{0.32524815015340197, 0.29296703090910803}",
      "curveMode": 2,
      "curveTo": "{0.27626782169283526, 0.37573152803917725}",
      "hasCurveFrom": true,
      "hasCurveTo": true,
      "point": "{0.30081212777477018, 0.33431650701798749}"
    },
    {
      "_class": "curvePoint",
      "cornerRadius": 0,
      "curveFrom": "{0.46298502075437664, 0.19472457091491327}",
      "curveMode": 2,
      "curveTo": "{0.36235336581844507, 0.25670196728372513}",
      "hasCurveFrom": true,
      "hasCurveTo": true,
      "point": "{0.4125248150153405, 0.22563367884865687}"
    },
    {
      "_class": "curvePoint",
      "cornerRadius": 0,
      "curveFrom": "{0.68119473019310639, 0.13536897103851225}",
      "curveMode": 2,
      "curveTo": "{0.5267821692835235, 0.17066022453814245}",
      "hasCurveFrom": true,
      "hasCurveTo": true,
      "point": "{0.60355531492510484, 0.1529350075376649}"
    },
    {
      "_class": "curvePoint",
      "cornerRadius": 0,
      "curveFrom": "{0.90795885219274663, 0.12669831549575369}",
      "curveMode": 3,
      "curveTo": "{0.7723515610900562, 0.12669831549575369}",
      "hasCurveFrom": true,
      "hasCurveTo": true,
      "point": "{0.87828911748781857, 0.12669831549575369}"
    },
    {
      "_class": "curvePoint",
      "cornerRadius": 0,
      "curveFrom": "{0.97177404800577571, 0.13504124647696095}",
      "curveMode": 4,
      "curveTo": "{0.9390904168922577, 0.12941374757717911}",
      "hasCurveFrom": false,
      "hasCurveTo": true,
      "point": "{0.97177404800577571, 0.13504124647696095}"
    },
    {
      "_class": "curvePoint",
      "cornerRadius": 0,
      "curveFrom": "{0.97541959935029843, 0.00761257338689278}",
      "curveMode": 4,
      "curveTo": "{1, 0.010487185969643384}",
      "hasCurveFrom": true,
      "hasCurveTo": false,
      "point": "{1, 0.010487185969643384}"
    },
    {
      "_class": "curvePoint",
      "cornerRadius": 0,
      "curveFrom": "{0.90584731997834345, 0.00088953809563938004}",
      "curveMode": 4,
      "curveTo": "{0.95221079227576411, 0.005262320102624716}",
      "hasCurveFrom": true,
      "hasCurveTo": true,
      "point": "{0.9289478433495777, 0.0032397913799077096}"
    },
    {
      "_class": "curvePoint",
      "cornerRadius": 0,
      "curveFrom": "{0.85805811225410655, 0}",
      "curveMode": 4,
      "curveTo": "{0.88218733080671419, 0}",
      "hasCurveFrom": false,
      "hasCurveTo": true,
      "point": "{0.85805811225410655, 0}"
    }
  ],
  "resizingConstraint": 63,
  "resizingType": 0,
  "rotation": 0,
  "shouldBreakMaskChain": false,
  "style": {
    "_class": "style",
    "blur": {
      "_class": "blur",
      "center": "{0.5, 0.5}",
      "isEnabled": false,
      "motionAngle": 0,
      "radius": 10,
      "saturation": 1,
      "type": 0
    },
    "borderOptions": {
      "_class": "borderOptions",
      "dashPattern": [
      ],
      "isEnabled": true,
      "lineCapStyle": 0,
      "lineJoinStyle": 0
    },
    "borders": [
    ],
    "colorControls": {
      "_class": "colorControls",
      "brightness": 0,
      "contrast": 1,
      "hue": 0,
      "isEnabled": false,
      "saturation": 1
    },
    "contextSettings": {
      "_class": "graphicsContextSettings",
      "blendMode": 0,
      "opacity": 1
    },
    "do_objectID": "B0636F49-7F10-4BA6-BAF8-D43948223740",
    "endMarkerType": 0,
    "fills": [
      {
        "_class": "fill",
        "color": {
          "_class": "color",
          "alpha": 1,
          "blue": 0.1252310872077942,
          "green": 0.1220022812485695,
          "red": 0.1366096138954163
        },
        "contextSettings": {
          "_class": "graphicsContextSettings",
          "blendMode": 0,
          "opacity": 1
        },
        "fillType": 0,
        "gradient": {
          "_class": "gradient",
          "elipseLength": 0,
          "from": "{0.5, 0}",
          "gradientType": 0,
          "stops": [
            {
              "_class": "gradientStop",
              "color": {
                "_class": "color",
                "alpha": 1,
                "blue": 1,
                "green": 1,
                "red": 1
              },
              "position": 0
            },
            {
              "_class": "gradientStop",
              "color": {
                "_class": "color",
                "alpha": 1,
                "blue": 0,
                "green": 0,
                "red": 0
              },
              "position": 1
            }
          ],
          "to": "{0.5, 1}"
        },
        "isEnabled": true,
        "noiseIndex": 0,
        "noiseIntensity": 0,
        "patternFillType": 1,
        "patternTileScale": 1
      }
    ],
    "innerShadows": [
    ],
    "miterLimit": 10,
    "shadows": [
    ],
    "startMarkerType": 0,
    "windingRule": 1
  }
}