{
  "_class": "group",
  "booleanOperation": -1,
  "clippingMaskMode": 0,
  "do_objectID": "DF5152BD-A887-4DE7-BA13-84D1183FBA4F",
  "exportOptions": {
    "_class": "exportOptions",
    "exportFormats": [
    ],
    "includedLayerIds": [
    ],
    "layerOptions": 0,
    "shouldTrim": false
  },
  "frame": {
    "_class": "rect",
    "constrainProportions": false,
    "height": 67,
    "width": 683,
    "x": 349,
    "y": 158
  },
  "groupLayout": {
    "_class": "MSImmutableFreeformGroupLayout"
  },
  "hasClickThrough": false,
  "hasClippingMask": false,
  "isFixedToViewport": false,
  "isFlippedHorizontal": false,
  "isFlippedVertical": false,
  "isLocked": false,
  "isVisible": true,
  "layerListExpandedType": 0,
  "layers": [
    {
      "class": "symbolInstance",
      "id": "5E02FDFF-18D0-4228-B591-7BEE4FD851E0"
    },
    {
      "class": "symbolInstance",
      "id": "7DAD8FB1-648C-4F76-B932-D2B5A50E74D2"
    },
    {
      "class": "symbolInstance",
      "id": "C79AC023-4E53-4003-8244-59F26D585144"
    },
    {
      "class": "symbolInstance",
      "id": "22D393A6-F7BE-4592-A4E9-C33433BCC750"
    },
    {
      "class": "shapePath",
      "id": "8ED188BA-E100-4A30-9C25-44A050B533DA"
    },
    {
      "class": "shapePath",
      "id": "0BBF75CB-33C5-4775-920F-892D522A0365"
    },
    {
      "class": "shapePath",
      "id": "813AE24A-5F2C-4173-BE6B-5788EAED9222"
    }
  ],
  "maintainScrollPosition": false,
  "name": "m-checkouttracker",
  "nameIsFixed": false,
  "resizingConstraint": 63,
  "resizingType": 0,
  "rotation": 0,
  "shouldBreakMaskChain": false,
  "style": {
    "_class": "style",
    "blur": {
      "_class": "blur",
      "center": "{0.5, 0.5}",
      "isEnabled": false,
      "motionAngle": 0,
      "radius": 10,
      "saturation": 1,
      "type": 0
    },
    "borderOptions": {
      "_class": "borderOptions",
      "dashPattern": [
      ],
      "isEnabled": true,
      "lineCapStyle": 0,
      "lineJoinStyle": 0
    },
    "borders": [
    ],
    "colorControls": {
      "_class": "colorControls",
      "brightness": 0,
      "contrast": 1,
      "hue": 0,
      "isEnabled": true,
      "saturation": 1
    },
    "contextSettings": {
      "_class": "graphicsContextSettings",
      "blendMode": 0,
      "opacity": 1
    },
    "do_objectID": "7970B065-9649-4D0D-BD17-76B822B38A0A",
    "endMarkerType": 0,
    "fills": [
    ],
    "innerShadows": [
    ],
    "miterLimit": 10,
    "shadows": [
    ],
    "startMarkerType": 0,
    "windingRule": 1
  }
}